Timestep  Iteration  resNorm(0)  resNorm(1)  resNorm(2)  resNorm(3)  resNorm(4)  resNorm(5)  resNorm(6)  resNorm(7)  
1  1  0.0387601828406750  0.0597210096261987  0.0939599703858746  1.0000000000000000  1.0000000000000000  1.0000000000000000  1.0000000000000000  1.0000000000000000  
1  2  0.0404288144353803  0.0604406868162644  0.1054116223667960  0.4954580249806791  0.5956462799834294  0.7621075790695284  0.9035775497856705  1.0297550071894630  
1  3  0.0054716170593129  0.0012020098863372  0.0012870151255173  0.3294122546063096  0.3132102452016198  0.3488063343469950  0.4438044877564188  0.6885616830552063  
1  4  0.0005067632651899  0.0007586577022820  0.0013226191559156  0.0852815100752218  0.0172080891117224  0.0349336807541700  0.0385786223895462  0.0325939300939381  
1  5  0.0001190736017826  0.0002536692862303  0.0002850934806379  0.0097517963448951  0.0055565529566177  0.0106192526320553  0.0141487791246343  0.0147882803103878  
1  6  0.0000144475014221  0.0000144097091992  0.0000197911670607  0.0027427185436759  0.0022208134064167  0.0029436862631215  0.0033396011173043  0.0048047217789004  
1  7  0.0000013627209871  0.0000020088334536  0.0000021667775435  0.0002703740592081  0.0002087717504696  0.0002989331251835  0.0003436520421276  0.0004573515450619  
1  8  0.0000001417243709  0.0000001895423780  0.0000002597374815  0.0000245987126138  0.0000223510092725  0.0000382636526886  0.0000457265583295  0.0000488023967147  
1  9  0.0000000141104163  0.0000000221246464  0.0000000306715654  0.0000029241741126  0.0000028486125945  0.0000039163263570  0.0000048029598986  0.0000062335004975  
1  10  0.0000000016423729  0.0000000026552551  0.0000000040446129  0.0000003335248745  0.0000003597098980  0.0000004952193456  0.0000006037823852  0.0000007675763471  
1  11  0.0000000011713438  0.0000000018433967  0.0000000027060538  0.0000000718958201  0.0000000807383253  0.0000001036457761  0.0000001262034240  0.0000001667426350  
1  12  0.0000000001369364  0.0000000002549025  0.0000000003565569  0.0000000284593099  0.0000000325976245  0.0000000460098675  0.0000000558551354  0.0000000680214109  
1  13  0.0000000000194983  0.0000000000379457  0.0000000000524810  0.0000000035980072  0.0000000043718792  0.0000000064113968  0.0000000078020104  0.0000000091567081  
1  14  0.0000000000028686  0.0000000000055549  0.0000000000078054  0.0000000005163379  0.0000000006252936  0.0000000009514702  0.0000000011558147  0.0000000013385387  
1  15  0.0000000000004083  0.0000000000008318  0.0000000000011432  0.0000000000769191  0.0000000000913498  0.0000000001418829  0.0000000001716816  0.0000000001981144  
1  16  0.0000000000000633  0.0000000000001220  0.0000000000001672  0.0000000000111100  0.0000000000133934  0.0000000000218671  0.0000000000263764  0.0000000000293023  
1  17  0.0000000000000063  0.0000000000000153  0.0000000000000169  0.0000000000017769  0.0000000000020659  0.0000000000031231  0.0000000000037362  0.0000000000044090  
1  18  0.0000000000000006  0.0000000000000022  0.0000000000000025  0.0000000000002492  0.0000000000001766  0.0000000000003819  0.0000000000004022  0.0000000000004017  
2  1  0.0761337495213925  0.0892804891924742  0.0882220259010119  1.8554999529817073  1.1847872162750477  1.1543902947139586  1.0243359025291703  1.1100805691850466  
2  2  0.0086900105741258  0.0258088597419046  0.0235844234124884  1.1724529830465278  1.1620671875456563  1.0602178731402596  1.0407793984418579  1.3567120903145047  
2  3  0.0031416525281971  0.0185384412614419  0.0240963469198678  0.2623063309448009  0.2006579686531108  0.6344747224746304  0.2759624092405484  0.5963706762221476  
2  4  0.0014184455245357  0.0011610624331284  0.0016339473795686  0.0819294095498109  0.0848512877355235  0.2319235516224307  0.1257727683561209  0.3768127024065385  
2  5  0.0000926704122357  0.0001002605677356  0.0001523149300663  0.0211596214959215  0.0058384029284761  0.0156016324384324  0.0152920937212859  0.0189827025685506  
2  6  0.0000064507342334  0.0000106116336140  0.0000120590788976  0.0014274907429297  0.0010665398443365  0.0016310641320790  0.0015828365316026  0.0031838720035327  
2  7  0.0000007702350369  0.0000009163021894  0.0000014554077672  0.0001223778897217  0.0000753683757852  0.0001771240945525  0.0001795722292507  0.0002914827995751  
2  8  0.0000000672918411  0.0000001380135230  0.0000001803460289  0.0000129217533867  0.0000093514078343  0.0000193912603090  0.0000212429061579  0.0000330529997089  
2  9  0.0000000151995845  0.0000000304958172  0.0000000421245019  0.0000014445811792  0.0000014502750592  0.0000030000889594  0.0000033836742093  0.0000047961078630  
2  10  0.0000000039555858  0.0000000073993803  0.0000000104635999  0.0000002890005377  0.0000003007360929  0.0000006564556716  0.0000007789130057  0.0000009835986804  
2  11  0.0000000004398240  0.0000000011650255  0.0000000015582465  0.0000000766648641  0.0000000864180891  0.0000001653189192  0.0000001908923808  0.0000002601057958  
2  12  0.0000000000975301  0.0000000002464802  0.0000000003085234  0.0000000110208905  0.0000000140592671  0.0000000286796174  0.0000000319438199  0.0000000423724745  
2  13  0.0000000000273357  0.0000000000606608  0.0000000000670542  0.0000000020140269  0.0000000029476783  0.0000000063041839  0.0000000074037728  0.0000000084024306  
2  14  0.0000000000055348  0.0000000000141922  0.0000000000172121  0.0000000005138119  0.0000000006041273  0.0000000013357919  0.0000000015429638  0.0000000017818639  
2  15  0.0000000000006615  0.0000000000018152  0.0000000000027215  0.0000000001087679  0.0000000001586162  0.0000000003213065  0.0000000003580361  0.0000000004143886  
2  16  0.0000000000000922  0.0000000000002690  0.0000000000003972  0.0000000000193284  0.0000000000183214  0.0000000000387609  0.0000000000472931  0.0000000000716447  
2  17  0.0000000000000123  0.0000000000000388  0.0000000000000626  0.0000000000022986  0.0000000000023128  0.0000000000059920  0.0000000000066214  0.0000000000098020  
2  18  0.0000000000000018  0.0000000000000050  0.0000000000000052  0.0000000000002879  0.0000000000003417  0.0000000000008247  0.0000000000009736  0.0000000000016657  
2  19  0.0000000000000007  0.0000000000000005  0.0000000000000008  0.0000000000000511  0.0000000000000566  0.0000000000001112  0.0000000000001288  0.0000000000001033  
3  1  0.0748675935792920  0.0878057280499603  0.0867574776269728  1.8192643122646872  1.1628148819914017  1.1290390061142743  0.9952507443924212  1.0819738912421564  
3  2  0.0000060008655504  0.0000071827086794  0.0000074801542532  1.0240374598461510  1.1392499936646208  1.0892469628883901  1.0016153224702988  1.0377148080788499  
3  3  0.0000051222426632  0.0000061052126676  0.0000068848066536  0.0002497554430729  0.0001743532141015  0.0001686654499167  0.0001513833281391  0.0002612805172917  
3  4  0.0000002412950494  0.0000004394701401  0.0000003325023483  0.0001133122726627  0.0000834903549352  0.0000744705127280  0.0000671433249063  0.0001198398007455  
3  5  0.0000000248678323  0.0000000475262903  0.0000000409147787  0.0000046836565583  0.0000050194448828  0.0000086018433036  0.0000075510636681  0.0000069789932180  
3  6  0.0000000023691126  0.0000000053611636  0.0000000056773337  0.0000004376781778  0.0000005066363948  0.0000009094984022  0.0000007991137514  0.0000009269026594  
3  7  0.0000000003528067  0.0000000008955396  0.0000000009662866  0.0000000479432453  0.0000000608958318  0.0000001130085554  0.0000000983809117  0.0000001394711460  
3  8  0.0000000000890615  0.0000000002240245  0.0000000002696269  0.0000000066674979  0.0000000097722763  0.0000000197307389  0.0000000177979278  0.0000000235572135  
3  9  0.0000000000185847  0.0000000000482268  0.0000000000607923  0.0000000015874183  0.0000000021756715  0.0000000050820116  0.0000000045723708  0.0000000059057172  
3  10  0.0000000000025100  0.0000000000076086  0.0000000000092405  0.0000000003866627  0.0000000005737808  0.0000000011279000  0.0000000009874506  0.0000000013994770  
3  11  0.0000000000002816  0.0000000000010251  0.0000000000013171  0.0000000000467510  0.0000000000911308  0.0000000001862624  0.0000000001614998  0.0000000002204188  
3  12  0.0000000000000349  0.0000000000001402  0.0000000000001785  0.0000000000054305  0.0000000000101472  0.0000000000234215  0.0000000000229711  0.0000000000311154  
3  13  0.0000000000000228  0.0000000000000817  0.0000000000001021  0.0000000000011988  0.0000000000018608  0.0000000000048190  0.0000000000047319  0.0000000000061624  
3  14  0.0000000000000032  0.0000000000000126  0.0000000000000169  0.0000000000004862  0.0000000000008104  0.0000000000019607  0.0000000000018960  0.0000000000022896  
3  15  0.0000000000000009  0.0000000000000021  0.0000000000000026  0.0000000000000607  0.0000000000001264  0.0000000000002929  0.0000000000002987  0.0000000000004090  
4  1  0.0736076501612931  0.0863401795536072  0.0853040114574790  1.7619825923769710  1.1373578025634625  1.1007142910041383  0.9648937127295611  1.0516496874522663  
4  2  0.0000098857480839  0.0000056063993653  0.0000174327873365  0.9653857754839502  1.0747328818802366  1.0281978733776111  0.9460071225811790  0.9806247521689949  
4  3  0.0000071272511640  0.0000061056159463  0.0000151654459876  0.0002030967327340  0.0001185249838908  0.0001404177462116  0.0001989611947013  0.0004199470352803  
4  4  0.0000004575937215  0.0000009969049152  0.0000006525745190  0.0000746305802333  0.0000588894780879  0.0000713751431577  0.0000900792840485  0.0002120946744260  
4  5  0.0000000324607805  0.0000000832185745  0.0000000891273501  0.0000081843113627  0.0000047013870922  0.0000102534838421  0.0000092709389942  0.0000121226002322  
4  6  0.0000000044676781  0.0000000056971063  0.0000000067435938  0.0000006360046379  0.0000005900772188  0.0000011612995878  0.0000014008758709  0.0000015294838044  
4  7  0.0000000004707913  0.0000000006993044  0.0000000009005255  0.0000000780016441  0.0000000581985951  0.0000001007627195  0.0000001229293508  0.0000001392739080  
4  8  0.0000000000469208  0.0000000000720149  0.0000000001170045  0.0000000082583935  0.0000000069410260  0.0000000126126493  0.0000000154764709  0.0000000185324357  
4  9  0.0000000000068227  0.0000000000117944  0.0000000000186600  0.0000000010939762  0.0000000010144599  0.0000000015978832  0.0000000019563716  0.0000000025895134  
4  10  0.0000000000035263  0.0000000000065602  0.0000000000095588  0.0000000002091795  0.0000000002136156  0.0000000003651675  0.0000000004147799  0.0000000005589207  
4  11  0.0000000000004688  0.0000000000009576  0.0000000000014221  0.0000000000906295  0.0000000000890753  0.0000000001481285  0.0000000001687145  0.0000000002090524  
4  12  0.0000000000000739  0.0000000000001413  0.0000000000001836  0.0000000000119030  0.0000000000122201  0.0000000000216481  0.0000000000252945  0.0000000000326128  
4  13  0.0000000000000117  0.0000000000000247  0.0000000000000332  0.0000000000018974  0.0000000000018718  0.0000000000034254  0.0000000000039776  0.0000000000039278  
4  14  0.0000000000000029  0.0000000000000064  0.0000000000000078  0.0000000000002970  0.0000000000002943  0.0000000000005980  0.0000000000007028  0.0000000000007843  
5  1  0.0723587582682285  0.0848890049204562  0.0838663888407264  1.6889134565010115  1.1090843767830785  1.0701304269453180  0.9338186211380932  1.0197914720451735  
5  2  0.0000066251087260  0.0000060544352141  0.0000092540364036  0.9128063893839620  1.0167939383601909  0.9732397543881685  0.8958825539290772  0.9292137448541492  
5  3  0.0000061396760489  0.0000055945254389  0.0000088504447159  0.0002261276202416  0.0002069398033137  0.0001486051567269  0.0001334995579048  0.0002388793050147  
5  4  0.0000001814620889  0.0000006748722302  0.0000003405190997  0.0001032251202241  0.0001013578892974  0.0000771473778829  0.0000689969773658  0.0001116657882501  
5  5  0.0000000176399604  0.0000000327204001  0.0000000401631738  0.0000039885976025  0.0000041008438773  0.0000097137141176  0.0000091166142163  0.0000055488843598  
5  6  0.0000000016297794  0.0000000044298247  0.0000000056377265  0.0000003582894307  0.0000003569044755  0.0000006201980746  0.0000005899162338  0.0000008389483875  
5  7  0.0000000002162791  0.0000000005836950  0.0000000008208346  0.0000000393784066  0.0000000424400345  0.0000000850155631  0.0000000863751090  0.0000001176283152  
5  8  0.0000000000334287  0.0000000000839824  0.0000000001130154  0.0000000051520621  0.0000000051398044  0.0000000114580690  0.0000000117441944  0.0000000179497526  
5  9  0.0000000000057402  0.0000000000136639  0.0000000000195599  0.0000000008432914  0.0000000008055932  0.0000000017529594  0.0000000018623076  0.0000000025568630  
5  10  0.0000000000014838  0.0000000000037251  0.0000000000053677  0.0000000001200717  0.0000000001287598  0.0000000003042907  0.0000000003120759  0.0000000004474657  
5  11  0.0000000000002256  0.0000000000007660  0.0000000000011624  0.0000000000356349  0.0000000000324051  0.0000000000802295  0.0000000000835394  0.0000000001143661  
5  12  0.0000000000000297  0.0000000000001262  0.0000000000001729  0.0000000000052295  0.0000000000063401  0.0000000000165918  0.0000000000172557  0.0000000000254958  
5  13  0.0000000000000080  0.0000000000000273  0.0000000000000344  0.0000000000009288  0.0000000000009607  0.0000000000029427  0.0000000000029468  0.0000000000042682  
5  14  0.0000000000000022  0.0000000000000082  0.0000000000000099  0.0000000000001501  0.0000000000002137  0.0000000000006344  0.0000000000006952  0.0000000000007572  
6  1  0.0711247913180365  0.0834563232064754  0.0824483931451390  1.6058776594950595  1.0786773257188729  1.0379768157516751  0.9025052698611259  0.9870234107742628  
6  2  0.0000087740234667  0.0000047310703000  0.0000149287691458  0.8653050346391372  0.9644254762671244  0.9235834443381308  0.8505620996619822  0.8826018029180625  
6  3  0.0000063618299649  0.0000051651172314  0.0000129754243437  0.0001714268696022  0.0001065619867358  0.0001142094691140  0.0001722411056783  0.0003279653587686  
6  4  0.0000003881638553  0.0000008811852108  0.0000005925860410  0.0000641802875209  0.0000520597601198  0.0000577173028977  0.0000792169702970  0.0001662656911987  
6  5  0.0000000335669162  0.0000000787283688  0.0000000827926548  0.0000067174779935  0.0000040842306997  0.0000087001354912  0.0000082142583107  0.0000102441377964  
6  6  0.0000000042053540  0.0000000059617746  0.0000000069618939  0.0000006036347171  0.0000005654700245  0.0000010525446079  0.0000012644846288  0.0000013161312622  
6  7  0.0000000004364060  0.0000000006941347  0.0000000009117780  0.0000000730540317  0.0000000573182102  0.0000001038201724  0.0000001204064172  0.0000001317138850  
6  8  0.0000000000472076  0.0000000000739079  0.0000000001234808  0.0000000074239708  0.0000000065951095  0.0000000120750899  0.0000000146652033  0.0000000181035894  
6  9  0.0000000000360269  0.0000000000499064  0.0000000000820165  0.0000000016390805  0.0000000014989340  0.0000000023929913  0.0000000027489277  0.0000000043273853  
6  10  0.0000000000036444  0.0000000000070877  0.0000000000103744  0.0000000006779937  0.0000000006161342  0.0000000010109937  0.0000000011942747  0.0000000016721088  
6  11  0.0000000000004597  0.0000000000009544  0.0000000000011299  0.0000000000847606  0.0000000000822123  0.0000000001464238  0.0000000001571877  0.0000000002249750  
6  12  0.0000000000000627  0.0000000000001193  0.0000000000001479  0.0000000000104810  0.0000000000109690  0.0000000000208432  0.0000000000215909  0.0000000000220202  
6  13  0.0000000000000091  0.0000000000000188  0.0000000000000218  0.0000000000013219  0.0000000000013704  0.0000000000026370  0.0000000000028328  0.0000000000029128  
6  14  0.0000000000000018  0.0000000000000028  0.0000000000000037  0.0000000000001893  0.0000000000001978  0.0000000000004179  0.0000000000004409  0.0000000000004381  
7  1  0.0699088111161128  0.0820453785854022  0.0810529877707293  1.5181678482547432  1.0467915979502176  1.0048834316045285  0.8713526020922195  0.9538891765542395  
7  2  0.0000059296215160  0.0000053113551904  0.0000081804625410  0.8223102273870897  0.9169667613973198  0.8784930746494440  0.8093676440950746  0.8402678712758506  
7  3  0.0000055215287295  0.0000051355803905  0.0000078230690750  0.0001830751939992  0.0001781230503771  0.0001342019672568  0.0001199319628764  0.0001912806630108  
7  4  0.0000001719904744  0.0000006126000080  0.0000002994513446  0.0000829103585261  0.0000866320115168  0.0000710430560408  0.0000630861524814  0.0000896437282408  
7  5  0.0000000144045861  0.0000000303548591  0.0000000351096717  0.0000036439136572  0.0000035169277569  0.0000080463160490  0.0000077577338972  0.0000046146687735  
7  6  0.0000000013322168  0.0000000037788198  0.0000000045209674  0.0000002656873629  0.0000002702270757  0.0000005454247966  0.0000005207489506  0.0000006596284465  
7  7  0.0000000002037394  0.0000000004965298  0.0000000006082415  0.0000000271118618  0.0000000304934960  0.0000000739691827  0.0000000693224396  0.0000000886567078  
7  8  0.0000000000311309  0.0000000000793639  0.0000000001067098  0.0000000044502820  0.0000000043986875  0.0000000099907227  0.0000000101333251  0.0000000125767846  
7  9  0.0000000000077029  0.0000000000214927  0.0000000000264717  0.0000000006988444  0.0000000007220757  0.0000000015990917  0.0000000017026223  0.0000000023549701  
7  10  0.0000000000017396  0.0000000000043050  0.0000000000064573  0.0000000001562447  0.0000000001714910  0.0000000004341089  0.0000000004523304  0.0000000005158870  
7  11  0.0000000000002160  0.0000000000007755  0.0000000000008619  0.0000000000428104  0.0000000000415906  0.0000000000832937  0.0000000000933360  0.0000000001382157  
7  12  0.0000000000000199  0.0000000000000999  0.0000000000000798  0.0000000000064272  0.0000000000047733  0.0000000000154443  0.0000000000152769  0.0000000000166104  
7  13  0.0000000000000118  0.0000000000000498  0.0000000000000437  0.0000000000010534  0.0000000000007427  0.0000000000032412  0.0000000000032563  0.0000000000018203  
7  14  0.0000000000000017  0.0000000000000073  0.0000000000000066  0.0000000000003489  0.0000000000002653  0.0000000000010311  0.0000000000010167  0.0000000000007677  
7  15  0.0000000000000006  0.0000000000000009  0.0000000000000016  0.0000000000000477  0.0000000000000434  0.0000000000001497  0.0000000000001651  0.0000000000001200  
8  1  0.0687131999708150  0.0806586834692860  0.0796824511812358  1.4299576136863388  1.0140238876336745  0.9713996212534701  0.8406795361259074  0.9208427020183805  
8  2  0.0000070791267262  0.0000042031180686  0.0000120935988087  0.7831389187160226  0.8737014607080729  0.8374011920156045  0.7718065232438731  0.8015794171688392  
8  3  0.0000050739140826  0.0000042615707953  0.0000107885656175  0.0001346036776249  0.0000855908195283  0.0001118894588972  0.0001495451516761  0.0002676051380185  
8  4  0.0000003302527821  0.0000007304512168  0.0000005698698299  0.0000500933311089  0.0000405214450455  0.0000528431675562  0.0000677566705788  0.0001347883602279  
8  5  0.0000000291933946  0.0000000691935945  0.0000000773607793  0.0000055337317349  0.0000033718285950  0.0000074766555783  0.0000074194218044  0.0000092322598966  
8  6  0.0000000035240728  0.0000000060478761  0.0000000064076585  0.0000005212522352  0.0000004630962644  0.0000009577356703  0.0000010885774255  0.0000011869499204  
8  7  0.0000000003692792  0.0000000008035796  0.0000000008374928  0.0000000644719755  0.0000000477246203  0.0000001111950400  0.0000001226061472  0.0000001105879216  
8  8  0.0000000000785980  0.0000000001549008  0.0000000001886567  0.0000000084117263  0.0000000062096868  0.0000000143610285  0.0000000163389472  0.0000000155064876  
8  9  0.0000000000236917  0.0000000000387410  0.0000000000464802  0.0000000015907259  0.0000000013935836  0.0000000031129590  0.0000000033624662  0.0000000033027059  
8  10  0.0000000000034838  0.0000000000076550  0.0000000000080388  0.0000000004491912  0.0000000003356681  0.0000000007446974  0.0000000008341727  0.0000000008171910  
8  11  0.0000000000005175  0.0000000000010467  0.0000000000012266  0.0000000000853995  0.0000000000663422  0.0000000001481697  0.0000000001581680  0.0000000001398179  
8  12  0.0000000000000611  0.0000000000001438  0.0000000000001782  0.0000000000124070  0.0000000000080457  0.0000000000221592  0.0000000000234878  0.0000000000220236  
8  13  0.0000000000000348  0.0000000000000707  0.0000000000000925  0.0000000000020207  0.0000000000015664  0.0000000000042143  0.0000000000043174  0.0000000000046050  
8  14  0.0000000000000041  0.0000000000000115  0.0000000000000153  0.0000000000007900  0.0000000000005431  0.0000000000014613  0.0000000000016099  0.0000000000016518  
8  15  0.0000000000000008  0.0000000000000014  0.0000000000000023  0.0000000000000902  0.0000000000000971  0.0000000000002141  0.0000000000002375  0.0000000000002829  
9  1  0.0675397734227317  0.0792981403623620  0.0783384916996326  1.3441705700789395  0.9808941699825833  0.9379847586758687  0.8107309101791510  0.8882481180287642  
9  2  0.0000052034842556  0.0000050387435983  0.0000087210603859  0.7473910652133940  0.8341774232790780  0.7997942596552243  0.7374047616875539  0.7661775430949697  
9  3  0.0000047517609054  0.0000048546045741  0.0000082770966523  0.0001458861271898  0.0001418296084917  0.0001201684915845  0.0001156992348185  0.0001781448913256  
9  4  0.0000002083499090  0.0000005471653515  0.0000003287396142  0.0000657936627361  0.0000691393240114  0.0000622628578292  0.0000577037309797  0.0000825241697617  
9  5  0.0000000232345394  0.0000000452070751  0.0000000430751776  0.0000034422590125  0.0000032895599517  0.0000072446302036  0.0000072368756723  0.0000051461956913  
9  6  0.0000000028197572  0.0000000057249231  0.0000000064908786  0.0000004397217807  0.0000004928303405  0.0000006493307642  0.0000006966311927  0.0000008570830553  
9  7  0.0000000003065972  0.0000000005602961  0.0000000006411802  0.0000000545729197  0.0000000573612542  0.0000000955522584  0.0000000968655964  0.0000001073219978  
9  8  0.0000000000370228  0.0000000000746623  0.0000000000854188  0.0000000061508648  0.0000000056735898  0.0000000098471012  0.0000000106831729  0.0000000107273624  
9  9  0.0000000000074097  0.0000000000118785  0.0000000000142696  0.0000000008147903  0.0000000007986612  0.0000000013812586  0.0000000016072699  0.0000000015435192  
9  10  0.0000000000013870  0.0000000000029482  0.0000000000037990  0.0000000001650947  0.0000000001723835  0.0000000002425086  0.0000000002610355  0.0000000002614549  
9  11  0.0000000000004608  0.0000000000006472  0.0000000000008114  0.0000000000285362  0.0000000000226669  0.0000000000580174  0.0000000000700558  0.0000000000664120  
9  12  0.0000000000000606  0.0000000000001312  0.0000000000001496  0.0000000000104413  0.0000000000105667  0.0000000000123609  0.0000000000137123  0.0000000000143968  
9  13  0.0000000000000091  0.0000000000000197  0.0000000000000240  0.0000000000019630  0.0000000000012276  0.0000000000024718  0.0000000000032780  0.0000000000026295  
9  14  0.0000000000000024  0.0000000000000065  0.0000000000000063  0.0000000000001565  0.0000000000002166  0.0000000000004260  0.0000000000004495  0.0000000000004307  
10  1  0.0663898759958106  0.0779651451956541  0.0770223447358431  1.2626288742939924  0.9478377852187225  0.9050080731899841  0.7816862975433521  0.8563858981589417  
10  2  0.0000062573716073  0.0000039184083904  0.0000102247062250  0.7145934205649482  0.7978975465930210  0.7652894987268025  0.7058191586988308  0.7335937860523085  
10  3  0.0000044936840591  0.0000038618891286  0.0000089776605925  0.0001154117779446  0.0000760642315196  0.0000976797942378  0.0001254926451471  0.0002082790109071  
10  4  0.0000002936970223  0.0000006693682008  0.0000004915215327  0.0000427005009443  0.0000355001710252  0.0000477643849189  0.0000590799412922  0.0001059649758354  
10  5  0.0000000262124993  0.0000000632740626  0.0000000674225063  0.0000047855160270  0.0000030189867986  0.0000062007126825  0.0000061103976641  0.0000074204600900  
10  6  0.0000000031400068  0.0000000048821905  0.0000000058908048  0.0000004400568982  0.0000003921838119  0.0000008153062712  0.0000009266324763  0.0000009943486473  
10  7  0.0000000003519354  0.0000000005366855  0.0000000006811333  0.0000000493443331  0.0000000363824357  0.0000000757523003  0.0000000885822783  0.0000001000759209  
10  8  0.0000000000378090  0.0000000000704919  0.0000000000925726  0.0000000055221376  0.0000000044446143  0.0000000084680601  0.0000000100827266  0.0000000115026391  
10  9  0.0000000000073483  0.0000000000112567  0.0000000000153449  0.0000000007961554  0.0000000007043501  0.0000000012868942  0.0000000014844840  0.0000000016134755  
10  10  0.0000000000018130  0.0000000000037208  0.0000000000043953  0.0000000001349363  0.0000000001152761  0.0000000002190238  0.0000000002615606  0.0000000002747260  
10  11  0.0000000000003668  0.0000000000006372  0.0000000000008105  0.0000000000365154  0.0000000000325818  0.0000000000705641  0.0000000000797817  0.0000000000728721  
10  12  0.0000000000000542  0.0000000000001238  0.0000000000001442  0.0000000000078654  0.0000000000071602  0.0000000000120990  0.0000000000141604  0.0000000000146832  
10  13  0.0000000000000110  0.0000000000000213  0.0000000000000296  0.0000000000013913  0.0000000000010613  0.0000000000025005  0.0000000000030098  0.0000000000026831  
10  14  0.0000000000000030  0.0000000000000071  0.0000000000000085  0.0000000000001918  0.0000000000002174  0.0000000000004498  0.0000000000004783  0.0000000000005334  
11  1  0.0652644622236759  0.0766606746699662  0.0757348548810030  1.1863087309639755  0.9152056465390692  0.8727546964148352  0.7536699709706554  0.8254625525180909  
11  2  0.0000045614493307  0.0000045911067130  0.0000076081317383  0.6844472827489086  0.7645225873355291  0.7334987607648151  0.6767080230717025  0.7035998024868829  
11  3  0.0000041918428146  0.0000044225454041  0.0000072500099231  0.0001198824217226  0.0001204918467226  0.0001020883607959  0.0000913529603481  0.0001456892912579  
11  4  0.0000001832882614  0.0000004794666881  0.0000002603137843  0.0000539239382729  0.0000585484248714  0.0000537204061499  0.0000477639371586  0.0000684873191522  
11  5  0.0000000240188344  0.0000000325198069  0.0000000334328919  0.0000030141255793  0.0000029345942261  0.0000058156288294  0.0000056026753332  0.0000036848545902  
11  6  0.0000000023811869  0.0000000048516219  0.0000000059097434  0.0000005091449696  0.0000004795298200  0.0000004409254803  0.0000004390694713  0.0000005791220344  
11  7  0.0000000002713105  0.0000000004947277  0.0000000006155019  0.0000000505385432  0.0000000447023895  0.0000000732933953  0.0000000726172159  0.0000000932351146  
11  8  0.0000000000406628  0.0000000000656300  0.0000000000779612  0.0000000045605737  0.0000000045739629  0.0000000081515216  0.0000000084230249  0.0000000103301387  
11  9  0.0000000000050073  0.0000000000094808  0.0000000000119966  0.0000000007948980  0.0000000009414247  0.0000000011837465  0.0000000011846957  0.0000000012833570  
11  10  0.0000000000012173  0.0000000000021650  0.0000000000029422  0.0000000001116048  0.0000000001026497  0.0000000001681983  0.0000000001995883  0.0000000002148957  
11  11  0.0000000000003132  0.0000000000005194  0.0000000000006967  0.0000000000178259  0.0000000000208237  0.0000000000417971  0.0000000000466361  0.0000000000483618  
11  12  0.0000000000000392  0.0000000000001007  0.0000000000001217  0.0000000000065087  0.0000000000060539  0.0000000000089805  0.0000000000110291  0.0000000000119791  
11  13  0.0000000000000061  0.0000000000000151  0.0000000000000191  0.0000000000011504  0.0000000000007812  0.0000000000018495  0.0000000000024926  0.0000000000022662  
11  14  0.0000000000000019  0.0000000000000048  0.0000000000000061  0.0000000000001068  0.0000000000001338  0.0000000000003017  0.0000000000003453  0.0000000000003373  
12  1  0.0641641650030558  0.0753853598802660  0.0744765450445226  1.1155959999008602  0.8832699532075541  0.8414352868518289  0.7267608364739344  0.7956218097751256  
12  2  0.0000054389826559  0.0000035954001836  0.0000088308408958  0.6566194432334841  0.7336967419933744  0.7041454002919466  0.6498060119107903  0.6758133347027239  
12  3  0.0000039182651420  0.0000034360599650  0.0000077091631763  0.0000950610247913  0.0000613405386480  0.0000832667003093  0.0001066958312631  0.0001701230562853  
12  4  0.0000002611114225  0.0000005990994189  0.0000004374655002  0.0000356285864687  0.0000297741764868  0.0000406781594179  0.0000504952671274  0.0000868016791726  
12  5  0.0000000244018661  0.0000000574010474  0.0000000576998969  0.0000037827351476  0.0000022220972998  0.0000052872754510  0.0000052170521380  0.0000060611650392  
12  6  0.0000000029017842  0.0000000043856934  0.0000000050190640  0.0000003596237794  0.0000003289893483  0.0000006966338327  0.0000007856009352  0.0000007961638142  
12  7  0.0000000003359153  0.0000000004438857  0.0000000005556234  0.0000000415475880  0.0000000293359344  0.0000000631105254  0.0000000731292272  0.0000000787276862  
12  8  0.0000000000350133  0.0000000000487756  0.0000000000707121  0.0000000045869940  0.0000000033831310  0.0000000065965163  0.0000000079155211  0.0000000085810403  
12  9  0.0000000000055103  0.0000000000091670  0.0000000000130754  0.0000000006050246  0.0000000004920848  0.0000000008550391  0.0000000010072719  0.0000000011771082  
12  10  0.0000000000017215  0.0000000000030462  0.0000000000036494  0.0000000000956656  0.0000000000888048  0.0000000001676938  0.0000000001993487  0.0000000002237802  
12  11  0.0000000000002539  0.0000000000004681  0.0000000000006024  0.0000000000303624  0.0000000000265653  0.0000000000509106  0.0000000000583200  0.0000000000587670  
12  12  0.0000000000000438  0.0000000000000835  0.0000000000001113  0.0000000000051593  0.0000000000051256  0.0000000000088089  0.0000000000098854  0.0000000000104309  
12  13  0.0000000000000097  0.0000000000000205  0.0000000000000253  0.0000000000009649  0.0000000000009087  0.0000000000016503  0.0000000000019488  0.0000000000020454  
12  14  0.0000000000000025  0.0000000000000055  0.0000000000000072  0.0000000000001704  0.0000000000001967  0.0000000000003965  0.0000000000004016  0.0000000000004439  
13  1  0.0630893531052445  0.0741395482324008  0.0732476745501062  1.0504956104059537  0.8522330809783700  0.8111971763068786  0.7010016204615294  0.7669558644761865  
13  2  0.0000040358156264  0.0000043367934145  0.0000067635507493  0.6308936523805235  0.7051833449722134  0.6769522096047561  0.6248775845466629  0.6501027886374334  
13  3  0.0000037605699810  0.0000041579173937  0.0000064482409893  0.0001011769330485  0.0001041444389840  0.0000901188045821  0.0000779450984885  0.0001234597388598  
13  4  0.0000001276672404  0.0000004318445257  0.0000002175179946  0.0000457682821577  0.0000508375827750  0.0000475360029251  0.0000410491587465  0.0000580258350945  
13  5  0.0000000110539813  0.0000000217780091  0.0000000259329199  0.0000021099486378  0.0000020176043283  0.0000047478590934  0.0000046028645021  0.0000029362304619  
13  6  0.0000000011055839  0.0000000025631630  0.0000000035284093  0.0000001719276231  0.0000001446341038  0.0000002993588241  0.0000003103512313  0.0000004024119063  
13  7  0.0000000001657005  0.0000000003522808  0.0000000004863603  0.0000000177661386  0.0000000183966637  0.0000000364036384  0.0000000420638149  0.0000000591384810  
13  8  0.0000000000198523  0.0000000000470448  0.0000000000602414  0.0000000028602965  0.0000000024068364  0.0000000051609723  0.0000000063262148  0.0000000083948634  
13  9  0.0000000000058083  0.0000000000123379  0.0000000000182893  0.0000000004209012  0.0000000004194387  0.0000000007261331  0.0000000008625724  0.0000000010671211  
13  10  0.0000000000014643  0.0000000000021761  0.0000000000035868  0.0000000000842581  0.0000000000906178  0.0000000001799791  0.0000000002241110  0.0000000003070004  
13  11  0.0000000000002088  0.0000000000003578  0.0000000000005329  0.0000000000232654  0.0000000000224325  0.0000000000343289  0.0000000000426102  0.0000000000596802  
13  12  0.0000000000000361  0.0000000000000698  0.0000000000001029  0.0000000000042276  0.0000000000039970  0.0000000000058426  0.0000000000074343  0.0000000000100709  
13  13  0.0000000000000138  0.0000000000000214  0.0000000000000303  0.0000000000007269  0.0000000000007925  0.0000000000012238  0.0000000000014148  0.0000000000018025  
13  14  0.0000000000000028  0.0000000000000038  0.0000000000000047  0.0000000000002217  0.0000000000002242  0.0000000000003584  0.0000000000004074  0.0000000000004958  
14  1  0.0620401794560331  0.0729233554087427  0.0720482878591306  0.9907852533526910  0.8222378362495726  0.7821356132172185  0.6764069452692958  0.7395158207561731  
14  2  0.0000043529068567  0.0000034424690732  0.0000073691626734  0.6070066937816917  0.6786902256317017  0.6517018374096606  0.6017136033354957  0.6261483325898104  
14  3  0.0000031913207621  0.0000033771114985  0.0000065172914796  0.0000815417899460  0.0000632921508907  0.0000762186311843  0.0000949968649498  0.0001502941824818  
14  4  0.0000002309296348  0.0000004435655601  0.0000003786967820  0.0000294215139066  0.0000271061380427  0.0000366270456648  0.0000446027167606  0.0000726238831168  
14  5  0.0000000250370791  0.0000000496685966  0.0000000499186877  0.0000037655915350  0.0000029608987978  0.0000043312137627  0.0000046738910492  0.0000057024788291  
14  6  0.0000000028021283  0.0000000048158967  0.0000000056691279  0.0000003918818818  0.0000003702463831  0.0000006139031459  0.0000006989946026  0.0000006812542767  
14  7  0.0000000002687163  0.0000000006641883  0.0000000007583698  0.0000000485524060  0.0000000390103954  0.0000000724533967  0.0000000887421544  0.0000000890339350  
14  8  0.0000000000382274  0.0000000000635818  0.0000000001081707  0.0000000048006537  0.0000000049242572  0.0000000113010609  0.0000000125715774  0.0000000117809580  
14  9  0.0000000000050986  0.0000000000089788  0.0000000000154377  0.0000000006203185  0.0000000008198815  0.0000000011712602  0.0000000011253663  0.0000000018733291  
14  10  0.0000000000032540  0.0000000000054582  0.0000000000100815  0.0000000001651683  0.0000000001679384  0.0000000002052173  0.0000000002722217  0.0000000004387211  
14  11  0.0000000000003945  0.0000000000007818  0.0000000000011323  0.0000000000589429  0.0000000000718142  0.0000000000918723  0.0000000001001067  0.0000000001804690  
14  12  0.0000000000000438  0.0000000000000958  0.0000000000001051  0.0000000000076637  0.0000000000072000  0.0000000000123068  0.0000000000150267  0.0000000000180478  
14  13  0.0000000000000059  0.0000000000000142  0.0000000000000164  0.0000000000007608  0.0000000000008123  0.0000000000017089  0.0000000000017027  0.0000000000016701  
14  14  0.0000000000000015  0.0000000000000032  0.0000000000000037  0.0000000000000936  0.0000000000001352  0.0000000000002825  0.0000000000002566  0.0000000000002789  
15  1  0.0610166215846282  0.0717367089033988  0.0708782553614339  0.9361203132169584  0.7933778098636590  0.7543042278297931  0.6529701688530430  0.7133208854293963  
15  2  0.0000039284370499  0.0000036154697115  0.0000063408634226  0.5848216086134506  0.6540765506814442  0.6282019498704239  0.5801503224861494  0.6038905425188772  
15  3  0.0000034185280586  0.0000036401070876  0.0000058918524279  0.0000984091251548  0.0000994987504822  0.0000821033395170  0.0000763863850074  0.0001090176487398  
15  4  0.0000001945707967  0.0000004141616293  0.0000002451841820  0.0000402331650904  0.0000454913634130  0.0000437786958309  0.0000386421900293  0.0000506587678040  
15  5  0.0000000257119690  0.0000000431120670  0.0000000317265667  0.0000034995809723  0.0000033021506749  0.0000047448509100  0.0000047933140685  0.0000035753797527  
15  6  0.0000000021081531  0.0000000047244149  0.0000000054752374  0.0000005302093321  0.0000004901361206  0.0000004750604208  0.0000005457438289  0.0000004686786323  
15  7  0.0000000002140380  0.0000000006066707  0.0000000006821392  0.0000000430621330  0.0000000375958174  0.0000000691824330  0.0000000798233707  0.0000000787799528  
15  8  0.0000000000320511  0.0000000000694021  0.0000000000899808  0.0000000038305488  0.0000000046990104  0.0000000103258361  0.0000000116944882  0.0000000109730684  
15  9  0.0000000000039667  0.0000000000073028  0.0000000000137714  0.0000000004603788  0.0000000007278934  0.0000000012539883  0.0000000011418718  0.0000000014462354  
15  10  0.0000000000025715  0.0000000000051536  0.0000000000085580  0.0000000001098089  0.0000000001548559  0.0000000001926182  0.0000000001827499  0.0000000004013364  
15  11  0.0000000000003100  0.0000000000005920  0.0000000000011410  0.0000000000371968  0.0000000000637555  0.0000000000946952  0.0000000000768226  0.0000000001497250  
15  12  0.0000000000000270  0.0000000000000667  0.0000000000000833  0.0000000000054953  0.0000000000058638  0.0000000000083376  0.0000000000115071  0.0000000000189991  
15  13  0.0000000000000020  0.0000000000000081  0.0000000000000092  0.0000000000005041  0.0000000000004183  0.0000000000010104  0.0000000000011614  0.0000000000011862  
15  14  0.0000000000000007  0.0000000000000017  0.0000000000000020  0.0000000000000456  0.0000000000000489  0.0000000000001497  0.0000000000001549  0.0000000000001491  
16  1  0.0600185154496071  0.0705793844333365  0.0697373074682812  0.8861016819908958  0.7657070462817271  0.7277242646555960  0.6306690140943944  0.6883661532816709  
16  2  0.0000039899158305  0.0000030365022711  0.0000063314896927  0.5641102770863136  0.6310815198598556  0.6062719759505223  0.5600191243404111  0.5830514132527318  
16  3  0.0000028382294012  0.0000029558101159  0.0000056554142511  0.0000736823926073  0.0000549065205783  0.0000648665508840  0.0000830687875262  0.0001200885533779  
16  4  0.0000002175389964  0.0000004106082299  0.0000003421152930  0.0000256741997033  0.0000233849860959  0.0000313242723948  0.0000389275995021  0.0000597151912412  
16  5  0.0000000217731266  0.0000000432727686  0.0000000469060887  0.0000034934997836  0.0000025152277710  0.0000036221412182  0.0000039656933341  0.0000046773240844  
16  6  0.0000000024358141  0.0000000035924265  0.0000000049508028  0.0000002968195397  0.0000002875308505  0.0000004821022424  0.0000005649007033  0.0000006305064688  
16  7  0.0000000002444685  0.0000000004665841  0.0000000006400979  0.0000000344496627  0.0000000293620133  0.0000000489142298  0.0000000603237479  0.0000000766782124  
16  8  0.0000000000452226  0.0000000000698748  0.0000000001295133  0.0000000038715021  0.0000000040630454  0.0000000073672923  0.0000000089772959  0.0000000108889999  
16  9  0.0000000000148411  0.0000000000222200  0.0000000000373222  0.0000000006798704  0.0000000008274801  0.0000000011468030  0.0000000013311398  0.0000000022132299  
16  10  0.0000000000022270  0.0000000000035078  0.0000000000063071  0.0000000002093008  0.0000000002111888  0.0000000003587588  0.0000000004398340  0.0000000005923789  
16  11  0.0000000000002814  0.0000000000004343  0.0000000000008798  0.0000000000327052  0.0000000000462429  0.0000000000643115  0.0000000000561396  0.0000000001076873  
16  12  0.0000000000000305  0.0000000000000586  0.0000000000000710  0.0000000000050172  0.0000000000051717  0.0000000000064423  0.0000000000087524  0.0000000000144229  
16  13  0.0000000000000187  0.0000000000000377  0.0000000000000524  0.0000000000010177  0.0000000000009097  0.0000000000015113  0.0000000000017578  0.0000000000016451  
16  14  0.0000000000000028  0.0000000000000053  0.0000000000000056  0.0000000000003501  0.0000000000003465  0.0000000000005589  0.0000000000006791  0.0000000000007769  
17  1  0.0590455836765795  0.0694510363416360  0.0686250630607133  0.8403174618399395  0.7392486131344737  0.7023924178070328  0.6094700955928658  0.6646290076149690  
17  2  0.0000034694665855  0.0000034723011987  0.0000055284187500  0.5447934878723555  0.6096294592355372  0.5857704504319176  0.5411894973011393  0.5635985102223986  
17  3  0.0000030530982536  0.0000034463922378  0.0000051597166831  0.0000826478123150  0.0000844131151445  0.0000754519862535  0.0000722331193478  0.0000887486165277  
17  4  0.0000001678734470  0.0000003763123903  0.0000001999533380  0.0000341212854360  0.0000390245586279  0.0000394678126479  0.0000356195420525  0.0000415217006368  
17  5  0.0000000224159178  0.0000000376587029  0.0000000278333196  0.0000029190306646  0.0000027394649975  0.0000042302455806  0.0000043771315894  0.0000027585172860  
17  6  0.0000000020382077  0.0000000044170953  0.0000000047967055  0.0000004381891657  0.0000004110638299  0.0000004288538804  0.0000004922373321  0.0000003936501416  
17  7  0.0000000002754316  0.0000000005906558  0.0000000006454900  0.0000000385357577  0.0000000347768513  0.0000000644399769  0.0000000741580257  0.0000000648628265  
17  8  0.0000000000381915  0.0000000000669324  0.0000000000963424  0.0000000046625866  0.0000000056480232  0.0000000101634663  0.0000000110764450  0.0000000093114665  
17  9  0.0000000000043053  0.0000000000093862  0.0000000000140472  0.0000000006880638  0.0000000007798895  0.0000000010424219  0.0000000011434703  0.0000000015807324  
17  10  0.0000000000031420  0.0000000000049722  0.0000000000093921  0.0000000001603755  0.0000000001279599  0.0000000001768968  0.0000000003001541  0.0000000003823637  
17  11  0.0000000000003185  0.0000000000007854  0.0000000000010796  0.0000000000607234  0.0000000000615102  0.0000000000651801  0.0000000000977440  0.0000000001627230  
17  12  0.0000000000000378  0.0000000000000869  0.0000000000001095  0.0000000000069186  0.0000000000046922  0.0000000000113412  0.0000000000160519  0.0000000000157762  
17  13  0.0000000000000054  0.0000000000000098  0.0000000000000165  0.0000000000006397  0.0000000000007121  0.0000000000015061  0.0000000000014779  0.0000000000016620  
17  14  0.0000000000000008  0.0000000000000017  0.0000000000000025  0.0000000000001015  0.0000000000000992  0.0000000000001470  0.0000000000001943  0.0000000000002470  
18  1  0.0580974590898451  0.0683512229423673  0.0675410531879961  0.7983672221395274  0.7140019135815455  0.6782872863075413  0.5893324886908219  0.6420742582905168  
18  2  0.0000035636361501  0.0000027722975641  0.0000056501669286  0.5266848084229386  0.5895050871802012  0.5665607579345801  0.5235411204180651  0.5453156864180666  
18  3  0.0000025493612042  0.0000026247077415  0.0000049748501120  0.0000607948492767  0.0000451556153462  0.0000584420108766  0.0000747520207654  0.0000999265192726  
18  4  0.0000001904212335  0.0000003879478357  0.0000003028174510  0.0000218152652936  0.0000199005337649  0.0000280154342645  0.0000351194089385  0.0000499561273277  
18  5  0.0000000197072370  0.0000000412907605  0.0000000406754415  0.0000027692906864  0.0000020305032070  0.0000033470791594  0.0000036480922855  0.0000038464237494  
18  6  0.0000000022945254  0.0000000036310063  0.0000000043394661  0.0000002567905283  0.0000002536034817  0.0000004639219123  0.0000005495908933  0.0000005189696328  
18  7  0.0000000002630275  0.0000000004675081  0.0000000005815852  0.0000000324171322  0.0000000277996021  0.0000000494581023  0.0000000613305909  0.0000000620295327  
18  8  0.0000000000365618  0.0000000000527904  0.0000000000888516  0.0000000040879439  0.0000000043695860  0.0000000072935530  0.0000000086922764  0.0000000087151098  
18  9  0.0000000000059251  0.0000000000111257  0.0000000000168933  0.0000000007034720  0.0000000007051680  0.0000000008345425  0.0000000010734219  0.0000000014888090  
18  10  0.0000000000016983  0.0000000000025241  0.0000000000047512  0.0000000001078068  0.0000000000801283  0.0000000001804325  0.0000000002523692  0.0000000002775286  
18  11  0.0000000000002614  0.0000000000006187  0.0000000000008356  0.0000000000293745  0.0000000000304616  0.0000000000351801  0.0000000000482903  0.0000000000795013  
18  12  0.0000000000000327  0.0000000000000774  0.0000000000001032  0.0000000000060795  0.0000000000037727  0.0000000000092722  0.0000000000127252  0.0000000000119682  
18  13  0.0000000000000095  0.0000000000000205  0.0000000000000276  0.0000000000007361  0.0000000000006167  0.0000000000016018  0.0000000000015703  0.0000000000018450  
18  14  0.0000000000000023  0.0000000000000052  0.0000000000000081  0.0000000000001815  0.0000000000001487  0.0000000000003043  0.0000000000003841  0.0000000000004246  
19  1  0.0571737042867661  0.0672794276120332  0.0664847407738981  0.7598750377661471  0.6899487472018676  0.6553745671872735  0.5702104938626797  0.6206581838812986  
19  2  0.0000030308932983  0.0000032351264590  0.0000049433724766  0.5097220493123323  0.5706524764118343  0.5485335129625550  0.5069735746407986  0.5281841127081969  
19  3  0.0000027138591187  0.0000031913362208  0.0000046359489993  0.0000676751749279  0.0000718339363280  0.0000663412516358  0.0000612588183860  0.0000766261188924  
19  4  0.0000001354781638  0.0000003290260431  0.0000001721283023  0.0000285889026970  0.0000336637455887  0.0000347174187852  0.0000306371194553  0.0000357464432900  
19  5  0.0000000187827048  0.0000000291804270  0.0000000245258050  0.0000022201633503  0.0000021580858189  0.0000035156863532  0.0000036052513835  0.0000023181781837  
19  6  0.0000000019113675  0.0000000037456246  0.0000000042572358  0.0000003411242352  0.0000003303716075  0.0000003383358595  0.0000003916939327  0.0000003520521941  
19  7  0.0000000003005810  0.0000000005206072  0.0000000005935472  0.0000000335064059  0.0000000315990822  0.0000000523537934  0.0000000607427367  0.0000000553087663  
19  8  0.0000000000413647  0.0000000000681073  0.0000000000904329  0.0000000051570988  0.0000000057074977  0.0000000082163008  0.0000000093277999  0.0000000083142856  
19  9  0.0000000000041656  0.0000000000106354  0.0000000000132632  0.0000000008171752  0.0000000007703709  0.0000000009521062  0.0000000012281434  0.0000000014186082  
19  10  0.0000000000033759  0.0000000000056874  0.0000000000089002  0.0000000001770980  0.0000000001104477  0.0000000002387709  0.0000000003509550  0.0000000003266511  
19  11  0.0000000000002903  0.0000000000009138  0.0000000000010841  0.0000000000736639  0.0000000000595421  0.0000000000732442  0.0000000001182802  0.0000000001466355  
19  12  0.0000000000000377  0.0000000000000922  0.0000000000001346  0.0000000000068798  0.0000000000040935  0.0000000000143981  0.0000000000176776  0.0000000000147203  
19  13  0.0000000000000053  0.0000000000000095  0.0000000000000170  0.0000000000005213  0.0000000000007981  0.0000000000016142  0.0000000000013930  0.0000000000021206  
19  14  0.0000000000000007  0.0000000000000012  0.0000000000000014  0.0000000000000895  0.0000000000000960  0.0000000000001260  0.0000000000001655  0.0000000000002360  
20  1  0.0562738278888179  0.0662350763081084  0.0654555369709129  0.7244955476453254  0.6670582177078768  0.6336111499900560  0.5520557417839576  0.6003316547809673  
20  2  0.0000031819233099  0.0000025438129632  0.0000049645938738  0.4937648321402495  0.5529034324976454  0.5315766403358694  0.4913838566282840  0.5120247635514622  
20  3  0.0000022739574957  0.0000023366285823  0.0000043315651305  0.0000506298605527  0.0000372613917621  0.0000517781058484  0.0000655591725850  0.0000831558260577  
20  4  0.0000001660895487  0.0000003626844179  0.0000002770564739  0.0000184632700097  0.0000170611133193  0.0000248702736287  0.0000310480635199  0.0000419167131747  
20  5  0.0000000174882237  0.0000000377233156  0.0000000365453139  0.0000021931694317  0.0000015665634152  0.0000029799796003  0.0000031954496278  0.0000033347288719  
20  6  0.0000000020290007  0.0000000031834965  0.0000000038370647  0.0000002104063723  0.0000002146741142  0.0000004098189809  0.0000004844422826  0.0000004571914772  
20  7  0.0000000002307336  0.0000000003789703  0.0000000004917276  0.0000000266482183  0.0000000225565715  0.0000000411092929  0.0000000507854059  0.0000000523692936  
20  8  0.0000000000293728  0.0000000000420301  0.0000000000686637  0.0000000032303716  0.0000000032258376  0.0000000056223637  0.0000000068798472  0.0000000071598646  
20  9  0.0000000000035964  0.0000000000060167  0.0000000000102334  0.0000000004775476  0.0000000005153834  0.0000000006645968  0.0000000007705263  0.0000000010516491  
20  10  0.0000000000024777  0.0000000000034316  0.0000000000065224  0.0000000001290945  0.0000000001042372  0.0000000001150203  0.0000000002000709  0.0000000002615382  
20  11  0.0000000000002657  0.0000000000005614  0.0000000000008312  0.0000000000458514  0.0000000000460602  0.0000000000472050  0.0000000000660299  0.0000000001081138  
20  12  0.0000000000000313  0.0000000000000706  0.0000000000000925  0.0000000000058974  0.0000000000038525  0.0000000000079464  0.0000000000116136  0.0000000000117965  
20  13  0.0000000000000045  0.0000000000000084  0.0000000000000132  0.0000000000005622  0.0000000000004713  0.0000000000011716  0.0000000000011802  0.0000000000013999  
20  14  0.0000000000000007  0.0000000000000009  0.0000000000000015  0.0000000000000694  0.0000000000000791  0.0000000000001109  0.0000000000001335  0.0000000000001892  