{
  "Finalized": "2019-11-13T17:26:45.411",
  "Initialized": "2019-11-13T17:26:34.615",
  "Name": "",
  "Ranks": [
    {
      "Finalized": "2019-11-13T17:26:45.411",
      "Initialized": "2019-11-13T17:26:34.615",
      "StateChanges": [
        {
          "Name": "_GLOBAL",
          "State": 1,
          "Timestamp": 0
        },
        {
          "Name": "_GLOBAL",
          "State": 0,
          "Timestamp": 10796
        },
        {
          "Name": "advance",
          "State": 1,
          "Timestamp": 490
        },
        {
          "Name": "advance",
          "State": 0,
          "Timestamp": 587
        },
        {
          "Name": "advance",
          "State": 1,
          "Timestamp": 767
        },
        {
          "Name": "advance",
          "State": 0,
          "Timestamp": 865
        },
        {
          "Name": "advance",
          "State": 1,
          "Timestamp": 1043
        },
        {
          "Name": "advance",
          "State": 0,
          "Timestamp": 1141
        },
        {
          "Name": "advance",
          "State": 1,
          "Timestamp": 1319
        },
        {
          "Name": "advance",
          "State": 0,
          "Timestamp": 1416
        },
        {
          "Name": "advance",
          "State": 1,
          "Timestamp": 1595
        },
        {
          "Name": "advance",
          "State": 0,
          "Timestamp": 1692
        },
        {
          "Name": "advance",
          "State": 1,
          "Timestamp": 1871
        },
        {
          "Name": "advance",
          "State": 0,
          "Timestamp": 1968
        },
        {
          "Name": "advance",
          "State": 1,
          "Timestamp": 2147
        },
        {
          "Name": "advance",
          "State": 0,
          "Timestamp": 2244
        },
        {
          "Name": "advance",
          "State": 1,
          "Timestamp": 2423
        },
        {
          "Name": "advance",
          "State": 0,
          "Timestamp": 2521
        },
        {
          "Name": "advance",
          "State": 1,
          "Timestamp": 2701
        },
        {
          "Name": "advance",
          "State": 0,
          "Timestamp": 2798
        },
        {
          "Name": "advance",
          "State": 1,
          "Timestamp": 2976
        },
        {
          "Name": "advance",
          "State": 0,
          "Timestamp": 3073
        },
        {
          "Name": "advance",
          "State": 1,
          "Timestamp": 3252
        },
        {
          "Name": "advance",
          "State": 0,
          "Timestamp": 3349
        },
        {
          "Name": "advance",
          "State": 1,
          "Timestamp": 3531
        },
        {
          "Name": "advance",
          "State": 0,
          "Timestamp": 3628
        },
        {
          "Name": "advance",
          "State": 1,
          "Timestamp": 3808
        },
        {
          "Name": "advance",
          "State": 0,
          "Timestamp": 3907
        },
        {
          "Name": "advance",
          "State": 1,
          "Timestamp": 4086
        },
        {
          "Name": "advance",
          "State": 0,
          "Timestamp": 4183
        },
        {
          "Name": "advance",
          "State": 1,
          "Timestamp": 4362
        },
        {
          "Name": "advance",
          "State": 0,
          "Timestamp": 4459
        },
        {
          "Name": "advance",
          "State": 1,
          "Timestamp": 4641
        },
        {
          "Name": "advance",
          "State": 0,
          "Timestamp": 4738
        },
        {
          "Name": "advance",
          "State": 1,
          "Timestamp": 4917
        },
        {
          "Name": "advance",
          "State": 0,
          "Timestamp": 5014
        },
        {
          "Name": "advance",
          "State": 1,
          "Timestamp": 5193
        },
        {
          "Name": "advance",
          "State": 0,
          "Timestamp": 5290
        },
        {
          "Name": "advance",
          "State": 1,
          "Timestamp": 5470
        },
        {
          "Name": "advance",
          "State": 0,
          "Timestamp": 5581
        },
        {
          "Name": "advance",
          "State": 1,
          "Timestamp": 5770
        },
        {
          "Name": "advance",
          "State": 0,
          "Timestamp": 5869
        },
        {
          "Name": "advance",
          "State": 1,
          "Timestamp": 6048
        },
        {
          "Name": "advance",
          "State": 0,
          "Timestamp": 6145
        },
        {
          "Name": "advance",
          "State": 1,
          "Timestamp": 6324
        },
        {
          "Name": "advance",
          "State": 0,
          "Timestamp": 6422
        },
        {
          "Name": "advance",
          "State": 1,
          "Timestamp": 6602
        },
        {
          "Name": "advance",
          "State": 0,
          "Timestamp": 6699
        },
        {
          "Name": "advance",
          "State": 1,
          "Timestamp": 6878
        },
        {
          "Name": "advance",
          "State": 0,
          "Timestamp": 6976
        },
        {
          "Name": "advance",
          "State": 1,
          "Timestamp": 7155
        },
        {
          "Name": "advance",
          "State": 0,
          "Timestamp": 7252
        },
        {
          "Name": "advance",
          "State": 1,
          "Timestamp": 7431
        },
        {
          "Name": "advance",
          "State": 0,
          "Timestamp": 7529
        },
        {
          "Name": "advance",
          "State": 1,
          "Timestamp": 7708
        },
        {
          "Name": "advance",
          "State": 0,
          "Timestamp": 7805
        },
        {
          "Name": "advance",
          "State": 1,
          "Timestamp": 7984
        },
        {
          "Name": "advance",
          "State": 0,
          "Timestamp": 8081
        },
        {
          "Name": "advance",
          "State": 1,
          "Timestamp": 8262
        },
        {
          "Name": "advance",
          "State": 0,
          "Timestamp": 8359
        },
        {
          "Name": "advance",
          "State": 1,
          "Timestamp": 8541
        },
        {
          "Name": "advance",
          "State": 0,
          "Timestamp": 8638
        },
        {
          "Name": "advance",
          "State": 1,
          "Timestamp": 8818
        },
        {
          "Name": "advance",
          "State": 0,
          "Timestamp": 8915
        },
        {
          "Name": "advance",
          "State": 1,
          "Timestamp": 9095
        },
        {
          "Name": "advance",
          "State": 0,
          "Timestamp": 9193
        },
        {
          "Name": "advance",
          "State": 1,
          "Timestamp": 9371
        },
        {
          "Name": "advance",
          "State": 0,
          "Timestamp": 9469
        },
        {
          "Name": "advance",
          "State": 1,
          "Timestamp": 9651
        },
        {
          "Name": "advance",
          "State": 0,
          "Timestamp": 9748
        },
        {
          "Name": "advance",
          "State": 1,
          "Timestamp": 9928
        },
        {
          "Name": "advance",
          "State": 0,
          "Timestamp": 10025
        },
        {
          "Name": "advance",
          "State": 1,
          "Timestamp": 10204
        },
        {
          "Name": "advance",
          "State": 0,
          "Timestamp": 10302
        },
        {
          "Name": "advance",
          "State": 1,
          "Timestamp": 10482
        },
        {
          "Name": "advance",
          "State": 0,
          "Timestamp": 10580
        },
        {
          "Name": "advance",
          "State": 1,
          "Timestamp": 10759
        },
        {
          "Name": "advance",
          "State": 0,
          "Timestamp": 10759
        },
        {
          "Name": "advance/cpl.computeQuasiNewtonUpdate",
          "State": 1,
          "Timestamp": 490
        },
        {
          "Name": "advance/cpl.computeQuasiNewtonUpdate",
          "State": 0,
          "Timestamp": 490
        },
        {
          "Name": "advance/cpl.computeQuasiNewtonUpdate",
          "State": 1,
          "Timestamp": 768
        },
        {
          "Name": "advance/cpl.computeQuasiNewtonUpdate",
          "State": 0,
          "Timestamp": 768
        },
        {
          "Name": "advance/cpl.computeQuasiNewtonUpdate",
          "State": 1,
          "Timestamp": 1044
        },
        {
          "Name": "advance/cpl.computeQuasiNewtonUpdate",
          "State": 0,
          "Timestamp": 1044
        },
        {
          "Name": "advance/cpl.computeQuasiNewtonUpdate",
          "State": 1,
          "Timestamp": 1319
        },
        {
          "Name": "advance/cpl.computeQuasiNewtonUpdate",
          "State": 0,
          "Timestamp": 1319
        },
        {
          "Name": "advance/cpl.computeQuasiNewtonUpdate",
          "State": 1,
          "Timestamp": 1595
        },
        {
          "Name": "advance/cpl.computeQuasiNewtonUpdate",
          "State": 0,
          "Timestamp": 1595
        },
        {
          "Name": "advance/cpl.computeQuasiNewtonUpdate",
          "State": 1,
          "Timestamp": 1871
        },
        {
          "Name": "advance/cpl.computeQuasiNewtonUpdate",
          "State": 0,
          "Timestamp": 1871
        },
        {
          "Name": "advance/cpl.computeQuasiNewtonUpdate",
          "State": 1,
          "Timestamp": 2147
        },
        {
          "Name": "advance/cpl.computeQuasiNewtonUpdate",
          "State": 0,
          "Timestamp": 2147
        },
        {
          "Name": "advance/cpl.computeQuasiNewtonUpdate",
          "State": 1,
          "Timestamp": 2424
        },
        {
          "Name": "advance/cpl.computeQuasiNewtonUpdate",
          "State": 0,
          "Timestamp": 2424
        },
        {
          "Name": "advance/cpl.computeQuasiNewtonUpdate",
          "State": 1,
          "Timestamp": 2701
        },
        {
          "Name": "advance/cpl.computeQuasiNewtonUpdate",
          "State": 0,
          "Timestamp": 2701
        },
        {
          "Name": "advance/cpl.computeQuasiNewtonUpdate",
          "State": 1,
          "Timestamp": 2976
        },
        {
          "Name": "advance/cpl.computeQuasiNewtonUpdate",
          "State": 0,
          "Timestamp": 2976
        },
        {
          "Name": "advance/cpl.computeQuasiNewtonUpdate",
          "State": 1,
          "Timestamp": 3252
        },
        {
          "Name": "advance/cpl.computeQuasiNewtonUpdate",
          "State": 0,
          "Timestamp": 3252
        },
        {
          "Name": "advance/cpl.computeQuasiNewtonUpdate",
          "State": 1,
          "Timestamp": 3531
        },
        {
          "Name": "advance/cpl.computeQuasiNewtonUpdate",
          "State": 0,
          "Timestamp": 3531
        },
        {
          "Name": "advance/cpl.computeQuasiNewtonUpdate",
          "State": 1,
          "Timestamp": 3808
        },
        {
          "Name": "advance/cpl.computeQuasiNewtonUpdate",
          "State": 0,
          "Timestamp": 3808
        },
        {
          "Name": "advance/cpl.computeQuasiNewtonUpdate",
          "State": 1,
          "Timestamp": 4086
        },
        {
          "Name": "advance/cpl.computeQuasiNewtonUpdate",
          "State": 0,
          "Timestamp": 4086
        },
        {
          "Name": "advance/cpl.computeQuasiNewtonUpdate",
          "State": 1,
          "Timestamp": 4362
        },
        {
          "Name": "advance/cpl.computeQuasiNewtonUpdate",
          "State": 0,
          "Timestamp": 4362
        },
        {
          "Name": "advance/cpl.computeQuasiNewtonUpdate",
          "State": 1,
          "Timestamp": 4641
        },
        {
          "Name": "advance/cpl.computeQuasiNewtonUpdate",
          "State": 0,
          "Timestamp": 4641
        },
        {
          "Name": "advance/cpl.computeQuasiNewtonUpdate",
          "State": 1,
          "Timestamp": 4917
        },
        {
          "Name": "advance/cpl.computeQuasiNewtonUpdate",
          "State": 0,
          "Timestamp": 4917
        },
        {
          "Name": "advance/cpl.computeQuasiNewtonUpdate",
          "State": 1,
          "Timestamp": 5193
        },
        {
          "Name": "advance/cpl.computeQuasiNewtonUpdate",
          "State": 0,
          "Timestamp": 5193
        },
        {
          "Name": "advance/cpl.computeQuasiNewtonUpdate",
          "State": 1,
          "Timestamp": 5771
        },
        {
          "Name": "advance/cpl.computeQuasiNewtonUpdate",
          "State": 0,
          "Timestamp": 5771
        },
        {
          "Name": "advance/cpl.computeQuasiNewtonUpdate",
          "State": 1,
          "Timestamp": 6049
        },
        {
          "Name": "advance/cpl.computeQuasiNewtonUpdate",
          "State": 0,
          "Timestamp": 6049
        },
        {
          "Name": "advance/cpl.computeQuasiNewtonUpdate",
          "State": 1,
          "Timestamp": 6324
        },
        {
          "Name": "advance/cpl.computeQuasiNewtonUpdate",
          "State": 0,
          "Timestamp": 6324
        },
        {
          "Name": "advance/cpl.computeQuasiNewtonUpdate",
          "State": 1,
          "Timestamp": 6602
        },
        {
          "Name": "advance/cpl.computeQuasiNewtonUpdate",
          "State": 0,
          "Timestamp": 6602
        },
        {
          "Name": "advance/cpl.computeQuasiNewtonUpdate",
          "State": 1,
          "Timestamp": 6879
        },
        {
          "Name": "advance/cpl.computeQuasiNewtonUpdate",
          "State": 0,
          "Timestamp": 6879
        },
        {
          "Name": "advance/cpl.computeQuasiNewtonUpdate",
          "State": 1,
          "Timestamp": 7155
        },
        {
          "Name": "advance/cpl.computeQuasiNewtonUpdate",
          "State": 0,
          "Timestamp": 7155
        },
        {
          "Name": "advance/cpl.computeQuasiNewtonUpdate",
          "State": 1,
          "Timestamp": 7431
        },
        {
          "Name": "advance/cpl.computeQuasiNewtonUpdate",
          "State": 0,
          "Timestamp": 7431
        },
        {
          "Name": "advance/cpl.computeQuasiNewtonUpdate",
          "State": 1,
          "Timestamp": 7708
        },
        {
          "Name": "advance/cpl.computeQuasiNewtonUpdate",
          "State": 0,
          "Timestamp": 7708
        },
        {
          "Name": "advance/cpl.computeQuasiNewtonUpdate",
          "State": 1,
          "Timestamp": 7984
        },
        {
          "Name": "advance/cpl.computeQuasiNewtonUpdate",
          "State": 0,
          "Timestamp": 7984
        },
        {
          "Name": "advance/cpl.computeQuasiNewtonUpdate",
          "State": 1,
          "Timestamp": 8262
        },
        {
          "Name": "advance/cpl.computeQuasiNewtonUpdate",
          "State": 0,
          "Timestamp": 8262
        },
        {
          "Name": "advance/cpl.computeQuasiNewtonUpdate",
          "State": 1,
          "Timestamp": 8541
        },
        {
          "Name": "advance/cpl.computeQuasiNewtonUpdate",
          "State": 0,
          "Timestamp": 8541
        },
        {
          "Name": "advance/cpl.computeQuasiNewtonUpdate",
          "State": 1,
          "Timestamp": 8818
        },
        {
          "Name": "advance/cpl.computeQuasiNewtonUpdate",
          "State": 0,
          "Timestamp": 8818
        },
        {
          "Name": "advance/cpl.computeQuasiNewtonUpdate",
          "State": 1,
          "Timestamp": 9095
        },
        {
          "Name": "advance/cpl.computeQuasiNewtonUpdate",
          "State": 0,
          "Timestamp": 9095
        },
        {
          "Name": "advance/cpl.computeQuasiNewtonUpdate",
          "State": 1,
          "Timestamp": 9372
        },
        {
          "Name": "advance/cpl.computeQuasiNewtonUpdate",
          "State": 0,
          "Timestamp": 9372
        },
        {
          "Name": "advance/cpl.computeQuasiNewtonUpdate",
          "State": 1,
          "Timestamp": 9651
        },
        {
          "Name": "advance/cpl.computeQuasiNewtonUpdate",
          "State": 0,
          "Timestamp": 9651
        },
        {
          "Name": "advance/cpl.computeQuasiNewtonUpdate",
          "State": 1,
          "Timestamp": 9928
        },
        {
          "Name": "advance/cpl.computeQuasiNewtonUpdate",
          "State": 0,
          "Timestamp": 9928
        },
        {
          "Name": "advance/cpl.computeQuasiNewtonUpdate",
          "State": 1,
          "Timestamp": 10205
        },
        {
          "Name": "advance/cpl.computeQuasiNewtonUpdate",
          "State": 0,
          "Timestamp": 10205
        },
        {
          "Name": "advance/cpl.computeQuasiNewtonUpdate",
          "State": 1,
          "Timestamp": 10482
        },
        {
          "Name": "advance/cpl.computeQuasiNewtonUpdate",
          "State": 0,
          "Timestamp": 10482
        },
        {
          "Name": "configure",
          "State": 1,
          "Timestamp": 0
        },
        {
          "Name": "configure",
          "State": 0,
          "Timestamp": 0
        },
        {
          "Name": "finalize",
          "State": 1,
          "Timestamp": 10796
        },
        {
          "Name": "finalize",
          "State": 0,
          "Timestamp": 10796
        },
        {
          "Name": "initialize",
          "State": 1,
          "Timestamp": 4
        },
        {
          "Name": "initialize",
          "State": 0,
          "Timestamp": 11
        },
        {
          "Name": "initialize/m2n.acceptMasterConnection",
          "State": 1,
          "Timestamp": 4
        },
        {
          "Name": "initialize/m2n.acceptMasterConnection",
          "State": 0,
          "Timestamp": 11
        },
        {
          "Name": "initialize/m2n.acceptSlavesConnection",
          "State": 1,
          "Timestamp": 11
        },
        {
          "Name": "initialize/m2n.acceptSlavesConnection",
          "State": 0,
          "Timestamp": 11
        },
        {
          "Name": "initialize/partition.feedbackMesh.NeumannNodes",
          "State": 1,
          "Timestamp": 11
        },
        {
          "Name": "initialize/partition.feedbackMesh.NeumannNodes",
          "State": 0,
          "Timestamp": 11
        },
        {
          "Name": "initialize/partition.gatherMesh.NeumannNodes",
          "State": 1,
          "Timestamp": 11
        },
        {
          "Name": "initialize/partition.gatherMesh.NeumannNodes",
          "State": 0,
          "Timestamp": 11
        },
        {
          "Name": "initialize/partition.sendGlobalMesh.NeumannNodes",
          "State": 1,
          "Timestamp": 11
        },
        {
          "Name": "initialize/partition.sendGlobalMesh.NeumannNodes",
          "State": 0,
          "Timestamp": 11
        },
        {
          "Name": "initializeData",
          "State": 1,
          "Timestamp": 18
        },
        {
          "Name": "initializeData",
          "State": 0,
          "Timestamp": 254
        },
        {
          "Name": "solver.advance",
          "State": 1,
          "Timestamp": 587
        },
        {
          "Name": "solver.advance",
          "State": 0,
          "Timestamp": 767
        },
        {
          "Name": "solver.advance",
          "State": 1,
          "Timestamp": 865
        },
        {
          "Name": "solver.advance",
          "State": 0,
          "Timestamp": 1043
        },
        {
          "Name": "solver.advance",
          "State": 1,
          "Timestamp": 1141
        },
        {
          "Name": "solver.advance",
          "State": 0,
          "Timestamp": 1319
        },
        {
          "Name": "solver.advance",
          "State": 1,
          "Timestamp": 1416
        },
        {
          "Name": "solver.advance",
          "State": 0,
          "Timestamp": 1595
        },
        {
          "Name": "solver.advance",
          "State": 1,
          "Timestamp": 1692
        },
        {
          "Name": "solver.advance",
          "State": 0,
          "Timestamp": 1871
        },
        {
          "Name": "solver.advance",
          "State": 1,
          "Timestamp": 1968
        },
        {
          "Name": "solver.advance",
          "State": 0,
          "Timestamp": 2147
        },
        {
          "Name": "solver.advance",
          "State": 1,
          "Timestamp": 2244
        },
        {
          "Name": "solver.advance",
          "State": 0,
          "Timestamp": 2423
        },
        {
          "Name": "solver.advance",
          "State": 1,
          "Timestamp": 2521
        },
        {
          "Name": "solver.advance",
          "State": 0,
          "Timestamp": 2701
        },
        {
          "Name": "solver.advance",
          "State": 1,
          "Timestamp": 2798
        },
        {
          "Name": "solver.advance",
          "State": 0,
          "Timestamp": 2976
        },
        {
          "Name": "solver.advance",
          "State": 1,
          "Timestamp": 3073
        },
        {
          "Name": "solver.advance",
          "State": 0,
          "Timestamp": 3252
        },
        {
          "Name": "solver.advance",
          "State": 1,
          "Timestamp": 3349
        },
        {
          "Name": "solver.advance",
          "State": 0,
          "Timestamp": 3531
        },
        {
          "Name": "solver.advance",
          "State": 1,
          "Timestamp": 3628
        },
        {
          "Name": "solver.advance",
          "State": 0,
          "Timestamp": 3808
        },
        {
          "Name": "solver.advance",
          "State": 1,
          "Timestamp": 3907
        },
        {
          "Name": "solver.advance",
          "State": 0,
          "Timestamp": 4086
        },
        {
          "Name": "solver.advance",
          "State": 1,
          "Timestamp": 4183
        },
        {
          "Name": "solver.advance",
          "State": 0,
          "Timestamp": 4362
        },
        {
          "Name": "solver.advance",
          "State": 1,
          "Timestamp": 4459
        },
        {
          "Name": "solver.advance",
          "State": 0,
          "Timestamp": 4641
        },
        {
          "Name": "solver.advance",
          "State": 1,
          "Timestamp": 4738
        },
        {
          "Name": "solver.advance",
          "State": 0,
          "Timestamp": 4917
        },
        {
          "Name": "solver.advance",
          "State": 1,
          "Timestamp": 5014
        },
        {
          "Name": "solver.advance",
          "State": 0,
          "Timestamp": 5193
        },
        {
          "Name": "solver.advance",
          "State": 1,
          "Timestamp": 5290
        },
        {
          "Name": "solver.advance",
          "State": 0,
          "Timestamp": 5470
        },
        {
          "Name": "solver.advance",
          "State": 1,
          "Timestamp": 5581
        },
        {
          "Name": "solver.advance",
          "State": 0,
          "Timestamp": 5770
        },
        {
          "Name": "solver.advance",
          "State": 1,
          "Timestamp": 5869
        },
        {
          "Name": "solver.advance",
          "State": 0,
          "Timestamp": 6048
        },
        {
          "Name": "solver.advance",
          "State": 1,
          "Timestamp": 6145
        },
        {
          "Name": "solver.advance",
          "State": 0,
          "Timestamp": 6324
        },
        {
          "Name": "solver.advance",
          "State": 1,
          "Timestamp": 6422
        },
        {
          "Name": "solver.advance",
          "State": 0,
          "Timestamp": 6602
        },
        {
          "Name": "solver.advance",
          "State": 1,
          "Timestamp": 6699
        },
        {
          "Name": "solver.advance",
          "State": 0,
          "Timestamp": 6878
        },
        {
          "Name": "solver.advance",
          "State": 1,
          "Timestamp": 6976
        },
        {
          "Name": "solver.advance",
          "State": 0,
          "Timestamp": 7155
        },
        {
          "Name": "solver.advance",
          "State": 1,
          "Timestamp": 7252
        },
        {
          "Name": "solver.advance",
          "State": 0,
          "Timestamp": 7431
        },
        {
          "Name": "solver.advance",
          "State": 1,
          "Timestamp": 7529
        },
        {
          "Name": "solver.advance",
          "State": 0,
          "Timestamp": 7708
        },
        {
          "Name": "solver.advance",
          "State": 1,
          "Timestamp": 7805
        },
        {
          "Name": "solver.advance",
          "State": 0,
          "Timestamp": 7984
        },
        {
          "Name": "solver.advance",
          "State": 1,
          "Timestamp": 8081
        },
        {
          "Name": "solver.advance",
          "State": 0,
          "Timestamp": 8262
        },
        {
          "Name": "solver.advance",
          "State": 1,
          "Timestamp": 8359
        },
        {
          "Name": "solver.advance",
          "State": 0,
          "Timestamp": 8541
        },
        {
          "Name": "solver.advance",
          "State": 1,
          "Timestamp": 8638
        },
        {
          "Name": "solver.advance",
          "State": 0,
          "Timestamp": 8818
        },
        {
          "Name": "solver.advance",
          "State": 1,
          "Timestamp": 8915
        },
        {
          "Name": "solver.advance",
          "State": 0,
          "Timestamp": 9095
        },
        {
          "Name": "solver.advance",
          "State": 1,
          "Timestamp": 9193
        },
        {
          "Name": "solver.advance",
          "State": 0,
          "Timestamp": 9371
        },
        {
          "Name": "solver.advance",
          "State": 1,
          "Timestamp": 9469
        },
        {
          "Name": "solver.advance",
          "State": 0,
          "Timestamp": 9651
        },
        {
          "Name": "solver.advance",
          "State": 1,
          "Timestamp": 9748
        },
        {
          "Name": "solver.advance",
          "State": 0,
          "Timestamp": 9928
        },
        {
          "Name": "solver.advance",
          "State": 1,
          "Timestamp": 10025
        },
        {
          "Name": "solver.advance",
          "State": 0,
          "Timestamp": 10204
        },
        {
          "Name": "solver.advance",
          "State": 1,
          "Timestamp": 10302
        },
        {
          "Name": "solver.advance",
          "State": 0,
          "Timestamp": 10482
        },
        {
          "Name": "solver.advance",
          "State": 1,
          "Timestamp": 10580
        },
        {
          "Name": "solver.advance",
          "State": 0,
          "Timestamp": 10759
        },
        {
          "Name": "solver.advance",
          "State": 1,
          "Timestamp": 10759
        },
        {
          "Name": "solver.advance",
          "State": 0,
          "Timestamp": 10796
        },
        {
          "Name": "solver.initialize",
          "State": 1,
          "Timestamp": 0
        },
        {
          "Name": "solver.initialize",
          "State": 2,
          "Timestamp": 4
        },
        {
          "Name": "solver.initialize",
          "State": 1,
          "Timestamp": 11
        },
        {
          "Name": "solver.initialize",
          "State": 2,
          "Timestamp": 18
        },
        {
          "Name": "solver.initialize",
          "State": 1,
          "Timestamp": 254
        },
        {
          "Name": "solver.initialize",
          "State": 0,
          "Timestamp": 490
        }
      ],
      "Timings": {
        "_GLOBAL": {
          "Count": 1,
          "Data": {},
          "Max": 10796,
          "Min": 10796,
          "TimeRatio": 1.0,
          "Total": 10796
        },
        "advance": {
          "Count": 38,
          "Data": {},
          "Max": 110,
          "Min": 0,
          "TimeRatio": 0.3351241200444609,
          "Total": 3618
        },
        "advance/cpl.computeQuasiNewtonUpdate": {
          "Count": 36,
          "Data": {},
          "Max": 0,
          "Min": 0,
          "TimeRatio": 0.0,
          "Total": 0
        },
        "configure": {
          "Count": 1,
          "Data": {},
          "Max": 0,
          "Min": 0,
          "TimeRatio": 0.0,
          "Total": 0
        },
        "finalize": {
          "Count": 1,
          "Data": {},
          "Max": 0,
          "Min": 0,
          "TimeRatio": 0.0,
          "Total": 0
        },
        "initialize": {
          "Count": 1,
          "Data": {},
          "Max": 7,
          "Min": 7,
          "TimeRatio": 0.0006483882919599852,
          "Total": 7
        },
        "initialize/m2n.acceptMasterConnection": {
          "Count": 1,
          "Data": {},
          "Max": 7,
          "Min": 7,
          "TimeRatio": 0.0006483882919599852,
          "Total": 7
        },
        "initialize/m2n.acceptSlavesConnection": {
          "Count": 1,
          "Data": {},
          "Max": 0,
          "Min": 0,
          "TimeRatio": 0.0,
          "Total": 0
        },
        "initialize/partition.feedbackMesh.NeumannNodes": {
          "Count": 1,
          "Data": {},
          "Max": 0,
          "Min": 0,
          "TimeRatio": 0.0,
          "Total": 0
        },
        "initialize/partition.gatherMesh.NeumannNodes": {
          "Count": 1,
          "Data": {},
          "Max": 0,
          "Min": 0,
          "TimeRatio": 0.0,
          "Total": 0
        },
        "initialize/partition.sendGlobalMesh.NeumannNodes": {
          "Count": 1,
          "Data": {},
          "Max": 0,
          "Min": 0,
          "TimeRatio": 0.0,
          "Total": 0
        },
        "initializeData": {
          "Count": 1,
          "Data": {},
          "Max": 235,
          "Min": 235,
          "TimeRatio": 0.021767321230085217,
          "Total": 235
        },
        "solver.advance": {
          "Count": 38,
          "Data": {},
          "Max": 189,
          "Min": 36,
          "TimeRatio": 0.6193960726194887,
          "Total": 6687
        },
        "solver.initialize": {
          "Count": 1,
          "Data": {},
          "Max": 246,
          "Min": 246,
          "TimeRatio": 0.022786217117450908,
          "Total": 246
        }
      }
    }
  ]
}
