{
  "Finalized": "2019-11-13T15:41:06.063",
  "Initialized": "2019-11-13T15:40:53.766",
  "Name": "",
  "Ranks": [
    {
      "Finalized": "2019-11-13T15:41:06.063",
      "Initialized": "2019-11-13T15:40:53.766",
      "StateChanges": [
        {
          "Name": "_GLOBAL",
          "State": 1,
          "Timestamp": 0
        },
        {
          "Name": "_GLOBAL",
          "State": 0,
          "Timestamp": 12297
        },
        {
          "Name": "advance",
          "State": 1,
          "Timestamp": 247
        },
        {
          "Name": "advance",
          "State": 0,
          "Timestamp": 281
        },
        {
          "Name": "advance",
          "State": 1,
          "Timestamp": 342
        },
        {
          "Name": "advance",
          "State": 0,
          "Timestamp": 437
        },
        {
          "Name": "advance",
          "State": 1,
          "Timestamp": 514
        },
        {
          "Name": "advance",
          "State": 0,
          "Timestamp": 549
        },
        {
          "Name": "advance",
          "State": 1,
          "Timestamp": 611
        },
        {
          "Name": "advance",
          "State": 0,
          "Timestamp": 713
        },
        {
          "Name": "advance",
          "State": 1,
          "Timestamp": 775
        },
        {
          "Name": "advance",
          "State": 0,
          "Timestamp": 810
        },
        {
          "Name": "advance",
          "State": 1,
          "Timestamp": 873
        },
        {
          "Name": "advance",
          "State": 0,
          "Timestamp": 973
        },
        {
          "Name": "advance",
          "State": 1,
          "Timestamp": 1035
        },
        {
          "Name": "advance",
          "State": 0,
          "Timestamp": 1070
        },
        {
          "Name": "advance",
          "State": 1,
          "Timestamp": 1133
        },
        {
          "Name": "advance",
          "State": 0,
          "Timestamp": 1214
        },
        {
          "Name": "advance",
          "State": 1,
          "Timestamp": 1276
        },
        {
          "Name": "advance",
          "State": 0,
          "Timestamp": 1381
        },
        {
          "Name": "advance",
          "State": 1,
          "Timestamp": 1442
        },
        {
          "Name": "advance",
          "State": 0,
          "Timestamp": 1478
        },
        {
          "Name": "advance",
          "State": 1,
          "Timestamp": 1539
        },
        {
          "Name": "advance",
          "State": 0,
          "Timestamp": 1642
        },
        {
          "Name": "advance",
          "State": 1,
          "Timestamp": 1704
        },
        {
          "Name": "advance",
          "State": 0,
          "Timestamp": 1739
        },
        {
          "Name": "advance",
          "State": 1,
          "Timestamp": 1801
        },
        {
          "Name": "advance",
          "State": 0,
          "Timestamp": 1884
        },
        {
          "Name": "advance",
          "State": 1,
          "Timestamp": 1946
        },
        {
          "Name": "advance",
          "State": 0,
          "Timestamp": 1982
        },
        {
          "Name": "advance",
          "State": 1,
          "Timestamp": 2044
        },
        {
          "Name": "advance",
          "State": 0,
          "Timestamp": 2128
        },
        {
          "Name": "advance",
          "State": 1,
          "Timestamp": 2190
        },
        {
          "Name": "advance",
          "State": 0,
          "Timestamp": 2226
        },
        {
          "Name": "advance",
          "State": 1,
          "Timestamp": 2288
        },
        {
          "Name": "advance",
          "State": 0,
          "Timestamp": 2379
        },
        {
          "Name": "advance",
          "State": 1,
          "Timestamp": 2441
        },
        {
          "Name": "advance",
          "State": 0,
          "Timestamp": 2487
        },
        {
          "Name": "advance",
          "State": 1,
          "Timestamp": 2560
        },
        {
          "Name": "advance",
          "State": 0,
          "Timestamp": 2595
        },
        {
          "Name": "advance",
          "State": 1,
          "Timestamp": 2658
        },
        {
          "Name": "advance",
          "State": 0,
          "Timestamp": 2737
        },
        {
          "Name": "advance",
          "State": 1,
          "Timestamp": 2799
        },
        {
          "Name": "advance",
          "State": 0,
          "Timestamp": 2902
        },
        {
          "Name": "advance",
          "State": 1,
          "Timestamp": 2964
        },
        {
          "Name": "advance",
          "State": 0,
          "Timestamp": 2999
        },
        {
          "Name": "advance",
          "State": 1,
          "Timestamp": 3060
        },
        {
          "Name": "advance",
          "State": 0,
          "Timestamp": 3144
        },
        {
          "Name": "advance",
          "State": 1,
          "Timestamp": 3206
        },
        {
          "Name": "advance",
          "State": 0,
          "Timestamp": 3241
        },
        {
          "Name": "advance",
          "State": 1,
          "Timestamp": 3303
        },
        {
          "Name": "advance",
          "State": 0,
          "Timestamp": 3388
        },
        {
          "Name": "advance",
          "State": 1,
          "Timestamp": 3449
        },
        {
          "Name": "advance",
          "State": 0,
          "Timestamp": 3484
        },
        {
          "Name": "advance",
          "State": 1,
          "Timestamp": 3546
        },
        {
          "Name": "advance",
          "State": 0,
          "Timestamp": 3632
        },
        {
          "Name": "advance",
          "State": 1,
          "Timestamp": 3693
        },
        {
          "Name": "advance",
          "State": 0,
          "Timestamp": 3728
        },
        {
          "Name": "advance",
          "State": 1,
          "Timestamp": 3789
        },
        {
          "Name": "advance",
          "State": 0,
          "Timestamp": 3872
        },
        {
          "Name": "advance",
          "State": 1,
          "Timestamp": 3934
        },
        {
          "Name": "advance",
          "State": 0,
          "Timestamp": 3969
        },
        {
          "Name": "advance",
          "State": 1,
          "Timestamp": 4031
        },
        {
          "Name": "advance",
          "State": 0,
          "Timestamp": 4116
        },
        {
          "Name": "advance",
          "State": 1,
          "Timestamp": 4179
        },
        {
          "Name": "advance",
          "State": 0,
          "Timestamp": 4214
        },
        {
          "Name": "advance",
          "State": 1,
          "Timestamp": 4276
        },
        {
          "Name": "advance",
          "State": 0,
          "Timestamp": 4365
        },
        {
          "Name": "advance",
          "State": 1,
          "Timestamp": 4428
        },
        {
          "Name": "advance",
          "State": 0,
          "Timestamp": 4463
        },
        {
          "Name": "advance",
          "State": 1,
          "Timestamp": 4525
        },
        {
          "Name": "advance",
          "State": 0,
          "Timestamp": 4608
        },
        {
          "Name": "advance",
          "State": 1,
          "Timestamp": 4670
        },
        {
          "Name": "advance",
          "State": 0,
          "Timestamp": 4717
        },
        {
          "Name": "advance",
          "State": 1,
          "Timestamp": 4790
        },
        {
          "Name": "advance",
          "State": 0,
          "Timestamp": 4825
        },
        {
          "Name": "advance",
          "State": 1,
          "Timestamp": 4887
        },
        {
          "Name": "advance",
          "State": 0,
          "Timestamp": 4974
        },
        {
          "Name": "advance",
          "State": 1,
          "Timestamp": 5037
        },
        {
          "Name": "advance",
          "State": 0,
          "Timestamp": 5072
        },
        {
          "Name": "advance",
          "State": 1,
          "Timestamp": 5134
        },
        {
          "Name": "advance",
          "State": 0,
          "Timestamp": 5213
        },
        {
          "Name": "advance",
          "State": 1,
          "Timestamp": 5275
        },
        {
          "Name": "advance",
          "State": 0,
          "Timestamp": 5378
        },
        {
          "Name": "advance",
          "State": 1,
          "Timestamp": 5439
        },
        {
          "Name": "advance",
          "State": 0,
          "Timestamp": 5474
        },
        {
          "Name": "advance",
          "State": 1,
          "Timestamp": 5536
        },
        {
          "Name": "advance",
          "State": 0,
          "Timestamp": 5639
        },
        {
          "Name": "advance",
          "State": 1,
          "Timestamp": 5702
        },
        {
          "Name": "advance",
          "State": 0,
          "Timestamp": 5738
        },
        {
          "Name": "advance",
          "State": 1,
          "Timestamp": 5800
        },
        {
          "Name": "advance",
          "State": 0,
          "Timestamp": 5895
        },
        {
          "Name": "advance",
          "State": 1,
          "Timestamp": 5967
        },
        {
          "Name": "advance",
          "State": 0,
          "Timestamp": 6002
        },
        {
          "Name": "advance",
          "State": 1,
          "Timestamp": 6063
        },
        {
          "Name": "advance",
          "State": 0,
          "Timestamp": 6147
        },
        {
          "Name": "advance",
          "State": 1,
          "Timestamp": 6210
        },
        {
          "Name": "advance",
          "State": 0,
          "Timestamp": 6258
        },
        {
          "Name": "advance",
          "State": 1,
          "Timestamp": 6331
        },
        {
          "Name": "advance",
          "State": 0,
          "Timestamp": 6367
        },
        {
          "Name": "advance",
          "State": 1,
          "Timestamp": 6428
        },
        {
          "Name": "advance",
          "State": 0,
          "Timestamp": 6514
        },
        {
          "Name": "advance",
          "State": 1,
          "Timestamp": 6576
        },
        {
          "Name": "advance",
          "State": 0,
          "Timestamp": 6623
        },
        {
          "Name": "advance",
          "State": 1,
          "Timestamp": 6697
        },
        {
          "Name": "advance",
          "State": 0,
          "Timestamp": 6732
        },
        {
          "Name": "advance",
          "State": 1,
          "Timestamp": 6794
        },
        {
          "Name": "advance",
          "State": 0,
          "Timestamp": 6879
        },
        {
          "Name": "advance",
          "State": 1,
          "Timestamp": 6944
        },
        {
          "Name": "advance",
          "State": 0,
          "Timestamp": 6993
        },
        {
          "Name": "advance",
          "State": 1,
          "Timestamp": 7071
        },
        {
          "Name": "advance",
          "State": 0,
          "Timestamp": 7106
        },
        {
          "Name": "advance",
          "State": 1,
          "Timestamp": 7168
        },
        {
          "Name": "advance",
          "State": 0,
          "Timestamp": 7252
        },
        {
          "Name": "advance",
          "State": 1,
          "Timestamp": 7314
        },
        {
          "Name": "advance",
          "State": 0,
          "Timestamp": 7360
        },
        {
          "Name": "advance",
          "State": 1,
          "Timestamp": 7433
        },
        {
          "Name": "advance",
          "State": 0,
          "Timestamp": 7468
        },
        {
          "Name": "advance",
          "State": 1,
          "Timestamp": 7531
        },
        {
          "Name": "advance",
          "State": 0,
          "Timestamp": 7616
        },
        {
          "Name": "advance",
          "State": 1,
          "Timestamp": 7678
        },
        {
          "Name": "advance",
          "State": 0,
          "Timestamp": 7725
        },
        {
          "Name": "advance",
          "State": 1,
          "Timestamp": 7797
        },
        {
          "Name": "advance",
          "State": 0,
          "Timestamp": 7833
        },
        {
          "Name": "advance",
          "State": 1,
          "Timestamp": 7896
        },
        {
          "Name": "advance",
          "State": 0,
          "Timestamp": 7979
        },
        {
          "Name": "advance",
          "State": 1,
          "Timestamp": 8041
        },
        {
          "Name": "advance",
          "State": 0,
          "Timestamp": 8088
        },
        {
          "Name": "advance",
          "State": 1,
          "Timestamp": 8160
        },
        {
          "Name": "advance",
          "State": 0,
          "Timestamp": 8196
        },
        {
          "Name": "advance",
          "State": 1,
          "Timestamp": 8258
        },
        {
          "Name": "advance",
          "State": 0,
          "Timestamp": 8337
        },
        {
          "Name": "advance",
          "State": 1,
          "Timestamp": 8399
        },
        {
          "Name": "advance",
          "State": 0,
          "Timestamp": 8514
        },
        {
          "Name": "advance",
          "State": 1,
          "Timestamp": 8587
        },
        {
          "Name": "advance",
          "State": 0,
          "Timestamp": 8623
        },
        {
          "Name": "advance",
          "State": 1,
          "Timestamp": 8687
        },
        {
          "Name": "advance",
          "State": 0,
          "Timestamp": 8765
        },
        {
          "Name": "advance",
          "State": 1,
          "Timestamp": 8827
        },
        {
          "Name": "advance",
          "State": 0,
          "Timestamp": 8926
        },
        {
          "Name": "advance",
          "State": 1,
          "Timestamp": 8998
        },
        {
          "Name": "advance",
          "State": 0,
          "Timestamp": 9033
        },
        {
          "Name": "advance",
          "State": 1,
          "Timestamp": 9095
        },
        {
          "Name": "advance",
          "State": 0,
          "Timestamp": 9179
        },
        {
          "Name": "advance",
          "State": 1,
          "Timestamp": 9241
        },
        {
          "Name": "advance",
          "State": 0,
          "Timestamp": 9287
        },
        {
          "Name": "advance",
          "State": 1,
          "Timestamp": 9360
        },
        {
          "Name": "advance",
          "State": 0,
          "Timestamp": 9395
        },
        {
          "Name": "advance",
          "State": 1,
          "Timestamp": 9457
        },
        {
          "Name": "advance",
          "State": 0,
          "Timestamp": 9539
        },
        {
          "Name": "advance",
          "State": 1,
          "Timestamp": 9602
        },
        {
          "Name": "advance",
          "State": 0,
          "Timestamp": 9650
        },
        {
          "Name": "advance",
          "State": 1,
          "Timestamp": 9723
        },
        {
          "Name": "advance",
          "State": 0,
          "Timestamp": 9758
        },
        {
          "Name": "advance",
          "State": 1,
          "Timestamp": 9821
        },
        {
          "Name": "advance",
          "State": 0,
          "Timestamp": 9905
        },
        {
          "Name": "advance",
          "State": 1,
          "Timestamp": 9966
        },
        {
          "Name": "advance",
          "State": 0,
          "Timestamp": 10013
        },
        {
          "Name": "advance",
          "State": 1,
          "Timestamp": 10086
        },
        {
          "Name": "advance",
          "State": 0,
          "Timestamp": 10121
        },
        {
          "Name": "advance",
          "State": 1,
          "Timestamp": 10183
        },
        {
          "Name": "advance",
          "State": 0,
          "Timestamp": 10268
        },
        {
          "Name": "advance",
          "State": 1,
          "Timestamp": 10329
        },
        {
          "Name": "advance",
          "State": 0,
          "Timestamp": 10375
        },
        {
          "Name": "advance",
          "State": 1,
          "Timestamp": 10448
        },
        {
          "Name": "advance",
          "State": 0,
          "Timestamp": 10483
        },
        {
          "Name": "advance",
          "State": 1,
          "Timestamp": 10545
        },
        {
          "Name": "advance",
          "State": 0,
          "Timestamp": 10627
        },
        {
          "Name": "advance",
          "State": 1,
          "Timestamp": 10691
        },
        {
          "Name": "advance",
          "State": 0,
          "Timestamp": 10737
        },
        {
          "Name": "advance",
          "State": 1,
          "Timestamp": 10812
        },
        {
          "Name": "advance",
          "State": 0,
          "Timestamp": 10847
        },
        {
          "Name": "advance",
          "State": 1,
          "Timestamp": 10910
        },
        {
          "Name": "advance",
          "State": 0,
          "Timestamp": 10989
        },
        {
          "Name": "advance",
          "State": 1,
          "Timestamp": 11053
        },
        {
          "Name": "advance",
          "State": 0,
          "Timestamp": 11165
        },
        {
          "Name": "advance",
          "State": 1,
          "Timestamp": 11237
        },
        {
          "Name": "advance",
          "State": 0,
          "Timestamp": 11273
        },
        {
          "Name": "advance",
          "State": 1,
          "Timestamp": 11334
        },
        {
          "Name": "advance",
          "State": 0,
          "Timestamp": 11414
        },
        {
          "Name": "advance",
          "State": 1,
          "Timestamp": 11476
        },
        {
          "Name": "advance",
          "State": 0,
          "Timestamp": 11570
        },
        {
          "Name": "advance",
          "State": 1,
          "Timestamp": 11645
        },
        {
          "Name": "advance",
          "State": 0,
          "Timestamp": 11680
        },
        {
          "Name": "advance",
          "State": 1,
          "Timestamp": 11743
        },
        {
          "Name": "advance",
          "State": 0,
          "Timestamp": 11847
        },
        {
          "Name": "advance",
          "State": 1,
          "Timestamp": 11908
        },
        {
          "Name": "advance",
          "State": 0,
          "Timestamp": 11955
        },
        {
          "Name": "advance",
          "State": 1,
          "Timestamp": 12028
        },
        {
          "Name": "advance",
          "State": 0,
          "Timestamp": 12063
        },
        {
          "Name": "advance",
          "State": 1,
          "Timestamp": 12124
        },
        {
          "Name": "advance",
          "State": 0,
          "Timestamp": 12208
        },
        {
          "Name": "advance",
          "State": 1,
          "Timestamp": 12269
        },
        {
          "Name": "advance",
          "State": 0,
          "Timestamp": 12270
        },
        {
          "Name": "advance/cpl.computeQuasiNewtonUpdate",
          "State": 1,
          "Timestamp": 247
        },
        {
          "Name": "advance/cpl.computeQuasiNewtonUpdate",
          "State": 0,
          "Timestamp": 247
        },
        {
          "Name": "advance/cpl.computeQuasiNewtonUpdate",
          "State": 1,
          "Timestamp": 342
        },
        {
          "Name": "advance/cpl.computeQuasiNewtonUpdate",
          "State": 0,
          "Timestamp": 342
        },
        {
          "Name": "advance/cpl.computeQuasiNewtonUpdate",
          "State": 1,
          "Timestamp": 514
        },
        {
          "Name": "advance/cpl.computeQuasiNewtonUpdate",
          "State": 0,
          "Timestamp": 514
        },
        {
          "Name": "advance/cpl.computeQuasiNewtonUpdate",
          "State": 1,
          "Timestamp": 611
        },
        {
          "Name": "advance/cpl.computeQuasiNewtonUpdate",
          "State": 0,
          "Timestamp": 611
        },
        {
          "Name": "advance/cpl.computeQuasiNewtonUpdate",
          "State": 1,
          "Timestamp": 775
        },
        {
          "Name": "advance/cpl.computeQuasiNewtonUpdate",
          "State": 0,
          "Timestamp": 775
        },
        {
          "Name": "advance/cpl.computeQuasiNewtonUpdate",
          "State": 1,
          "Timestamp": 873
        },
        {
          "Name": "advance/cpl.computeQuasiNewtonUpdate",
          "State": 0,
          "Timestamp": 873
        },
        {
          "Name": "advance/cpl.computeQuasiNewtonUpdate",
          "State": 1,
          "Timestamp": 1035
        },
        {
          "Name": "advance/cpl.computeQuasiNewtonUpdate",
          "State": 0,
          "Timestamp": 1035
        },
        {
          "Name": "advance/cpl.computeQuasiNewtonUpdate",
          "State": 1,
          "Timestamp": 1133
        },
        {
          "Name": "advance/cpl.computeQuasiNewtonUpdate",
          "State": 0,
          "Timestamp": 1133
        },
        {
          "Name": "advance/cpl.computeQuasiNewtonUpdate",
          "State": 1,
          "Timestamp": 1276
        },
        {
          "Name": "advance/cpl.computeQuasiNewtonUpdate",
          "State": 0,
          "Timestamp": 1276
        },
        {
          "Name": "advance/cpl.computeQuasiNewtonUpdate",
          "State": 1,
          "Timestamp": 1442
        },
        {
          "Name": "advance/cpl.computeQuasiNewtonUpdate",
          "State": 0,
          "Timestamp": 1442
        },
        {
          "Name": "advance/cpl.computeQuasiNewtonUpdate",
          "State": 1,
          "Timestamp": 1539
        },
        {
          "Name": "advance/cpl.computeQuasiNewtonUpdate",
          "State": 0,
          "Timestamp": 1539
        },
        {
          "Name": "advance/cpl.computeQuasiNewtonUpdate",
          "State": 1,
          "Timestamp": 1704
        },
        {
          "Name": "advance/cpl.computeQuasiNewtonUpdate",
          "State": 0,
          "Timestamp": 1704
        },
        {
          "Name": "advance/cpl.computeQuasiNewtonUpdate",
          "State": 1,
          "Timestamp": 1801
        },
        {
          "Name": "advance/cpl.computeQuasiNewtonUpdate",
          "State": 0,
          "Timestamp": 1801
        },
        {
          "Name": "advance/cpl.computeQuasiNewtonUpdate",
          "State": 1,
          "Timestamp": 1946
        },
        {
          "Name": "advance/cpl.computeQuasiNewtonUpdate",
          "State": 0,
          "Timestamp": 1946
        },
        {
          "Name": "advance/cpl.computeQuasiNewtonUpdate",
          "State": 1,
          "Timestamp": 2045
        },
        {
          "Name": "advance/cpl.computeQuasiNewtonUpdate",
          "State": 0,
          "Timestamp": 2045
        },
        {
          "Name": "advance/cpl.computeQuasiNewtonUpdate",
          "State": 1,
          "Timestamp": 2190
        },
        {
          "Name": "advance/cpl.computeQuasiNewtonUpdate",
          "State": 0,
          "Timestamp": 2190
        },
        {
          "Name": "advance/cpl.computeQuasiNewtonUpdate",
          "State": 1,
          "Timestamp": 2288
        },
        {
          "Name": "advance/cpl.computeQuasiNewtonUpdate",
          "State": 0,
          "Timestamp": 2288
        },
        {
          "Name": "advance/cpl.computeQuasiNewtonUpdate",
          "State": 1,
          "Timestamp": 2560
        },
        {
          "Name": "advance/cpl.computeQuasiNewtonUpdate",
          "State": 0,
          "Timestamp": 2560
        },
        {
          "Name": "advance/cpl.computeQuasiNewtonUpdate",
          "State": 1,
          "Timestamp": 2658
        },
        {
          "Name": "advance/cpl.computeQuasiNewtonUpdate",
          "State": 0,
          "Timestamp": 2658
        },
        {
          "Name": "advance/cpl.computeQuasiNewtonUpdate",
          "State": 1,
          "Timestamp": 2799
        },
        {
          "Name": "advance/cpl.computeQuasiNewtonUpdate",
          "State": 0,
          "Timestamp": 2799
        },
        {
          "Name": "advance/cpl.computeQuasiNewtonUpdate",
          "State": 1,
          "Timestamp": 2964
        },
        {
          "Name": "advance/cpl.computeQuasiNewtonUpdate",
          "State": 0,
          "Timestamp": 2964
        },
        {
          "Name": "advance/cpl.computeQuasiNewtonUpdate",
          "State": 1,
          "Timestamp": 3060
        },
        {
          "Name": "advance/cpl.computeQuasiNewtonUpdate",
          "State": 0,
          "Timestamp": 3060
        },
        {
          "Name": "advance/cpl.computeQuasiNewtonUpdate",
          "State": 1,
          "Timestamp": 3206
        },
        {
          "Name": "advance/cpl.computeQuasiNewtonUpdate",
          "State": 0,
          "Timestamp": 3206
        },
        {
          "Name": "advance/cpl.computeQuasiNewtonUpdate",
          "State": 1,
          "Timestamp": 3303
        },
        {
          "Name": "advance/cpl.computeQuasiNewtonUpdate",
          "State": 0,
          "Timestamp": 3303
        },
        {
          "Name": "advance/cpl.computeQuasiNewtonUpdate",
          "State": 1,
          "Timestamp": 3449
        },
        {
          "Name": "advance/cpl.computeQuasiNewtonUpdate",
          "State": 0,
          "Timestamp": 3449
        },
        {
          "Name": "advance/cpl.computeQuasiNewtonUpdate",
          "State": 1,
          "Timestamp": 3547
        },
        {
          "Name": "advance/cpl.computeQuasiNewtonUpdate",
          "State": 0,
          "Timestamp": 3547
        },
        {
          "Name": "advance/cpl.computeQuasiNewtonUpdate",
          "State": 1,
          "Timestamp": 3693
        },
        {
          "Name": "advance/cpl.computeQuasiNewtonUpdate",
          "State": 0,
          "Timestamp": 3693
        },
        {
          "Name": "advance/cpl.computeQuasiNewtonUpdate",
          "State": 1,
          "Timestamp": 3789
        },
        {
          "Name": "advance/cpl.computeQuasiNewtonUpdate",
          "State": 0,
          "Timestamp": 3789
        },
        {
          "Name": "advance/cpl.computeQuasiNewtonUpdate",
          "State": 1,
          "Timestamp": 3934
        },
        {
          "Name": "advance/cpl.computeQuasiNewtonUpdate",
          "State": 0,
          "Timestamp": 3934
        },
        {
          "Name": "advance/cpl.computeQuasiNewtonUpdate",
          "State": 1,
          "Timestamp": 4031
        },
        {
          "Name": "advance/cpl.computeQuasiNewtonUpdate",
          "State": 0,
          "Timestamp": 4031
        },
        {
          "Name": "advance/cpl.computeQuasiNewtonUpdate",
          "State": 1,
          "Timestamp": 4179
        },
        {
          "Name": "advance/cpl.computeQuasiNewtonUpdate",
          "State": 0,
          "Timestamp": 4179
        },
        {
          "Name": "advance/cpl.computeQuasiNewtonUpdate",
          "State": 1,
          "Timestamp": 4276
        },
        {
          "Name": "advance/cpl.computeQuasiNewtonUpdate",
          "State": 0,
          "Timestamp": 4276
        },
        {
          "Name": "advance/cpl.computeQuasiNewtonUpdate",
          "State": 1,
          "Timestamp": 4428
        },
        {
          "Name": "advance/cpl.computeQuasiNewtonUpdate",
          "State": 0,
          "Timestamp": 4428
        },
        {
          "Name": "advance/cpl.computeQuasiNewtonUpdate",
          "State": 1,
          "Timestamp": 4525
        },
        {
          "Name": "advance/cpl.computeQuasiNewtonUpdate",
          "State": 0,
          "Timestamp": 4525
        },
        {
          "Name": "advance/cpl.computeQuasiNewtonUpdate",
          "State": 1,
          "Timestamp": 4790
        },
        {
          "Name": "advance/cpl.computeQuasiNewtonUpdate",
          "State": 0,
          "Timestamp": 4790
        },
        {
          "Name": "advance/cpl.computeQuasiNewtonUpdate",
          "State": 1,
          "Timestamp": 4887
        },
        {
          "Name": "advance/cpl.computeQuasiNewtonUpdate",
          "State": 0,
          "Timestamp": 4887
        },
        {
          "Name": "advance/cpl.computeQuasiNewtonUpdate",
          "State": 1,
          "Timestamp": 5037
        },
        {
          "Name": "advance/cpl.computeQuasiNewtonUpdate",
          "State": 0,
          "Timestamp": 5037
        },
        {
          "Name": "advance/cpl.computeQuasiNewtonUpdate",
          "State": 1,
          "Timestamp": 5134
        },
        {
          "Name": "advance/cpl.computeQuasiNewtonUpdate",
          "State": 0,
          "Timestamp": 5134
        },
        {
          "Name": "advance/cpl.computeQuasiNewtonUpdate",
          "State": 1,
          "Timestamp": 5275
        },
        {
          "Name": "advance/cpl.computeQuasiNewtonUpdate",
          "State": 0,
          "Timestamp": 5275
        },
        {
          "Name": "advance/cpl.computeQuasiNewtonUpdate",
          "State": 1,
          "Timestamp": 5439
        },
        {
          "Name": "advance/cpl.computeQuasiNewtonUpdate",
          "State": 0,
          "Timestamp": 5439
        },
        {
          "Name": "advance/cpl.computeQuasiNewtonUpdate",
          "State": 1,
          "Timestamp": 5536
        },
        {
          "Name": "advance/cpl.computeQuasiNewtonUpdate",
          "State": 0,
          "Timestamp": 5536
        },
        {
          "Name": "advance/cpl.computeQuasiNewtonUpdate",
          "State": 1,
          "Timestamp": 5702
        },
        {
          "Name": "advance/cpl.computeQuasiNewtonUpdate",
          "State": 0,
          "Timestamp": 5702
        },
        {
          "Name": "advance/cpl.computeQuasiNewtonUpdate",
          "State": 1,
          "Timestamp": 5967
        },
        {
          "Name": "advance/cpl.computeQuasiNewtonUpdate",
          "State": 0,
          "Timestamp": 5967
        },
        {
          "Name": "advance/cpl.computeQuasiNewtonUpdate",
          "State": 1,
          "Timestamp": 6063
        },
        {
          "Name": "advance/cpl.computeQuasiNewtonUpdate",
          "State": 0,
          "Timestamp": 6063
        },
        {
          "Name": "advance/cpl.computeQuasiNewtonUpdate",
          "State": 1,
          "Timestamp": 6332
        },
        {
          "Name": "advance/cpl.computeQuasiNewtonUpdate",
          "State": 0,
          "Timestamp": 6332
        },
        {
          "Name": "advance/cpl.computeQuasiNewtonUpdate",
          "State": 1,
          "Timestamp": 6428
        },
        {
          "Name": "advance/cpl.computeQuasiNewtonUpdate",
          "State": 0,
          "Timestamp": 6428
        },
        {
          "Name": "advance/cpl.computeQuasiNewtonUpdate",
          "State": 1,
          "Timestamp": 6697
        },
        {
          "Name": "advance/cpl.computeQuasiNewtonUpdate",
          "State": 0,
          "Timestamp": 6697
        },
        {
          "Name": "advance/cpl.computeQuasiNewtonUpdate",
          "State": 1,
          "Timestamp": 6794
        },
        {
          "Name": "advance/cpl.computeQuasiNewtonUpdate",
          "State": 0,
          "Timestamp": 6794
        },
        {
          "Name": "advance/cpl.computeQuasiNewtonUpdate",
          "State": 1,
          "Timestamp": 7071
        },
        {
          "Name": "advance/cpl.computeQuasiNewtonUpdate",
          "State": 0,
          "Timestamp": 7072
        },
        {
          "Name": "advance/cpl.computeQuasiNewtonUpdate",
          "State": 1,
          "Timestamp": 7168
        },
        {
          "Name": "advance/cpl.computeQuasiNewtonUpdate",
          "State": 0,
          "Timestamp": 7168
        },
        {
          "Name": "advance/cpl.computeQuasiNewtonUpdate",
          "State": 1,
          "Timestamp": 7433
        },
        {
          "Name": "advance/cpl.computeQuasiNewtonUpdate",
          "State": 0,
          "Timestamp": 7433
        },
        {
          "Name": "advance/cpl.computeQuasiNewtonUpdate",
          "State": 1,
          "Timestamp": 7531
        },
        {
          "Name": "advance/cpl.computeQuasiNewtonUpdate",
          "State": 0,
          "Timestamp": 7531
        },
        {
          "Name": "advance/cpl.computeQuasiNewtonUpdate",
          "State": 1,
          "Timestamp": 7797
        },
        {
          "Name": "advance/cpl.computeQuasiNewtonUpdate",
          "State": 0,
          "Timestamp": 7797
        },
        {
          "Name": "advance/cpl.computeQuasiNewtonUpdate",
          "State": 1,
          "Timestamp": 7896
        },
        {
          "Name": "advance/cpl.computeQuasiNewtonUpdate",
          "State": 0,
          "Timestamp": 7896
        },
        {
          "Name": "advance/cpl.computeQuasiNewtonUpdate",
          "State": 1,
          "Timestamp": 8160
        },
        {
          "Name": "advance/cpl.computeQuasiNewtonUpdate",
          "State": 0,
          "Timestamp": 8160
        },
        {
          "Name": "advance/cpl.computeQuasiNewtonUpdate",
          "State": 1,
          "Timestamp": 8258
        },
        {
          "Name": "advance/cpl.computeQuasiNewtonUpdate",
          "State": 0,
          "Timestamp": 8258
        },
        {
          "Name": "advance/cpl.computeQuasiNewtonUpdate",
          "State": 1,
          "Timestamp": 8587
        },
        {
          "Name": "advance/cpl.computeQuasiNewtonUpdate",
          "State": 0,
          "Timestamp": 8587
        },
        {
          "Name": "advance/cpl.computeQuasiNewtonUpdate",
          "State": 1,
          "Timestamp": 8687
        },
        {
          "Name": "advance/cpl.computeQuasiNewtonUpdate",
          "State": 0,
          "Timestamp": 8687
        },
        {
          "Name": "advance/cpl.computeQuasiNewtonUpdate",
          "State": 1,
          "Timestamp": 8998
        },
        {
          "Name": "advance/cpl.computeQuasiNewtonUpdate",
          "State": 0,
          "Timestamp": 8998
        },
        {
          "Name": "advance/cpl.computeQuasiNewtonUpdate",
          "State": 1,
          "Timestamp": 9095
        },
        {
          "Name": "advance/cpl.computeQuasiNewtonUpdate",
          "State": 0,
          "Timestamp": 9095
        },
        {
          "Name": "advance/cpl.computeQuasiNewtonUpdate",
          "State": 1,
          "Timestamp": 9360
        },
        {
          "Name": "advance/cpl.computeQuasiNewtonUpdate",
          "State": 0,
          "Timestamp": 9360
        },
        {
          "Name": "advance/cpl.computeQuasiNewtonUpdate",
          "State": 1,
          "Timestamp": 9457
        },
        {
          "Name": "advance/cpl.computeQuasiNewtonUpdate",
          "State": 0,
          "Timestamp": 9457
        },
        {
          "Name": "advance/cpl.computeQuasiNewtonUpdate",
          "State": 1,
          "Timestamp": 9724
        },
        {
          "Name": "advance/cpl.computeQuasiNewtonUpdate",
          "State": 0,
          "Timestamp": 9724
        },
        {
          "Name": "advance/cpl.computeQuasiNewtonUpdate",
          "State": 1,
          "Timestamp": 9821
        },
        {
          "Name": "advance/cpl.computeQuasiNewtonUpdate",
          "State": 0,
          "Timestamp": 9821
        },
        {
          "Name": "advance/cpl.computeQuasiNewtonUpdate",
          "State": 1,
          "Timestamp": 10086
        },
        {
          "Name": "advance/cpl.computeQuasiNewtonUpdate",
          "State": 0,
          "Timestamp": 10086
        },
        {
          "Name": "advance/cpl.computeQuasiNewtonUpdate",
          "State": 1,
          "Timestamp": 10184
        },
        {
          "Name": "advance/cpl.computeQuasiNewtonUpdate",
          "State": 0,
          "Timestamp": 10184
        },
        {
          "Name": "advance/cpl.computeQuasiNewtonUpdate",
          "State": 1,
          "Timestamp": 10448
        },
        {
          "Name": "advance/cpl.computeQuasiNewtonUpdate",
          "State": 0,
          "Timestamp": 10448
        },
        {
          "Name": "advance/cpl.computeQuasiNewtonUpdate",
          "State": 1,
          "Timestamp": 10545
        },
        {
          "Name": "advance/cpl.computeQuasiNewtonUpdate",
          "State": 0,
          "Timestamp": 10545
        },
        {
          "Name": "advance/cpl.computeQuasiNewtonUpdate",
          "State": 1,
          "Timestamp": 10812
        },
        {
          "Name": "advance/cpl.computeQuasiNewtonUpdate",
          "State": 0,
          "Timestamp": 10812
        },
        {
          "Name": "advance/cpl.computeQuasiNewtonUpdate",
          "State": 1,
          "Timestamp": 10910
        },
        {
          "Name": "advance/cpl.computeQuasiNewtonUpdate",
          "State": 0,
          "Timestamp": 10910
        },
        {
          "Name": "advance/cpl.computeQuasiNewtonUpdate",
          "State": 1,
          "Timestamp": 11238
        },
        {
          "Name": "advance/cpl.computeQuasiNewtonUpdate",
          "State": 0,
          "Timestamp": 11238
        },
        {
          "Name": "advance/cpl.computeQuasiNewtonUpdate",
          "State": 1,
          "Timestamp": 11335
        },
        {
          "Name": "advance/cpl.computeQuasiNewtonUpdate",
          "State": 0,
          "Timestamp": 11335
        },
        {
          "Name": "advance/cpl.computeQuasiNewtonUpdate",
          "State": 1,
          "Timestamp": 11645
        },
        {
          "Name": "advance/cpl.computeQuasiNewtonUpdate",
          "State": 0,
          "Timestamp": 11645
        },
        {
          "Name": "advance/cpl.computeQuasiNewtonUpdate",
          "State": 1,
          "Timestamp": 11743
        },
        {
          "Name": "advance/cpl.computeQuasiNewtonUpdate",
          "State": 0,
          "Timestamp": 11743
        },
        {
          "Name": "advance/cpl.computeQuasiNewtonUpdate",
          "State": 1,
          "Timestamp": 12028
        },
        {
          "Name": "advance/cpl.computeQuasiNewtonUpdate",
          "State": 0,
          "Timestamp": 12028
        },
        {
          "Name": "advance/cpl.computeQuasiNewtonUpdate",
          "State": 1,
          "Timestamp": 12124
        },
        {
          "Name": "advance/cpl.computeQuasiNewtonUpdate",
          "State": 0,
          "Timestamp": 12124
        },
        {
          "Name": "configure",
          "State": 1,
          "Timestamp": 0
        },
        {
          "Name": "configure",
          "State": 0,
          "Timestamp": 0
        },
        {
          "Name": "finalize",
          "State": 1,
          "Timestamp": 12297
        },
        {
          "Name": "finalize",
          "State": 0,
          "Timestamp": 12297
        },
        {
          "Name": "initialize",
          "State": 1,
          "Timestamp": 4
        },
        {
          "Name": "initialize",
          "State": 0,
          "Timestamp": 7
        },
        {
          "Name": "initialize/m2n.acceptMasterConnection",
          "State": 1,
          "Timestamp": 4
        },
        {
          "Name": "initialize/m2n.acceptMasterConnection",
          "State": 0,
          "Timestamp": 6
        },
        {
          "Name": "initialize/m2n.acceptSlavesConnection",
          "State": 1,
          "Timestamp": 7
        },
        {
          "Name": "initialize/m2n.acceptSlavesConnection",
          "State": 0,
          "Timestamp": 7
        },
        {
          "Name": "initialize/partition.feedbackMesh.NeumannNodes",
          "State": 1,
          "Timestamp": 7
        },
        {
          "Name": "initialize/partition.feedbackMesh.NeumannNodes",
          "State": 0,
          "Timestamp": 7
        },
        {
          "Name": "initialize/partition.gatherMesh.NeumannNodes",
          "State": 1,
          "Timestamp": 6
        },
        {
          "Name": "initialize/partition.gatherMesh.NeumannNodes",
          "State": 0,
          "Timestamp": 7
        },
        {
          "Name": "initialize/partition.sendGlobalMesh.NeumannNodes",
          "State": 1,
          "Timestamp": 7
        },
        {
          "Name": "initialize/partition.sendGlobalMesh.NeumannNodes",
          "State": 0,
          "Timestamp": 7
        },
        {
          "Name": "initializeData",
          "State": 1,
          "Timestamp": 10
        },
        {
          "Name": "initializeData",
          "State": 0,
          "Timestamp": 148
        },
        {
          "Name": "solver.advance",
          "State": 1,
          "Timestamp": 281
        },
        {
          "Name": "solver.advance",
          "State": 0,
          "Timestamp": 342
        },
        {
          "Name": "solver.advance",
          "State": 1,
          "Timestamp": 437
        },
        {
          "Name": "solver.advance",
          "State": 0,
          "Timestamp": 514
        },
        {
          "Name": "solver.advance",
          "State": 1,
          "Timestamp": 549
        },
        {
          "Name": "solver.advance",
          "State": 0,
          "Timestamp": 611
        },
        {
          "Name": "solver.advance",
          "State": 1,
          "Timestamp": 713
        },
        {
          "Name": "solver.advance",
          "State": 0,
          "Timestamp": 775
        },
        {
          "Name": "solver.advance",
          "State": 1,
          "Timestamp": 810
        },
        {
          "Name": "solver.advance",
          "State": 0,
          "Timestamp": 873
        },
        {
          "Name": "solver.advance",
          "State": 1,
          "Timestamp": 973
        },
        {
          "Name": "solver.advance",
          "State": 0,
          "Timestamp": 1035
        },
        {
          "Name": "solver.advance",
          "State": 1,
          "Timestamp": 1070
        },
        {
          "Name": "solver.advance",
          "State": 0,
          "Timestamp": 1133
        },
        {
          "Name": "solver.advance",
          "State": 1,
          "Timestamp": 1214
        },
        {
          "Name": "solver.advance",
          "State": 0,
          "Timestamp": 1276
        },
        {
          "Name": "solver.advance",
          "State": 1,
          "Timestamp": 1381
        },
        {
          "Name": "solver.advance",
          "State": 0,
          "Timestamp": 1442
        },
        {
          "Name": "solver.advance",
          "State": 1,
          "Timestamp": 1478
        },
        {
          "Name": "solver.advance",
          "State": 0,
          "Timestamp": 1539
        },
        {
          "Name": "solver.advance",
          "State": 1,
          "Timestamp": 1642
        },
        {
          "Name": "solver.advance",
          "State": 0,
          "Timestamp": 1704
        },
        {
          "Name": "solver.advance",
          "State": 1,
          "Timestamp": 1739
        },
        {
          "Name": "solver.advance",
          "State": 0,
          "Timestamp": 1801
        },
        {
          "Name": "solver.advance",
          "State": 1,
          "Timestamp": 1884
        },
        {
          "Name": "solver.advance",
          "State": 0,
          "Timestamp": 1946
        },
        {
          "Name": "solver.advance",
          "State": 1,
          "Timestamp": 1982
        },
        {
          "Name": "solver.advance",
          "State": 0,
          "Timestamp": 2044
        },
        {
          "Name": "solver.advance",
          "State": 1,
          "Timestamp": 2128
        },
        {
          "Name": "solver.advance",
          "State": 0,
          "Timestamp": 2190
        },
        {
          "Name": "solver.advance",
          "State": 1,
          "Timestamp": 2226
        },
        {
          "Name": "solver.advance",
          "State": 0,
          "Timestamp": 2288
        },
        {
          "Name": "solver.advance",
          "State": 1,
          "Timestamp": 2379
        },
        {
          "Name": "solver.advance",
          "State": 0,
          "Timestamp": 2441
        },
        {
          "Name": "solver.advance",
          "State": 1,
          "Timestamp": 2487
        },
        {
          "Name": "solver.advance",
          "State": 0,
          "Timestamp": 2560
        },
        {
          "Name": "solver.advance",
          "State": 1,
          "Timestamp": 2595
        },
        {
          "Name": "solver.advance",
          "State": 0,
          "Timestamp": 2658
        },
        {
          "Name": "solver.advance",
          "State": 1,
          "Timestamp": 2737
        },
        {
          "Name": "solver.advance",
          "State": 0,
          "Timestamp": 2799
        },
        {
          "Name": "solver.advance",
          "State": 1,
          "Timestamp": 2902
        },
        {
          "Name": "solver.advance",
          "State": 0,
          "Timestamp": 2964
        },
        {
          "Name": "solver.advance",
          "State": 1,
          "Timestamp": 2999
        },
        {
          "Name": "solver.advance",
          "State": 0,
          "Timestamp": 3060
        },
        {
          "Name": "solver.advance",
          "State": 1,
          "Timestamp": 3144
        },
        {
          "Name": "solver.advance",
          "State": 0,
          "Timestamp": 3206
        },
        {
          "Name": "solver.advance",
          "State": 1,
          "Timestamp": 3241
        },
        {
          "Name": "solver.advance",
          "State": 0,
          "Timestamp": 3303
        },
        {
          "Name": "solver.advance",
          "State": 1,
          "Timestamp": 3388
        },
        {
          "Name": "solver.advance",
          "State": 0,
          "Timestamp": 3449
        },
        {
          "Name": "solver.advance",
          "State": 1,
          "Timestamp": 3484
        },
        {
          "Name": "solver.advance",
          "State": 0,
          "Timestamp": 3546
        },
        {
          "Name": "solver.advance",
          "State": 1,
          "Timestamp": 3632
        },
        {
          "Name": "solver.advance",
          "State": 0,
          "Timestamp": 3693
        },
        {
          "Name": "solver.advance",
          "State": 1,
          "Timestamp": 3728
        },
        {
          "Name": "solver.advance",
          "State": 0,
          "Timestamp": 3789
        },
        {
          "Name": "solver.advance",
          "State": 1,
          "Timestamp": 3872
        },
        {
          "Name": "solver.advance",
          "State": 0,
          "Timestamp": 3934
        },
        {
          "Name": "solver.advance",
          "State": 1,
          "Timestamp": 3969
        },
        {
          "Name": "solver.advance",
          "State": 0,
          "Timestamp": 4031
        },
        {
          "Name": "solver.advance",
          "State": 1,
          "Timestamp": 4116
        },
        {
          "Name": "solver.advance",
          "State": 0,
          "Timestamp": 4179
        },
        {
          "Name": "solver.advance",
          "State": 1,
          "Timestamp": 4214
        },
        {
          "Name": "solver.advance",
          "State": 0,
          "Timestamp": 4276
        },
        {
          "Name": "solver.advance",
          "State": 1,
          "Timestamp": 4365
        },
        {
          "Name": "solver.advance",
          "State": 0,
          "Timestamp": 4428
        },
        {
          "Name": "solver.advance",
          "State": 1,
          "Timestamp": 4463
        },
        {
          "Name": "solver.advance",
          "State": 0,
          "Timestamp": 4525
        },
        {
          "Name": "solver.advance",
          "State": 1,
          "Timestamp": 4608
        },
        {
          "Name": "solver.advance",
          "State": 0,
          "Timestamp": 4670
        },
        {
          "Name": "solver.advance",
          "State": 1,
          "Timestamp": 4717
        },
        {
          "Name": "solver.advance",
          "State": 0,
          "Timestamp": 4790
        },
        {
          "Name": "solver.advance",
          "State": 1,
          "Timestamp": 4825
        },
        {
          "Name": "solver.advance",
          "State": 0,
          "Timestamp": 4887
        },
        {
          "Name": "solver.advance",
          "State": 1,
          "Timestamp": 4974
        },
        {
          "Name": "solver.advance",
          "State": 0,
          "Timestamp": 5037
        },
        {
          "Name": "solver.advance",
          "State": 1,
          "Timestamp": 5072
        },
        {
          "Name": "solver.advance",
          "State": 0,
          "Timestamp": 5134
        },
        {
          "Name": "solver.advance",
          "State": 1,
          "Timestamp": 5213
        },
        {
          "Name": "solver.advance",
          "State": 0,
          "Timestamp": 5275
        },
        {
          "Name": "solver.advance",
          "State": 1,
          "Timestamp": 5378
        },
        {
          "Name": "solver.advance",
          "State": 0,
          "Timestamp": 5439
        },
        {
          "Name": "solver.advance",
          "State": 1,
          "Timestamp": 5474
        },
        {
          "Name": "solver.advance",
          "State": 0,
          "Timestamp": 5536
        },
        {
          "Name": "solver.advance",
          "State": 1,
          "Timestamp": 5639
        },
        {
          "Name": "solver.advance",
          "State": 0,
          "Timestamp": 5702
        },
        {
          "Name": "solver.advance",
          "State": 1,
          "Timestamp": 5738
        },
        {
          "Name": "solver.advance",
          "State": 0,
          "Timestamp": 5800
        },
        {
          "Name": "solver.advance",
          "State": 1,
          "Timestamp": 5895
        },
        {
          "Name": "solver.advance",
          "State": 0,
          "Timestamp": 5967
        },
        {
          "Name": "solver.advance",
          "State": 1,
          "Timestamp": 6002
        },
        {
          "Name": "solver.advance",
          "State": 0,
          "Timestamp": 6063
        },
        {
          "Name": "solver.advance",
          "State": 1,
          "Timestamp": 6147
        },
        {
          "Name": "solver.advance",
          "State": 0,
          "Timestamp": 6210
        },
        {
          "Name": "solver.advance",
          "State": 1,
          "Timestamp": 6258
        },
        {
          "Name": "solver.advance",
          "State": 0,
          "Timestamp": 6331
        },
        {
          "Name": "solver.advance",
          "State": 1,
          "Timestamp": 6367
        },
        {
          "Name": "solver.advance",
          "State": 0,
          "Timestamp": 6428
        },
        {
          "Name": "solver.advance",
          "State": 1,
          "Timestamp": 6514
        },
        {
          "Name": "solver.advance",
          "State": 0,
          "Timestamp": 6576
        },
        {
          "Name": "solver.advance",
          "State": 1,
          "Timestamp": 6623
        },
        {
          "Name": "solver.advance",
          "State": 0,
          "Timestamp": 6697
        },
        {
          "Name": "solver.advance",
          "State": 1,
          "Timestamp": 6732
        },
        {
          "Name": "solver.advance",
          "State": 0,
          "Timestamp": 6794
        },
        {
          "Name": "solver.advance",
          "State": 1,
          "Timestamp": 6879
        },
        {
          "Name": "solver.advance",
          "State": 0,
          "Timestamp": 6944
        },
        {
          "Name": "solver.advance",
          "State": 1,
          "Timestamp": 6993
        },
        {
          "Name": "solver.advance",
          "State": 0,
          "Timestamp": 7071
        },
        {
          "Name": "solver.advance",
          "State": 1,
          "Timestamp": 7106
        },
        {
          "Name": "solver.advance",
          "State": 0,
          "Timestamp": 7168
        },
        {
          "Name": "solver.advance",
          "State": 1,
          "Timestamp": 7252
        },
        {
          "Name": "solver.advance",
          "State": 0,
          "Timestamp": 7314
        },
        {
          "Name": "solver.advance",
          "State": 1,
          "Timestamp": 7360
        },
        {
          "Name": "solver.advance",
          "State": 0,
          "Timestamp": 7433
        },
        {
          "Name": "solver.advance",
          "State": 1,
          "Timestamp": 7468
        },
        {
          "Name": "solver.advance",
          "State": 0,
          "Timestamp": 7531
        },
        {
          "Name": "solver.advance",
          "State": 1,
          "Timestamp": 7616
        },
        {
          "Name": "solver.advance",
          "State": 0,
          "Timestamp": 7678
        },
        {
          "Name": "solver.advance",
          "State": 1,
          "Timestamp": 7725
        },
        {
          "Name": "solver.advance",
          "State": 0,
          "Timestamp": 7797
        },
        {
          "Name": "solver.advance",
          "State": 1,
          "Timestamp": 7833
        },
        {
          "Name": "solver.advance",
          "State": 0,
          "Timestamp": 7896
        },
        {
          "Name": "solver.advance",
          "State": 1,
          "Timestamp": 7979
        },
        {
          "Name": "solver.advance",
          "State": 0,
          "Timestamp": 8041
        },
        {
          "Name": "solver.advance",
          "State": 1,
          "Timestamp": 8088
        },
        {
          "Name": "solver.advance",
          "State": 0,
          "Timestamp": 8160
        },
        {
          "Name": "solver.advance",
          "State": 1,
          "Timestamp": 8196
        },
        {
          "Name": "solver.advance",
          "State": 0,
          "Timestamp": 8258
        },
        {
          "Name": "solver.advance",
          "State": 1,
          "Timestamp": 8337
        },
        {
          "Name": "solver.advance",
          "State": 0,
          "Timestamp": 8399
        },
        {
          "Name": "solver.advance",
          "State": 1,
          "Timestamp": 8514
        },
        {
          "Name": "solver.advance",
          "State": 0,
          "Timestamp": 8587
        },
        {
          "Name": "solver.advance",
          "State": 1,
          "Timestamp": 8623
        },
        {
          "Name": "solver.advance",
          "State": 0,
          "Timestamp": 8687
        },
        {
          "Name": "solver.advance",
          "State": 1,
          "Timestamp": 8765
        },
        {
          "Name": "solver.advance",
          "State": 0,
          "Timestamp": 8827
        },
        {
          "Name": "solver.advance",
          "State": 1,
          "Timestamp": 8926
        },
        {
          "Name": "solver.advance",
          "State": 0,
          "Timestamp": 8998
        },
        {
          "Name": "solver.advance",
          "State": 1,
          "Timestamp": 9033
        },
        {
          "Name": "solver.advance",
          "State": 0,
          "Timestamp": 9095
        },
        {
          "Name": "solver.advance",
          "State": 1,
          "Timestamp": 9179
        },
        {
          "Name": "solver.advance",
          "State": 0,
          "Timestamp": 9241
        },
        {
          "Name": "solver.advance",
          "State": 1,
          "Timestamp": 9287
        },
        {
          "Name": "solver.advance",
          "State": 0,
          "Timestamp": 9360
        },
        {
          "Name": "solver.advance",
          "State": 1,
          "Timestamp": 9395
        },
        {
          "Name": "solver.advance",
          "State": 0,
          "Timestamp": 9457
        },
        {
          "Name": "solver.advance",
          "State": 1,
          "Timestamp": 9539
        },
        {
          "Name": "solver.advance",
          "State": 0,
          "Timestamp": 9602
        },
        {
          "Name": "solver.advance",
          "State": 1,
          "Timestamp": 9650
        },
        {
          "Name": "solver.advance",
          "State": 0,
          "Timestamp": 9723
        },
        {
          "Name": "solver.advance",
          "State": 1,
          "Timestamp": 9758
        },
        {
          "Name": "solver.advance",
          "State": 0,
          "Timestamp": 9821
        },
        {
          "Name": "solver.advance",
          "State": 1,
          "Timestamp": 9905
        },
        {
          "Name": "solver.advance",
          "State": 0,
          "Timestamp": 9966
        },
        {
          "Name": "solver.advance",
          "State": 1,
          "Timestamp": 10013
        },
        {
          "Name": "solver.advance",
          "State": 0,
          "Timestamp": 10086
        },
        {
          "Name": "solver.advance",
          "State": 1,
          "Timestamp": 10121
        },
        {
          "Name": "solver.advance",
          "State": 0,
          "Timestamp": 10183
        },
        {
          "Name": "solver.advance",
          "State": 1,
          "Timestamp": 10268
        },
        {
          "Name": "solver.advance",
          "State": 0,
          "Timestamp": 10329
        },
        {
          "Name": "solver.advance",
          "State": 1,
          "Timestamp": 10375
        },
        {
          "Name": "solver.advance",
          "State": 0,
          "Timestamp": 10448
        },
        {
          "Name": "solver.advance",
          "State": 1,
          "Timestamp": 10483
        },
        {
          "Name": "solver.advance",
          "State": 0,
          "Timestamp": 10545
        },
        {
          "Name": "solver.advance",
          "State": 1,
          "Timestamp": 10627
        },
        {
          "Name": "solver.advance",
          "State": 0,
          "Timestamp": 10691
        },
        {
          "Name": "solver.advance",
          "State": 1,
          "Timestamp": 10737
        },
        {
          "Name": "solver.advance",
          "State": 0,
          "Timestamp": 10812
        },
        {
          "Name": "solver.advance",
          "State": 1,
          "Timestamp": 10847
        },
        {
          "Name": "solver.advance",
          "State": 0,
          "Timestamp": 10910
        },
        {
          "Name": "solver.advance",
          "State": 1,
          "Timestamp": 10989
        },
        {
          "Name": "solver.advance",
          "State": 0,
          "Timestamp": 11053
        },
        {
          "Name": "solver.advance",
          "State": 1,
          "Timestamp": 11165
        },
        {
          "Name": "solver.advance",
          "State": 0,
          "Timestamp": 11237
        },
        {
          "Name": "solver.advance",
          "State": 1,
          "Timestamp": 11273
        },
        {
          "Name": "solver.advance",
          "State": 0,
          "Timestamp": 11334
        },
        {
          "Name": "solver.advance",
          "State": 1,
          "Timestamp": 11414
        },
        {
          "Name": "solver.advance",
          "State": 0,
          "Timestamp": 11476
        },
        {
          "Name": "solver.advance",
          "State": 1,
          "Timestamp": 11570
        },
        {
          "Name": "solver.advance",
          "State": 0,
          "Timestamp": 11645
        },
        {
          "Name": "solver.advance",
          "State": 1,
          "Timestamp": 11680
        },
        {
          "Name": "solver.advance",
          "State": 0,
          "Timestamp": 11743
        },
        {
          "Name": "solver.advance",
          "State": 1,
          "Timestamp": 11847
        },
        {
          "Name": "solver.advance",
          "State": 0,
          "Timestamp": 11908
        },
        {
          "Name": "solver.advance",
          "State": 1,
          "Timestamp": 11955
        },
        {
          "Name": "solver.advance",
          "State": 0,
          "Timestamp": 12028
        },
        {
          "Name": "solver.advance",
          "State": 1,
          "Timestamp": 12063
        },
        {
          "Name": "solver.advance",
          "State": 0,
          "Timestamp": 12124
        },
        {
          "Name": "solver.advance",
          "State": 1,
          "Timestamp": 12208
        },
        {
          "Name": "solver.advance",
          "State": 0,
          "Timestamp": 12269
        },
        {
          "Name": "solver.advance",
          "State": 1,
          "Timestamp": 12270
        },
        {
          "Name": "solver.advance",
          "State": 0,
          "Timestamp": 12297
        },
        {
          "Name": "solver.initialize",
          "State": 1,
          "Timestamp": 0
        },
        {
          "Name": "solver.initialize",
          "State": 2,
          "Timestamp": 4
        },
        {
          "Name": "solver.initialize",
          "State": 1,
          "Timestamp": 7
        },
        {
          "Name": "solver.initialize",
          "State": 2,
          "Timestamp": 10
        },
        {
          "Name": "solver.initialize",
          "State": 1,
          "Timestamp": 148
        },
        {
          "Name": "solver.initialize",
          "State": 0,
          "Timestamp": 247
        }
      ],
      "Timings": {
        "_GLOBAL": {
          "Count": 1,
          "Data": {},
          "Max": 12297,
          "Min": 12297,
          "TimeRatio": 1.0,
          "Total": 12297
        },
        "advance": {
          "Count": 96,
          "Data": {},
          "Max": 114,
          "Min": 0,
          "TimeRatio": 0.47954785720094334,
          "Total": 5897
        },
        "advance/cpl.computeQuasiNewtonUpdate": {
          "Count": 76,
          "Data": {},
          "Max": 0,
          "Min": 0,
          "TimeRatio": 8.13206473123526e-05,
          "Total": 1
        },
        "configure": {
          "Count": 1,
          "Data": {},
          "Max": 0,
          "Min": 0,
          "TimeRatio": 0.0,
          "Total": 0
        },
        "finalize": {
          "Count": 1,
          "Data": {},
          "Max": 0,
          "Min": 0,
          "TimeRatio": 0.0,
          "Total": 0
        },
        "initialize": {
          "Count": 1,
          "Data": {},
          "Max": 3,
          "Min": 3,
          "TimeRatio": 0.00024396194193705782,
          "Total": 3
        },
        "initialize/m2n.acceptMasterConnection": {
          "Count": 1,
          "Data": {},
          "Max": 2,
          "Min": 2,
          "TimeRatio": 0.0001626412946247052,
          "Total": 2
        },
        "initialize/m2n.acceptSlavesConnection": {
          "Count": 1,
          "Data": {},
          "Max": 0,
          "Min": 0,
          "TimeRatio": 0.0,
          "Total": 0
        },
        "initialize/partition.feedbackMesh.NeumannNodes": {
          "Count": 1,
          "Data": {},
          "Max": 0,
          "Min": 0,
          "TimeRatio": 0.0,
          "Total": 0
        },
        "initialize/partition.gatherMesh.NeumannNodes": {
          "Count": 1,
          "Data": {},
          "Max": 0,
          "Min": 0,
          "TimeRatio": 0.0,
          "Total": 0
        },
        "initialize/partition.sendGlobalMesh.NeumannNodes": {
          "Count": 1,
          "Data": {},
          "Max": 0,
          "Min": 0,
          "TimeRatio": 0.0,
          "Total": 0
        },
        "initializeData": {
          "Count": 1,
          "Data": {},
          "Max": 138,
          "Min": 138,
          "TimeRatio": 0.01122224932910466,
          "Total": 138
        },
        "solver.advance": {
          "Count": 96,
          "Data": {},
          "Max": 78,
          "Min": 27,
          "TimeRatio": 0.5002846222655932,
          "Total": 6152
        },
        "solver.initialize": {
          "Count": 1,
          "Data": {},
          "Max": 105,
          "Min": 105,
          "TimeRatio": 0.008538667967797023,
          "Total": 105
        }
      }
    }
  ]
}
