{
  "Finalized": "2019-11-13T14:08:23.713",
  "Initialized": "2019-11-13T14:08:07.408",
  "Name": "",
  "Ranks": [
    {
      "Finalized": "2019-11-13T14:08:23.713",
      "Initialized": "2019-11-13T14:08:07.408",
      "StateChanges": [
        {
          "Name": "_GLOBAL",
          "State": 1,
          "Timestamp": 0
        },
        {
          "Name": "_GLOBAL",
          "State": 0,
          "Timestamp": 16305
        },
        {
          "Name": "advance",
          "State": 1,
          "Timestamp": 424
        },
        {
          "Name": "advance",
          "State": 0,
          "Timestamp": 570
        },
        {
          "Name": "advance",
          "State": 1,
          "Timestamp": 671
        },
        {
          "Name": "advance",
          "State": 0,
          "Timestamp": 818
        },
        {
          "Name": "advance",
          "State": 1,
          "Timestamp": 905
        },
        {
          "Name": "advance",
          "State": 0,
          "Timestamp": 1052
        },
        {
          "Name": "advance",
          "State": 1,
          "Timestamp": 1137
        },
        {
          "Name": "advance",
          "State": 0,
          "Timestamp": 1283
        },
        {
          "Name": "advance",
          "State": 1,
          "Timestamp": 1368
        },
        {
          "Name": "advance",
          "State": 0,
          "Timestamp": 1514
        },
        {
          "Name": "advance",
          "State": 1,
          "Timestamp": 1599
        },
        {
          "Name": "advance",
          "State": 0,
          "Timestamp": 1746
        },
        {
          "Name": "advance",
          "State": 1,
          "Timestamp": 1834
        },
        {
          "Name": "advance",
          "State": 0,
          "Timestamp": 1980
        },
        {
          "Name": "advance",
          "State": 1,
          "Timestamp": 2064
        },
        {
          "Name": "advance",
          "State": 0,
          "Timestamp": 2209
        },
        {
          "Name": "advance",
          "State": 1,
          "Timestamp": 2294
        },
        {
          "Name": "advance",
          "State": 0,
          "Timestamp": 2440
        },
        {
          "Name": "advance",
          "State": 1,
          "Timestamp": 2525
        },
        {
          "Name": "advance",
          "State": 0,
          "Timestamp": 2671
        },
        {
          "Name": "advance",
          "State": 1,
          "Timestamp": 2756
        },
        {
          "Name": "advance",
          "State": 0,
          "Timestamp": 2903
        },
        {
          "Name": "advance",
          "State": 1,
          "Timestamp": 2988
        },
        {
          "Name": "advance",
          "State": 0,
          "Timestamp": 3134
        },
        {
          "Name": "advance",
          "State": 1,
          "Timestamp": 3220
        },
        {
          "Name": "advance",
          "State": 0,
          "Timestamp": 3366
        },
        {
          "Name": "advance",
          "State": 1,
          "Timestamp": 3451
        },
        {
          "Name": "advance",
          "State": 0,
          "Timestamp": 3600
        },
        {
          "Name": "advance",
          "State": 1,
          "Timestamp": 3685
        },
        {
          "Name": "advance",
          "State": 0,
          "Timestamp": 3833
        },
        {
          "Name": "advance",
          "State": 1,
          "Timestamp": 3918
        },
        {
          "Name": "advance",
          "State": 0,
          "Timestamp": 4064
        },
        {
          "Name": "advance",
          "State": 1,
          "Timestamp": 4149
        },
        {
          "Name": "advance",
          "State": 0,
          "Timestamp": 4295
        },
        {
          "Name": "advance",
          "State": 1,
          "Timestamp": 4380
        },
        {
          "Name": "advance",
          "State": 0,
          "Timestamp": 4537
        },
        {
          "Name": "advance",
          "State": 1,
          "Timestamp": 4632
        },
        {
          "Name": "advance",
          "State": 0,
          "Timestamp": 4779
        },
        {
          "Name": "advance",
          "State": 1,
          "Timestamp": 4866
        },
        {
          "Name": "advance",
          "State": 0,
          "Timestamp": 5011
        },
        {
          "Name": "advance",
          "State": 1,
          "Timestamp": 5096
        },
        {
          "Name": "advance",
          "State": 0,
          "Timestamp": 5243
        },
        {
          "Name": "advance",
          "State": 1,
          "Timestamp": 5328
        },
        {
          "Name": "advance",
          "State": 0,
          "Timestamp": 5474
        },
        {
          "Name": "advance",
          "State": 1,
          "Timestamp": 5559
        },
        {
          "Name": "advance",
          "State": 0,
          "Timestamp": 5706
        },
        {
          "Name": "advance",
          "State": 1,
          "Timestamp": 5791
        },
        {
          "Name": "advance",
          "State": 0,
          "Timestamp": 5942
        },
        {
          "Name": "advance",
          "State": 1,
          "Timestamp": 6027
        },
        {
          "Name": "advance",
          "State": 0,
          "Timestamp": 6177
        },
        {
          "Name": "advance",
          "State": 1,
          "Timestamp": 6262
        },
        {
          "Name": "advance",
          "State": 0,
          "Timestamp": 6412
        },
        {
          "Name": "advance",
          "State": 1,
          "Timestamp": 6497
        },
        {
          "Name": "advance",
          "State": 0,
          "Timestamp": 6643
        },
        {
          "Name": "advance",
          "State": 1,
          "Timestamp": 6728
        },
        {
          "Name": "advance",
          "State": 0,
          "Timestamp": 6877
        },
        {
          "Name": "advance",
          "State": 1,
          "Timestamp": 6962
        },
        {
          "Name": "advance",
          "State": 0,
          "Timestamp": 7110
        },
        {
          "Name": "advance",
          "State": 1,
          "Timestamp": 7195
        },
        {
          "Name": "advance",
          "State": 0,
          "Timestamp": 7341
        },
        {
          "Name": "advance",
          "State": 1,
          "Timestamp": 7426
        },
        {
          "Name": "advance",
          "State": 0,
          "Timestamp": 7574
        },
        {
          "Name": "advance",
          "State": 1,
          "Timestamp": 7659
        },
        {
          "Name": "advance",
          "State": 0,
          "Timestamp": 7806
        },
        {
          "Name": "advance",
          "State": 1,
          "Timestamp": 7892
        },
        {
          "Name": "advance",
          "State": 0,
          "Timestamp": 8042
        },
        {
          "Name": "advance",
          "State": 1,
          "Timestamp": 8127
        },
        {
          "Name": "advance",
          "State": 0,
          "Timestamp": 8273
        },
        {
          "Name": "advance",
          "State": 1,
          "Timestamp": 8358
        },
        {
          "Name": "advance",
          "State": 0,
          "Timestamp": 8505
        },
        {
          "Name": "advance",
          "State": 1,
          "Timestamp": 8590
        },
        {
          "Name": "advance",
          "State": 0,
          "Timestamp": 8738
        },
        {
          "Name": "advance",
          "State": 1,
          "Timestamp": 8825
        },
        {
          "Name": "advance",
          "State": 0,
          "Timestamp": 8984
        },
        {
          "Name": "advance",
          "State": 1,
          "Timestamp": 9081
        },
        {
          "Name": "advance",
          "State": 0,
          "Timestamp": 9228
        },
        {
          "Name": "advance",
          "State": 1,
          "Timestamp": 9314
        },
        {
          "Name": "advance",
          "State": 0,
          "Timestamp": 9461
        },
        {
          "Name": "advance",
          "State": 1,
          "Timestamp": 9547
        },
        {
          "Name": "advance",
          "State": 0,
          "Timestamp": 9694
        },
        {
          "Name": "advance",
          "State": 1,
          "Timestamp": 9779
        },
        {
          "Name": "advance",
          "State": 0,
          "Timestamp": 9930
        },
        {
          "Name": "advance",
          "State": 1,
          "Timestamp": 10016
        },
        {
          "Name": "advance",
          "State": 0,
          "Timestamp": 10165
        },
        {
          "Name": "advance",
          "State": 1,
          "Timestamp": 10252
        },
        {
          "Name": "advance",
          "State": 0,
          "Timestamp": 10401
        },
        {
          "Name": "advance",
          "State": 1,
          "Timestamp": 10487
        },
        {
          "Name": "advance",
          "State": 0,
          "Timestamp": 10636
        },
        {
          "Name": "advance",
          "State": 1,
          "Timestamp": 10721
        },
        {
          "Name": "advance",
          "State": 0,
          "Timestamp": 10870
        },
        {
          "Name": "advance",
          "State": 1,
          "Timestamp": 10956
        },
        {
          "Name": "advance",
          "State": 0,
          "Timestamp": 11105
        },
        {
          "Name": "advance",
          "State": 1,
          "Timestamp": 11190
        },
        {
          "Name": "advance",
          "State": 0,
          "Timestamp": 11351
        },
        {
          "Name": "advance",
          "State": 1,
          "Timestamp": 11446
        },
        {
          "Name": "advance",
          "State": 0,
          "Timestamp": 11595
        },
        {
          "Name": "advance",
          "State": 1,
          "Timestamp": 11680
        },
        {
          "Name": "advance",
          "State": 0,
          "Timestamp": 11830
        },
        {
          "Name": "advance",
          "State": 1,
          "Timestamp": 11915
        },
        {
          "Name": "advance",
          "State": 0,
          "Timestamp": 12075
        },
        {
          "Name": "advance",
          "State": 1,
          "Timestamp": 12171
        },
        {
          "Name": "advance",
          "State": 0,
          "Timestamp": 12319
        },
        {
          "Name": "advance",
          "State": 1,
          "Timestamp": 12404
        },
        {
          "Name": "advance",
          "State": 0,
          "Timestamp": 12554
        },
        {
          "Name": "advance",
          "State": 1,
          "Timestamp": 12639
        },
        {
          "Name": "advance",
          "State": 0,
          "Timestamp": 12799
        },
        {
          "Name": "advance",
          "State": 1,
          "Timestamp": 12896
        },
        {
          "Name": "advance",
          "State": 0,
          "Timestamp": 13044
        },
        {
          "Name": "advance",
          "State": 1,
          "Timestamp": 13130
        },
        {
          "Name": "advance",
          "State": 0,
          "Timestamp": 13278
        },
        {
          "Name": "advance",
          "State": 1,
          "Timestamp": 13363
        },
        {
          "Name": "advance",
          "State": 0,
          "Timestamp": 13524
        },
        {
          "Name": "advance",
          "State": 1,
          "Timestamp": 13620
        },
        {
          "Name": "advance",
          "State": 0,
          "Timestamp": 13770
        },
        {
          "Name": "advance",
          "State": 1,
          "Timestamp": 13855
        },
        {
          "Name": "advance",
          "State": 0,
          "Timestamp": 14006
        },
        {
          "Name": "advance",
          "State": 1,
          "Timestamp": 14091
        },
        {
          "Name": "advance",
          "State": 0,
          "Timestamp": 14251
        },
        {
          "Name": "advance",
          "State": 1,
          "Timestamp": 14346
        },
        {
          "Name": "advance",
          "State": 0,
          "Timestamp": 14496
        },
        {
          "Name": "advance",
          "State": 1,
          "Timestamp": 14582
        },
        {
          "Name": "advance",
          "State": 0,
          "Timestamp": 14732
        },
        {
          "Name": "advance",
          "State": 1,
          "Timestamp": 14817
        },
        {
          "Name": "advance",
          "State": 0,
          "Timestamp": 14977
        },
        {
          "Name": "advance",
          "State": 1,
          "Timestamp": 15073
        },
        {
          "Name": "advance",
          "State": 0,
          "Timestamp": 15220
        },
        {
          "Name": "advance",
          "State": 1,
          "Timestamp": 15306
        },
        {
          "Name": "advance",
          "State": 0,
          "Timestamp": 15454
        },
        {
          "Name": "advance",
          "State": 1,
          "Timestamp": 15539
        },
        {
          "Name": "advance",
          "State": 0,
          "Timestamp": 15713
        },
        {
          "Name": "advance",
          "State": 1,
          "Timestamp": 15809
        },
        {
          "Name": "advance",
          "State": 0,
          "Timestamp": 15958
        },
        {
          "Name": "advance",
          "State": 1,
          "Timestamp": 16043
        },
        {
          "Name": "advance",
          "State": 0,
          "Timestamp": 16191
        },
        {
          "Name": "advance",
          "State": 1,
          "Timestamp": 16276
        },
        {
          "Name": "advance",
          "State": 0,
          "Timestamp": 16276
        },
        {
          "Name": "advance/cpl.computeQuasiNewtonUpdate",
          "State": 1,
          "Timestamp": 424
        },
        {
          "Name": "advance/cpl.computeQuasiNewtonUpdate",
          "State": 0,
          "Timestamp": 424
        },
        {
          "Name": "advance/cpl.computeQuasiNewtonUpdate",
          "State": 1,
          "Timestamp": 671
        },
        {
          "Name": "advance/cpl.computeQuasiNewtonUpdate",
          "State": 0,
          "Timestamp": 671
        },
        {
          "Name": "advance/cpl.computeQuasiNewtonUpdate",
          "State": 1,
          "Timestamp": 905
        },
        {
          "Name": "advance/cpl.computeQuasiNewtonUpdate",
          "State": 0,
          "Timestamp": 905
        },
        {
          "Name": "advance/cpl.computeQuasiNewtonUpdate",
          "State": 1,
          "Timestamp": 1137
        },
        {
          "Name": "advance/cpl.computeQuasiNewtonUpdate",
          "State": 0,
          "Timestamp": 1137
        },
        {
          "Name": "advance/cpl.computeQuasiNewtonUpdate",
          "State": 1,
          "Timestamp": 1368
        },
        {
          "Name": "advance/cpl.computeQuasiNewtonUpdate",
          "State": 0,
          "Timestamp": 1368
        },
        {
          "Name": "advance/cpl.computeQuasiNewtonUpdate",
          "State": 1,
          "Timestamp": 1599
        },
        {
          "Name": "advance/cpl.computeQuasiNewtonUpdate",
          "State": 0,
          "Timestamp": 1599
        },
        {
          "Name": "advance/cpl.computeQuasiNewtonUpdate",
          "State": 1,
          "Timestamp": 1834
        },
        {
          "Name": "advance/cpl.computeQuasiNewtonUpdate",
          "State": 0,
          "Timestamp": 1834
        },
        {
          "Name": "advance/cpl.computeQuasiNewtonUpdate",
          "State": 1,
          "Timestamp": 2064
        },
        {
          "Name": "advance/cpl.computeQuasiNewtonUpdate",
          "State": 0,
          "Timestamp": 2064
        },
        {
          "Name": "advance/cpl.computeQuasiNewtonUpdate",
          "State": 1,
          "Timestamp": 2294
        },
        {
          "Name": "advance/cpl.computeQuasiNewtonUpdate",
          "State": 0,
          "Timestamp": 2294
        },
        {
          "Name": "advance/cpl.computeQuasiNewtonUpdate",
          "State": 1,
          "Timestamp": 2525
        },
        {
          "Name": "advance/cpl.computeQuasiNewtonUpdate",
          "State": 0,
          "Timestamp": 2525
        },
        {
          "Name": "advance/cpl.computeQuasiNewtonUpdate",
          "State": 1,
          "Timestamp": 2756
        },
        {
          "Name": "advance/cpl.computeQuasiNewtonUpdate",
          "State": 0,
          "Timestamp": 2756
        },
        {
          "Name": "advance/cpl.computeQuasiNewtonUpdate",
          "State": 1,
          "Timestamp": 2988
        },
        {
          "Name": "advance/cpl.computeQuasiNewtonUpdate",
          "State": 0,
          "Timestamp": 2988
        },
        {
          "Name": "advance/cpl.computeQuasiNewtonUpdate",
          "State": 1,
          "Timestamp": 3220
        },
        {
          "Name": "advance/cpl.computeQuasiNewtonUpdate",
          "State": 0,
          "Timestamp": 3220
        },
        {
          "Name": "advance/cpl.computeQuasiNewtonUpdate",
          "State": 1,
          "Timestamp": 3451
        },
        {
          "Name": "advance/cpl.computeQuasiNewtonUpdate",
          "State": 0,
          "Timestamp": 3451
        },
        {
          "Name": "advance/cpl.computeQuasiNewtonUpdate",
          "State": 1,
          "Timestamp": 3685
        },
        {
          "Name": "advance/cpl.computeQuasiNewtonUpdate",
          "State": 0,
          "Timestamp": 3685
        },
        {
          "Name": "advance/cpl.computeQuasiNewtonUpdate",
          "State": 1,
          "Timestamp": 3918
        },
        {
          "Name": "advance/cpl.computeQuasiNewtonUpdate",
          "State": 0,
          "Timestamp": 3918
        },
        {
          "Name": "advance/cpl.computeQuasiNewtonUpdate",
          "State": 1,
          "Timestamp": 4149
        },
        {
          "Name": "advance/cpl.computeQuasiNewtonUpdate",
          "State": 0,
          "Timestamp": 4149
        },
        {
          "Name": "advance/cpl.computeQuasiNewtonUpdate",
          "State": 1,
          "Timestamp": 4633
        },
        {
          "Name": "advance/cpl.computeQuasiNewtonUpdate",
          "State": 0,
          "Timestamp": 4633
        },
        {
          "Name": "advance/cpl.computeQuasiNewtonUpdate",
          "State": 1,
          "Timestamp": 4866
        },
        {
          "Name": "advance/cpl.computeQuasiNewtonUpdate",
          "State": 0,
          "Timestamp": 4866
        },
        {
          "Name": "advance/cpl.computeQuasiNewtonUpdate",
          "State": 1,
          "Timestamp": 5097
        },
        {
          "Name": "advance/cpl.computeQuasiNewtonUpdate",
          "State": 0,
          "Timestamp": 5097
        },
        {
          "Name": "advance/cpl.computeQuasiNewtonUpdate",
          "State": 1,
          "Timestamp": 5328
        },
        {
          "Name": "advance/cpl.computeQuasiNewtonUpdate",
          "State": 0,
          "Timestamp": 5328
        },
        {
          "Name": "advance/cpl.computeQuasiNewtonUpdate",
          "State": 1,
          "Timestamp": 5559
        },
        {
          "Name": "advance/cpl.computeQuasiNewtonUpdate",
          "State": 0,
          "Timestamp": 5560
        },
        {
          "Name": "advance/cpl.computeQuasiNewtonUpdate",
          "State": 1,
          "Timestamp": 5791
        },
        {
          "Name": "advance/cpl.computeQuasiNewtonUpdate",
          "State": 0,
          "Timestamp": 5791
        },
        {
          "Name": "advance/cpl.computeQuasiNewtonUpdate",
          "State": 1,
          "Timestamp": 6027
        },
        {
          "Name": "advance/cpl.computeQuasiNewtonUpdate",
          "State": 0,
          "Timestamp": 6027
        },
        {
          "Name": "advance/cpl.computeQuasiNewtonUpdate",
          "State": 1,
          "Timestamp": 6262
        },
        {
          "Name": "advance/cpl.computeQuasiNewtonUpdate",
          "State": 0,
          "Timestamp": 6262
        },
        {
          "Name": "advance/cpl.computeQuasiNewtonUpdate",
          "State": 1,
          "Timestamp": 6497
        },
        {
          "Name": "advance/cpl.computeQuasiNewtonUpdate",
          "State": 0,
          "Timestamp": 6497
        },
        {
          "Name": "advance/cpl.computeQuasiNewtonUpdate",
          "State": 1,
          "Timestamp": 6728
        },
        {
          "Name": "advance/cpl.computeQuasiNewtonUpdate",
          "State": 0,
          "Timestamp": 6728
        },
        {
          "Name": "advance/cpl.computeQuasiNewtonUpdate",
          "State": 1,
          "Timestamp": 6962
        },
        {
          "Name": "advance/cpl.computeQuasiNewtonUpdate",
          "State": 0,
          "Timestamp": 6962
        },
        {
          "Name": "advance/cpl.computeQuasiNewtonUpdate",
          "State": 1,
          "Timestamp": 7195
        },
        {
          "Name": "advance/cpl.computeQuasiNewtonUpdate",
          "State": 0,
          "Timestamp": 7195
        },
        {
          "Name": "advance/cpl.computeQuasiNewtonUpdate",
          "State": 1,
          "Timestamp": 7426
        },
        {
          "Name": "advance/cpl.computeQuasiNewtonUpdate",
          "State": 0,
          "Timestamp": 7426
        },
        {
          "Name": "advance/cpl.computeQuasiNewtonUpdate",
          "State": 1,
          "Timestamp": 7659
        },
        {
          "Name": "advance/cpl.computeQuasiNewtonUpdate",
          "State": 0,
          "Timestamp": 7659
        },
        {
          "Name": "advance/cpl.computeQuasiNewtonUpdate",
          "State": 1,
          "Timestamp": 7892
        },
        {
          "Name": "advance/cpl.computeQuasiNewtonUpdate",
          "State": 0,
          "Timestamp": 7892
        },
        {
          "Name": "advance/cpl.computeQuasiNewtonUpdate",
          "State": 1,
          "Timestamp": 8127
        },
        {
          "Name": "advance/cpl.computeQuasiNewtonUpdate",
          "State": 0,
          "Timestamp": 8127
        },
        {
          "Name": "advance/cpl.computeQuasiNewtonUpdate",
          "State": 1,
          "Timestamp": 8358
        },
        {
          "Name": "advance/cpl.computeQuasiNewtonUpdate",
          "State": 0,
          "Timestamp": 8358
        },
        {
          "Name": "advance/cpl.computeQuasiNewtonUpdate",
          "State": 1,
          "Timestamp": 8590
        },
        {
          "Name": "advance/cpl.computeQuasiNewtonUpdate",
          "State": 0,
          "Timestamp": 8590
        },
        {
          "Name": "advance/cpl.computeQuasiNewtonUpdate",
          "State": 1,
          "Timestamp": 9081
        },
        {
          "Name": "advance/cpl.computeQuasiNewtonUpdate",
          "State": 0,
          "Timestamp": 9081
        },
        {
          "Name": "advance/cpl.computeQuasiNewtonUpdate",
          "State": 1,
          "Timestamp": 9314
        },
        {
          "Name": "advance/cpl.computeQuasiNewtonUpdate",
          "State": 0,
          "Timestamp": 9314
        },
        {
          "Name": "advance/cpl.computeQuasiNewtonUpdate",
          "State": 1,
          "Timestamp": 9547
        },
        {
          "Name": "advance/cpl.computeQuasiNewtonUpdate",
          "State": 0,
          "Timestamp": 9547
        },
        {
          "Name": "advance/cpl.computeQuasiNewtonUpdate",
          "State": 1,
          "Timestamp": 9779
        },
        {
          "Name": "advance/cpl.computeQuasiNewtonUpdate",
          "State": 0,
          "Timestamp": 9779
        },
        {
          "Name": "advance/cpl.computeQuasiNewtonUpdate",
          "State": 1,
          "Timestamp": 10016
        },
        {
          "Name": "advance/cpl.computeQuasiNewtonUpdate",
          "State": 0,
          "Timestamp": 10016
        },
        {
          "Name": "advance/cpl.computeQuasiNewtonUpdate",
          "State": 1,
          "Timestamp": 10252
        },
        {
          "Name": "advance/cpl.computeQuasiNewtonUpdate",
          "State": 0,
          "Timestamp": 10252
        },
        {
          "Name": "advance/cpl.computeQuasiNewtonUpdate",
          "State": 1,
          "Timestamp": 10487
        },
        {
          "Name": "advance/cpl.computeQuasiNewtonUpdate",
          "State": 0,
          "Timestamp": 10487
        },
        {
          "Name": "advance/cpl.computeQuasiNewtonUpdate",
          "State": 1,
          "Timestamp": 10721
        },
        {
          "Name": "advance/cpl.computeQuasiNewtonUpdate",
          "State": 0,
          "Timestamp": 10721
        },
        {
          "Name": "advance/cpl.computeQuasiNewtonUpdate",
          "State": 1,
          "Timestamp": 10956
        },
        {
          "Name": "advance/cpl.computeQuasiNewtonUpdate",
          "State": 0,
          "Timestamp": 10956
        },
        {
          "Name": "advance/cpl.computeQuasiNewtonUpdate",
          "State": 1,
          "Timestamp": 11446
        },
        {
          "Name": "advance/cpl.computeQuasiNewtonUpdate",
          "State": 0,
          "Timestamp": 11446
        },
        {
          "Name": "advance/cpl.computeQuasiNewtonUpdate",
          "State": 1,
          "Timestamp": 11680
        },
        {
          "Name": "advance/cpl.computeQuasiNewtonUpdate",
          "State": 0,
          "Timestamp": 11680
        },
        {
          "Name": "advance/cpl.computeQuasiNewtonUpdate",
          "State": 1,
          "Timestamp": 12171
        },
        {
          "Name": "advance/cpl.computeQuasiNewtonUpdate",
          "State": 0,
          "Timestamp": 12171
        },
        {
          "Name": "advance/cpl.computeQuasiNewtonUpdate",
          "State": 1,
          "Timestamp": 12405
        },
        {
          "Name": "advance/cpl.computeQuasiNewtonUpdate",
          "State": 0,
          "Timestamp": 12405
        },
        {
          "Name": "advance/cpl.computeQuasiNewtonUpdate",
          "State": 1,
          "Timestamp": 12896
        },
        {
          "Name": "advance/cpl.computeQuasiNewtonUpdate",
          "State": 0,
          "Timestamp": 12896
        },
        {
          "Name": "advance/cpl.computeQuasiNewtonUpdate",
          "State": 1,
          "Timestamp": 13130
        },
        {
          "Name": "advance/cpl.computeQuasiNewtonUpdate",
          "State": 0,
          "Timestamp": 13130
        },
        {
          "Name": "advance/cpl.computeQuasiNewtonUpdate",
          "State": 1,
          "Timestamp": 13620
        },
        {
          "Name": "advance/cpl.computeQuasiNewtonUpdate",
          "State": 0,
          "Timestamp": 13620
        },
        {
          "Name": "advance/cpl.computeQuasiNewtonUpdate",
          "State": 1,
          "Timestamp": 13856
        },
        {
          "Name": "advance/cpl.computeQuasiNewtonUpdate",
          "State": 0,
          "Timestamp": 13856
        },
        {
          "Name": "advance/cpl.computeQuasiNewtonUpdate",
          "State": 1,
          "Timestamp": 14347
        },
        {
          "Name": "advance/cpl.computeQuasiNewtonUpdate",
          "State": 0,
          "Timestamp": 14347
        },
        {
          "Name": "advance/cpl.computeQuasiNewtonUpdate",
          "State": 1,
          "Timestamp": 14582
        },
        {
          "Name": "advance/cpl.computeQuasiNewtonUpdate",
          "State": 0,
          "Timestamp": 14582
        },
        {
          "Name": "advance/cpl.computeQuasiNewtonUpdate",
          "State": 1,
          "Timestamp": 15073
        },
        {
          "Name": "advance/cpl.computeQuasiNewtonUpdate",
          "State": 0,
          "Timestamp": 15073
        },
        {
          "Name": "advance/cpl.computeQuasiNewtonUpdate",
          "State": 1,
          "Timestamp": 15306
        },
        {
          "Name": "advance/cpl.computeQuasiNewtonUpdate",
          "State": 0,
          "Timestamp": 15306
        },
        {
          "Name": "advance/cpl.computeQuasiNewtonUpdate",
          "State": 1,
          "Timestamp": 15809
        },
        {
          "Name": "advance/cpl.computeQuasiNewtonUpdate",
          "State": 0,
          "Timestamp": 15809
        },
        {
          "Name": "advance/cpl.computeQuasiNewtonUpdate",
          "State": 1,
          "Timestamp": 16043
        },
        {
          "Name": "advance/cpl.computeQuasiNewtonUpdate",
          "State": 0,
          "Timestamp": 16043
        },
        {
          "Name": "configure",
          "State": 1,
          "Timestamp": 0
        },
        {
          "Name": "configure",
          "State": 0,
          "Timestamp": 0
        },
        {
          "Name": "finalize",
          "State": 1,
          "Timestamp": 16304
        },
        {
          "Name": "finalize",
          "State": 0,
          "Timestamp": 16305
        },
        {
          "Name": "initialize",
          "State": 1,
          "Timestamp": 4
        },
        {
          "Name": "initialize",
          "State": 0,
          "Timestamp": 6
        },
        {
          "Name": "initialize/m2n.acceptMasterConnection",
          "State": 1,
          "Timestamp": 4
        },
        {
          "Name": "initialize/m2n.acceptMasterConnection",
          "State": 0,
          "Timestamp": 5
        },
        {
          "Name": "initialize/m2n.acceptSlavesConnection",
          "State": 1,
          "Timestamp": 6
        },
        {
          "Name": "initialize/m2n.acceptSlavesConnection",
          "State": 0,
          "Timestamp": 6
        },
        {
          "Name": "initialize/partition.feedbackMesh.NeumannNodes",
          "State": 1,
          "Timestamp": 6
        },
        {
          "Name": "initialize/partition.feedbackMesh.NeumannNodes",
          "State": 0,
          "Timestamp": 6
        },
        {
          "Name": "initialize/partition.gatherMesh.NeumannNodes",
          "State": 1,
          "Timestamp": 6
        },
        {
          "Name": "initialize/partition.gatherMesh.NeumannNodes",
          "State": 0,
          "Timestamp": 6
        },
        {
          "Name": "initialize/partition.sendGlobalMesh.NeumannNodes",
          "State": 1,
          "Timestamp": 6
        },
        {
          "Name": "initialize/partition.sendGlobalMesh.NeumannNodes",
          "State": 0,
          "Timestamp": 6
        },
        {
          "Name": "initializeData",
          "State": 1,
          "Timestamp": 10
        },
        {
          "Name": "initializeData",
          "State": 0,
          "Timestamp": 301
        },
        {
          "Name": "solver.advance",
          "State": 1,
          "Timestamp": 570
        },
        {
          "Name": "solver.advance",
          "State": 0,
          "Timestamp": 671
        },
        {
          "Name": "solver.advance",
          "State": 1,
          "Timestamp": 818
        },
        {
          "Name": "solver.advance",
          "State": 0,
          "Timestamp": 905
        },
        {
          "Name": "solver.advance",
          "State": 1,
          "Timestamp": 1052
        },
        {
          "Name": "solver.advance",
          "State": 0,
          "Timestamp": 1137
        },
        {
          "Name": "solver.advance",
          "State": 1,
          "Timestamp": 1283
        },
        {
          "Name": "solver.advance",
          "State": 0,
          "Timestamp": 1368
        },
        {
          "Name": "solver.advance",
          "State": 1,
          "Timestamp": 1514
        },
        {
          "Name": "solver.advance",
          "State": 0,
          "Timestamp": 1599
        },
        {
          "Name": "solver.advance",
          "State": 1,
          "Timestamp": 1746
        },
        {
          "Name": "solver.advance",
          "State": 0,
          "Timestamp": 1834
        },
        {
          "Name": "solver.advance",
          "State": 1,
          "Timestamp": 1980
        },
        {
          "Name": "solver.advance",
          "State": 0,
          "Timestamp": 2064
        },
        {
          "Name": "solver.advance",
          "State": 1,
          "Timestamp": 2209
        },
        {
          "Name": "solver.advance",
          "State": 0,
          "Timestamp": 2294
        },
        {
          "Name": "solver.advance",
          "State": 1,
          "Timestamp": 2440
        },
        {
          "Name": "solver.advance",
          "State": 0,
          "Timestamp": 2525
        },
        {
          "Name": "solver.advance",
          "State": 1,
          "Timestamp": 2671
        },
        {
          "Name": "solver.advance",
          "State": 0,
          "Timestamp": 2756
        },
        {
          "Name": "solver.advance",
          "State": 1,
          "Timestamp": 2903
        },
        {
          "Name": "solver.advance",
          "State": 0,
          "Timestamp": 2988
        },
        {
          "Name": "solver.advance",
          "State": 1,
          "Timestamp": 3134
        },
        {
          "Name": "solver.advance",
          "State": 0,
          "Timestamp": 3220
        },
        {
          "Name": "solver.advance",
          "State": 1,
          "Timestamp": 3366
        },
        {
          "Name": "solver.advance",
          "State": 0,
          "Timestamp": 3451
        },
        {
          "Name": "solver.advance",
          "State": 1,
          "Timestamp": 3600
        },
        {
          "Name": "solver.advance",
          "State": 0,
          "Timestamp": 3685
        },
        {
          "Name": "solver.advance",
          "State": 1,
          "Timestamp": 3833
        },
        {
          "Name": "solver.advance",
          "State": 0,
          "Timestamp": 3918
        },
        {
          "Name": "solver.advance",
          "State": 1,
          "Timestamp": 4064
        },
        {
          "Name": "solver.advance",
          "State": 0,
          "Timestamp": 4149
        },
        {
          "Name": "solver.advance",
          "State": 1,
          "Timestamp": 4295
        },
        {
          "Name": "solver.advance",
          "State": 0,
          "Timestamp": 4380
        },
        {
          "Name": "solver.advance",
          "State": 1,
          "Timestamp": 4537
        },
        {
          "Name": "solver.advance",
          "State": 0,
          "Timestamp": 4632
        },
        {
          "Name": "solver.advance",
          "State": 1,
          "Timestamp": 4779
        },
        {
          "Name": "solver.advance",
          "State": 0,
          "Timestamp": 4866
        },
        {
          "Name": "solver.advance",
          "State": 1,
          "Timestamp": 5011
        },
        {
          "Name": "solver.advance",
          "State": 0,
          "Timestamp": 5096
        },
        {
          "Name": "solver.advance",
          "State": 1,
          "Timestamp": 5243
        },
        {
          "Name": "solver.advance",
          "State": 0,
          "Timestamp": 5328
        },
        {
          "Name": "solver.advance",
          "State": 1,
          "Timestamp": 5474
        },
        {
          "Name": "solver.advance",
          "State": 0,
          "Timestamp": 5559
        },
        {
          "Name": "solver.advance",
          "State": 1,
          "Timestamp": 5706
        },
        {
          "Name": "solver.advance",
          "State": 0,
          "Timestamp": 5791
        },
        {
          "Name": "solver.advance",
          "State": 1,
          "Timestamp": 5942
        },
        {
          "Name": "solver.advance",
          "State": 0,
          "Timestamp": 6027
        },
        {
          "Name": "solver.advance",
          "State": 1,
          "Timestamp": 6177
        },
        {
          "Name": "solver.advance",
          "State": 0,
          "Timestamp": 6262
        },
        {
          "Name": "solver.advance",
          "State": 1,
          "Timestamp": 6412
        },
        {
          "Name": "solver.advance",
          "State": 0,
          "Timestamp": 6497
        },
        {
          "Name": "solver.advance",
          "State": 1,
          "Timestamp": 6643
        },
        {
          "Name": "solver.advance",
          "State": 0,
          "Timestamp": 6728
        },
        {
          "Name": "solver.advance",
          "State": 1,
          "Timestamp": 6877
        },
        {
          "Name": "solver.advance",
          "State": 0,
          "Timestamp": 6962
        },
        {
          "Name": "solver.advance",
          "State": 1,
          "Timestamp": 7110
        },
        {
          "Name": "solver.advance",
          "State": 0,
          "Timestamp": 7195
        },
        {
          "Name": "solver.advance",
          "State": 1,
          "Timestamp": 7341
        },
        {
          "Name": "solver.advance",
          "State": 0,
          "Timestamp": 7426
        },
        {
          "Name": "solver.advance",
          "State": 1,
          "Timestamp": 7574
        },
        {
          "Name": "solver.advance",
          "State": 0,
          "Timestamp": 7659
        },
        {
          "Name": "solver.advance",
          "State": 1,
          "Timestamp": 7806
        },
        {
          "Name": "solver.advance",
          "State": 0,
          "Timestamp": 7892
        },
        {
          "Name": "solver.advance",
          "State": 1,
          "Timestamp": 8042
        },
        {
          "Name": "solver.advance",
          "State": 0,
          "Timestamp": 8127
        },
        {
          "Name": "solver.advance",
          "State": 1,
          "Timestamp": 8273
        },
        {
          "Name": "solver.advance",
          "State": 0,
          "Timestamp": 8358
        },
        {
          "Name": "solver.advance",
          "State": 1,
          "Timestamp": 8505
        },
        {
          "Name": "solver.advance",
          "State": 0,
          "Timestamp": 8590
        },
        {
          "Name": "solver.advance",
          "State": 1,
          "Timestamp": 8738
        },
        {
          "Name": "solver.advance",
          "State": 0,
          "Timestamp": 8825
        },
        {
          "Name": "solver.advance",
          "State": 1,
          "Timestamp": 8984
        },
        {
          "Name": "solver.advance",
          "State": 0,
          "Timestamp": 9081
        },
        {
          "Name": "solver.advance",
          "State": 1,
          "Timestamp": 9228
        },
        {
          "Name": "solver.advance",
          "State": 0,
          "Timestamp": 9314
        },
        {
          "Name": "solver.advance",
          "State": 1,
          "Timestamp": 9461
        },
        {
          "Name": "solver.advance",
          "State": 0,
          "Timestamp": 9547
        },
        {
          "Name": "solver.advance",
          "State": 1,
          "Timestamp": 9694
        },
        {
          "Name": "solver.advance",
          "State": 0,
          "Timestamp": 9779
        },
        {
          "Name": "solver.advance",
          "State": 1,
          "Timestamp": 9930
        },
        {
          "Name": "solver.advance",
          "State": 0,
          "Timestamp": 10016
        },
        {
          "Name": "solver.advance",
          "State": 1,
          "Timestamp": 10165
        },
        {
          "Name": "solver.advance",
          "State": 0,
          "Timestamp": 10252
        },
        {
          "Name": "solver.advance",
          "State": 1,
          "Timestamp": 10401
        },
        {
          "Name": "solver.advance",
          "State": 0,
          "Timestamp": 10487
        },
        {
          "Name": "solver.advance",
          "State": 1,
          "Timestamp": 10635
        },
        {
          "Name": "solver.advance",
          "State": 0,
          "Timestamp": 10721
        },
        {
          "Name": "solver.advance",
          "State": 1,
          "Timestamp": 10870
        },
        {
          "Name": "solver.advance",
          "State": 0,
          "Timestamp": 10956
        },
        {
          "Name": "solver.advance",
          "State": 1,
          "Timestamp": 11105
        },
        {
          "Name": "solver.advance",
          "State": 0,
          "Timestamp": 11190
        },
        {
          "Name": "solver.advance",
          "State": 1,
          "Timestamp": 11351
        },
        {
          "Name": "solver.advance",
          "State": 0,
          "Timestamp": 11446
        },
        {
          "Name": "solver.advance",
          "State": 1,
          "Timestamp": 11595
        },
        {
          "Name": "solver.advance",
          "State": 0,
          "Timestamp": 11680
        },
        {
          "Name": "solver.advance",
          "State": 1,
          "Timestamp": 11830
        },
        {
          "Name": "solver.advance",
          "State": 0,
          "Timestamp": 11915
        },
        {
          "Name": "solver.advance",
          "State": 1,
          "Timestamp": 12075
        },
        {
          "Name": "solver.advance",
          "State": 0,
          "Timestamp": 12171
        },
        {
          "Name": "solver.advance",
          "State": 1,
          "Timestamp": 12319
        },
        {
          "Name": "solver.advance",
          "State": 0,
          "Timestamp": 12404
        },
        {
          "Name": "solver.advance",
          "State": 1,
          "Timestamp": 12554
        },
        {
          "Name": "solver.advance",
          "State": 0,
          "Timestamp": 12639
        },
        {
          "Name": "solver.advance",
          "State": 1,
          "Timestamp": 12799
        },
        {
          "Name": "solver.advance",
          "State": 0,
          "Timestamp": 12896
        },
        {
          "Name": "solver.advance",
          "State": 1,
          "Timestamp": 13044
        },
        {
          "Name": "solver.advance",
          "State": 0,
          "Timestamp": 13130
        },
        {
          "Name": "solver.advance",
          "State": 1,
          "Timestamp": 13278
        },
        {
          "Name": "solver.advance",
          "State": 0,
          "Timestamp": 13363
        },
        {
          "Name": "solver.advance",
          "State": 1,
          "Timestamp": 13524
        },
        {
          "Name": "solver.advance",
          "State": 0,
          "Timestamp": 13620
        },
        {
          "Name": "solver.advance",
          "State": 1,
          "Timestamp": 13770
        },
        {
          "Name": "solver.advance",
          "State": 0,
          "Timestamp": 13855
        },
        {
          "Name": "solver.advance",
          "State": 1,
          "Timestamp": 14006
        },
        {
          "Name": "solver.advance",
          "State": 0,
          "Timestamp": 14091
        },
        {
          "Name": "solver.advance",
          "State": 1,
          "Timestamp": 14251
        },
        {
          "Name": "solver.advance",
          "State": 0,
          "Timestamp": 14346
        },
        {
          "Name": "solver.advance",
          "State": 1,
          "Timestamp": 14496
        },
        {
          "Name": "solver.advance",
          "State": 0,
          "Timestamp": 14582
        },
        {
          "Name": "solver.advance",
          "State": 1,
          "Timestamp": 14732
        },
        {
          "Name": "solver.advance",
          "State": 0,
          "Timestamp": 14817
        },
        {
          "Name": "solver.advance",
          "State": 1,
          "Timestamp": 14977
        },
        {
          "Name": "solver.advance",
          "State": 0,
          "Timestamp": 15073
        },
        {
          "Name": "solver.advance",
          "State": 1,
          "Timestamp": 15220
        },
        {
          "Name": "solver.advance",
          "State": 0,
          "Timestamp": 15306
        },
        {
          "Name": "solver.advance",
          "State": 1,
          "Timestamp": 15454
        },
        {
          "Name": "solver.advance",
          "State": 0,
          "Timestamp": 15539
        },
        {
          "Name": "solver.advance",
          "State": 1,
          "Timestamp": 15713
        },
        {
          "Name": "solver.advance",
          "State": 0,
          "Timestamp": 15809
        },
        {
          "Name": "solver.advance",
          "State": 1,
          "Timestamp": 15958
        },
        {
          "Name": "solver.advance",
          "State": 0,
          "Timestamp": 16043
        },
        {
          "Name": "solver.advance",
          "State": 1,
          "Timestamp": 16191
        },
        {
          "Name": "solver.advance",
          "State": 0,
          "Timestamp": 16276
        },
        {
          "Name": "solver.advance",
          "State": 1,
          "Timestamp": 16276
        },
        {
          "Name": "solver.advance",
          "State": 0,
          "Timestamp": 16304
        },
        {
          "Name": "solver.initialize",
          "State": 1,
          "Timestamp": 0
        },
        {
          "Name": "solver.initialize",
          "State": 2,
          "Timestamp": 4
        },
        {
          "Name": "solver.initialize",
          "State": 1,
          "Timestamp": 6
        },
        {
          "Name": "solver.initialize",
          "State": 2,
          "Timestamp": 10
        },
        {
          "Name": "solver.initialize",
          "State": 1,
          "Timestamp": 301
        },
        {
          "Name": "solver.initialize",
          "State": 0,
          "Timestamp": 424
        }
      ],
      "Timings": {
        "_GLOBAL": {
          "Count": 1,
          "Data": {},
          "Max": 16305,
          "Min": 16305,
          "TimeRatio": 1.0,
          "Total": 16305
        },
        "advance": {
          "Count": 68,
          "Data": {},
          "Max": 173,
          "Min": 0,
          "TimeRatio": 0.614719411223551,
          "Total": 10023
        },
        "advance/cpl.computeQuasiNewtonUpdate": {
          "Count": 58,
          "Data": {},
          "Max": 0,
          "Min": 0,
          "TimeRatio": 0.0,
          "Total": 0
        },
        "configure": {
          "Count": 1,
          "Data": {},
          "Max": 0,
          "Min": 0,
          "TimeRatio": 0.0,
          "Total": 0
        },
        "finalize": {
          "Count": 1,
          "Data": {},
          "Max": 0,
          "Min": 0,
          "TimeRatio": 0.0,
          "Total": 0
        },
        "initialize": {
          "Count": 1,
          "Data": {},
          "Max": 2,
          "Min": 2,
          "TimeRatio": 0.00012266176019625882,
          "Total": 2
        },
        "initialize/m2n.acceptMasterConnection": {
          "Count": 1,
          "Data": {},
          "Max": 1,
          "Min": 1,
          "TimeRatio": 6.133088009812941e-05,
          "Total": 1
        },
        "initialize/m2n.acceptSlavesConnection": {
          "Count": 1,
          "Data": {},
          "Max": 0,
          "Min": 0,
          "TimeRatio": 0.0,
          "Total": 0
        },
        "initialize/partition.feedbackMesh.NeumannNodes": {
          "Count": 1,
          "Data": {},
          "Max": 0,
          "Min": 0,
          "TimeRatio": 0.0,
          "Total": 0
        },
        "initialize/partition.gatherMesh.NeumannNodes": {
          "Count": 1,
          "Data": {},
          "Max": 0,
          "Min": 0,
          "TimeRatio": 0.0,
          "Total": 0
        },
        "initialize/partition.sendGlobalMesh.NeumannNodes": {
          "Count": 1,
          "Data": {},
          "Max": 0,
          "Min": 0,
          "TimeRatio": 0.0,
          "Total": 0
        },
        "initializeData": {
          "Count": 1,
          "Data": {},
          "Max": 290,
          "Min": 290,
          "TimeRatio": 0.01778595522845753,
          "Total": 290
        },
        "solver.advance": {
          "Count": 68,
          "Data": {},
          "Max": 100,
          "Min": 28,
          "TimeRatio": 0.3591536338546458,
          "Total": 5856
        },
        "solver.initialize": {
          "Count": 1,
          "Data": {},
          "Max": 131,
          "Min": 131,
          "TimeRatio": 0.008034345292854952,
          "Total": 131
        }
      }
    }
  ]
}
