# vtk DataFile Version 2.0

ASCII

DATASET UNSTRUCTURED_GRID

POINTS 106 float 

-5.0000000000000003e-02  0.0000000000000000e+00  0.0000000000000000e+00
5.0000000000000003e-02  0.0000000000000000e+00  0.0000000000000000e+00
-5.0000000000000003e-02  2.0000000000000000e-02  0.0000000000000000e+00
5.0000000000000003e-02  2.0000000000000000e-02  0.0000000000000000e+00
-5.0000000000000003e-02  4.0000000000000001e-02  0.0000000000000000e+00
5.0000000000000003e-02  4.0000000000000001e-02  0.0000000000000000e+00
-5.0000000000000003e-02  5.9999999999999998e-02  0.0000000000000000e+00
5.0000000000000003e-02  5.9999999999999998e-02  0.0000000000000000e+00
-5.0000000000000003e-02  8.0000000000000002e-02  0.0000000000000000e+00
5.0000000000000003e-02  8.0000000000000002e-02  0.0000000000000000e+00
-5.0000000000000003e-02  1.0000000000000001e-01  0.0000000000000000e+00
5.0000000000000003e-02  1.0000000000000001e-01  0.0000000000000000e+00
-5.0000000000000003e-02  1.2000000000000000e-01  0.0000000000000000e+00
5.0000000000000003e-02  1.2000000000000000e-01  0.0000000000000000e+00
-5.0000000000000003e-02  1.4000000000000001e-01  0.0000000000000000e+00
5.0000000000000003e-02  1.4000000000000001e-01  0.0000000000000000e+00
-5.0000000000000003e-02  1.6000000000000000e-01  0.0000000000000000e+00
5.0000000000000003e-02  1.6000000000000000e-01  0.0000000000000000e+00
-5.0000000000000003e-02  1.7999999999999999e-01  0.0000000000000000e+00
5.0000000000000003e-02  1.7999999999999999e-01  0.0000000000000000e+00
-5.0000000000000003e-02  2.0000000000000001e-01  0.0000000000000000e+00
5.0000000000000003e-02  2.0000000000000001e-01  0.0000000000000000e+00
-5.0000000000000003e-02  2.2000000000000000e-01  0.0000000000000000e+00
5.0000000000000003e-02  2.2000000000000000e-01  0.0000000000000000e+00
-5.0000000000000003e-02  2.3999999999999999e-01  0.0000000000000000e+00
5.0000000000000003e-02  2.3999999999999999e-01  0.0000000000000000e+00
-5.0000000000000003e-02  2.6000000000000001e-01  0.0000000000000000e+00
5.0000000000000003e-02  2.6000000000000001e-01  0.0000000000000000e+00
-5.0000000000000003e-02  2.8000000000000003e-01  0.0000000000000000e+00
5.0000000000000003e-02  2.8000000000000003e-01  0.0000000000000000e+00
-5.0000000000000003e-02  2.9999999999999999e-01  0.0000000000000000e+00
5.0000000000000003e-02  2.9999999999999999e-01  0.0000000000000000e+00
-5.0000000000000003e-02  3.2000000000000001e-01  0.0000000000000000e+00
5.0000000000000003e-02  3.2000000000000001e-01  0.0000000000000000e+00
-5.0000000000000003e-02  3.4000000000000002e-01  0.0000000000000000e+00
5.0000000000000003e-02  3.4000000000000002e-01  0.0000000000000000e+00
-5.0000000000000003e-02  3.5999999999999999e-01  0.0000000000000000e+00
5.0000000000000003e-02  3.5999999999999999e-01  0.0000000000000000e+00
-5.0000000000000003e-02  3.8000000000000000e-01  0.0000000000000000e+00
5.0000000000000003e-02  3.8000000000000000e-01  0.0000000000000000e+00
-5.0000000000000003e-02  4.0000000000000002e-01  0.0000000000000000e+00
5.0000000000000003e-02  4.0000000000000002e-01  0.0000000000000000e+00
-5.0000000000000003e-02  4.1999999999999998e-01  0.0000000000000000e+00
5.0000000000000003e-02  4.1999999999999998e-01  0.0000000000000000e+00
-5.0000000000000003e-02  4.4000000000000000e-01  0.0000000000000000e+00
5.0000000000000003e-02  4.4000000000000000e-01  0.0000000000000000e+00
-5.0000000000000003e-02  4.6000000000000002e-01  0.0000000000000000e+00
5.0000000000000003e-02  4.6000000000000002e-01  0.0000000000000000e+00
-5.0000000000000003e-02  4.7999999999999998e-01  0.0000000000000000e+00
5.0000000000000003e-02  4.7999999999999998e-01  0.0000000000000000e+00
-5.0000000000000003e-02  5.0000000000000000e-01  0.0000000000000000e+00
5.0000000000000003e-02  5.0000000000000000e-01  0.0000000000000000e+00
-5.0000000000000003e-02  5.2000000000000002e-01  0.0000000000000000e+00
5.0000000000000003e-02  5.2000000000000002e-01  0.0000000000000000e+00
-5.0000000000000003e-02  5.4000000000000004e-01  0.0000000000000000e+00
5.0000000000000003e-02  5.4000000000000004e-01  0.0000000000000000e+00
-5.0000000000000003e-02  5.6000000000000005e-01  0.0000000000000000e+00
5.0000000000000003e-02  5.6000000000000005e-01  0.0000000000000000e+00
-5.0000000000000003e-02  5.7999999999999996e-01  0.0000000000000000e+00
5.0000000000000003e-02  5.7999999999999996e-01  0.0000000000000000e+00
-5.0000000000000003e-02  5.9999999999999998e-01  0.0000000000000000e+00
5.0000000000000003e-02  5.9999999999999998e-01  0.0000000000000000e+00
-5.0000000000000003e-02  6.2000000000000000e-01  0.0000000000000000e+00
5.0000000000000003e-02  6.2000000000000000e-01  0.0000000000000000e+00
-5.0000000000000003e-02  6.4000000000000001e-01  0.0000000000000000e+00
5.0000000000000003e-02  6.4000000000000001e-01  0.0000000000000000e+00
-5.0000000000000003e-02  6.6000000000000003e-01  0.0000000000000000e+00
5.0000000000000003e-02  6.6000000000000003e-01  0.0000000000000000e+00
-5.0000000000000003e-02  6.8000000000000005e-01  0.0000000000000000e+00
5.0000000000000003e-02  6.8000000000000005e-01  0.0000000000000000e+00
-5.0000000000000003e-02  6.9999999999999996e-01  0.0000000000000000e+00
5.0000000000000003e-02  6.9999999999999996e-01  0.0000000000000000e+00
-5.0000000000000003e-02  7.1999999999999997e-01  0.0000000000000000e+00
5.0000000000000003e-02  7.1999999999999997e-01  0.0000000000000000e+00
-5.0000000000000003e-02  7.3999999999999999e-01  0.0000000000000000e+00
5.0000000000000003e-02  7.3999999999999999e-01  0.0000000000000000e+00
-5.0000000000000003e-02  7.6000000000000001e-01  0.0000000000000000e+00
5.0000000000000003e-02  7.6000000000000001e-01  0.0000000000000000e+00
-5.0000000000000003e-02  7.8000000000000003e-01  0.0000000000000000e+00
5.0000000000000003e-02  7.8000000000000003e-01  0.0000000000000000e+00
-5.0000000000000003e-02  8.0000000000000004e-01  0.0000000000000000e+00
5.0000000000000003e-02  8.0000000000000004e-01  0.0000000000000000e+00
-5.0000000000000003e-02  8.1999999999999995e-01  0.0000000000000000e+00
5.0000000000000003e-02  8.1999999999999995e-01  0.0000000000000000e+00
-5.0000000000000003e-02  8.3999999999999997e-01  0.0000000000000000e+00
5.0000000000000003e-02  8.3999999999999997e-01  0.0000000000000000e+00
-5.0000000000000003e-02  8.5999999999999999e-01  0.0000000000000000e+00
5.0000000000000003e-02  8.5999999999999999e-01  0.0000000000000000e+00
-5.0000000000000003e-02  8.8000000000000000e-01  0.0000000000000000e+00
5.0000000000000003e-02  8.8000000000000000e-01  0.0000000000000000e+00
-5.0000000000000003e-02  9.0000000000000002e-01  0.0000000000000000e+00
5.0000000000000003e-02  9.0000000000000002e-01  0.0000000000000000e+00
-5.0000000000000003e-02  9.2000000000000004e-01  0.0000000000000000e+00
5.0000000000000003e-02  9.2000000000000004e-01  0.0000000000000000e+00
-5.0000000000000003e-02  9.3999999999999995e-01  0.0000000000000000e+00
5.0000000000000003e-02  9.3999999999999995e-01  0.0000000000000000e+00
-5.0000000000000003e-02  9.5999999999999996e-01  0.0000000000000000e+00
5.0000000000000003e-02  9.5999999999999996e-01  0.0000000000000000e+00
-5.0000000000000003e-02  9.7999999999999998e-01  0.0000000000000000e+00
5.0000000000000003e-02  9.7999999999999998e-01  0.0000000000000000e+00
-5.0000000000000003e-02  1.0000000000000000e+00  0.0000000000000000e+00
-3.0000000000000002e-02  1.0000000000000000e+00  0.0000000000000000e+00
-1.0000000000000002e-02  1.0000000000000000e+00  0.0000000000000000e+00
1.0000000000000009e-02  1.0000000000000000e+00  0.0000000000000000e+00
2.9999999999999999e-02  1.0000000000000000e+00  0.0000000000000000e+00
5.0000000000000003e-02  1.0000000000000000e+00  0.0000000000000000e+00

CELLS 0 0


CELL_TYPES 0


POINT_DATA 106

VECTORS VertexNormals float

0.0000000000000000e+00 0.0000000000000000e+00 0
0.0000000000000000e+00 0.0000000000000000e+00 0
0.0000000000000000e+00 0.0000000000000000e+00 0
0.0000000000000000e+00 0.0000000000000000e+00 0
0.0000000000000000e+00 0.0000000000000000e+00 0
0.0000000000000000e+00 0.0000000000000000e+00 0
0.0000000000000000e+00 0.0000000000000000e+00 0
0.0000000000000000e+00 0.0000000000000000e+00 0
0.0000000000000000e+00 0.0000000000000000e+00 0
0.0000000000000000e+00 0.0000000000000000e+00 0
0.0000000000000000e+00 0.0000000000000000e+00 0
0.0000000000000000e+00 0.0000000000000000e+00 0
0.0000000000000000e+00 0.0000000000000000e+00 0
0.0000000000000000e+00 0.0000000000000000e+00 0
0.0000000000000000e+00 0.0000000000000000e+00 0
0.0000000000000000e+00 0.0000000000000000e+00 0
0.0000000000000000e+00 0.0000000000000000e+00 0
0.0000000000000000e+00 0.0000000000000000e+00 0
0.0000000000000000e+00 0.0000000000000000e+00 0
0.0000000000000000e+00 0.0000000000000000e+00 0
0.0000000000000000e+00 0.0000000000000000e+00 0
0.0000000000000000e+00 0.0000000000000000e+00 0
0.0000000000000000e+00 0.0000000000000000e+00 0
0.0000000000000000e+00 0.0000000000000000e+00 0
0.0000000000000000e+00 0.0000000000000000e+00 0
0.0000000000000000e+00 0.0000000000000000e+00 0
0.0000000000000000e+00 0.0000000000000000e+00 0
0.0000000000000000e+00 0.0000000000000000e+00 0
0.0000000000000000e+00 0.0000000000000000e+00 0
0.0000000000000000e+00 0.0000000000000000e+00 0
0.0000000000000000e+00 0.0000000000000000e+00 0
0.0000000000000000e+00 0.0000000000000000e+00 0
0.0000000000000000e+00 0.0000000000000000e+00 0
0.0000000000000000e+00 0.0000000000000000e+00 0
0.0000000000000000e+00 0.0000000000000000e+00 0
0.0000000000000000e+00 0.0000000000000000e+00 0
0.0000000000000000e+00 0.0000000000000000e+00 0
0.0000000000000000e+00 0.0000000000000000e+00 0
0.0000000000000000e+00 0.0000000000000000e+00 0
0.0000000000000000e+00 0.0000000000000000e+00 0
0.0000000000000000e+00 0.0000000000000000e+00 0
0.0000000000000000e+00 0.0000000000000000e+00 0
0.0000000000000000e+00 0.0000000000000000e+00 0
0.0000000000000000e+00 0.0000000000000000e+00 0
0.0000000000000000e+00 0.0000000000000000e+00 0
0.0000000000000000e+00 0.0000000000000000e+00 0
0.0000000000000000e+00 0.0000000000000000e+00 0
0.0000000000000000e+00 0.0000000000000000e+00 0
0.0000000000000000e+00 0.0000000000000000e+00 0
0.0000000000000000e+00 0.0000000000000000e+00 0
0.0000000000000000e+00 0.0000000000000000e+00 0
0.0000000000000000e+00 0.0000000000000000e+00 0
0.0000000000000000e+00 0.0000000000000000e+00 0
0.0000000000000000e+00 0.0000000000000000e+00 0
0.0000000000000000e+00 0.0000000000000000e+00 0
0.0000000000000000e+00 0.0000000000000000e+00 0
0.0000000000000000e+00 0.0000000000000000e+00 0
0.0000000000000000e+00 0.0000000000000000e+00 0
0.0000000000000000e+00 0.0000000000000000e+00 0
0.0000000000000000e+00 0.0000000000000000e+00 0
0.0000000000000000e+00 0.0000000000000000e+00 0
0.0000000000000000e+00 0.0000000000000000e+00 0
0.0000000000000000e+00 0.0000000000000000e+00 0
0.0000000000000000e+00 0.0000000000000000e+00 0
0.0000000000000000e+00 0.0000000000000000e+00 0
0.0000000000000000e+00 0.0000000000000000e+00 0
0.0000000000000000e+00 0.0000000000000000e+00 0
0.0000000000000000e+00 0.0000000000000000e+00 0
0.0000000000000000e+00 0.0000000000000000e+00 0
0.0000000000000000e+00 0.0000000000000000e+00 0
0.0000000000000000e+00 0.0000000000000000e+00 0
0.0000000000000000e+00 0.0000000000000000e+00 0
0.0000000000000000e+00 0.0000000000000000e+00 0
0.0000000000000000e+00 0.0000000000000000e+00 0
0.0000000000000000e+00 0.0000000000000000e+00 0
0.0000000000000000e+00 0.0000000000000000e+00 0
0.0000000000000000e+00 0.0000000000000000e+00 0
0.0000000000000000e+00 0.0000000000000000e+00 0
0.0000000000000000e+00 0.0000000000000000e+00 0
0.0000000000000000e+00 0.0000000000000000e+00 0
0.0000000000000000e+00 0.0000000000000000e+00 0
0.0000000000000000e+00 0.0000000000000000e+00 0
0.0000000000000000e+00 0.0000000000000000e+00 0
0.0000000000000000e+00 0.0000000000000000e+00 0
0.0000000000000000e+00 0.0000000000000000e+00 0
0.0000000000000000e+00 0.0000000000000000e+00 0
0.0000000000000000e+00 0.0000000000000000e+00 0
0.0000000000000000e+00 0.0000000000000000e+00 0
0.0000000000000000e+00 0.0000000000000000e+00 0
0.0000000000000000e+00 0.0000000000000000e+00 0
0.0000000000000000e+00 0.0000000000000000e+00 0
0.0000000000000000e+00 0.0000000000000000e+00 0
0.0000000000000000e+00 0.0000000000000000e+00 0
0.0000000000000000e+00 0.0000000000000000e+00 0
0.0000000000000000e+00 0.0000000000000000e+00 0
0.0000000000000000e+00 0.0000000000000000e+00 0
0.0000000000000000e+00 0.0000000000000000e+00 0
0.0000000000000000e+00 0.0000000000000000e+00 0
0.0000000000000000e+00 0.0000000000000000e+00 0
0.0000000000000000e+00 0.0000000000000000e+00 0
0.0000000000000000e+00 0.0000000000000000e+00 0
0.0000000000000000e+00 0.0000000000000000e+00 0
0.0000000000000000e+00 0.0000000000000000e+00 0
0.0000000000000000e+00 0.0000000000000000e+00 0
0.0000000000000000e+00 0.0000000000000000e+00 0
0.0000000000000000e+00 0.0000000000000000e+00 0

VECTORS Displacements1 float
-5.9447695734580329e-17 3.3210452984488884e-17 0
-1.5837258608142762e-22 7.4203836228498038e-23 0
2.1342645350511382e-06 1.1076486999752817e-06 0
2.0501386051114613e-06 -1.0517960860303539e-06 0
3.7604113850233821e-06 1.6282126545130611e-06 0
3.6245587984774194e-06 -1.5463922647355999e-06 0
4.9357867912228157e-06 1.7905847806755673e-06 0
4.8209320187533094e-06 -1.6867892218917295e-06 0
5.8495516965164402e-06 1.7001325907645299e-06 0
5.7802819713536527e-06 -1.5927252339904242e-06 0
7.9257315737103390e-06 1.3675289237420543e-06 0
7.6076443470681724e-06 -1.0986340474245811e-06 0
7.1776662957862797e-06 8.3341023188676651e-07 0
7.0997905216241278e-06 -7.0516816202071404e-07 0
7.6400958887033137e-06 6.2889277960454625e-07 0
7.5067501469423005e-06 -4.0128462178440575e-07 0
7.6839260983159855e-06 4.3675901799048590e-07 0
7.5480629011273419e-06 -1.7357529706657368e-07 0
7.4378286898586995e-06 3.9403119537915189e-07 0
7.3558134842913685e-06 -1.2355010968793717e-07 0
8.6803012177178200e-06 3.3647958014031420e-07 0
8.3506201486880660e-06 1.3331458240863142e-07 0
7.4243467469752426e-06 1.5411251011986188e-07 0
7.3287223462580293e-06 1.6327929353931736e-07 0
7.6725734961916340e-06 2.8574301302968378e-07 0
7.5420316897856629e-06 1.4909177026322926e-07 0
7.7126926884272456e-06 3.3858942716481795e-07 0
7.5828504344055732e-06 1.4555465170825977e-07 0
7.5464896176956627e-06 4.3097314876642292e-07 0
7.4706457196895488e-06 6.7895961809871473e-08 0
8.8728036683964590e-06 4.3372387368551866e-07 0
8.5800273033592170e-06 3.0849102071045950e-07 0
7.6372100107288202e-06 2.6910445554386647e-07 0
7.5408439274937800e-06 2.9936144211968845e-07 0
7.8916700419219685e-06 4.2903311964107536e-07 0
7.7756462937886053e-06 2.7102974243227064e-07 0
7.9457694651218015e-06 5.0898782591931716e-07 0
7.8334335952548047e-06 2.5033557250531062e-07 0
7.7967469885075887e-06 6.1758420984334457e-07 0
7.7334176806377964e-06 1.5722936945711041e-07 0
9.1507594497714457e-06 6.4042396484122478e-07 0
8.9356338965351924e-06 4.3285185007148387e-07 0
7.9290354661464227e-06 4.7514680326058499e-07 0
7.8355139710583679e-06 4.0264799742177562e-07 0
8.2056430228618520e-06 6.4859752812146596e-07 0
8.1161098948126830e-06 3.7700759535533315e-07 0
8.2841641466526783e-06 7.4144918686357902e-07 0
8.1999212796134990e-06 3.5833592372938711e-07 0
8.1601830743555968e-06 8.6167444262905715e-07 0
8.1137396041803833e-06 2.5833345330218132e-07 0
9.5518501872029997e-06 9.1398828834830421e-07 0
9.4539679975792497e-06 5.7990930504338665e-07 0
8.3496864372446304e-06 7.4102315106246021e-07 0
8.2603178729614332e-06 5.3164323239343149e-07 0
8.6513974114950737e-06 9.3858915407033448e-07 0
8.5995109457874838e-06 5.0728814139083770e-07 0
8.7626551234409610e-06 1.0552445231817598e-06 0
8.7173633832701751e-06 4.8877090348308300e-07 0
8.6758129030447648e-06 1.1979715239915270e-06 0
8.6492530065149608e-06 3.7635012453604848e-07 0
1.0117322452323101e-05 1.3057910338487561e-06 0
1.0184632412062714e-05 7.5064259707836707e-07 0
8.9637029072616899e-06 1.1501034538067497e-06 0
8.8650063028583603e-06 6.8643913516433221e-07 0
9.3252753993795060e-06 1.4244060364868256e-06 0
9.2868125518845100e-06 6.7645368275289340e-07 0
9.5105293338982406e-06 1.6479109697729599e-06 0
9.4426993291850477e-06 6.8742214348767640e-07 0
9.5091043634596314e-06 1.9361567236547878e-06 0
9.3772374827925509e-06 6.0769134840917163e-07 0
1.1076401837931189e-05 2.2914538671062290e-06 0
1.1152490830224303e-05 1.1220684277743805e-06 0
9.9805176878485143e-06 2.3116757757313856e-06 0
9.5732663695040208e-06 1.1382987354875868e-06 0
1.0394365193619014e-05 2.9104700347030147e-06 0
1.0014732453543521e-05 1.2184034445860946e-06 0
1.0624520305333066e-05 3.4791318689552696e-06 0
1.0109431073910428e-05 1.3262679311998451e-06 0
1.0569392705865686e-05 4.1395240092753883e-06 0
9.8690974063389709e-06 1.2901566203640966e-06 0
1.1922268925367461e-05 5.0655511500955668e-06 0
1.1728315102233236e-05 1.8297127229376475e-06 0
1.0513807730938444e-05 5.9103653707835137e-06 0
9.5022219253219963e-06 1.3837316988766344e-06 0
1.0882862650630444e-05 7.9158278916354053e-06 0
1.0044494256586184e-05 4.7432821211838843e-07 0
1.1728155265592841e-05 1.0502436459985741e-05 0
1.0920588290039989e-05 -1.0532284247355358e-06 0
1.3531476378940902e-05 1.3683021565143879e-05 0
1.2684115583874917e-05 -3.3067841629479126e-06 0
1.8828152730588108e-05 1.7466821952770087e-05 0
1.8985733882188312e-05 -4.9879500706580538e-06 0
2.2161037416827097e-05 2.0081662663288638e-05 0
2.1323679515361804e-05 -7.3904680499952140e-06 0
2.8968581542521727e-05 2.3697952861855852e-05 0
2.8667171251333069e-05 -9.6506291872346134e-06 0
3.6783707118070048e-05 2.6714519462994496e-05 0
3.6573010364006789e-05 -1.1523196425143648e-05 0
4.7534558715926181e-05 2.9773671804928854e-05 0
4.6749869771134837e-05 -1.2500560094211628e-05 0
5.6143037565262324e-05 2.9862159608142817e-05 0
5.6079341987506764e-05 2.0854987607136158e-05 0
5.4674470395731128e-05 1.2232756121183088e-05 0
5.4290365675507355e-05 4.5658759319466057e-06 0
5.5091387509734375e-05 -3.8895616851740769e-06 0
5.4850376874430669e-05 -1.3276305710420992e-05 0

VECTORS Displacements2 float
-5.9525549027276563e-17 3.3253844645306649e-17 0
-1.5918940050287559e-22 7.5126498334810103e-23 0
2.1456709789376816e-06 1.1212694851738452e-06 0
2.0611919797597018e-06 -1.0645912451136865e-06 0
3.7864439745437227e-06 1.6519968021086782e-06 0
3.6494621080434762e-06 -1.5691296097625788e-06 0
4.9790492638743588e-06 1.8195759893478851e-06 0
4.8630489656903339e-06 -1.7145791769755311e-06 0
5.9100488253029749e-06 1.7304018847518737e-06 0
5.8398060192071126e-06 -1.6209632621055180e-06 0
8.0041689028975106e-06 1.3966559636344858e-06 0
7.6830432138884655e-06 -1.1257801348997017e-06 0
7.2683697119469706e-06 8.5908527031612211e-07 0
7.1902425020958016e-06 -7.2815417078770301e-07 0
7.7430135322601532e-06 6.4994865117744715e-07 0
7.6084944281239563e-06 -4.1916965417203771e-07 0
7.7937225281099415e-06 4.5147869004378041e-07 0
7.6565593981841356e-06 -1.8460670591309278e-07 0
7.5490051183609074e-06 4.0282399951883045e-07 0
7.4654090436444011e-06 -1.2823316725012714e-07 0
8.7901188622646003e-06 3.4258999749184433e-07 0
8.4575997939329269e-06 1.3131864578104204e-07 0
7.5304935744662636e-06 1.5976878498009048e-07 0
7.4338540163060857e-06 1.6281893525612606e-07 0
7.7789381019622432e-06 2.9219812687288997e-07 0
7.6463322807964661e-06 1.4840386776526605e-07 0
7.8196916090937566e-06 3.4560553995640766e-07 0
7.6884816862923492e-06 1.4513212410577579e-07 0
7.6546162932892728e-06 4.3749610196705898e-07 0
7.5767824980754112e-06 6.8583134383262724e-08 0
8.9824150192337770e-06 4.4034741253139340e-07 0
8.6862329118256441e-06 3.0952511058390586e-07 0
7.7462933739202787e-06 2.7598060450489922e-07 0
7.6485847726149901e-06 3.0115489105143716e-07 0
8.0015385745104186e-06 4.3652685497993859e-07 0
7.8831006510533511e-06 2.7310136435178914e-07 0
8.0563364566397644e-06 5.1786993257080167e-07 0
7.9421531826792651e-06 2.5223500250418404e-07 0
7.9090287853006744e-06 6.2676342574211539e-07 0
7.8433146957289358e-06 1.5981141672885668e-07 0
9.2645746485388855e-06 6.4992469418712993e-07 0
9.0452839611258371e-06 4.3520660303201234e-07 0
8.0425644236763813e-06 4.8528490377461185e-07 0
7.9472358199566411e-06 4.0568555833249347e-07 0
8.3201126004496146e-06 6.5979639399521666e-07 0
8.2277309468584410e-06 3.8039918836207515e-07 0
8.3997268131113763e-06 7.5421381863441366e-07 0
8.3132055648834441e-06 3.6161381674742314e-07 0
8.2780201926671415e-06 8.7483354939358076e-07 0
8.2284443340984523e-06 2.6240375773740729e-07 0
9.6715454350887752e-06 9.2759853546357203e-07 0
9.5684056916560526e-06 5.8387172849076662e-07 0
8.4693046745166420e-06 7.5534594554178970e-07 0
8.3774932114385935e-06 5.3630918399073073e-07 0
8.7723926090736104e-06 9.5452029912200935e-07 0
8.7169859918360252e-06 5.1238036747726261e-07 0
8.8853479087148348e-06 1.0731979173260079e-06 0
8.8371108970145500e-06 4.9389959808609832e-07 0
8.8016627945800696e-06 1.2168427059904883e-06 0
8.7707859333558890e-06 3.8256136736068160e-07 0
1.0245902447307198e-05 1.3259684721918818e-06 0
1.0305718279378167e-05 7.5702156639540853e-07 0
9.0931867071055841e-06 1.1731315460558372e-06 0
8.9892974737934752e-06 6.9457619508416938e-07 0
9.4570893312009543e-06 1.4517722141108768e-06 0
9.4111449541865613e-06 6.8666202478638340e-07 0
9.6454146251164128e-06 1.6808622498119823e-06 0
9.5691430624468642e-06 7.0012314146486276e-07 0
9.6486901928655656e-06 1.9741451869183346e-06 0
9.5038683891174709e-06 6.2486214599215526e-07 0
1.1219305523940185e-05 2.3350574921672359e-06 0
1.1276488724692103e-05 1.1433062532221025e-06 0
1.0122070379234950e-05 2.3612106897458977e-06 0
9.6986464491267636e-06 1.1635063238730484e-06 0
1.0537444339316292e-05 2.9665126074935695e-06 0
1.0138015169578157e-05 1.2491336228184047e-06 0
1.0765725382545699e-05 3.5402468551815668e-06 0
1.0230971914662709e-05 1.3633722524966384e-06 0
1.0703358667394307e-05 4.2056092992004342e-06 0
9.9832923713143730e-06 1.3334608153205929e-06 0
1.2044433483251409e-05 5.1419124483168472e-06 0
1.1830582411992167e-05 1.8708450334956442e-06 0
1.0627751656524583e-05 6.0108999274908655e-06 0
9.6043028120862984e-06 1.4092387572946640e-06 0
1.1008794754802241e-05 8.0500979854065394e-06 0
1.0163650238611797e-05 4.7506502571256010e-07 0
1.1894244695364162e-05 1.0672076241007657e-05 0
1.1082468007974370e-05 -1.0791911316679051e-06 0
1.3757698085435045e-05 1.3879246424472737e-05 0
1.2905964781670252e-05 -3.3529915636442223e-06 0
1.9122735966607736e-05 1.7680762889835878e-05 0
1.9273502303589541e-05 -5.0470068530688361e-06 0
2.2523422670107977e-05 2.0307540621377825e-05 0
2.1684294467171981e-05 -7.4597179604740766e-06 0
2.9401266977631871e-05 2.3933932662659142e-05 0
2.9098057671694140e-05 -9.7244404288792652e-06 0
3.7291822384681024e-05 2.6960728851389188e-05 0
3.7074880950275162e-05 -1.1598663185783883e-05 0
4.8122606655076893e-05 3.0026523642366044e-05 0
4.7316469050105450e-05 -1.2572288467324703e-05 0
5.6804542806867000e-05 3.0113839911965134e-05 0
5.6738582658708368e-05 2.1035264056013611e-05 0
5.5321574356319647e-05 1.2340893928336514e-05 0
5.4924787837958247e-05 4.6096626831375653e-06 0
5.5716747636917470e-05 -3.9045863825715971e-06 0
5.5471438262805114e-05 -1.3344036782788991e-05 0

VECTORS Displacements3 float
-5.9599896639325010e-17 3.3295291047267539e-17 0
-1.6000538226984974e-22 7.6041576567348586e-23 0
2.1571305190968213e-06 1.1348288482696069e-06 0
2.0721709322087024e-06 -1.0772732150137827e-06 0
3.8123189095681094e-06 1.6759359670507200e-06 0
3.6741317586074352e-06 -1.5920001511164043e-06 0
5.0223045021749722e-06 1.8486516212621020e-06 0
4.9051787078433890e-06 -1.7424484992998644e-06 0
5.9704649762451735e-06 1.7607436418864822e-06 0
5.8992518676954966e-06 -1.6493432756188205e-06 0
8.0825620668542579e-06 1.4261008612542848e-06 0
7.7582526759564733e-06 -1.1531428149743565e-06 0
7.3592470708451318e-06 8.8507054620989052e-07 0
7.2808865618425097e-06 -7.5142028059460114e-07 0
7.8463161663908728e-06 6.7146680328603319e-07 0
7.7106325918083859e-06 -4.3744911505351931e-07 0
7.9042512050333229e-06 4.6646311936352880e-07 0
7.7657969802814215e-06 -1.9586955787381303e-07 0
7.6610425110803933e-06 4.1173524220972939e-07 0
7.5758479049061021e-06 -1.3300915792058602e-07 0
8.9007479935168240e-06 3.4879995039566765e-07 0
8.5653038194732894e-06 1.2932464509530368e-07 0
7.6374222026160485e-06 1.6546397174261160e-07 0
7.5398347818820485e-06 1.6234933545787339e-07 0
7.8861159746150081e-06 2.9879378266295389e-07 0
7.7514098287206316e-06 1.4768326240910954e-07 0
7.9275610622475705e-06 3.5263281412932779e-07 0
7.7949043459934770e-06 1.4479147996032927e-07 0
7.7634926134613937e-06 4.4400378712726138e-07 0
7.6836167302749451e-06 6.9312525932306617e-08 0
9.0925595652432490e-06 4.4704719062999382e-07 0
8.7929406070338658e-06 3.1060622297631300e-07 0
7.8560895791236961e-06 2.8296078874884053e-07 0
7.7570195981317981e-06 3.0292806268369390e-07 0
8.1122372581835921e-06 4.4419749574619477e-07 0
7.9913339175871896e-06 2.7515447786275744e-07 0
8.1677808296668459e-06 5.2670066467767607e-07 0
8.0516656670322004e-06 2.5431961661970847e-07 0
8.0220984742983843e-06 6.3588930832969073e-07 0
7.9539023578117813e-06 1.6250902217259939e-07 0
9.3789695361129967e-06 6.5952608992537966e-07 0
9.1554609589580780e-06 4.3769183208222130e-07 0
8.1568748718078566e-06 4.9551723237044636e-07 0
8.0597044235826601e-06 4.0872990067319160e-07 0
8.4354731645178086e-06 6.7120550112532263e-07 0
8.3401579299738791e-06 3.8380564010725444e-07 0
8.5162363150905440e-06 7.6694706001188869e-07 0
8.4273080666157379e-06 3.6513856791164244e-07 0
8.3967093748866350e-06 8.8796025300967760e-07 0
8.3438483487114544e-06 2.6662248489686363e-07 0
9.7918780684828391e-06 9.4134057648193465e-07 0
9.6833811163812758e-06 5.8798044047513351e-07 0
8.5897811265822232e-06 7.6982260487943309e-07 0
8.4954432267992966e-06 5.4102779184554005e-07 0
8.8943578868429569e-06 9.7070996223577290e-07 0
8.8352894288392268e-06 5.1750695507941235e-07 0
9.0090900549124285e-06 1.0912009058182487e-06 0
8.9577213486525150e-06 4.9933646564774204e-07 0
8.9284500673797032e-06 1.2357405318209236e-06 0
8.8930267718403423e-06 3.8898352473477552e-07 0
1.0375206305322946e-05 1.3464694579918927e-06 0
1.0427316761862109e-05 7.6366777911671701e-07 0
9.2236880875576568e-06 1.1965823540609578e-06 0
9.1143136446210252e-06 7.0293110954689895e-07 0
9.5901398353386172e-06 1.4797222648018303e-06 0
9.5361719773290771e-06 6.9717824020131953e-07 0
9.7815226862929122e-06 1.7142487782977602e-06 0
9.6963257520735920e-06 7.1350931997046042e-07 0
9.7893339492743335e-06 2.0125448188944307e-06 0
9.6310041933836145e-06 6.4276835444804082e-07 0
1.1362930861087892e-05 2.3792354945185940e-06 0
1.1400755949810907e-05 1.1652798516923458e-06 0
1.0264469286950676e-05 2.4112985611456192e-06 0
9.8245424823991773e-06 1.1894403019666054e-06 0
1.0681395293793371e-05 3.0229011898821237e-06 0
1.0261800969362115e-05 1.2808721905778645e-06 0
1.0907541068440878e-05 3.6013616259382740e-06 0
1.0352831171521416e-05 1.4018806331743465e-06 0
1.0837271034802855e-05 4.2714690639132241e-06 0
1.0097436212069356e-05 1.3781013493344354e-06 0
1.2166364928492037e-05 5.2187616876103444e-06 0
1.1932493004969595e-05 1.9127274424196859e-06 0
1.0742176999989582e-05 6.1126285163518281e-06 0
9.7069146973677567e-06 1.4347085561994368e-06 0
1.1136397898364878e-05 8.1858594400554291e-06 0
1.0284602423122892e-05 4.7547397579647776e-07 0
1.2063142339838575e-05 1.0842662149834329e-05 0
1.1246991239270703e-05 -1.1052543564223771e-06 0
1.3987084271501385e-05 1.4076037906036993e-05 0
1.3130928683979569e-05 -3.3989453226368795e-06 0
1.9420318156325731e-05 1.7895244863775354e-05 0
1.9564009554318265e-05 -5.1058628082314326e-06 0
2.2889064402523601e-05 2.0533909007124162e-05 0
2.2047941778937402e-05 -7.5290659272252009e-06 0
2.9837446967021021e-05 2.4170575151265861e-05 0
2.9532252283784735e-05 -9.7981490734696246e-06 0
3.7803626224700747e-05 2.7207495841638048e-05 0
3.7579879298102687e-05 -1.1673799094144494e-05 0
4.8714167310489405e-05 3.0279517677355978e-05 0
4.7885641469661555e-05 -1.2643120690334511e-05 0
5.7469033897258943e-05 3.0365726095250601e-05 0
5.7400845728087909e-05 2.1216235414914601e-05 0
5.5971778134155055e-05 1.2449391964315596e-05 0
5.5562098281572423e-05 4.6538571887970840e-06 0
5.6344261758526483e-05 -3.9193971352656283e-06 0
5.6094206497107000e-05 -1.3410692597505782e-05 0

VECTORS Forces1 float
-8.7315721597144749e-02 5.5969018635373242e-02 0
-6.9652804226007087e-02 -3.8522232607489416e-02 0
1.2247103815070903e+00 -6.8418517367851361e-01 0
9.8660749748433751e-01 5.4750435584167167e-01 0
1.3399622671375440e+00 -2.1014879275612477e-01 0
1.0777699807167953e+00 1.7018188508729767e-01 0
8.5138497430181648e-01 3.4426209395910012e-02 0
6.8384697985703713e-01 -2.7329679202885572e-02 0
-1.2842083571977714e-01 -4.8644685505031876e-03 0
-1.0332354821388223e-01 3.7335793420307378e-03 0
3.2512826422040515e+00 -3.2346029000508056e-03 0
2.5987128669989841e+00 2.6772133904559594e-02 0
-1.3762991526404139e-01 -2.0451417188342125e-04 0
-1.1007602793481819e-01 -2.0595779089101342e-03 0
9.2430067387407888e-01 -1.0370882098102387e-03 0
7.3829864926033639e-01 1.6250518272877507e-02 0
9.2437757035745249e-01 -1.0538490296697364e-03 0
7.3837383229156373e-01 1.6282608461478002e-02 0
-1.3772772643688819e-01 -1.0227107893671408e-04 0
-1.1016441828387721e-01 -2.2703774721521616e-03 0
3.2620530152742444e+00 -6.7766822363384341e-04 0
2.6220348047795068e+00 9.5546626665088036e-02 0
-1.3825969669010527e-01 -3.6047277139035868e-04 0
-1.1278379376535784e-01 -5.4848312261758228e-03 0
9.2829432954117852e-01 8.3447846117733226e-04 0
7.5693791061932725e-01 3.8910209110047451e-02 0
9.2829944870120584e-01 8.3552075384404011e-04 0
7.5696978190191000e-01 3.8933961299731708e-02 0
-1.3828483359450619e-01 -3.9644151296821232e-04 0
-1.1298401614634652e-01 -5.6311159358958217e-03 0
3.2789300150437355e+00 1.2733913718068842e-02 0
2.7326233815164258e+00 1.7746800804731055e-01 0
-1.3893854325002478e-01 -1.3019714509988267e-03 0
-1.1917045808810392e-01 -8.8890286852984311e-03 0
9.3304141050124556e-01 7.1970121362943795e-03 0
8.0051148406487871e-01 6.1930805871173035e-02 0
9.3304344868169009e-01 7.1987563379001442e-03 0
8.0056463877617001e-01 6.1957104931647321e-02 0
-1.3897613324877017e-01 -1.3859655633190551e-03 0
-1.1954909793989718e-01 -9.0265282968395102e-03 0
3.2942314913118329e+00 4.4785116759407780e-02 0
2.9296994849519762e+00 2.5767735346408810e-01 0
-1.3960171248592024e-01 -3.1541776186163658e-03 0
-1.2939854547538426e-01 -1.2194072269426653e-02 0
9.3762965080150729e-01 1.9543904531153726e-02 0
8.6982518325624791e-01 8.4396749517358094e-02 0
9.3762740045816251e-01 1.9548980398026859e-02 0
8.6990238221580773e-01 8.4425891601892164e-02 0
-1.3963533164429115e-01 -3.3150352915029060e-03 0
-1.2996855957941908e-01 -1.2313718661203185e-02 0
3.3092388171765985e+00 1.0922210003510142e-01 0
3.2247714777210281e+00 3.3396313944693184e-01 0
-1.3978076443899584e-01 -6.8289205684837276e-03 0
-1.4401647585653160e-01 -1.5274651638498483e-02 0
9.3889323256784996e-01 4.4041737495933111e-02 0
9.6863059888801883e-01 1.0554603216855360e-01 0
9.3888910702245876e-01 4.4044687687503033e-02 0
9.6873800766683671e-01 1.0558379797705192e-01 0
-1.3984009505522532e-01 -7.0738897839770862e-03 0
-1.4484420791532313e-01 -1.5381735395965887e-02 0
3.3087856837317240e+00 1.9849356233415202e-01 0
3.6371994742652882e+00 4.1667461232738545e-01 0
-1.4105589319973152e-01 -1.1191474978752529e-02 0
-1.6508775563658390e-01 -1.8914909059624691e-02 0
9.4773218666482528e-01 7.2519557791218853e-02 0
1.1109239825256643e+00 1.3093600906727679e-01 0
9.4771304905207865e-01 7.2526406404394270e-02 0
1.1110646687472123e+00 1.3098459771614954e-01 0
-1.4112084200261948e-01 -1.1717102675700327e-02 0
-1.6629482468523452e-01 -1.8960333694109884e-02 0
3.3621838514665336e+00 4.0212224144553399e-01 0
4.2431132460708048e+00 4.8467346625322399e-01 0
-1.4008249007997167e-01 -2.4018896284713244e-02 0
-1.9465317657382319e-01 -2.0985918550979529e-02 0
9.4035076937209217e-01 1.5766091632019652e-01 0
1.3095752580211362e+00 1.4628435449196889e-01 0
9.4029085249629296e-01 1.5755738329968855e-01 0
1.3097041141656889e+00 1.4637337779559886e-01 0
-1.4091723592827129e-01 -2.4872691886041454e-02 0
-1.9702781372007339e-01 -2.1061010874169360e-02 0
3.3537443160890335e+00 5.3790794970970868e-01 0
5.1237145506883124e+00 6.3217877136160039e-01 0
-1.6130764211792012e-01 -2.9021254720215935e-02 0
-2.5095924279035531e-01 -2.8899589378044752e-02 0
1.0779341819193200e+00 1.7993414857662621e-01 0
1.6813587450994079e+00 2.0252258879105650e-01 0
1.0775641824028244e+00 1.7944552187751195e-01 0
1.6812229964978973e+00 2.0273396528977522e-01 0
-1.6365945510903729e-01 -3.3842610314767513e-02 0
-2.5658904430869539e-01 -2.7329067113479582e-02 0
4.3102454085210260e+00 1.6738687801217333e+00 0
7.0565789887805295e+00 5.0306511233072471e-01 0
-1.9118319350517837e-01 -1.3361284053210054e-01 0
-3.6926359427936789e-01 3.9297434735287764e-03 0
1.3871568108244610e+00 8.8073738698165061e-01 0
2.5746181445818470e+00 7.1147332772836636e-02 0
8.7928526490367365e-01 5.0232712684985537e-01 0
2.0089584850323687e+00 3.4970796821022568e-02 0
4.8799168777384958e+00 3.5313671935856394e+00 0
5.2119991864790922e+00 5.1002809799148741e-01 0
3.7444137519610055e-01 4.1193406035913938e-01 0
3.4653003546358199e+00 2.7353027248857731e+00 0
2.0680794780090763e+00 2.2675412213787363e+00 0
1.8727729693821824e+00 2.3953080590899334e+00 0
3.2076840386847363e+00 1.3193014640024729e+00 0
5.2448687605977884e-01 -1.7185403416062223e-01 0

VECTORS Forces2 float
-8.7505419847428823e-02 5.6080816702967995e-02 0
-6.9644056584085332e-02 -3.8514297689578411e-02 0
1.2270334201740094e+00 -6.8548014590913242e-01 0
9.8663180426251140e-01 5.4750955014687430e-01 0
1.3424984353829690e+00 -2.1055506697371668e-01 0
1.0777987189903186e+00 1.7018140863433051e-01 0
8.5300087121957080e-01 3.4482263404704797e-02 0
6.8386341048808896e-01 -2.7334019566942126e-02 0
-1.2866453700133904e-01 -4.8719396034434537e-03 0
-1.0332578667017227e-01 3.7342742031040116e-03 0
3.2575195884721970e+00 -3.2667892990774468e-03 0
2.5987085127011120e+00 2.6763589647397258e-02 0
-1.3789540570405950e-01 -2.0476274902115745e-04 0
-1.1007051384700692e-01 -2.0599124392705033e-03 0
9.2608263247303579e-01 -1.0372649321480642e-03 0
7.3826178031798806e-01 1.6253899322629134e-02 0
9.2615967518122277e-01 -1.0540466501105215e-03 0
7.3833694011434048e-01 1.6285999400584974e-02 0
-1.3799373059993184e-01 -1.0253228217548111e-04 0
-1.1015842754527502e-01 -2.2709136015251399e-03 0
3.2683863006663034e+00 -6.1262951457754882e-04 0
2.6217723577352818e+00 9.5622179613107275e-02 0
-1.3853198106986778e-01 -3.6662254240930588e-04 0
-1.1276955342080396e-01 -5.4910766528560653e-03 0
9.3012049341267211e-01 8.7581218803452795e-04 0
7.5684324417730175e-01 3.8953852950386857e-02 0
9.3012565699508609e-01 8.7689816295631921e-04 0
7.5687507261547893e-01 3.8977646277192267e-02 0
-1.3855744759924171e-01 -4.0293381231305050e-04 0
-1.1296943342961324e-01 -5.6376775540254659e-03 0
3.2854716297672573e+00 1.2979280736882330e-02 0
2.7322218891464631e+00 1.7770901094655903e-01 0
-1.3921870912403306e-01 -1.3166757177767766e-03 0
-1.1915004627802198e-01 -8.9029637872691993e-03 0
9.3492047676622936e-01 7.2962258529754506e-03 0
8.0037608756113898e-01 6.2026500092025857e-02 0
9.3492255298609972e-01 7.2980228808283273e-03 0
8.0042921256411714e-01 6.2052849341131686e-02 0
-1.3925666422299984e-01 -1.4011235353116379e-03 0
-1.1952837645790565e-01 -9.0408522427890079e-03 0
3.3009330155859358e+00 4.5251562811860789e-02 0
2.9291392099356917e+00 2.5811861995191643e-01 0
-1.3988903118468879e-01 -3.1793682492746306e-03 0
-1.2937170157143463e-01 -1.2217076230335940e-02 0
9.3955608291598436e-01 1.9713768125170710e-02 0
8.6964713272953797e-01 8.4553734257808877e-02 0
9.3955385716017048e-01 1.9718908172834726e-02 0
8.6972431446641296e-01 8.4582937505090938e-02 0
-1.3992302562741060e-01 -3.3408076490652550e-03 0
-1.2994139216241121e-01 -1.2337189388791636e-02 0
3.3161198884380827e+00 1.0998007196818406e-01 0
3.2240722527420949e+00 3.3464443302586805e-01 0
-1.4007514950823838e-01 -6.8677452102899406e-03 0
-1.4398414779778623e-01 -1.5308787850185237e-02 0
9.4086610537520454e-01 4.4303443358634780e-02 0
9.6841690815559200e-01 1.0577836169293429e-01 0
9.4086199043370045e-01 4.4306472270299387e-02 0
9.6852431561634245e-01 1.0581619378786583e-01 0
-1.4013495019848196e-01 -7.1134723393634480e-03 0
-1.4481148572169258e-01 -1.5416369766702078e-02 0
3.3158219469517460e+00 1.9959589466969965e-01 0
3.6363726426455929e+00 4.1761996140687713e-01 0
-1.4135918157097163e-01 -1.1247660698034434e-02 0
-1.6504816186652763e-01 -1.8959601353479672e-02 0
9.4976319002573351e-01 7.2897859872750229e-02 0
1.1106631671278262e+00 1.3123949378825164e-01 0
9.4974399916525032e-01 7.2904829892469630e-02 0
1.1108038923304742e+00 1.3128816929067502e-01 0
-1.4142460515704181e-01 -1.1774603012201542e-02 0
-1.6625467095373547e-01 -1.9005742106844782e-02 0
3.3694279523713160e+00 4.0385472306773290e-01 0
4.2420833415826324e+00 4.8595409539844586e-01 0
-1.4038751565540686e-01 -2.4109907946703792e-02 0
-1.9460638811450071e-01 -2.1050297994774408e-02 0
9.4238794972194773e-01 1.5827400292660754e-01 0
1.3092702167975927e+00 1.4672172288840710e-01 0
9.4232780527504922e-01 1.5817048614706244e-01 0
1.3093991697563734e+00 1.4681078034923503e-01 0
-1.4122310173853220e-01 -2.4965680366128177e-02 0
-1.9697956728896907e-01 -2.1126460502488589e-02 0
3.3608534419685001e+00 5.4030120830287465e-01 0
5.1224991272750122e+00 6.3384160989464211e-01 0
-1.6161758982106150e-01 -2.9141173484529891e-02 0
-2.5088216329860119e-01 -2.8980764602941286e-02 0
1.0799894903860010e+00 1.8072751133631176e-01 0
1.6808583854313306e+00 2.0306565200943733e-01 0
1.0796180652549934e+00 1.8023855033664574e-01 0
1.6807235945059971e+00 2.0327701233110398e-01 0
-1.6397277685306094e-01 -3.3969223634321595e-02 0
-2.5650692903596911e-01 -2.7413434181867605e-02 0
4.3174214394340913e+00 1.6784106618968404e+00 0
7.0542510405144290e+00 5.0606311262492176e-01 0
-1.9146695973554939e-01 -1.3389270121163729e-01 0
-3.6914891620180273e-01 3.7565809159267453e-03 0
1.3889295055833368e+00 8.8269445866385687e-01 0
2.5740060943719767e+00 7.2446426606464706e-02 0
8.8057857021646602e-01 5.0367077123915749e-01 0
2.0086059716605060e+00 3.5830164041959579e-02 0
4.8841662493619538e+00 3.5371389780283073e+00 0
5.2097544186191760e+00 5.1429565207553118e-01 0
3.7512026297029200e-01 4.1247769893525199e-01 0
3.4682403744915113e+00 2.7395912434461840e+00 0
2.0684450112578503e+00 2.2709351564002080e+00 0
1.8728323032496574e+00 2.3987056707676748e+00 0
3.2059127908160634e+00 1.3226971666847431e+00 0
5.2400961869187068e-01 -1.7159850830219867e-01 0

