# vtk DataFile Version 2.0

ASCII

DATASET UNSTRUCTURED_GRID

POINTS 106 float 

-5.0000000000000003e-02  0.0000000000000000e+00  0.0000000000000000e+00
5.0000000000000003e-02  0.0000000000000000e+00  0.0000000000000000e+00
-5.0000000000000003e-02  2.0000000000000000e-02  0.0000000000000000e+00
5.0000000000000003e-02  2.0000000000000000e-02  0.0000000000000000e+00
-5.0000000000000003e-02  4.0000000000000001e-02  0.0000000000000000e+00
5.0000000000000003e-02  4.0000000000000001e-02  0.0000000000000000e+00
-5.0000000000000003e-02  5.9999999999999998e-02  0.0000000000000000e+00
5.0000000000000003e-02  5.9999999999999998e-02  0.0000000000000000e+00
-5.0000000000000003e-02  8.0000000000000002e-02  0.0000000000000000e+00
5.0000000000000003e-02  8.0000000000000002e-02  0.0000000000000000e+00
-5.0000000000000003e-02  1.0000000000000001e-01  0.0000000000000000e+00
5.0000000000000003e-02  1.0000000000000001e-01  0.0000000000000000e+00
-5.0000000000000003e-02  1.2000000000000000e-01  0.0000000000000000e+00
5.0000000000000003e-02  1.2000000000000000e-01  0.0000000000000000e+00
-5.0000000000000003e-02  1.4000000000000001e-01  0.0000000000000000e+00
5.0000000000000003e-02  1.4000000000000001e-01  0.0000000000000000e+00
-5.0000000000000003e-02  1.6000000000000000e-01  0.0000000000000000e+00
5.0000000000000003e-02  1.6000000000000000e-01  0.0000000000000000e+00
-5.0000000000000003e-02  1.7999999999999999e-01  0.0000000000000000e+00
5.0000000000000003e-02  1.7999999999999999e-01  0.0000000000000000e+00
-5.0000000000000003e-02  2.0000000000000001e-01  0.0000000000000000e+00
5.0000000000000003e-02  2.0000000000000001e-01  0.0000000000000000e+00
-5.0000000000000003e-02  2.2000000000000000e-01  0.0000000000000000e+00
5.0000000000000003e-02  2.2000000000000000e-01  0.0000000000000000e+00
-5.0000000000000003e-02  2.3999999999999999e-01  0.0000000000000000e+00
5.0000000000000003e-02  2.3999999999999999e-01  0.0000000000000000e+00
-5.0000000000000003e-02  2.6000000000000001e-01  0.0000000000000000e+00
5.0000000000000003e-02  2.6000000000000001e-01  0.0000000000000000e+00
-5.0000000000000003e-02  2.8000000000000003e-01  0.0000000000000000e+00
5.0000000000000003e-02  2.8000000000000003e-01  0.0000000000000000e+00
-5.0000000000000003e-02  2.9999999999999999e-01  0.0000000000000000e+00
5.0000000000000003e-02  2.9999999999999999e-01  0.0000000000000000e+00
-5.0000000000000003e-02  3.2000000000000001e-01  0.0000000000000000e+00
5.0000000000000003e-02  3.2000000000000001e-01  0.0000000000000000e+00
-5.0000000000000003e-02  3.4000000000000002e-01  0.0000000000000000e+00
5.0000000000000003e-02  3.4000000000000002e-01  0.0000000000000000e+00
-5.0000000000000003e-02  3.5999999999999999e-01  0.0000000000000000e+00
5.0000000000000003e-02  3.5999999999999999e-01  0.0000000000000000e+00
-5.0000000000000003e-02  3.8000000000000000e-01  0.0000000000000000e+00
5.0000000000000003e-02  3.8000000000000000e-01  0.0000000000000000e+00
-5.0000000000000003e-02  4.0000000000000002e-01  0.0000000000000000e+00
5.0000000000000003e-02  4.0000000000000002e-01  0.0000000000000000e+00
-5.0000000000000003e-02  4.1999999999999998e-01  0.0000000000000000e+00
5.0000000000000003e-02  4.1999999999999998e-01  0.0000000000000000e+00
-5.0000000000000003e-02  4.4000000000000000e-01  0.0000000000000000e+00
5.0000000000000003e-02  4.4000000000000000e-01  0.0000000000000000e+00
-5.0000000000000003e-02  4.6000000000000002e-01  0.0000000000000000e+00
5.0000000000000003e-02  4.6000000000000002e-01  0.0000000000000000e+00
-5.0000000000000003e-02  4.7999999999999998e-01  0.0000000000000000e+00
5.0000000000000003e-02  4.7999999999999998e-01  0.0000000000000000e+00
-5.0000000000000003e-02  5.0000000000000000e-01  0.0000000000000000e+00
5.0000000000000003e-02  5.0000000000000000e-01  0.0000000000000000e+00
-5.0000000000000003e-02  5.2000000000000002e-01  0.0000000000000000e+00
5.0000000000000003e-02  5.2000000000000002e-01  0.0000000000000000e+00
-5.0000000000000003e-02  5.4000000000000004e-01  0.0000000000000000e+00
5.0000000000000003e-02  5.4000000000000004e-01  0.0000000000000000e+00
-5.0000000000000003e-02  5.6000000000000005e-01  0.0000000000000000e+00
5.0000000000000003e-02  5.6000000000000005e-01  0.0000000000000000e+00
-5.0000000000000003e-02  5.7999999999999996e-01  0.0000000000000000e+00
5.0000000000000003e-02  5.7999999999999996e-01  0.0000000000000000e+00
-5.0000000000000003e-02  5.9999999999999998e-01  0.0000000000000000e+00
5.0000000000000003e-02  5.9999999999999998e-01  0.0000000000000000e+00
-5.0000000000000003e-02  6.2000000000000000e-01  0.0000000000000000e+00
5.0000000000000003e-02  6.2000000000000000e-01  0.0000000000000000e+00
-5.0000000000000003e-02  6.4000000000000001e-01  0.0000000000000000e+00
5.0000000000000003e-02  6.4000000000000001e-01  0.0000000000000000e+00
-5.0000000000000003e-02  6.6000000000000003e-01  0.0000000000000000e+00
5.0000000000000003e-02  6.6000000000000003e-01  0.0000000000000000e+00
-5.0000000000000003e-02  6.8000000000000005e-01  0.0000000000000000e+00
5.0000000000000003e-02  6.8000000000000005e-01  0.0000000000000000e+00
-5.0000000000000003e-02  6.9999999999999996e-01  0.0000000000000000e+00
5.0000000000000003e-02  6.9999999999999996e-01  0.0000000000000000e+00
-5.0000000000000003e-02  7.1999999999999997e-01  0.0000000000000000e+00
5.0000000000000003e-02  7.1999999999999997e-01  0.0000000000000000e+00
-5.0000000000000003e-02  7.3999999999999999e-01  0.0000000000000000e+00
5.0000000000000003e-02  7.3999999999999999e-01  0.0000000000000000e+00
-5.0000000000000003e-02  7.6000000000000001e-01  0.0000000000000000e+00
5.0000000000000003e-02  7.6000000000000001e-01  0.0000000000000000e+00
-5.0000000000000003e-02  7.8000000000000003e-01  0.0000000000000000e+00
5.0000000000000003e-02  7.8000000000000003e-01  0.0000000000000000e+00
-5.0000000000000003e-02  8.0000000000000004e-01  0.0000000000000000e+00
5.0000000000000003e-02  8.0000000000000004e-01  0.0000000000000000e+00
-5.0000000000000003e-02  8.1999999999999995e-01  0.0000000000000000e+00
5.0000000000000003e-02  8.1999999999999995e-01  0.0000000000000000e+00
-5.0000000000000003e-02  8.3999999999999997e-01  0.0000000000000000e+00
5.0000000000000003e-02  8.3999999999999997e-01  0.0000000000000000e+00
-5.0000000000000003e-02  8.5999999999999999e-01  0.0000000000000000e+00
5.0000000000000003e-02  8.5999999999999999e-01  0.0000000000000000e+00
-5.0000000000000003e-02  8.8000000000000000e-01  0.0000000000000000e+00
5.0000000000000003e-02  8.8000000000000000e-01  0.0000000000000000e+00
-5.0000000000000003e-02  9.0000000000000002e-01  0.0000000000000000e+00
5.0000000000000003e-02  9.0000000000000002e-01  0.0000000000000000e+00
-5.0000000000000003e-02  9.2000000000000004e-01  0.0000000000000000e+00
5.0000000000000003e-02  9.2000000000000004e-01  0.0000000000000000e+00
-5.0000000000000003e-02  9.3999999999999995e-01  0.0000000000000000e+00
5.0000000000000003e-02  9.3999999999999995e-01  0.0000000000000000e+00
-5.0000000000000003e-02  9.5999999999999996e-01  0.0000000000000000e+00
5.0000000000000003e-02  9.5999999999999996e-01  0.0000000000000000e+00
-5.0000000000000003e-02  9.7999999999999998e-01  0.0000000000000000e+00
5.0000000000000003e-02  9.7999999999999998e-01  0.0000000000000000e+00
-5.0000000000000003e-02  1.0000000000000000e+00  0.0000000000000000e+00
-3.0000000000000002e-02  1.0000000000000000e+00  0.0000000000000000e+00
-1.0000000000000002e-02  1.0000000000000000e+00  0.0000000000000000e+00
1.0000000000000009e-02  1.0000000000000000e+00  0.0000000000000000e+00
2.9999999999999999e-02  1.0000000000000000e+00  0.0000000000000000e+00
5.0000000000000003e-02  1.0000000000000000e+00  0.0000000000000000e+00

CELLS 0 0


CELL_TYPES 0


POINT_DATA 106

VECTORS VertexNormals float

0.0000000000000000e+00 0.0000000000000000e+00 0
0.0000000000000000e+00 0.0000000000000000e+00 0
0.0000000000000000e+00 0.0000000000000000e+00 0
0.0000000000000000e+00 0.0000000000000000e+00 0
0.0000000000000000e+00 0.0000000000000000e+00 0
0.0000000000000000e+00 0.0000000000000000e+00 0
0.0000000000000000e+00 0.0000000000000000e+00 0
0.0000000000000000e+00 0.0000000000000000e+00 0
0.0000000000000000e+00 0.0000000000000000e+00 0
0.0000000000000000e+00 0.0000000000000000e+00 0
0.0000000000000000e+00 0.0000000000000000e+00 0
0.0000000000000000e+00 0.0000000000000000e+00 0
0.0000000000000000e+00 0.0000000000000000e+00 0
0.0000000000000000e+00 0.0000000000000000e+00 0
0.0000000000000000e+00 0.0000000000000000e+00 0
0.0000000000000000e+00 0.0000000000000000e+00 0
0.0000000000000000e+00 0.0000000000000000e+00 0
0.0000000000000000e+00 0.0000000000000000e+00 0
0.0000000000000000e+00 0.0000000000000000e+00 0
0.0000000000000000e+00 0.0000000000000000e+00 0
0.0000000000000000e+00 0.0000000000000000e+00 0
0.0000000000000000e+00 0.0000000000000000e+00 0
0.0000000000000000e+00 0.0000000000000000e+00 0
0.0000000000000000e+00 0.0000000000000000e+00 0
0.0000000000000000e+00 0.0000000000000000e+00 0
0.0000000000000000e+00 0.0000000000000000e+00 0
0.0000000000000000e+00 0.0000000000000000e+00 0
0.0000000000000000e+00 0.0000000000000000e+00 0
0.0000000000000000e+00 0.0000000000000000e+00 0
0.0000000000000000e+00 0.0000000000000000e+00 0
0.0000000000000000e+00 0.0000000000000000e+00 0
0.0000000000000000e+00 0.0000000000000000e+00 0
0.0000000000000000e+00 0.0000000000000000e+00 0
0.0000000000000000e+00 0.0000000000000000e+00 0
0.0000000000000000e+00 0.0000000000000000e+00 0
0.0000000000000000e+00 0.0000000000000000e+00 0
0.0000000000000000e+00 0.0000000000000000e+00 0
0.0000000000000000e+00 0.0000000000000000e+00 0
0.0000000000000000e+00 0.0000000000000000e+00 0
0.0000000000000000e+00 0.0000000000000000e+00 0
0.0000000000000000e+00 0.0000000000000000e+00 0
0.0000000000000000e+00 0.0000000000000000e+00 0
0.0000000000000000e+00 0.0000000000000000e+00 0
0.0000000000000000e+00 0.0000000000000000e+00 0
0.0000000000000000e+00 0.0000000000000000e+00 0
0.0000000000000000e+00 0.0000000000000000e+00 0
0.0000000000000000e+00 0.0000000000000000e+00 0
0.0000000000000000e+00 0.0000000000000000e+00 0
0.0000000000000000e+00 0.0000000000000000e+00 0
0.0000000000000000e+00 0.0000000000000000e+00 0
0.0000000000000000e+00 0.0000000000000000e+00 0
0.0000000000000000e+00 0.0000000000000000e+00 0
0.0000000000000000e+00 0.0000000000000000e+00 0
0.0000000000000000e+00 0.0000000000000000e+00 0
0.0000000000000000e+00 0.0000000000000000e+00 0
0.0000000000000000e+00 0.0000000000000000e+00 0
0.0000000000000000e+00 0.0000000000000000e+00 0
0.0000000000000000e+00 0.0000000000000000e+00 0
0.0000000000000000e+00 0.0000000000000000e+00 0
0.0000000000000000e+00 0.0000000000000000e+00 0
0.0000000000000000e+00 0.0000000000000000e+00 0
0.0000000000000000e+00 0.0000000000000000e+00 0
0.0000000000000000e+00 0.0000000000000000e+00 0
0.0000000000000000e+00 0.0000000000000000e+00 0
0.0000000000000000e+00 0.0000000000000000e+00 0
0.0000000000000000e+00 0.0000000000000000e+00 0
0.0000000000000000e+00 0.0000000000000000e+00 0
0.0000000000000000e+00 0.0000000000000000e+00 0
0.0000000000000000e+00 0.0000000000000000e+00 0
0.0000000000000000e+00 0.0000000000000000e+00 0
0.0000000000000000e+00 0.0000000000000000e+00 0
0.0000000000000000e+00 0.0000000000000000e+00 0
0.0000000000000000e+00 0.0000000000000000e+00 0
0.0000000000000000e+00 0.0000000000000000e+00 0
0.0000000000000000e+00 0.0000000000000000e+00 0
0.0000000000000000e+00 0.0000000000000000e+00 0
0.0000000000000000e+00 0.0000000000000000e+00 0
0.0000000000000000e+00 0.0000000000000000e+00 0
0.0000000000000000e+00 0.0000000000000000e+00 0
0.0000000000000000e+00 0.0000000000000000e+00 0
0.0000000000000000e+00 0.0000000000000000e+00 0
0.0000000000000000e+00 0.0000000000000000e+00 0
0.0000000000000000e+00 0.0000000000000000e+00 0
0.0000000000000000e+00 0.0000000000000000e+00 0
0.0000000000000000e+00 0.0000000000000000e+00 0
0.0000000000000000e+00 0.0000000000000000e+00 0
0.0000000000000000e+00 0.0000000000000000e+00 0
0.0000000000000000e+00 0.0000000000000000e+00 0
0.0000000000000000e+00 0.0000000000000000e+00 0
0.0000000000000000e+00 0.0000000000000000e+00 0
0.0000000000000000e+00 0.0000000000000000e+00 0
0.0000000000000000e+00 0.0000000000000000e+00 0
0.0000000000000000e+00 0.0000000000000000e+00 0
0.0000000000000000e+00 0.0000000000000000e+00 0
0.0000000000000000e+00 0.0000000000000000e+00 0
0.0000000000000000e+00 0.0000000000000000e+00 0
0.0000000000000000e+00 0.0000000000000000e+00 0
0.0000000000000000e+00 0.0000000000000000e+00 0
0.0000000000000000e+00 0.0000000000000000e+00 0
0.0000000000000000e+00 0.0000000000000000e+00 0
0.0000000000000000e+00 0.0000000000000000e+00 0
0.0000000000000000e+00 0.0000000000000000e+00 0
0.0000000000000000e+00 0.0000000000000000e+00 0
0.0000000000000000e+00 0.0000000000000000e+00 0
0.0000000000000000e+00 0.0000000000000000e+00 0
0.0000000000000000e+00 0.0000000000000000e+00 0

VECTORS Displacements1 float
-2.2087297343009566e-17 1.2337213265140049e-17 0
-1.4329388570330162e-23 -6.7371570044338177e-24 0
1.8678620897811363e-07 -6.7888474879272521e-08 0
1.9773191437236724e-07 8.9677564442973294e-08 0
2.1787533004722697e-07 -4.5413283292340576e-08 0
2.1858938915993396e-07 7.2233902083754286e-08 0
1.3268854636510389e-07 -1.3410759721165522e-08 0
1.3009275628213052e-07 3.3965998509654358e-08 0
3.1159331886400760e-08 2.0837534799063081e-08 0
3.3775621498853079e-08 -1.7750406441496615e-08 0
4.8091965444414613e-07 3.0544386092812784e-08 0
4.7198467426395144e-07 3.4892033538759680e-08 0
3.0727584123988811e-08 -2.1460632889476721e-08 0
3.2770277753445991e-08 2.4400278892181917e-08 0
1.4061877632190551e-07 1.5339470826536474e-08 0
1.3975907282058969e-07 8.4780526731179570e-09 0
1.4049077521322740e-07 3.4733775149249375e-09 0
1.3968279458580070e-07 1.9963185348479368e-08 0
3.0739932943309214e-08 2.1092245603933727e-08 0
3.4486809877961493e-08 -1.7366778952350286e-08 0
4.7742839669747992e-07 2.6978952181004586e-08 0
4.8116609267712965e-07 4.5990942889073369e-08 0
3.0246262802531083e-08 -2.2403825367711664e-08 0
3.3021504398215682e-08 2.7583025741910449e-08 0
1.3985960614309659e-07 1.3684064252560883e-08 0
1.4505536308250923e-07 1.3434292357320889e-08 0
1.3964277911144335e-07 1.8775907710929395e-09 0
1.4444741319239550e-07 2.5311704037768498e-08 0
3.0627508355319644e-08 1.9961105555415454e-08 0
3.6912171585663135e-08 -1.5306470723886191e-08 0
4.7543731045700891e-07 2.4267061640140026e-08 0
5.0594870398135676e-07 5.8993294538761571e-08 0
2.9833083011381750e-08 -2.3216524210497656e-08 0
3.4159812011607338e-08 3.1863493249420499e-08 0
1.3935397152568757e-07 1.2928102743981438e-08 0
1.5490724119228537e-07 1.8333938207360164e-08 0
1.3914015871345766e-07 1.2785957461835500e-09 0
1.5384078372398303e-07 3.0917146549899108e-08 0
3.0377625311435908e-08 1.9620326239804991e-08 0
4.0405455701968681e-08 -1.4226782629067751e-08 0
4.7364685256471911e-07 2.4423970173675005e-08 0
5.4666222757626497e-07 7.2124363516306496e-08 0
2.9543727051189694e-08 -2.3171594039065696e-08 0
3.6427148874420011e-08 3.6591161247884710e-08 0
1.3887224756375339e-07 1.3507128241526021e-08 0
1.6976802148306558e-07 2.2957579190190972e-08 0
1.3872690335962207e-07 2.1144009981837632e-09 0
1.6821974445659256e-07 3.6597061221635617e-08 0
2.9884455867391637e-08 2.0594485345596366e-08 0
4.5131604154239832e-08 -1.4568028439315965e-08 0
4.7196333717521589e-07 2.9425567512375420e-08 0
6.0591164753828012e-07 8.4597822284272003e-08 0
2.9459749256951130e-08 -2.1683152363215919e-08 0
4.0051993607742945e-08 4.1572858284161116e-08 0
1.3782209023533769e-07 1.6470158520384914e-08 0
1.9032325214937033e-07 2.6813634086541962e-08 0
1.3795332216359655e-07 5.3121322173180367e-09 0
1.8833413596583674e-07 4.2061565186608373e-08 0
2.9162217284909537e-08 2.2428521449503800e-08 0
5.1498435476556590e-08 -1.6068823590716572e-08 0
4.6808963992268413e-07 3.7296876637053896e-08 0
6.8737122829065565e-07 9.8649310637086195e-08 0
2.9252836314526658e-08 -1.9183406453634571e-08 0
4.5098021970870198e-08 4.7532100846276372e-08 0
1.3843564936685069e-07 2.0315227358189544e-08 0
2.2005083452144004e-07 3.1493397445863195e-08 0
1.3859137381163626e-07 9.9081276040808817e-09 0
2.1723810317289785e-07 4.8710158289467893e-08 0
2.8304506681762862e-08 2.8847150546900919e-08 0
6.0337714954906579e-08 -2.1293416392162472e-08 0
4.7523065545059971e-07 6.2201379649164397e-08 0
8.0765546067189768e-07 1.0829294289201366e-07 0
3.0520888568053484e-08 -1.2250341195212992e-08 0
5.3136685210179722e-08 5.2946398206403299e-08 0
1.3668365540847444e-07 3.4329794403575125e-08 0
2.5989509292766035e-07 3.1871426907934158e-08 0
1.3817950996567482e-07 2.3512208740006350e-08 0
2.5681422927679048e-07 5.2982966512911770e-08 0
2.8581568045724101e-08 3.2171770879681890e-08 0
7.3957011479019199e-08 -2.5330358935769046e-08 0
4.7605995551426355e-07 7.1293960315166868e-08 0
9.7813381528479996e-07 1.3787907230468848e-07 0
2.9242726891561381e-08 -9.0042071618551556e-09 0
6.2343499315305316e-08 6.4713452637809143e-08 0
1.6489518998477678e-07 3.8949855413269749e-08 0
3.4026893576053227e-07 4.4348616572094714e-08 0
1.6279612694998126e-07 3.3591859686850049e-08 0
3.3243794193199652e-07 6.7440047539709263e-08 0
3.3081332553601686e-08 8.2330503646748587e-08 0
9.9255660636076529e-08 -6.1293867338504025e-08 0
6.6451626066258364e-07 2.5010604205157562e-07 0
1.3686705347347839e-06 9.9461306687591136e-08 0
5.0971042169515665e-08 4.3803076648103735e-08 0
8.8999870515396739e-08 6.3499581010363681e-08 0
2.3349176172911348e-07 2.3561491408074110e-07 0
4.9459962492103844e-07 -3.1051687418110989e-08 0
2.6000846823972569e-07 4.2843257456398640e-07 0
5.1894934200261656e-07 -1.3509516639816269e-07 0
1.1397930635967059e-06 1.0383809908389962e-06 0
1.2750232501761519e-06 -2.7329769214193041e-07 0
1.0954918947698157e-06 9.4240395871301744e-07 0
1.2311763345160884e-06 7.1690662240448021e-07 0
9.2482305586379553e-07 4.5019970064093211e-07 0
9.2445436953874161e-07 3.7992089864432939e-07 0
1.2811426508635510e-06 -2.4271898247322306e-09 0
1.0658771352978305e-06 -5.0871405527656817e-07 0

VECTORS Displacements2 float
-2.2901368414414183e-17 1.2791968216044684e-17 0
-1.5033879380452810e-23 -6.9596799152293806e-24 0
1.9615269926861010e-07 -7.0073194951569344e-08 0
2.0706169698325651e-07 9.2531854912458974e-08 0
2.2897065706368011e-07 -4.7943185155880622e-08 0
2.2932807202798750e-07 7.5550740211693157e-08 0
1.4002546484166146e-07 -1.4463837088791598e-08 0
1.3709597630882347e-07 3.5760082021180936e-08 0
3.5640674668475110e-08 2.1669291277844856e-08 0
3.8240830767907897e-08 -1.8433130640298349e-08 0
5.0314912968391973e-07 3.1697524147835252e-08 0
4.9297859280727157e-07 3.6177172976683009e-08 0
3.5294589621775881e-08 -2.2866321149958360e-08 0
3.7347685863295543e-08 2.5909790471207847e-08 0
1.4781412771296782e-07 1.5383402670537131e-08 0
1.4663896069088076e-07 9.4391911694898161e-09 0
1.4766631978142197e-07 4.1105652464612477e-09 0
1.4659079373980854e-07 2.0224836010356349e-08 0
3.5298939387007171e-08 2.2379338461839252e-08 0
3.9222842712702140e-08 -1.8390391156631205e-08 0
4.9959213792650032e-07 2.8041583407604387e-08 0
5.0246818917141074e-07 4.7867865069899557e-08 0
3.4753118999576300e-08 -2.3855283718571386e-08 0
3.7721776133500525e-08 2.9301519374979364e-08 0
1.4701748300348737e-07 1.3653891620486327e-08 0
1.5214270446666446e-07 1.4712444831733557e-08 0
1.4679275682125016e-07 2.4348426382751733e-09 0
1.5159863735386441e-07 2.5873885513346479e-08 0
3.5170169022925576e-08 2.1181521127696371e-08 0
4.1916724733873219e-08 -1.6143554838293048e-08 0
4.9755226485614719e-07 2.5258075461605776e-08 0
5.2832058716729654e-07 6.1507096800643865e-08 0
3.4312416077877979e-08 -2.4714431821469288e-08 0
3.9078035884996000e-08 3.3900954916200737e-08 0
1.4649070648376707e-07 1.2875454635228819e-08 0
1.6244886228999727e-07 1.9950945922280638e-08 0
1.4627657664152161e-07 1.8183105692062120e-09 0
1.6147466242446878e-07 3.1764773048886874e-08 0
3.4899764782917072e-08 2.0833768700897243e-08 0
4.5829303634777238e-08 -1.4937157568499143e-08 0
4.9571858429024107e-07 2.5485516864365520e-08 0
5.7081405926960198e-07 7.5272808956275058e-08 0
3.4005111384824443e-08 -2.4648893473564693e-08 0
4.1723937198916417e-08 3.8971411559535645e-08 0
1.4599212471338470e-07 1.3517401289357580e-08 0
1.7801204228185417e-07 2.4912913118526142e-08 0
1.4584700862746274e-07 2.7312559572577707e-09 0
1.7658347650172575e-07 3.7699741477529111e-08 0
3.4372429284942214e-08 2.1901651016788680e-08 0
5.1151377639115115e-08 -1.5240980547287146e-08 0
4.9399421342893328e-07 3.0801461022598459e-08 0
6.3266590377283845e-07 8.8347049117312127e-08 0
3.3912586812361402e-08 -2.3028892477041759e-08 0
4.5915172605219857e-08 4.4307997085498703e-08 0
1.4490011380466750e-07 1.6687331939745986e-08 0
1.9955262142406870e-07 2.9090521532706434e-08 0
1.4503165250237366e-07 6.1439799311434680e-09 0
1.9771589325325949e-07 4.3379564517124694e-08 0
3.3593074435736061e-08 2.3903022125673431e-08 0
5.8332278893013143e-08 -1.6774217982436903e-08 0
4.8997059439684724e-07 3.9144859458712587e-08 0
7.1771664030059498e-07 1.0306602887888939e-07 0
3.3699768792243054e-08 -2.0312686108790937e-08 0
5.1758454156693345e-08 5.0680353916632008e-08 0
1.4555242271614436e-07 2.0825090343892692e-08 0
2.3070470336725536e-07 3.4145644025872296e-08 0
1.4568735567930980e-07 1.1102964276539575e-08 0
2.2807547423784315e-07 5.0221297727227822e-08 0
3.2718034905648977e-08 3.0820624032162769e-08 0
6.8339249432654918e-08 -2.2258516057401112e-08 0
4.9745140026742693e-07 6.5372256149781644e-08 0
8.4329657645036732e-07 1.1318330063151748e-07 0
3.5070813400655458e-08 -1.2829188461716623e-08 0
6.0980020337146166e-08 5.6479459159964233e-08 0
1.4371841010182191e-07 3.5666564016167163e-08 0
2.7248061002227019e-07 3.4776985201687842e-08 0
1.4523899893934272e-07 2.5504814268087148e-08 0
2.6967357378415838e-07 5.4584084236103652e-08 0
3.3034435412511523e-08 3.4466638301659823e-08 0
8.3658718896357321e-08 -2.6453636464700879e-08 0
4.9823713176384792e-07 7.5115270126367980e-08 0
1.0213280824579963e-06 1.4411878648623131e-07 0
3.3997980137335650e-08 -9.2207851855069202e-09 0
7.1927397248167303e-08 6.9021642652300330e-08 0
1.7322112210005686e-07 4.0836682729159268e-08 0
3.5662474922167238e-07 4.8029436253714955e-08 0
1.7114767644664061e-07 3.6872631687593441e-08 0
3.4912462143503101e-07 6.9046878954837190e-08 0
3.8291960944695340e-08 8.8272303364665788e-08 0
1.1250305838414095e-07 -6.4654237393645741e-08 0
6.9573419605276711e-07 2.6288656528283317e-07 0
1.4288869017039420e-06 1.0420987669546069e-07 0
5.7945921156375755e-08 4.9237512277319074e-08 0
1.0180160294978123e-07 6.7046328071587482e-08 0
2.4682627872553750e-07 2.5453115638466794e-07 0
5.1971727999566910e-07 -3.3942957325955607e-08 0
2.8051922496639071e-07 4.6668159440144195e-07 0
5.4948546461142130e-07 -1.4996628764156260e-07 0
1.2083503024518540e-06 1.1099449253439199e-06 0
1.3458791264686472e-06 -2.9865464637778967e-07 0
1.1803737053691528e-06 1.0133016294066226e-06 0
1.3171082634208727e-06 7.6327567819043030e-07 0
9.9353565080457715e-07 4.7642767224618267e-07 0
9.9210301039394688e-07 3.9732787174822881e-07 0
1.3648823858037174e-06 -6.4637666371931266e-09 0
1.1452722889630355e-06 -5.4525916765011652e-07 0

VECTORS Displacements3 float
-2.3717943805949023e-17 1.3248135612082172e-17 0
-1.5754783559484448e-23 -7.1816185146371404e-24 0
2.0573438109592136e-07 -7.2260383760323772e-08 0
2.1658583861486307e-07 9.5381594834566114e-08 0
2.4028302963024175e-07 -5.0460123945809085e-08 0
2.4027017355102200e-07 7.8867310381292530e-08 0
1.4767283029284019e-07 -1.5528834560884326e-08 0
1.4440908815379978e-07 3.7569169805990649e-08 0
4.0451185499893533e-08 2.2491245956800021e-08 0
4.3024074086589583e-08 -1.9059729542678398e-08 0
5.2578517888147651e-07 3.2843317505505111e-08 0
5.1429079290890494e-07 3.7491700161401578e-08 0
4.0243190238325531e-08 -2.4315052295262119e-08 0
4.2291108103897643e-08 2.7467449713801919e-08 0
1.5522736237409613e-07 1.5399682830829872e-08 0
1.5374566279229805e-07 1.0452874951657151e-08 0
1.5508592618051922e-07 4.7930895509458495e-09 0
1.5369127748569263e-07 2.0471677876352343e-08 0
4.0220093772162645e-08 2.3728905569652983e-08 0
4.4321166950035360e-08 -1.9442842610459150e-08 0
5.2215719270999741e-07 2.9118696864570774e-08 0
5.2409658922606928e-07 4.9769457418479649e-08 0
3.9631371891665808e-08 -2.5352751463570053e-08 0
4.2775751391909825e-08 3.1096605342663692e-08 0
1.5439253220726970e-07 1.3592759235510792e-08 0
1.5945427034161129e-07 1.6053742357851472e-08 0
1.5418786024484745e-07 3.0361491979036678e-09 0
1.5895679866792184e-07 2.6425766220497691e-08 0
4.0075180453711535e-08 2.2462709329193651e-08 0
4.7300089678429774e-08 -1.6996111726075204e-08 0
5.2007342557966558e-07 2.6265364509656661e-08 0
5.5103247580751066e-07 6.4060332572261421e-08 0
3.9164035790352481e-08 -2.6258977459159918e-08 0
4.4367875455843202e-08 3.6030952642569098e-08 0
1.5384390665455664e-07 1.2792355021673004e-08 0
1.7022506851493228e-07 2.1643921366030551e-08 0
1.5365957335437802e-07 2.4030243553669860e-09 0
1.6933312838262645e-07 3.2611027123255124e-08 0
3.9785304960386549e-08 2.2109152559544957e-08 0
5.1658891744046785e-08 -1.5653597493979602e-08 0
5.1820346663336195e-07 2.6567797398482393e-08 0
5.9533059720858977e-07 7.8474989694970647e-08 0
3.8841558757552475e-08 -2.6170495807169669e-08 0
4.7421923494917293e-08 4.1462049394464213e-08 0
1.5332784065057248e-07 1.3501435400026985e-08 0
1.8650834202294698e-07 2.6957556782557924e-08 0
1.5321568972940225e-07 3.3977516925241984e-09 0
1.8519751496872831e-07 3.8807616870482587e-08 0
3.9225575428176634e-08 2.3276927941466775e-08 0
5.7616168216768812e-08 -1.5912942536692976e-08 0
5.1644730106882503e-07 3.2207828412034543e-08 0
6.5982153597758571e-07 9.2164298699383180e-08 0
3.8744749681519410e-08 -2.4411940082222522e-08 0
5.2222438657806207e-08 4.7172599915925541e-08 0
1.5219319780139674e-07 1.6887593642642198e-08 0
2.0906038224896443e-07 3.1470835137747232e-08 0
1.5236047777222766e-07 7.0339489198195649e-09 0
2.0738339336619394e-07 4.4707469260742071e-08 0
3.8390175403255870e-08 2.5456517293157255e-08 0
6.5665060256082431e-08 -1.7473145374468700e-08 0
5.1228463462540763e-07 4.1036885220790770e-08 0
7.4851512993094728e-07 1.0756645258120812e-07 0
3.8534025700738179e-08 -2.1467739102075835e-08 0
5.8924324292675092e-08 5.3979869612769289e-08 0
1.5288284259266005e-07 2.1334541750525621e-08 0
2.4167359786462761e-07 3.6916143765626689e-08 0
1.5303960413723894e-07 1.2374769186844097e-08 0
2.3924991633014686e-07 5.1741621986319848e-08 0
3.7505894379727641e-08 3.2898610519529588e-08 0
7.6918449547472600e-08 -2.3216719130660386e-08 0
5.2012573039168525e-07 6.8619396098295640e-08 0
8.7946531201160040e-07 1.1817305519386078e-07 0
4.0021541993051741e-08 -1.3410047370666514e-08 0
6.9416426535206742e-08 6.0189088807934540e-08 0
1.5096792782102179e-07 3.7031511123711574e-08 0
2.8543472839975189e-07 3.7819193867732998e-08 0
1.5256095947485847e-07 2.7594374027204017e-08 0
2.8294337138337195e-07 5.6196509433988358e-08 0
3.7866726387900164e-08 3.6895298851057369e-08 0
9.4049213138673828e-08 -2.7565382406442888e-08 0
5.2089905526387186e-07 7.9033749351069740e-08 0
1.0651650360619168e-06 1.5048437862748381e-07 0
3.9206664987335419e-08 -9.4163159892635840e-09 0
8.2256556725971872e-08 7.3545037146277498e-08 0
1.8175148015288526e-07 4.2824952323024458e-08 0
3.7343050000899860e-07 5.1859214374487497e-08 0
1.7984568940668071e-07 4.0366649632302674e-08 0
3.6637879320570067e-07 7.0625267585831016e-08 0
4.3956309651723934e-08 9.4475949137922261e-08 0
1.2669436557538036e-07 -6.8031927229406866e-08 0
7.2760308583768414e-07 2.7598196520645639e-07 0
1.4900768994791336e-06 1.0911730114244675e-07 0
6.5608099292795443e-08 5.5270771309639825e-08 0
1.1549351462079804e-07 7.0605768018228648e-08 0
2.6096260045491417e-07 2.7485893803621333e-07 0
5.4572591816834994e-07 -3.7146011076611153e-08 0
3.0241764855656165e-07 5.0739345043724165e-07 0
5.8115228751827190e-07 -1.6581321436087731e-07 0
1.2797348277485006e-06 1.1847099876152498e-06 0
1.4192224470508623e-06 -3.2538510877489366e-07 0
1.2693657062668179e-06 1.0874627260648231e-06 0
1.4069750716440798e-06 8.1150914550165909e-07 0
1.0659199327916159e-06 5.0343876528047107e-07 0
1.0631522468202458e-06 4.1520283338628532e-07 0
1.4521415395378342e-06 -1.0754945507148677e-08 0
1.2281380029323547e-06 -5.8315062021788292e-07 0

VECTORS Forces1 float
-4.7743927468994959e-02 3.0604533660102982e-02 0
-5.3689414759373000e-02 -3.0371348753237958e-02 0
6.7754479432411396e-01 -3.7747340534294349e-01 0
7.2917168268025012e-01 4.0446440531761890e-01 0
7.4337509741516017e-01 -1.1578123065920863e-01 0
7.9825126766906296e-01 1.2553438416165258e-01 0
4.7285502191794199e-01 1.9240782557140790e-02 0
5.0766018087682219e-01 -1.9930887415675259e-02 0
-7.1312417704789050e-02 -2.7046604179914247e-03 0
-7.6668742136680762e-02 2.6946044765343044e-03 0
1.8088137314823578e+00 -1.5490605196721520e-03 0
1.9452869370033445e+00 1.3735293816169329e-02 0
-7.6306905459277999e-02 -1.8319440768273908e-05 0
-8.2699667746598662e-02 -9.2775870871525986e-04 0
5.1255116954680768e-01 -1.1693152916116532e-03 0
5.5491226725340836e-01 7.5501928001438338e-03 0
5.1259234731815106e-01 -1.1794006983716545e-03 0
5.5496627964130574e-01 7.5691377482235847e-03 0
-7.6331061726176680e-02 5.4929096026179306e-05 0
-8.2799537788138949e-02 -1.0384108220185830e-03 0
1.7976760303098533e+00 -7.7601419316208923e-03 0
1.9710492790917722e+00 4.1959296096271755e-02 0
-7.5733116937803616e-02 3.6162587182082486e-04 0
-8.4557750978823329e-02 -2.3156413668867773e-03 0
5.0849844529004018e-01 -3.3027032370595284e-03 0
5.6739626524004527e-01 1.6553234304081781e-02 0
5.0849544574606764e-01 -3.3050236097043051e-03 0
5.6741559290447807e-01 1.6562808257771150e-02 0
-7.5700978024132476e-02 3.6653274882075061e-04 0
-8.4678954028769862e-02 -2.3708682736954391e-03 0
1.7840850079713277e+00 -1.2811421584459708e-02 0
2.0381511502521876e+00 7.3597562216994650e-02 0
-7.5058358324611857e-02 4.1383891632575565e-04 0
-8.8258231350996960e-02 -3.5912737729559196e-03 0
5.0407421680067022e-01 -3.6459574479052910e-03 0
5.9258077209358417e-01 2.5179862860721682e-02 0
5.0406898938840805e-01 -3.6483073767783398e-03 0
5.9261045688248382e-01 2.5190402188006993e-02 0
-7.5022811258249625e-02 3.9805500449246626e-04 0
-8.8471390621855259e-02 -3.6382040867635203e-03 0
1.7648390029241303e+00 -9.9388240478613978e-03 0
2.1486659556014356e+00 1.0280876116711254e-01 0
-7.4121141885496039e-02 8.2725839564640782e-05 0
-9.3903474634448050e-02 -4.7477109276424919e-03 0
4.9785841830486466e-01 -1.4811977058665972e-03 0
6.3076958772076330e-01 3.3067599982382102e-02 0
4.9785024553642343e-01 -1.4825716510781732e-03 0
6.3081078727122664e-01 3.3078990884313528e-02 0
-7.4070059908290173e-02 3.4318960870504459e-05 0
-9.4215238482615246e-02 -4.7799950037166203e-03 0
1.7392137777086041e+00 6.2754214143929008e-03 0
2.3093213311260294e+00 1.2734528040330162e-01 0
-7.2694861395780741e-02 -9.8786994671123322e-04 0
-1.0177009302504468e-01 -5.6303615504184647e-03 0
4.8835693749968601e-01 5.5895324940732202e-03 0
6.8384672390312307e-01 3.9200045473883144e-02 0
4.8834756679957414e-01 5.5861470764793277e-03 0
6.8390224247724141e-01 3.9215218876240868e-02 0
-7.2640797894460429e-02 -1.0699966625852071e-03 0
-1.0221895065597474e-01 -5.6499862146290047e-03 0
1.7006133563512469e+00 3.1001024042694003e-02 0
2.5288794378766384e+00 1.5239822606128600e-01 0
-7.1533653927124477e-02 -2.2267850129096011e-03 0
-1.1302886778945796e-01 -6.7047486460705642e-03 0
4.8080404771733637e-01 1.3476469003485595e-02 0
7.5972689311975583e-01 4.6881270021506972e-02 0
4.8078937416820605e-01 1.3472736211117158e-02 0
7.5979521045982068e-01 4.6900225521466263e-02 0
-7.1466966806636542e-02 -2.4249193141039718e-03 0
-1.1367780424332319e-01 -6.6721713655646360e-03 0
1.6820099445573276e+00 1.0133861765771120e-01 0
2.8510438028101763e+00 1.5988897564247465e-01 0
-6.9226457082449538e-02 -6.9104755578336622e-03 0
-1.2836624607079242e-01 -6.2715419040596599e-03 0
4.6517986856238080e-01 4.4341303673028382e-02 0
8.6239388379150050e-01 4.4625736022724627e-02 0
4.6515156360204984e-01 4.4284786530132764e-02 0
8.6244590590714143e-01 4.4670347845078451e-02 0
-6.9527047553236174e-02 -7.2375177921774761e-03 0
-1.2968346331505493e-01 -6.2342121882633782e-03 0
1.6418925559599966e+00 1.3044620337876076e-01 0
3.3035404336114134e+00 2.1126878318056388e-01 0
-7.8055227858257456e-02 -7.5812354382495863e-03 0
-1.5895156306996011e-01 -9.3486891252392117e-03 0
5.2265913773753381e-01 4.3658177160393344e-02 0
1.0634874622903348e+00 6.7448109020228686e-02 0
5.2253842584991939e-01 4.3419832430062227e-02 0
1.0633149861267690e+00 6.7558157568563731e-02 0
-7.8940830107966597e-02 -9.7361271973491013e-03 0
-1.6221476262231191e-01 -8.2668975610044361e-03 0
2.0808462390488107e+00 5.9935287497961842e-01 0
4.3528695517190359e+00 4.0763033108273533e-02 0
-9.1975450917946358e-02 -5.3705983194687820e-02 0
-2.2064985191505157e-01 1.5563909977469115e-02 0
6.8397668913186371e-01 3.4673018745959827e-01 0
1.5219294101180165e+00 -6.1406562420791955e-02 0
4.3639645064688598e-01 1.8439483709462753e-01 0
1.1885126151950451e+00 -5.1527568939583698e-02 0
2.3982812012925590e+00 1.5109360030080359e+00 0
3.0542458879398739e+00 -7.6852354286648982e-03 0
1.5986405064620260e-01 1.8535190328479964e-01 0
1.7062881587829939e+00 1.1790805893084049e+00 0
1.1106623287837198e+00 1.0052181328812408e+00 0
1.0247229554048016e+00 1.0825545285094458e+00 0
1.9065501144180061e+00 5.0372384348467558e-01 0
3.2731262066333278e-01 -1.1098455205065789e-01 0

VECTORS Forces2 float
-1.5636572999542107e-02 1.1131643927101744e-02 0
-4.7750556764869266e-03 -2.0290410138303445e-03 0
2.5933772489372209e-01 -1.4649079138766669e-01 0
1.0675602695381749e-01 6.0614382110592328e-02 0
2.8160099231074531e-01 -4.4188809763384740e-02 0
1.1473462950269364e-01 1.9099001371385229e-02 0
1.7749616503865928e-01 8.2424143730688657e-03 0
7.1310272138182293e-02 -3.2274121165236066e-03 0
-2.6770841572073597e-02 -1.2419818554461673e-03 0
-1.0908519955811768e-02 5.1216841744357766e-04 0
6.6109904366075944e-01 -4.1217441684202885e-04 0
2.5665638537351088e-01 1.1357096361975273e-02 0
-2.7739311774442204e-02 7.9669533059694285e-05 0
-1.1048363428367316e-02 -9.6768258635371372e-04 0
1.8631577611395625e-01 -1.5813730504748704e-03 0
7.3532967060623997e-02 7.5411161860061901e-03 0
1.8633028085717238e-01 -1.5878284086934989e-03 0
7.3549795980278318e-02 7.5502534265606052e-03 0
-2.7740185238977789e-02 1.1741233650335023e-04 0
-1.1064231973027628e-02 -1.0356569438772876e-03 0
6.5973746845635528e-01 -1.0066287363252158e-02 0
2.7713905185909188e-01 4.2922331423746345e-02 0
-2.8070675914007106e-02 4.7503749092059301e-04 0
-1.2920484388940589e-02 -2.3760454312030696e-03 0
1.8873263539127200e-01 -4.0805618029425023e-03 0
8.6655804513326121e-02 1.6982436980868897e-02 0
1.8873635322868682e-01 -4.0836614319408777e-03 0
8.6674864252231365e-02 1.6992732862365301e-02 0
-2.8095046207629572e-02 4.8058878015520861e-04 0
-1.3048678176873021e-02 -2.4329546324235785e-03 0
6.7259677186516120e-01 -1.5984039549652291e-02 0
3.4468014507494282e-01 7.5683878602138599e-02 0
-2.8811621630894964e-02 5.6428632986710683e-04 0
-1.6712858542010545e-02 -3.7037883423507987e-03 0
1.9385807762473872e-01 -4.6868055167468099e-03 0
1.1245591670059077e-01 2.5969014443011734e-02 0
1.9386293595999815e-01 -4.6897828204206715e-03 0
1.1248610827531859e-01 2.5980222322841390e-02 0
-2.8859818695742813e-02 5.4891511532486519e-04 0
-1.6939262885077872e-02 -3.7524106214980855e-03 0
6.9576728583557235e-01 -1.4031889992034044e-02 0
4.6077924656832009e-01 1.0634209467416737e-01 0
-3.0000410390309616e-02 2.6430613713069196e-04 0
-2.2723355484396194e-02 -4.9206936933863972e-03 0
2.0199634916162107e-01 -2.7446916318295185e-03 0
1.5315419470540312e-01 3.4275818568035493e-02 0
2.0200211370182369e-01 -2.7466537771449404e-03 0
1.5319784599019143e-01 3.4287981571993767e-02 0
-3.0067267684297232e-02 2.1544522556557762e-04 0
-2.3063388952632415e-02 -4.9547359951769279e-03 0
7.2893995277510581e-01 1.6847870963873459e-03 0
6.3404043085747830e-01 1.3236964254524858e-01 0
-3.1416145628542391e-02 -7.9989639576150335e-04 0
-3.1322682763374333e-02 -5.8664663606830978e-03 0
2.1164104843670914e-01 4.2691813278172121e-03 0
2.1123828623603985e-01 4.0848513315350957e-02 0
2.1164932473367090e-01 4.2650755885717722e-03 0
2.1129955474644160e-01 4.0864773517674306e-02 0
-3.1517823449280988e-02 -8.8360585944751140e-04 0
-3.1821569813987038e-02 -5.8878241593961732e-03 0
7.6702949354014016e-01 2.6173042987839644e-02 0
8.7764045253661005e-01 1.5928250308605454e-01 0
-3.3913639589539975e-02 -2.0321838652258921e-03 0
-4.3923742841691753e-02 -7.0279642385212412e-03 0
2.2870307693107758e-01 1.2084384291950436e-02 0
2.9629183037172807e-01 4.9146033584870789e-02 0
2.2870981759050812e-01 1.2079704792821841e-02 0
2.9637282473940640e-01 4.9166899363378959e-02 0
-3.4050618711067002e-02 -2.2351704439174920e-03 0
-4.4659155172620660e-02 -6.9964648019450086e-03 0
8.4686597101785810e-01 9.7320929824771099e-02 0
1.2437455968630369e+00 1.6919931733404822e-01 0
-3.6303900284540613e-02 -6.7926916877432035e-03 0
-6.1751468210832411e-02 -6.7093473570236451e-03 0
2.4464568576383353e-01 4.3429244047443090e-02 0
4.1603976487928357e-01 4.7730657078623069e-02 0
2.4464171503280313e-01 4.3371433454981088e-02 0
4.1612177062724670e-01 4.7780258786471505e-02 0
-3.6853652055827656e-02 -7.1300430443869689e-03 0
-6.3189141672565341e-02 -6.6642749913214351e-03 0
9.2747842198493713e-01 1.2747211451248344e-01 0
1.7740820478317627e+00 2.2435021387458892e-01 0
-5.0516991101262322e-02 -7.6028462096249623e-03 0
-9.6299618129134110e-02 -9.8731155489293100e-03 0
3.3823921574722043e-01 4.3622675667990357e-02 0
6.4482813102460801e-01 7.1421108489407706e-02 0
3.3814350189161813e-01 4.3373472223839485e-02 0
6.4477259168788981e-01 7.1560785787450468e-02 0
-5.1927246427168859e-02 -9.7757985157062039e-03 0
-9.9791348974345273e-02 -8.7489243377234082e-03 0
1.5378270511703704e+00 5.9505990703393119e-01 0
2.9912525427359853e+00 6.8754674815069985e-02 0
-7.7212771527117696e-02 -5.3059276125990235e-02 0
-1.7122123930255193e-01 1.3885726846828973e-02 0
5.7790696798772967e-01 3.3933248121927428e-01 0
1.1939474429515302e+00 -4.8913664535836981e-02 0
3.3870393462093668e-01 1.7758089134918351e-01 0
8.9676291936051455e-01 -2.8723187431329615e-02 0
2.3209150773477538e+00 1.5023309762622969e+00 0
2.7547903179002691e+00 -1.1246517350066443e-01 0
1.6316407200146704e-01 1.8966964700745698e-01 0
1.6456278564509632e+00 1.1557051179184512e+00 0
1.0629758645359588e+00 8.8990236375998699e-01 0
9.8782047877462165e-01 9.3963385445720482e-01 0
1.7323259675883016e+00 3.5100430563813118e-01 0
2.8044454740360375e-01 -1.1646922435231907e-01 0

