# vtk DataFile Version 2.0

ASCII

DATASET UNSTRUCTURED_GRID

POINTS 106 float 

-5.0000000000000003e-02  0.0000000000000000e+00  0.0000000000000000e+00
5.0000000000000003e-02  0.0000000000000000e+00  0.0000000000000000e+00
-5.0000000000000003e-02  2.0000000000000000e-02  0.0000000000000000e+00
5.0000000000000003e-02  2.0000000000000000e-02  0.0000000000000000e+00
-5.0000000000000003e-02  4.0000000000000001e-02  0.0000000000000000e+00
5.0000000000000003e-02  4.0000000000000001e-02  0.0000000000000000e+00
-5.0000000000000003e-02  5.9999999999999998e-02  0.0000000000000000e+00
5.0000000000000003e-02  5.9999999999999998e-02  0.0000000000000000e+00
-5.0000000000000003e-02  8.0000000000000002e-02  0.0000000000000000e+00
5.0000000000000003e-02  8.0000000000000002e-02  0.0000000000000000e+00
-5.0000000000000003e-02  1.0000000000000001e-01  0.0000000000000000e+00
5.0000000000000003e-02  1.0000000000000001e-01  0.0000000000000000e+00
-5.0000000000000003e-02  1.2000000000000000e-01  0.0000000000000000e+00
5.0000000000000003e-02  1.2000000000000000e-01  0.0000000000000000e+00
-5.0000000000000003e-02  1.4000000000000001e-01  0.0000000000000000e+00
5.0000000000000003e-02  1.4000000000000001e-01  0.0000000000000000e+00
-5.0000000000000003e-02  1.6000000000000000e-01  0.0000000000000000e+00
5.0000000000000003e-02  1.6000000000000000e-01  0.0000000000000000e+00
-5.0000000000000003e-02  1.7999999999999999e-01  0.0000000000000000e+00
5.0000000000000003e-02  1.7999999999999999e-01  0.0000000000000000e+00
-5.0000000000000003e-02  2.0000000000000001e-01  0.0000000000000000e+00
5.0000000000000003e-02  2.0000000000000001e-01  0.0000000000000000e+00
-5.0000000000000003e-02  2.2000000000000000e-01  0.0000000000000000e+00
5.0000000000000003e-02  2.2000000000000000e-01  0.0000000000000000e+00
-5.0000000000000003e-02  2.3999999999999999e-01  0.0000000000000000e+00
5.0000000000000003e-02  2.3999999999999999e-01  0.0000000000000000e+00
-5.0000000000000003e-02  2.6000000000000001e-01  0.0000000000000000e+00
5.0000000000000003e-02  2.6000000000000001e-01  0.0000000000000000e+00
-5.0000000000000003e-02  2.8000000000000003e-01  0.0000000000000000e+00
5.0000000000000003e-02  2.8000000000000003e-01  0.0000000000000000e+00
-5.0000000000000003e-02  2.9999999999999999e-01  0.0000000000000000e+00
5.0000000000000003e-02  2.9999999999999999e-01  0.0000000000000000e+00
-5.0000000000000003e-02  3.2000000000000001e-01  0.0000000000000000e+00
5.0000000000000003e-02  3.2000000000000001e-01  0.0000000000000000e+00
-5.0000000000000003e-02  3.4000000000000002e-01  0.0000000000000000e+00
5.0000000000000003e-02  3.4000000000000002e-01  0.0000000000000000e+00
-5.0000000000000003e-02  3.5999999999999999e-01  0.0000000000000000e+00
5.0000000000000003e-02  3.5999999999999999e-01  0.0000000000000000e+00
-5.0000000000000003e-02  3.8000000000000000e-01  0.0000000000000000e+00
5.0000000000000003e-02  3.8000000000000000e-01  0.0000000000000000e+00
-5.0000000000000003e-02  4.0000000000000002e-01  0.0000000000000000e+00
5.0000000000000003e-02  4.0000000000000002e-01  0.0000000000000000e+00
-5.0000000000000003e-02  4.1999999999999998e-01  0.0000000000000000e+00
5.0000000000000003e-02  4.1999999999999998e-01  0.0000000000000000e+00
-5.0000000000000003e-02  4.4000000000000000e-01  0.0000000000000000e+00
5.0000000000000003e-02  4.4000000000000000e-01  0.0000000000000000e+00
-5.0000000000000003e-02  4.6000000000000002e-01  0.0000000000000000e+00
5.0000000000000003e-02  4.6000000000000002e-01  0.0000000000000000e+00
-5.0000000000000003e-02  4.7999999999999998e-01  0.0000000000000000e+00
5.0000000000000003e-02  4.7999999999999998e-01  0.0000000000000000e+00
-5.0000000000000003e-02  5.0000000000000000e-01  0.0000000000000000e+00
5.0000000000000003e-02  5.0000000000000000e-01  0.0000000000000000e+00
-5.0000000000000003e-02  5.2000000000000002e-01  0.0000000000000000e+00
5.0000000000000003e-02  5.2000000000000002e-01  0.0000000000000000e+00
-5.0000000000000003e-02  5.4000000000000004e-01  0.0000000000000000e+00
5.0000000000000003e-02  5.4000000000000004e-01  0.0000000000000000e+00
-5.0000000000000003e-02  5.6000000000000005e-01  0.0000000000000000e+00
5.0000000000000003e-02  5.6000000000000005e-01  0.0000000000000000e+00
-5.0000000000000003e-02  5.7999999999999996e-01  0.0000000000000000e+00
5.0000000000000003e-02  5.7999999999999996e-01  0.0000000000000000e+00
-5.0000000000000003e-02  5.9999999999999998e-01  0.0000000000000000e+00
5.0000000000000003e-02  5.9999999999999998e-01  0.0000000000000000e+00
-5.0000000000000003e-02  6.2000000000000000e-01  0.0000000000000000e+00
5.0000000000000003e-02  6.2000000000000000e-01  0.0000000000000000e+00
-5.0000000000000003e-02  6.4000000000000001e-01  0.0000000000000000e+00
5.0000000000000003e-02  6.4000000000000001e-01  0.0000000000000000e+00
-5.0000000000000003e-02  6.6000000000000003e-01  0.0000000000000000e+00
5.0000000000000003e-02  6.6000000000000003e-01  0.0000000000000000e+00
-5.0000000000000003e-02  6.8000000000000005e-01  0.0000000000000000e+00
5.0000000000000003e-02  6.8000000000000005e-01  0.0000000000000000e+00
-5.0000000000000003e-02  6.9999999999999996e-01  0.0000000000000000e+00
5.0000000000000003e-02  6.9999999999999996e-01  0.0000000000000000e+00
-5.0000000000000003e-02  7.1999999999999997e-01  0.0000000000000000e+00
5.0000000000000003e-02  7.1999999999999997e-01  0.0000000000000000e+00
-5.0000000000000003e-02  7.3999999999999999e-01  0.0000000000000000e+00
5.0000000000000003e-02  7.3999999999999999e-01  0.0000000000000000e+00
-5.0000000000000003e-02  7.6000000000000001e-01  0.0000000000000000e+00
5.0000000000000003e-02  7.6000000000000001e-01  0.0000000000000000e+00
-5.0000000000000003e-02  7.8000000000000003e-01  0.0000000000000000e+00
5.0000000000000003e-02  7.8000000000000003e-01  0.0000000000000000e+00
-5.0000000000000003e-02  8.0000000000000004e-01  0.0000000000000000e+00
5.0000000000000003e-02  8.0000000000000004e-01  0.0000000000000000e+00
-5.0000000000000003e-02  8.1999999999999995e-01  0.0000000000000000e+00
5.0000000000000003e-02  8.1999999999999995e-01  0.0000000000000000e+00
-5.0000000000000003e-02  8.3999999999999997e-01  0.0000000000000000e+00
5.0000000000000003e-02  8.3999999999999997e-01  0.0000000000000000e+00
-5.0000000000000003e-02  8.5999999999999999e-01  0.0000000000000000e+00
5.0000000000000003e-02  8.5999999999999999e-01  0.0000000000000000e+00
-5.0000000000000003e-02  8.8000000000000000e-01  0.0000000000000000e+00
5.0000000000000003e-02  8.8000000000000000e-01  0.0000000000000000e+00
-5.0000000000000003e-02  9.0000000000000002e-01  0.0000000000000000e+00
5.0000000000000003e-02  9.0000000000000002e-01  0.0000000000000000e+00
-5.0000000000000003e-02  9.2000000000000004e-01  0.0000000000000000e+00
5.0000000000000003e-02  9.2000000000000004e-01  0.0000000000000000e+00
-5.0000000000000003e-02  9.3999999999999995e-01  0.0000000000000000e+00
5.0000000000000003e-02  9.3999999999999995e-01  0.0000000000000000e+00
-5.0000000000000003e-02  9.5999999999999996e-01  0.0000000000000000e+00
5.0000000000000003e-02  9.5999999999999996e-01  0.0000000000000000e+00
-5.0000000000000003e-02  9.7999999999999998e-01  0.0000000000000000e+00
5.0000000000000003e-02  9.7999999999999998e-01  0.0000000000000000e+00
-5.0000000000000003e-02  1.0000000000000000e+00  0.0000000000000000e+00
-3.0000000000000002e-02  1.0000000000000000e+00  0.0000000000000000e+00
-1.0000000000000002e-02  1.0000000000000000e+00  0.0000000000000000e+00
1.0000000000000009e-02  1.0000000000000000e+00  0.0000000000000000e+00
2.9999999999999999e-02  1.0000000000000000e+00  0.0000000000000000e+00
5.0000000000000003e-02  1.0000000000000000e+00  0.0000000000000000e+00

CELLS 0 0


CELL_TYPES 0


POINT_DATA 106

VECTORS VertexNormals float

0.0000000000000000e+00 0.0000000000000000e+00 0
0.0000000000000000e+00 0.0000000000000000e+00 0
0.0000000000000000e+00 0.0000000000000000e+00 0
0.0000000000000000e+00 0.0000000000000000e+00 0
0.0000000000000000e+00 0.0000000000000000e+00 0
0.0000000000000000e+00 0.0000000000000000e+00 0
0.0000000000000000e+00 0.0000000000000000e+00 0
0.0000000000000000e+00 0.0000000000000000e+00 0
0.0000000000000000e+00 0.0000000000000000e+00 0
0.0000000000000000e+00 0.0000000000000000e+00 0
0.0000000000000000e+00 0.0000000000000000e+00 0
0.0000000000000000e+00 0.0000000000000000e+00 0
0.0000000000000000e+00 0.0000000000000000e+00 0
0.0000000000000000e+00 0.0000000000000000e+00 0
0.0000000000000000e+00 0.0000000000000000e+00 0
0.0000000000000000e+00 0.0000000000000000e+00 0
0.0000000000000000e+00 0.0000000000000000e+00 0
0.0000000000000000e+00 0.0000000000000000e+00 0
0.0000000000000000e+00 0.0000000000000000e+00 0
0.0000000000000000e+00 0.0000000000000000e+00 0
0.0000000000000000e+00 0.0000000000000000e+00 0
0.0000000000000000e+00 0.0000000000000000e+00 0
0.0000000000000000e+00 0.0000000000000000e+00 0
0.0000000000000000e+00 0.0000000000000000e+00 0
0.0000000000000000e+00 0.0000000000000000e+00 0
0.0000000000000000e+00 0.0000000000000000e+00 0
0.0000000000000000e+00 0.0000000000000000e+00 0
0.0000000000000000e+00 0.0000000000000000e+00 0
0.0000000000000000e+00 0.0000000000000000e+00 0
0.0000000000000000e+00 0.0000000000000000e+00 0
0.0000000000000000e+00 0.0000000000000000e+00 0
0.0000000000000000e+00 0.0000000000000000e+00 0
0.0000000000000000e+00 0.0000000000000000e+00 0
0.0000000000000000e+00 0.0000000000000000e+00 0
0.0000000000000000e+00 0.0000000000000000e+00 0
0.0000000000000000e+00 0.0000000000000000e+00 0
0.0000000000000000e+00 0.0000000000000000e+00 0
0.0000000000000000e+00 0.0000000000000000e+00 0
0.0000000000000000e+00 0.0000000000000000e+00 0
0.0000000000000000e+00 0.0000000000000000e+00 0
0.0000000000000000e+00 0.0000000000000000e+00 0
0.0000000000000000e+00 0.0000000000000000e+00 0
0.0000000000000000e+00 0.0000000000000000e+00 0
0.0000000000000000e+00 0.0000000000000000e+00 0
0.0000000000000000e+00 0.0000000000000000e+00 0
0.0000000000000000e+00 0.0000000000000000e+00 0
0.0000000000000000e+00 0.0000000000000000e+00 0
0.0000000000000000e+00 0.0000000000000000e+00 0
0.0000000000000000e+00 0.0000000000000000e+00 0
0.0000000000000000e+00 0.0000000000000000e+00 0
0.0000000000000000e+00 0.0000000000000000e+00 0
0.0000000000000000e+00 0.0000000000000000e+00 0
0.0000000000000000e+00 0.0000000000000000e+00 0
0.0000000000000000e+00 0.0000000000000000e+00 0
0.0000000000000000e+00 0.0000000000000000e+00 0
0.0000000000000000e+00 0.0000000000000000e+00 0
0.0000000000000000e+00 0.0000000000000000e+00 0
0.0000000000000000e+00 0.0000000000000000e+00 0
0.0000000000000000e+00 0.0000000000000000e+00 0
0.0000000000000000e+00 0.0000000000000000e+00 0
0.0000000000000000e+00 0.0000000000000000e+00 0
0.0000000000000000e+00 0.0000000000000000e+00 0
0.0000000000000000e+00 0.0000000000000000e+00 0
0.0000000000000000e+00 0.0000000000000000e+00 0
0.0000000000000000e+00 0.0000000000000000e+00 0
0.0000000000000000e+00 0.0000000000000000e+00 0
0.0000000000000000e+00 0.0000000000000000e+00 0
0.0000000000000000e+00 0.0000000000000000e+00 0
0.0000000000000000e+00 0.0000000000000000e+00 0
0.0000000000000000e+00 0.0000000000000000e+00 0
0.0000000000000000e+00 0.0000000000000000e+00 0
0.0000000000000000e+00 0.0000000000000000e+00 0
0.0000000000000000e+00 0.0000000000000000e+00 0
0.0000000000000000e+00 0.0000000000000000e+00 0
0.0000000000000000e+00 0.0000000000000000e+00 0
0.0000000000000000e+00 0.0000000000000000e+00 0
0.0000000000000000e+00 0.0000000000000000e+00 0
0.0000000000000000e+00 0.0000000000000000e+00 0
0.0000000000000000e+00 0.0000000000000000e+00 0
0.0000000000000000e+00 0.0000000000000000e+00 0
0.0000000000000000e+00 0.0000000000000000e+00 0
0.0000000000000000e+00 0.0000000000000000e+00 0
0.0000000000000000e+00 0.0000000000000000e+00 0
0.0000000000000000e+00 0.0000000000000000e+00 0
0.0000000000000000e+00 0.0000000000000000e+00 0
0.0000000000000000e+00 0.0000000000000000e+00 0
0.0000000000000000e+00 0.0000000000000000e+00 0
0.0000000000000000e+00 0.0000000000000000e+00 0
0.0000000000000000e+00 0.0000000000000000e+00 0
0.0000000000000000e+00 0.0000000000000000e+00 0
0.0000000000000000e+00 0.0000000000000000e+00 0
0.0000000000000000e+00 0.0000000000000000e+00 0
0.0000000000000000e+00 0.0000000000000000e+00 0
0.0000000000000000e+00 0.0000000000000000e+00 0
0.0000000000000000e+00 0.0000000000000000e+00 0
0.0000000000000000e+00 0.0000000000000000e+00 0
0.0000000000000000e+00 0.0000000000000000e+00 0
0.0000000000000000e+00 0.0000000000000000e+00 0
0.0000000000000000e+00 0.0000000000000000e+00 0
0.0000000000000000e+00 0.0000000000000000e+00 0
0.0000000000000000e+00 0.0000000000000000e+00 0
0.0000000000000000e+00 0.0000000000000000e+00 0
0.0000000000000000e+00 0.0000000000000000e+00 0
0.0000000000000000e+00 0.0000000000000000e+00 0
0.0000000000000000e+00 0.0000000000000000e+00 0
0.0000000000000000e+00 0.0000000000000000e+00 0

VECTORS Displacements1 float
-5.8944633976434554e-17 3.2930041580239144e-17 0
-1.5352468616524105e-22 6.8453775924773606e-23 0
2.0660400619160976e-06 1.0244854025584135e-06 0
1.9838135525595508e-06 -9.7243489671941849e-07 0
3.6018224535394219e-06 1.4891073695592980e-06 0
3.4714561312987091e-06 -1.4131412293412688e-06 0
4.6761065165813292e-06 1.6186822835490047e-06 0
4.5684634402658607e-06 -1.5227051004963184e-06 0
5.4848006523505647e-06 1.5206090320765091e-06 0
5.4211531072739255e-06 -1.4257809453206589e-06 0
7.4551074118963725e-06 1.1995473510346742e-06 0
7.1513445302926660e-06 -9.4194608572197597e-07 0
6.6370662951270911e-06 6.8556284708651050e-07 0
6.5611194382499926e-06 -5.7241629215352942e-07 0
7.0315666671004624e-06 5.1202041199664571e-07 0
6.9046319700526258e-06 -3.0295307976496720e-07 0
7.0404284731778589e-06 3.5394837045519829e-07 0
6.9128666399911481e-06 -1.1220895947221199e-07 0
6.7893942322365882e-06 3.4334873310358982e-07 0
6.7151395100066092e-06 -9.6486201684421146e-08 0
8.0380541793245619e-06 3.0173202828610855e-07 0
7.7236952191137387e-06 1.4370028040860791e-07 0
6.8028924478027907e-06 1.2103396703426750e-07 0
6.7153586975594107e-06 1.6696936756750344e-07 0
7.0518118251005911e-06 2.4999054597941615e-07 0
6.9312425736108776e-06 1.5147141198324564e-07 0
7.0877651136353849e-06 2.9656373538237243e-07 0
6.9662029024037603e-06 1.4962273618546740e-07 0
6.9136368383471922e-06 3.9179462098282288e-07 0
6.8469468159768150e-06 6.4745548273234450e-08 0
8.2265444145610097e-06 3.9492979437197579e-07 0
7.9535546445952971e-06 3.0188591323127468e-07 0
6.9971173741098712e-06 2.3019589271404534e-07 0
6.9094119459645290e-06 2.8900573933195694e-07 0
7.2503814893991721e-06 3.8710162187074481e-07 0
7.1459734867862037e-06 2.5736827134597776e-07 0
7.2995155659226355e-06 4.5472751834243387e-07 0
7.1976876281963365e-06 2.4229756156419111e-07 0
7.1399058259666241e-06 5.6201340237891436e-07 0
7.0873292896217948e-06 1.4464154151389977e-07 0
8.4795729043735602e-06 5.8423808003607071e-07 0
8.2880992090712925e-06 4.1934324767089723e-07 0
7.2636435484763741e-06 4.1662529596810564e-07 0
7.1809810573351207e-06 3.8548850749729874e-07 0
7.5378204111102164e-06 5.8525493931018172e-07 0
7.4618391189879387e-06 3.5619039427060444e-07 0
7.6092385200773298e-06 6.6419353396822523e-07 0
7.5373317824674234e-06 3.4328173137613384e-07 0
7.4714013236618639e-06 7.8261297999310452e-07 0
7.4389386454986588e-06 2.3735285887272264e-07 0
8.8464541898690284e-06 8.3396509539105213e-07 0
8.7773867674973125e-06 5.5702037881238129e-07 0
7.6490099079074048e-06 6.5839907792731331e-07 0
7.5735632114692938e-06 5.0555177860235082e-07 0
7.9461057597633633e-06 8.4820495745119483e-07 0
7.9103932921791656e-06 4.7667749771341411e-07 0
8.0466200211715291e-06 9.4807276432908179e-07 0
8.0165632700450177e-06 4.6375711144795022e-07 0
7.9406682405943749e-06 1.0859525383913854e-06 0
7.9334668270303030e-06 3.4360763616640708e-07 0
9.3607080391542016e-06 1.1891845599124285e-06 0
9.4669551537140822e-06 7.1475813354566835e-07 0
8.2075841682601036e-06 1.0210542540397548e-06 0
8.1343942251715421e-06 6.4281293032166215e-07 0
8.5595411620649352e-06 1.2716671947717889e-06 0
8.5538719196780523e-06 6.2020632373014639e-07 0
8.7236164681684823e-06 1.4578278036667905e-06 0
8.7001986671353733e-06 6.2438263735403195e-07 0
8.6938856804521280e-06 1.7177244556127836e-06 0
8.6262709886821318e-06 5.1866845338261264e-07 0
1.0234535913995697e-05 2.0406810321895872e-06 0
1.0412059763150291e-05 1.0076618794905464e-06 0
9.1471832938626782e-06 2.0267719972173861e-06 0
8.8311892744568753e-06 1.0013860997584641e-06 0
9.5569781066952651e-06 2.5825740943548893e-06 0
9.2826260949494941e-06 1.0516028687853266e-06 0
9.7907677164936903e-06 3.1123737982366065e-06 0
9.3868452781620821e-06 1.1314483318268648e-06 0
9.7668157831777698e-06 3.7412831147217521e-06 0
9.1802460183941537e-06 1.0572977814762493e-06 0
1.1181696656483850e-05 4.6127396516775381e-06 0
1.1104199032642266e-05 1.5980756130438341e-06 0
9.8361661617660959e-06 5.3318683081510763e-06 0
8.8986345452014347e-06 1.2329971743491796e-06 0
1.0156789596858609e-05 7.1389257983788483e-06 0
9.3612996162097575e-06 4.6253664634664428e-07 0
1.0786701137397908e-05 9.5042719334062441e-06 0
1.0001677094054040e-05 -8.9926784412279716e-07 0
1.2240764590292566e-05 1.2519642518022819e-05 0
1.1412972973048587e-05 -3.0261771932195443e-06 0
1.7122027175491668e-05 1.6191107362858825e-05 0
1.7313479379471220e-05 -4.6290003789890282e-06 0
2.0054023581138295e-05 1.8737060656025186e-05 0
1.9222751511069900e-05 -6.9744383822698098e-06 0
2.6444217131362724e-05 2.2292140182924096e-05 0
2.6147931191249874e-05 -9.2039638723483386e-06 0
3.3810792424595990e-05 2.5248076602382562e-05 0
3.3628049437280066e-05 -1.1061162976764289e-05 0
4.4080466347705933e-05 2.8261968408852931e-05 0
4.3402677310591499e-05 -1.2051164616360711e-05 0
5.2235408915145191e-05 2.8351854238516715e-05 0
5.2191463827042979e-05 1.9787514094594395e-05 0
5.0856863216106392e-05 1.1590761306450970e-05 0
5.0543772951962276e-05 4.3112013914972693e-06 0
5.1381931584369455e-05 -3.7959720623655009e-06 0
5.1152945187561588e-05 -1.2842646778862960e-05 0

VECTORS Displacements2 float
-5.9027486280041380e-17 3.2976269662880084e-17 0
-1.5432223400433201e-22 6.9436816422741145e-23 0
2.0775002547287345e-06 1.0384594595496548e-06 0
1.9947676293083705e-06 -9.8594303538052267e-07 0
3.6284998509134202e-06 1.5118456926015412e-06 0
3.4972601246350093e-06 -1.4350019557297606e-06 0
4.7193791948485142e-06 1.6470250056908272e-06 0
4.6104655285451348e-06 -1.5496344464741449e-06 0
5.5457494248599001e-06 1.5502629498426175e-06 0
5.4811526508689924e-06 -1.4533506501214663e-06 0
7.5335168929591638e-06 1.2267493616757862e-06 0
7.2277556624009371e-06 -9.6728079679913413e-07 0
6.7266933252536319e-06 7.0941550855371260e-07 0
6.6503529835873218e-06 -5.9394893494135048e-07 0
7.1318053423879438e-06 5.3042887691137110e-07 0
7.0039032931476937e-06 -3.1829804350778273e-07 0
7.1458187061379479e-06 3.6704028244522746e-07 0
7.0167552249845510e-06 -1.2184703793609110e-07 0
6.8951811268481739e-06 3.5162041126351966e-07 0
6.8198850073606269e-06 -1.0097940696406840e-07 0
8.1431456093111802e-06 3.0729784455464243e-07 0
7.8263507714382824e-06 1.4223958478095613e-07 0
6.9046479128694913e-06 1.2637998586675907e-07 0
6.8155042103164211e-06 1.6619560640302763e-07 0
7.1531375560328840e-06 2.5564395592713037e-07 0
7.0312920662595027e-06 1.5129134775757310e-07 0
7.1899841152058687e-06 3.0348520616912315e-07 0
7.0668453460959297e-06 1.4881434742002097e-07 0
7.0171797844266554e-06 3.9837015268320408e-07 0
6.9493662007377201e-06 6.5093716093454233e-08 0
8.3328535514950518e-06 4.0129959648377688e-07 0
8.0566365999126437e-06 3.0307457116594682e-07 0
7.1020730289429638e-06 2.3633159905197715e-07 0
7.0127435184387583e-06 2.9065316217569470e-07 0
7.3550411272647873e-06 3.9383576254786749e-07 0
7.2491534511130685e-06 2.5976867924295221e-07 0
7.4052499135727636e-06 4.6380320351676658e-07 0
7.3016074095265637e-06 2.4331504778895917e-07 0
7.2473125045905756e-06 5.7132128607603133e-07 0
7.1934313873021469e-06 1.4631956877538089e-07 0
8.5900287086550812e-06 5.9356836619591696e-07 0
8.3947808561900069e-06 4.2162660597208949e-07 0
7.3726606712078652e-06 4.2601461104381096e-07 0
7.2881090665961598e-06 3.8818758532933023e-07 0
7.6467838350590248e-06 5.9546032327476141e-07 0
7.5690998855581468e-06 3.5969391791786320e-07 0
7.7196278473732786e-06 6.7706243296767419e-07 0
7.6456712004059347e-06 3.4533234353624911e-07 0
7.5839549816794744e-06 7.9580688786862378e-07 0
7.5498139025881627e-06 2.4037710395447337e-07 0
8.9624978952895860e-06 8.4716029007544402e-07 0
8.8889801226970298e-06 5.6083050960620107e-07 0
7.7637748931058262e-06 6.7171850435119909e-07 0
7.6860092561256975e-06 5.0966846417951881e-07 0
8.0611084984559484e-06 8.6274057048182666e-07 0
8.0234426442182366e-06 4.8175701258139749e-07 0
8.1636910403379636e-06 9.6583099615435537e-07 0
8.1312269794527780e-06 4.6736349348239192e-07 0
8.0607232943865585e-06 1.1044690829333270e-06 0
8.0511949496855261e-06 3.4847951839159610e-07 0
9.4849998603746399e-06 1.2082336866893223e-06 0
9.5855680978903010e-06 7.2063298078489421e-07 0
8.3311637553044913e-06 1.0414275425352738e-06 0
8.2542943938508744e-06 6.4946953322604938e-07 0
8.6842490264896456e-06 1.2958969975793415e-06 0
8.6744584418530562e-06 6.2903252671812180e-07 0
8.8522439565143586e-06 1.4886173936314132e-06 0
8.8219442545944104e-06 6.3349539359885787e-07 0
8.8270285412902710e-06 1.7529823577623371e-06 0
8.7504530078886382e-06 5.3192760072058279e-07 0
1.0372860812149638e-05 2.0812058277071909e-06 0
1.0535130331520590e-05 1.0253274860178283e-06 0
9.2841586700226092e-06 2.0727024307103796e-06 0
8.9536503193278198e-06 1.0226089196470032e-06 0
9.6937602185022174e-06 2.6361585417080782e-06 0
9.4038639490195159e-06 1.0775230713716027e-06 0
9.9280870410833292e-06 3.1734142179398298e-06 0
9.5064204991972131e-06 1.1607749964439417e-06 0
9.9001862009448572e-06 3.8076545934472007e-06 0
9.2956555711071654e-06 1.0929630294072378e-06 0
1.1306209605857473e-05 4.6878289072511209e-06 0
1.1209579268431551e-05 1.6348207336146939e-06 0
9.9487090643093500e-06 5.4254722080459752e-06 0
8.9983510447285940e-06 1.2576971247633463e-06 0
1.0274590928622556e-05 7.2652461182263510e-06 0
9.4718810419585169e-06 4.6521520559594835e-07 0
1.0937338341032875e-05 9.6680751143699408e-06 0
1.0148902734976932e-05 -9.2470769217791182e-07 0
1.2447874993136311e-05 1.2711704710797267e-05 0
1.1618123149217870e-05 -3.0731876390889133e-06 0
1.7399126788047245e-05 1.6402978510872420e-05 0
1.7585779027235751e-05 -4.6894208516069879e-06 0
2.0397236783423826e-05 1.8959872047038411e-05 0
1.9565504744895118e-05 -7.0439683521619809e-06 0
2.6856560953566904e-05 2.2525540468991432e-05 0
2.6560300626696432e-05 -9.2789490020401882e-06 0
3.4297446814582662e-05 2.5491403051178794e-05 0
3.4111099204960476e-05 -1.1139412508212709e-05 0
4.4647233403606719e-05 2.8513045153331042e-05 0
4.3954444354690189e-05 -1.2128214362617265e-05 0
5.2879254327459225e-05 2.8603746838616229e-05 0
5.2831069211434269e-05 1.9963885972694421e-05 0
5.1485440043780446e-05 1.1696990158251561e-05 0
5.1161264589143584e-05 4.3528860667137171e-06 0
5.1995141698287096e-05 -3.8120280507206281e-06 0
5.1766135698477593e-05 -1.2918516507265810e-05 0

VECTORS Displacements3 float
-5.9111637062172486e-17 3.3023193201183561e-17 0
-1.5512388620844997e-22 7.0411319317282388e-23 0
2.0888879635645259e-06 1.0524145630773378e-06 0
2.0057682601893741e-06 -9.9935342885276964e-07 0
3.6550775125265759e-06 1.5347690308827019e-06 0
3.5229882063902448e-06 -1.4569818019873930e-06 0
4.7626556607319303e-06 1.6755176357174896e-06 0
4.6525119605024389e-06 -1.5767568009783901e-06 0
5.6066537666153892e-06 1.5800232158612110e-06 0
5.5411357076305460e-06 -1.4810111567720920e-06 0
7.6119370997046034e-06 1.2542634014188590e-06 0
7.3040619169830931e-06 -9.9291773517677082e-07 0
6.8165189076140099e-06 7.3361374258390008e-07 0
6.7398304044379440e-06 -6.1572218292197184e-07 0
7.2325489161479730e-06 5.4925016563150196e-07 0
7.1036384202417094e-06 -3.3403683958031245e-07 0
7.2519696318161339e-06 3.8044046343676007e-07 0
7.1214691748783491e-06 -1.3172769128900803e-07 0
7.0018957803435728e-06 3.5994125199025549e-07 0
6.9254646291641528e-06 -1.0544883186281857e-07 0
8.2490091301250619e-06 3.1295777794758751e-07 0
7.9297680933343866e-06 1.4066542427369969e-07 0
7.0071353636295080e-06 1.3182237638021399e-07 0
6.9164830848687422e-06 1.6548411132631466e-07 0
7.2553309559062706e-06 2.6140061628786829e-07 0
7.1320386960846900e-06 1.5104164126600250e-07 0
7.2929530212192825e-06 3.1047598967467066e-07 0
7.1683656615039775e-06 1.4803613278219352e-07 0
7.1215035688296617e-06 4.0490786070486229e-07 0
7.0524093661485585e-06 6.5536158713015649e-08 0
8.4397381632102102e-06 4.0771524405072309e-07 0
8.1602671124204762e-06 3.0423563376957530e-07 0
7.2077301573601580e-06 2.4263365850335963e-07 0
7.1168734675132300e-06 2.9232934599901748e-07 0
7.4606116188009999e-06 4.0064273623108990e-07 0
7.3530427071900511e-06 2.6214694755007123e-07 0
7.5117632566437174e-06 4.7290012318951063e-07 0
7.4063655685197432e-06 2.4443820412857254e-07 0
7.3555612856564908e-06 5.8060626347209186e-07 0
7.3001843256308742e-06 1.4818778279541977e-07 0
8.7010652289557836e-06 6.0291377991440339e-07 0
8.5019740227002575e-06 4.2389078559271100e-07 0
7.4824366096353906e-06 4.3558177398563333e-07 0
7.3960469805765895e-06 3.9094704521205879e-07 0
7.7567086088141127e-06 6.0577359007912474e-07 0
7.6770686159579112e-06 3.6321025271052522e-07 0
7.8308341599960747e-06 6.8997321237407366e-07 0
7.7548668566108328e-06 3.4753697592550646e-07 0
7.6974245675350420e-06 8.0898455911315609e-07 0
7.6613433803030939e-06 2.4361035128095670e-07 0
9.0791652574658748e-06 8.6041211319360193e-07 0
9.0010544037986953e-06 5.6463753710461933e-07 0
7.8793537687969279e-06 6.8524136096328761e-07 0
7.7992838094977090e-06 5.1386446175971826e-07 0
8.1771554330468094e-06 8.7745418435668197e-07 0
8.1372040229784554e-06 4.8687382585772639e-07 0
8.2816453215777341e-06 9.8366200656936414e-07 0
8.2467623735005043e-06 4.7115500297604445e-07 0
8.1817946138124206e-06 1.1230406600672946e-06 0
8.1695616819834788e-06 3.5360395778255145e-07 0
9.6100409554195192e-06 1.2274217167167750e-06 0
9.7045944902399072e-06 7.2653145608773665e-07 0
8.4557092084872724e-06 1.0622698154611801e-06 0
8.3749659256409992e-06 6.5635752528822705e-07 0
8.8101053475702283e-06 1.3205759507721238e-06 0
8.7956975232765731e-06 6.3808599582990710e-07 0
8.9818706175310718e-06 1.5197896724093567e-06 0
8.9445069735978336e-06 6.4311330386296776e-07 0
8.9612897407906262e-06 1.7886913515867524e-06 0
8.8750296794499095e-06 5.4580657869308340e-07 0
1.0512037010451480e-05 2.1222602575966383e-06 0
1.0658335972218342e-05 1.0435372504980364e-06 0
9.4219296349277570e-06 2.1192846821641426e-06 0
9.0766109580714665e-06 1.0444377751614017e-06 0
9.8317216152679330e-06 2.6901868197082113e-06 0
9.5254045023792742e-06 1.1041763008166388e-06 0
1.0066063271284821e-05 3.2345376214626631e-06 0
9.6263629815317784e-06 1.1913098375838375e-06 0
1.0033773270393425e-05 3.8740684591344986e-06 0
9.4108022848057621e-06 1.1298812195527633e-06 0
1.1430272334513954e-05 4.7630385197671743e-06 0
1.1314423152957492e-05 1.6723504002904784e-06 0
1.0061340332542198e-05 5.5201501341146297e-06 0
9.0983677019150264e-06 1.2825771755905513e-06 0
1.0393624367378359e-05 7.3927761438244215e-06 0
9.5836495352700975e-06 4.6768996233767773e-07 0
1.1090413217531377e-05 9.8329987283196196e-06 0
1.0298410128800137e-05 -9.5024401557485661e-07 0
1.2658211340842204e-05 1.2904535979797270e-05 0
1.1825873966069558e-05 -3.1201293051977355e-06 0
1.7679147086493838e-05 1.6615133067288260e-05 0
1.7860676753188315e-05 -4.7495855924296952e-06 0
2.0743622632947243e-05 1.9183200053118144e-05 0
1.9911195027065792e-05 -7.1133936827641365e-06 0
2.7272224482100889e-05 2.2759234961386238e-05 0
2.6975578908155688e-05 -9.3536973789269686e-06 0
3.4787591634379492e-05 2.5735104496290283e-05 0
3.4597205633200884e-05 -1.1217129257542310e-05 0
4.5217617980581649e-05 2.8764539831950515e-05 0
4.4508633081626261e-05 -1.2204438886753810e-05 0
5.3526156154815338e-05 2.8855605802310464e-05 0
5.3474112112018972e-05 2.0140836416366818e-05 0
5.2117085581926802e-05 1.1803521375473912e-05 0
5.1781449023552265e-05 4.3948122166540976e-06 0
5.2610382751591936e-05 -3.8278660454207456e-06 0
5.2380493623189860e-05 -1.2992873773969357e-05 0

VECTORS Forces1 float
-4.3055490471244423e-01 2.5558259866127686e-01 0
-2.6608696818941630e-01 -1.5890273565937302e-01 0
5.6157051455702938e+00 -3.1111123655204413e+00 0
3.5701547044150210e+00 1.9758330820979155e+00 0
6.1493069916753562e+00 -9.5234977315329328e-01 0
3.9239949995949499e+00 6.0627010653486080e-01 0
3.9172305801801652e+00 1.6100264012391735e-01 0
2.5016653518431489e+00 -1.0159080919244576e-01 0
-5.9050432100522487e-01 -2.1541410028980804e-02 0
-3.7776715139102857e-01 1.3738041918723666e-02 0
1.5098690404807030e+01 9.1674090371157112e-03 0
9.6787685481847170e+00 1.7357885944202837e-02 0
-6.4400008924004337e-01 -6.5882819387827495e-04 0
-4.1517620704325525e-01 -1.7989629408920514e-03 0
4.3271209782478710e+00 -1.9987648813542209e-04 0
2.7880328782955428e+00 1.6470398130816275e-02 0
4.3274763204961131e+00 -2.9320510519024833e-04 0
2.7883303563893218e+00 1.6526348309891990e-02 0
-6.4490829793130189e-01 -2.3262930191890344e-04 0
-4.1576677748907187e-01 -2.2779615904744482e-03 0
1.5341257110644966e+01 -5.0182836547665909e-04 0
9.9294058647393282e+00 9.9950534325312368e-02 0
-6.4990264728730296e-01 -6.7715647825663345e-04 0
-4.2275893865397929e-01 -5.4149134151599962e-03 0
4.3630096463663097e+00 2.9300771968740354e-03 0
2.8379293796929925e+00 3.8526611770342251e-02 0
4.3630218491648627e+00 2.9351211606419565e-03 0
2.8379714782760903e+00 3.8546273026387211e-02 0
-6.4997650201300461e-01 -7.2141887615442964e-04 0
-4.2299457055394990e-01 -5.5617000861072985e-03 0
1.5358601297975618e+01 2.5526653157472403e-02 0
1.0038859390293009e+01 1.7242610522235485e-01 0
-6.4825058423347703e-01 -2.0388521066631513e-03 0
-4.2676141120406241e-01 -8.5557864660695433e-03 0
4.3509993178074051e+00 1.2216700588626407e-02 0
2.8645520290246140e+00 5.9654742752166590e-02 0
4.3509773696436733e+00 1.2222826505919123e-02 0
2.8645870950290169e+00 5.9677180158252595e-02 0
-6.4809258492205668e-01 -2.1389581256519375e-03 0
-4.2692593682218549e-01 -8.6871211236561763e-03 0
1.5278068772349162e+01 6.7815390747592588e-02 0
1.0140019659885542e+01 2.4649964861710411e-01 0
-6.4312991902509387e-01 -4.3627755627769094e-03 0
-4.3117939308403747e-01 -1.1595584413842067e-02 0
4.3161743067939859e+00 2.7791427667772910e-02 0
2.8945434655312612e+00 8.0270752928695371e-02 0
4.3161251112275130e+00 2.7801399419120413e-02 0
2.8945833531345255e+00 8.0295843324257349e-02 0
-6.4279672235695673e-01 -4.5427312165619285e-03 0
-4.3134988983435990e-01 -1.1706845351758848e-02 0
1.5106687035566507e+01 1.4503616529873692e-01 0
1.0248237124031323e+01 3.1514979899197554e-01 0
-6.3341725594109510e-01 -8.6033841954842975e-03 0
-4.3572950676540567e-01 -1.4320273776017202e-02 0
4.2502204963781729e+00 5.6162441696885397e-02 0
2.9253744895014879e+00 9.8946109430903401e-02 0
4.2501438011806174e+00 5.6172511996200936e-02 0
2.9254229067892492e+00 9.8979410195805084e-02 0
-6.3293658663557195e-01 -8.8773246467983204e-03 0
-4.3593579485885325e-01 -1.4422479806134484e-02 0
1.4821662208085169e+01 2.5026391682658822e-01 0
1.0365736155098142e+01 3.8961255257203076e-01 0
-6.2112928235476572e-01 -1.3941644966314566e-02 0
-4.4201977045656082e-01 -1.7765506978482639e-02 0
4.1670445820192814e+00 9.1350525850130385e-02 0
2.9681459022608174e+00 1.2295797944425757e-01 0
4.1668965180509607e+00 9.1373137825528333e-02 0
2.9681921286368760e+00 1.2300063337346549e-01 0
-6.2032774012231295e-01 -1.4537699187089189e-02 0
-4.4223766681210797e-01 -1.7815442926920382e-02 0
1.4462962002394004e+01 4.9895837334152882e-01 0
1.0532630141979153e+01 4.5205180425297942e-01 0
-5.9503141979497531e-01 -2.9389338785299694e-02 0
-4.4677523295810384e-01 -1.9645404976141246e-02 0
3.9879064399836079e+00 1.9456456470432351e-01 0
2.9991747012048529e+00 1.3688131119457272e-01 0
3.9876335737757338e+00 1.9448903277929933e-01 0
2.9992103812537985e+00 1.3696684888831975e-01 0
-5.9521967203482251e-01 -3.0290145954100907e-02 0
-4.4835482433847479e-01 -1.9755223471241447e-02 0
1.3790759710243297e+01 6.6774676656624299e-01 0
1.0827084369563060e+01 6.3176612485328354e-01 0
-6.0166296537901398e-01 -3.5771948910670426e-02 0
-4.9392173563394987e-01 -2.8542577483045149e-02 0
4.0221485304455866e+00 2.2699573262093936e-01 0
3.3104741926399668e+00 1.9980254786634408e-01 0
4.0210293035195930e+00 2.2666440477912941e-01 0
3.3101546280920577e+00 1.9994340978078198e-01 0
-6.0346518296319218e-01 -4.0752104286213640e-02 0
-4.9772305771293929e-01 -2.6734106272175803e-02 0
1.4293724015831957e+01 2.0756387653492516e+00 0
1.2547980727147296e+01 2.8386283523718064e-01 0
-5.6668871172046009e-01 -1.5757449221889969e-01 0
-5.5328358667349753e-01 1.9439817094156632e-02 0
3.9102405428715818e+00 1.0467746480985529e+00 0
3.8724568250121845e+00 -4.6279841037531202e-02 0
3.0666815772571154e+00 7.0803210512987680e-01 0
3.1251306867546140e+00 -7.3572632095488241e-02 0
7.7761064126281338e+00 3.0983058993824049e+00 0
6.8784735026056065e+00 4.3269106585448402e-01 0
7.5064696515960494e-01 4.1125671968751765e-01 0
5.2556978483298504e+00 1.9150748393727597e+00 0
2.7160276497572715e+00 1.5906710958132884e+00 0
2.5685795868071906e+00 1.9537372701637350e+00 0
4.3367116198985141e+00 1.3304656602412508e+00 0
6.2544822720152959e-01 -1.7407971480845089e-01 0

VECTORS Forces2 float
4.9510725856288479e-01 -2.8276881824126765e-01 0
2.6600987278840149e-01 1.6719057318571540e-01 0
-6.2151722237268112e+00 3.4295401619360266e+00 0
-3.4149658493450392e+00 -1.8875086672348877e+00 0
-6.8050596608796683e+00 1.0511846786454910e+00 0
-3.7672803683231058e+00 -5.7616032977076048e-01 0
-4.3399590115823070e+00 -1.7694796293510426e-01 0
-2.4095938056153088e+00 9.6425408064756135e-02 0
6.5396670040480742e-01 2.2902804096028333e-02 0
3.6364659596875992e-01 -1.2871472730951775e-02 0
-1.6790005039182638e+01 -7.2250229616724155e-03 0
-9.4287576874889059e+00 2.7772321553482002e-02 0
7.1841151727372798e-01 1.3193642114556117e-04 0
4.0761584601503648e-01 -2.1830677796426325e-03 0
-4.8281368517207106e+00 2.6080033880924791e-04 0
-2.7394920396414633e+00 1.3934089109587057e-02 0
-4.8285264201659146e+00 3.7286885585455877e-04 0
-2.7397887698157022e+00 1.3926419292874428e-02 0
7.1964735996270845e-01 -3.0910795447985798e-04 0
4.0834190925345348e-01 -1.9462660912704234e-03 0
-1.7151675882629423e+01 2.6605140903149141e-03 0
-9.7692996108310428e+00 8.7622345404142543e-02 0
7.2641165217633574e-01 -5.7171200359869387e-05 0
4.1284117428910438e-01 -5.5296713452538150e-03 0
-4.8763090847183257e+00 -1.3658923438506882e-03 0
-2.7717568185231842e+00 3.9287304981164305e-02 0
-4.8763144264163802e+00 -1.3719634216937796e-03 0
-2.7717406879674047e+00 3.9318700384154685e-02 0
7.2645995973403732e-01 -7.9955465970439239e-05 0
4.1269209846716981e-01 -5.6767575454551942e-03 0
-1.7135542463746972e+01 -1.6367984799655550e-03 0
-9.6569145344187710e+00 1.8324991021445181e-01 0
7.2163143577273214e-01 -4.7914977097788798e-04 0
4.0229248573144549e-01 -9.2555830250827982e-03 0
-4.8421575596663011e+00 1.3780436923352081e-03 0
-2.6986554968899292e+00 6.4640914590620574e-02 0
-4.8421126753050530e+00 1.3730077060086355e-03 0
-2.6985697102362907e+00 6.4673627991365737e-02 0
7.2124618463388568e-01 -5.4705352922564251e-04 0
4.0153721518817220e-01 -9.3962712130212251e-03 0
-1.6947978076772262e+01 1.7550235230313259e-02 0
-9.2885364546314086e+00 2.7131548248492365e-01 0
7.1061411443086009e-01 -1.7463754177722735e-03 0
3.8173117331614809e-01 -1.2897898996325199e-02 0
-4.7669958905190182e+00 9.6652738479553555e-03 0
-2.5593623903593614e+00 8.9524487031366243e-02 0
-4.7669148132768031e+00 9.6623594399511577e-03 0
-2.5592187133659361e+00 8.9560784201635685e-02 0
7.0992823828770335e-01 -1.8894992047905142e-03 0
3.8045858174256558e-01 -1.3021907598045980e-02 0
-1.6601588768995409e+01 6.6212125349512041e-02 0
-8.6635578142117264e+00 3.5720283799406333e-01 0
6.9292831503121932e-01 -4.7422184073550163e-03 0
3.4944976476663797e-01 -1.6403643009447889e-02 0
-4.6467990838810058e+00 2.9431489931616862e-02 0
-2.3412953270453944e+00 1.1371963806714500e-01 0
-4.6466739767941325e+00 2.9422683963258946e-02 0
-2.3410831818918423e+00 1.1376658576678941e-01 0
6.9190009679874420e-01 -4.9645629876513180e-03 0
3.4752782589942016e-01 -1.6509263916580939e-02 0
-1.6096693877988212e+01 1.3664691464419570e-01 0
-7.7335205478218985e+00 4.5081337631326307e-01 0
6.6716609524394521e-01 -8.0380124092198010e-03 0
3.0221670241852649e-01 -2.0377933045284229e-02 0
-4.4718317427401777e+00 5.0414866955503713e-02 0
-2.0227862314787757e+00 1.4160644551065801e-01 0
-4.4716279041496785e+00 5.0396243555281460e-02 0
-2.0224821476869073e+00 1.4166976102645212e-01 0
6.6558000192733602e-01 -8.5061557318373716e-03 0
2.9929465514932413e-01 -2.0407474534115400e-02 0
-1.5306223276474165e+01 2.8912717905561325e-01 0
-6.3555022261968848e+00 5.3042544905722022e-01 0
6.2498291776661075e-01 -1.7898781470396870e-02 0
2.3019202020863536e-01 -2.2905606616007785e-02 0
-4.1845153219159839e+00 1.1471237678831916e-01 0
-1.5374788992215693e+00 1.6051823828098088e-01 0
-4.1842140678026736e+00 1.1455716024131858e-01 0
-1.5371876013538477e+00 1.6062393421026819e-01 0
6.2289551910976204e-01 -1.8790105055037930e-02 0
2.2630335005139879e-01 -2.2886879299714589e-02 0
-1.4174930255721440e+01 3.9522802771575849e-01 0
-4.4597207288862144e+00 6.3966534879837766e-01 0
5.7469592836763650e-01 -2.2418863317220348e-02 0
1.5321071398164865e-01 -2.8857900161101232e-02 0
-3.8432063079135559e+00 1.3143561443965440e-01 0
-1.0288244193129661e+00 2.0405816338247373e-01 0
-3.8423220731532823e+00 1.3064377182155457e-01 0
-1.0286491253946468e+00 2.0442078878699749e-01 0
5.7079625091187580e-01 -2.7467372625616073e-02 0
1.4386467200250319e-01 -2.7277254739705423e-02 0
-1.2223361975516450e+01 1.2261577873132627e+00 0
-1.9120937291313433e+00 7.5282293053103744e-01 0
4.2032841052394654e-01 -1.0818323973504722e-01 0
-8.0144591931234438e-02 -1.2212492184326341e-02 0
-2.7106702889168410e+00 6.9530501478009643e-01 0
5.4024527782352194e-01 2.0982676363635661e-01 0
-2.7083161903917499e+00 2.2347018083065054e-01 0
2.2674540537295099e-01 1.7454728736108130e-01 0
5.3022226975620856e-01 4.4971702843311032e+00 0
2.9207188795025125e+00 5.0633943620032096e-01 0
-2.1694786312074063e-01 4.5112839811555067e-01 0
8.4801693441669401e-01 4.2828977242111881e+00 0
1.2665918516611370e+00 3.4495496171579463e+00 0
9.8770413946396585e-01 3.1717349712316811e+00 0
1.6888427086195370e+00 1.2192130400406753e+00 0
3.9512047319672361e-01 -1.9843626056050939e-01 0

