# vtk DataFile Version 2.0

ASCII

DATASET UNSTRUCTURED_GRID

POINTS 106 float 

-5.0000000000000003e-02  0.0000000000000000e+00  0.0000000000000000e+00
5.0000000000000003e-02  0.0000000000000000e+00  0.0000000000000000e+00
-5.0000000000000003e-02  2.0000000000000000e-02  0.0000000000000000e+00
5.0000000000000003e-02  2.0000000000000000e-02  0.0000000000000000e+00
-5.0000000000000003e-02  4.0000000000000001e-02  0.0000000000000000e+00
5.0000000000000003e-02  4.0000000000000001e-02  0.0000000000000000e+00
-5.0000000000000003e-02  5.9999999999999998e-02  0.0000000000000000e+00
5.0000000000000003e-02  5.9999999999999998e-02  0.0000000000000000e+00
-5.0000000000000003e-02  8.0000000000000002e-02  0.0000000000000000e+00
5.0000000000000003e-02  8.0000000000000002e-02  0.0000000000000000e+00
-5.0000000000000003e-02  1.0000000000000001e-01  0.0000000000000000e+00
5.0000000000000003e-02  1.0000000000000001e-01  0.0000000000000000e+00
-5.0000000000000003e-02  1.2000000000000000e-01  0.0000000000000000e+00
5.0000000000000003e-02  1.2000000000000000e-01  0.0000000000000000e+00
-5.0000000000000003e-02  1.4000000000000001e-01  0.0000000000000000e+00
5.0000000000000003e-02  1.4000000000000001e-01  0.0000000000000000e+00
-5.0000000000000003e-02  1.6000000000000000e-01  0.0000000000000000e+00
5.0000000000000003e-02  1.6000000000000000e-01  0.0000000000000000e+00
-5.0000000000000003e-02  1.7999999999999999e-01  0.0000000000000000e+00
5.0000000000000003e-02  1.7999999999999999e-01  0.0000000000000000e+00
-5.0000000000000003e-02  2.0000000000000001e-01  0.0000000000000000e+00
5.0000000000000003e-02  2.0000000000000001e-01  0.0000000000000000e+00
-5.0000000000000003e-02  2.2000000000000000e-01  0.0000000000000000e+00
5.0000000000000003e-02  2.2000000000000000e-01  0.0000000000000000e+00
-5.0000000000000003e-02  2.3999999999999999e-01  0.0000000000000000e+00
5.0000000000000003e-02  2.3999999999999999e-01  0.0000000000000000e+00
-5.0000000000000003e-02  2.6000000000000001e-01  0.0000000000000000e+00
5.0000000000000003e-02  2.6000000000000001e-01  0.0000000000000000e+00
-5.0000000000000003e-02  2.8000000000000003e-01  0.0000000000000000e+00
5.0000000000000003e-02  2.8000000000000003e-01  0.0000000000000000e+00
-5.0000000000000003e-02  2.9999999999999999e-01  0.0000000000000000e+00
5.0000000000000003e-02  2.9999999999999999e-01  0.0000000000000000e+00
-5.0000000000000003e-02  3.2000000000000001e-01  0.0000000000000000e+00
5.0000000000000003e-02  3.2000000000000001e-01  0.0000000000000000e+00
-5.0000000000000003e-02  3.4000000000000002e-01  0.0000000000000000e+00
5.0000000000000003e-02  3.4000000000000002e-01  0.0000000000000000e+00
-5.0000000000000003e-02  3.5999999999999999e-01  0.0000000000000000e+00
5.0000000000000003e-02  3.5999999999999999e-01  0.0000000000000000e+00
-5.0000000000000003e-02  3.8000000000000000e-01  0.0000000000000000e+00
5.0000000000000003e-02  3.8000000000000000e-01  0.0000000000000000e+00
-5.0000000000000003e-02  4.0000000000000002e-01  0.0000000000000000e+00
5.0000000000000003e-02  4.0000000000000002e-01  0.0000000000000000e+00
-5.0000000000000003e-02  4.1999999999999998e-01  0.0000000000000000e+00
5.0000000000000003e-02  4.1999999999999998e-01  0.0000000000000000e+00
-5.0000000000000003e-02  4.4000000000000000e-01  0.0000000000000000e+00
5.0000000000000003e-02  4.4000000000000000e-01  0.0000000000000000e+00
-5.0000000000000003e-02  4.6000000000000002e-01  0.0000000000000000e+00
5.0000000000000003e-02  4.6000000000000002e-01  0.0000000000000000e+00
-5.0000000000000003e-02  4.7999999999999998e-01  0.0000000000000000e+00
5.0000000000000003e-02  4.7999999999999998e-01  0.0000000000000000e+00
-5.0000000000000003e-02  5.0000000000000000e-01  0.0000000000000000e+00
5.0000000000000003e-02  5.0000000000000000e-01  0.0000000000000000e+00
-5.0000000000000003e-02  5.2000000000000002e-01  0.0000000000000000e+00
5.0000000000000003e-02  5.2000000000000002e-01  0.0000000000000000e+00
-5.0000000000000003e-02  5.4000000000000004e-01  0.0000000000000000e+00
5.0000000000000003e-02  5.4000000000000004e-01  0.0000000000000000e+00
-5.0000000000000003e-02  5.6000000000000005e-01  0.0000000000000000e+00
5.0000000000000003e-02  5.6000000000000005e-01  0.0000000000000000e+00
-5.0000000000000003e-02  5.7999999999999996e-01  0.0000000000000000e+00
5.0000000000000003e-02  5.7999999999999996e-01  0.0000000000000000e+00
-5.0000000000000003e-02  5.9999999999999998e-01  0.0000000000000000e+00
5.0000000000000003e-02  5.9999999999999998e-01  0.0000000000000000e+00
-5.0000000000000003e-02  6.2000000000000000e-01  0.0000000000000000e+00
5.0000000000000003e-02  6.2000000000000000e-01  0.0000000000000000e+00
-5.0000000000000003e-02  6.4000000000000001e-01  0.0000000000000000e+00
5.0000000000000003e-02  6.4000000000000001e-01  0.0000000000000000e+00
-5.0000000000000003e-02  6.6000000000000003e-01  0.0000000000000000e+00
5.0000000000000003e-02  6.6000000000000003e-01  0.0000000000000000e+00
-5.0000000000000003e-02  6.8000000000000005e-01  0.0000000000000000e+00
5.0000000000000003e-02  6.8000000000000005e-01  0.0000000000000000e+00
-5.0000000000000003e-02  6.9999999999999996e-01  0.0000000000000000e+00
5.0000000000000003e-02  6.9999999999999996e-01  0.0000000000000000e+00
-5.0000000000000003e-02  7.1999999999999997e-01  0.0000000000000000e+00
5.0000000000000003e-02  7.1999999999999997e-01  0.0000000000000000e+00
-5.0000000000000003e-02  7.3999999999999999e-01  0.0000000000000000e+00
5.0000000000000003e-02  7.3999999999999999e-01  0.0000000000000000e+00
-5.0000000000000003e-02  7.6000000000000001e-01  0.0000000000000000e+00
5.0000000000000003e-02  7.6000000000000001e-01  0.0000000000000000e+00
-5.0000000000000003e-02  7.8000000000000003e-01  0.0000000000000000e+00
5.0000000000000003e-02  7.8000000000000003e-01  0.0000000000000000e+00
-5.0000000000000003e-02  8.0000000000000004e-01  0.0000000000000000e+00
5.0000000000000003e-02  8.0000000000000004e-01  0.0000000000000000e+00
-5.0000000000000003e-02  8.1999999999999995e-01  0.0000000000000000e+00
5.0000000000000003e-02  8.1999999999999995e-01  0.0000000000000000e+00
-5.0000000000000003e-02  8.3999999999999997e-01  0.0000000000000000e+00
5.0000000000000003e-02  8.3999999999999997e-01  0.0000000000000000e+00
-5.0000000000000003e-02  8.5999999999999999e-01  0.0000000000000000e+00
5.0000000000000003e-02  8.5999999999999999e-01  0.0000000000000000e+00
-5.0000000000000003e-02  8.8000000000000000e-01  0.0000000000000000e+00
5.0000000000000003e-02  8.8000000000000000e-01  0.0000000000000000e+00
-5.0000000000000003e-02  9.0000000000000002e-01  0.0000000000000000e+00
5.0000000000000003e-02  9.0000000000000002e-01  0.0000000000000000e+00
-5.0000000000000003e-02  9.2000000000000004e-01  0.0000000000000000e+00
5.0000000000000003e-02  9.2000000000000004e-01  0.0000000000000000e+00
-5.0000000000000003e-02  9.3999999999999995e-01  0.0000000000000000e+00
5.0000000000000003e-02  9.3999999999999995e-01  0.0000000000000000e+00
-5.0000000000000003e-02  9.5999999999999996e-01  0.0000000000000000e+00
5.0000000000000003e-02  9.5999999999999996e-01  0.0000000000000000e+00
-5.0000000000000003e-02  9.7999999999999998e-01  0.0000000000000000e+00
5.0000000000000003e-02  9.7999999999999998e-01  0.0000000000000000e+00
-5.0000000000000003e-02  1.0000000000000000e+00  0.0000000000000000e+00
-3.0000000000000002e-02  1.0000000000000000e+00  0.0000000000000000e+00
-1.0000000000000002e-02  1.0000000000000000e+00  0.0000000000000000e+00
1.0000000000000009e-02  1.0000000000000000e+00  0.0000000000000000e+00
2.9999999999999999e-02  1.0000000000000000e+00  0.0000000000000000e+00
5.0000000000000003e-02  1.0000000000000000e+00  0.0000000000000000e+00

CELLS 0 0


CELL_TYPES 0


POINT_DATA 106

VECTORS VertexNormals float

0.0000000000000000e+00 0.0000000000000000e+00 0
0.0000000000000000e+00 0.0000000000000000e+00 0
0.0000000000000000e+00 0.0000000000000000e+00 0
0.0000000000000000e+00 0.0000000000000000e+00 0
0.0000000000000000e+00 0.0000000000000000e+00 0
0.0000000000000000e+00 0.0000000000000000e+00 0
0.0000000000000000e+00 0.0000000000000000e+00 0
0.0000000000000000e+00 0.0000000000000000e+00 0
0.0000000000000000e+00 0.0000000000000000e+00 0
0.0000000000000000e+00 0.0000000000000000e+00 0
0.0000000000000000e+00 0.0000000000000000e+00 0
0.0000000000000000e+00 0.0000000000000000e+00 0
0.0000000000000000e+00 0.0000000000000000e+00 0
0.0000000000000000e+00 0.0000000000000000e+00 0
0.0000000000000000e+00 0.0000000000000000e+00 0
0.0000000000000000e+00 0.0000000000000000e+00 0
0.0000000000000000e+00 0.0000000000000000e+00 0
0.0000000000000000e+00 0.0000000000000000e+00 0
0.0000000000000000e+00 0.0000000000000000e+00 0
0.0000000000000000e+00 0.0000000000000000e+00 0
0.0000000000000000e+00 0.0000000000000000e+00 0
0.0000000000000000e+00 0.0000000000000000e+00 0
0.0000000000000000e+00 0.0000000000000000e+00 0
0.0000000000000000e+00 0.0000000000000000e+00 0
0.0000000000000000e+00 0.0000000000000000e+00 0
0.0000000000000000e+00 0.0000000000000000e+00 0
0.0000000000000000e+00 0.0000000000000000e+00 0
0.0000000000000000e+00 0.0000000000000000e+00 0
0.0000000000000000e+00 0.0000000000000000e+00 0
0.0000000000000000e+00 0.0000000000000000e+00 0
0.0000000000000000e+00 0.0000000000000000e+00 0
0.0000000000000000e+00 0.0000000000000000e+00 0
0.0000000000000000e+00 0.0000000000000000e+00 0
0.0000000000000000e+00 0.0000000000000000e+00 0
0.0000000000000000e+00 0.0000000000000000e+00 0
0.0000000000000000e+00 0.0000000000000000e+00 0
0.0000000000000000e+00 0.0000000000000000e+00 0
0.0000000000000000e+00 0.0000000000000000e+00 0
0.0000000000000000e+00 0.0000000000000000e+00 0
0.0000000000000000e+00 0.0000000000000000e+00 0
0.0000000000000000e+00 0.0000000000000000e+00 0
0.0000000000000000e+00 0.0000000000000000e+00 0
0.0000000000000000e+00 0.0000000000000000e+00 0
0.0000000000000000e+00 0.0000000000000000e+00 0
0.0000000000000000e+00 0.0000000000000000e+00 0
0.0000000000000000e+00 0.0000000000000000e+00 0
0.0000000000000000e+00 0.0000000000000000e+00 0
0.0000000000000000e+00 0.0000000000000000e+00 0
0.0000000000000000e+00 0.0000000000000000e+00 0
0.0000000000000000e+00 0.0000000000000000e+00 0
0.0000000000000000e+00 0.0000000000000000e+00 0
0.0000000000000000e+00 0.0000000000000000e+00 0
0.0000000000000000e+00 0.0000000000000000e+00 0
0.0000000000000000e+00 0.0000000000000000e+00 0
0.0000000000000000e+00 0.0000000000000000e+00 0
0.0000000000000000e+00 0.0000000000000000e+00 0
0.0000000000000000e+00 0.0000000000000000e+00 0
0.0000000000000000e+00 0.0000000000000000e+00 0
0.0000000000000000e+00 0.0000000000000000e+00 0
0.0000000000000000e+00 0.0000000000000000e+00 0
0.0000000000000000e+00 0.0000000000000000e+00 0
0.0000000000000000e+00 0.0000000000000000e+00 0
0.0000000000000000e+00 0.0000000000000000e+00 0
0.0000000000000000e+00 0.0000000000000000e+00 0
0.0000000000000000e+00 0.0000000000000000e+00 0
0.0000000000000000e+00 0.0000000000000000e+00 0
0.0000000000000000e+00 0.0000000000000000e+00 0
0.0000000000000000e+00 0.0000000000000000e+00 0
0.0000000000000000e+00 0.0000000000000000e+00 0
0.0000000000000000e+00 0.0000000000000000e+00 0
0.0000000000000000e+00 0.0000000000000000e+00 0
0.0000000000000000e+00 0.0000000000000000e+00 0
0.0000000000000000e+00 0.0000000000000000e+00 0
0.0000000000000000e+00 0.0000000000000000e+00 0
0.0000000000000000e+00 0.0000000000000000e+00 0
0.0000000000000000e+00 0.0000000000000000e+00 0
0.0000000000000000e+00 0.0000000000000000e+00 0
0.0000000000000000e+00 0.0000000000000000e+00 0
0.0000000000000000e+00 0.0000000000000000e+00 0
0.0000000000000000e+00 0.0000000000000000e+00 0
0.0000000000000000e+00 0.0000000000000000e+00 0
0.0000000000000000e+00 0.0000000000000000e+00 0
0.0000000000000000e+00 0.0000000000000000e+00 0
0.0000000000000000e+00 0.0000000000000000e+00 0
0.0000000000000000e+00 0.0000000000000000e+00 0
0.0000000000000000e+00 0.0000000000000000e+00 0
0.0000000000000000e+00 0.0000000000000000e+00 0
0.0000000000000000e+00 0.0000000000000000e+00 0
0.0000000000000000e+00 0.0000000000000000e+00 0
0.0000000000000000e+00 0.0000000000000000e+00 0
0.0000000000000000e+00 0.0000000000000000e+00 0
0.0000000000000000e+00 0.0000000000000000e+00 0
0.0000000000000000e+00 0.0000000000000000e+00 0
0.0000000000000000e+00 0.0000000000000000e+00 0
0.0000000000000000e+00 0.0000000000000000e+00 0
0.0000000000000000e+00 0.0000000000000000e+00 0
0.0000000000000000e+00 0.0000000000000000e+00 0
0.0000000000000000e+00 0.0000000000000000e+00 0
0.0000000000000000e+00 0.0000000000000000e+00 0
0.0000000000000000e+00 0.0000000000000000e+00 0
0.0000000000000000e+00 0.0000000000000000e+00 0
0.0000000000000000e+00 0.0000000000000000e+00 0
0.0000000000000000e+00 0.0000000000000000e+00 0
0.0000000000000000e+00 0.0000000000000000e+00 0
0.0000000000000000e+00 0.0000000000000000e+00 0
0.0000000000000000e+00 0.0000000000000000e+00 0

VECTORS Displacements1 float
-1.8121212966288211e-19 1.0129307067191381e-19 0
-1.5854668102768123e-26 -9.6009269033872316e-27 0
1.8403110261034986e-10 -9.0045877105517802e-11 0
2.8695637924004944e-10 1.6781119284370378e-10 0
2.0928161909882648e-10 -2.1008464035114663e-11 0
3.1805816920645085e-10 7.4223494310737006e-11 0
1.3465476555693918e-10 1.1760852668002823e-11 0
2.0034094374759959e-10 1.1039974742426268e-11 0
1.2334206510263663e-11 6.0039252882103284e-12 0
1.6738085327873617e-11 1.0067806789246278e-11 0
4.6962973944501551e-10 1.9858318075727088e-11 0
7.0751705522035571e-10 4.8953511824989631e-11 0
1.1658044239100957e-11 4.8833583379998107e-12 0
1.5198593193589049e-11 1.3293155306180286e-11 0
1.3906275786897240e-10 6.3416634171961945e-12 0
2.1287894611765211e-10 1.7705410762713945e-11 0
1.3904768437394435e-10 5.7011833352841847e-12 0
2.1291862722035842e-10 1.9213618456533409e-11 0
1.1144350343319523e-11 6.4308008769562080e-12 0
1.6093348065496484e-11 9.3914101224678111e-12 0
4.5977464503844856e-10 1.1723108790269453e-11 0
7.2356382460880593e-10 5.9844583814728610e-11 0
1.1336624453908514e-11 4.8669020384334480e-12 0
1.5387028917749760e-11 1.3436237361284626e-11 0
1.3616083759278062e-10 3.7668920744606721e-12 0
2.2069042865229980e-10 2.1401316979214356e-11 0
1.3611948083499628e-10 3.1495138702216512e-12 0
2.2073631358193422e-10 2.2967170719003070e-11 0
1.0891825001427031e-11 6.3248044351271763e-12 0
1.7347892523402114e-11 9.6996902850790496e-12 0
4.5016374114457606e-10 4.0087680978945343e-12 0
7.6020366721478882e-10 7.2635228678117553e-11 0
1.1069795071745528e-11 4.7448577752193466e-12 0
1.6033839507389132e-11 1.4022141277834085e-11 0
1.3312182570883225e-10 1.8661092318912441e-12 0
2.3482882724170810e-10 2.5206897030363566e-11 0
1.3306767883925189e-10 1.2773975692519272e-12 0
2.3489847978850743e-10 2.6874558978894643e-11 0
1.0613367163136746e-11 6.1431656227969041e-12 0
1.9072008924180546e-11 1.0280702854540639e-11 0
4.3887603085623816e-10 -9.0882719564636171e-13 0
8.1865199633422408e-10 8.5194003091633604e-11 0
1.0839305353602617e-11 4.5405337146991222e-12 0
1.7101243316495405e-11 1.5029530399514047e-11 0
1.2948157419953912e-10 8.3145454517532292e-13 0
2.5596225375792889e-10 2.8968774131659916e-11 0
1.2941946840409089e-10 2.8131680901674732e-13 0
2.5606528315362654e-10 3.0784404139680153e-11 0
1.0341168495479628e-11 5.8846269636842044e-12 0
2.1373385807897955e-11 1.1166212942640905e-11 0
4.2522922453456072e-10 -1.2000348276510998e-12 0
9.0276579262736782e-10 9.6132016279294583e-11 0
1.0713131158745352e-11 4.1813341077904620e-12 0
1.8663750815896008e-11 1.6577730971325633e-11 0
1.2452717462680965e-10 1.4594476343982190e-12 0
2.8512650210427091e-10 3.2035436185336313e-11 0
1.2446438223262548e-10 9.5786197291909595e-13 0
2.8528229050861996e-10 3.4056947139181247e-11 0
9.9925060090401147e-12 5.3385242544459235e-12 0
2.4417803160039735e-11 1.2556024668515059e-11 0
4.0636417798104743e-10 6.2131833328128908e-13 0
1.0175864567706459e-09 1.0809107270578588e-10 0
1.0329860855196317e-11 3.7988937528803499e-12 0
2.0586626313675180e-11 1.8627225352559950e-11 0
1.2032011621508016e-10 2.0980516118099214e-12 0
3.2696960055480414e-10 3.6394477522867440e-11 0
1.2027924092903891e-10 1.6629712292201717e-12 0
3.2720515931935495e-10 3.8705533246618899e-11 0
1.0164765633493023e-11 5.2174416282490804e-12 0
2.8791381350835985e-11 1.4269624254907594e-11 0
3.9623322040342825e-10 1.8627076919936792e-11 0
1.1863998627212732e-09 1.1120982427177660e-10 0
1.0922810759721836e-11 2.8100718471004135e-12 0
2.3647027481231256e-11 2.2152134865355263e-11 0
1.1355811975835257e-10 1.0789390593381466e-11 0
3.8323819909492085e-10 3.5142183790657636e-11 0
1.1356033089652933e-10 1.0398229445860113e-11 0
3.8362172901814614e-10 3.7873731337918993e-11 0
1.0118921912676130e-11 3.4145520369221580e-12 0
3.5112569037081885e-11 1.8023064152868358e-11 0
3.7929082077115936e-10 1.6893855600314857e-11 0
1.4220071816541052e-09 1.3835031690061874e-10 0
7.8973754348922362e-12 2.8696030828112430e-12 0
2.5158519915337630e-11 2.5977992846246397e-11 0
1.3812914461405679e-10 8.0877565205039061e-12 0
4.9268493217396283e-10 4.9888366278811367e-11 0
1.3845242724103429e-10 7.7208573145750653e-12 0
4.9331094868007815e-10 5.3377916094349222e-11 0
1.8594058791343019e-11 9.5550105554786458e-12 0
4.9217602138264168e-11 2.1091032222203586e-11 0
5.7335769143003845e-10 1.8811385067944858e-10 0
1.9636323546381643e-09 5.5873937805761593e-11 0
1.8234856803045728e-11 -5.0724076258134413e-12 0
3.0190254854679934e-11 4.4800763201022490e-11 0
2.2487659226450000e-10 1.2469243009542361e-10 0
7.2993341823719531e-10 -1.4027797130362807e-11 0
2.0274526566833846e-10 9.4294566421110804e-11 0
6.5173862888823613e-10 8.2931227532081320e-12 0
1.0886919122885605e-09 7.0825015800121338e-10 0
1.4999386164871103e-09 4.3456575603528783e-12 0
4.0908538286957203e-10 4.0319765750430679e-10 0
8.4375644883892410e-10 6.2171838797061893e-10 0
5.7865033348089325e-10 5.2520033609753152e-10 0
5.3360110281051243e-10 5.2884957630554491e-10 0
9.6236344483516536e-10 2.5384599963197140e-10 0
4.1995682214415820e-10 -4.6004910387331884e-11 0

VECTORS Displacements2 float
-2.8401101782030045e-19 1.5874150908760050e-19 0
-3.2154635121458934e-26 -1.9901516529933066e-26 0
4.2908819934086072e-10 -2.0238644315965331e-10 0
5.7738167616321627e-10 3.4348237587541865e-10 0
4.8909731853376255e-10 -3.7726892307307095e-11 0
6.3390755223568399e-10 1.5643669640833012e-10 0
3.1624799911746002e-10 3.4245299099978443e-11 0
3.9818200771650446e-10 2.8983015131032390e-11 0
2.5924477855582330e-11 1.9381375118084903e-11 0
2.8359927017913626e-11 2.2313547655042227e-11 0
1.1084057841510185e-09 6.5224976196064849e-11 0
1.4117512190710702e-09 1.1757514762597781e-10 0
2.4170327393146428e-11 1.4496635272096755e-11 0
2.5175743467570235e-11 3.1871187033019676e-11 0
3.2811670580907653e-10 2.2036895147799213e-11 0
4.2374599895355617e-10 4.1777867841091916e-11 0
3.2810293090103110e-10 1.9706356833667708e-11 0
4.2380080518807145e-10 4.6072420706321089e-11 0
2.3218879974980208e-11 2.0618200201757549e-11 0
2.7027710323423405e-11 2.0682929299719186e-11 0
1.0896038496401363e-09 4.7783966829704642e-11 0
1.4444572556680597e-09 1.4151467516693115e-10 0
2.3515404774074134e-11 1.4657009983391568e-11 0
2.5476850475784058e-11 3.2016315449833640e-11 0
3.2285022570835363e-10 1.6592103522563633e-11 0
4.3979969138282734e-10 4.9898125543334258e-11 0
3.2277109629098283e-10 1.4323334050808368e-11 0
4.3984837788811407e-10 5.4363929401935325e-11 0
2.2840298334735433e-11 2.0591340880458083e-11 0
2.9484592763953705e-11 2.1160054070514436e-11 0
1.0731533678394529e-09 3.1475766669288877e-11 0
1.5200331373204701e-09 1.7006957028694041e-10 0
2.3027341967683124e-11 1.4603423025957230e-11 0
2.6584340033754799e-11 3.3249887612520879e-11 0
3.1789475567864628e-10 1.2650997723986480e-11 0
4.6895505928599353e-10 5.8426185982020500e-11 0
3.1778707507127561e-10 1.0450311430253892e-11 0
4.6903601334044180e-10 6.3192601029569457e-11 0
2.2481140382483729e-11 2.0369564825748698e-11 0
3.2745267563528416e-11 2.2316337152039211e-11 0
1.0552650992538592e-09 2.1348484960421431e-11 0
1.6407994450554983e-09 1.9866759016615480e-10 0
2.2702441300706635e-11 1.4333508773846888e-11 0
2.8400443646095726e-11 3.5576343724109550e-11 0
3.1234992760621185e-10 1.0614645442278444e-11 0
5.1255880222600441e-10 6.7051670281147496e-11 0
3.1223195357908076e-10 8.5022686723516568e-12 0
5.1269460248776134e-10 7.2257300531868923e-11 0
2.2234591784244822e-11 1.9914423020702576e-11 0
3.6992752011765008e-11 2.4261768717751233e-11 0
1.0348987511260811e-09 2.1383032076115325e-11 0
1.8146690656670097e-09 2.2443161961009138e-10 0
2.2718494616628163e-11 1.3641295384722382e-11 0
3.1044936661495492e-11 3.9321610180554443e-11 0
3.0484433268267779e-10 1.2183690210757272e-11 0
5.7268484240337480e-10 7.4418361037662842e-11 0
3.0474438295810804e-10 1.0185145012502272e-11 0
5.7292613401437858e-10 8.0230687451855558e-11 0
2.1954176888195305e-11 1.8787725481514086e-11 0
4.2560288992018093e-11 2.7404393688743865e-11 0
1.0063827363962530e-09 2.6133716792327542e-11 0
2.0520503701278631e-09 2.5316685802926260e-10 0
2.2287426694724383e-11 1.2903354736462776e-11 0
3.4187545209251871e-11 4.4352305652968091e-11 0
2.9997743633258376e-10 1.3924551377275086e-11 0
6.5917695102810315e-10 8.4897514873242719e-11 0
2.9995194622699677e-10 1.2067793124800452e-11 0
6.5957266405104094e-10 9.1579184304306567e-11 0
2.2900537005441795e-11 1.8463067776085643e-11 0
5.0429868183479351e-11 3.1606459604289849e-11 0
1.0012037652018076e-09 6.6582633172174458e-11 0
2.4018224829133468e-09 2.6441251553210891e-10 0
2.4144811766719886e-11 1.0494406785448368e-11 0
3.9282471920404453e-11 5.3292153533605334e-11 0
2.9127642752121171e-10 3.3031413545200548e-11 0
7.7518383810170254e-10 8.3866598810730360e-11 0
2.9141986763721468e-10 3.1292745560828071e-11 0
7.7594505119131345e-10 9.1761476569333411e-11 0
2.3556981718067020e-11 1.4790332873235931e-11 0
6.2122724422481758e-11 4.0091510049170918e-11 0
9.8647490346899585e-10 6.4731106810450934e-11 0
2.8909421070676543e-09 3.2890663141652843e-10 0
1.7964410437908174e-11 1.1227295890946886e-11 0
4.0492453304887692e-11 6.2683795138610898e-11 0
3.5168645157856683e-10 2.9133160174058714e-11 0
1.0039710379355438e-09 1.1845985714224046e-10 0
3.5257618940626844e-10 2.7279657891582679e-11 0
1.0051678533533678e-09 1.2875403112149789e-10 0
4.1933299753686031e-11 2.7697351999611185e-11 0
8.7224359787745345e-11 5.0202516189910668e-11 0
1.4429281110899630e-09 4.4493398712613040e-10 0
4.0247983490497762e-09 1.6757362155470074e-10 0
3.9805310096601082e-11 -9.4428545645048270e-12 0
4.6515024897848482e-11 1.1079348531437247e-10 0
5.5506970112841625e-10 2.8312379198298414e-10 0
1.4990486112668645e-09 -1.1042611513384228e-11 0
4.9140042371343162e-10 2.0804824846831295e-10 0
1.3238143475238112e-09 4.4434577849927150e-11 0
2.4208616060328440e-09 1.4913787581133827e-09 0
3.1325123672927967e-09 1.4669136339683413e-11 0
9.0584019370946826e-10 8.7430583610907633e-10 0
1.8464442284647179e-09 1.2754847854625358e-09 0
1.2176535635835639e-09 1.0533577175819804e-09 0
1.1318373194360673e-09 1.0691528906768863e-09 0
2.0086340659262431e-09 5.0921937873418025e-10 0
8.4876005548771335e-10 -9.3487734406290970e-11 0

VECTORS Displacements3 float
-4.1011262024139095e-19 2.2920665697254659e-19 0
-5.7860972167093979e-26 -3.6415247763745237e-26 0
8.1603162964317853e-10 -3.7077549338230948e-10 0
1.0299128585074090e-09 6.2035787002306711e-10 0
9.3241566324798327e-10 -5.0783100157145263e-11 0
1.1205356966227595e-09 2.8837246420993909e-10 0
6.0563157431245729e-10 7.7778966674315825e-11 0
7.0214849956190502e-10 6.1230917269219641e-11 0
4.1515959943678193e-11 4.7001576142209580e-11 0
3.9043031535378292e-11 4.0753811221943626e-11 0
2.1347494713099135e-09 1.5982034176063236e-10 0
2.5032975359152688e-09 2.3615339964534151e-10 0
3.7894680864124048e-11 3.2125044832926143e-11 0
3.3129425314741981e-11 6.3649381444894911e-11 0
6.3063496899523646e-10 5.5602232130674907e-11 0
7.4892660253762269e-10 8.2250083167144085e-11 0
6.3060857986585968e-10 4.8999946697652969e-11 0
7.4894943637123658e-10 9.2577802059185305e-11 0
3.6369823041017625e-11 4.9730550783347478e-11 0
3.6461691826611192e-11 3.7333477935641264e-11 0
2.1022723842959392e-09 1.2794838635311885e-10 0
2.5621038249352513e-09 2.8118623013528859e-10 0
3.6755987801386330e-11 3.2781072438807464e-11 0
3.3433910595832829e-11 6.3595372944314618e-11 0
6.2182510106544740e-10 4.5779693532641384e-11 0
7.7787135992187257e-10 9.7486775210316910e-11 0
6.2165184144741475e-10 3.9317137376157884e-11 0
7.7783139424508592e-10 1.0823284374617276e-10 0
3.5881082968544371e-11 5.0048782708595527e-11 0
4.0521191376407557e-11 3.7787430368744014e-11 0
2.0757675316030857e-09 9.8552244262094272e-11 0
2.6986976048259349e-09 3.3560526576474243e-10 0
3.5953338527093048e-11 3.3056447230844180e-11 0
3.4854351448673271e-11 6.5764839645680988e-11 0
6.1414657310876313e-10 3.8830402997666223e-11 0
8.3046436075467423e-10 1.1374499160304144e-10 0
6.1390987417474772e-10 3.2507213324552843e-11 0
8.3043418659831956e-10 1.2522968738312780e-10 0
3.5495935095774738e-11 4.9953699716852234e-11 0
4.5651216162518407e-11 3.9600534810857052e-11 0
2.0486360186065871e-09 8.0864034756387919e-11 0
2.9170480133508334e-09 3.9101899708720533e-10 0
3.5549135012366958e-11 3.2859798406197809e-11 0
3.7183087280504416e-11 7.0251834390740103e-11 0
6.0604113333458330e-10 3.5475868694618918e-11 0
9.0909416406143440e-10 1.3048726068931367e-10 0
6.0579137647568727e-10 2.9325933084165920e-11 0
9.0911932402266951e-10 1.4305703136615951e-10 0
3.5415697531808507e-11 4.9312625395759354e-11 0
5.2099190527004973e-11 4.3038597722623153e-11 0
2.0193998857830084e-09 8.2310524332338529e-11 0
3.2313518730234786e-09 4.4231989108479764e-10 0
3.5921997042257898e-11 3.1722946376483594e-11 0
4.0563643840096944e-11 7.7774266566299868e-11 0
5.9514770671213449e-10 3.8831767651076053e-11 0
1.0174190125946585e-09 1.4529257173621170e-10 0
5.9496495046383492e-10 3.2910869763989071e-11 0
1.0176110731587691e-09 1.5935559043335422e-10 0
3.5426815482806244e-11 4.7346850084858327e-11 0
6.0435593858512168e-11 4.8802839170487436e-11 0
1.9779520165513241e-09 9.2809379022521140e-11 0
3.6604863879346238e-09 5.0041758284674848e-10 0
3.5594070959935443e-11 3.0511049942871635e-11 0
4.4287872992663596e-11 8.7987979716871517e-11 0
5.9004783782446343e-10 4.2787600763053357e-11 0
1.1734595035786284e-09 1.6636164292596429e-10 0
5.9004586207490513e-10 3.7118284703568973e-11 0
1.1738842116246588e-09 1.8258956873992572e-10 0
3.7684048883799597e-11 4.6657242279344045e-11 0
7.1905287723033352e-11 5.7015212125145831e-11 0
1.9840435706473409e-09 1.7072143132156896e-10 0
4.2931882581317516e-09 5.2893008804581407e-10 0
3.9683392092896337e-11 2.5521145266369901e-11 0
5.0602999407538489e-11 1.0664268259701444e-10 0
5.7952329552027756e-10 7.8854725963653353e-11 0
1.3823083361983236e-09 1.6716890465316576e-10 0
5.7998826722419375e-10 7.3448558520775294e-11 0
1.3834831110202078e-09 1.8634320745726159e-10 0
3.9628777723144111e-11 4.0282670341069151e-11 0
8.9662405450627088e-11 7.2765547786122720e-11 0
1.9764206291311194e-09 1.7107549818262154e-10 0
5.1796337500631244e-09 6.5823489956818124e-10 0
2.8312975710248050e-11 2.7884785789658754e-11 0
4.8418891760441586e-11 1.2563153640068339e-10 0
6.9755756338031235e-10 7.5196953726636914e-11 0
1.7975167412286281e-09 2.3547578272019013e-10 0
6.9943880212906554e-10 6.9124141887423164e-11 0
1.7992118009036834e-09 2.6080541029170641e-10 0
7.1567300666498229e-11 6.3414008381613072e-11 0
1.2522050836298801e-10 9.6088690144229261e-11 0
2.8582611937506509e-09 8.9335872311991350e-10 0
7.2386480418618669e-09 3.8895391018621860e-10 0
6.6459783044999394e-11 -1.7114816276732370e-11 0
4.8809139761468084e-11 2.2689980741816261e-10 0
1.0886968428809658e-09 5.5037237718001844e-10 0
2.6928990547016704e-09 1.1269655188798727e-11 0
9.3871583592814710e-10 3.9449181734660425e-10 0
2.3498462818232447e-09 1.2297670413139615e-10 0
4.5193080373329494e-09 2.7325215743184115e-09 0
5.6687487490450311e-09 6.8798621188021937e-11 0
1.6514104740769543e-09 1.6236808686934720e-09 0
3.4070956180631519e-09 2.2933361633898909e-09 0
2.1924692922806696e-09 1.8835055285507051e-09 0
2.0558664577398466e-09 1.9283048253305719e-09 0
3.6285142889635177e-09 9.2281441120011545e-10 0
1.4888426693899598e-09 -1.6061445138096164e-10 0

VECTORS Forces1 float
-8.9930040627452445e-04 5.9092427557250302e-04 0
-1.0475129229788533e-03 -5.9100856979947937e-04 0
1.3412503154872227e-02 -7.4942043695640139e-03 0
1.4492061802889786e-02 8.0539597471694542e-03 0
1.4684843381303313e-02 -2.2959873546889412e-03 0
1.5847308464147943e-02 2.4945505746678132e-03 0
9.3194334936491027e-03 3.8748597939159692e-04 0
1.0065547688210564e-02 -4.0392224922378758e-04 0
-1.4052121707507173e-03 -5.5198207043300035e-05 0
-1.5217893070820676e-03 5.5628498457146195e-05 0
3.5367821127115853e-02 -1.1857526057702114e-04 0
3.8471846473524300e-02 2.7793498431682789e-04 0
-1.4856995935764112e-03 8.3587963450996688e-06 0
-1.6402216728373092e-03 -1.9675461727728724e-05 0
9.9804016542977946e-03 -8.9604850641608548e-05 0
1.0998893551716508e-02 1.6515263492350934e-04 0
9.9811708860340180e-03 -8.9876669915961820e-05 0
1.1000074957296675e-02 1.6555425824926292e-04 0
-1.4855838178185047e-03 1.0344882437770372e-05 0
-1.6425480743758227e-03 -2.2026890003843537e-05 0
3.4951133256236826e-02 -5.3716185061951794e-04 0
3.9301796339780357e-02 9.3106085377416600e-04 0
-1.4703132151462175e-03 2.8477006908707729e-05 0
-1.6987621497200449e-03 -5.0902227676973860e-05 0
9.8766847497489818e-03 -2.1671680891479703e-04 0
1.1396890807730455e-02 3.6854458643607608e-04 0
9.8766181629705019e-03 -2.1684882165310982e-04 0
1.1397464183776362e-02 3.6877033425306434e-04 0
-1.4695913831364385e-03 2.9077760951511865e-05 0
-1.7024944405572156e-03 -5.2078227184717231e-05 0
3.4636392809340180e-02 -9.2023124159309945e-04 0
4.1318390068122310e-02 1.6299956457480234e-03 0
-1.4569804093007416e-03 4.0628899401325719e-05 0
-1.8087274116331583e-03 -7.8327747358277448e-05 0
9.7907813123772336e-03 -2.9849193544813628e-04 0
1.2144260860273749e-02 5.5420851391210313e-04 0
9.7906905609228666e-03 -2.9862751703634905e-04 0
1.2145123028973975e-02 5.5445480253963220e-04 0
-1.4563888797111634e-03 4.0714516299996019e-05 0
-1.8151009126859004e-03 -7.9215948599279171e-05 0
3.4314169755105199e-02 -1.1107892516393687e-03 0
4.4595652760717600e-02 2.2393525812747974e-03 0
-1.4427405700131500e-03 4.3600467910451415e-05 0
-1.9760654372840999e-03 -1.0116152732380417e-04 0
9.6986013779917328e-03 -3.2048056843792119e-04 0
1.3275800731443322e-02 7.1073171678210701e-04 0
9.6984748617336813e-03 -3.2060099193926953e-04 0
1.3276994928051818e-02 7.1098978059718236e-04 0
-1.4420052235533953e-03 4.2895824259283645e-05 0
-1.9853845549723088e-03 -1.0153320642647724e-04 0
3.3957073671952553e-02 -9.8577785189865466e-04 0
4.9356572113583692e-02 2.6638941333449011e-03 0
-1.4217095527357981e-03 2.9264797282125570e-05 0
-2.2093156474753675e-03 -1.1317295483085434e-04 0
9.5611566824564051e-03 -2.2814691093290618e-04 0
1.4848953349499087e-02 7.9661823689040976e-04 0
9.5610467362096628e-03 -2.2833788406379519e-04 0
1.4850569547385648e-02 7.9697045464165064e-04 0
-1.4211641701918818e-03 2.7767588231070776e-05 0
-2.2228020251573734e-03 -1.1306475331145537e-04 0
3.3423773081264464e-02 -6.8683126272986558e-04 0
5.5876987576561704e-02 3.0509754215201569e-03 0
-1.4143442919609564e-03 1.2887656712756949e-05 0
-2.5460640644468183e-03 -1.2868870475710796e-04 0
9.5207623012468056e-03 -1.3057847928780189e-04 0
1.7117930493356262e-02 9.1371433470877745e-04 0
9.5205979355375905e-03 -1.3082055582320498e-04 0
1.7119928622331339e-02 9.1413981736531130e-04 0
-1.4138480826299154e-03 8.6514371538411015e-06 0
-2.5656675931055623e-03 -1.2667668899507249e-04 0
3.3589950745233098e-02 6.4736138237720623e-04 0
6.5575100985523327e-02 2.7342428995249381e-03 0
-1.3896313705410257e-03 -8.3059698033603716e-05 0
-3.0068767224800540e-03 -8.7181288006900085e-05 0
9.3565610734740005e-03 4.9574087003405548e-04 0
2.0202184811842980e-02 6.5200446856834892e-04 0
9.3561900597192924e-03 4.9413107956485121e-04 0
2.0203798953773264e-02 6.5326228827013492e-04 0
-1.3993079345194360e-03 -9.0222423856266143e-05 0
-3.0462800192053176e-03 -8.4399772064990122e-05 0
3.3677836498541287e-02 7.9471809646060971e-04 0
7.9079324600739062e-02 3.6561656086826835e-03 0
-1.6744023619777951e-03 -7.1959896998619865e-05 0
-3.9255364923148307e-03 -1.4904525390525673e-04 0
1.1231435087539184e-02 2.9025694857101126e-04 0
2.6250876214798158e-02 1.1419720775083723e-03 0
1.1229625372826258e-02 2.8379236379402555e-04 0
2.6246119325049243e-02 1.1454881714266551e-03 0
-1.7001704168703913e-03 -1.2518911996188566e-04 0
-4.0243688176682677e-03 -1.1321231685193961e-04 0
4.7017696373107681e-02 1.1417720861216509e-02 0
1.1119608718950354e-01 -2.9590022516520010e-03 0
-2.1931815598862977e-03 -1.1765545047505677e-03 0
-5.8235601576859600e-03 6.7222858513233904e-04 0
1.6662930740364772e-02 7.3637031889576118e-03 0
4.0115815847823540e-02 -3.4462317584822910e-03 0
1.0251441306830946e-02 3.5348541583478839e-03 0
3.0802152221519954e-02 -2.4595098452514347e-03 0
6.2503882377595590e-02 3.5487203266953163e-02 0
8.5538623243727907e-02 -7.0983920104325665e-03 0
3.8664476425266433e-03 4.6612873523335634e-03 0
4.4318220856090093e-02 2.7491434673750353e-02 0
3.0350763632411341e-02 2.2398038743785466e-02 0
2.8463833879024823e-02 2.4310244219298425e-02 0
5.4002356572556996e-02 7.8925277689151762e-03 0
9.2468464942607100e-03 -3.5666102729317336e-03 0

VECTORS Forces2 float
-1.2613981661456408e-03 8.2968609123407178e-04 0
-1.4154748781187311e-03 -7.9745084981872234e-04 0
1.8850399268533519e-02 -1.0535085052061993e-02 0
1.9695589179577814e-02 1.0949838719226395e-02 0
2.0632442962156525e-02 -3.2257343732534959e-03 0
2.1532942228846511e-02 3.3926149357570751e-03 0
1.3091343837549573e-02 5.4660600975744544e-04 0
1.3672797576812907e-02 -5.4929587968670411e-04 0
-1.9739305701149019e-03 -7.7972752254333171e-05 0
-2.0675382340495821e-03 7.5845287843431968e-05 0
4.9654957644343890e-02 -1.5923411518762258e-04 0
5.2219024896380195e-02 4.0344195847896621e-04 0
-2.0857959302993338e-03 1.1362350291399317e-05 0
-2.2266623483405460e-03 -2.8915527091493238e-05 0
1.4011642439466164e-02 -1.2397725591150674e-04 0
1.4929810281788049e-02 2.4122559217549399e-04 0
1.4012719155614655e-02 -1.2436313490644190e-04 0
1.4931440731112995e-02 2.4178572919514264e-04 0
-2.0856593859614396e-03 1.4136150834129510e-05 0
-2.2298126737330714e-03 -3.2247320938444641e-05 0
4.9086762719467644e-02 -7.4638322972805829e-04 0
5.3385375453062163e-02 1.3595281930708436e-03 0
-2.0657552265039309e-03 3.9477852581575097e-05 0
-2.3100060132516804e-03 -7.4369348098572068e-05 0
1.3876846975825809e-02 -3.0162113021226438e-04 0
1.5497539554810537e-02 5.3791601717047472e-04 0
1.3876765472408679e-02 -3.0180690745108401e-04 0
1.5498358514253971e-02 5.3824491758140735e-04 0
-2.0648363320707702e-03 4.0302967200393948e-05 0
-2.3153431014228450e-03 -7.6090626095743106e-05 0
4.8691347745144435e-02 -1.2784888159348476e-03 0
5.6265351037536812e-02 2.3800589689781239e-03 0
-2.0494798376430373e-03 5.6126444398808000e-05 0
-2.4673528087287818e-03 -1.1451713875378732e-04 0
1.3772808362703668e-02 -4.1367443271499724e-04 0
1.6567015761573763e-02 8.0970249481256368e-04 0
1.3772696854912055e-02 -4.1386473007054770e-04 0
1.6568251255229649e-02 8.1006138302912561e-04 0
-2.0487945026115739e-03 5.6206751241821657e-05 0
-2.4764892976137346e-03 -1.1583057463536984e-04 0
4.8310453825340313e-02 -1.5316527357316550e-03 0
6.0963191527161141e-02 3.2748394179622038e-03 0
-2.0330286161163529e-03 5.9449801003775901e-05 0
-2.7074595392120341e-03 -1.4820774341254181e-04 0
1.3667336273201939e-02 -4.3890880932902579e-04 0
1.8190775456534167e-02 1.0405669133205708e-03 0
1.3667178294286852e-02 -4.3907628263795758e-04 0
1.8192491696807235e-02 1.0409439583235942e-03 0
-2.0321938002287490e-03 5.8384414697962644e-05 0
-2.7208440674477787e-03 -1.4878904151909028e-04 0
4.7905561757100701e-02 -1.3265919198894498e-03 0
6.7800925575053544e-02 3.9090264144680123e-03 0
-2.0079455139014150e-03 3.7627113690879177e-05 0
-3.0427546446027132e-03 -1.6663265196325766e-04 0
1.3504306767612936e-02 -2.9799477650567383e-04 0
2.0452409468399709e-02 1.1718727964813767e-03 0
1.3504176577731383e-02 -2.9826261239899532e-04 0
2.0454738257139730e-02 1.1723868024328663e-03 0
-2.0074514591082158e-03 3.5409613465353955e-05 0
-3.0621451580332211e-03 -1.6653676882687126e-04 0
4.7275267738560438e-02 -8.6579734295129385e-04 0
7.7182703050719156e-02 4.4953143619269383e-03 0
-2.0038858569581155e-03 1.2637917248762846e-05 0
-3.5273975602587702e-03 -1.9034722842005357e-04 0
1.3489926073431299e-02 -1.4802416143111987e-04 0
2.3718302231282212e-02 1.3497303489576633e-03 0
1.3489717112370944e-02 -1.4836257235907011e-04 0
2.3721196411897773e-02 1.3503543263396007e-03 0
-2.0035446169751796e-03 6.4432518143839775e-06 0
-3.5556195946241289e-03 -1.8755513874969113e-04 0
4.7685672663608403e-02 1.1012317561948461e-03 0
9.1152742194904907e-02 4.0909540738800192e-03 0
-1.9760829975550708e-03 -1.2800180112948015e-04 0
-4.1924397697041512e-03 -1.3351478347597078e-04 0
1.3305205959689124e-02 7.7063259782708400e-04 0
2.8170673478609069e-02 9.9278495671737917e-04 0
1.3304689525894886e-02 7.6832215633117077e-04 0
2.8173057585293124e-02 9.9460264803482418e-04 0
-1.9904885564407805e-03 -1.3845282811063750e-04 0
-4.2490832601813407e-03 -1.2964953865734404e-04 0
4.8002299889440547e-02 1.3635059099379842e-03 0
1.1066307209373137e-01 5.4644185937463771e-03 0
-2.3949910199942224e-03 -1.1452533769876403e-04 0
-5.5160536871395058e-03 -2.2465375812725569e-04 0
1.6063016604987313e-02 4.9102652943642329e-04 0
3.6889304678919266e-02 1.7113864984228003e-03 0
1.6060321914837226e-02 4.8171839897804836e-04 0
3.6882785234925608e-02 1.7164726831281434e-03 0
-2.4333554287206930e-03 -1.9151339567226051e-04 0
-5.6578017555990829e-03 -1.7358756617373819e-04 0
6.7500517462220758e-02 1.6815766471811988e-02 0
1.5696276698407449e-01 -3.8198719183647582e-03 0
-3.1630576921557203e-03 -1.7139127977043925e-03 0
-8.2591860409181178e-03 9.4074416437889123e-04 0
2.3992666619725531e-02 1.0742812356001366e-02 0
5.6934836903944831e-02 -4.7718435655983663e-03 0
1.4752936256689810e-02 5.1979210294400020e-03 0
4.3657433683795148e-02 -3.3845109702698196e-03 0
9.0027296465544859e-02 5.1393319702368198e-02 0
1.2201726794184471e-01 -9.9234328178099528e-03 0
5.6294132134919019e-03 6.7391264362523249e-03 0
6.3824934978651215e-02 3.9766447391485313e-02 0
4.3535839948307134e-02 3.2256369934939792e-02 0
4.0817405697676265e-02 3.4961390145845067e-02 0
7.7032542022437991e-02 1.1416976729059636e-02 0
1.3138362174266501e-02 -5.0952271037642731e-03 0

