# vtk DataFile Version 2.0

ASCII

DATASET UNSTRUCTURED_GRID

POINTS 106 float 

-5.0000000000000003e-02  0.0000000000000000e+00  0.0000000000000000e+00
5.0000000000000003e-02  0.0000000000000000e+00  0.0000000000000000e+00
-5.0000000000000003e-02  2.0000000000000000e-02  0.0000000000000000e+00
5.0000000000000003e-02  2.0000000000000000e-02  0.0000000000000000e+00
-5.0000000000000003e-02  4.0000000000000001e-02  0.0000000000000000e+00
5.0000000000000003e-02  4.0000000000000001e-02  0.0000000000000000e+00
-5.0000000000000003e-02  5.9999999999999998e-02  0.0000000000000000e+00
5.0000000000000003e-02  5.9999999999999998e-02  0.0000000000000000e+00
-5.0000000000000003e-02  8.0000000000000002e-02  0.0000000000000000e+00
5.0000000000000003e-02  8.0000000000000002e-02  0.0000000000000000e+00
-5.0000000000000003e-02  1.0000000000000001e-01  0.0000000000000000e+00
5.0000000000000003e-02  1.0000000000000001e-01  0.0000000000000000e+00
-5.0000000000000003e-02  1.2000000000000000e-01  0.0000000000000000e+00
5.0000000000000003e-02  1.2000000000000000e-01  0.0000000000000000e+00
-5.0000000000000003e-02  1.4000000000000001e-01  0.0000000000000000e+00
5.0000000000000003e-02  1.4000000000000001e-01  0.0000000000000000e+00
-5.0000000000000003e-02  1.6000000000000000e-01  0.0000000000000000e+00
5.0000000000000003e-02  1.6000000000000000e-01  0.0000000000000000e+00
-5.0000000000000003e-02  1.7999999999999999e-01  0.0000000000000000e+00
5.0000000000000003e-02  1.7999999999999999e-01  0.0000000000000000e+00
-5.0000000000000003e-02  2.0000000000000001e-01  0.0000000000000000e+00
5.0000000000000003e-02  2.0000000000000001e-01  0.0000000000000000e+00
-5.0000000000000003e-02  2.2000000000000000e-01  0.0000000000000000e+00
5.0000000000000003e-02  2.2000000000000000e-01  0.0000000000000000e+00
-5.0000000000000003e-02  2.3999999999999999e-01  0.0000000000000000e+00
5.0000000000000003e-02  2.3999999999999999e-01  0.0000000000000000e+00
-5.0000000000000003e-02  2.6000000000000001e-01  0.0000000000000000e+00
5.0000000000000003e-02  2.6000000000000001e-01  0.0000000000000000e+00
-5.0000000000000003e-02  2.8000000000000003e-01  0.0000000000000000e+00
5.0000000000000003e-02  2.8000000000000003e-01  0.0000000000000000e+00
-5.0000000000000003e-02  2.9999999999999999e-01  0.0000000000000000e+00
5.0000000000000003e-02  2.9999999999999999e-01  0.0000000000000000e+00
-5.0000000000000003e-02  3.2000000000000001e-01  0.0000000000000000e+00
5.0000000000000003e-02  3.2000000000000001e-01  0.0000000000000000e+00
-5.0000000000000003e-02  3.4000000000000002e-01  0.0000000000000000e+00
5.0000000000000003e-02  3.4000000000000002e-01  0.0000000000000000e+00
-5.0000000000000003e-02  3.5999999999999999e-01  0.0000000000000000e+00
5.0000000000000003e-02  3.5999999999999999e-01  0.0000000000000000e+00
-5.0000000000000003e-02  3.8000000000000000e-01  0.0000000000000000e+00
5.0000000000000003e-02  3.8000000000000000e-01  0.0000000000000000e+00
-5.0000000000000003e-02  4.0000000000000002e-01  0.0000000000000000e+00
5.0000000000000003e-02  4.0000000000000002e-01  0.0000000000000000e+00
-5.0000000000000003e-02  4.1999999999999998e-01  0.0000000000000000e+00
5.0000000000000003e-02  4.1999999999999998e-01  0.0000000000000000e+00
-5.0000000000000003e-02  4.4000000000000000e-01  0.0000000000000000e+00
5.0000000000000003e-02  4.4000000000000000e-01  0.0000000000000000e+00
-5.0000000000000003e-02  4.6000000000000002e-01  0.0000000000000000e+00
5.0000000000000003e-02  4.6000000000000002e-01  0.0000000000000000e+00
-5.0000000000000003e-02  4.7999999999999998e-01  0.0000000000000000e+00
5.0000000000000003e-02  4.7999999999999998e-01  0.0000000000000000e+00
-5.0000000000000003e-02  5.0000000000000000e-01  0.0000000000000000e+00
5.0000000000000003e-02  5.0000000000000000e-01  0.0000000000000000e+00
-5.0000000000000003e-02  5.2000000000000002e-01  0.0000000000000000e+00
5.0000000000000003e-02  5.2000000000000002e-01  0.0000000000000000e+00
-5.0000000000000003e-02  5.4000000000000004e-01  0.0000000000000000e+00
5.0000000000000003e-02  5.4000000000000004e-01  0.0000000000000000e+00
-5.0000000000000003e-02  5.6000000000000005e-01  0.0000000000000000e+00
5.0000000000000003e-02  5.6000000000000005e-01  0.0000000000000000e+00
-5.0000000000000003e-02  5.7999999999999996e-01  0.0000000000000000e+00
5.0000000000000003e-02  5.7999999999999996e-01  0.0000000000000000e+00
-5.0000000000000003e-02  5.9999999999999998e-01  0.0000000000000000e+00
5.0000000000000003e-02  5.9999999999999998e-01  0.0000000000000000e+00
-5.0000000000000003e-02  6.2000000000000000e-01  0.0000000000000000e+00
5.0000000000000003e-02  6.2000000000000000e-01  0.0000000000000000e+00
-5.0000000000000003e-02  6.4000000000000001e-01  0.0000000000000000e+00
5.0000000000000003e-02  6.4000000000000001e-01  0.0000000000000000e+00
-5.0000000000000003e-02  6.6000000000000003e-01  0.0000000000000000e+00
5.0000000000000003e-02  6.6000000000000003e-01  0.0000000000000000e+00
-5.0000000000000003e-02  6.8000000000000005e-01  0.0000000000000000e+00
5.0000000000000003e-02  6.8000000000000005e-01  0.0000000000000000e+00
-5.0000000000000003e-02  6.9999999999999996e-01  0.0000000000000000e+00
5.0000000000000003e-02  6.9999999999999996e-01  0.0000000000000000e+00
-5.0000000000000003e-02  7.1999999999999997e-01  0.0000000000000000e+00
5.0000000000000003e-02  7.1999999999999997e-01  0.0000000000000000e+00
-5.0000000000000003e-02  7.3999999999999999e-01  0.0000000000000000e+00
5.0000000000000003e-02  7.3999999999999999e-01  0.0000000000000000e+00
-5.0000000000000003e-02  7.6000000000000001e-01  0.0000000000000000e+00
5.0000000000000003e-02  7.6000000000000001e-01  0.0000000000000000e+00
-5.0000000000000003e-02  7.8000000000000003e-01  0.0000000000000000e+00
5.0000000000000003e-02  7.8000000000000003e-01  0.0000000000000000e+00
-5.0000000000000003e-02  8.0000000000000004e-01  0.0000000000000000e+00
5.0000000000000003e-02  8.0000000000000004e-01  0.0000000000000000e+00
-5.0000000000000003e-02  8.1999999999999995e-01  0.0000000000000000e+00
5.0000000000000003e-02  8.1999999999999995e-01  0.0000000000000000e+00
-5.0000000000000003e-02  8.3999999999999997e-01  0.0000000000000000e+00
5.0000000000000003e-02  8.3999999999999997e-01  0.0000000000000000e+00
-5.0000000000000003e-02  8.5999999999999999e-01  0.0000000000000000e+00
5.0000000000000003e-02  8.5999999999999999e-01  0.0000000000000000e+00
-5.0000000000000003e-02  8.8000000000000000e-01  0.0000000000000000e+00
5.0000000000000003e-02  8.8000000000000000e-01  0.0000000000000000e+00
-5.0000000000000003e-02  9.0000000000000002e-01  0.0000000000000000e+00
5.0000000000000003e-02  9.0000000000000002e-01  0.0000000000000000e+00
-5.0000000000000003e-02  9.2000000000000004e-01  0.0000000000000000e+00
5.0000000000000003e-02  9.2000000000000004e-01  0.0000000000000000e+00
-5.0000000000000003e-02  9.3999999999999995e-01  0.0000000000000000e+00
5.0000000000000003e-02  9.3999999999999995e-01  0.0000000000000000e+00
-5.0000000000000003e-02  9.5999999999999996e-01  0.0000000000000000e+00
5.0000000000000003e-02  9.5999999999999996e-01  0.0000000000000000e+00
-5.0000000000000003e-02  9.7999999999999998e-01  0.0000000000000000e+00
5.0000000000000003e-02  9.7999999999999998e-01  0.0000000000000000e+00
-5.0000000000000003e-02  1.0000000000000000e+00  0.0000000000000000e+00
-3.0000000000000002e-02  1.0000000000000000e+00  0.0000000000000000e+00
-1.0000000000000002e-02  1.0000000000000000e+00  0.0000000000000000e+00
1.0000000000000009e-02  1.0000000000000000e+00  0.0000000000000000e+00
2.9999999999999999e-02  1.0000000000000000e+00  0.0000000000000000e+00
5.0000000000000003e-02  1.0000000000000000e+00  0.0000000000000000e+00

CELLS 0 0


CELL_TYPES 0


POINT_DATA 106

VECTORS VertexNormals float

0.0000000000000000e+00 0.0000000000000000e+00 0
0.0000000000000000e+00 0.0000000000000000e+00 0
0.0000000000000000e+00 0.0000000000000000e+00 0
0.0000000000000000e+00 0.0000000000000000e+00 0
0.0000000000000000e+00 0.0000000000000000e+00 0
0.0000000000000000e+00 0.0000000000000000e+00 0
0.0000000000000000e+00 0.0000000000000000e+00 0
0.0000000000000000e+00 0.0000000000000000e+00 0
0.0000000000000000e+00 0.0000000000000000e+00 0
0.0000000000000000e+00 0.0000000000000000e+00 0
0.0000000000000000e+00 0.0000000000000000e+00 0
0.0000000000000000e+00 0.0000000000000000e+00 0
0.0000000000000000e+00 0.0000000000000000e+00 0
0.0000000000000000e+00 0.0000000000000000e+00 0
0.0000000000000000e+00 0.0000000000000000e+00 0
0.0000000000000000e+00 0.0000000000000000e+00 0
0.0000000000000000e+00 0.0000000000000000e+00 0
0.0000000000000000e+00 0.0000000000000000e+00 0
0.0000000000000000e+00 0.0000000000000000e+00 0
0.0000000000000000e+00 0.0000000000000000e+00 0
0.0000000000000000e+00 0.0000000000000000e+00 0
0.0000000000000000e+00 0.0000000000000000e+00 0
0.0000000000000000e+00 0.0000000000000000e+00 0
0.0000000000000000e+00 0.0000000000000000e+00 0
0.0000000000000000e+00 0.0000000000000000e+00 0
0.0000000000000000e+00 0.0000000000000000e+00 0
0.0000000000000000e+00 0.0000000000000000e+00 0
0.0000000000000000e+00 0.0000000000000000e+00 0
0.0000000000000000e+00 0.0000000000000000e+00 0
0.0000000000000000e+00 0.0000000000000000e+00 0
0.0000000000000000e+00 0.0000000000000000e+00 0
0.0000000000000000e+00 0.0000000000000000e+00 0
0.0000000000000000e+00 0.0000000000000000e+00 0
0.0000000000000000e+00 0.0000000000000000e+00 0
0.0000000000000000e+00 0.0000000000000000e+00 0
0.0000000000000000e+00 0.0000000000000000e+00 0
0.0000000000000000e+00 0.0000000000000000e+00 0
0.0000000000000000e+00 0.0000000000000000e+00 0
0.0000000000000000e+00 0.0000000000000000e+00 0
0.0000000000000000e+00 0.0000000000000000e+00 0
0.0000000000000000e+00 0.0000000000000000e+00 0
0.0000000000000000e+00 0.0000000000000000e+00 0
0.0000000000000000e+00 0.0000000000000000e+00 0
0.0000000000000000e+00 0.0000000000000000e+00 0
0.0000000000000000e+00 0.0000000000000000e+00 0
0.0000000000000000e+00 0.0000000000000000e+00 0
0.0000000000000000e+00 0.0000000000000000e+00 0
0.0000000000000000e+00 0.0000000000000000e+00 0
0.0000000000000000e+00 0.0000000000000000e+00 0
0.0000000000000000e+00 0.0000000000000000e+00 0
0.0000000000000000e+00 0.0000000000000000e+00 0
0.0000000000000000e+00 0.0000000000000000e+00 0
0.0000000000000000e+00 0.0000000000000000e+00 0
0.0000000000000000e+00 0.0000000000000000e+00 0
0.0000000000000000e+00 0.0000000000000000e+00 0
0.0000000000000000e+00 0.0000000000000000e+00 0
0.0000000000000000e+00 0.0000000000000000e+00 0
0.0000000000000000e+00 0.0000000000000000e+00 0
0.0000000000000000e+00 0.0000000000000000e+00 0
0.0000000000000000e+00 0.0000000000000000e+00 0
0.0000000000000000e+00 0.0000000000000000e+00 0
0.0000000000000000e+00 0.0000000000000000e+00 0
0.0000000000000000e+00 0.0000000000000000e+00 0
0.0000000000000000e+00 0.0000000000000000e+00 0
0.0000000000000000e+00 0.0000000000000000e+00 0
0.0000000000000000e+00 0.0000000000000000e+00 0
0.0000000000000000e+00 0.0000000000000000e+00 0
0.0000000000000000e+00 0.0000000000000000e+00 0
0.0000000000000000e+00 0.0000000000000000e+00 0
0.0000000000000000e+00 0.0000000000000000e+00 0
0.0000000000000000e+00 0.0000000000000000e+00 0
0.0000000000000000e+00 0.0000000000000000e+00 0
0.0000000000000000e+00 0.0000000000000000e+00 0
0.0000000000000000e+00 0.0000000000000000e+00 0
0.0000000000000000e+00 0.0000000000000000e+00 0
0.0000000000000000e+00 0.0000000000000000e+00 0
0.0000000000000000e+00 0.0000000000000000e+00 0
0.0000000000000000e+00 0.0000000000000000e+00 0
0.0000000000000000e+00 0.0000000000000000e+00 0
0.0000000000000000e+00 0.0000000000000000e+00 0
0.0000000000000000e+00 0.0000000000000000e+00 0
0.0000000000000000e+00 0.0000000000000000e+00 0
0.0000000000000000e+00 0.0000000000000000e+00 0
0.0000000000000000e+00 0.0000000000000000e+00 0
0.0000000000000000e+00 0.0000000000000000e+00 0
0.0000000000000000e+00 0.0000000000000000e+00 0
0.0000000000000000e+00 0.0000000000000000e+00 0
0.0000000000000000e+00 0.0000000000000000e+00 0
0.0000000000000000e+00 0.0000000000000000e+00 0
0.0000000000000000e+00 0.0000000000000000e+00 0
0.0000000000000000e+00 0.0000000000000000e+00 0
0.0000000000000000e+00 0.0000000000000000e+00 0
0.0000000000000000e+00 0.0000000000000000e+00 0
0.0000000000000000e+00 0.0000000000000000e+00 0
0.0000000000000000e+00 0.0000000000000000e+00 0
0.0000000000000000e+00 0.0000000000000000e+00 0
0.0000000000000000e+00 0.0000000000000000e+00 0
0.0000000000000000e+00 0.0000000000000000e+00 0
0.0000000000000000e+00 0.0000000000000000e+00 0
0.0000000000000000e+00 0.0000000000000000e+00 0
0.0000000000000000e+00 0.0000000000000000e+00 0
0.0000000000000000e+00 0.0000000000000000e+00 0
0.0000000000000000e+00 0.0000000000000000e+00 0
0.0000000000000000e+00 0.0000000000000000e+00 0
0.0000000000000000e+00 0.0000000000000000e+00 0
0.0000000000000000e+00 0.0000000000000000e+00 0

VECTORS Displacements1 float
-5.7916942500551003e-17 3.2356876492889557e-17 0
-1.4330583143518113e-22 5.6884494366069364e-23 0
1.9157786581852760e-06 8.6329968343737390e-07 0
1.8445844837512630e-06 -8.1314544003815224e-07 0
3.2734108047929991e-06 1.2267768233447940e-06 0
3.1581086260420307e-06 -1.1590931666778062e-06 0
4.1569521673877607e-06 1.2938993548640871e-06 0
4.0624451676598839e-06 -1.2159517487907838e-06 0
4.7535737007337292e-06 1.1755434033183696e-06 0
4.7038388726529330e-06 -1.1022878749294006e-06 0
6.5148026693958220e-06 8.9233333371566684e-07 0
6.2331780956737374e-06 -6.5615374597054114e-07 0
5.5798269070127061e-06 4.3085728713863339e-07 0
5.5119206591583276e-06 -3.3967251835502502e-07 0
5.8710393142300104e-06 3.1989424367319031e-07 0
5.7575842057585425e-06 -1.4288441366288358e-07 0
5.8425987297202123e-06 2.2262393534728245e-07 0
5.7323176675090329e-06 -1.8217772213314651e-08 0
5.5941344235538126e-06 2.4812465635982990e-07 0
5.5309858180980585e-06 -4.3839204423343585e-08 0
6.8341463306671999e-06 2.3814083921167161e-07 0
6.5523024873579656e-06 1.5879334787607633e-07 0
5.6439742588202516e-06 6.8380483687266691e-08 0
5.5739897622126648e-06 1.7213612457076698e-07 0
5.8981601753744070e-06 1.8748261227083980e-07 0
5.7902471384269823e-06 1.5416947425479779e-07 0
5.9225796061315872e-06 2.2398499139286280e-07 0
5.8211879405006212e-06 1.5371943896957032e-07 0
5.7324773798745157e-06 3.0723371067971735e-07 0
5.6754800185041018e-06 6.9233637511956510e-08 0
6.9957750344501564e-06 3.2261775945381408e-07 0
6.7590324902999114e-06 2.8855992163769057e-07 0
5.7991155449031723e-06 1.6910157464662425e-07 0
5.7301907198526959e-06 2.6401957995528716e-07 0
6.0598533310545798e-06 3.0742756573185722e-07 0
5.9691667893927083e-06 2.3489763080082743e-07 0
6.0960953806105741e-06 3.5382317320673194e-07 0
6.0127763243352264e-06 2.3167392397662367e-07 0
5.9170256048096131e-06 4.4520872536319188e-07 0
5.8739984703329625e-06 1.3763079591967038e-07 0
7.2035976508568438e-06 4.7514176077887997e-07 0
7.0506229067785399e-06 3.9392592496766110e-07 0
6.0204354568617508e-06 3.1802358264105090e-07 0
5.9575044338779509e-06 3.4954488426603179e-07 0
6.2999235441746771e-06 4.6581293627312961e-07 0
6.2364352575359758e-06 3.2323614980427878e-07 0
6.3541128676552571e-06 5.2020909168270078e-07 0
6.3003185929067921e-06 3.2182803525722631e-07 0
6.1917350861649935e-06 6.2101325660946210e-07 0
6.1684912033759978e-06 2.1645702151087587e-07 0
7.5077652875925066e-06 6.8028879792743479e-07 0
7.4800052084185781e-06 5.1474216466018614e-07 0
6.3418558288497855e-06 5.1493693155244427e-07 0
6.2876223585326649e-06 4.5308506068970946e-07 0
6.6414447270897649e-06 6.8034215405650313e-07 0
6.6170018951839985e-06 4.2669414479612776e-07 0
6.7178931376643378e-06 7.4964589094284403e-07 0
6.7052574606227634e-06 4.2525355645826288e-07 0
6.5791954690129486e-06 8.6499182847554662e-07 0
6.5809729992025910e-06 3.0401850707178967e-07 0
7.9311745988187699e-06 9.7139636590722478e-07 0
8.0830013369423539e-06 6.5027899177176482e-07 0
6.8030940148592156e-06 8.0554019179342514e-07 0
6.7586040198996678e-06 5.6716241886653354e-07 0
7.1466005494676118e-06 1.0084572098976608e-06 0
7.1679853162033746e-06 5.3718963451492001e-07 0
7.2724685170096497e-06 1.1271971678717388e-06 0
7.2964931362305844e-06 5.3834898033266838e-07 0
7.1880964427306526e-06 1.3235903583399858e-06 0
7.1821286924714947e-06 4.0517965745655791e-07 0
8.6479071994919222e-06 1.5992077878685745e-06 0
8.9533970927813800e-06 8.3611804902374791e-07 0
7.5806824664754962e-06 1.5288600806652439e-06 0
7.4062303683005031e-06 7.8302865434700137e-07 0
7.9981764499967498e-06 1.9762635562250511e-06 0
7.8639424873398295e-06 7.9911909439302955e-07 0
8.2054157712581205e-06 2.4023457642803182e-06 0
7.9824549746909423e-06 8.4938140933665269e-07 0
8.1971808084549099e-06 2.9505700726259947e-06 0
7.7916775661023805e-06 7.2532096499496269e-07 0
9.6686172421792395e-06 3.7268639378496895e-06 0
9.8046836201163050e-06 1.2254348123052726e-06 0
8.4928347534823569e-06 4.2702652966688129e-06 0
7.7137631033977601e-06 9.4729644026143335e-07 0
8.8195111803331714e-06 5.7126470624630932e-06 0
8.1143818810666933e-06 4.2713197498295034e-07 0
9.1529970802303022e-06 7.6377573061008095e-06 0
8.3992802996473051e-06 -6.0635225408949003e-07 0
9.9947761934093235e-06 1.0271171868726772e-05 0
9.1663047278409526e-06 -2.4486971628475018e-06 0
1.4046636717745149e-05 1.3686165927088198e-05 0
1.4262784994402079e-05 -3.8811665344542123e-06 0
1.6186878010182731e-05 1.6094878346722804e-05 0
1.5346503333058038e-05 -6.1243377389962372e-06 0
2.1754702173204850e-05 1.9512086022398547e-05 0
2.1431377465852217e-05 -8.2762700426493679e-06 0
2.8251870892174048e-05 2.2360354704889825e-05 0
2.8065604892020658e-05 -1.0077406155981455e-05 0
3.7584403130421424e-05 2.5290794702358468e-05 0
3.6992736516998622e-05 -1.1058687373898397e-05 0
4.4790626305989536e-05 2.5358510280344238e-05 0
4.4804032175258504e-05 1.7716270105561542e-05 0
4.3568982518312884e-05 1.0343300383113622e-05 0
4.3332030280698885e-05 3.8157180015268978e-06 0
4.4183590781666752e-05 -3.5823840633959829e-06 0
4.3909526413400239e-05 -1.1827478047346206e-05 0

VECTORS Displacements2 float
-5.8006424380347375e-17 3.2406761111731391e-17 0
-1.4423912182770220e-22 5.7803958628958279e-23 0
1.9291340527378590e-06 8.7594324477223232e-07 0
1.8570506774322272e-06 -8.2585479853768501e-07 0
3.3011588429833767e-06 1.2481146802768746e-06 0
3.1844724312356681e-06 -1.1795843081507275e-06 0
4.2000747265120473e-06 1.3199618702893278e-06 0
4.1048594670569476e-06 -1.2406427579974696e-06 0
4.8141415500282049e-06 1.2031546472472431e-06 0
4.7635869606426792e-06 -1.1284190479611628e-06 0
6.5926967302424320e-06 9.1680615267106919e-07 0
6.3093933616720682e-06 -6.7881216570086454e-07 0
5.6663027477307804e-06 4.4986102565945072e-07 0
5.5978451182768836e-06 -3.5693357837372525e-07 0
5.9644351642048965e-06 3.3393477514062942e-07 0
5.8495870967180278e-06 -1.5452016966000298e-07 0
5.9372146948724954e-06 2.3188557075659526e-07 0
5.8260540751489333e-06 -2.4720543985159086e-08 0
5.6884418796022875e-06 2.5547746773218802e-07 0
5.6243896968327738e-06 -4.7783962887630145e-08 0
6.9302938237486879e-06 2.4354369438160436e-07 0
6.6456873307403849e-06 1.5749299470532433e-07 0
5.7358763527126929e-06 7.1990707683678602e-08 0
5.6650971544585352e-06 1.7230547479573706e-07 0
5.9902191982996373e-06 1.9224616088511500e-07 0
5.8807197004950427e-06 1.5397122325134478e-07 0
6.0147426743979189e-06 2.2938227532891671e-07 0
5.9126160651681827e-06 1.5378109136205778e-07 0
5.8266316157594390e-06 3.1438255684313786e-07 0
5.7687247873429752e-06 6.8396951458156211e-08 0
7.0948633235971325e-06 3.2856653573904145e-07 0
6.8553892749230672e-06 2.8970850825270757e-07 0
5.8942254265368274e-06 1.7354624641811561e-07 0
5.8244385771922445e-06 2.6662895104412725e-07 0
6.1547970717779328e-06 3.1397850114059516e-07 0
6.0625786532018977e-06 2.3624628204273726e-07 0
6.1912567537499126e-06 3.6160197558270459e-07 0
6.1074341345529081e-06 2.3253032521578468e-07 0
6.0143646038672626e-06 4.5515719002732754e-07 0
5.9705883577258209e-06 1.3753612632245168e-07 0
7.3061135012115371e-06 4.8416269045319612e-07 0
7.1505121888067923e-06 3.9599793887135188e-07 0
6.1190751661969584e-06 3.2547779044055449e-07 0
6.0552980594982325e-06 3.5295753020663908e-07 0
6.3985884615952723e-06 4.7557182486303934e-07 0
6.3337210360881682e-06 3.2528602293177753e-07 0
6.4532137284716078e-06 5.3139651301401973e-07 0
6.3992264467348715e-06 3.2359132983022792e-07 0
6.2934890472490342e-06 6.3450073570429809e-07 0
6.2698031877978164e-06 2.1732553484991919e-07 0
7.6151827226274458e-06 6.9294904893978444e-07 0
7.5849143675560451e-06 5.1814082995437208e-07 0
6.4454916929134466e-06 5.2595813692425789e-07 0
6.3905026676694242e-06 4.5785935569134076e-07 0
6.7453476710678764e-06 6.9397809502604298e-07 0
6.7197655119571239e-06 4.3005113326144736e-07 0
6.8226233298136886e-06 7.6502379797410093e-07 0
6.8101880210406899e-06 4.2834715172716263e-07 0
6.6872697681489990e-06 8.8313840558790581e-07 0
6.6889880379952200e-06 3.0624310363258252e-07 0
8.0457464324505391e-06 9.8906157817115248e-07 0
8.1951771772512914e-06 6.5536837729354791e-07 0
6.9142132896321416e-06 8.2200687161678437e-07 0
6.8688887108886319e-06 5.7368539865614484e-07 0
7.2587188272706307e-06 1.0286884935557596e-06 0
7.2786778618258981e-06 5.4255849733885798e-07 0
7.3862763208741723e-06 1.1517964765031213e-06 0
7.4095276916709743e-06 5.4443844914176680e-07 0
7.3072421919594719e-06 1.3543528592750957e-06 0
7.2983670265441144e-06 4.1174087548660222e-07 0
8.7750429328304236e-06 1.6332393266366092e-06 0
9.0730138572674091e-06 8.4816228664074567e-07 0
7.7050231739067225e-06 1.5666922227555531e-06 0
7.5219293181268311e-06 7.9906718513408550e-07 0
8.1230613043695347e-06 2.0237592528749160e-06 0
7.9786381985700803e-06 8.1625064832434251e-07 0
8.3319498904734789e-06 2.4591876920055649e-06 0
8.0972181899799188e-06 8.6911633395614088e-07 0
8.3249744923910719e-06 3.0157642897975365e-06 0
7.9064419444460119e-06 7.4674469884102200e-07 0
9.7949308907036947e-06 3.7992434616862347e-06 0
9.9152662218051556e-06 1.2519532226184924e-06 0
8.6041727665326450e-06 4.3555350210628472e-06 0
7.8121876083312181e-06 9.6984980360599039e-07 0
8.9268288590750187e-06 5.8253357284509552e-06 0
8.2125236455046943e-06 4.3016505186662121e-07 0
9.2781665120170262e-06 7.7861451674639529e-06 0
8.5214594598844202e-06 -6.2973854809366189e-07 0
1.0166272551764731e-05 1.0454268519648525e-05 0
9.3379697454022086e-06 -2.4982277005470848e-06 0
1.4284389893752377e-05 1.3891839314700995e-05 0
1.4501340727579044e-05 -3.9449165714320590e-06 0
1.6490538585597829e-05 1.6313170137131229e-05 0
1.5651935548129946e-05 -6.1966868179391269e-06 0
2.2126967757307157e-05 1.9741903267707039e-05 0
2.1806691156178569e-05 -8.3563897596103922e-06 0
2.8694749915097078e-05 2.2598216872504675e-05 0
2.8512302054599697e-05 -1.0162550205751726e-05 0
3.8103573682464256e-05 2.5535532684094641e-05 0
3.7510729468434718e-05 -1.1146823068488148e-05 0
4.5389122506867120e-05 2.5604659439838243e-05 0
4.5398360130467542e-05 1.7885646775516596e-05 0
4.4157071628784309e-05 1.0445190620646687e-05 0
4.3918288226733234e-05 3.8571098227721012e-06 0
4.4772378660782469e-05 -3.6019148941299952e-06 0
4.4502549632099750e-05 -1.1917708030411123e-05 0

VECTORS Displacements3 float
-5.8097244767162256e-17 3.2457380411641757e-17 0
-1.4515918811054934e-22 5.8730891365829316e-23 0
1.9423949423416578e-06 8.8871703556527265e-07 0
1.8694246554992660e-06 -8.3866321614919753e-07 0
3.3289064450021519e-06 1.2695439768142301e-06 0
3.2108243266343063e-06 -1.2002020838233116e-06 0
4.2432509278007630e-06 1.3461860383562124e-06 0
4.1473057172130021e-06 -1.2654289063603808e-06 0
4.8748394210842663e-06 1.2310566292740826e-06 0
4.8233270767976260e-06 -1.1547683006252593e-06 0
6.6708122503605064e-06 9.4147319928818177e-07 0
6.3857650880950942e-06 -7.0168671045602460e-07 0
5.7531451683611210e-06 4.6924721062496244e-07 0
5.6840764621668696e-06 -3.7458946760273884e-07 0
6.0585313018173754e-06 3.4834913282751000e-07 0
5.9423053864486722e-06 -1.6650222798132803e-07 0
6.0328382237826749e-06 2.4141897891495678e-07 0
5.9206838429880499e-06 -3.1390530796485557e-08 0
5.7837237751940126e-06 2.6299588165969001e-07 0
5.7187417455086730e-06 -5.1838752788939304e-08 0
7.0272842951646225e-06 2.4891553020587259e-07 0
6.7398766592264566e-06 1.5619461800017131e-07 0
5.8286537570090722e-06 7.5717337624339244e-08 0
5.7569465171333958e-06 1.7238359933940808e-07 0
6.0830252470118862e-06 1.9712670505544024e-07 0
5.9720613351195697e-06 1.5372235046703992e-07 0
6.1078809654051340e-06 2.3485108322621733e-07 0
6.0047752564101839e-06 1.5383523179703023e-07 0
5.9215614271019880e-06 3.2160889266448785e-07 0
5.8627785786904174e-06 6.7602472142188778e-08 0
7.1947149467734704e-06 3.3449513856135454e-07 0
6.9524410519433834e-06 2.9081359704547187e-07 0
5.9902330294496272e-06 1.7806787849005346e-07 0
5.9194261226703276e-06 2.6919262868855297e-07 0
6.2505309220348891e-06 3.2058848148147686e-07 0
6.1568600024711916e-06 2.3765400096242209e-07 0
6.2874099157774600e-06 3.6947217286292342e-07 0
6.2028424411254035e-06 2.3342142628446974e-07 0
6.1125299352534807e-06 4.6514576769807464e-07 0
6.0680096446937056e-06 1.3752785565546225e-07 0
7.4094305528642222e-06 4.9317617127244694e-07 0
7.2510924146951656e-06 3.9804021574966129e-07 0
6.2186496769459895e-06 3.3302397416689367e-07 0
6.1538440212238553e-06 3.5634583723668856e-07 0
6.4980708150969330e-06 4.8540559749639987e-07 0
6.4319283954919254e-06 3.2742045001244905e-07 0
6.5533693132674555e-06 5.4271211084252811e-07 0
6.4989096793574723e-06 3.2538360394865749e-07 0
6.3961198953443743e-06 6.4806940947593149e-07 0
6.3719600717497705e-06 2.1831487412763990e-07 0
7.7234571010528082e-06 7.0560817827015723e-07 0
7.6905115703974843e-06 5.2151636026141274e-07 0
6.5501129185123091e-06 5.3710174818570795e-07 0
6.4941585809976868e-06 4.6261181945676047e-07 0
6.8501142206024363e-06 7.0771323124509539e-07 0
6.8234859385500357e-06 4.3350990198261008e-07 0
6.9284977604628859e-06 7.8059235076451974e-07 0
6.9159308277292025e-06 4.3148765231934223e-07 0
6.7962863912007357e-06 9.0142629473748358e-07 0
6.7978803773340165e-06 3.0861490034636326e-07 0
8.1612426934151627e-06 1.0067657678815346e-06 0
8.3080338862115933e-06 6.6045952380913414e-07 0
7.0264349213765190e-06 8.3868532939463281e-07 0
6.9799616023191742e-06 5.8019228670432191e-07 0
7.3718628290130268e-06 1.0492104860165900e-06 0
7.3902906619489938e-06 5.4815145598463290e-07 0
7.5013480311969249e-06 1.1769213373662921e-06 0
7.5233538244726487e-06 5.5072439066039701e-07 0
7.4274860603139979e-06 1.3855620112008801e-06 0
7.4154424129609736e-06 4.1875996091167510e-07 0
8.9031578045582010e-06 1.6676825091217484e-06 0
9.1931501249804434e-06 8.6049713846966860e-07 0
7.8305557432887511e-06 1.6051652540191828e-06 0
7.6381401355640267e-06 8.1550968370299864e-07 0
8.2488469810596504e-06 2.0719168698467163e-06 0
8.0941156798874990e-06 8.3403229408237038e-07 0
8.4596409638588625e-06 2.5165219422038573e-06 0
8.2124504293567654e-06 8.8943960132567113e-07 0
8.4534309005614279e-06 3.0812067401064154e-06 0
8.0215060637391691e-06 7.6915260533591770e-07 0
9.9213825155227783e-06 3.8719126993802006e-06 0
1.0025519419070516e-05 1.2792013737254782e-06 0
8.7155582345254763e-06 4.4413099544213528e-06 0
7.9106180708927505e-06 9.9280812208010758e-07 0
9.0347074041885549e-06 5.9391012858098058e-06 0
8.3117100057953853e-06 4.3317286779053630e-07 0
9.4050417644767195e-06 7.9358174028963774e-06 0
8.6456240771983487e-06 -6.5332812967073535e-07 0
1.0340502563586079e-05 1.0638259081012859e-05 0
9.5123579027165201e-06 -2.5475525644106761e-06 0
1.4525570492438736e-05 1.4098023485999464e-05 0
1.4742780363332283e-05 -4.0084491581991436e-06 0
1.6797724704392954e-05 1.6531833304976344e-05 0
1.5960678976332412e-05 -6.2686321356782030e-06 0
2.2502595946924878e-05 1.9972098435353115e-05 0
2.2185431082831861e-05 -8.4359049778440935e-06 0
2.9141324466184854e-05 2.2836640658989387e-05 0
2.8962112896337012e-05 -1.0247109494947513e-05 0
3.8626764931684691e-05 2.5780738639128317e-05 0
3.8031724700938408e-05 -1.1233872938804564e-05 0
4.5991859358116691e-05 2.5851488565423249e-05 0
4.5996698031579571e-05 1.8055572637163906e-05 0
4.4748765507064922e-05 1.0547405207037682e-05 0
4.4507377771715588e-05 3.8985488285230315e-06 0
4.5363162188430315e-05 -3.6210142629119584e-06 0
4.5097907766459236e-05 -1.2007216192450796e-05 0

VECTORS Forces1 float
-3.9674096155773458e-01 2.3612725548544827e-01 0
-2.5616678125099274e-01 -1.5233633021105744e-01 0
5.1872354105025780e+00 -2.8738854167717962e+00 0
3.4332177440815528e+00 1.8998108104480527e+00 0
5.6817350211561140e+00 -8.7995336004653535e-01 0
3.7730779273083934e+00 5.8339104598684222e-01 0
3.6196159327978918e+00 1.4846471484165280e-01 0
2.4054006301531872e+00 -9.7373382054683502e-02 0
-5.4563983351198664e-01 -1.9897134657104864e-02 0
-3.6319241812075659e-01 1.3155179013463462e-02 0
1.3948671477726583e+01 8.6512280421971871e-03 0
9.2993573828734331e+00 1.7820722109794719e-02 0
-5.9426275547299079e-01 -6.9244455580350973e-04 0
-3.9809584981325780e-01 -1.7406392421474748e-03 0
3.9927921174716352e+00 2.2860812295190901e-04 0
2.6731852755385113e+00 1.5918085870777192e-02 0
3.9931171651512529e+00 1.4353779047417584e-04 0
2.6734635267955582e+00 1.5973935663689025e-02 0
-5.9504794392698790e-01 -2.9448546588686374e-04 0
-3.9862539517193296e-01 -2.1985328978696285e-03 0
1.4137112234268297e+01 -3.2258534196306525e-04 0
9.5033533833906603e+00 9.8357783902041959e-02 0
-5.9858384052806035e-01 -6.0325069871798153e-04 0
-4.0455112356259221e-01 -5.3758841209978585e-03 0
4.0183704205366944e+00 2.4127708865719030e-03 0
2.7155245458071806e+00 3.8265127509458263e-02 0
4.0183776243095108e+00 2.4170247859730872e-03 0
2.7155642699081084e+00 3.8284998103981144e-02 0
-5.9861659606614592e-01 -6.4311913947944573e-04 0
-4.0476905913970201e-01 -5.5209816400191613e-03 0
1.4141891597066502e+01 2.3039591443953077e-02 0
9.6120933492899336e+00 1.7052945907134917e-01 0
-5.9667637261338402e-01 -1.8952354672743385e-03 0
-4.0886549359674024e-01 -8.4422911217938868e-03 0
4.0048604229243185e+00 1.1236173463750727e-02 0
2.7444485624052213e+00 5.8884620221091803e-02 0
4.0048377795319006e+00 1.1241608292422956e-02 0
2.7444859419152041e+00 5.8906919092528653e-02 0
-5.9651150316982837e-01 -1.9910835597895726e-03 0
-4.0905447909936049e-01 -8.5701296142130980e-03 0
1.4056455316844561e+01 6.2901781833247808e-02 0
9.7231789667296127e+00 2.4326692226276964e-01 0
-5.9149365324880598e-01 -4.0919895434193797e-03 0
-4.1391784767374307e-01 -1.1434224564787158e-02 0
3.9696670902802844e+00 2.5943418003266928e-02 0
2.7787104477264810e+00 7.9190002830808057e-02 0
3.9696191419117772e+00 2.5952314019701054e-02 0
2.7787547739574432e+00 7.9215091300961243e-02 0
-5.9116594515786569e-01 -4.2651467572332007e-03 0
-4.1413506471953743e-01 -1.1542617419586723e-02 0
1.3888759387601322e+01 1.3657762797902909e-01 0
9.8534823270730154e+00 3.1079148729713552e-01 0
-5.8211199039558148e-01 -8.1503875624998716e-03 0
-4.1969925703868022e-01 -1.4114293393624674e-02 0
3.9060424076763463e+00 5.3076970131664507e-02 0
2.8178476046846637e+00 9.7573248869203433e-02 0
3.9059700623163023e+00 5.3085311129336663e-02 0
2.8179034222137207e+00 9.7606288788825810e-02 0
-5.8165458843185613e-01 -8.4130194017929295e-03 0
-4.1998593598260819e-01 -1.4210367061704234e-02 0
1.3616715753398250e+01 2.3600445777437595e-01 0
1.0008183269894799e+01 3.8369570709135364e-01 0
-5.7059564447536359e-01 -1.3161825587060680e-02 0
-4.2795113898168652e-01 -1.7388451687099293e-02 0
3.8282052254570864e+00 8.6038267177782526e-02 0
2.8738072804288488e+00 1.2042691337566619e-01 0
3.8280712111317858e+00 8.6057823413118836e-02 0
2.8738627646547275e+00 1.2046869517081339e-01 0
-5.6986859357773445e-01 -1.3737963968012348e-02 0
-4.2828994121182484e-01 -1.7424568391066774e-02 0
1.3292189683412248e+01 4.7299993435955151e-01 0
1.0231003082553906e+01 4.3850962360365653e-01 0
-5.4728503477890933e-01 -2.8039697294590320e-02 0
-4.3539114451672700e-01 -1.8928547877124644e-02 0
3.6683277502187592e+00 1.8536603050611775e-01 0
2.9228134973926969e+00 1.3206049114051518e-01 0
3.6680765611767532e+00 1.8528858684067229e-01 0
2.9228459644241505e+00 1.3214460938286124e-01 0
-5.4747918803508133e-01 -2.8937760226810046e-02 0
-4.3702364222589868e-01 -1.9018017611437982e-02 0
1.2688593196931627e+01 6.4020419465133049e-01 0
1.0567492276926099e+01 6.0862799717362825e-01 0
-5.5329650171639944e-01 -3.4719863213771955e-02 0
-4.8134877719082803e-01 -2.7394535567702317e-02 0
3.6988383102347937e+00 2.1984279444222099e-01 0
3.2252296626032702e+00 1.9212052497686213e-01 0
3.6978105655402889e+00 2.1949454943474800e-01 0
3.2248855195228474e+00 1.9226624171958864e-01 0
-5.5496997860102415e-01 -3.9667443482521589e-02 0
-4.8538691825153596e-01 -2.5577340794561185e-02 0
1.3152640284895316e+01 2.0154574539193226e+00 0
1.2246387415896120e+01 2.6908204983776390e-01 0
-5.2275652470224088e-01 -1.5371320345985554e-01 0
-5.4657161101718366e-01 1.9989292851312353e-02 0
3.6192595291766652e+00 1.0198466810659472e+00 0
3.8180540218359731e+00 -4.8989946724008047e-02 0
2.8147262681457783e+00 6.7865137537581921e-01 0
3.0749508073270397e+00 -7.5332415627067564e-02 0
7.4451864679473569e+00 3.1284972009036505e+00 0
6.8322304770628817e+00 4.2528841885603208e-01 0
6.9995817132020377e-01 4.0914261708504573e-01 0
5.0562960937524304e+00 2.0018032075509784e+00 0
2.6718278034754954e+00 1.6829916524464492e+00 0
2.5188344925920232e+00 2.0252055594182750e+00 0
4.3019479347276670e+00 1.3400164943222475e+00 0
6.3523323726758463e-01 -1.7713981366730783e-01 0

VECTORS Forces2 float
4.4141861461286774e-01 -2.5197789490798134e-01 0
2.4954818292403672e-01 1.5618791083972830e-01 0
-5.5338276575001268e+00 3.0524859584346897e+00 0
-3.1910157545253863e+00 -1.7629541304431604e+00 0
-6.0613968983906199e+00 9.3594691355403548e-01 0
-3.5202991184231056e+00 -5.3836710152855083e-01 0
-3.8665741465017915e+00 -1.5713540621463357e-01 0
-2.2519465295345937e+00 8.9871372912609951e-02 0
5.8261643013826736e-01 2.0315748345076885e-02 0
3.3977233052740285e-01 -1.1968339255390717e-02 0
-1.4961253909756227e+01 -7.3029363447269461e-03 0
-8.8058983334961543e+00 2.8234381735432024e-02 0
6.3939433924453082e-01 2.2554643752751235e-04 0
3.7953980621020489e-01 -2.2753231878700608e-03 0
-4.2969494959366203e+00 -6.5938629337786397e-04 0
-2.5507407592008646e+00 1.4786565800792966e-02 0
-4.2972917185699080e+00 -5.6097703037932053e-04 0
-2.5510054529845569e+00 1.4778457870108853e-02 0
6.4043930602053045e-01 -1.6775084125928691e-04 0
3.8015973910211492e-01 -2.0684520522968692e-03 0
-1.5240410543956161e+01 3.2953585430581088e-04 0
-9.0680731853073731e+00 8.8407532353969240e-02 0
6.4501765350447338e-01 -1.2910488134564682e-05 0
3.8277955688501480e-01 -5.4497304091000584e-03 0
-4.3296613267205837e+00 -1.6211188366552049e-03 0
-2.5696988289114042e+00 3.8703622007734050e-02 0
-4.3296596581593665e+00 -1.6268102302249860e-03 0
-2.5696779740997644e+00 3.8733641939796171e-02 0
6.4500716121813284e-01 -3.5489006966762432e-05 0
3.8259509248245671e-01 -5.5920765347953257e-03 0
-1.5207081924626486e+01 -3.4781060966171278e-03 0
-8.9500998000946730e+00 1.8055679705261207e-01 0
6.3998450642910942e-01 -3.6481797075244157e-04 0
3.7260162096577815e-01 -9.1105387917932087e-03 0
-4.2941528156123576e+00 6.3514191450622897e-04 0
-2.4994318150831218e+00 6.3622511578354218e-02 0
-4.2941079122590073e+00 6.3007915727044837e-04 0
-2.4993494314221301e+00 6.3654269437982358e-02 0
6.3959803166872009e-01 -4.2939821245277689e-04 0
3.7188219521242194e-01 -9.2482418744759716e-03 0
-1.5016803374360661e+01 1.4552245959982566e-02 0
-8.5965483721829354e+00 2.6635543823225200e-01 0
6.2911884288134723e-01 -1.5963119890318883e-03 0
3.5304719770284010e-01 -1.2637441753260429e-02 0
-4.2200930016769691e+00 8.6983313072795179e-03 0
-2.3669462194896873e+00 8.7706491891774402e-02 0
-4.2200151678706410e+00 8.6956419569826672e-03 0
-2.3668099848116153e+00 8.7741474411732356e-02 0
6.2845517998448264e-01 -1.7363544980354491e-03 0
3.5184942625884252e-01 -1.2756565534796909e-02 0
-1.4682720799698647e+01 6.2213802349268522e-02 0
-8.0072144512084460e+00 3.4907347810718459e-01 0
6.1224843859826850e-01 -4.5485622467618990e-03 0
3.2277133614672321e-01 -1.5989405897303001e-02 0
-4.1055291884961136e+00 2.8186609652867439e-02 0
-2.1624315403798051e+00 1.1084266412944740e-01 0
-4.1054124142433039e+00 2.8178590586885467e-02 0
-2.1622320985053549e+00 1.1088826144381754e-01 0
6.1127573359171861e-01 -4.7690265164585331e-03 0
3.2097914441594216e-01 -1.6092347311457533e-02 0
-1.4206172232204002e+01 1.3266120065654011e-01 0
-7.1383111202605019e+00 4.3920495898241935e-01 0
5.8813737343751571e-01 -7.8950986839695335e-03 0
2.7875006627044857e-01 -1.9911878432458955e-02 0
-3.9418866625429363e+00 4.9558151810804349e-02 0
-1.8655552383816534e+00 1.3836780903145821e-01 0
-3.9417052727218054e+00 4.9541553566957997e-02 0
-1.8652675327638653e+00 1.3842982118882349e-01 0
5.8668723775253662e-01 -8.3613724305410028e-03 0
2.7601971816928589e-01 -1.9943529966524029e-02 0
-1.3479990643692572e+01 2.8779783813999577e-01 0
-5.8508583127920604e+00 5.1970068213054244e-01 0
5.5053480004423683e-01 -1.7822054282152413e-02 0
2.1102922637714258e-01 -2.2441416907775635e-02 0
-3.6860714256016478e+00 1.1439066130558508e-01 0
-1.4091255719198619e+00 1.5725637156482142e-01 0
-3.6858022144685778e+00 1.1423911260219313e-01 0
-1.4088321058480480e+00 1.5736307223879609e-01 0
5.4848899527900707e-01 -1.8671964801029842e-02 0
2.0721576158574795e-01 -2.2431634852576092e-02 0
-1.2457903766587759e+01 3.8251132508907149e-01 0
-4.0235034105351932e+00 6.3504377497987230e-01 0
4.9991682923866365e-01 -2.1318298846787209e-02 0
1.3209785690045109e-01 -2.8772284641935091e-02 0
-3.3430041616812205e+00 1.2455377622522520e-01 0
-8.8609751649166291e-01 2.0345390247649256e-01 0
-3.3422441359896995e+00 1.2379997618671577e-01 0
-8.8590196481818761e-01 2.0380934548361321e-01 0
4.9592379474028719e-01 -2.6249050295597275e-02 0
1.2308644368625815e-01 -2.7155098088571486e-02 0
-1.0473478111535831e+01 1.2136023112212648e+00 0
-1.4095564498789706e+00 7.1494372627578395e-01 0
3.5357054138345556e-01 -1.0757309375593627e-01 0
-9.1403620717166803e-02 -9.6887988674967482e-03 0
-2.2670224215233223e+00 6.9121617773072375e-01 0
6.2743052445517133e-01 1.8779093481028478e-01 0
-2.3165135482735910e+00 2.3900314190778724e-01 0
3.0466338683021860e-01 1.6088297658127515e-01 0
9.6167991586915302e-01 4.3008632355742833e+00 0
3.0153538795148882e+00 4.2090573467130954e-01 0
-1.4880508126974754e-01 4.4068283448312939e-01 0
1.0934875125951533e+00 4.0264126396417677e+00 0
1.3151982746468045e+00 3.2072829231339273e+00 0
1.0539349067252728e+00 2.9647423519759877e+00 0
1.7639871716506415e+00 1.1218597014325604e+00 0
3.8601889484233487e-01 -1.9815224021976061e-01 0

