{
  "Finalized": "2019-11-13T17:25:25.742",
  "Initialized": "2019-11-13T17:25:17.505",
  "Name": "",
  "Ranks": [
    {
      "Finalized": "2019-11-13T17:25:25.742",
      "Initialized": "2019-11-13T17:25:17.505",
      "StateChanges": [
        {
          "Name": "_GLOBAL",
          "State": 1,
          "Timestamp": 0
        },
        {
          "Name": "_GLOBAL",
          "State": 0,
          "Timestamp": 8237
        },
        {
          "Name": "advance",
          "State": 1,
          "Timestamp": 632
        },
        {
          "Name": "advance",
          "State": 0,
          "Timestamp": 746
        },
        {
          "Name": "advance",
          "State": 1,
          "Timestamp": 1049
        },
        {
          "Name": "advance",
          "State": 0,
          "Timestamp": 1149
        },
        {
          "Name": "advance",
          "State": 1,
          "Timestamp": 1445
        },
        {
          "Name": "advance",
          "State": 0,
          "Timestamp": 1546
        },
        {
          "Name": "advance",
          "State": 1,
          "Timestamp": 1841
        },
        {
          "Name": "advance",
          "State": 0,
          "Timestamp": 1941
        },
        {
          "Name": "advance",
          "State": 1,
          "Timestamp": 2235
        },
        {
          "Name": "advance",
          "State": 0,
          "Timestamp": 2334
        },
        {
          "Name": "advance",
          "State": 1,
          "Timestamp": 2629
        },
        {
          "Name": "advance",
          "State": 0,
          "Timestamp": 2728
        },
        {
          "Name": "advance",
          "State": 1,
          "Timestamp": 3023
        },
        {
          "Name": "advance",
          "State": 0,
          "Timestamp": 3122
        },
        {
          "Name": "advance",
          "State": 1,
          "Timestamp": 3419
        },
        {
          "Name": "advance",
          "State": 0,
          "Timestamp": 3519
        },
        {
          "Name": "advance",
          "State": 1,
          "Timestamp": 3821
        },
        {
          "Name": "advance",
          "State": 0,
          "Timestamp": 3920
        },
        {
          "Name": "advance",
          "State": 1,
          "Timestamp": 4217
        },
        {
          "Name": "advance",
          "State": 0,
          "Timestamp": 4316
        },
        {
          "Name": "advance",
          "State": 1,
          "Timestamp": 4615
        },
        {
          "Name": "advance",
          "State": 0,
          "Timestamp": 4716
        },
        {
          "Name": "advance",
          "State": 1,
          "Timestamp": 5012
        },
        {
          "Name": "advance",
          "State": 0,
          "Timestamp": 5111
        },
        {
          "Name": "advance",
          "State": 1,
          "Timestamp": 5409
        },
        {
          "Name": "advance",
          "State": 0,
          "Timestamp": 5509
        },
        {
          "Name": "advance",
          "State": 1,
          "Timestamp": 5812
        },
        {
          "Name": "advance",
          "State": 0,
          "Timestamp": 5911
        },
        {
          "Name": "advance",
          "State": 1,
          "Timestamp": 6209
        },
        {
          "Name": "advance",
          "State": 0,
          "Timestamp": 6309
        },
        {
          "Name": "advance",
          "State": 1,
          "Timestamp": 6609
        },
        {
          "Name": "advance",
          "State": 0,
          "Timestamp": 6710
        },
        {
          "Name": "advance",
          "State": 1,
          "Timestamp": 7008
        },
        {
          "Name": "advance",
          "State": 0,
          "Timestamp": 7108
        },
        {
          "Name": "advance",
          "State": 1,
          "Timestamp": 7407
        },
        {
          "Name": "advance",
          "State": 0,
          "Timestamp": 7507
        },
        {
          "Name": "advance",
          "State": 1,
          "Timestamp": 7806
        },
        {
          "Name": "advance",
          "State": 0,
          "Timestamp": 7912
        },
        {
          "Name": "advance",
          "State": 1,
          "Timestamp": 8207
        },
        {
          "Name": "advance",
          "State": 0,
          "Timestamp": 8208
        },
        {
          "Name": "advance/cpl.computeQuasiNewtonUpdate",
          "State": 1,
          "Timestamp": 632
        },
        {
          "Name": "advance/cpl.computeQuasiNewtonUpdate",
          "State": 0,
          "Timestamp": 632
        },
        {
          "Name": "advance/cpl.computeQuasiNewtonUpdate",
          "State": 1,
          "Timestamp": 1050
        },
        {
          "Name": "advance/cpl.computeQuasiNewtonUpdate",
          "State": 0,
          "Timestamp": 1050
        },
        {
          "Name": "advance/cpl.computeQuasiNewtonUpdate",
          "State": 1,
          "Timestamp": 1445
        },
        {
          "Name": "advance/cpl.computeQuasiNewtonUpdate",
          "State": 0,
          "Timestamp": 1445
        },
        {
          "Name": "advance/cpl.computeQuasiNewtonUpdate",
          "State": 1,
          "Timestamp": 1842
        },
        {
          "Name": "advance/cpl.computeQuasiNewtonUpdate",
          "State": 0,
          "Timestamp": 1842
        },
        {
          "Name": "advance/cpl.computeQuasiNewtonUpdate",
          "State": 1,
          "Timestamp": 2235
        },
        {
          "Name": "advance/cpl.computeQuasiNewtonUpdate",
          "State": 0,
          "Timestamp": 2235
        },
        {
          "Name": "advance/cpl.computeQuasiNewtonUpdate",
          "State": 1,
          "Timestamp": 2629
        },
        {
          "Name": "advance/cpl.computeQuasiNewtonUpdate",
          "State": 0,
          "Timestamp": 2629
        },
        {
          "Name": "advance/cpl.computeQuasiNewtonUpdate",
          "State": 1,
          "Timestamp": 3023
        },
        {
          "Name": "advance/cpl.computeQuasiNewtonUpdate",
          "State": 0,
          "Timestamp": 3023
        },
        {
          "Name": "advance/cpl.computeQuasiNewtonUpdate",
          "State": 1,
          "Timestamp": 3419
        },
        {
          "Name": "advance/cpl.computeQuasiNewtonUpdate",
          "State": 0,
          "Timestamp": 3419
        },
        {
          "Name": "advance/cpl.computeQuasiNewtonUpdate",
          "State": 1,
          "Timestamp": 3821
        },
        {
          "Name": "advance/cpl.computeQuasiNewtonUpdate",
          "State": 0,
          "Timestamp": 3821
        },
        {
          "Name": "advance/cpl.computeQuasiNewtonUpdate",
          "State": 1,
          "Timestamp": 4217
        },
        {
          "Name": "advance/cpl.computeQuasiNewtonUpdate",
          "State": 0,
          "Timestamp": 4217
        },
        {
          "Name": "advance/cpl.computeQuasiNewtonUpdate",
          "State": 1,
          "Timestamp": 4615
        },
        {
          "Name": "advance/cpl.computeQuasiNewtonUpdate",
          "State": 0,
          "Timestamp": 4615
        },
        {
          "Name": "advance/cpl.computeQuasiNewtonUpdate",
          "State": 1,
          "Timestamp": 5012
        },
        {
          "Name": "advance/cpl.computeQuasiNewtonUpdate",
          "State": 0,
          "Timestamp": 5012
        },
        {
          "Name": "advance/cpl.computeQuasiNewtonUpdate",
          "State": 1,
          "Timestamp": 5410
        },
        {
          "Name": "advance/cpl.computeQuasiNewtonUpdate",
          "State": 0,
          "Timestamp": 5410
        },
        {
          "Name": "advance/cpl.computeQuasiNewtonUpdate",
          "State": 1,
          "Timestamp": 5812
        },
        {
          "Name": "advance/cpl.computeQuasiNewtonUpdate",
          "State": 0,
          "Timestamp": 5812
        },
        {
          "Name": "advance/cpl.computeQuasiNewtonUpdate",
          "State": 1,
          "Timestamp": 6210
        },
        {
          "Name": "advance/cpl.computeQuasiNewtonUpdate",
          "State": 0,
          "Timestamp": 6210
        },
        {
          "Name": "advance/cpl.computeQuasiNewtonUpdate",
          "State": 1,
          "Timestamp": 6609
        },
        {
          "Name": "advance/cpl.computeQuasiNewtonUpdate",
          "State": 0,
          "Timestamp": 6609
        },
        {
          "Name": "advance/cpl.computeQuasiNewtonUpdate",
          "State": 1,
          "Timestamp": 7008
        },
        {
          "Name": "advance/cpl.computeQuasiNewtonUpdate",
          "State": 0,
          "Timestamp": 7008
        },
        {
          "Name": "advance/cpl.computeQuasiNewtonUpdate",
          "State": 1,
          "Timestamp": 7407
        },
        {
          "Name": "advance/cpl.computeQuasiNewtonUpdate",
          "State": 0,
          "Timestamp": 7407
        },
        {
          "Name": "advance/cpl.computeQuasiNewtonUpdate",
          "State": 1,
          "Timestamp": 7806
        },
        {
          "Name": "advance/cpl.computeQuasiNewtonUpdate",
          "State": 0,
          "Timestamp": 7806
        },
        {
          "Name": "configure",
          "State": 1,
          "Timestamp": 0
        },
        {
          "Name": "configure",
          "State": 0,
          "Timestamp": 0
        },
        {
          "Name": "finalize",
          "State": 1,
          "Timestamp": 8237
        },
        {
          "Name": "finalize",
          "State": 0,
          "Timestamp": 8237
        },
        {
          "Name": "initialize",
          "State": 1,
          "Timestamp": 4
        },
        {
          "Name": "initialize",
          "State": 0,
          "Timestamp": 6
        },
        {
          "Name": "initialize/m2n.acceptMasterConnection",
          "State": 1,
          "Timestamp": 4
        },
        {
          "Name": "initialize/m2n.acceptMasterConnection",
          "State": 0,
          "Timestamp": 5
        },
        {
          "Name": "initialize/m2n.acceptSlavesConnection",
          "State": 1,
          "Timestamp": 5
        },
        {
          "Name": "initialize/m2n.acceptSlavesConnection",
          "State": 0,
          "Timestamp": 5
        },
        {
          "Name": "initialize/partition.feedbackMesh.NeumannNodes",
          "State": 1,
          "Timestamp": 5
        },
        {
          "Name": "initialize/partition.feedbackMesh.NeumannNodes",
          "State": 0,
          "Timestamp": 5
        },
        {
          "Name": "initialize/partition.gatherMesh.NeumannNodes",
          "State": 1,
          "Timestamp": 5
        },
        {
          "Name": "initialize/partition.gatherMesh.NeumannNodes",
          "State": 0,
          "Timestamp": 5
        },
        {
          "Name": "initialize/partition.sendGlobalMesh.NeumannNodes",
          "State": 1,
          "Timestamp": 5
        },
        {
          "Name": "initialize/partition.sendGlobalMesh.NeumannNodes",
          "State": 0,
          "Timestamp": 5
        },
        {
          "Name": "initializeData",
          "State": 1,
          "Timestamp": 17
        },
        {
          "Name": "initializeData",
          "State": 0,
          "Timestamp": 276
        },
        {
          "Name": "solver.advance",
          "State": 1,
          "Timestamp": 746
        },
        {
          "Name": "solver.advance",
          "State": 0,
          "Timestamp": 1049
        },
        {
          "Name": "solver.advance",
          "State": 1,
          "Timestamp": 1149
        },
        {
          "Name": "solver.advance",
          "State": 0,
          "Timestamp": 1445
        },
        {
          "Name": "solver.advance",
          "State": 1,
          "Timestamp": 1546
        },
        {
          "Name": "solver.advance",
          "State": 0,
          "Timestamp": 1841
        },
        {
          "Name": "solver.advance",
          "State": 1,
          "Timestamp": 1941
        },
        {
          "Name": "solver.advance",
          "State": 0,
          "Timestamp": 2235
        },
        {
          "Name": "solver.advance",
          "State": 1,
          "Timestamp": 2334
        },
        {
          "Name": "solver.advance",
          "State": 0,
          "Timestamp": 2629
        },
        {
          "Name": "solver.advance",
          "State": 1,
          "Timestamp": 2728
        },
        {
          "Name": "solver.advance",
          "State": 0,
          "Timestamp": 3023
        },
        {
          "Name": "solver.advance",
          "State": 1,
          "Timestamp": 3122
        },
        {
          "Name": "solver.advance",
          "State": 0,
          "Timestamp": 3419
        },
        {
          "Name": "solver.advance",
          "State": 1,
          "Timestamp": 3519
        },
        {
          "Name": "solver.advance",
          "State": 0,
          "Timestamp": 3821
        },
        {
          "Name": "solver.advance",
          "State": 1,
          "Timestamp": 3920
        },
        {
          "Name": "solver.advance",
          "State": 0,
          "Timestamp": 4217
        },
        {
          "Name": "solver.advance",
          "State": 1,
          "Timestamp": 4316
        },
        {
          "Name": "solver.advance",
          "State": 0,
          "Timestamp": 4615
        },
        {
          "Name": "solver.advance",
          "State": 1,
          "Timestamp": 4716
        },
        {
          "Name": "solver.advance",
          "State": 0,
          "Timestamp": 5012
        },
        {
          "Name": "solver.advance",
          "State": 1,
          "Timestamp": 5111
        },
        {
          "Name": "solver.advance",
          "State": 0,
          "Timestamp": 5409
        },
        {
          "Name": "solver.advance",
          "State": 1,
          "Timestamp": 5509
        },
        {
          "Name": "solver.advance",
          "State": 0,
          "Timestamp": 5812
        },
        {
          "Name": "solver.advance",
          "State": 1,
          "Timestamp": 5911
        },
        {
          "Name": "solver.advance",
          "State": 0,
          "Timestamp": 6209
        },
        {
          "Name": "solver.advance",
          "State": 1,
          "Timestamp": 6309
        },
        {
          "Name": "solver.advance",
          "State": 0,
          "Timestamp": 6609
        },
        {
          "Name": "solver.advance",
          "State": 1,
          "Timestamp": 6710
        },
        {
          "Name": "solver.advance",
          "State": 0,
          "Timestamp": 7008
        },
        {
          "Name": "solver.advance",
          "State": 1,
          "Timestamp": 7108
        },
        {
          "Name": "solver.advance",
          "State": 0,
          "Timestamp": 7407
        },
        {
          "Name": "solver.advance",
          "State": 1,
          "Timestamp": 7507
        },
        {
          "Name": "solver.advance",
          "State": 0,
          "Timestamp": 7806
        },
        {
          "Name": "solver.advance",
          "State": 1,
          "Timestamp": 7912
        },
        {
          "Name": "solver.advance",
          "State": 0,
          "Timestamp": 8207
        },
        {
          "Name": "solver.advance",
          "State": 1,
          "Timestamp": 8208
        },
        {
          "Name": "solver.advance",
          "State": 0,
          "Timestamp": 8237
        },
        {
          "Name": "solver.initialize",
          "State": 1,
          "Timestamp": 0
        },
        {
          "Name": "solver.initialize",
          "State": 2,
          "Timestamp": 4
        },
        {
          "Name": "solver.initialize",
          "State": 1,
          "Timestamp": 6
        },
        {
          "Name": "solver.initialize",
          "State": 2,
          "Timestamp": 17
        },
        {
          "Name": "solver.initialize",
          "State": 1,
          "Timestamp": 276
        },
        {
          "Name": "solver.initialize",
          "State": 0,
          "Timestamp": 632
        }
      ],
      "Timings": {
        "_GLOBAL": {
          "Count": 1,
          "Data": {},
          "Max": 8237,
          "Min": 8237,
          "TimeRatio": 1.0,
          "Total": 8237
        },
        "advance": {
          "Count": 20,
          "Data": {},
          "Max": 114,
          "Min": 0,
          "TimeRatio": 0.23285176641981303,
          "Total": 1918
        },
        "advance/cpl.computeQuasiNewtonUpdate": {
          "Count": 19,
          "Data": {},
          "Max": 0,
          "Min": 0,
          "TimeRatio": 0.0,
          "Total": 0
        },
        "configure": {
          "Count": 1,
          "Data": {},
          "Max": 0,
          "Min": 0,
          "TimeRatio": 0.0,
          "Total": 0
        },
        "finalize": {
          "Count": 1,
          "Data": {},
          "Max": 0,
          "Min": 0,
          "TimeRatio": 0.0,
          "Total": 0
        },
        "initialize": {
          "Count": 1,
          "Data": {},
          "Max": 1,
          "Min": 1,
          "TimeRatio": 0.00012140342357654485,
          "Total": 1
        },
        "initialize/m2n.acceptMasterConnection": {
          "Count": 1,
          "Data": {},
          "Max": 1,
          "Min": 1,
          "TimeRatio": 0.00012140342357654485,
          "Total": 1
        },
        "initialize/m2n.acceptSlavesConnection": {
          "Count": 1,
          "Data": {},
          "Max": 0,
          "Min": 0,
          "TimeRatio": 0.0,
          "Total": 0
        },
        "initialize/partition.feedbackMesh.NeumannNodes": {
          "Count": 1,
          "Data": {},
          "Max": 0,
          "Min": 0,
          "TimeRatio": 0.0,
          "Total": 0
        },
        "initialize/partition.gatherMesh.NeumannNodes": {
          "Count": 1,
          "Data": {},
          "Max": 0,
          "Min": 0,
          "TimeRatio": 0.0,
          "Total": 0
        },
        "initialize/partition.sendGlobalMesh.NeumannNodes": {
          "Count": 1,
          "Data": {},
          "Max": 0,
          "Min": 0,
          "TimeRatio": 0.0,
          "Total": 0
        },
        "initializeData": {
          "Count": 1,
          "Data": {},
          "Max": 258,
          "Min": 258,
          "TimeRatio": 0.031322083282748575,
          "Total": 258
        },
        "solver.advance": {
          "Count": 20,
          "Data": {},
          "Max": 302,
          "Min": 29,
          "TimeRatio": 0.6902998664562341,
          "Total": 5686
        },
        "solver.initialize": {
          "Count": 1,
          "Data": {},
          "Max": 372,
          "Min": 372,
          "TimeRatio": 0.045162073570474685,
          "Total": 372
        }
      }
    }
  ]
}
