# vtk DataFile Version 2.0

ASCII

DATASET UNSTRUCTURED_GRID

POINTS 106 float 

-5.0000000000000003e-02  0.0000000000000000e+00  0.0000000000000000e+00
5.0000000000000003e-02  0.0000000000000000e+00  0.0000000000000000e+00
-5.0000000000000003e-02  2.0000000000000000e-02  0.0000000000000000e+00
5.0000000000000003e-02  2.0000000000000000e-02  0.0000000000000000e+00
-5.0000000000000003e-02  4.0000000000000001e-02  0.0000000000000000e+00
5.0000000000000003e-02  4.0000000000000001e-02  0.0000000000000000e+00
-5.0000000000000003e-02  5.9999999999999998e-02  0.0000000000000000e+00
5.0000000000000003e-02  5.9999999999999998e-02  0.0000000000000000e+00
-5.0000000000000003e-02  8.0000000000000002e-02  0.0000000000000000e+00
5.0000000000000003e-02  8.0000000000000002e-02  0.0000000000000000e+00
-5.0000000000000003e-02  1.0000000000000001e-01  0.0000000000000000e+00
5.0000000000000003e-02  1.0000000000000001e-01  0.0000000000000000e+00
-5.0000000000000003e-02  1.2000000000000000e-01  0.0000000000000000e+00
5.0000000000000003e-02  1.2000000000000000e-01  0.0000000000000000e+00
-5.0000000000000003e-02  1.4000000000000001e-01  0.0000000000000000e+00
5.0000000000000003e-02  1.4000000000000001e-01  0.0000000000000000e+00
-5.0000000000000003e-02  1.6000000000000000e-01  0.0000000000000000e+00
5.0000000000000003e-02  1.6000000000000000e-01  0.0000000000000000e+00
-5.0000000000000003e-02  1.7999999999999999e-01  0.0000000000000000e+00
5.0000000000000003e-02  1.7999999999999999e-01  0.0000000000000000e+00
-5.0000000000000003e-02  2.0000000000000001e-01  0.0000000000000000e+00
5.0000000000000003e-02  2.0000000000000001e-01  0.0000000000000000e+00
-5.0000000000000003e-02  2.2000000000000000e-01  0.0000000000000000e+00
5.0000000000000003e-02  2.2000000000000000e-01  0.0000000000000000e+00
-5.0000000000000003e-02  2.3999999999999999e-01  0.0000000000000000e+00
5.0000000000000003e-02  2.3999999999999999e-01  0.0000000000000000e+00
-5.0000000000000003e-02  2.6000000000000001e-01  0.0000000000000000e+00
5.0000000000000003e-02  2.6000000000000001e-01  0.0000000000000000e+00
-5.0000000000000003e-02  2.8000000000000003e-01  0.0000000000000000e+00
5.0000000000000003e-02  2.8000000000000003e-01  0.0000000000000000e+00
-5.0000000000000003e-02  2.9999999999999999e-01  0.0000000000000000e+00
5.0000000000000003e-02  2.9999999999999999e-01  0.0000000000000000e+00
-5.0000000000000003e-02  3.2000000000000001e-01  0.0000000000000000e+00
5.0000000000000003e-02  3.2000000000000001e-01  0.0000000000000000e+00
-5.0000000000000003e-02  3.4000000000000002e-01  0.0000000000000000e+00
5.0000000000000003e-02  3.4000000000000002e-01  0.0000000000000000e+00
-5.0000000000000003e-02  3.5999999999999999e-01  0.0000000000000000e+00
5.0000000000000003e-02  3.5999999999999999e-01  0.0000000000000000e+00
-5.0000000000000003e-02  3.8000000000000000e-01  0.0000000000000000e+00
5.0000000000000003e-02  3.8000000000000000e-01  0.0000000000000000e+00
-5.0000000000000003e-02  4.0000000000000002e-01  0.0000000000000000e+00
5.0000000000000003e-02  4.0000000000000002e-01  0.0000000000000000e+00
-5.0000000000000003e-02  4.1999999999999998e-01  0.0000000000000000e+00
5.0000000000000003e-02  4.1999999999999998e-01  0.0000000000000000e+00
-5.0000000000000003e-02  4.4000000000000000e-01  0.0000000000000000e+00
5.0000000000000003e-02  4.4000000000000000e-01  0.0000000000000000e+00
-5.0000000000000003e-02  4.6000000000000002e-01  0.0000000000000000e+00
5.0000000000000003e-02  4.6000000000000002e-01  0.0000000000000000e+00
-5.0000000000000003e-02  4.7999999999999998e-01  0.0000000000000000e+00
5.0000000000000003e-02  4.7999999999999998e-01  0.0000000000000000e+00
-5.0000000000000003e-02  5.0000000000000000e-01  0.0000000000000000e+00
5.0000000000000003e-02  5.0000000000000000e-01  0.0000000000000000e+00
-5.0000000000000003e-02  5.2000000000000002e-01  0.0000000000000000e+00
5.0000000000000003e-02  5.2000000000000002e-01  0.0000000000000000e+00
-5.0000000000000003e-02  5.4000000000000004e-01  0.0000000000000000e+00
5.0000000000000003e-02  5.4000000000000004e-01  0.0000000000000000e+00
-5.0000000000000003e-02  5.6000000000000005e-01  0.0000000000000000e+00
5.0000000000000003e-02  5.6000000000000005e-01  0.0000000000000000e+00
-5.0000000000000003e-02  5.7999999999999996e-01  0.0000000000000000e+00
5.0000000000000003e-02  5.7999999999999996e-01  0.0000000000000000e+00
-5.0000000000000003e-02  5.9999999999999998e-01  0.0000000000000000e+00
5.0000000000000003e-02  5.9999999999999998e-01  0.0000000000000000e+00
-5.0000000000000003e-02  6.2000000000000000e-01  0.0000000000000000e+00
5.0000000000000003e-02  6.2000000000000000e-01  0.0000000000000000e+00
-5.0000000000000003e-02  6.4000000000000001e-01  0.0000000000000000e+00
5.0000000000000003e-02  6.4000000000000001e-01  0.0000000000000000e+00
-5.0000000000000003e-02  6.6000000000000003e-01  0.0000000000000000e+00
5.0000000000000003e-02  6.6000000000000003e-01  0.0000000000000000e+00
-5.0000000000000003e-02  6.8000000000000005e-01  0.0000000000000000e+00
5.0000000000000003e-02  6.8000000000000005e-01  0.0000000000000000e+00
-5.0000000000000003e-02  6.9999999999999996e-01  0.0000000000000000e+00
5.0000000000000003e-02  6.9999999999999996e-01  0.0000000000000000e+00
-5.0000000000000003e-02  7.1999999999999997e-01  0.0000000000000000e+00
5.0000000000000003e-02  7.1999999999999997e-01  0.0000000000000000e+00
-5.0000000000000003e-02  7.3999999999999999e-01  0.0000000000000000e+00
5.0000000000000003e-02  7.3999999999999999e-01  0.0000000000000000e+00
-5.0000000000000003e-02  7.6000000000000001e-01  0.0000000000000000e+00
5.0000000000000003e-02  7.6000000000000001e-01  0.0000000000000000e+00
-5.0000000000000003e-02  7.8000000000000003e-01  0.0000000000000000e+00
5.0000000000000003e-02  7.8000000000000003e-01  0.0000000000000000e+00
-5.0000000000000003e-02  8.0000000000000004e-01  0.0000000000000000e+00
5.0000000000000003e-02  8.0000000000000004e-01  0.0000000000000000e+00
-5.0000000000000003e-02  8.1999999999999995e-01  0.0000000000000000e+00
5.0000000000000003e-02  8.1999999999999995e-01  0.0000000000000000e+00
-5.0000000000000003e-02  8.3999999999999997e-01  0.0000000000000000e+00
5.0000000000000003e-02  8.3999999999999997e-01  0.0000000000000000e+00
-5.0000000000000003e-02  8.5999999999999999e-01  0.0000000000000000e+00
5.0000000000000003e-02  8.5999999999999999e-01  0.0000000000000000e+00
-5.0000000000000003e-02  8.8000000000000000e-01  0.0000000000000000e+00
5.0000000000000003e-02  8.8000000000000000e-01  0.0000000000000000e+00
-5.0000000000000003e-02  9.0000000000000002e-01  0.0000000000000000e+00
5.0000000000000003e-02  9.0000000000000002e-01  0.0000000000000000e+00
-5.0000000000000003e-02  9.2000000000000004e-01  0.0000000000000000e+00
5.0000000000000003e-02  9.2000000000000004e-01  0.0000000000000000e+00
-5.0000000000000003e-02  9.3999999999999995e-01  0.0000000000000000e+00
5.0000000000000003e-02  9.3999999999999995e-01  0.0000000000000000e+00
-5.0000000000000003e-02  9.5999999999999996e-01  0.0000000000000000e+00
5.0000000000000003e-02  9.5999999999999996e-01  0.0000000000000000e+00
-5.0000000000000003e-02  9.7999999999999998e-01  0.0000000000000000e+00
5.0000000000000003e-02  9.7999999999999998e-01  0.0000000000000000e+00
-5.0000000000000003e-02  1.0000000000000000e+00  0.0000000000000000e+00
-3.0000000000000002e-02  1.0000000000000000e+00  0.0000000000000000e+00
-1.0000000000000002e-02  1.0000000000000000e+00  0.0000000000000000e+00
1.0000000000000009e-02  1.0000000000000000e+00  0.0000000000000000e+00
2.9999999999999999e-02  1.0000000000000000e+00  0.0000000000000000e+00
5.0000000000000003e-02  1.0000000000000000e+00  0.0000000000000000e+00

CELLS 0 0


CELL_TYPES 0


POINT_DATA 106

VECTORS VertexNormals float

0.0000000000000000e+00 0.0000000000000000e+00 0
0.0000000000000000e+00 0.0000000000000000e+00 0
0.0000000000000000e+00 0.0000000000000000e+00 0
0.0000000000000000e+00 0.0000000000000000e+00 0
0.0000000000000000e+00 0.0000000000000000e+00 0
0.0000000000000000e+00 0.0000000000000000e+00 0
0.0000000000000000e+00 0.0000000000000000e+00 0
0.0000000000000000e+00 0.0000000000000000e+00 0
0.0000000000000000e+00 0.0000000000000000e+00 0
0.0000000000000000e+00 0.0000000000000000e+00 0
0.0000000000000000e+00 0.0000000000000000e+00 0
0.0000000000000000e+00 0.0000000000000000e+00 0
0.0000000000000000e+00 0.0000000000000000e+00 0
0.0000000000000000e+00 0.0000000000000000e+00 0
0.0000000000000000e+00 0.0000000000000000e+00 0
0.0000000000000000e+00 0.0000000000000000e+00 0
0.0000000000000000e+00 0.0000000000000000e+00 0
0.0000000000000000e+00 0.0000000000000000e+00 0
0.0000000000000000e+00 0.0000000000000000e+00 0
0.0000000000000000e+00 0.0000000000000000e+00 0
0.0000000000000000e+00 0.0000000000000000e+00 0
0.0000000000000000e+00 0.0000000000000000e+00 0
0.0000000000000000e+00 0.0000000000000000e+00 0
0.0000000000000000e+00 0.0000000000000000e+00 0
0.0000000000000000e+00 0.0000000000000000e+00 0
0.0000000000000000e+00 0.0000000000000000e+00 0
0.0000000000000000e+00 0.0000000000000000e+00 0
0.0000000000000000e+00 0.0000000000000000e+00 0
0.0000000000000000e+00 0.0000000000000000e+00 0
0.0000000000000000e+00 0.0000000000000000e+00 0
0.0000000000000000e+00 0.0000000000000000e+00 0
0.0000000000000000e+00 0.0000000000000000e+00 0
0.0000000000000000e+00 0.0000000000000000e+00 0
0.0000000000000000e+00 0.0000000000000000e+00 0
0.0000000000000000e+00 0.0000000000000000e+00 0
0.0000000000000000e+00 0.0000000000000000e+00 0
0.0000000000000000e+00 0.0000000000000000e+00 0
0.0000000000000000e+00 0.0000000000000000e+00 0
0.0000000000000000e+00 0.0000000000000000e+00 0
0.0000000000000000e+00 0.0000000000000000e+00 0
0.0000000000000000e+00 0.0000000000000000e+00 0
0.0000000000000000e+00 0.0000000000000000e+00 0
0.0000000000000000e+00 0.0000000000000000e+00 0
0.0000000000000000e+00 0.0000000000000000e+00 0
0.0000000000000000e+00 0.0000000000000000e+00 0
0.0000000000000000e+00 0.0000000000000000e+00 0
0.0000000000000000e+00 0.0000000000000000e+00 0
0.0000000000000000e+00 0.0000000000000000e+00 0
0.0000000000000000e+00 0.0000000000000000e+00 0
0.0000000000000000e+00 0.0000000000000000e+00 0
0.0000000000000000e+00 0.0000000000000000e+00 0
0.0000000000000000e+00 0.0000000000000000e+00 0
0.0000000000000000e+00 0.0000000000000000e+00 0
0.0000000000000000e+00 0.0000000000000000e+00 0
0.0000000000000000e+00 0.0000000000000000e+00 0
0.0000000000000000e+00 0.0000000000000000e+00 0
0.0000000000000000e+00 0.0000000000000000e+00 0
0.0000000000000000e+00 0.0000000000000000e+00 0
0.0000000000000000e+00 0.0000000000000000e+00 0
0.0000000000000000e+00 0.0000000000000000e+00 0
0.0000000000000000e+00 0.0000000000000000e+00 0
0.0000000000000000e+00 0.0000000000000000e+00 0
0.0000000000000000e+00 0.0000000000000000e+00 0
0.0000000000000000e+00 0.0000000000000000e+00 0
0.0000000000000000e+00 0.0000000000000000e+00 0
0.0000000000000000e+00 0.0000000000000000e+00 0
0.0000000000000000e+00 0.0000000000000000e+00 0
0.0000000000000000e+00 0.0000000000000000e+00 0
0.0000000000000000e+00 0.0000000000000000e+00 0
0.0000000000000000e+00 0.0000000000000000e+00 0
0.0000000000000000e+00 0.0000000000000000e+00 0
0.0000000000000000e+00 0.0000000000000000e+00 0
0.0000000000000000e+00 0.0000000000000000e+00 0
0.0000000000000000e+00 0.0000000000000000e+00 0
0.0000000000000000e+00 0.0000000000000000e+00 0
0.0000000000000000e+00 0.0000000000000000e+00 0
0.0000000000000000e+00 0.0000000000000000e+00 0
0.0000000000000000e+00 0.0000000000000000e+00 0
0.0000000000000000e+00 0.0000000000000000e+00 0
0.0000000000000000e+00 0.0000000000000000e+00 0
0.0000000000000000e+00 0.0000000000000000e+00 0
0.0000000000000000e+00 0.0000000000000000e+00 0
0.0000000000000000e+00 0.0000000000000000e+00 0
0.0000000000000000e+00 0.0000000000000000e+00 0
0.0000000000000000e+00 0.0000000000000000e+00 0
0.0000000000000000e+00 0.0000000000000000e+00 0
0.0000000000000000e+00 0.0000000000000000e+00 0
0.0000000000000000e+00 0.0000000000000000e+00 0
0.0000000000000000e+00 0.0000000000000000e+00 0
0.0000000000000000e+00 0.0000000000000000e+00 0
0.0000000000000000e+00 0.0000000000000000e+00 0
0.0000000000000000e+00 0.0000000000000000e+00 0
0.0000000000000000e+00 0.0000000000000000e+00 0
0.0000000000000000e+00 0.0000000000000000e+00 0
0.0000000000000000e+00 0.0000000000000000e+00 0
0.0000000000000000e+00 0.0000000000000000e+00 0
0.0000000000000000e+00 0.0000000000000000e+00 0
0.0000000000000000e+00 0.0000000000000000e+00 0
0.0000000000000000e+00 0.0000000000000000e+00 0
0.0000000000000000e+00 0.0000000000000000e+00 0
0.0000000000000000e+00 0.0000000000000000e+00 0
0.0000000000000000e+00 0.0000000000000000e+00 0
0.0000000000000000e+00 0.0000000000000000e+00 0
0.0000000000000000e+00 0.0000000000000000e+00 0
0.0000000000000000e+00 0.0000000000000000e+00 0
0.0000000000000000e+00 0.0000000000000000e+00 0

VECTORS Displacements1 float
-5.2475588661420156e-17 2.9316656592212470e-17 0
-7.1201081045043967e-23 2.5847390526576145e-24 0
9.4757255821353089e-07 1.0202997057695683e-07 0
9.2276960975243192e-07 -5.6811472407992858e-08 0
1.4176357197215917e-06 1.2585234704716427e-07 0
1.3510880650068915e-06 -7.0823197073691587e-08 0
1.4488865689074853e-06 9.8344697372023684e-08 0
1.3905609311783751e-06 -5.0333986911565418e-08 0
1.3221839776290378e-06 8.3799389412798585e-08 0
1.2858385338614691e-06 -6.0607085027741982e-08 0
2.4159961026130760e-06 3.2633044560105618e-08 0
2.2450554149834838e-06 1.3001372690978147e-07 0
1.2903782871619257e-06 -1.2528397642251469e-07 0
1.2546445944220416e-06 1.4153433419804853e-07 0
1.4751822091673091e-06 -7.1360630316774800e-09 0
1.4170640131229326e-06 8.4544764838539349e-08 0
1.4820968802758376e-06 3.0493853611907471e-08 0
1.4262291258233957e-06 5.4830676221732201e-08 0
1.3092883299808731e-06 9.3104255238920872e-08 0
1.2785254018782146e-06 -3.5447446008894994e-08 0
2.4237713040151476e-06 6.9820984359124098e-08 0
2.2728836541390084e-06 1.4626600610930210e-07 0
1.3124199006873718e-06 -9.4603986122430043e-08 0
1.2769208621828527e-06 1.4602900691788393e-07 0
1.4936718093661242e-06 1.0615788323100680e-08 0
1.4458054202106073e-06 1.0707181985939509e-07 0
1.4978751495521076e-06 4.3836089655565260e-08 0
1.4561334250788221e-06 8.3346697283681165e-08 0
1.3297359519123087e-06 1.0297159353755008e-07 0
1.3108652229550524e-06 -8.2495109320775884e-09 0
2.4495357463245261e-06 7.6530512185534417e-08 0
2.3534239026741805e-06 2.0543490923048944e-07 0
1.3394277170662940e-06 -8.9434732322984410e-08 0
1.3110336840845134e-06 1.8602761959163631e-07 0
1.5235978903915574e-06 1.9031046357152142e-08 0
1.5000734113846841e-06 1.4711011911402006e-07 0
1.5318173769596737e-06 5.5073969932704130e-08 0
1.5167140279000267e-06 1.2209078286978182e-07 0
1.3680490311299232e-06 1.1622079411085451e-07 0
1.3687647080627133e-06 2.1342474550511947e-08 0
2.4942017548428219e-06 9.5758090788869417e-08 0
2.4924046504974190e-06 2.6679857425497184e-07 0
1.3846217607775936e-06 -7.4117931202534475e-08 0
1.3704255329788073e-06 2.2685483599269909e-07 0
1.5711193242282380e-06 4.0018892407330258e-08 0
1.5859827227990334e-06 1.8578751729009964e-07 0
1.5833995041031255e-06 8.0656373548434756e-08 0
1.6093914382241855e-06 1.5836561437117373e-07 0
1.4242106551986907e-06 1.4487604110572170e-07 0
1.4535727715679898e-06 4.4938928959939792e-08 0
2.5592415345777956e-06 1.3934842814014364e-07 0
2.6966878543841038e-06 3.2566202390623150e-07 0
1.4506543737030195e-06 -4.2854574420989740e-08 0
1.4584957749716931e-06 2.6750588243795927e-07 0
1.6377400510646057e-06 7.9715064178097177e-08 0
1.7087073989296320e-06 2.2222052543269891e-07 0
1.6549368034086231e-06 1.2597978840671604e-07 0
1.7404987070927632e-06 1.9196735477216445e-07 0
1.5021942227010513e-06 1.9134693553304199e-07 0
1.5720791228760248e-06 6.3339390425477495e-08 0
2.6438982131961334e-06 2.0814851512174966e-07 0
2.9808054994467828e-06 3.8669237908783470e-07 0
1.5434709197315546e-06 1.1607918630102721e-08 0
1.5828387241795885e-06 3.0790780883203242e-07 0
1.7381588082018372e-06 1.4729625306019335e-07 0
1.8843881174842056e-06 2.5569715158378700e-07 0
1.7647170305920675e-06 2.0564520752495962e-07 0
1.9298345828229251e-06 2.1988188777802401e-07 0
1.6218292096602953e-06 2.8299515027863897e-07 0
1.7455020112585128e-06 6.6447549748241780e-08 0
2.8026056923708653e-06 3.5271103307893116e-07 0
3.4022027722421397e-06 4.3755870350211908e-07 0
1.6928970467406441e-06 1.0818848818916326e-07 0
1.7741669134441807e-06 3.4720914642917293e-07 0
1.8880939196007664e-06 2.7005695516426848e-07 0
2.1460338899280287e-06 2.8230883599845941e-07 0
1.9333791950778140e-06 3.4253908048425566e-07 0
2.2169109651177475e-06 2.4092031976302365e-07 0
1.8172720732521710e-06 4.1343216566940096e-07 0
2.0182510879886695e-06 6.6268438136981370e-08 0
3.0348355318322679e-06 5.4983962088459150e-07 0
4.0305125990989388e-06 5.1904878693445010e-07 0
1.9741728510826810e-06 3.7706811391829728e-07 0
2.0741897853850545e-06 3.6896857892495133e-07 0
2.3116543591333793e-06 7.2855895826059677e-07 0
2.6173479787880516e-06 2.6005881168725515e-07 0
2.4881460640779560e-06 1.1070350113176873e-06 0
2.7404521372984082e-06 1.3994247100058288e-07 0
2.4714410974606335e-06 1.7171623662739827e-06 0
2.5196549665014521e-06 -2.7575925342883178e-07 0
4.2439551596649149e-06 2.8842253417731850e-06 0
5.3596773539510181e-06 -1.1273590640294808e-07 0
3.1476250035808231e-06 3.5084701982834020e-06 0
2.9012099364655733e-06 -8.6689511758591766e-07 0
4.5000749198544314e-06 5.6382017603871196e-06 0
4.5962825735368797e-06 -2.0782848434860777e-06 0
6.5948122903020370e-06 7.8606077253276617e-06 0
6.5366986574375350e-06 -3.4174585962051891e-06 0
1.1567787457675992e-05 1.0503230097127461e-05 0
1.0813278192840227e-05 -4.2700700324253026e-06 0
1.4616621445464865e-05 1.0593124730659139e-05 0
1.4600871074819064e-05 7.0829485922378872e-06 0
1.3258107484818943e-05 3.8484053704089205e-06 0
1.2774054288143357e-05 1.5685556324197862e-06 0
1.3427169901927177e-05 -1.3521329957424791e-06 0
1.3077009355356086e-05 -4.9433396655483445e-06 0

VECTORS Forces1 float
-1.4861403821778282e-01 9.1272352327844905e-02 0
-1.0630233373946620e-01 -6.1314646993362303e-02 0
2.0138464219456358e+00 -1.1193856054965485e+00 0
1.4635382959346739e+00 8.1147064109695799e-01 0
2.2057685187202090e+00 -3.4338753231729380e-01 0
1.6048795474576667e+00 2.5136187677957234e-01 0
1.4037111819821912e+00 5.7130711546736303e-02 0
1.0210989116229650e+00 -4.0342128566749548e-02 0
-2.1162506860205227e-01 -7.8398672539054613e-03 0
-1.5425135559903053e-01 5.4921873266021836e-03 0
5.3832533460311609e+00 -1.2023501269877936e-03 0
3.9165128735687018e+00 2.5732309579226825e-02 0
-2.2795971394012221e-01 -2.5021334586598244e-04 0
-1.6651560707959234e-01 -1.8782673030218818e-03 0
1.5313311235878520e+00 -1.0980164848326361e-03 0
1.1173096313414010e+00 1.5366388761273012e-02 0
1.5314510438500326e+00 -1.1302413322504649e-03 0
1.1174240831855460e+00 1.5400829879835806e-02 0
-2.2814748690567535e-01 -7.9624498002397548e-05 0
-1.6667703347778867e-01 -2.1253929367514436e-03 0
5.3943733070745150e+00 -6.3508435659846482e-03 0
3.9617631908507795e+00 8.9002252910923826e-02 0
-2.2802907850965629e-01 6.7654271431498886e-05 0
-1.6950520960616314e-01 -4.9718824482422189e-03 0
1.5308344803206424e+00 -2.0973963151694518e-03 0
1.1374879893604646e+00 3.5415672794781125e-02 0
1.5308343562449482e+00 -2.0986113814365228e-03 0
1.1375202804174618e+00 3.5436032472516844e-02 0
-2.2800969715165045e-01 5.3177810170152295e-05 0
-1.6969568391398562e-01 -5.0977901851575226e-03 0
5.3891795581640860e+00 -2.6401271006707685e-03 0
4.0691225382565124e+00 1.5841001456079648e-01 0
-2.2751613416282671e-01 -4.1518225493533445e-04 0
-1.7541939740312212e-01 -7.8159910474585904e-03 0
1.5275136815084420e+00 1.1855041106887656e-03 0
1.1778027451617923e+00 5.4622574241555907e-02 0
1.5275074200803740e+00 1.1846004105406289e-03 0
1.1778522700799787e+00 5.4645096517143499e-02 0
-2.2748255040539261e-01 -4.7395007446129108e-04 0
-1.7575729699892401e-01 -7.9274986116081598e-03 0
5.3689406254570455e+00 1.7007423524279593e-02 0
4.2466516289245417e+00 2.2510942590055266e-01 0
-2.2639043255464122e-01 -1.6905309412931684e-03 0
-1.8453074892852822e-01 -1.0524635659436158e-02 0
1.5200134396715597e+00 9.6484664076974622e-03 0
1.2395318414483727e+00 7.3059234786533075e-02 0
1.5199996659104473e+00 9.6500730074682625e-03 0
1.2396016671163612e+00 7.3084153746743305e-02 0
-2.2632423094732781e-01 -1.8184971021053000e-03 0
-1.8503001495361890e-01 -1.0613673144221989e-02 0
5.3342471820495314e+00 6.5705874872202252e-02 0
4.5079887253567277e+00 2.8539603418863296e-01 0
-2.2418055905940568e-01 -4.5930311035207120e-03 0
-1.9738700937460371e-01 -1.2857501304054043e-02 0
1.5051620286492644e+00 2.8942926297692816e-02 0
1.3264158243331268e+00 8.9144419703095598e-02 0
1.5051426362152251e+00 2.8941705547536497e-02 0
1.3265122153950955e+00 8.9177257910757798e-02 0
-2.2410762744717247e-01 -4.7958956631788934e-03 0
-1.9811527500737605e-01 -1.2928097789116884e-02 0
5.2690829028569874e+00 1.3502492353234055e-01 0
4.8701712572119753e+00 3.4955008319708653e-01 0
-2.2230405515383825e-01 -8.0237141609820935e-03 0
-2.1610224514049542e-01 -1.5653203431535093e-02 0
1.4927410464032917e+00 5.1170032152627713e-02 0
1.4527892081561784e+00 1.0882926491994810e-01 0
1.4927024715436339e+00 5.1170707802284034e-02 0
1.4529125264879443e+00 1.0887143014419298e-01 0
-2.2220411932536685e-01 -8.4773110240921826e-03 0
-2.1717013629895834e-01 -1.5644885776228083e-02 0
5.2372849003023099e+00 3.0611466084327615e-01 0
5.4114214927815798e+00 3.8973324706870693e-01 0
-2.1753186236362207e-01 -1.8966204896659056e-02 0
-2.4208844192770260e-01 -1.6306298453056978e-02 0
1.4597223573541425e+00 1.2361580003900895e-01 0
1.6271267586013041e+00 1.1457073442663972e-01 0
1.4596334771673276e+00 1.2351511437254852e-01 0
1.6272296154943777e+00 1.1465834405480603e-01 0
-2.1821238454112382e-01 -1.9716662000325569e-02 0
-2.4436323482885314e-01 -1.6303119663636671e-02 0
5.1406384729351817e+00 4.0507639734213829e-01 0
6.1984465349143969e+00 5.1573863230686423e-01 0
-2.3503929254877157e-01 -2.2851639951058728e-02 0
-2.9643518512277117e-01 -2.3061121379083921e-02 0
1.5716832842940531e+00 1.3939590548459338e-01 0
1.9851028664113013e+00 1.6363561169782606e-01 0
1.5712320998613332e+00 1.3895362992577812e-01 0
1.9848794905273834e+00 1.6384620878145834e-01 0
-2.3710591439379594e-01 -2.7374259363570443e-02 0
-3.0194343223668063e-01 -2.1180423779125622e-02 0
5.9504945736710262e+00 1.4820830146631909e+00 0
8.0832870413987994e+00 2.5805840522584295e-01 0
-2.5340877005953472e-01 -1.2263151896617629e-01 0
-4.0597718489916212e-01 1.9113163869888084e-02 0
1.8121982676364368e+00 8.0160957630216623e-01 0
2.8260127183770516e+00 -4.0544492723016447e-02 0
1.2601188614263137e+00 4.6617152476637336e-01 0
2.2100216514206372e+00 -4.2398342412150500e-02 0
5.2556136551626382e+00 3.1122291505746880e+00 0
5.6742121248124686e+00 1.8086548109105566e-01 0
4.1675057607023003e-01 3.8421629653898909e-01 0
3.6832683640199342e+00 2.3156757859921604e+00 0
2.1980558769008272e+00 1.9031016718468290e+00 0
2.0331661744656597e+00 2.0733653155907623e+00 0
3.5447711664966963e+00 1.0658840774538738e+00 0
5.6764028607797046e-01 -1.9462296005860336e-01 0

