# vtk DataFile Version 2.0

ASCII

DATASET UNSTRUCTURED_GRID

POINTS 106 float 

-5.0000000000000003e-02  0.0000000000000000e+00  0.0000000000000000e+00
5.0000000000000003e-02  0.0000000000000000e+00  0.0000000000000000e+00
-5.0000000000000003e-02  2.0000000000000000e-02  0.0000000000000000e+00
5.0000000000000003e-02  2.0000000000000000e-02  0.0000000000000000e+00
-5.0000000000000003e-02  4.0000000000000001e-02  0.0000000000000000e+00
5.0000000000000003e-02  4.0000000000000001e-02  0.0000000000000000e+00
-5.0000000000000003e-02  5.9999999999999998e-02  0.0000000000000000e+00
5.0000000000000003e-02  5.9999999999999998e-02  0.0000000000000000e+00
-5.0000000000000003e-02  8.0000000000000002e-02  0.0000000000000000e+00
5.0000000000000003e-02  8.0000000000000002e-02  0.0000000000000000e+00
-5.0000000000000003e-02  1.0000000000000001e-01  0.0000000000000000e+00
5.0000000000000003e-02  1.0000000000000001e-01  0.0000000000000000e+00
-5.0000000000000003e-02  1.2000000000000000e-01  0.0000000000000000e+00
5.0000000000000003e-02  1.2000000000000000e-01  0.0000000000000000e+00
-5.0000000000000003e-02  1.4000000000000001e-01  0.0000000000000000e+00
5.0000000000000003e-02  1.4000000000000001e-01  0.0000000000000000e+00
-5.0000000000000003e-02  1.6000000000000000e-01  0.0000000000000000e+00
5.0000000000000003e-02  1.6000000000000000e-01  0.0000000000000000e+00
-5.0000000000000003e-02  1.7999999999999999e-01  0.0000000000000000e+00
5.0000000000000003e-02  1.7999999999999999e-01  0.0000000000000000e+00
-5.0000000000000003e-02  2.0000000000000001e-01  0.0000000000000000e+00
5.0000000000000003e-02  2.0000000000000001e-01  0.0000000000000000e+00
-5.0000000000000003e-02  2.2000000000000000e-01  0.0000000000000000e+00
5.0000000000000003e-02  2.2000000000000000e-01  0.0000000000000000e+00
-5.0000000000000003e-02  2.3999999999999999e-01  0.0000000000000000e+00
5.0000000000000003e-02  2.3999999999999999e-01  0.0000000000000000e+00
-5.0000000000000003e-02  2.6000000000000001e-01  0.0000000000000000e+00
5.0000000000000003e-02  2.6000000000000001e-01  0.0000000000000000e+00
-5.0000000000000003e-02  2.8000000000000003e-01  0.0000000000000000e+00
5.0000000000000003e-02  2.8000000000000003e-01  0.0000000000000000e+00
-5.0000000000000003e-02  2.9999999999999999e-01  0.0000000000000000e+00
5.0000000000000003e-02  2.9999999999999999e-01  0.0000000000000000e+00
-5.0000000000000003e-02  3.2000000000000001e-01  0.0000000000000000e+00
5.0000000000000003e-02  3.2000000000000001e-01  0.0000000000000000e+00
-5.0000000000000003e-02  3.4000000000000002e-01  0.0000000000000000e+00
5.0000000000000003e-02  3.4000000000000002e-01  0.0000000000000000e+00
-5.0000000000000003e-02  3.5999999999999999e-01  0.0000000000000000e+00
5.0000000000000003e-02  3.5999999999999999e-01  0.0000000000000000e+00
-5.0000000000000003e-02  3.8000000000000000e-01  0.0000000000000000e+00
5.0000000000000003e-02  3.8000000000000000e-01  0.0000000000000000e+00
-5.0000000000000003e-02  4.0000000000000002e-01  0.0000000000000000e+00
5.0000000000000003e-02  4.0000000000000002e-01  0.0000000000000000e+00
-5.0000000000000003e-02  4.1999999999999998e-01  0.0000000000000000e+00
5.0000000000000003e-02  4.1999999999999998e-01  0.0000000000000000e+00
-5.0000000000000003e-02  4.4000000000000000e-01  0.0000000000000000e+00
5.0000000000000003e-02  4.4000000000000000e-01  0.0000000000000000e+00
-5.0000000000000003e-02  4.6000000000000002e-01  0.0000000000000000e+00
5.0000000000000003e-02  4.6000000000000002e-01  0.0000000000000000e+00
-5.0000000000000003e-02  4.7999999999999998e-01  0.0000000000000000e+00
5.0000000000000003e-02  4.7999999999999998e-01  0.0000000000000000e+00
-5.0000000000000003e-02  5.0000000000000000e-01  0.0000000000000000e+00
5.0000000000000003e-02  5.0000000000000000e-01  0.0000000000000000e+00
-5.0000000000000003e-02  5.2000000000000002e-01  0.0000000000000000e+00
5.0000000000000003e-02  5.2000000000000002e-01  0.0000000000000000e+00
-5.0000000000000003e-02  5.4000000000000004e-01  0.0000000000000000e+00
5.0000000000000003e-02  5.4000000000000004e-01  0.0000000000000000e+00
-5.0000000000000003e-02  5.6000000000000005e-01  0.0000000000000000e+00
5.0000000000000003e-02  5.6000000000000005e-01  0.0000000000000000e+00
-5.0000000000000003e-02  5.7999999999999996e-01  0.0000000000000000e+00
5.0000000000000003e-02  5.7999999999999996e-01  0.0000000000000000e+00
-5.0000000000000003e-02  5.9999999999999998e-01  0.0000000000000000e+00
5.0000000000000003e-02  5.9999999999999998e-01  0.0000000000000000e+00
-5.0000000000000003e-02  6.2000000000000000e-01  0.0000000000000000e+00
5.0000000000000003e-02  6.2000000000000000e-01  0.0000000000000000e+00
-5.0000000000000003e-02  6.4000000000000001e-01  0.0000000000000000e+00
5.0000000000000003e-02  6.4000000000000001e-01  0.0000000000000000e+00
-5.0000000000000003e-02  6.6000000000000003e-01  0.0000000000000000e+00
5.0000000000000003e-02  6.6000000000000003e-01  0.0000000000000000e+00
-5.0000000000000003e-02  6.8000000000000005e-01  0.0000000000000000e+00
5.0000000000000003e-02  6.8000000000000005e-01  0.0000000000000000e+00
-5.0000000000000003e-02  6.9999999999999996e-01  0.0000000000000000e+00
5.0000000000000003e-02  6.9999999999999996e-01  0.0000000000000000e+00
-5.0000000000000003e-02  7.1999999999999997e-01  0.0000000000000000e+00
5.0000000000000003e-02  7.1999999999999997e-01  0.0000000000000000e+00
-5.0000000000000003e-02  7.3999999999999999e-01  0.0000000000000000e+00
5.0000000000000003e-02  7.3999999999999999e-01  0.0000000000000000e+00
-5.0000000000000003e-02  7.6000000000000001e-01  0.0000000000000000e+00
5.0000000000000003e-02  7.6000000000000001e-01  0.0000000000000000e+00
-5.0000000000000003e-02  7.8000000000000003e-01  0.0000000000000000e+00
5.0000000000000003e-02  7.8000000000000003e-01  0.0000000000000000e+00
-5.0000000000000003e-02  8.0000000000000004e-01  0.0000000000000000e+00
5.0000000000000003e-02  8.0000000000000004e-01  0.0000000000000000e+00
-5.0000000000000003e-02  8.1999999999999995e-01  0.0000000000000000e+00
5.0000000000000003e-02  8.1999999999999995e-01  0.0000000000000000e+00
-5.0000000000000003e-02  8.3999999999999997e-01  0.0000000000000000e+00
5.0000000000000003e-02  8.3999999999999997e-01  0.0000000000000000e+00
-5.0000000000000003e-02  8.5999999999999999e-01  0.0000000000000000e+00
5.0000000000000003e-02  8.5999999999999999e-01  0.0000000000000000e+00
-5.0000000000000003e-02  8.8000000000000000e-01  0.0000000000000000e+00
5.0000000000000003e-02  8.8000000000000000e-01  0.0000000000000000e+00
-5.0000000000000003e-02  9.0000000000000002e-01  0.0000000000000000e+00
5.0000000000000003e-02  9.0000000000000002e-01  0.0000000000000000e+00
-5.0000000000000003e-02  9.2000000000000004e-01  0.0000000000000000e+00
5.0000000000000003e-02  9.2000000000000004e-01  0.0000000000000000e+00
-5.0000000000000003e-02  9.3999999999999995e-01  0.0000000000000000e+00
5.0000000000000003e-02  9.3999999999999995e-01  0.0000000000000000e+00
-5.0000000000000003e-02  9.5999999999999996e-01  0.0000000000000000e+00
5.0000000000000003e-02  9.5999999999999996e-01  0.0000000000000000e+00
-5.0000000000000003e-02  9.7999999999999998e-01  0.0000000000000000e+00
5.0000000000000003e-02  9.7999999999999998e-01  0.0000000000000000e+00
-5.0000000000000003e-02  1.0000000000000000e+00  0.0000000000000000e+00
-3.0000000000000002e-02  1.0000000000000000e+00  0.0000000000000000e+00
-1.0000000000000002e-02  1.0000000000000000e+00  0.0000000000000000e+00
1.0000000000000009e-02  1.0000000000000000e+00  0.0000000000000000e+00
2.9999999999999999e-02  1.0000000000000000e+00  0.0000000000000000e+00
5.0000000000000003e-02  1.0000000000000000e+00  0.0000000000000000e+00

CELLS 0 0


CELL_TYPES 0


POINT_DATA 106

VECTORS VertexNormals float

0.0000000000000000e+00 0.0000000000000000e+00 0
0.0000000000000000e+00 0.0000000000000000e+00 0
0.0000000000000000e+00 0.0000000000000000e+00 0
0.0000000000000000e+00 0.0000000000000000e+00 0
0.0000000000000000e+00 0.0000000000000000e+00 0
0.0000000000000000e+00 0.0000000000000000e+00 0
0.0000000000000000e+00 0.0000000000000000e+00 0
0.0000000000000000e+00 0.0000000000000000e+00 0
0.0000000000000000e+00 0.0000000000000000e+00 0
0.0000000000000000e+00 0.0000000000000000e+00 0
0.0000000000000000e+00 0.0000000000000000e+00 0
0.0000000000000000e+00 0.0000000000000000e+00 0
0.0000000000000000e+00 0.0000000000000000e+00 0
0.0000000000000000e+00 0.0000000000000000e+00 0
0.0000000000000000e+00 0.0000000000000000e+00 0
0.0000000000000000e+00 0.0000000000000000e+00 0
0.0000000000000000e+00 0.0000000000000000e+00 0
0.0000000000000000e+00 0.0000000000000000e+00 0
0.0000000000000000e+00 0.0000000000000000e+00 0
0.0000000000000000e+00 0.0000000000000000e+00 0
0.0000000000000000e+00 0.0000000000000000e+00 0
0.0000000000000000e+00 0.0000000000000000e+00 0
0.0000000000000000e+00 0.0000000000000000e+00 0
0.0000000000000000e+00 0.0000000000000000e+00 0
0.0000000000000000e+00 0.0000000000000000e+00 0
0.0000000000000000e+00 0.0000000000000000e+00 0
0.0000000000000000e+00 0.0000000000000000e+00 0
0.0000000000000000e+00 0.0000000000000000e+00 0
0.0000000000000000e+00 0.0000000000000000e+00 0
0.0000000000000000e+00 0.0000000000000000e+00 0
0.0000000000000000e+00 0.0000000000000000e+00 0
0.0000000000000000e+00 0.0000000000000000e+00 0
0.0000000000000000e+00 0.0000000000000000e+00 0
0.0000000000000000e+00 0.0000000000000000e+00 0
0.0000000000000000e+00 0.0000000000000000e+00 0
0.0000000000000000e+00 0.0000000000000000e+00 0
0.0000000000000000e+00 0.0000000000000000e+00 0
0.0000000000000000e+00 0.0000000000000000e+00 0
0.0000000000000000e+00 0.0000000000000000e+00 0
0.0000000000000000e+00 0.0000000000000000e+00 0
0.0000000000000000e+00 0.0000000000000000e+00 0
0.0000000000000000e+00 0.0000000000000000e+00 0
0.0000000000000000e+00 0.0000000000000000e+00 0
0.0000000000000000e+00 0.0000000000000000e+00 0
0.0000000000000000e+00 0.0000000000000000e+00 0
0.0000000000000000e+00 0.0000000000000000e+00 0
0.0000000000000000e+00 0.0000000000000000e+00 0
0.0000000000000000e+00 0.0000000000000000e+00 0
0.0000000000000000e+00 0.0000000000000000e+00 0
0.0000000000000000e+00 0.0000000000000000e+00 0
0.0000000000000000e+00 0.0000000000000000e+00 0
0.0000000000000000e+00 0.0000000000000000e+00 0
0.0000000000000000e+00 0.0000000000000000e+00 0
0.0000000000000000e+00 0.0000000000000000e+00 0
0.0000000000000000e+00 0.0000000000000000e+00 0
0.0000000000000000e+00 0.0000000000000000e+00 0
0.0000000000000000e+00 0.0000000000000000e+00 0
0.0000000000000000e+00 0.0000000000000000e+00 0
0.0000000000000000e+00 0.0000000000000000e+00 0
0.0000000000000000e+00 0.0000000000000000e+00 0
0.0000000000000000e+00 0.0000000000000000e+00 0
0.0000000000000000e+00 0.0000000000000000e+00 0
0.0000000000000000e+00 0.0000000000000000e+00 0
0.0000000000000000e+00 0.0000000000000000e+00 0
0.0000000000000000e+00 0.0000000000000000e+00 0
0.0000000000000000e+00 0.0000000000000000e+00 0
0.0000000000000000e+00 0.0000000000000000e+00 0
0.0000000000000000e+00 0.0000000000000000e+00 0
0.0000000000000000e+00 0.0000000000000000e+00 0
0.0000000000000000e+00 0.0000000000000000e+00 0
0.0000000000000000e+00 0.0000000000000000e+00 0
0.0000000000000000e+00 0.0000000000000000e+00 0
0.0000000000000000e+00 0.0000000000000000e+00 0
0.0000000000000000e+00 0.0000000000000000e+00 0
0.0000000000000000e+00 0.0000000000000000e+00 0
0.0000000000000000e+00 0.0000000000000000e+00 0
0.0000000000000000e+00 0.0000000000000000e+00 0
0.0000000000000000e+00 0.0000000000000000e+00 0
0.0000000000000000e+00 0.0000000000000000e+00 0
0.0000000000000000e+00 0.0000000000000000e+00 0
0.0000000000000000e+00 0.0000000000000000e+00 0
0.0000000000000000e+00 0.0000000000000000e+00 0
0.0000000000000000e+00 0.0000000000000000e+00 0
0.0000000000000000e+00 0.0000000000000000e+00 0
0.0000000000000000e+00 0.0000000000000000e+00 0
0.0000000000000000e+00 0.0000000000000000e+00 0
0.0000000000000000e+00 0.0000000000000000e+00 0
0.0000000000000000e+00 0.0000000000000000e+00 0
0.0000000000000000e+00 0.0000000000000000e+00 0
0.0000000000000000e+00 0.0000000000000000e+00 0
0.0000000000000000e+00 0.0000000000000000e+00 0
0.0000000000000000e+00 0.0000000000000000e+00 0
0.0000000000000000e+00 0.0000000000000000e+00 0
0.0000000000000000e+00 0.0000000000000000e+00 0
0.0000000000000000e+00 0.0000000000000000e+00 0
0.0000000000000000e+00 0.0000000000000000e+00 0
0.0000000000000000e+00 0.0000000000000000e+00 0
0.0000000000000000e+00 0.0000000000000000e+00 0
0.0000000000000000e+00 0.0000000000000000e+00 0
0.0000000000000000e+00 0.0000000000000000e+00 0
0.0000000000000000e+00 0.0000000000000000e+00 0
0.0000000000000000e+00 0.0000000000000000e+00 0
0.0000000000000000e+00 0.0000000000000000e+00 0
0.0000000000000000e+00 0.0000000000000000e+00 0
0.0000000000000000e+00 0.0000000000000000e+00 0
0.0000000000000000e+00 0.0000000000000000e+00 0

VECTORS Displacements1 float
-5.2618577484171336e-17 2.9396542928867622e-17 0
-7.2689162740943755e-23 3.6484457286539637e-24 0
9.6763256304663141e-07 1.1664975342198350e-07 0
9.4163110097584724e-07 -7.1487356109882902e-08 0
1.4565206046048689e-06 1.4425998045114884e-07 0
1.3884479320409341e-06 -8.8879267927182408e-08 0
1.5044745265929731e-06 1.1256917412741917e-07 0
1.4447489248145288e-06 -6.4097478876627519e-08 0
1.3840948508146443e-06 9.0261361881111626e-08 0
1.3461248684756299e-06 -6.6522583360966071e-08 0
2.4779058364196612e-06 3.4683965996799728e-08 0
2.3040383988884491e-06 1.2864019356501754e-07 0
1.3523097215521204e-06 -1.2435632656355447e-07 0
1.3150026263357691e-06 1.4166902205191218e-07 0
1.5381427377360734e-06 -6.9634798660291042e-09 0
1.4784370872893213e-06 8.5538229135388150e-08 0
1.5463437282485058e-06 3.0080153543383628e-08 0
1.4889231998854146e-06 5.6839993414296168e-08 0
1.3721171076769823e-06 9.2058516752906115e-08 0
1.3396240453555630e-06 -3.2336250920809960e-08 0
2.4862831304209582e-06 7.0447089307712062e-08 0
2.3314795049864078e-06 1.4823633169150718e-07 0
1.3756147326582438e-06 -9.2324321886676882e-08 0
1.3389465204588547e-06 1.4645444557820480e-07 0
1.5590950629147970e-06 1.2236830554318581e-08 0
1.5091640729135426e-06 1.0816151641392081e-07 0
1.5636743481201369e-06 4.4570257170238178e-08 0
1.5198354912778155e-06 8.5934669248033930e-08 0
1.3940623832998797e-06 1.0328218132334272e-07 0
1.3730199227847365e-06 -4.4582711407446386e-09 0
2.5135989484916691e-06 7.8530051128606391e-08 0
2.4127304659926452e-06 2.0788527959902791e-07 0
1.4043799090330240e-06 -8.6114430214353067e-08 0
1.3742574810508611e-06 1.8722138935096695e-07 0
1.5910333499553685e-06 2.1635485358938203e-08 0
1.5650538236202635e-06 1.4925030795625982e-07 0
1.5998980716075950e-06 5.6875009766776633e-08 0
1.5821620028174663e-06 1.2575269106872308e-07 0
1.4348990000581230e-06 1.1762753025084558e-07 0
1.4326394723611828e-06 2.6281984258870413e-08 0
2.5610958367121744e-06 9.8990935021887972e-08 0
2.5533640862128987e-06 2.7031856409391598e-07 0
1.4525051516977531e-06 -6.9507229692137407e-08 0
1.4358388940075851e-06 2.2896519043281037e-07 0
1.6417043261682395e-06 4.4011014634093768e-08 0
1.6534455313672938e-06 1.8895512105397919e-07 0
1.6549330391743369e-06 8.3955320735791272e-08 0
1.6775556178662154e-06 1.6317406824492766e-07 0
1.4948174813831112e-06 1.4782594115486530e-07 0
1.5200671552435288e-06 5.1120803534978497e-08 0
2.6302493690974745e-06 1.4431064892193882e-07 0
2.7601262865742832e-06 3.3030059424184116e-07 0
1.5227838727577671e-06 -3.6407903239926969e-08 0
1.5270935584472043e-06 2.7051536362665634e-07 0
1.7128401012758916e-06 8.5715681785067966e-08 0
1.7797789286638097e-06 2.2641585584890098e-07 0
1.7313974256654479e-06 1.3149585081609098e-07 0
1.8125760834080452e-06 1.9795272092959996e-07 0
1.5781126706505105e-06 1.9665200055992081e-07 0
1.6422876523178464e-06 7.0815015842239367e-08 0
2.7206125169653058e-06 2.1582024833550023e-07 0
3.0477223761159024e-06 3.9238913958044757e-07 0
1.6215580238829102e-06 2.1048978211912561e-08 0
1.6558631082395614e-06 3.1162568804250620e-07 0
1.8196630565830599e-06 1.5656047903104684e-07 0
1.9605403999213438e-06 2.6076103227078187e-07 0
1.8482999454427946e-06 2.1470172969878829e-07 0
2.0075601692536147e-06 2.2699487838476594e-07 0
1.7055601094862679e-06 2.9192588350499701e-07 0
1.8213114128681416e-06 7.5276825509706358e-08 0
2.8879496791532539e-06 3.6450183295929376e-07 0
3.4746298729100451e-06 4.4435515939116601e-07 0
1.7803257999127928e-06 1.2219988445326663e-07 0
1.8543968814042801e-06 3.5150279802685426e-07 0
1.9799363817850192e-06 2.8486594507201643e-07 0
2.2305769841155664e-06 2.8792090085864231e-07 0
2.0283743608320312e-06 3.5811762607142415e-07 0
2.3041152674286204e-06 2.4875261422446575e-07 0
1.9140613313379518e-06 4.3107432875313531e-07 0
2.1027829546654704e-06 7.6073626630184430e-08 0
3.1359247957867142e-06 5.7718947932853222e-07 0
4.1117446190464514e-06 5.2556513482460864e-07 0
2.0804948678136462e-06 4.1580032479150932e-07 0
2.1644333944884362e-06 3.7104126142428419e-07 0
2.4289304945578619e-06 7.8197636859142617e-07 0
2.7139230639165031e-06 2.6267602860097317e-07 0
2.6121876860716537e-06 1.1791518117619649e-06 0
2.8380026770240045e-06 1.3970814632962459e-07 0
2.5966047423745828e-06 1.8183893515139068e-06 0
2.6137905790328446e-06 -2.8664789131277244e-07 0
4.3785599153681589e-06 3.0343618332695899e-06 0
5.4525828258360401e-06 -1.5445962367462535e-07 0
3.3160024280280986e-06 3.7148656228125505e-06 0
3.0372579792381482e-06 -9.5474890844199440e-07 0
4.7393141715290859e-06 5.9008016817336406e-06 0
4.8066448960978027e-06 -2.2030279304868252e-06 0
6.9271257505056174e-06 8.1615785330942967e-06 0
6.8405800181336469e-06 -3.5650278685735790e-06 0
1.1998799147472321e-05 1.0824048151262237e-05 0
1.1210407507718233e-05 -4.4204449119573226e-06 0
1.5142508947615672e-05 1.0918236430882833e-05 0
1.5124064833256652e-05 7.3111177627073801e-06 0
1.3774252400336763e-05 3.9780203050275863e-06 0
1.3279020626940122e-05 1.6009295550142949e-06 0
1.3919229754639916e-05 -1.4107968214214270e-06 0
1.3562494301322340e-05 -5.0942076068741839e-06 0

VECTORS Forces1 float
-1.5076153566988976e-01 9.2524294278147221e-02 0
-1.0745031559011332e-01 -6.2010282098231735e-02 0
2.0411741922123325e+00 -1.1344994507149484e+00 0
1.4787396933274830e+00 8.1985837675247275e-01 0
2.2356940596009269e+00 -3.4801765380474492e-01 0
1.6216289866282421e+00 2.5392307512901380e-01 0
1.4227886066523219e+00 5.7908639296402775e-02 0
1.0317956153844461e+00 -4.0780955090929071e-02 0
-2.1450046022768240e-01 -7.9426102781941076e-03 0
-1.5586543372534400e-01 5.5512140801750650e-03 0
5.4569325770361079e+00 -1.1209580435538268e-03 0
3.9580159120662177e+00 2.5671788205449998e-02 0
-2.3110223162911134e-01 -2.5611428925465337e-04 0
-1.6828800707231237e-01 -1.8782395467972248e-03 0
1.5524450199818498e+00 -1.0724261138305394e-03 0
1.1292160442184893e+00 1.5378555844573285e-02 0
1.5525666429897700e+00 -1.1050890142578710e-03 0
1.1293316731994976e+00 1.5413170142502862e-02 0
-2.3129477065228385e-01 -8.3787777268091039e-05 0
-1.6845121655576847e-01 -2.1272381769475339e-03 0
5.4691890972700401e+00 -6.2015965283374296e-03 0
4.0038130828904954e+00 8.9196588787529466e-02 0
-2.3120157292454097e-01 5.4771618552559685e-05 0
-1.7128073779313821e-01 -4.9832291524999715e-03 0
1.5521284032044660e+00 -2.0105734213879006e-03 0
1.1494068345224435e+00 3.5494503305833466e-02 0
1.5521283618477344e+00 -2.0117034700976835e-03 0
1.1494390715285898e+00 3.5514897299215052e-02 0
-2.3118271773348201e-01 3.9765651850684788e-05 0
-1.7147055311400744e-01 -5.1095913499601825e-03 0
5.4642389211725133e+00 -2.1464534306409313e-03 0
4.1108366205550828e+00 1.5876211896036779e-01 0
-2.3068706263611116e-01 -4.4319885627052839e-04 0
-1.7716830720314974e-01 -7.8349341574054290e-03 0
1.5487924474559767e+00 1.3753664111278527e-03 0
1.1895396861727723e+00 5.4751685859428627e-02 0
1.5487861195551738e+00 1.3745615745238745e-03 0
1.1895890261594653e+00 5.4774246553356970e-02 0
-2.3065293218635610e-01 -5.0266539290981906e-04 0
-1.7750431689453319e-01 -7.9468950109260750e-03 0
5.4437093214728742e+00 1.7853827256207367e-02 0
4.2874568607174472e+00 2.2568424007312177e-01 0
-2.2954078684807308e-01 -1.7342723408835651e-03 0
-1.8623069307568219e-01 -1.0553842818678572e-02 0
1.5411501918254453e+00 9.9443061685004636e-03 0
1.2509383675444219e+00 7.3257450969361898e-02 0
1.5411362207007580e+00 9.9460260881022063e-03 0
1.2510079039314501e+00 7.3282425622236108e-02 0
-2.2947317642447790e-01 -1.8630887685897400e-03 0
-1.8672694564569486e-01 -1.0643462986425196e-02 0
5.4083009635495385e+00 6.6989948495173396e-02 0
4.5473676031034183e+00 2.8623868919228945e-01 0
-2.2729012040526264e-01 -4.6580427526594160e-03 0
-1.9901509406122031e-01 -1.2899825588605996e-02 0
1.5260197038156893e+00 2.9382682437281288e-02 0
1.3373390839479364e+00 8.9430987965131770e-02 0
1.5259999571572305e+00 2.9381602176960148e-02 0
1.3374350818693788e+00 8.9463889015818476e-02 0
-2.2721493320614086e-01 -4.8619901541311697e-03 0
-1.9973901645301384e-01 -1.2971106082672785e-02 0
5.3418770323417935e+00 1.3685434362130219e-01 0
4.9075396942381770e+00 3.5072175200665101e-01 0
-2.2535224531422079e-01 -8.1142000622794336e-03 0
-2.1762985247156083e-01 -1.5709677840447918e-02 0
1.5131791231858605e+00 5.1781568282823535e-02 0
1.4630380792793181e+00 1.0921067198955883e-01 0
1.5131398915925505e+00 5.1782468924831397e-02 0
1.4631608885692238e+00 1.0925292845255716e-01 0
-2.2524889266756354e-01 -8.5696465208554597e-03 0
-2.1869149339137312e-01 -1.5702493054948904e-02 0
5.3082750018938238e+00 3.0884675514713145e-01 0
5.4459461385776651e+00 3.9137927164256581e-01 0
-2.2047596613059856e-01 -1.9109377947126808e-02 0
-2.4347346716930107e-01 -1.6392364099545139e-02 0
1.4794432393722550e+00 1.2458486339364874e-01 0
1.6364197857449729e+00 1.1515214710689416e-01 0
1.4793529779530099e+00 1.2448446658078406e-01 0
1.6365220642406668e+00 1.1523970126158191e-01 0
-2.2115382237088851e-01 -1.9863154874439640e-02 0
-2.4574059552389171e-01 -1.6390619757579890e-02 0
5.2085506282609151e+00 4.0909569546398528e-01 0
6.2293358192584911e+00 5.1798689039999746e-01 0
-2.3787983642950269e-01 -2.3071969001098327e-02 0
-2.9766706139854421e-01 -2.3157856146997637e-02 0
1.5906542569050042e+00 1.4087751086540884e-01 0
1.9933736105856301e+00 1.6427473815498891e-01 0
1.5901969905039919e+00 1.4043582317673209e-01 0
1.9931501441713275e+00 1.6448478040503345e-01 0
-2.3994345094152522e-01 -2.7603713110874110e-02 0
-3.0315610980076835e-01 -2.1280886182256840e-02 0
6.0137127708193949e+00 1.4908548211706687e+00 0
8.1091794373870076e+00 2.6075838285579667e-01 0
-2.5574111826788715e-01 -1.2312340972321290e-01 0
-4.0678614846487493e-01 1.8949379541100420e-02 0
1.8276746755361140e+00 8.0505947879822881e-01 0
2.8319417870396699e+00 -3.9354346129483186e-02 0
1.2733123924950931e+00 4.6908293664458078e-01 0
2.2153771707178849e+00 -4.1793140411293957e-02 0
5.2753441897503857e+00 3.1169864571438688e+00 0
5.6796079999835749e+00 1.8654919512286516e-01 0
4.1951195394479873e-01 3.8483864224999609e-01 0
3.6957309271394516e+00 2.3166354576435704e+00 0
2.2015283604981097e+00 1.9040141762778282e+00 0
2.0365479797064370e+00 2.0755576867144279e+00 0
3.5481098351331211e+00 1.0707375332422691e+00 0
5.6753807906523646e-01 -1.9421306259259841e-01 0

