# vtk DataFile Version 2.0

ASCII

DATASET UNSTRUCTURED_GRID

POINTS 106 float 

-5.0000000000000003e-02  0.0000000000000000e+00  0.0000000000000000e+00
5.0000000000000003e-02  0.0000000000000000e+00  0.0000000000000000e+00
-5.0000000000000003e-02  2.0000000000000000e-02  0.0000000000000000e+00
5.0000000000000003e-02  2.0000000000000000e-02  0.0000000000000000e+00
-5.0000000000000003e-02  4.0000000000000001e-02  0.0000000000000000e+00
5.0000000000000003e-02  4.0000000000000001e-02  0.0000000000000000e+00
-5.0000000000000003e-02  5.9999999999999998e-02  0.0000000000000000e+00
5.0000000000000003e-02  5.9999999999999998e-02  0.0000000000000000e+00
-5.0000000000000003e-02  8.0000000000000002e-02  0.0000000000000000e+00
5.0000000000000003e-02  8.0000000000000002e-02  0.0000000000000000e+00
-5.0000000000000003e-02  1.0000000000000001e-01  0.0000000000000000e+00
5.0000000000000003e-02  1.0000000000000001e-01  0.0000000000000000e+00
-5.0000000000000003e-02  1.2000000000000000e-01  0.0000000000000000e+00
5.0000000000000003e-02  1.2000000000000000e-01  0.0000000000000000e+00
-5.0000000000000003e-02  1.4000000000000001e-01  0.0000000000000000e+00
5.0000000000000003e-02  1.4000000000000001e-01  0.0000000000000000e+00
-5.0000000000000003e-02  1.6000000000000000e-01  0.0000000000000000e+00
5.0000000000000003e-02  1.6000000000000000e-01  0.0000000000000000e+00
-5.0000000000000003e-02  1.7999999999999999e-01  0.0000000000000000e+00
5.0000000000000003e-02  1.7999999999999999e-01  0.0000000000000000e+00
-5.0000000000000003e-02  2.0000000000000001e-01  0.0000000000000000e+00
5.0000000000000003e-02  2.0000000000000001e-01  0.0000000000000000e+00
-5.0000000000000003e-02  2.2000000000000000e-01  0.0000000000000000e+00
5.0000000000000003e-02  2.2000000000000000e-01  0.0000000000000000e+00
-5.0000000000000003e-02  2.3999999999999999e-01  0.0000000000000000e+00
5.0000000000000003e-02  2.3999999999999999e-01  0.0000000000000000e+00
-5.0000000000000003e-02  2.6000000000000001e-01  0.0000000000000000e+00
5.0000000000000003e-02  2.6000000000000001e-01  0.0000000000000000e+00
-5.0000000000000003e-02  2.8000000000000003e-01  0.0000000000000000e+00
5.0000000000000003e-02  2.8000000000000003e-01  0.0000000000000000e+00
-5.0000000000000003e-02  2.9999999999999999e-01  0.0000000000000000e+00
5.0000000000000003e-02  2.9999999999999999e-01  0.0000000000000000e+00
-5.0000000000000003e-02  3.2000000000000001e-01  0.0000000000000000e+00
5.0000000000000003e-02  3.2000000000000001e-01  0.0000000000000000e+00
-5.0000000000000003e-02  3.4000000000000002e-01  0.0000000000000000e+00
5.0000000000000003e-02  3.4000000000000002e-01  0.0000000000000000e+00
-5.0000000000000003e-02  3.5999999999999999e-01  0.0000000000000000e+00
5.0000000000000003e-02  3.5999999999999999e-01  0.0000000000000000e+00
-5.0000000000000003e-02  3.8000000000000000e-01  0.0000000000000000e+00
5.0000000000000003e-02  3.8000000000000000e-01  0.0000000000000000e+00
-5.0000000000000003e-02  4.0000000000000002e-01  0.0000000000000000e+00
5.0000000000000003e-02  4.0000000000000002e-01  0.0000000000000000e+00
-5.0000000000000003e-02  4.1999999999999998e-01  0.0000000000000000e+00
5.0000000000000003e-02  4.1999999999999998e-01  0.0000000000000000e+00
-5.0000000000000003e-02  4.4000000000000000e-01  0.0000000000000000e+00
5.0000000000000003e-02  4.4000000000000000e-01  0.0000000000000000e+00
-5.0000000000000003e-02  4.6000000000000002e-01  0.0000000000000000e+00
5.0000000000000003e-02  4.6000000000000002e-01  0.0000000000000000e+00
-5.0000000000000003e-02  4.7999999999999998e-01  0.0000000000000000e+00
5.0000000000000003e-02  4.7999999999999998e-01  0.0000000000000000e+00
-5.0000000000000003e-02  5.0000000000000000e-01  0.0000000000000000e+00
5.0000000000000003e-02  5.0000000000000000e-01  0.0000000000000000e+00
-5.0000000000000003e-02  5.2000000000000002e-01  0.0000000000000000e+00
5.0000000000000003e-02  5.2000000000000002e-01  0.0000000000000000e+00
-5.0000000000000003e-02  5.4000000000000004e-01  0.0000000000000000e+00
5.0000000000000003e-02  5.4000000000000004e-01  0.0000000000000000e+00
-5.0000000000000003e-02  5.6000000000000005e-01  0.0000000000000000e+00
5.0000000000000003e-02  5.6000000000000005e-01  0.0000000000000000e+00
-5.0000000000000003e-02  5.7999999999999996e-01  0.0000000000000000e+00
5.0000000000000003e-02  5.7999999999999996e-01  0.0000000000000000e+00
-5.0000000000000003e-02  5.9999999999999998e-01  0.0000000000000000e+00
5.0000000000000003e-02  5.9999999999999998e-01  0.0000000000000000e+00
-5.0000000000000003e-02  6.2000000000000000e-01  0.0000000000000000e+00
5.0000000000000003e-02  6.2000000000000000e-01  0.0000000000000000e+00
-5.0000000000000003e-02  6.4000000000000001e-01  0.0000000000000000e+00
5.0000000000000003e-02  6.4000000000000001e-01  0.0000000000000000e+00
-5.0000000000000003e-02  6.6000000000000003e-01  0.0000000000000000e+00
5.0000000000000003e-02  6.6000000000000003e-01  0.0000000000000000e+00
-5.0000000000000003e-02  6.8000000000000005e-01  0.0000000000000000e+00
5.0000000000000003e-02  6.8000000000000005e-01  0.0000000000000000e+00
-5.0000000000000003e-02  6.9999999999999996e-01  0.0000000000000000e+00
5.0000000000000003e-02  6.9999999999999996e-01  0.0000000000000000e+00
-5.0000000000000003e-02  7.1999999999999997e-01  0.0000000000000000e+00
5.0000000000000003e-02  7.1999999999999997e-01  0.0000000000000000e+00
-5.0000000000000003e-02  7.3999999999999999e-01  0.0000000000000000e+00
5.0000000000000003e-02  7.3999999999999999e-01  0.0000000000000000e+00
-5.0000000000000003e-02  7.6000000000000001e-01  0.0000000000000000e+00
5.0000000000000003e-02  7.6000000000000001e-01  0.0000000000000000e+00
-5.0000000000000003e-02  7.8000000000000003e-01  0.0000000000000000e+00
5.0000000000000003e-02  7.8000000000000003e-01  0.0000000000000000e+00
-5.0000000000000003e-02  8.0000000000000004e-01  0.0000000000000000e+00
5.0000000000000003e-02  8.0000000000000004e-01  0.0000000000000000e+00
-5.0000000000000003e-02  8.1999999999999995e-01  0.0000000000000000e+00
5.0000000000000003e-02  8.1999999999999995e-01  0.0000000000000000e+00
-5.0000000000000003e-02  8.3999999999999997e-01  0.0000000000000000e+00
5.0000000000000003e-02  8.3999999999999997e-01  0.0000000000000000e+00
-5.0000000000000003e-02  8.5999999999999999e-01  0.0000000000000000e+00
5.0000000000000003e-02  8.5999999999999999e-01  0.0000000000000000e+00
-5.0000000000000003e-02  8.8000000000000000e-01  0.0000000000000000e+00
5.0000000000000003e-02  8.8000000000000000e-01  0.0000000000000000e+00
-5.0000000000000003e-02  9.0000000000000002e-01  0.0000000000000000e+00
5.0000000000000003e-02  9.0000000000000002e-01  0.0000000000000000e+00
-5.0000000000000003e-02  9.2000000000000004e-01  0.0000000000000000e+00
5.0000000000000003e-02  9.2000000000000004e-01  0.0000000000000000e+00
-5.0000000000000003e-02  9.3999999999999995e-01  0.0000000000000000e+00
5.0000000000000003e-02  9.3999999999999995e-01  0.0000000000000000e+00
-5.0000000000000003e-02  9.5999999999999996e-01  0.0000000000000000e+00
5.0000000000000003e-02  9.5999999999999996e-01  0.0000000000000000e+00
-5.0000000000000003e-02  9.7999999999999998e-01  0.0000000000000000e+00
5.0000000000000003e-02  9.7999999999999998e-01  0.0000000000000000e+00
-5.0000000000000003e-02  1.0000000000000000e+00  0.0000000000000000e+00
-3.0000000000000002e-02  1.0000000000000000e+00  0.0000000000000000e+00
-1.0000000000000002e-02  1.0000000000000000e+00  0.0000000000000000e+00
1.0000000000000009e-02  1.0000000000000000e+00  0.0000000000000000e+00
2.9999999999999999e-02  1.0000000000000000e+00  0.0000000000000000e+00
5.0000000000000003e-02  1.0000000000000000e+00  0.0000000000000000e+00

CELLS 0 0


CELL_TYPES 0


POINT_DATA 106

VECTORS VertexNormals float

0.0000000000000000e+00 0.0000000000000000e+00 0
0.0000000000000000e+00 0.0000000000000000e+00 0
0.0000000000000000e+00 0.0000000000000000e+00 0
0.0000000000000000e+00 0.0000000000000000e+00 0
0.0000000000000000e+00 0.0000000000000000e+00 0
0.0000000000000000e+00 0.0000000000000000e+00 0
0.0000000000000000e+00 0.0000000000000000e+00 0
0.0000000000000000e+00 0.0000000000000000e+00 0
0.0000000000000000e+00 0.0000000000000000e+00 0
0.0000000000000000e+00 0.0000000000000000e+00 0
0.0000000000000000e+00 0.0000000000000000e+00 0
0.0000000000000000e+00 0.0000000000000000e+00 0
0.0000000000000000e+00 0.0000000000000000e+00 0
0.0000000000000000e+00 0.0000000000000000e+00 0
0.0000000000000000e+00 0.0000000000000000e+00 0
0.0000000000000000e+00 0.0000000000000000e+00 0
0.0000000000000000e+00 0.0000000000000000e+00 0
0.0000000000000000e+00 0.0000000000000000e+00 0
0.0000000000000000e+00 0.0000000000000000e+00 0
0.0000000000000000e+00 0.0000000000000000e+00 0
0.0000000000000000e+00 0.0000000000000000e+00 0
0.0000000000000000e+00 0.0000000000000000e+00 0
0.0000000000000000e+00 0.0000000000000000e+00 0
0.0000000000000000e+00 0.0000000000000000e+00 0
0.0000000000000000e+00 0.0000000000000000e+00 0
0.0000000000000000e+00 0.0000000000000000e+00 0
0.0000000000000000e+00 0.0000000000000000e+00 0
0.0000000000000000e+00 0.0000000000000000e+00 0
0.0000000000000000e+00 0.0000000000000000e+00 0
0.0000000000000000e+00 0.0000000000000000e+00 0
0.0000000000000000e+00 0.0000000000000000e+00 0
0.0000000000000000e+00 0.0000000000000000e+00 0
0.0000000000000000e+00 0.0000000000000000e+00 0
0.0000000000000000e+00 0.0000000000000000e+00 0
0.0000000000000000e+00 0.0000000000000000e+00 0
0.0000000000000000e+00 0.0000000000000000e+00 0
0.0000000000000000e+00 0.0000000000000000e+00 0
0.0000000000000000e+00 0.0000000000000000e+00 0
0.0000000000000000e+00 0.0000000000000000e+00 0
0.0000000000000000e+00 0.0000000000000000e+00 0
0.0000000000000000e+00 0.0000000000000000e+00 0
0.0000000000000000e+00 0.0000000000000000e+00 0
0.0000000000000000e+00 0.0000000000000000e+00 0
0.0000000000000000e+00 0.0000000000000000e+00 0
0.0000000000000000e+00 0.0000000000000000e+00 0
0.0000000000000000e+00 0.0000000000000000e+00 0
0.0000000000000000e+00 0.0000000000000000e+00 0
0.0000000000000000e+00 0.0000000000000000e+00 0
0.0000000000000000e+00 0.0000000000000000e+00 0
0.0000000000000000e+00 0.0000000000000000e+00 0
0.0000000000000000e+00 0.0000000000000000e+00 0
0.0000000000000000e+00 0.0000000000000000e+00 0
0.0000000000000000e+00 0.0000000000000000e+00 0
0.0000000000000000e+00 0.0000000000000000e+00 0
0.0000000000000000e+00 0.0000000000000000e+00 0
0.0000000000000000e+00 0.0000000000000000e+00 0
0.0000000000000000e+00 0.0000000000000000e+00 0
0.0000000000000000e+00 0.0000000000000000e+00 0
0.0000000000000000e+00 0.0000000000000000e+00 0
0.0000000000000000e+00 0.0000000000000000e+00 0
0.0000000000000000e+00 0.0000000000000000e+00 0
0.0000000000000000e+00 0.0000000000000000e+00 0
0.0000000000000000e+00 0.0000000000000000e+00 0
0.0000000000000000e+00 0.0000000000000000e+00 0
0.0000000000000000e+00 0.0000000000000000e+00 0
0.0000000000000000e+00 0.0000000000000000e+00 0
0.0000000000000000e+00 0.0000000000000000e+00 0
0.0000000000000000e+00 0.0000000000000000e+00 0
0.0000000000000000e+00 0.0000000000000000e+00 0
0.0000000000000000e+00 0.0000000000000000e+00 0
0.0000000000000000e+00 0.0000000000000000e+00 0
0.0000000000000000e+00 0.0000000000000000e+00 0
0.0000000000000000e+00 0.0000000000000000e+00 0
0.0000000000000000e+00 0.0000000000000000e+00 0
0.0000000000000000e+00 0.0000000000000000e+00 0
0.0000000000000000e+00 0.0000000000000000e+00 0
0.0000000000000000e+00 0.0000000000000000e+00 0
0.0000000000000000e+00 0.0000000000000000e+00 0
0.0000000000000000e+00 0.0000000000000000e+00 0
0.0000000000000000e+00 0.0000000000000000e+00 0
0.0000000000000000e+00 0.0000000000000000e+00 0
0.0000000000000000e+00 0.0000000000000000e+00 0
0.0000000000000000e+00 0.0000000000000000e+00 0
0.0000000000000000e+00 0.0000000000000000e+00 0
0.0000000000000000e+00 0.0000000000000000e+00 0
0.0000000000000000e+00 0.0000000000000000e+00 0
0.0000000000000000e+00 0.0000000000000000e+00 0
0.0000000000000000e+00 0.0000000000000000e+00 0
0.0000000000000000e+00 0.0000000000000000e+00 0
0.0000000000000000e+00 0.0000000000000000e+00 0
0.0000000000000000e+00 0.0000000000000000e+00 0
0.0000000000000000e+00 0.0000000000000000e+00 0
0.0000000000000000e+00 0.0000000000000000e+00 0
0.0000000000000000e+00 0.0000000000000000e+00 0
0.0000000000000000e+00 0.0000000000000000e+00 0
0.0000000000000000e+00 0.0000000000000000e+00 0
0.0000000000000000e+00 0.0000000000000000e+00 0
0.0000000000000000e+00 0.0000000000000000e+00 0
0.0000000000000000e+00 0.0000000000000000e+00 0
0.0000000000000000e+00 0.0000000000000000e+00 0
0.0000000000000000e+00 0.0000000000000000e+00 0
0.0000000000000000e+00 0.0000000000000000e+00 0
0.0000000000000000e+00 0.0000000000000000e+00 0
0.0000000000000000e+00 0.0000000000000000e+00 0
0.0000000000000000e+00 0.0000000000000000e+00 0
0.0000000000000000e+00 0.0000000000000000e+00 0

VECTORS Displacements1 float
-4.5780470437619438e-17 2.5574383715493796e-17 0
-4.3386602859966586e-23 -1.0043699872708297e-23 0
5.7237163175476948e-07 -8.6120120777848757e-08 0
5.6994000199851948e-07 1.2576398423689241e-07 0
7.3485531267535646e-07 -7.6279167595646275e-08 0
7.0403783207617036e-07 1.2527107429597953e-07 0
5.9491790152658751e-07 -3.0806792914778774e-08 0
5.6937219343299470e-07 7.1213904185685200e-08 0
4.1743187697902628e-07 3.8754062567345379e-08 0
4.0907592726966157e-07 -2.6530145049356047e-08 0
1.3873143192828171e-06 4.3860707235943324e-08 0
1.3045076990419756e-06 9.5017499258378209e-08 0
4.1247146286853789e-07 -8.9444370821460171e-08 0
4.0104561186997592e-07 9.7342431271026178e-08 0
5.7800015510704394e-07 5.8709470563136758e-09 0
5.5313003685777232e-07 4.8993966151106870e-08 0
5.7528172134853203e-07 2.8680278841107606e-08 0
5.5473912336489353e-07 2.7698113098603420e-08 0
4.1100640770201245e-07 7.9232947038358216e-08 0
4.0679932497350688e-07 -5.5814815354559790e-08 0
1.3871095733318969e-06 5.8028050105737331e-08 0
1.3275417875422985e-06 1.0875739066084794e-07 0
4.1005341497839594e-07 -8.4711437154630027e-08 0
4.0347110069707754e-07 1.0622311834352937e-07 0
5.7807771693117855e-07 5.2188670547721208e-09 0
5.6600889223204693e-07 6.5860904548998124e-08 0
5.7715549765350020e-07 2.5779354488747162e-08 0
5.7168600877584409e-07 4.7318529030758281e-08 0
4.1431813247005084e-07 7.6733068361953985e-08 0
4.2301699494773583e-07 -4.2278472122564855e-08 0
1.3898141409444630e-06 5.4574050026967278e-08 0
1.3884459042667186e-06 1.4762680326777547e-07 0
4.1384724088421193e-07 -8.6444197288594941e-08 0
4.1745015365103794e-07 1.2721891595961628e-07 0
5.8263111952260531e-07 4.8966716182526430e-09 0
5.9560184920296984e-07 8.6662367778942027e-08 0
5.8240094584043050e-07 2.6468875267729810e-08 0
6.0381412116769688e-07 6.6775779647683327e-08 0
4.2036073822039910e-07 7.8276224389685472e-08 0
4.4989177285405722e-07 -3.1888615949883719e-08 0
1.3961897291493543e-06 5.9807855718100046e-08 0
1.4905576149023653e-06 1.8631430269092956e-07 0
4.2125377741979681e-07 -8.3598349092016009e-08 0
4.4216175855951413e-07 1.4945174487926854e-07 0
5.9044483146212740e-07 1.0391225212614464e-08 0
6.4173559911045034e-07 1.0676371996020934e-07 0
5.9068272637401167e-07 3.3712465359428006e-08 0
6.5269327241615911e-07 8.4668872904450466e-08 0
4.2888221084346226e-07 8.6794291837106621e-08 0
4.8844627011165078e-07 -2.6550375471200623e-08 0
1.4063177625429427e-06 7.9786691580810150e-08 0
1.6399635469389657e-06 2.2305004747527740e-07 0
4.3266210594787891e-07 -7.3448033315975461e-08 0
4.7920270326255180e-07 1.7240614581339180e-07 0
6.0055312929606770e-07 2.4987385586507369e-08 0
7.0682200789312335e-07 1.2543214091717621e-07 0
6.0124251903852013e-07 4.9858383131775703e-08 0
7.2111631198133897e-07 1.0081781466953880e-07 0
4.3989122086308362e-07 1.0127998468555886e-07 0
5.4141637959549458e-07 -2.5282229282471473e-08 0
1.4156864592179034e-06 1.1077156097034157e-07 0
1.8467078649838055e-06 2.6294790810417033e-07 0
4.4890632424397092e-07 -5.5960269751531110e-08 0
5.3172455650339058e-07 1.9805017698031361e-07 0
6.1993145757039046e-07 4.8383605496181943e-08 0
8.0061857171496096e-07 1.4482248105987625e-07 0
6.2168809159644377e-07 7.8753036946175429e-08 0
8.1998229159176042e-07 1.1497072347795563e-07 0
4.5999966508783927e-07 1.3766793298744791e-07 0
6.1830673938774898e-07 -3.6399263082501891e-08 0
1.4587450232677137e-06 1.9080705351314990e-07 0
2.1513086878600196e-06 2.9348744479417116e-07 0
4.7851194977565337e-07 -1.8375165793688381e-08 0
6.1019684842959891e-07 2.2377678766091927e-07 0
6.4334680149466363e-07 1.0175821906708136e-07 0
9.3175412323640239e-07 1.5842223873478076e-07 0
6.4848727366730792e-07 1.3125052637092376e-07 0
9.6014280296858130e-07 1.2636516600836048e-07 0
4.9212439067639221e-07 1.7025599678767952e-07 0
7.3279598962334367e-07 -4.3805950363562978e-08 0
1.5013478202408053e-06 2.4498159043729390e-07 0
2.5939764115094418e-06 3.6680980788878879e-07 0
5.3124121524318305e-07 2.7833515097356502e-08 0
7.3201656613405715e-07 2.6336295584213802e-07 0
7.6152757995090060e-07 1.7477261814797114e-07 0
1.1824787530351707e-06 1.8025121728617160e-07 0
7.9311650290124201e-07 2.7031032278766122e-07 0
1.2356597008052975e-06 1.1631892051755259e-07 0
6.5572655432865535e-07 4.8352681872321641e-07 0
9.8247678858190442e-07 -1.6835616661632518e-07 0
2.1120905784396063e-06 9.9111021089432841e-07 0
3.5821384012568939e-06 2.2740163041719170e-07 0
8.6816616020230955e-07 8.2580555843753555e-07 0
1.0161633744812647e-06 4.6947212512587465e-08 0
1.3804577190655616e-06 1.8386334920559567e-06 0
1.8491955950338470e-06 -4.6703522353690683e-07 0
2.0289180696767708e-06 3.0369816856540211e-06 0
2.3908698923711041e-06 -1.1969025951028983e-06 0
4.9461953940673232e-06 4.9122565666970799e-06 0
4.8726606265557418e-06 -1.7882463321120642e-06 0
6.1200679930365430e-06 4.8709206241277178e-06 0
6.2354284525582175e-06 3.2179945956108729e-06 0
5.2947344021417895e-06 1.7545483573389973e-06 0
5.1212188274882933e-06 1.0294220497159663e-06 0
5.8741147098200525e-06 -3.8755656841021372e-07 0
5.5517545988008101e-06 -2.3646761225008878e-06 0

VECTORS Forces1 float
-1.0255618250797642e-01 6.4334868433833001e-02 0
-8.8523438816004427e-02 -5.0394081848807046e-02 0
1.4220605324205440e+00 -7.9161816681614117e-01 0
1.2174007711276560e+00 6.7537972054128848e-01 0
1.5583650050396629e+00 -2.4283713211340077e-01 0
1.3333614175808974e+00 2.0957213219936985e-01 0
9.9131179430566951e-01 4.0363504602001068e-02 0
8.4784719236677286e-01 -3.3380048603488331e-02 0
-1.4947497436180390e-01 -5.6117849325621142e-03 0
-1.2807880111859601e-01 4.5371937870284781e-03 0
3.7951303158998280e+00 -1.9972909169844004e-03 0
3.2466285712826219e+00 2.4399795117081523e-02 0
-1.6040405240823813e-01 -1.3678556021768970e-04 0
-1.3798293193175229e-01 -1.7243795389049507e-03 0
1.0774638533073111e+00 -1.4475831602037141e-03 0
9.2576217188985410e-01 1.3964006133574670e-02 0
1.0775488999011615e+00 -1.4696683344674387e-03 0
9.2585558689849612e-01 1.3995425037148230e-02 0
-1.6049842621483787e-01 -3.1556605421074406e-06 0
-1.3812922361372140e-01 -1.9289325323932802e-03 0
3.7885045173548551e+00 -8.9195655333713115e-03 0
3.2865996206570594e+00 7.9072083662480488e-02 0
-1.5993660930311282e-01 3.0644208028967186e-04 0
-1.4094601288172462e-01 -4.4002886058562363e-03 0
1.0737892609376116e+00 -3.5866402735017602e-03 0
9.4579760974077065e-01 3.1377967995074023e-02 0
1.0737869896831267e+00 -3.5892105569851991e-03 0
9.4582957161852277e-01 3.1396140198008217e-02 0
-1.5990349499059373e-01 3.0288779823726709e-04 0
-1.4114204170013567e-01 -4.5087122832559176e-03 0
3.7760609407358041e+00 -1.1407247290104209e-02 0
3.3957429940781090e+00 1.4015854005520487e-01 0
-1.5925208650985428e-01 1.1803342249149097e-04 0
-1.4701726690093608e-01 -6.8856055245661539e-03 0
1.0693608194501576e+00 -2.3014386054640143e-03 0
9.8715686680503156e-01 4.8176263576010736e-02 0
1.0693544348086930e+00 -2.3039080105280766e-03 0
9.8720660956124273e-01 4.8196313023099367e-02 0
-1.5921532395171034e-01 7.5896517581987489e-05 0
-1.4736796951678569e-01 -6.9804041279046495e-03 0
3.7548185466755850e+00 6.6599851447346752e-04 0
3.5785138038412274e+00 1.9775713514377732e-01 0
-1.5817361499637406e-01 -7.8784512576294315e-04 0
-1.5639545059340387e-01 -9.2013710331166759e-03 0
1.0622294753621107e+00 3.6828047631501889e-03 0
1.0506490983478805e+00 6.3951857167762749e-02 0
1.0622176381683517e+00 3.6824103807411536e-03 0
1.0507190599587051e+00 6.3973794157220307e-02 0
-1.5811369966102531e-01 -8.9133860246538420e-04 0
-1.5691311031066849e-01 -9.2730463854453493e-03 0
3.7238794536019895e+00 3.8152364197528731e-02 0
3.8467869465368860e+00 2.4846053745361762e-01 0
-1.5627636056289390e-01 -3.1081587905716357e-03 0
-1.6958234039643810e-01 -1.1112196843402323e-02 0
1.0495633254948975e+00 1.9067149021335078e-02 0
1.1396977161678561e+00 7.7163612914350865e-02 0
1.0495484858973347e+00 1.9063661088533659e-02 0
1.1397933636182267e+00 7.7192656003814114e-02 0
-1.5621691707877011e-01 -3.2765357903162926e-03 0
-1.7033264183081123e-01 -1.1164663214778978e-02 0
3.6703183475992947e+00 9.2835754009576346e-02 0
4.2168212325531007e+00 3.0157898215424889e-01 0
-1.5490863325492257e-01 -5.8266983604796721e-03 0
-1.8860640614860583e-01 -1.3420464550443599e-02 0
1.0406923940109396e+00 3.6561356217380020e-02 0
1.2680388514209349e+00 9.3504142044381081e-02 0
1.0406646867497966e+00 3.6558419553026182e-02 0
1.2681596257120527e+00 9.3541068287620002e-02 0
-1.5483254806497201e-01 -6.2149890054320877e-03 0
-1.8969905836661141e-01 -1.3391568915827578e-02 0
3.6536235084632431e+00 2.3553573469058994e-01 0
4.7640441287156721e+00 3.2911261440807638e-01 0
-1.5133173987290191e-01 -1.5101657962948392e-02 0
-2.1485534441915805e-01 -1.3451175424531565e-02 0
1.0161221985934885e+00 9.7840390255302237e-02 0
1.4440012887937685e+00 9.4928546904173849e-02 0
1.0160609444435611e+00 9.7742805166466482e-02 0
1.4441004667298956e+00 9.5009373718015572e-02 0
-1.5194864917671122e-01 -1.5740634330496092e-02 0
-2.1709806031418105e-01 -1.3422520137966904e-02 0
3.5910728883942111e+00 3.0712283476403507e-01 0
5.5467662274112577e+00 4.3479592588924099e-01 0
-1.6815419129059558e-01 -1.7413456056052483e-02 0
-2.6768894803623233e-01 -1.9443001139889785e-02 0
1.1249893955203774e+00 1.0391983395094732e-01 0
1.7919143500403432e+00 1.3878166672950715e-01 0
1.1246860076330647e+00 1.0349976789097942e-01 0
1.7916765800841341e+00 1.3897972326765082e-01 0
-1.6997783963637381e-01 -2.1428442054777053e-02 0
-2.7316301905580026e-01 -1.7636249195383157e-02 0
4.3897986921603094e+00 1.2193311225768690e+00 0
7.3684243612670706e+00 1.7812178604794729e-01 0
-1.9163308488021505e-01 -1.0459066605034341e-01 0
-3.7503506906203926e-01 2.1283776627135188e-02 0
1.3955448346103125e+00 6.7998330716183042e-01 0
2.6000150354012579e+00 -6.3418136532469679e-02 0
9.2619744497350354e-01 3.7849817425503024e-01 0
2.0277735769468181e+00 -5.6840294402260447e-02 0
4.5089898273357596e+00 2.8028724176653728e+00 0
5.2595789862362112e+00 8.8585976529447732e-02 0
3.3023136507013934e-01 3.4366074901586774e-01 0
3.1869063608520021e+00 2.1415770783033672e+00 0
1.9854862680125518e+00 1.7839474591041349e+00 0
1.8318119508325577e+00 1.9246375434887439e+00 0
3.2825337303220525e+00 9.4018378707805494e-01 0
5.4418924728396523e-01 -1.8710766180606606e-01 0

