# vtk DataFile Version 2.0

ASCII

DATASET UNSTRUCTURED_GRID

POINTS 106 float 

-5.0000000000000003e-02  0.0000000000000000e+00  0.0000000000000000e+00
5.0000000000000003e-02  0.0000000000000000e+00  0.0000000000000000e+00
-5.0000000000000003e-02  2.0000000000000000e-02  0.0000000000000000e+00
5.0000000000000003e-02  2.0000000000000000e-02  0.0000000000000000e+00
-5.0000000000000003e-02  4.0000000000000001e-02  0.0000000000000000e+00
5.0000000000000003e-02  4.0000000000000001e-02  0.0000000000000000e+00
-5.0000000000000003e-02  5.9999999999999998e-02  0.0000000000000000e+00
5.0000000000000003e-02  5.9999999999999998e-02  0.0000000000000000e+00
-5.0000000000000003e-02  8.0000000000000002e-02  0.0000000000000000e+00
5.0000000000000003e-02  8.0000000000000002e-02  0.0000000000000000e+00
-5.0000000000000003e-02  1.0000000000000001e-01  0.0000000000000000e+00
5.0000000000000003e-02  1.0000000000000001e-01  0.0000000000000000e+00
-5.0000000000000003e-02  1.2000000000000000e-01  0.0000000000000000e+00
5.0000000000000003e-02  1.2000000000000000e-01  0.0000000000000000e+00
-5.0000000000000003e-02  1.4000000000000001e-01  0.0000000000000000e+00
5.0000000000000003e-02  1.4000000000000001e-01  0.0000000000000000e+00
-5.0000000000000003e-02  1.6000000000000000e-01  0.0000000000000000e+00
5.0000000000000003e-02  1.6000000000000000e-01  0.0000000000000000e+00
-5.0000000000000003e-02  1.7999999999999999e-01  0.0000000000000000e+00
5.0000000000000003e-02  1.7999999999999999e-01  0.0000000000000000e+00
-5.0000000000000003e-02  2.0000000000000001e-01  0.0000000000000000e+00
5.0000000000000003e-02  2.0000000000000001e-01  0.0000000000000000e+00
-5.0000000000000003e-02  2.2000000000000000e-01  0.0000000000000000e+00
5.0000000000000003e-02  2.2000000000000000e-01  0.0000000000000000e+00
-5.0000000000000003e-02  2.3999999999999999e-01  0.0000000000000000e+00
5.0000000000000003e-02  2.3999999999999999e-01  0.0000000000000000e+00
-5.0000000000000003e-02  2.6000000000000001e-01  0.0000000000000000e+00
5.0000000000000003e-02  2.6000000000000001e-01  0.0000000000000000e+00
-5.0000000000000003e-02  2.8000000000000003e-01  0.0000000000000000e+00
5.0000000000000003e-02  2.8000000000000003e-01  0.0000000000000000e+00
-5.0000000000000003e-02  2.9999999999999999e-01  0.0000000000000000e+00
5.0000000000000003e-02  2.9999999999999999e-01  0.0000000000000000e+00
-5.0000000000000003e-02  3.2000000000000001e-01  0.0000000000000000e+00
5.0000000000000003e-02  3.2000000000000001e-01  0.0000000000000000e+00
-5.0000000000000003e-02  3.4000000000000002e-01  0.0000000000000000e+00
5.0000000000000003e-02  3.4000000000000002e-01  0.0000000000000000e+00
-5.0000000000000003e-02  3.5999999999999999e-01  0.0000000000000000e+00
5.0000000000000003e-02  3.5999999999999999e-01  0.0000000000000000e+00
-5.0000000000000003e-02  3.8000000000000000e-01  0.0000000000000000e+00
5.0000000000000003e-02  3.8000000000000000e-01  0.0000000000000000e+00
-5.0000000000000003e-02  4.0000000000000002e-01  0.0000000000000000e+00
5.0000000000000003e-02  4.0000000000000002e-01  0.0000000000000000e+00
-5.0000000000000003e-02  4.1999999999999998e-01  0.0000000000000000e+00
5.0000000000000003e-02  4.1999999999999998e-01  0.0000000000000000e+00
-5.0000000000000003e-02  4.4000000000000000e-01  0.0000000000000000e+00
5.0000000000000003e-02  4.4000000000000000e-01  0.0000000000000000e+00
-5.0000000000000003e-02  4.6000000000000002e-01  0.0000000000000000e+00
5.0000000000000003e-02  4.6000000000000002e-01  0.0000000000000000e+00
-5.0000000000000003e-02  4.7999999999999998e-01  0.0000000000000000e+00
5.0000000000000003e-02  4.7999999999999998e-01  0.0000000000000000e+00
-5.0000000000000003e-02  5.0000000000000000e-01  0.0000000000000000e+00
5.0000000000000003e-02  5.0000000000000000e-01  0.0000000000000000e+00
-5.0000000000000003e-02  5.2000000000000002e-01  0.0000000000000000e+00
5.0000000000000003e-02  5.2000000000000002e-01  0.0000000000000000e+00
-5.0000000000000003e-02  5.4000000000000004e-01  0.0000000000000000e+00
5.0000000000000003e-02  5.4000000000000004e-01  0.0000000000000000e+00
-5.0000000000000003e-02  5.6000000000000005e-01  0.0000000000000000e+00
5.0000000000000003e-02  5.6000000000000005e-01  0.0000000000000000e+00
-5.0000000000000003e-02  5.7999999999999996e-01  0.0000000000000000e+00
5.0000000000000003e-02  5.7999999999999996e-01  0.0000000000000000e+00
-5.0000000000000003e-02  5.9999999999999998e-01  0.0000000000000000e+00
5.0000000000000003e-02  5.9999999999999998e-01  0.0000000000000000e+00
-5.0000000000000003e-02  6.2000000000000000e-01  0.0000000000000000e+00
5.0000000000000003e-02  6.2000000000000000e-01  0.0000000000000000e+00
-5.0000000000000003e-02  6.4000000000000001e-01  0.0000000000000000e+00
5.0000000000000003e-02  6.4000000000000001e-01  0.0000000000000000e+00
-5.0000000000000003e-02  6.6000000000000003e-01  0.0000000000000000e+00
5.0000000000000003e-02  6.6000000000000003e-01  0.0000000000000000e+00
-5.0000000000000003e-02  6.8000000000000005e-01  0.0000000000000000e+00
5.0000000000000003e-02  6.8000000000000005e-01  0.0000000000000000e+00
-5.0000000000000003e-02  6.9999999999999996e-01  0.0000000000000000e+00
5.0000000000000003e-02  6.9999999999999996e-01  0.0000000000000000e+00
-5.0000000000000003e-02  7.1999999999999997e-01  0.0000000000000000e+00
5.0000000000000003e-02  7.1999999999999997e-01  0.0000000000000000e+00
-5.0000000000000003e-02  7.3999999999999999e-01  0.0000000000000000e+00
5.0000000000000003e-02  7.3999999999999999e-01  0.0000000000000000e+00
-5.0000000000000003e-02  7.6000000000000001e-01  0.0000000000000000e+00
5.0000000000000003e-02  7.6000000000000001e-01  0.0000000000000000e+00
-5.0000000000000003e-02  7.8000000000000003e-01  0.0000000000000000e+00
5.0000000000000003e-02  7.8000000000000003e-01  0.0000000000000000e+00
-5.0000000000000003e-02  8.0000000000000004e-01  0.0000000000000000e+00
5.0000000000000003e-02  8.0000000000000004e-01  0.0000000000000000e+00
-5.0000000000000003e-02  8.1999999999999995e-01  0.0000000000000000e+00
5.0000000000000003e-02  8.1999999999999995e-01  0.0000000000000000e+00
-5.0000000000000003e-02  8.3999999999999997e-01  0.0000000000000000e+00
5.0000000000000003e-02  8.3999999999999997e-01  0.0000000000000000e+00
-5.0000000000000003e-02  8.5999999999999999e-01  0.0000000000000000e+00
5.0000000000000003e-02  8.5999999999999999e-01  0.0000000000000000e+00
-5.0000000000000003e-02  8.8000000000000000e-01  0.0000000000000000e+00
5.0000000000000003e-02  8.8000000000000000e-01  0.0000000000000000e+00
-5.0000000000000003e-02  9.0000000000000002e-01  0.0000000000000000e+00
5.0000000000000003e-02  9.0000000000000002e-01  0.0000000000000000e+00
-5.0000000000000003e-02  9.2000000000000004e-01  0.0000000000000000e+00
5.0000000000000003e-02  9.2000000000000004e-01  0.0000000000000000e+00
-5.0000000000000003e-02  9.3999999999999995e-01  0.0000000000000000e+00
5.0000000000000003e-02  9.3999999999999995e-01  0.0000000000000000e+00
-5.0000000000000003e-02  9.5999999999999996e-01  0.0000000000000000e+00
5.0000000000000003e-02  9.5999999999999996e-01  0.0000000000000000e+00
-5.0000000000000003e-02  9.7999999999999998e-01  0.0000000000000000e+00
5.0000000000000003e-02  9.7999999999999998e-01  0.0000000000000000e+00
-5.0000000000000003e-02  1.0000000000000000e+00  0.0000000000000000e+00
-3.0000000000000002e-02  1.0000000000000000e+00  0.0000000000000000e+00
-1.0000000000000002e-02  1.0000000000000000e+00  0.0000000000000000e+00
1.0000000000000009e-02  1.0000000000000000e+00  0.0000000000000000e+00
2.9999999999999999e-02  1.0000000000000000e+00  0.0000000000000000e+00
5.0000000000000003e-02  1.0000000000000000e+00  0.0000000000000000e+00

CELLS 0 0


CELL_TYPES 0


POINT_DATA 106

VECTORS VertexNormals float

0.0000000000000000e+00 0.0000000000000000e+00 0
0.0000000000000000e+00 0.0000000000000000e+00 0
0.0000000000000000e+00 0.0000000000000000e+00 0
0.0000000000000000e+00 0.0000000000000000e+00 0
0.0000000000000000e+00 0.0000000000000000e+00 0
0.0000000000000000e+00 0.0000000000000000e+00 0
0.0000000000000000e+00 0.0000000000000000e+00 0
0.0000000000000000e+00 0.0000000000000000e+00 0
0.0000000000000000e+00 0.0000000000000000e+00 0
0.0000000000000000e+00 0.0000000000000000e+00 0
0.0000000000000000e+00 0.0000000000000000e+00 0
0.0000000000000000e+00 0.0000000000000000e+00 0
0.0000000000000000e+00 0.0000000000000000e+00 0
0.0000000000000000e+00 0.0000000000000000e+00 0
0.0000000000000000e+00 0.0000000000000000e+00 0
0.0000000000000000e+00 0.0000000000000000e+00 0
0.0000000000000000e+00 0.0000000000000000e+00 0
0.0000000000000000e+00 0.0000000000000000e+00 0
0.0000000000000000e+00 0.0000000000000000e+00 0
0.0000000000000000e+00 0.0000000000000000e+00 0
0.0000000000000000e+00 0.0000000000000000e+00 0
0.0000000000000000e+00 0.0000000000000000e+00 0
0.0000000000000000e+00 0.0000000000000000e+00 0
0.0000000000000000e+00 0.0000000000000000e+00 0
0.0000000000000000e+00 0.0000000000000000e+00 0
0.0000000000000000e+00 0.0000000000000000e+00 0
0.0000000000000000e+00 0.0000000000000000e+00 0
0.0000000000000000e+00 0.0000000000000000e+00 0
0.0000000000000000e+00 0.0000000000000000e+00 0
0.0000000000000000e+00 0.0000000000000000e+00 0
0.0000000000000000e+00 0.0000000000000000e+00 0
0.0000000000000000e+00 0.0000000000000000e+00 0
0.0000000000000000e+00 0.0000000000000000e+00 0
0.0000000000000000e+00 0.0000000000000000e+00 0
0.0000000000000000e+00 0.0000000000000000e+00 0
0.0000000000000000e+00 0.0000000000000000e+00 0
0.0000000000000000e+00 0.0000000000000000e+00 0
0.0000000000000000e+00 0.0000000000000000e+00 0
0.0000000000000000e+00 0.0000000000000000e+00 0
0.0000000000000000e+00 0.0000000000000000e+00 0
0.0000000000000000e+00 0.0000000000000000e+00 0
0.0000000000000000e+00 0.0000000000000000e+00 0
0.0000000000000000e+00 0.0000000000000000e+00 0
0.0000000000000000e+00 0.0000000000000000e+00 0
0.0000000000000000e+00 0.0000000000000000e+00 0
0.0000000000000000e+00 0.0000000000000000e+00 0
0.0000000000000000e+00 0.0000000000000000e+00 0
0.0000000000000000e+00 0.0000000000000000e+00 0
0.0000000000000000e+00 0.0000000000000000e+00 0
0.0000000000000000e+00 0.0000000000000000e+00 0
0.0000000000000000e+00 0.0000000000000000e+00 0
0.0000000000000000e+00 0.0000000000000000e+00 0
0.0000000000000000e+00 0.0000000000000000e+00 0
0.0000000000000000e+00 0.0000000000000000e+00 0
0.0000000000000000e+00 0.0000000000000000e+00 0
0.0000000000000000e+00 0.0000000000000000e+00 0
0.0000000000000000e+00 0.0000000000000000e+00 0
0.0000000000000000e+00 0.0000000000000000e+00 0
0.0000000000000000e+00 0.0000000000000000e+00 0
0.0000000000000000e+00 0.0000000000000000e+00 0
0.0000000000000000e+00 0.0000000000000000e+00 0
0.0000000000000000e+00 0.0000000000000000e+00 0
0.0000000000000000e+00 0.0000000000000000e+00 0
0.0000000000000000e+00 0.0000000000000000e+00 0
0.0000000000000000e+00 0.0000000000000000e+00 0
0.0000000000000000e+00 0.0000000000000000e+00 0
0.0000000000000000e+00 0.0000000000000000e+00 0
0.0000000000000000e+00 0.0000000000000000e+00 0
0.0000000000000000e+00 0.0000000000000000e+00 0
0.0000000000000000e+00 0.0000000000000000e+00 0
0.0000000000000000e+00 0.0000000000000000e+00 0
0.0000000000000000e+00 0.0000000000000000e+00 0
0.0000000000000000e+00 0.0000000000000000e+00 0
0.0000000000000000e+00 0.0000000000000000e+00 0
0.0000000000000000e+00 0.0000000000000000e+00 0
0.0000000000000000e+00 0.0000000000000000e+00 0
0.0000000000000000e+00 0.0000000000000000e+00 0
0.0000000000000000e+00 0.0000000000000000e+00 0
0.0000000000000000e+00 0.0000000000000000e+00 0
0.0000000000000000e+00 0.0000000000000000e+00 0
0.0000000000000000e+00 0.0000000000000000e+00 0
0.0000000000000000e+00 0.0000000000000000e+00 0
0.0000000000000000e+00 0.0000000000000000e+00 0
0.0000000000000000e+00 0.0000000000000000e+00 0
0.0000000000000000e+00 0.0000000000000000e+00 0
0.0000000000000000e+00 0.0000000000000000e+00 0
0.0000000000000000e+00 0.0000000000000000e+00 0
0.0000000000000000e+00 0.0000000000000000e+00 0
0.0000000000000000e+00 0.0000000000000000e+00 0
0.0000000000000000e+00 0.0000000000000000e+00 0
0.0000000000000000e+00 0.0000000000000000e+00 0
0.0000000000000000e+00 0.0000000000000000e+00 0
0.0000000000000000e+00 0.0000000000000000e+00 0
0.0000000000000000e+00 0.0000000000000000e+00 0
0.0000000000000000e+00 0.0000000000000000e+00 0
0.0000000000000000e+00 0.0000000000000000e+00 0
0.0000000000000000e+00 0.0000000000000000e+00 0
0.0000000000000000e+00 0.0000000000000000e+00 0
0.0000000000000000e+00 0.0000000000000000e+00 0
0.0000000000000000e+00 0.0000000000000000e+00 0
0.0000000000000000e+00 0.0000000000000000e+00 0
0.0000000000000000e+00 0.0000000000000000e+00 0
0.0000000000000000e+00 0.0000000000000000e+00 0
0.0000000000000000e+00 0.0000000000000000e+00 0
0.0000000000000000e+00 0.0000000000000000e+00 0
0.0000000000000000e+00 0.0000000000000000e+00 0

VECTORS Displacements1 float
-5.3557992363899436e-17 2.9921692628196459e-17 0
-8.3751725710688301e-23 1.1448830175465141e-23 0
1.1140387430380477e-06 2.2293267574171736e-07 0
1.0814131333666922e-06 -1.8012349785170021e-07 0
1.7405601959743528e-06 2.8659424367665535e-07 0
1.6653306716152038e-06 -2.3015047991992444e-07 0
1.9155716327651151e-06 2.3541188175988131e-07 0
1.8452676352111360e-06 -1.8183566391653802e-07 0
1.8451728878238858e-06 1.5598753226202679e-07 0
1.8011139727538048e-06 -1.2689664375031897e-07 0
2.9644658480485582e-06 6.7787338828366345e-08 0
2.7708256877847662e-06 1.0105848858845283e-07 0
1.8269600173362280e-06 -1.0689896397068421e-07 0
1.7820707638570029e-06 1.3043952691360259e-07 0
2.0327924097884972e-06 -5.7442060126618682e-10 0
1.9644020568537576e-06 9.0151169617154997e-08 0
2.0484086559678320e-06 2.8740692135042499e-08 0
1.9802441368461560e-06 7.1757368170906457e-08 0
1.8502254557663442e-06 8.2224648851659657e-08 0
1.8100846065535571e-06 -7.4184362813956359e-09 0
2.9731834149524080e-06 7.7607074597405540e-08 0
2.7937219709259183e-06 1.6044397678543589e-07 0
1.8589581001756875e-06 -7.1139812444375977e-08 0
1.8147986712339261e-06 1.4577574400724324e-07 0
2.0713674261814416e-06 2.8925411884240032e-08 0
2.0115736584074922e-06 1.1567490127612462e-07 0
2.0806901771569430e-06 5.1971129526244551e-08 0
2.0214985009248195e-06 1.0555754369596485e-07 0
1.8842410112206274e-06 1.0404688191967605e-07 0
1.8516101880033772e-06 2.4785895980143325e-08 0
3.0134613941704204e-06 9.7124391142270730e-08 0
2.8825138769912808e-06 2.2425654609647135e-07 0
1.9012652276095379e-06 -5.4169792884334162e-08 0
1.8599722813433703e-06 1.9029383467474465e-07 0
2.1191348565481929e-06 4.7800824583296060e-08 0
2.0795393864296440e-06 1.6322286425392797e-07 0
2.1346885514237792e-06 7.3713390547179901e-08 0
2.0972066848548088e-06 1.5313703412255222e-07 0
1.9444542584777207e-06 1.2789366039626835e-07 0
1.9239172513696637e-06 6.3456409096422774e-08 0
3.0823949604249499e-06 1.2857173295685019e-07 0
3.0364901210079690e-06 2.9403560702641393e-07 0
1.9721604945320650e-06 -2.6272616096229977e-08 0
1.9380366910179030e-06 2.3841656674516495e-07 0
2.1945281836777083e-06 8.2133366914626179e-08 0
2.1875300010878069e-06 2.1030186862593421e-07 0
2.2168365728614306e-06 1.1322942708150021e-07 0
2.2134609187869287e-06 1.9918689559568872e-07 0
2.0334127631187325e-06 1.7070016911914672e-07 0
2.0307890784553938e-06 9.7288867845664472e-08 0
3.1828452571406799e-06 1.8855799281411289e-07 0
3.2631923592807955e-06 3.6205421742491894e-07 0
2.0754633168200386e-06 2.2223128977376092e-08 0
2.0532258268438527e-06 2.8653449663784944e-07 0
2.3011812612644079e-06 1.4058495631514015e-07 0
2.3422144745871226e-06 2.5543156448520129e-07 0
2.3320213939300327e-06 1.7868366600218394e-07 0
2.3784014267012440e-06 2.4328621671988694e-07 0
2.1577765389441602e-06 2.3826140679516058e-07 0
2.1804801135422551e-06 1.2669437980728803e-07 0
3.3167858755714337e-06 2.8237907786820073e-07 0
3.5786288520497577e-06 4.3199413961164077e-07 0
2.2207202213735997e-06 1.0376426820435242e-07 0
2.2151862824811990e-06 3.3328080162423779e-07 0
2.4585127241222161e-06 2.3750929922519002e-07 0
2.5630147735345112e-06 2.9687123324274398e-07 0
2.5049028959279974e-06 2.8922757136467143e-07 0
2.6169096147245039e-06 2.8193063256300946e-07 0
2.3462856949283196e-06 3.6176649232007990e-07 0
2.4013988292662122e-06 1.4166589251815144e-07 0
3.5503127630195613e-06 4.6510816638666925e-07 0
4.0499961146224712e-06 4.9194186773422006e-07 0
2.4524573198801220e-06 2.4293296488580013e-07 0
2.4679008460439699e-06 3.7742290103769857e-07 0
2.6994325795849699e-06 4.1176499995339324e-07 0
2.8991506543104626e-06 3.2825296778700082e-07 0
2.7782407158938272e-06 4.8915774979976560e-07 0
2.9828831735930066e-06 3.1213531291013206e-07 0
2.6614219452226743e-06 5.8880867534863209e-07 0
2.7450282199366477e-06 1.4993507007215497e-07 0
3.9248467015664982e-06 8.2330529763127075e-07 0
4.7480413278092203e-06 5.7362851298289649e-07 0
2.9049327157548170e-06 7.6247262272007754e-07 0
2.8498405524615427e-06 3.8484726562650224e-07 0
3.3436762885874256e-06 1.2395171819242672e-06 0
3.4584474964208112e-06 2.7992987645817999e-07 0
3.5606273369321774e-06 1.7808515581629821e-06 0
3.5841390255189023e-06 1.3280723926770257e-07 0
3.5219250558814251e-06 2.6499105635602231e-06 0
3.2979207032895748e-06 -4.0357800773254812e-07 0
5.4137775324658698e-06 4.2428973579931369e-06 0
6.1924789705391451e-06 -5.3102483258914482e-07 0
4.6481974512065574e-06 5.3352849360057107e-06 0
4.1305584558991632e-06 -1.6734841610283425e-06 0
6.6453665123429361e-06 7.8769340104872831e-06 0
6.5149253831699482e-06 -3.1653593100802723e-06 0
9.4973759365642127e-06 1.0340197678081729e-05 0
9.2292900952898319e-06 -4.6420519748678332e-06 0
1.5224693804060288e-05 1.3091634300877004e-05 0
1.4261030988892799e-05 -5.5059635563219503e-06 0
1.8995429903500924e-05 1.3196406002481035e-05 0
1.8987307895948564e-05 8.9359526450900698e-06 0
1.7631462988235069e-05 4.9336467913278785e-06 0
1.7087663153106272e-05 1.8608772311542817e-06 0
1.7651030539006119e-05 -1.8247470579383899e-06 0
1.7251042624680144e-05 -6.1897713814212039e-06 0

VECTORS Forces1 float
-1.6511064794221553e-01 1.0092590101791615e-01 0
-1.1615152423577785e-01 -6.7237523934615906e-02 0
2.2241822930563204e+00 -1.2357133516124958e+00 0
1.5932659465965384e+00 8.8305550586355663e-01 0
2.4361660515517700e+00 -3.7899858337052028e-01 0
1.7476802393467508e+00 2.7321097998223043e-01 0
1.5506004863351184e+00 6.3137640378405024e-02 0
1.1122678877640400e+00 -4.4101236584577500e-02 0
-2.3376631229498479e-01 -8.6345751421314197e-03 0
-1.6800628615791802e-01 5.9962044918948120e-03 0
5.9507701146585683e+00 -4.4449375350873882e-04 0
4.2700251943805680e+00 2.5194402457187216e-02 0
-2.5217754835169481e-01 -3.0034793508629894e-04 0
-1.8161893385246464e-01 -1.8775211480001140e-03 0
1.6940455485749017e+00 -8.7158018688518414e-04 0
1.2187733020414357e+00 1.5460800429197296e-02 0
1.6941788267828704e+00 -9.0707720860030690e-04 0
1.2188976464807069e+00 1.5496881581076146e-02 0
-2.5240226935975413e-01 -1.1608157240455683e-04 0
-1.8179766380361331e-01 -2.1399908742178392e-03 0
5.9711460819381195e+00 -5.1205482177563511e-03 0
4.3206454738955040e+00 9.0577476381819386e-02 0
-2.5248934891839070e-01 -3.5792555563713603e-05 0
-1.8468567168472907e-01 -5.0647034530513961e-03 0
1.6950165088213525e+00 -1.4000043591406901e-03 0
1.2393963707370297e+00 3.6059408617629914e-02 0
1.6950170036945453e+00 -1.4005433952244202e-03 0
1.2394285166582979e+00 3.6080046940158095e-02 0
-2.5247397744458028e-01 -5.4424638841347626e-05 0
-1.8487317908503351e-01 -5.1942432409917486e-03 0
5.9677897065216658e+00 1.3122608231963323e-03 0
4.4265717306764438e+00 1.6126380961768785e-01 0
-2.5194993880148220e-01 -6.3960027711015550e-04 0
-1.9043464856620215e-01 -7.9676242773802832e-03 0
1.6914789654864213e+00 2.7071265873634428e-03 0
1.2785748052025290e+00 5.5654828039600278e-02 0
1.6914720546437516e+00 2.7070193657336480e-03 0
1.2786231067166809e+00 5.5677644333072977e-02 0
-2.5191101370181967e-01 -7.0393233704210364e-04 0
-1.9075958603727056e-01 -8.0826689967735330e-03 0
5.9446983263497621e+00 2.3787965814052656e-02 0
4.5978258101607281e+00 2.2967644816297650e-01 0
-2.5063282261147080e-01 -2.0404615217706895e-03 0
-1.9919837468636781e-01 -1.0756403562171847e-02 0
1.6826622507608191e+00 1.2016163806387703e-02 0
1.3379543767988282e+00 7.4630988333296913e-02 0
1.6826467441091111e+00 1.2018681617294932e-02 0
1.3380221251477686e+00 7.4656335431447646e-02 0
-2.5055381575006275e-01 -2.1751785408772760e-03 0
-1.9967577772126333e-01 -1.0850014411035315e-02 0
5.9035630363103477e+00 7.5971063086984703e-02 0
4.8488795186954636e+00 2.9206428142181090e-01 0
-2.4806106655453186e-01 -5.1121981095273031e-03 0
-2.1152846753994792e-01 -1.3191838319146167e-02 0
1.6653412924827853e+00 3.2455934900056549e-02 0
1.4212969571945788e+00 9.1406817670383722e-02 0
1.6653189420804002e+00 3.2455838027122409e-02 0
1.4213904381914266e+00 9.1440139242159810e-02 0
-2.4796826204973932e-01 -5.3236037244759043e-03 0
-2.1222477565596445e-01 -1.3267853213428433e-02 0
5.8274376879014316e+00 1.4961343817725437e-01 0
5.1961866597927457e+00 3.5879864540183337e-01 0
-2.4565964356402636e-01 -8.7437577412803717e-03 0
-2.2950086090943392e-01 -1.6099669758904492e-02 0
1.6493415882628135e+00 5.6037854649413923e-02 0
1.5426809850539094e+00 1.1184288138031416e-01 0
1.6492976904440131e+00 5.6040389234622040e-02 0
1.5428001907693338e+00 1.1188569609376026e-01 0
-2.4552944763167522e-01 -9.2123569835883216e-03 0
-2.3052078009413479e-01 -1.6100119768584463e-02 0
5.7803119614613401e+00 3.2797166373659853e-01 0
5.7158998796988749e+00 4.0261163019233320e-01 0
-2.3998965165434788e-01 -2.0122102116655889e-02 0
-2.5434808256360503e-01 -1.6974285578392850e-02 0
1.6101551247116430e+00 1.3144350618379719e-01 0
1.7093610041458587e+00 1.1907883253544667e-01 0
1.6100553580512547e+00 1.3134511631882925e-01 0
1.7094588330808183e+00 1.1916590163966795e-01 0
-2.4064356328645048e-01 -2.0898944009514173e-02 0
-2.5656549320570426e-01 -1.6982946233605779e-02 0
5.6569901024340457e+00 4.3752634789406430e-01 0
6.4734406371373305e+00 5.3339398895026735e-01 0
-2.5658060865193388e-01 -2.4603737983971669e-02 0
-3.0755732548821979e-01 -2.3832055054588692e-02 0
1.7155598046878664e+00 1.5117628170912209e-01 0
2.0597190305150601e+00 1.6872081192363447e-01 0
1.7150632824625602e+00 1.5073826005516860e-01 0
2.0594917717925800e+00 1.6892623480245247e-01 0
-2.5861164160547662e-01 -2.9196307856248237e-02 0
-3.1292790382892677e-01 -2.1982100187030399e-02 0
6.4285343329268168e+00 1.5507234389867985e+00 0
8.3220737025480496e+00 2.7896063714129860e-01 0
-2.7091397598693251e-01 -1.2644725193665685e-01 0
-4.1384126668586368e-01 1.7856502746590581e-02 0
1.9287144234389759e+00 8.2846290821937185e-01 0
2.8824170769862083e+00 -3.1391414059933433e-02 0
1.3593022351914594e+00 4.8860252939940568e-01 0
2.2606020647590226e+00 -3.8218557051651669e-02 0
5.4061133167628768e+00 3.1517103665783512e+00 0
5.7274959631376987e+00 2.2938630090347187e-01 0
4.3708038024129348e-01 3.8900884538807379e-01 0
3.7787552899211749e+00 2.3269938376889554e+00 0
2.2256022004883089e+00 1.9170414741277042e+00 0
2.0594693016869456e+00 2.0977762497464907e+00 0
3.5770167759236902e+00 1.1099481021795221e+00 0
5.6888313292268444e-01 -1.9128389944997840e-01 0

