# vtk DataFile Version 2.0

ASCII

DATASET UNSTRUCTURED_GRID

POINTS 106 float 

-5.0000000000000003e-02  0.0000000000000000e+00  0.0000000000000000e+00
5.0000000000000003e-02  0.0000000000000000e+00  0.0000000000000000e+00
-5.0000000000000003e-02  2.0000000000000000e-02  0.0000000000000000e+00
5.0000000000000003e-02  2.0000000000000000e-02  0.0000000000000000e+00
-5.0000000000000003e-02  4.0000000000000001e-02  0.0000000000000000e+00
5.0000000000000003e-02  4.0000000000000001e-02  0.0000000000000000e+00
-5.0000000000000003e-02  5.9999999999999998e-02  0.0000000000000000e+00
5.0000000000000003e-02  5.9999999999999998e-02  0.0000000000000000e+00
-5.0000000000000003e-02  8.0000000000000002e-02  0.0000000000000000e+00
5.0000000000000003e-02  8.0000000000000002e-02  0.0000000000000000e+00
-5.0000000000000003e-02  1.0000000000000001e-01  0.0000000000000000e+00
5.0000000000000003e-02  1.0000000000000001e-01  0.0000000000000000e+00
-5.0000000000000003e-02  1.2000000000000000e-01  0.0000000000000000e+00
5.0000000000000003e-02  1.2000000000000000e-01  0.0000000000000000e+00
-5.0000000000000003e-02  1.4000000000000001e-01  0.0000000000000000e+00
5.0000000000000003e-02  1.4000000000000001e-01  0.0000000000000000e+00
-5.0000000000000003e-02  1.6000000000000000e-01  0.0000000000000000e+00
5.0000000000000003e-02  1.6000000000000000e-01  0.0000000000000000e+00
-5.0000000000000003e-02  1.7999999999999999e-01  0.0000000000000000e+00
5.0000000000000003e-02  1.7999999999999999e-01  0.0000000000000000e+00
-5.0000000000000003e-02  2.0000000000000001e-01  0.0000000000000000e+00
5.0000000000000003e-02  2.0000000000000001e-01  0.0000000000000000e+00
-5.0000000000000003e-02  2.2000000000000000e-01  0.0000000000000000e+00
5.0000000000000003e-02  2.2000000000000000e-01  0.0000000000000000e+00
-5.0000000000000003e-02  2.3999999999999999e-01  0.0000000000000000e+00
5.0000000000000003e-02  2.3999999999999999e-01  0.0000000000000000e+00
-5.0000000000000003e-02  2.6000000000000001e-01  0.0000000000000000e+00
5.0000000000000003e-02  2.6000000000000001e-01  0.0000000000000000e+00
-5.0000000000000003e-02  2.8000000000000003e-01  0.0000000000000000e+00
5.0000000000000003e-02  2.8000000000000003e-01  0.0000000000000000e+00
-5.0000000000000003e-02  2.9999999999999999e-01  0.0000000000000000e+00
5.0000000000000003e-02  2.9999999999999999e-01  0.0000000000000000e+00
-5.0000000000000003e-02  3.2000000000000001e-01  0.0000000000000000e+00
5.0000000000000003e-02  3.2000000000000001e-01  0.0000000000000000e+00
-5.0000000000000003e-02  3.4000000000000002e-01  0.0000000000000000e+00
5.0000000000000003e-02  3.4000000000000002e-01  0.0000000000000000e+00
-5.0000000000000003e-02  3.5999999999999999e-01  0.0000000000000000e+00
5.0000000000000003e-02  3.5999999999999999e-01  0.0000000000000000e+00
-5.0000000000000003e-02  3.8000000000000000e-01  0.0000000000000000e+00
5.0000000000000003e-02  3.8000000000000000e-01  0.0000000000000000e+00
-5.0000000000000003e-02  4.0000000000000002e-01  0.0000000000000000e+00
5.0000000000000003e-02  4.0000000000000002e-01  0.0000000000000000e+00
-5.0000000000000003e-02  4.1999999999999998e-01  0.0000000000000000e+00
5.0000000000000003e-02  4.1999999999999998e-01  0.0000000000000000e+00
-5.0000000000000003e-02  4.4000000000000000e-01  0.0000000000000000e+00
5.0000000000000003e-02  4.4000000000000000e-01  0.0000000000000000e+00
-5.0000000000000003e-02  4.6000000000000002e-01  0.0000000000000000e+00
5.0000000000000003e-02  4.6000000000000002e-01  0.0000000000000000e+00
-5.0000000000000003e-02  4.7999999999999998e-01  0.0000000000000000e+00
5.0000000000000003e-02  4.7999999999999998e-01  0.0000000000000000e+00
-5.0000000000000003e-02  5.0000000000000000e-01  0.0000000000000000e+00
5.0000000000000003e-02  5.0000000000000000e-01  0.0000000000000000e+00
-5.0000000000000003e-02  5.2000000000000002e-01  0.0000000000000000e+00
5.0000000000000003e-02  5.2000000000000002e-01  0.0000000000000000e+00
-5.0000000000000003e-02  5.4000000000000004e-01  0.0000000000000000e+00
5.0000000000000003e-02  5.4000000000000004e-01  0.0000000000000000e+00
-5.0000000000000003e-02  5.6000000000000005e-01  0.0000000000000000e+00
5.0000000000000003e-02  5.6000000000000005e-01  0.0000000000000000e+00
-5.0000000000000003e-02  5.7999999999999996e-01  0.0000000000000000e+00
5.0000000000000003e-02  5.7999999999999996e-01  0.0000000000000000e+00
-5.0000000000000003e-02  5.9999999999999998e-01  0.0000000000000000e+00
5.0000000000000003e-02  5.9999999999999998e-01  0.0000000000000000e+00
-5.0000000000000003e-02  6.2000000000000000e-01  0.0000000000000000e+00
5.0000000000000003e-02  6.2000000000000000e-01  0.0000000000000000e+00
-5.0000000000000003e-02  6.4000000000000001e-01  0.0000000000000000e+00
5.0000000000000003e-02  6.4000000000000001e-01  0.0000000000000000e+00
-5.0000000000000003e-02  6.6000000000000003e-01  0.0000000000000000e+00
5.0000000000000003e-02  6.6000000000000003e-01  0.0000000000000000e+00
-5.0000000000000003e-02  6.8000000000000005e-01  0.0000000000000000e+00
5.0000000000000003e-02  6.8000000000000005e-01  0.0000000000000000e+00
-5.0000000000000003e-02  6.9999999999999996e-01  0.0000000000000000e+00
5.0000000000000003e-02  6.9999999999999996e-01  0.0000000000000000e+00
-5.0000000000000003e-02  7.1999999999999997e-01  0.0000000000000000e+00
5.0000000000000003e-02  7.1999999999999997e-01  0.0000000000000000e+00
-5.0000000000000003e-02  7.3999999999999999e-01  0.0000000000000000e+00
5.0000000000000003e-02  7.3999999999999999e-01  0.0000000000000000e+00
-5.0000000000000003e-02  7.6000000000000001e-01  0.0000000000000000e+00
5.0000000000000003e-02  7.6000000000000001e-01  0.0000000000000000e+00
-5.0000000000000003e-02  7.8000000000000003e-01  0.0000000000000000e+00
5.0000000000000003e-02  7.8000000000000003e-01  0.0000000000000000e+00
-5.0000000000000003e-02  8.0000000000000004e-01  0.0000000000000000e+00
5.0000000000000003e-02  8.0000000000000004e-01  0.0000000000000000e+00
-5.0000000000000003e-02  8.1999999999999995e-01  0.0000000000000000e+00
5.0000000000000003e-02  8.1999999999999995e-01  0.0000000000000000e+00
-5.0000000000000003e-02  8.3999999999999997e-01  0.0000000000000000e+00
5.0000000000000003e-02  8.3999999999999997e-01  0.0000000000000000e+00
-5.0000000000000003e-02  8.5999999999999999e-01  0.0000000000000000e+00
5.0000000000000003e-02  8.5999999999999999e-01  0.0000000000000000e+00
-5.0000000000000003e-02  8.8000000000000000e-01  0.0000000000000000e+00
5.0000000000000003e-02  8.8000000000000000e-01  0.0000000000000000e+00
-5.0000000000000003e-02  9.0000000000000002e-01  0.0000000000000000e+00
5.0000000000000003e-02  9.0000000000000002e-01  0.0000000000000000e+00
-5.0000000000000003e-02  9.2000000000000004e-01  0.0000000000000000e+00
5.0000000000000003e-02  9.2000000000000004e-01  0.0000000000000000e+00
-5.0000000000000003e-02  9.3999999999999995e-01  0.0000000000000000e+00
5.0000000000000003e-02  9.3999999999999995e-01  0.0000000000000000e+00
-5.0000000000000003e-02  9.5999999999999996e-01  0.0000000000000000e+00
5.0000000000000003e-02  9.5999999999999996e-01  0.0000000000000000e+00
-5.0000000000000003e-02  9.7999999999999998e-01  0.0000000000000000e+00
5.0000000000000003e-02  9.7999999999999998e-01  0.0000000000000000e+00
-5.0000000000000003e-02  1.0000000000000000e+00  0.0000000000000000e+00
-3.0000000000000002e-02  1.0000000000000000e+00  0.0000000000000000e+00
-1.0000000000000002e-02  1.0000000000000000e+00  0.0000000000000000e+00
1.0000000000000009e-02  1.0000000000000000e+00  0.0000000000000000e+00
2.9999999999999999e-02  1.0000000000000000e+00  0.0000000000000000e+00
5.0000000000000003e-02  1.0000000000000000e+00  0.0000000000000000e+00

CELLS 0 0


CELL_TYPES 0


POINT_DATA 106

VECTORS VertexNormals float

0.0000000000000000e+00 0.0000000000000000e+00 0
0.0000000000000000e+00 0.0000000000000000e+00 0
0.0000000000000000e+00 0.0000000000000000e+00 0
0.0000000000000000e+00 0.0000000000000000e+00 0
0.0000000000000000e+00 0.0000000000000000e+00 0
0.0000000000000000e+00 0.0000000000000000e+00 0
0.0000000000000000e+00 0.0000000000000000e+00 0
0.0000000000000000e+00 0.0000000000000000e+00 0
0.0000000000000000e+00 0.0000000000000000e+00 0
0.0000000000000000e+00 0.0000000000000000e+00 0
0.0000000000000000e+00 0.0000000000000000e+00 0
0.0000000000000000e+00 0.0000000000000000e+00 0
0.0000000000000000e+00 0.0000000000000000e+00 0
0.0000000000000000e+00 0.0000000000000000e+00 0
0.0000000000000000e+00 0.0000000000000000e+00 0
0.0000000000000000e+00 0.0000000000000000e+00 0
0.0000000000000000e+00 0.0000000000000000e+00 0
0.0000000000000000e+00 0.0000000000000000e+00 0
0.0000000000000000e+00 0.0000000000000000e+00 0
0.0000000000000000e+00 0.0000000000000000e+00 0
0.0000000000000000e+00 0.0000000000000000e+00 0
0.0000000000000000e+00 0.0000000000000000e+00 0
0.0000000000000000e+00 0.0000000000000000e+00 0
0.0000000000000000e+00 0.0000000000000000e+00 0
0.0000000000000000e+00 0.0000000000000000e+00 0
0.0000000000000000e+00 0.0000000000000000e+00 0
0.0000000000000000e+00 0.0000000000000000e+00 0
0.0000000000000000e+00 0.0000000000000000e+00 0
0.0000000000000000e+00 0.0000000000000000e+00 0
0.0000000000000000e+00 0.0000000000000000e+00 0
0.0000000000000000e+00 0.0000000000000000e+00 0
0.0000000000000000e+00 0.0000000000000000e+00 0
0.0000000000000000e+00 0.0000000000000000e+00 0
0.0000000000000000e+00 0.0000000000000000e+00 0
0.0000000000000000e+00 0.0000000000000000e+00 0
0.0000000000000000e+00 0.0000000000000000e+00 0
0.0000000000000000e+00 0.0000000000000000e+00 0
0.0000000000000000e+00 0.0000000000000000e+00 0
0.0000000000000000e+00 0.0000000000000000e+00 0
0.0000000000000000e+00 0.0000000000000000e+00 0
0.0000000000000000e+00 0.0000000000000000e+00 0
0.0000000000000000e+00 0.0000000000000000e+00 0
0.0000000000000000e+00 0.0000000000000000e+00 0
0.0000000000000000e+00 0.0000000000000000e+00 0
0.0000000000000000e+00 0.0000000000000000e+00 0
0.0000000000000000e+00 0.0000000000000000e+00 0
0.0000000000000000e+00 0.0000000000000000e+00 0
0.0000000000000000e+00 0.0000000000000000e+00 0
0.0000000000000000e+00 0.0000000000000000e+00 0
0.0000000000000000e+00 0.0000000000000000e+00 0
0.0000000000000000e+00 0.0000000000000000e+00 0
0.0000000000000000e+00 0.0000000000000000e+00 0
0.0000000000000000e+00 0.0000000000000000e+00 0
0.0000000000000000e+00 0.0000000000000000e+00 0
0.0000000000000000e+00 0.0000000000000000e+00 0
0.0000000000000000e+00 0.0000000000000000e+00 0
0.0000000000000000e+00 0.0000000000000000e+00 0
0.0000000000000000e+00 0.0000000000000000e+00 0
0.0000000000000000e+00 0.0000000000000000e+00 0
0.0000000000000000e+00 0.0000000000000000e+00 0
0.0000000000000000e+00 0.0000000000000000e+00 0
0.0000000000000000e+00 0.0000000000000000e+00 0
0.0000000000000000e+00 0.0000000000000000e+00 0
0.0000000000000000e+00 0.0000000000000000e+00 0
0.0000000000000000e+00 0.0000000000000000e+00 0
0.0000000000000000e+00 0.0000000000000000e+00 0
0.0000000000000000e+00 0.0000000000000000e+00 0
0.0000000000000000e+00 0.0000000000000000e+00 0
0.0000000000000000e+00 0.0000000000000000e+00 0
0.0000000000000000e+00 0.0000000000000000e+00 0
0.0000000000000000e+00 0.0000000000000000e+00 0
0.0000000000000000e+00 0.0000000000000000e+00 0
0.0000000000000000e+00 0.0000000000000000e+00 0
0.0000000000000000e+00 0.0000000000000000e+00 0
0.0000000000000000e+00 0.0000000000000000e+00 0
0.0000000000000000e+00 0.0000000000000000e+00 0
0.0000000000000000e+00 0.0000000000000000e+00 0
0.0000000000000000e+00 0.0000000000000000e+00 0
0.0000000000000000e+00 0.0000000000000000e+00 0
0.0000000000000000e+00 0.0000000000000000e+00 0
0.0000000000000000e+00 0.0000000000000000e+00 0
0.0000000000000000e+00 0.0000000000000000e+00 0
0.0000000000000000e+00 0.0000000000000000e+00 0
0.0000000000000000e+00 0.0000000000000000e+00 0
0.0000000000000000e+00 0.0000000000000000e+00 0
0.0000000000000000e+00 0.0000000000000000e+00 0
0.0000000000000000e+00 0.0000000000000000e+00 0
0.0000000000000000e+00 0.0000000000000000e+00 0
0.0000000000000000e+00 0.0000000000000000e+00 0
0.0000000000000000e+00 0.0000000000000000e+00 0
0.0000000000000000e+00 0.0000000000000000e+00 0
0.0000000000000000e+00 0.0000000000000000e+00 0
0.0000000000000000e+00 0.0000000000000000e+00 0
0.0000000000000000e+00 0.0000000000000000e+00 0
0.0000000000000000e+00 0.0000000000000000e+00 0
0.0000000000000000e+00 0.0000000000000000e+00 0
0.0000000000000000e+00 0.0000000000000000e+00 0
0.0000000000000000e+00 0.0000000000000000e+00 0
0.0000000000000000e+00 0.0000000000000000e+00 0
0.0000000000000000e+00 0.0000000000000000e+00 0
0.0000000000000000e+00 0.0000000000000000e+00 0
0.0000000000000000e+00 0.0000000000000000e+00 0
0.0000000000000000e+00 0.0000000000000000e+00 0
0.0000000000000000e+00 0.0000000000000000e+00 0
0.0000000000000000e+00 0.0000000000000000e+00 0
0.0000000000000000e+00 0.0000000000000000e+00 0

VECTORS Displacements1 float
-5.4973140806132218e-17 3.0711940932953492e-17 0
-1.0095444919481714e-22 2.3609942467579016e-23 0
1.3428281215832115e-06 3.9242455411472624e-07 0
1.3037169300690589e-06 -3.5210659554936220e-07 0
2.1864875384984269e-06 5.1953815393141117e-07 0
2.1035600470352625e-06 -4.6255968235121458e-07 0
2.5382677576350830e-06 4.5886881608209239e-07 0
2.4606574057615050e-06 -4.0174374686317981e-07 0
2.5875690972524116e-06 3.3666134296094733e-07 0
2.5426313554817686e-06 -2.9873057088169314e-07 0
3.8090365696354774e-06 1.8486924111891605e-07 0
3.5868334302186125e-06 -1.8230321765569176e-09 0
2.6594314522984555e-06 -4.3062887157156508e-08 0
2.6152436745437115e-06 7.8851315186606189e-08 0
2.8972905226372643e-06 3.5827655250125905e-08 0
2.8157303749763235e-06 7.3678378042958574e-08 0
2.9084017059736903e-06 2.7164773226135595e-08 0
2.8253716498992755e-06 9.5462569236551908e-08 0
2.6731297981662761e-06 8.5367853780342017e-08 0
2.6310570281674437e-06 1.7214448289936028e-08 0
3.8234222705861148e-06 9.7609884872235289e-08 0
3.6147239428246540e-06 1.7527059260772302e-07 0
2.6938032185163055e-06 -3.6224329927069206e-08 0
2.6460498563779234e-06 1.4625730400751440e-07 0
2.9598906565355876e-06 7.1891891318375274e-08 0
2.8862384935891281e-06 1.1832459047726130e-07 0
2.9732937986385948e-06 6.4330416696320330e-08 0
2.8966511612049107e-06 1.4196927220089893e-07 0
2.7306831484150625e-06 1.2351436842966664e-07 0
2.6901709648798845e-06 5.7821119264174932e-08 0
3.8871136627638147e-06 1.3932392450709075e-07 0
3.7215425762192881e-06 2.4550835162206823e-07 0
2.7598417693454294e-06 2.9190082425218328e-09 0
2.7104756452737553e-06 1.9606256008136463e-07 0
3.0340683602166103e-06 1.1339661116302363e-07 0
2.9767505214343132e-06 1.7214477318314272e-07 0
3.0566496666074154e-06 1.0740407403925012e-07 0
2.9946351551549700e-06 1.9907142200667517e-07 0
2.8217451996989341e-06 1.6821277069742701e-07 0
2.7860766142115469e-06 1.0657599787313995e-07 0
3.9903775084886161e-06 1.9395370482455862e-07 0
3.9017715162430113e-06 3.2582771569000614e-07 0
2.8679791031832700e-06 5.4274984711454415e-08 0
2.8186799926029994e-06 2.5370582932335787e-07 0
3.1513574601775591e-06 1.7208403167527327e-07 0
3.1199479918230845e-06 2.3001890512891981e-07 0
3.1843598528207491e-06 1.7132949842877508e-07 0
3.1466426387334894e-06 2.5860780203653547e-07 0
2.9573385318185563e-06 2.3653796993043564e-07 0
2.9290717836029958e-06 1.5309470009641239e-07 0
4.1414207632897656e-06 2.8294222770260795e-07 0
4.1676644456849697e-06 4.0676737436805041e-07 0
3.0255363101905268e-06 1.3309431136648453e-07 0
2.9775060107590053e-06 3.1301653030083910e-07 0
3.3182647721495540e-06 2.6302155627214524e-07 0
3.3249684653142655e-06 2.8767719523471631e-07 0
3.3644822806489113e-06 2.7017687165396897e-07 0
3.3623832438727032e-06 3.1879216198331135e-07 0
3.1476123240164739e-06 3.4001711310474447e-07 0
3.1291747208955783e-06 1.9713785279200418e-07 0
4.3461240993646588e-06 4.1833052552131533e-07 0
4.5375582384649278e-06 4.9109075292410835e-07 0
3.2477356428869411e-06 2.5860451665914147e-07 0
3.2005877160134325e-06 3.7161439885784744e-07 0
3.5619620337225536e-06 4.0673535774098966e-07 0
3.6176449129068104e-06 3.4251532305229200e-07 0
3.6326232194785349e-06 4.2964072941711664e-07 0
3.6761447184144279e-06 3.7538032493507909e-07 0
3.4358011478403772e-06 5.1764279669129964e-07 0
3.4279583275775572e-06 2.2772603550975682e-07 0
4.6900965498311802e-06 6.6705708470869743e-07 0
5.0955892821068336e-06 5.6542097905106920e-07 0
3.6009065918074685e-06 4.7421353073228714e-07 0
3.5501228416440511e-06 4.2554623197488954e-07 0
3.9486127259336726e-06 6.8316315917999615e-07 0
4.0649670850095672e-06 3.8816482578749514e-07 0
4.0729165491236467e-06 7.7785111398685597e-07 0
4.1483540497127118e-06 4.3032960915913999e-07 0
3.9401962142345612e-06 9.7223374197245575e-07 0
3.8679292490025601e-06 2.6095689259495004e-07 0
5.2805133812035478e-06 1.3690177685467585e-06 0
5.8886614697132228e-06 6.6330418459721445e-07 0
4.3216941880555071e-06 1.4803213786872729e-06 0
4.0271862970372194e-06 4.3748867533461274e-07 0
4.8564896560123563e-06 2.1610126662843915e-06 0
4.6972670758267380e-06 2.9445655245204771e-07 0
5.0562578252977194e-06 2.9481819431441830e-06 0
4.7679897261420958e-06 8.2482563703385081e-08 0
5.0004152424837376e-06 4.2504931110068740e-06 0
4.4344095791460983e-06 -7.4843046179984005e-07 0
7.2034768380581926e-06 6.4384463305104290e-06 0
7.6185579052336416e-06 -1.3210723022993061e-06 0
7.0550190444623193e-06 8.0630946861831619e-06 0
6.2505283031192745e-06 -2.9251717193034927e-06 0
1.0008872328700412e-05 1.0974552964336831e-05 0
9.6651371442462342e-06 -4.6960668691737364e-06 0
1.3833316316844733e-05 1.3562110692587349e-05 0
1.3453440016456754e-05 -6.2354625897549295e-06 0
2.0481870811551366e-05 1.6368216032028424e-05 0
1.9469006860389938e-05 -7.1182066281862962e-06 0
2.5125967210632042e-05 1.6467834972306916e-05 0
2.5131096163618179e-05 1.1349114218085659e-05 0
2.3811908374804741e-05 6.4115353735844864e-06 0
2.3317325709354301e-05 2.3289910922012232e-06 0
2.3895160995104967e-05 -2.4271143930176628e-06 0
2.3503863311097996e-05 -7.8325039456401301e-06 0

VECTORS Forces1 float
-1.8246940719844923e-01 1.1119275972872630e-01 0
-1.2919635107362787e-01 -7.4973936707080996e-02 0
2.4465995790367279e+00 -1.3587568806793195e+00 0
1.7636605440137589e+00 9.7708097868694599e-01 0
2.6799384121664680e+00 -4.1659702709581287e-01 0
1.9348790893328387e+00 3.0184217926988521e-01 0
1.7060355702501220e+00 6.9539877594021665e-02 0
1.2316996464730439e+00 -4.9117536779609984e-02 0
-2.5720228694388136e-01 -9.4851682454796474e-03 0
-1.8602122498058596e-01 6.6653140321745940e-03 0
6.5521119928521818e+00 6.0223605895825302e-04 0
4.7326516182018414e+00 2.4289430218869017e-02 0
-2.7791576668954360e-01 -3.5718037172215796e-04 0
-2.0142830083742699e-01 -1.8735565561424864e-03 0
1.8669802470376606e+00 -6.1403774882769820e-04 0
1.3518696841556401e+00 1.5551000307417157e-02 0
1.8671286558573026e+00 -6.5272529032320043e-04 0
1.3520067464909113e+00 1.5589629299131240e-02 0
-2.7818285063884307e-01 -1.5763550883997809e-04 0
-2.0163562645325853e-01 -2.1546633415898751e-03 0
6.5857638337759550e+00 -3.7167029531154135e-03 0
4.7932542704353303e+00 9.2374439487438578e-02 0
-2.7857302522955923e-01 -1.5655787472671376e-04 0
-2.0472230914097991e-01 -5.1715121591337978e-03 0
1.8701107043783134e+00 -5.8419172887640971e-04 0
1.3739189786050512e+00 3.6798069358151567e-02 0
1.8701119920071505e+00 -5.8391284432958912e-04 0
1.3739516187214433e+00 3.6819064660141620e-02 0
-2.7856311892209795e-01 -1.8012023508493525e-04 0
-2.0491185242475235e-01 -5.3054251333171801e-03 0
6.5844916942749965e+00 5.9479989411202749e-03 0
4.8996860973365663e+00 1.6464506213132760e-01 0
-2.7796959546676275e-01 -9.0552432544336453e-04 0
-2.1037858344746416e-01 -8.1491665433223674e-03 0
1.8660842602875898e+00 4.5126341917552295e-03 0
1.4124352034254866e+00 5.6889011115591338e-02 0
1.8660762830561850e+00 4.5135084985867061e-03 0
1.4124827451731288e+00 5.6912191620238542e-02 0
-2.7792200172807935e-01 -9.7661105260957886e-04 0
-2.1069388734132458e-01 -8.2685274975806255e-03 0
6.5568796117364609e+00 3.1915984506468896e-02 0
5.0665547177182653e+00 2.3512064620568199e-01 0
-2.7635987465838280e-01 -2.4615982885309719e-03 0
-2.1887145425401702e-01 -1.1033177372526598e-02 0
1.8552653466373967e+00 1.4868991065900882e-02 0
1.4699796706877295e+00 7.6505571643781661e-02 0
1.8552473259463402e+00 1.4872641121952692e-02 0
1.4700457558794175e+00 7.6531416158726912e-02 0
-2.7626160460655541e-01 -2.6045286052641422e-03 0
-2.1932994564227412e-01 -1.1132246760515708e-02 0
6.5060809097559895e+00 8.8358386888646598e-02 0
5.3088894297643607e+00 3.0001980077521168e-01 0
-2.7325472485516311e-01 -5.7387678092456519e-03 0
-2.3073039754165239e-01 -1.3590343389408722e-02 0
1.8343170212821232e+00 3.6699226176992207e-02 0
1.5501429823258503e+00 9.4100667066865235e-02 0
1.8342907602843113e+00 3.6700511162441829e-02 0
1.5502338033179535e+00 9.4134545510944731e-02 0
-2.7313347222428819e-01 -5.9604258904177240e-03 0
-2.3139706205529090e-01 -1.3672920642880976e-02 0
6.4143977916940145e+00 1.6720707608088195e-01 0
5.6423835208948203e+00 3.6981283255887143e-01 0
-2.7014325951002149e-01 -9.6121179993497018e-03 0
-2.4800236234977627e-01 -1.6633904160241231e-02 0
1.8135018172117028e+00 6.1912593619989333e-02 0
1.6668134004985133e+00 1.1544531590798443e-01 0
1.8134510672925952e+00 6.1917620941524261e-02 0
1.6669278769083997e+00 1.1548874662786796e-01 0
-2.6996773484393194e-01 -1.0100287984418289e-02 0
-2.4897167495552422e-01 -1.6644590076616953e-02 0
6.3464328578217302e+00 3.5492749844114785e-01 0
6.1401451924987942e+00 4.1777202124369478e-01 0
-2.6314977229153191e-01 -2.1584381490907370e-02 0
-2.7153573630111622e-01 -1.7749953929658443e-02 0
1.7652639283528981e+00 1.4135762154143594e-01 0
1.8246057014222341e+00 1.2430360552028774e-01 0
1.7651517173911442e+00 1.4126170830806273e-01 0
1.8246973425731301e+00 1.2438987585329059e-01 0
-2.6376157786106086e-01 -2.2391986258755062e-02 0
-2.7370057733633046e-01 -1.7775135533696296e-02 0
6.1843708138715190e+00 4.7775842716484790e-01 0
6.8638185708667221e+00 5.5473287201183463e-01 0
-2.7861499455021271e-01 -2.6658982438615270e-02 0
-3.2382688155614825e-01 -2.4813446714178913e-02 0
1.8627521888745888e+00 1.6497012487550136e-01 0
2.1687813639151865e+00 1.7517862606759885e-01 0
1.8622113872557531e+00 1.6453562642001071e-01 0
2.1685429177726130e+00 1.7537593379062705e-01 0
-2.8059269727773523e-01 -3.1330587401142154e-02 0
-3.2908357735489102e-01 -2.3006490083350345e-02 0
6.9194931579690246e+00 1.6293418069105146e+00 0
8.6859403855112269e+00 3.0454612567793299e-01 0
-2.8871256896294778e-01 -1.3082773237713646e-01 0
-4.2677079026314602e-01 1.6335281769397324e-02 0
2.0481884605810818e+00 8.5957885847698134e-01 0
2.9726844291621672e+00 -2.0242666350907573e-02 0
1.4602153030435481e+00 5.1365253380934728e-01 0
2.3408166100189121e+00 -3.4202119216460020e-02 0
5.5695587747985389e+00 3.2072664804552335e+00 0
5.8165055450957963e+00 2.9939923761222159e-01 0
4.5707211854974689e-01 3.9462903615043610e-01 0
3.8845741393880115e+00 2.3535395640280532e+00 0
2.2604057498227861e+00 1.9530023081901184e+00 0
2.0910990606990159e+00 2.1467798168506644e+00 0
3.6296213803150068e+00 1.1792587968697918e+00 0
5.7545971778343963e-01 -1.8683711078946005e-01 0

