Timestep  Iteration  resNorm(0)  resNorm(1)  resNorm(2)  resNorm(3)  
1  1  0.0869267394397517  0.1119699042020437  1.0000000000000000  1.0000000000000000  
1  2  0.1241851575643355  0.1137752359871911  0.8550672103287191  1.4333033642024597  
1  3  0.0044089513865876  0.0032671723744491  0.8031182566367966  0.3059675047545038  
1  4  0.0013366032816049  0.0011317066329923  0.0573940899401859  0.0265597594401075  
1  5  0.0000799035364953  0.0000503999755917  0.0210929966384200  0.0134817843455470  
1  6  0.0000100809458188  0.0000064199572249  0.0021748876556125  0.0011318693160995  
1  7  0.0000014491170726  0.0000009628233782  0.0002809397752224  0.0001520396386402  
1  8  0.0000002096257830  0.0000001444379850  0.0000405360352085  0.0000226337308310  
1  9  0.0000000304627080  0.0000000216992758  0.0000058841403767  0.0000033899350998  
1  10  0.0000000044338683  0.0000000032537569  0.0000008608852155  0.0000005103542726  
1  11  0.0000000027725662  0.0000000020659273  0.0000001973836859  0.0000001168447720  
1  12  0.0000000004035800  0.0000000003093022  0.0000000789098251  0.0000000487895881  
1  13  0.0000000000586513  0.0000000000461709  0.0000000115301499  0.0000000073295350  
1  14  0.0000000000084599  0.0000000000068447  0.0000000016810874  0.0000000010987663  
1  15  0.0000000000012198  0.0000000000010234  0.0000000002441613  0.0000000001632958  
1  16  0.0000000000001839  0.0000000000001514  0.0000000000354353  0.0000000000248215  
1  17  0.0000000000000167  0.0000000000000151  0.0000000000053807  0.0000000000036162  
1  18  0.0000000000000013  0.0000000000000014  0.0000000000004585  0.0000000000002987  
2  1  0.1145331324822449  0.1117436401355386  1.3295009933219581  1.0469820243577641  
2  2  0.0208202650889276  0.0125042906825286  1.7192398646488383  1.3076415025079040  
2  3  0.0159183127046458  0.0160581306637229  0.2972034674631946  0.4591917299146936  
2  4  0.0003527511982292  0.0004215155617726  0.1492585737203816  0.2214605029163743  
2  5  0.0001050730892220  0.0001389954541337  0.0071637990705965  0.0104510763802412  
2  6  0.0000162733156145  0.0000228455570129  0.0017149958062331  0.0025203623982722  
2  7  0.0000025311779224  0.0000034317423676  0.0004360175166367  0.0005825594980083  
2  8  0.0000003660822191  0.0000004215538176  0.0000637296375013  0.0000891470532612  
2  9  0.0000000471014978  0.0000000542216015  0.0000094580896027  0.0000115518313719  
2  10  0.0000000062662781  0.0000000070829202  0.0000012244453550  0.0000014619639782  
2  11  0.0000000008277407  0.0000000009410535  0.0000001584904607  0.0000001918494542  
2  12  0.0000000005674987  0.0000000006488717  0.0000000347522700  0.0000000420672835  
2  13  0.0000000000761181  0.0000000000820132  0.0000000146552316  0.0000000174670073  
2  14  0.0000000000096560  0.0000000000110457  0.0000000019551983  0.0000000022075219  
2  15  0.0000000000014278  0.0000000000015106  0.0000000002479706  0.0000000003008838  
2  16  0.0000000000001789  0.0000000000001787  0.0000000000385817  0.0000000000417486  
2  17  0.0000000000000167  0.0000000000000165  0.0000000000047336  0.0000000000047293  
2  18  0.0000000000000026  0.0000000000000029  0.0000000000004126  0.0000000000004243  
3  1  0.1082428699766933  0.1057617382827933  1.3345924063593648  1.0264215165130086  
3  2  0.0000000022678970  0.0000000040126318  1.4636655492292681  1.2905095130998370  
3  3  0.0000000021589466  0.0000000034737856  0.0000000665158472  0.0000001289686355  
3  4  0.0000000001163407  0.0000000001759868  0.0000000315065945  0.0000000616863804  
3  5  0.0000000000150031  0.0000000000256498  0.0000000026706497  0.0000000032185150  
3  6  0.0000000000047125  0.0000000000051136  0.0000000004378491  0.0000000004946802  
3  7  0.0000000000007655  0.0000000000012294  0.0000000001303926  0.0000000001304214  
3  8  0.0000000000000768  0.0000000000001470  0.0000000000188500  0.0000000000275657  
3  9  0.0000000000000126  0.0000000000000196  0.0000000000019053  0.0000000000039902  
3  10  0.0000000000000019  0.0000000000000029  0.0000000000003288  0.0000000000005082  
4  1  0.1025896946690304  0.1003721145904310  1.3320621532850077  1.0032279936522499  
4  2  0.0000000000000042  0.0000000000000037  1.3552458746021325  1.1983302462843366  
4  3  0.0000000000000042  0.0000000000000040  0.0000000000001049  0.0000000000001414  
5  1  0.0974839676635274  0.0954930771095496  1.3220386843351610  0.9780204730831726  
5  2  0.0000000000000047  0.0000000000000032  1.2617806418709840  1.1184415631986631  
5  3  0.0000000000000037  0.0000000000000026  0.0000000000000812  0.0000000000000997  
6  1  0.0928516650784586  0.0910569229439791  1.3050184047779849  0.9513845711986814  
6  2  0.0000000000000025  0.0000000000000042  1.1803754391695831  1.0485389654987822  
6  3  0.0000000000000024  0.0000000000000041  0.0000000000000574  0.0000000000000981  
7  1  0.0886312183467506  0.0870071471780962  1.2817998255265139  0.9238489053797964  
7  2  0.0000000000000043  0.0000000000000030  1.1088375337653684  0.9868602028223966  
7  3  0.0000000000000041  0.0000000000000030  0.0000000000001024  0.0000000000000974  
8  1  0.0847710664500916  0.0832962741357050  1.2533858907440891  0.8958717119675634  
8  2  0.0000000000000037  0.0000000000000060  1.0454753889787631  0.9320346359989208  
8  3  0.0000000000000040  0.0000000000000058  0.0000000000000767  0.0000000000001240  
9  1  0.0812277472594710  0.0798841607370624  1.2208762334362713  0.8678360473683154  
9  2  0.0000000000000050  0.0000000000000026  0.9889632057907096  0.8829801814726667  
9  3  0.0000000000000046  0.0000000000000022  0.0000000000001001  0.0000000000000839  
10  1  0.0779643989687183  0.0767366598781786  1.1853691453369049  0.8400513649054521  
10  2  0.0000000000000041  0.0000000000000065  0.9382471439553119  0.8388311723990469  
10  3  0.0000000000000051  0.0000000000000056  0.0000000000000852  0.0000000000001256  