<?xml version="1.0"?>
<VTKFile type="UnstructuredGrid"  version="0.1"  >
<UnstructuredGrid>
<Piece  NumberOfPoints="306" NumberOfCells="500">
<Points>
<DataArray  type="Float64"  NumberOfComponents="3"  format="ascii">-0.05 0 0  -0.03 0 0  -0.01 0 0  0.01000000000000001 0 0  0.03 0 0  0.05 0 0  -0.05 0.02 0  -0.03 0.02 0  -0.01 0.02 0  0.01000000000000001 0.02 0  0.03 0.02 0  0.05 0.02 0  -0.05 0.04 0  -0.03 0.04 0  -0.01 0.04 0  0.01000000000000001 0.04 0  0.03 0.04 0  0.05 0.04 0  -0.05 0.06 0  -0.03 0.06 0  -0.01 0.06 0  0.01000000000000001 0.06 0  0.03 0.06 0  0.05 0.06 0  -0.05 0.08 0  -0.03 0.08 0  -0.01 0.08 0  0.01000000000000001 0.08 0  0.03 0.08 0  0.05 0.08 0  -0.05 0.1 0  -0.03 0.1 0  -0.01 0.1 0  0.01000000000000001 0.1 0  0.03 0.1 0  0.05 0.1 0  -0.05 0.12 0  -0.03 0.12 0  -0.01 0.12 0  0.01000000000000001 0.12 0  0.03 0.12 0  0.05 0.12 0  -0.05 0.14 0  -0.03 0.14 0  -0.01 0.14 0  0.01000000000000001 0.14 0  0.03 0.14 0  0.05 0.14 0  -0.05 0.16 0  -0.03 0.16 0  -0.01 0.16 0  0.01000000000000001 0.16 0  0.03 0.16 0  0.05 0.16 0  -0.05 0.18 0  -0.03 0.18 0  -0.01 0.18 0  0.01000000000000001 0.18 0  0.03 0.18 0  0.05 0.18 0  -0.05 0.2 0  -0.03 0.2 0  -0.01 0.2 0  0.01000000000000001 0.2 0  0.03 0.2 0  0.05 0.2 0  -0.05 0.22 0  -0.03 0.22 0  -0.01 0.22 0  0.01000000000000001 0.22 0  0.03 0.22 0  0.05 0.22 0  -0.05 0.24 0  -0.03 0.24 0  -0.01 0.24 0  0.01000000000000001 0.24 0  0.03 0.24 0  0.05 0.24 0  -0.05 0.26 0  -0.03 0.26 0  -0.01 0.26 0  0.01000000000000001 0.26 0  0.03 0.26 0  0.05 0.26 0  -0.05 0.28 0  -0.03 0.28 0  -0.01 0.28 0  0.01000000000000001 0.28 0  0.03 0.28 0  0.05 0.28 0  -0.05 0.3 0  -0.03 0.3 0  -0.01 0.3 0  0.01000000000000001 0.3 0  0.03 0.3 0  0.05 0.3 0  -0.05 0.32 0  -0.03 0.32 0  -0.01 0.32 0  0.01000000000000001 0.32 0  0.03 0.32 0  0.05 0.32 0  -0.05 0.34 0  -0.03 0.34 0  -0.01 0.34 0  0.01000000000000001 0.34 0  0.03 0.34 0  0.05 0.34 0  -0.05 0.36 0  -0.03 0.36 0  -0.01 0.36 0  0.01000000000000001 0.36 0  0.03 0.36 0  0.05 0.36 0  -0.05 0.38 0  -0.03 0.38 0  -0.01 0.38 0  0.01000000000000001 0.38 0  0.03 0.38 0  0.05 0.38 0  -0.05 0.4 0  -0.03 0.4 0  -0.01 0.4 0  0.01000000000000001 0.4 0  0.03 0.4 0  0.05 0.4 0  -0.05 0.42 0  -0.03 0.42 0  -0.01 0.42 0  0.01000000000000001 0.42 0  0.03 0.42 0  0.05 0.42 0  -0.05 0.44 0  -0.03 0.44 0  -0.01 0.44 0  0.01000000000000001 0.44 0  0.03 0.44 0  0.05 0.44 0  -0.05 0.46 0  -0.03 0.46 0  -0.01 0.46 0  0.01000000000000001 0.46 0  0.03 0.46 0  0.05 0.46 0  -0.05 0.48 0  -0.03 0.48 0  -0.01 0.48 0  0.01000000000000001 0.48 0  0.03 0.48 0  0.05 0.48 0  -0.05 0.5 0  -0.03 0.5 0  -0.01 0.5 0  0.01000000000000001 0.5 0  0.03 0.5 0  0.05 0.5 0  -0.05 0.52 0  -0.03 0.52 0  -0.01 0.52 0  0.01000000000000001 0.52 0  0.03 0.52 0  0.05 0.52 0  -0.05 0.54 0  -0.03 0.54 0  -0.01 0.54 0  0.01000000000000001 0.54 0  0.03 0.54 0  0.05 0.54 0  -0.05 0.5600000000000001 0  -0.03 0.5600000000000001 0  -0.01 0.5600000000000001 0  0.01000000000000001 0.5600000000000001 0  0.03 0.5600000000000001 0  0.05 0.5600000000000001 0  -0.05 0.58 0  -0.03 0.58 0  -0.01 0.58 0  0.01000000000000001 0.58 0  0.03 0.58 0  0.05 0.58 0  -0.05 0.6 0  -0.03 0.6 0  -0.01 0.6 0  0.01000000000000001 0.6 0  0.03 0.6 0  0.05 0.6 0  -0.05 0.62 0  -0.03 0.62 0  -0.01 0.62 0  0.01000000000000001 0.62 0  0.03 0.62 0  0.05 0.62 0  -0.05 0.64 0  -0.03 0.64 0  -0.01 0.64 0  0.01000000000000001 0.64 0  0.03 0.64 0  0.05 0.64 0  -0.05 0.66 0  -0.03 0.66 0  -0.01 0.66 0  0.01000000000000001 0.66 0  0.03 0.66 0  0.05 0.66 0  -0.05 0.68 0  -0.03 0.68 0  -0.01 0.68 0  0.01000000000000001 0.68 0  0.03 0.68 0  0.05 0.68 0  -0.05 0.7 0  -0.03 0.7 0  -0.01 0.7 0  0.01000000000000001 0.7 0  0.03 0.7 0  0.05 0.7 0  -0.05 0.72 0  -0.03 0.72 0  -0.01 0.72 0  0.01000000000000001 0.72 0  0.03 0.72 0  0.05 0.72 0  -0.05 0.74 0  -0.03 0.74 0  -0.01 0.74 0  0.01000000000000001 0.74 0  0.03 0.74 0  0.05 0.74 0  -0.05 0.76 0  -0.03 0.76 0  -0.01 0.76 0  0.01000000000000001 0.76 0  0.03 0.76 0  0.05 0.76 0  -0.05 0.78 0  -0.03 0.78 0  -0.01 0.78 0  0.01000000000000001 0.78 0  0.03 0.78 0  0.05 0.78 0  -0.05 0.8 0  -0.03 0.8 0  -0.01 0.8 0  0.01000000000000001 0.8 0  0.03 0.8 0  0.05 0.8 0  -0.05 0.82 0  -0.03 0.82 0  -0.01 0.82 0  0.01000000000000001 0.82 0  0.03 0.82 0  0.05 0.82 0  -0.05 0.84 0  -0.03 0.84 0  -0.01 0.84 0  0.01000000000000001 0.84 0  0.03 0.84 0  0.05 0.84 0  -0.05 0.86 0  -0.03 0.86 0  -0.01 0.86 0  0.01000000000000001 0.86 0  0.03 0.86 0  0.05 0.86 0  -0.05 0.88 0  -0.03 0.88 0  -0.01 0.88 0  0.01000000000000001 0.88 0  0.03 0.88 0  0.05 0.88 0  -0.05 0.9 0  -0.03 0.9 0  -0.01 0.9 0  0.01000000000000001 0.9 0  0.03 0.9 0  0.05 0.9 0  -0.05 0.92 0  -0.03 0.92 0  -0.01 0.92 0  0.01000000000000001 0.92 0  0.03 0.92 0  0.05 0.92 0  -0.05 0.9399999999999999 0  -0.03 0.9399999999999999 0  -0.01 0.9399999999999999 0  0.01000000000000001 0.9399999999999999 0  0.03 0.9399999999999999 0  0.05 0.9399999999999999 0  -0.05 0.96 0  -0.03 0.96 0  -0.01 0.96 0  0.01000000000000001 0.96 0  0.03 0.96 0  0.05 0.96 0  -0.05 0.98 0  -0.03 0.98 0  -0.01 0.98 0  0.01000000000000001 0.98 0  0.03 0.98 0  0.05 0.98 0  -0.05 1 0  -0.03 1 0  -0.01 1 0  0.01000000000000001 1 0  0.03 1 0  0.05 1 0  </DataArray>
</Points>
<Cells>
<DataArray  type="UInt32"  Name="connectivity"  format="ascii">0 1 7  0 6 7  1 2 8  1 7 8  2 3 9  2 8 9  3 4 10  3 9 10  4 5 11  4 10 11  6 7 13  6 12 13  7 8 14  7 13 14  8 9 15  8 14 15  9 10 16  9 15 16  10 11 17  10 16 17  12 13 19  12 18 19  13 14 20  13 19 20  14 15 21  14 20 21  15 16 22  15 21 22  16 17 23  16 22 23  18 19 25  18 24 25  19 20 26  19 25 26  20 21 27  20 26 27  21 22 28  21 27 28  22 23 29  22 28 29  24 25 31  24 30 31  25 26 32  25 31 32  26 27 33  26 32 33  27 28 34  27 33 34  28 29 35  28 34 35  30 31 37  30 36 37  31 32 38  31 37 38  32 33 39  32 38 39  33 34 40  33 39 40  34 35 41  34 40 41  36 37 43  36 42 43  37 38 44  37 43 44  38 39 45  38 44 45  39 40 46  39 45 46  40 41 47  40 46 47  42 43 49  42 48 49  43 44 50  43 49 50  44 45 51  44 50 51  45 46 52  45 51 52  46 47 53  46 52 53  48 49 55  48 54 55  49 50 56  49 55 56  50 51 57  50 56 57  51 52 58  51 57 58  52 53 59  52 58 59  54 55 61  54 60 61  55 56 62  55 61 62  56 57 63  56 62 63  57 58 64  57 63 64  58 59 65  58 64 65  60 61 67  60 66 67  61 62 68  61 67 68  62 63 69  62 68 69  63 64 70  63 69 70  64 65 71  64 70 71  66 67 73  66 72 73  67 68 74  67 73 74  68 69 75  68 74 75  69 70 76  69 75 76  70 71 77  70 76 77  72 73 79  72 78 79  73 74 80  73 79 80  74 75 81  74 80 81  75 76 82  75 81 82  76 77 83  76 82 83  78 79 85  78 84 85  79 80 86  79 85 86  80 81 87  80 86 87  81 82 88  81 87 88  82 83 89  82 88 89  84 85 91  84 90 91  85 86 92  85 91 92  86 87 93  86 92 93  87 88 94  87 93 94  88 89 95  88 94 95  90 91 97  90 96 97  91 92 98  91 97 98  92 93 99  92 98 99  93 94 100  93 99 100  94 95 101  94 100 101  96 97 103  96 102 103  97 98 104  97 103 104  98 99 105  98 104 105  99 100 106  99 105 106  100 101 107  100 106 107  102 103 109  102 108 109  103 104 110  103 109 110  104 105 111  104 110 111  105 106 112  105 111 112  106 107 113  106 112 113  108 109 115  108 114 115  109 110 116  109 115 116  110 111 117  110 116 117  111 112 118  111 117 118  112 113 119  112 118 119  114 115 121  114 120 121  115 116 122  115 121 122  116 117 123  116 122 123  117 118 124  117 123 124  118 119 125  118 124 125  120 121 127  120 126 127  121 122 128  121 127 128  122 123 129  122 128 129  123 124 130  123 129 130  124 125 131  124 130 131  126 127 133  126 132 133  127 128 134  127 133 134  128 129 135  128 134 135  129 130 136  129 135 136  130 131 137  130 136 137  132 133 139  132 138 139  133 134 140  133 139 140  134 135 141  134 140 141  135 136 142  135 141 142  136 137 143  136 142 143  138 139 145  138 144 145  139 140 146  139 145 146  140 141 147  140 146 147  141 142 148  141 147 148  142 143 149  142 148 149  144 145 151  144 150 151  145 146 152  145 151 152  146 147 153  146 152 153  147 148 154  147 153 154  148 149 155  148 154 155  150 151 157  150 156 157  151 152 158  151 157 158  152 153 159  152 158 159  153 154 160  153 159 160  154 155 161  154 160 161  156 157 163  156 162 163  157 158 164  157 163 164  158 159 165  158 164 165  159 160 166  159 165 166  160 161 167  160 166 167  162 163 169  162 168 169  163 164 170  163 169 170  164 165 171  164 170 171  165 166 172  165 171 172  166 167 173  166 172 173  168 169 175  168 174 175  169 170 176  169 175 176  170 171 177  170 176 177  171 172 178  171 177 178  172 173 179  172 178 179  174 175 181  174 180 181  175 176 182  175 181 182  176 177 183  176 182 183  177 178 184  177 183 184  178 179 185  178 184 185  180 181 187  180 186 187  181 182 188  181 187 188  182 183 189  182 188 189  183 184 190  183 189 190  184 185 191  184 190 191  186 187 193  186 192 193  187 188 194  187 193 194  188 189 195  188 194 195  189 190 196  189 195 196  190 191 197  190 196 197  192 193 199  192 198 199  193 194 200  193 199 200  194 195 201  194 200 201  195 196 202  195 201 202  196 197 203  196 202 203  198 199 205  198 204 205  199 200 206  199 205 206  200 201 207  200 206 207  201 202 208  201 207 208  202 203 209  202 208 209  204 205 211  204 210 211  205 206 212  205 211 212  206 207 213  206 212 213  207 208 214  207 213 214  208 209 215  208 214 215  210 211 217  210 216 217  211 212 218  211 217 218  212 213 219  212 218 219  213 214 220  213 219 220  214 215 221  214 220 221  216 217 223  216 222 223  217 218 224  217 223 224  218 219 225  218 224 225  219 220 226  219 225 226  220 221 227  220 226 227  222 223 229  222 228 229  223 224 230  223 229 230  224 225 231  224 230 231  225 226 232  225 231 232  226 227 233  226 232 233  228 229 235  228 234 235  229 230 236  229 235 236  230 231 237  230 236 237  231 232 238  231 237 238  232 233 239  232 238 239  234 235 241  234 240 241  235 236 242  235 241 242  236 237 243  236 242 243  237 238 244  237 243 244  238 239 245  238 244 245  240 241 247  240 246 247  241 242 248  241 247 248  242 243 249  242 248 249  243 244 250  243 249 250  244 245 251  244 250 251  246 247 253  246 252 253  247 248 254  247 253 254  248 249 255  248 254 255  249 250 256  249 255 256  250 251 257  250 256 257  252 253 259  252 258 259  253 254 260  253 259 260  254 255 261  254 260 261  255 256 262  255 261 262  256 257 263  256 262 263  258 259 265  258 264 265  259 260 266  259 265 266  260 261 267  260 266 267  261 262 268  261 267 268  262 263 269  262 268 269  264 265 271  264 270 271  265 266 272  265 271 272  266 267 273  266 272 273  267 268 274  267 273 274  268 269 275  268 274 275  270 271 277  270 276 277  271 272 278  271 277 278  272 273 279  272 278 279  273 274 280  273 279 280  274 275 281  274 280 281  276 277 283  276 282 283  277 278 284  277 283 284  278 279 285  278 284 285  279 280 286  279 285 286  280 281 287  280 286 287  282 283 289  282 288 289  283 284 290  283 289 290  284 285 291  284 290 291  285 286 292  285 291 292  286 287 293  286 292 293  288 289 295  288 294 295  289 290 296  289 295 296  290 291 297  290 296 297  291 292 298  291 297 298  292 293 299  292 298 299  294 295 301  294 300 301  295 296 302  295 301 302  296 297 303  296 302 303  297 298 304  297 303 304  298 299 305  298 304 305  </DataArray>
<DataArray  type="UInt32"  Name="offsets"  format="ascii">3 6 9 12 15 18 21 24 27 30 33 36 39 42 45 48 51 54 57 60 63 66 69 72 75 78 81 84 87 90 93 96 99 102 105 108 111 114 117 120 123 126 129 132 135 138 141 144 147 150 153 156 159 162 165 168 171 174 177 180 183 186 189 192 195 198 201 204 207 210 213 216 219 222 225 228 231 234 237 240 243 246 249 252 255 258 261 264 267 270 273 276 279 282 285 288 291 294 297 300 303 306 309 312 315 318 321 324 327 330 333 336 339 342 345 348 351 354 357 360 363 366 369 372 375 378 381 384 387 390 393 396 399 402 405 408 411 414 417 420 423 426 429 432 435 438 441 444 447 450 453 456 459 462 465 468 471 474 477 480 483 486 489 492 495 498 501 504 507 510 513 516 519 522 525 528 531 534 537 540 543 546 549 552 555 558 561 564 567 570 573 576 579 582 585 588 591 594 597 600 603 606 609 612 615 618 621 624 627 630 633 636 639 642 645 648 651 654 657 660 663 666 669 672 675 678 681 684 687 690 693 696 699 702 705 708 711 714 717 720 723 726 729 732 735 738 741 744 747 750 753 756 759 762 765 768 771 774 777 780 783 786 789 792 795 798 801 804 807 810 813 816 819 822 825 828 831 834 837 840 843 846 849 852 855 858 861 864 867 870 873 876 879 882 885 888 891 894 897 900 903 906 909 912 915 918 921 924 927 930 933 936 939 942 945 948 951 954 957 960 963 966 969 972 975 978 981 984 987 990 993 996 999 1002 1005 1008 1011 1014 1017 1020 1023 1026 1029 1032 1035 1038 1041 1044 1047 1050 1053 1056 1059 1062 1065 1068 1071 1074 1077 1080 1083 1086 1089 1092 1095 1098 1101 1104 1107 1110 1113 1116 1119 1122 1125 1128 1131 1134 1137 1140 1143 1146 1149 1152 1155 1158 1161 1164 1167 1170 1173 1176 1179 1182 1185 1188 1191 1194 1197 1200 1203 1206 1209 1212 1215 1218 1221 1224 1227 1230 1233 1236 1239 1242 1245 1248 1251 1254 1257 1260 1263 1266 1269 1272 1275 1278 1281 1284 1287 1290 1293 1296 1299 1302 1305 1308 1311 1314 1317 1320 1323 1326 1329 1332 1335 1338 1341 1344 1347 1350 1353 1356 1359 1362 1365 1368 1371 1374 1377 1380 1383 1386 1389 1392 1395 1398 1401 1404 1407 1410 1413 1416 1419 1422 1425 1428 1431 1434 1437 1440 1443 1446 1449 1452 1455 1458 1461 1464 1467 1470 1473 1476 1479 1482 1485 1488 1491 1494 1497 1500 </DataArray>
<DataArray  type="UInt8"  Name="types"  format="ascii">5 5 5 5 5 5 5 5 5 5 5 5 5 5 5 5 5 5 5 5 5 5 5 5 5 5 5 5 5 5 5 5 5 5 5 5 5 5 5 5 5 5 5 5 5 5 5 5 5 5 5 5 5 5 5 5 5 5 5 5 5 5 5 5 5 5 5 5 5 5 5 5 5 5 5 5 5 5 5 5 5 5 5 5 5 5 5 5 5 5 5 5 5 5 5 5 5 5 5 5 5 5 5 5 5 5 5 5 5 5 5 5 5 5 5 5 5 5 5 5 5 5 5 5 5 5 5 5 5 5 5 5 5 5 5 5 5 5 5 5 5 5 5 5 5 5 5 5 5 5 5 5 5 5 5 5 5 5 5 5 5 5 5 5 5 5 5 5 5 5 5 5 5 5 5 5 5 5 5 5 5 5 5 5 5 5 5 5 5 5 5 5 5 5 5 5 5 5 5 5 5 5 5 5 5 5 5 5 5 5 5 5 5 5 5 5 5 5 5 5 5 5 5 5 5 5 5 5 5 5 5 5 5 5 5 5 5 5 5 5 5 5 5 5 5 5 5 5 5 5 5 5 5 5 5 5 5 5 5 5 5 5 5 5 5 5 5 5 5 5 5 5 5 5 5 5 5 5 5 5 5 5 5 5 5 5 5 5 5 5 5 5 5 5 5 5 5 5 5 5 5 5 5 5 5 5 5 5 5 5 5 5 5 5 5 5 5 5 5 5 5 5 5 5 5 5 5 5 5 5 5 5 5 5 5 5 5 5 5 5 5 5 5 5 5 5 5 5 5 5 5 5 5 5 5 5 5 5 5 5 5 5 5 5 5 5 5 5 5 5 5 5 5 5 5 5 5 5 5 5 5 5 5 5 5 5 5 5 5 5 5 5 5 5 5 5 5 5 5 5 5 5 5 5 5 5 5 5 5 5 5 5 5 5 5 5 5 5 5 5 5 5 5 5 5 5 5 5 5 5 5 5 5 5 5 5 5 5 5 5 5 5 5 5 5 5 5 5 5 5 5 5 5 5 5 5 5 5 5 5 5 5 5 5 5 5 5 5 5 5 5 5 5 5 5 5 5 5 5 5 5 5 5 5 5 5 5 5 5 5 5 5 5 5 5 5 5 5 5 5 </DataArray>
</Cells>
<PointData  Vectors="Displacement"> 
<DataArray  type="Float64"  Name="Displacement"  NumberOfComponents="3" format="ascii">-1.8005158328977167e-16 1.0171524628759613e-16 0.0000000000000000e+00  0.0000000000000000e+00 0.0000000000000000e+00 0.0000000000000000e+00  0.0000000000000000e+00 0.0000000000000000e+00 0.0000000000000000e+00  0.0000000000000000e+00 0.0000000000000000e+00 0.0000000000000000e+00  -2.3690146854420219e-17 -1.2733135029612252e-17 0.0000000000000000e+00  0.0000000000000000e+00 0.0000000000000000e+00 0.0000000000000000e+00  3.8771680071895124e-04 6.4564210044663894e-04 0.0000000000000000e+00  1.7757855268134105e-04 3.5086527150110790e-04 0.0000000000000000e+00  8.1017600924179815e-05 1.1902016192060236e-04 0.0000000000000000e+00  7.8794798908792560e-05 -1.0143527423933174e-04 0.0000000000000000e+00  1.6407145741772220e-04 -3.3784905602043155e-04 0.0000000000000000e+00  3.7497055279415048e-04 -6.4275932045257747e-04 0.0000000000000000e+00  8.0593372541955125e-04 1.2473970774552407e-03 0.0000000000000000e+00  5.9364372181509189e-04 7.3330154639997377e-04 0.0000000000000000e+00  4.8726556778586473e-04 2.5188387028406931e-04 0.0000000000000000e+00  4.8785633576727374e-04 -2.2042021765325141e-04 0.0000000000000000e+00  5.9699229643697541e-04 -7.1587844554089886e-04 0.0000000000000000e+00  8.1137736720150581e-04 -1.2501975513822105e-03 0.0000000000000000e+00  1.4545985908149207e-03 1.8573336386201050e-03 0.0000000000000000e+00  1.2481654077015018e-03 1.1030903719693821e-03 0.0000000000000000e+00  1.1479059612107584e-03 3.7710724219493675e-04 0.0000000000000000e+00  1.1565275706490678e-03 -3.4304425226569567e-04 0.0000000000000000e+00  1.2658317445963638e-03 -1.0840495527064478e-03 0.0000000000000000e+00  1.4728356410973584e-03 -1.8495174503071043e-03 0.0000000000000000e+00  2.3494058605070373e-03 2.4530895389234487e-03 0.0000000000000000e+00  2.1505649478932767e-03 1.4599602250080399e-03 0.0000000000000000e+00  2.0553261122964114e-03 4.9750091115363833e-04 0.0000000000000000e+00  2.0634873409922203e-03 -4.6275540400223165e-04 0.0000000000000000e+00  2.1677239711449738e-03 -1.4383297884408026e-03 0.0000000000000000e+00  2.3663359819524809e-03 -2.4353180780244425e-03 0.0000000000000000e+00  3.4859993289191749e-03 3.0324169837966444e-03 0.0000000000000000e+00  3.2914750072925115e-03 1.8077907655051158e-03 0.0000000000000000e+00  3.1961922331266383e-03 6.1517885954696266e-04 0.0000000000000000e+00  3.2013926827276751e-03 -5.7467769396549163e-04 0.0000000000000000e+00  3.2985861892210607e-03 -1.7782408555856266e-03 0.0000000000000000e+00  3.4932149722226150e-03 -3.0055755667771390e-03 0.0000000000000000e+00  4.8463406964239083e-03 3.5900401361822253e-03 0.0000000000000000e+00  4.6586552420651989e-03 2.1463849592103994e-03 0.0000000000000000e+00  4.5646746779930344e-03 7.3218225902597174e-04 0.0000000000000000e+00  4.5648586307530459e-03 -6.7863431897249393e-04 0.0000000000000000e+00  4.6581447670977372e-03 -2.1077230365684359e-03 0.0000000000000000e+00  4.8455349098052887e-03 -3.5626116735371543e-03 0.0000000000000000e+00  6.4174077372133112e-03 4.1242160551022092e-03 0.0000000000000000e+00  6.2372994856397202e-03 2.4719131260650461e-03 0.0000000000000000e+00  6.1502627088393666e-03 8.4690955781311283e-04 0.0000000000000000e+00  6.1577806932245774e-03 -7.7992883759325164e-04 0.0000000000000000e+00  6.2515205541119135e-03 -2.4261322218282868e-03 0.0000000000000000e+00  6.4316404420116787e-03 -4.1026287955799766e-03 0.0000000000000000e+00  8.1963730559864913e-03 4.6504990629911260e-03 0.0000000000000000e+00  8.0229721535200107e-03 2.7844814887674255e-03 0.0000000000000000e+00  7.9475231495599458e-03 9.4634768736318281e-04 0.0000000000000000e+00  7.9640963230956513e-03 -8.8635317556848997e-04 0.0000000000000000e+00  8.0590700916523643e-03 -2.7330144827111412e-03 0.0000000000000000e+00  8.2337347289919444e-03 -4.6119685406967080e-03 0.0000000000000000e+00  1.0189841022390270e-02 5.1530333514932594e-03 0.0000000000000000e+00  1.0026047018754104e-02 3.0806993599271845e-03 0.0000000000000000e+00  9.9523371930995246e-03 1.0405366656732686e-03 0.0000000000000000e+00  9.9653971837973115e-03 -9.9015988522574579e-04 0.0000000000000000e+00  1.0058826731117675e-02 -3.0316893630979078e-03 0.0000000000000000e+00  1.0227079686625298e-02 -5.0994306923919028e-03 0.0000000000000000e+00  1.2385241889226810e-02 5.6319610062086113e-03 0.0000000000000000e+00  1.2225742302120573e-02 3.3663797789873482e-03 0.0000000000000000e+00  1.2148628906932076e-02 1.1337278818506328e-03 0.0000000000000000e+00  1.2157125216007598e-02 -1.0889192966307363e-03 0.0000000000000000e+00  1.2241540016830928e-02 -3.3186267675146177e-03 0.0000000000000000e+00  1.2404602151189766e-02 -5.5708039185004650e-03 0.0000000000000000e+00  1.4761836024317819e-02 6.0831500314736144e-03 0.0000000000000000e+00  1.4609730633664024e-02 3.6423955082869352e-03 0.0000000000000000e+00  1.4532609690932816e-02 1.2272814130261677e-03 0.0000000000000000e+00  1.4532765364232210e-02 -1.1778539899250772e-03 0.0000000000000000e+00  1.4609178959273605e-02 -3.5931172102484027e-03 0.0000000000000000e+00  1.4764403943308744e-02 -6.0348991818549476e-03 0.0000000000000000e+00  1.7302274861129736e-02 6.5116339502713999e-03 0.0000000000000000e+00  1.7158280658134725e-02 3.9035562127746801e-03 0.0000000000000000e+00  1.7088618524269406e-02 1.3184045893258442e-03 0.0000000000000000e+00  1.7095515300899557e-02 -1.2635317769499690e-03 0.0000000000000000e+00  1.7173515855138446e-02 -3.8583559577085695e-03 0.0000000000000000e+00  1.7323319208552936e-02 -6.4841041589192216e-03 0.0000000000000000e+00  2.0014902209420059e-02 6.9339345505080663e-03 0.0000000000000000e+00  1.9876522391750043e-02 4.1523097965881269e-03 0.0000000000000000e+00  1.9816206513722311e-02 1.3954552989327283e-03 0.0000000000000000e+00  1.9830449130933205e-02 -1.3543626088548832e-03 0.0000000000000000e+00  1.9909205323402179e-02 -4.1144166476096838e-03 0.0000000000000000e+00  2.0054108011489807e-02 -6.9033945297083329e-03 0.0000000000000000e+00  2.2899264726891296e-02 7.3320583379798531e-03 0.0000000000000000e+00  2.2768901389728900e-02 4.3885220737590082e-03 0.0000000000000000e+00  2.2710323825386368e-02 1.4704022002202054e-03 0.0000000000000000e+00  2.2721844767829354e-02 -1.4402787147164507e-03 0.0000000000000000e+00  2.2798758460638429e-02 -4.3608907577111959e-03 0.0000000000000000e+00  2.2936852621728183e-02 -7.3052528259413734e-03 0.0000000000000000e+00  2.5939675443869107e-02 7.7152674703239114e-03 0.0000000000000000e+00  2.5812819805230772e-02 4.6166041706775709e-03 0.0000000000000000e+00  2.5755682066549761e-02 1.5435487271265873e-03 0.0000000000000000e+00  2.5768782265191640e-02 -1.5220902262719921e-03 0.0000000000000000e+00  2.5840897688127484e-02 -4.5948570455651757e-03 0.0000000000000000e+00  2.5974278122597099e-02 -7.6901179356067438e-03 0.0000000000000000e+00  2.9131199808420803e-02 8.0820965756785140e-03 0.0000000000000000e+00  2.9010973313289983e-02 4.8362100231018447e-03 0.0000000000000000e+00  2.8955999917405769e-02 1.6142785341255262e-03 0.0000000000000000e+00  2.8964307808873543e-02 -1.5973623146262102e-03 0.0000000000000000e+00  2.9031561791245820e-02 -4.8174261751195652e-03 0.0000000000000000e+00  2.9157625274040821e-02 -8.0619873567865218e-03 0.0000000000000000e+00  3.2463342974764019e-02 8.4284191993214685e-03 0.0000000000000000e+00  3.2349551137169356e-02 5.0438428090789286e-03 0.0000000000000000e+00  3.2297997455296379e-02 1.6843085934087085e-03 0.0000000000000000e+00  3.2309140476322620e-02 -1.6687763730811017e-03 0.0000000000000000e+00  3.2375465030901295e-02 -5.0308720121813024e-03 0.0000000000000000e+00  3.2495936373844826e-02 -8.4188922533078858e-03 0.0000000000000000e+00  3.5935574450170066e-02 8.7657567309999060e-03 0.0000000000000000e+00  3.5825614433692136e-02 5.2428411585205273e-03 0.0000000000000000e+00  3.5778012485021625e-02 1.7457615095989806e-03 0.0000000000000000e+00  3.5790251390212142e-02 -1.7410379388731383e-03 0.0000000000000000e+00  3.5852899900844941e-02 -5.2343618256269668e-03 0.0000000000000000e+00  3.5968468294067656e-02 -8.7527048362303038e-03 0.0000000000000000e+00  3.9540559512900142e-02 9.0783928063252924e-03 0.0000000000000000e+00  3.9437603664832163e-02 5.4316392934218825e-03 0.0000000000000000e+00  3.9389636499645289e-02 1.8087963035172871e-03 0.0000000000000000e+00  3.9396908026103440e-02 -1.8056980863767648e-03 0.0000000000000000e+00  3.9456558842077605e-02 -5.4286778560220100e-03 0.0000000000000000e+00  3.9566027470294050e-02 -9.0749706454685986e-03 0.0000000000000000e+00  4.3263389975134306e-02 9.3779389634745993e-03 0.0000000000000000e+00  4.3163700728214502e-02 5.6127012504316879e-03 0.0000000000000000e+00  4.3118347629762944e-02 1.8696063095096061e-03 0.0000000000000000e+00  4.3129292823506853e-02 -1.8676921621457391e-03 0.0000000000000000e+00  4.3186527524399464e-02 -5.6125184507929693e-03 0.0000000000000000e+00  4.3292397918200318e-02 -9.3804725040651932e-03 0.0000000000000000e+00  4.7101741072364978e-02 9.6636088339791936e-03 0.0000000000000000e+00  4.7008672921811712e-02 5.7849357508352982e-03 0.0000000000000000e+00  4.6967487903834627e-02 1.9254869769390918e-03 0.0000000000000000e+00  4.6976806360083952e-02 -1.9265664580788665e-03 0.0000000000000000e+00  4.7032128781854220e-02 -5.7874476047631834e-03 0.0000000000000000e+00  4.7131657577830235e-02 -9.6708683199568136e-03 0.0000000000000000e+00  5.1047668197787527e-02 9.9317901421809903e-03 0.0000000000000000e+00  5.0960351324621407e-02 5.9456412609066580e-03 0.0000000000000000e+00  5.0923472881628927e-02 1.9789114892095933e-03 0.0000000000000000e+00  5.0937285412086510e-02 -1.9841220045073191e-03 0.0000000000000000e+00  5.0993120874925475e-02 -5.9551499108255346e-03 0.0000000000000000e+00  5.1087857173934006e-02 -9.9464957453818739e-03 0.0000000000000000e+00  5.5102753620104618e-02 1.0195051505889363e-02 0.0000000000000000e+00  5.5017857393580248e-02 6.0996180372780125e-03 0.0000000000000000e+00  5.4984261711819221e-02 2.0240806808328226e-03 0.0000000000000000e+00  5.4998794223168897e-02 -2.0431147154249033e-03 0.0000000000000000e+00  5.5050807158623725e-02 -6.1141278850723344e-03 0.0000000000000000e+00  5.5141360236909603e-02 -1.0202242152851300e-02 0.0000000000000000e+00  5.9261986144651613e-02 1.0438645846564632e-02 0.0000000000000000e+00  5.9182017442820693e-02 6.2467360461184165e-03 0.0000000000000000e+00  5.9146209608579491e-02 2.0728784077519843e-03 0.0000000000000000e+00  5.9154275942406416e-02 -2.0936779070533790e-03 0.0000000000000000e+00  5.9202457559708169e-02 -6.2649154216622349e-03 0.0000000000000000e+00  5.9287588648379692e-02 -1.0450876465960227e-02 0.0000000000000000e+00  6.3512011356702466e-02 1.0674480103804628e-02 0.0000000000000000e+00  6.3432837602581366e-02 6.3903427432540263e-03 0.0000000000000000e+00  6.3397309394119999e-02 2.1223775896773342e-03 0.0000000000000000e+00  6.3407139443616742e-02 -2.1403254530201771e-03 0.0000000000000000e+00  6.3452032847800696e-02 -6.4062809931854760e-03 0.0000000000000000e+00  6.3534427298276075e-02 -1.0686883547419437e-02 0.0000000000000000e+00  6.7851313350295067e-02 1.0902136455994688e-02 0.0000000000000000e+00  6.7776437304851292e-02 6.5294856401088980e-03 0.0000000000000000e+00  6.7742891984169523e-02 2.1698972745924196e-03 0.0000000000000000e+00  6.7749349342238863e-02 -2.1827573780006920e-03 0.0000000000000000e+00  6.7791654856706490e-02 -6.5402048661037781e-03 0.0000000000000000e+00  6.7868719990219900e-02 -1.0912336899688841e-02 0.0000000000000000e+00  7.2274382575904156e-02 1.1118246806570128e-02 0.0000000000000000e+00  7.2203215257106296e-02 6.6609878941562240e-03 0.0000000000000000e+00  7.2172286379220921e-02 2.2172946917349977e-03 0.0000000000000000e+00  7.2182019502407949e-02 -2.2233692270138376e-03 0.0000000000000000e+00  7.2224591584509071e-02 -6.6689172790766402e-03 0.0000000000000000e+00  7.2298236229638546e-02 -1.1128366158478118e-02 0.0000000000000000e+00  7.6785575707199391e-02 1.1334292080568418e-02 0.0000000000000000e+00  7.6715558647904580e-02 6.7885518143671088e-03 0.0000000000000000e+00  7.6687012289350279e-02 2.2578758315185553e-03 0.0000000000000000e+00  7.6696899656436696e-02 -2.2656820273610871e-03 0.0000000000000000e+00  7.6735947051312869e-02 -6.7914006677190783e-03 0.0000000000000000e+00  7.6806969855348753e-02 -1.1329967491520812e-02 0.0000000000000000e+00  8.1382590511017552e-02 1.1533888986284600e-02 0.0000000000000000e+00  8.1316955987823472e-02 6.9107767450962638e-03 0.0000000000000000e+00  8.1286160784455150e-02 2.3024278523377105e-03 0.0000000000000000e+00  8.1290028020813129e-02 -2.3005353583165577e-03 0.0000000000000000e+00  8.1326203116307824e-02 -6.9083480506827817e-03 0.0000000000000000e+00  8.1393216261528983e-02 -1.1528945480156533e-02 0.0000000000000000e+00  8.6053577272142412e-02 1.1727098233962620e-02 0.0000000000000000e+00  8.5988711045146146e-02 7.0299248994377247e-03 0.0000000000000000e+00  8.5958918015795846e-02 2.3471471173946998e-03 0.0000000000000000e+00  8.5965818914605405e-02 -2.3329883723458302e-03 0.0000000000000000e+00  8.6000208129969738e-02 -7.0181008157742504e-03 0.0000000000000000e+00  8.6065656951979305e-02 -1.1717518383427347e-02 0.0000000000000000e+00  9.0797048547893208e-02 1.1912492066548630e-02 0.0000000000000000e+00  9.0736680473426826e-02 7.1445157017424070e-03 0.0000000000000000e+00  9.0710045273173695e-02 2.3888820301148301e-03 0.0000000000000000e+00  9.0715421566759616e-02 -2.3627781374160831e-03 0.0000000000000000e+00  9.0748888283260887e-02 -7.1218553954960212e-03 0.0000000000000000e+00  9.0809514312437029e-02 -1.1895896219870344e-02 0.0000000000000000e+00  9.5607692104607955e-02 1.2087084014676815e-02 0.0000000000000000e+00  9.5550986722694700e-02 7.2515099579824301e-03 0.0000000000000000e+00  9.5528055857519958e-02 2.4294640674478742e-03 0.0000000000000000e+00  9.5538610803031929e-02 -2.3920333783552386e-03 0.0000000000000000e+00  9.5573807900595831e-02 -7.2208594931795090e-03 0.0000000000000000e+00  9.5631091256211428e-02 -1.2063677689601539e-02 0.0000000000000000e+00  1.0048948491885244e-01 1.2262286250195469e-02 0.0000000000000000e+00  1.0043376298632048e-01 7.3548819277401249e-03 0.0000000000000000e+00  1.0041382170842618e-01 2.4626370116876653e-03 0.0000000000000000e+00  1.0042563933950230e-01 -2.4237591111088540e-03 0.0000000000000000e+00  1.0045805328945925e-01 -7.3133629666577802e-03 0.0000000000000000e+00  1.0051248245544005e-01 -1.2215284739716122e-02 0.0000000000000000e+00  1.0543980513044805e-01 1.2421665212039527e-02 0.0000000000000000e+00  1.0538824069564659e-01 7.4533058656592877e-03 0.0000000000000000e+00  1.0536594182665671e-01 2.4995538623505996e-03 0.0000000000000000e+00  1.0537179349834429e-01 -2.4482444329315153e-03 0.0000000000000000e+00  1.0540116537370238e-01 -7.3999738059783386e-03 0.0000000000000000e+00  1.0545129434296366e-01 -1.2363500738484972e-02 0.0000000000000000e+00  1.1044656659387964e-01 1.2574334883345497e-02 0.0000000000000000e+00  1.1039585521400359e-01 7.5484695333083501e-03 0.0000000000000000e+00  1.1037379622006974e-01 2.5366132666408392e-03 0.0000000000000000e+00  1.1038138350942164e-01 -2.4703463205924640e-03 0.0000000000000000e+00  1.1040800565103233e-01 -7.4795555309919064e-03 0.0000000000000000e+00  1.1045681299965100e-01 -1.2502084140807737e-02 0.0000000000000000e+00  1.1550804173304338e-01 1.2717063851904870e-02 0.0000000000000000e+00  1.1546248995851310e-01 7.6378561678942178e-03 0.0000000000000000e+00  1.1544253431288873e-01 2.5705638302263348e-03 0.0000000000000000e+00  1.1544647872603561e-01 -2.4897433444240500e-03 0.0000000000000000e+00  1.1547075628959640e-01 -7.5542652606501517e-03 0.0000000000000000e+00  1.1551515493097028e-01 -1.2633523398301962e-02 0.0000000000000000e+00  1.2061954424194490e-01 1.2846106190393697e-02 0.0000000000000000e+00  1.2057864609938694e-01 7.7175068965234586e-03 0.0000000000000000e+00  1.2056154548481536e-01 2.6028433903074648e-03 0.0000000000000000e+00  1.2056877454834859e-01 -2.5088099727254764e-03 0.0000000000000000e+00  1.2059362682915552e-01 -7.6258791345392707e-03 0.0000000000000000e+00  1.2063533138651562e-01 -1.2758058917786507e-02 0.0000000000000000e+00  1.2578468950798619e-01 1.2971843070834665e-02 0.0000000000000000e+00  1.2574595435059380e-01 7.7909382392566612e-03 0.0000000000000000e+00  1.2573194720599218e-01 2.6267543722592684e-03 0.0000000000000000e+00  1.2573978517363349e-01 -2.5309182853148439e-03 0.0000000000000000e+00  1.2576148545473959e-01 -7.6922356346092466e-03 0.0000000000000000e+00  1.2580052519412899e-01 -1.2868406393629005e-02 0.0000000000000000e+00  1.3100019311200162e-01 1.3079125330366367e-02 0.0000000000000000e+00  1.3096648581394418e-01 7.8571838062336634e-03 0.0000000000000000e+00  1.3095142205557297e-01 2.6527474037654369e-03 0.0000000000000000e+00  1.3095471037744233e-01 -2.5466988014704742e-03 0.0000000000000000e+00  1.3097402445310988e-01 -7.7526720745295123e-03 0.0000000000000000e+00  1.3100796234155218e-01 -1.2973708750687861e-02 0.0000000000000000e+00  1.3625385112190144e-01 1.3178842477389881e-02 0.0000000000000000e+00  1.3622151866034926e-01 7.9188214800732827e-03 0.0000000000000000e+00  1.3620806186914056e-01 2.6772792802489502e-03 0.0000000000000000e+00  1.3621487386371692e-01 -2.5608004164995933e-03 0.0000000000000000e+00  1.3623207103785187e-01 -7.8042456973817812e-03 0.0000000000000000e+00  1.3626330452714791e-01 -1.3063317638382421e-02 0.0000000000000000e+00  1.4154358898954839e-01 1.3267198369647041e-02 0.0000000000000000e+00  1.4151626748669138e-01 7.9748843962630968e-03 0.0000000000000000e+00  1.4150472200016295e-01 2.6989089801949672e-03 0.0000000000000000e+00  1.4150802614244476e-01 -2.5709131501611966e-03 0.0000000000000000e+00  1.4152193104353136e-01 -7.8474490277232172e-03 0.0000000000000000e+00  1.4154658230075820e-01 -1.3140043936501684e-02 0.0000000000000000e+00  1.4685988272636649e-01 1.3339365749700884e-02 0.0000000000000000e+00  1.4683699058202918e-01 8.0228330707294761e-03 0.0000000000000000e+00  1.4682787751690510e-01 2.7211284690432770e-03 0.0000000000000000e+00  1.4683430670878320e-01 -2.5775462919960120e-03 0.0000000000000000e+00  1.4684795613361973e-01 -7.8833702951543756e-03 0.0000000000000000e+00  1.4686878843753542e-01 -1.3207426360515652e-02 0.0000000000000000e+00  1.5219837800696909e-01 1.3407193270879667e-02 0.0000000000000000e+00  1.5217868910221091e-01 8.0650273840797895e-03 0.0000000000000000e+00  1.5217549400254329e-01 2.7360003650407352e-03 0.0000000000000000e+00  1.5218531347397735e-01 -2.5858944678171210e-03 0.0000000000000000e+00  1.5219846904270015e-01 -7.9121350031404730e-03 0.0000000000000000e+00  1.5221732898275819e-01 -1.3258474522170258e-02 0.0000000000000000e+00  1.5756064265993411e-01 1.3460642098950933e-02 0.0000000000000000e+00  1.5754721314681028e-01 8.0979944746830540e-03 0.0000000000000000e+00  1.5754581544637444e-01 2.7505692119300013e-03 0.0000000000000000e+00  1.5755419081250194e-01 -2.5905198740494395e-03 0.0000000000000000e+00  1.5756880843933196e-01 -7.9372578041408074e-03 0.0000000000000000e+00  1.5758429376628180e-01 -1.3301058983672159e-02 0.0000000000000000e+00  1.6294476780862288e-01 1.3506517805295108e-02 0.0000000000000000e+00  1.6293216123068993e-01 8.1251469218612069e-03 0.0000000000000000e+00  1.6293050262768655e-01 2.7623364031481006e-03 0.0000000000000000e+00  1.6294078033075401e-01 -2.5960650939358615e-03 0.0000000000000000e+00  1.6295316661688988e-01 -7.9568526893668348e-03 0.0000000000000000e+00  1.6296754148375875e-01 -1.3329710885256450e-02 0.0000000000000000e+00  1.6833940694676780e-01 1.3537921555595994e-02 0.0000000000000000e+00  1.6833122135160128e-01 8.1467660201570355e-03 0.0000000000000000e+00  1.6833043646310641e-01 2.7705497220102734e-03 0.0000000000000000e+00  1.6833608201869643e-01 -2.5990399670757437e-03 0.0000000000000000e+00  1.6834337135822314e-01 -7.9704564949990685e-03 0.0000000000000000e+00  1.6835067080204341e-01 -1.3350511500111887e-02 0.0000000000000000e+00  1.7374112477887868e-01 1.3555838133999467e-02 0.0000000000000000e+00  1.7373492979696115e-01 8.1615685140669011e-03 0.0000000000000000e+00  1.7373164987068196e-01 2.7788761071393417e-03 0.0000000000000000e+00  1.7373625273025770e-01 -2.5988017926631200e-03 0.0000000000000000e+00  1.7373998905325971e-01 -7.9781228643916631e-03 0.0000000000000000e+00  1.7374446615021680e-01 -1.3366782876347452e-02 0.0000000000000000e+00  1.7913831291255100e-01 1.3567274899165432e-02 0.0000000000000000e+00  1.7913473241974479e-01 8.1725365291409110e-03 0.0000000000000000e+00  1.7913382315224102e-01 2.7847977437508377e-03 0.0000000000000000e+00  1.7913684693577839e-01 -2.5991921529525375e-03 0.0000000000000000e+00  1.7913970132410292e-01 -7.9822414415260563e-03 0.0000000000000000e+00  1.7914396188981810e-01 -1.3374876790983125e-02 0.0000000000000000e+00  1.8453790523148791e-01 1.3570754279348876e-02 0.0000000000000000e+00  1.8453447393544054e-01 8.1775182691051704e-03 0.0000000000000000e+00  1.8453321550213839e-01 2.7886355912471860e-03 0.0000000000000000e+00  1.8453471375934627e-01 -2.5977729210600576e-03 0.0000000000000000e+00  1.8453862927651318e-01 -7.9859180158430784e-03 0.0000000000000000e+00  1.8454328293425895e-01 -1.3380249315434333e-02 0.0000000000000000e+00  1.8992294361631198e-01 1.3568230854122499e-02 0.0000000000000000e+00  1.8992425763565143e-01 8.1808761623188703e-03 0.0000000000000000e+00  1.8992497371295985e-01 2.7905744065700911e-03 0.0000000000000000e+00  1.8993039117661767e-01 -2.5975986140838007e-03 0.0000000000000000e+00  1.8993719553765756e-01 -7.9883612946857890e-03 0.0000000000000000e+00  1.8994073789212645e-01 -1.3383667415061529e-02 0.0000000000000000e+00  </DataArray> 
</PointData> 
</Piece>
</UnstructuredGrid>
</VTKFile>