{
  "Finalized": "2019-11-13T13:58:49.311",
  "Initialized": "2019-11-13T13:58:45.662",
  "Name": "",
  "Ranks": [
    {
      "Finalized": "2019-11-13T13:58:49.311",
      "Initialized": "2019-11-13T13:58:45.662",
      "StateChanges": [
        {
          "Name": "_GLOBAL",
          "State": 1,
          "Timestamp": 0
        },
        {
          "Name": "_GLOBAL",
          "State": 0,
          "Timestamp": 3648
        },
        {
          "Name": "advance",
          "State": 1,
          "Timestamp": 120
        },
        {
          "Name": "advance",
          "State": 0,
          "Timestamp": 278
        },
        {
          "Name": "advance",
          "State": 1,
          "Timestamp": 312
        },
        {
          "Name": "advance",
          "State": 0,
          "Timestamp": 490
        },
        {
          "Name": "advance",
          "State": 1,
          "Timestamp": 549
        },
        {
          "Name": "advance",
          "State": 0,
          "Timestamp": 670
        },
        {
          "Name": "advance",
          "State": 1,
          "Timestamp": 720
        },
        {
          "Name": "advance",
          "State": 0,
          "Timestamp": 841
        },
        {
          "Name": "advance",
          "State": 1,
          "Timestamp": 875
        },
        {
          "Name": "advance",
          "State": 0,
          "Timestamp": 1038
        },
        {
          "Name": "advance",
          "State": 1,
          "Timestamp": 1095
        },
        {
          "Name": "advance",
          "State": 0,
          "Timestamp": 1216
        },
        {
          "Name": "advance",
          "State": 1,
          "Timestamp": 1250
        },
        {
          "Name": "advance",
          "State": 0,
          "Timestamp": 1414
        },
        {
          "Name": "advance",
          "State": 1,
          "Timestamp": 1455
        },
        {
          "Name": "advance",
          "State": 0,
          "Timestamp": 1573
        },
        {
          "Name": "advance",
          "State": 1,
          "Timestamp": 1607
        },
        {
          "Name": "advance",
          "State": 0,
          "Timestamp": 1770
        },
        {
          "Name": "advance",
          "State": 1,
          "Timestamp": 1811
        },
        {
          "Name": "advance",
          "State": 0,
          "Timestamp": 1931
        },
        {
          "Name": "advance",
          "State": 1,
          "Timestamp": 1967
        },
        {
          "Name": "advance",
          "State": 0,
          "Timestamp": 2130
        },
        {
          "Name": "advance",
          "State": 1,
          "Timestamp": 2189
        },
        {
          "Name": "advance",
          "State": 0,
          "Timestamp": 2308
        },
        {
          "Name": "advance",
          "State": 1,
          "Timestamp": 2343
        },
        {
          "Name": "advance",
          "State": 0,
          "Timestamp": 2502
        },
        {
          "Name": "advance",
          "State": 1,
          "Timestamp": 2538
        },
        {
          "Name": "advance",
          "State": 0,
          "Timestamp": 2702
        },
        {
          "Name": "advance",
          "State": 1,
          "Timestamp": 2762
        },
        {
          "Name": "advance",
          "State": 0,
          "Timestamp": 2884
        },
        {
          "Name": "advance",
          "State": 1,
          "Timestamp": 2918
        },
        {
          "Name": "advance",
          "State": 0,
          "Timestamp": 3082
        },
        {
          "Name": "advance",
          "State": 1,
          "Timestamp": 3139
        },
        {
          "Name": "advance",
          "State": 0,
          "Timestamp": 3262
        },
        {
          "Name": "advance",
          "State": 1,
          "Timestamp": 3297
        },
        {
          "Name": "advance",
          "State": 0,
          "Timestamp": 3458
        },
        {
          "Name": "advance",
          "State": 1,
          "Timestamp": 3499
        },
        {
          "Name": "advance",
          "State": 0,
          "Timestamp": 3620
        },
        {
          "Name": "advance/map.np.mapData.FromDirichletNodesToNeumannNodes",
          "State": 1,
          "Timestamp": 120
        },
        {
          "Name": "advance/map.np.mapData.FromDirichletNodesToNeumannNodes",
          "State": 0,
          "Timestamp": 120
        },
        {
          "Name": "advance/map.np.mapData.FromDirichletNodesToNeumannNodes",
          "State": 1,
          "Timestamp": 312
        },
        {
          "Name": "advance/map.np.mapData.FromDirichletNodesToNeumannNodes",
          "State": 0,
          "Timestamp": 312
        },
        {
          "Name": "advance/map.np.mapData.FromDirichletNodesToNeumannNodes",
          "State": 1,
          "Timestamp": 549
        },
        {
          "Name": "advance/map.np.mapData.FromDirichletNodesToNeumannNodes",
          "State": 0,
          "Timestamp": 549
        },
        {
          "Name": "advance/map.np.mapData.FromDirichletNodesToNeumannNodes",
          "State": 1,
          "Timestamp": 720
        },
        {
          "Name": "advance/map.np.mapData.FromDirichletNodesToNeumannNodes",
          "State": 0,
          "Timestamp": 720
        },
        {
          "Name": "advance/map.np.mapData.FromDirichletNodesToNeumannNodes",
          "State": 1,
          "Timestamp": 875
        },
        {
          "Name": "advance/map.np.mapData.FromDirichletNodesToNeumannNodes",
          "State": 0,
          "Timestamp": 875
        },
        {
          "Name": "advance/map.np.mapData.FromDirichletNodesToNeumannNodes",
          "State": 1,
          "Timestamp": 1095
        },
        {
          "Name": "advance/map.np.mapData.FromDirichletNodesToNeumannNodes",
          "State": 0,
          "Timestamp": 1095
        },
        {
          "Name": "advance/map.np.mapData.FromDirichletNodesToNeumannNodes",
          "State": 1,
          "Timestamp": 1250
        },
        {
          "Name": "advance/map.np.mapData.FromDirichletNodesToNeumannNodes",
          "State": 0,
          "Timestamp": 1250
        },
        {
          "Name": "advance/map.np.mapData.FromDirichletNodesToNeumannNodes",
          "State": 1,
          "Timestamp": 1455
        },
        {
          "Name": "advance/map.np.mapData.FromDirichletNodesToNeumannNodes",
          "State": 0,
          "Timestamp": 1455
        },
        {
          "Name": "advance/map.np.mapData.FromDirichletNodesToNeumannNodes",
          "State": 1,
          "Timestamp": 1607
        },
        {
          "Name": "advance/map.np.mapData.FromDirichletNodesToNeumannNodes",
          "State": 0,
          "Timestamp": 1607
        },
        {
          "Name": "advance/map.np.mapData.FromDirichletNodesToNeumannNodes",
          "State": 1,
          "Timestamp": 1811
        },
        {
          "Name": "advance/map.np.mapData.FromDirichletNodesToNeumannNodes",
          "State": 0,
          "Timestamp": 1811
        },
        {
          "Name": "advance/map.np.mapData.FromDirichletNodesToNeumannNodes",
          "State": 1,
          "Timestamp": 1967
        },
        {
          "Name": "advance/map.np.mapData.FromDirichletNodesToNeumannNodes",
          "State": 0,
          "Timestamp": 1967
        },
        {
          "Name": "advance/map.np.mapData.FromDirichletNodesToNeumannNodes",
          "State": 1,
          "Timestamp": 2189
        },
        {
          "Name": "advance/map.np.mapData.FromDirichletNodesToNeumannNodes",
          "State": 0,
          "Timestamp": 2189
        },
        {
          "Name": "advance/map.np.mapData.FromDirichletNodesToNeumannNodes",
          "State": 1,
          "Timestamp": 2343
        },
        {
          "Name": "advance/map.np.mapData.FromDirichletNodesToNeumannNodes",
          "State": 0,
          "Timestamp": 2343
        },
        {
          "Name": "advance/map.np.mapData.FromDirichletNodesToNeumannNodes",
          "State": 1,
          "Timestamp": 2538
        },
        {
          "Name": "advance/map.np.mapData.FromDirichletNodesToNeumannNodes",
          "State": 0,
          "Timestamp": 2538
        },
        {
          "Name": "advance/map.np.mapData.FromDirichletNodesToNeumannNodes",
          "State": 1,
          "Timestamp": 2762
        },
        {
          "Name": "advance/map.np.mapData.FromDirichletNodesToNeumannNodes",
          "State": 0,
          "Timestamp": 2762
        },
        {
          "Name": "advance/map.np.mapData.FromDirichletNodesToNeumannNodes",
          "State": 1,
          "Timestamp": 2918
        },
        {
          "Name": "advance/map.np.mapData.FromDirichletNodesToNeumannNodes",
          "State": 0,
          "Timestamp": 2918
        },
        {
          "Name": "advance/map.np.mapData.FromDirichletNodesToNeumannNodes",
          "State": 1,
          "Timestamp": 3139
        },
        {
          "Name": "advance/map.np.mapData.FromDirichletNodesToNeumannNodes",
          "State": 0,
          "Timestamp": 3139
        },
        {
          "Name": "advance/map.np.mapData.FromDirichletNodesToNeumannNodes",
          "State": 1,
          "Timestamp": 3297
        },
        {
          "Name": "advance/map.np.mapData.FromDirichletNodesToNeumannNodes",
          "State": 0,
          "Timestamp": 3297
        },
        {
          "Name": "advance/map.np.mapData.FromDirichletNodesToNeumannNodes",
          "State": 1,
          "Timestamp": 3499
        },
        {
          "Name": "advance/map.np.mapData.FromDirichletNodesToNeumannNodes",
          "State": 0,
          "Timestamp": 3499
        },
        {
          "Name": "advance/map.np.mapData.FromNeumannNodesToDirichletNodes",
          "State": 1,
          "Timestamp": 278
        },
        {
          "Name": "advance/map.np.mapData.FromNeumannNodesToDirichletNodes",
          "State": 0,
          "Timestamp": 278
        },
        {
          "Name": "advance/map.np.mapData.FromNeumannNodesToDirichletNodes",
          "State": 1,
          "Timestamp": 278
        },
        {
          "Name": "advance/map.np.mapData.FromNeumannNodesToDirichletNodes",
          "State": 0,
          "Timestamp": 278
        },
        {
          "Name": "advance/map.np.mapData.FromNeumannNodesToDirichletNodes",
          "State": 1,
          "Timestamp": 278
        },
        {
          "Name": "advance/map.np.mapData.FromNeumannNodesToDirichletNodes",
          "State": 0,
          "Timestamp": 278
        },
        {
          "Name": "advance/map.np.mapData.FromNeumannNodesToDirichletNodes",
          "State": 1,
          "Timestamp": 490
        },
        {
          "Name": "advance/map.np.mapData.FromNeumannNodesToDirichletNodes",
          "State": 0,
          "Timestamp": 490
        },
        {
          "Name": "advance/map.np.mapData.FromNeumannNodesToDirichletNodes",
          "State": 1,
          "Timestamp": 490
        },
        {
          "Name": "advance/map.np.mapData.FromNeumannNodesToDirichletNodes",
          "State": 0,
          "Timestamp": 490
        },
        {
          "Name": "advance/map.np.mapData.FromNeumannNodesToDirichletNodes",
          "State": 1,
          "Timestamp": 490
        },
        {
          "Name": "advance/map.np.mapData.FromNeumannNodesToDirichletNodes",
          "State": 0,
          "Timestamp": 490
        },
        {
          "Name": "advance/map.np.mapData.FromNeumannNodesToDirichletNodes",
          "State": 1,
          "Timestamp": 670
        },
        {
          "Name": "advance/map.np.mapData.FromNeumannNodesToDirichletNodes",
          "State": 0,
          "Timestamp": 670
        },
        {
          "Name": "advance/map.np.mapData.FromNeumannNodesToDirichletNodes",
          "State": 1,
          "Timestamp": 670
        },
        {
          "Name": "advance/map.np.mapData.FromNeumannNodesToDirichletNodes",
          "State": 0,
          "Timestamp": 670
        },
        {
          "Name": "advance/map.np.mapData.FromNeumannNodesToDirichletNodes",
          "State": 1,
          "Timestamp": 670
        },
        {
          "Name": "advance/map.np.mapData.FromNeumannNodesToDirichletNodes",
          "State": 0,
          "Timestamp": 670
        },
        {
          "Name": "advance/map.np.mapData.FromNeumannNodesToDirichletNodes",
          "State": 1,
          "Timestamp": 841
        },
        {
          "Name": "advance/map.np.mapData.FromNeumannNodesToDirichletNodes",
          "State": 0,
          "Timestamp": 841
        },
        {
          "Name": "advance/map.np.mapData.FromNeumannNodesToDirichletNodes",
          "State": 1,
          "Timestamp": 841
        },
        {
          "Name": "advance/map.np.mapData.FromNeumannNodesToDirichletNodes",
          "State": 0,
          "Timestamp": 841
        },
        {
          "Name": "advance/map.np.mapData.FromNeumannNodesToDirichletNodes",
          "State": 1,
          "Timestamp": 841
        },
        {
          "Name": "advance/map.np.mapData.FromNeumannNodesToDirichletNodes",
          "State": 0,
          "Timestamp": 841
        },
        {
          "Name": "advance/map.np.mapData.FromNeumannNodesToDirichletNodes",
          "State": 1,
          "Timestamp": 1038
        },
        {
          "Name": "advance/map.np.mapData.FromNeumannNodesToDirichletNodes",
          "State": 0,
          "Timestamp": 1038
        },
        {
          "Name": "advance/map.np.mapData.FromNeumannNodesToDirichletNodes",
          "State": 1,
          "Timestamp": 1038
        },
        {
          "Name": "advance/map.np.mapData.FromNeumannNodesToDirichletNodes",
          "State": 0,
          "Timestamp": 1038
        },
        {
          "Name": "advance/map.np.mapData.FromNeumannNodesToDirichletNodes",
          "State": 1,
          "Timestamp": 1038
        },
        {
          "Name": "advance/map.np.mapData.FromNeumannNodesToDirichletNodes",
          "State": 0,
          "Timestamp": 1038
        },
        {
          "Name": "advance/map.np.mapData.FromNeumannNodesToDirichletNodes",
          "State": 1,
          "Timestamp": 1216
        },
        {
          "Name": "advance/map.np.mapData.FromNeumannNodesToDirichletNodes",
          "State": 0,
          "Timestamp": 1216
        },
        {
          "Name": "advance/map.np.mapData.FromNeumannNodesToDirichletNodes",
          "State": 1,
          "Timestamp": 1216
        },
        {
          "Name": "advance/map.np.mapData.FromNeumannNodesToDirichletNodes",
          "State": 0,
          "Timestamp": 1216
        },
        {
          "Name": "advance/map.np.mapData.FromNeumannNodesToDirichletNodes",
          "State": 1,
          "Timestamp": 1216
        },
        {
          "Name": "advance/map.np.mapData.FromNeumannNodesToDirichletNodes",
          "State": 0,
          "Timestamp": 1216
        },
        {
          "Name": "advance/map.np.mapData.FromNeumannNodesToDirichletNodes",
          "State": 1,
          "Timestamp": 1414
        },
        {
          "Name": "advance/map.np.mapData.FromNeumannNodesToDirichletNodes",
          "State": 0,
          "Timestamp": 1414
        },
        {
          "Name": "advance/map.np.mapData.FromNeumannNodesToDirichletNodes",
          "State": 1,
          "Timestamp": 1414
        },
        {
          "Name": "advance/map.np.mapData.FromNeumannNodesToDirichletNodes",
          "State": 0,
          "Timestamp": 1414
        },
        {
          "Name": "advance/map.np.mapData.FromNeumannNodesToDirichletNodes",
          "State": 1,
          "Timestamp": 1414
        },
        {
          "Name": "advance/map.np.mapData.FromNeumannNodesToDirichletNodes",
          "State": 0,
          "Timestamp": 1414
        },
        {
          "Name": "advance/map.np.mapData.FromNeumannNodesToDirichletNodes",
          "State": 1,
          "Timestamp": 1573
        },
        {
          "Name": "advance/map.np.mapData.FromNeumannNodesToDirichletNodes",
          "State": 0,
          "Timestamp": 1573
        },
        {
          "Name": "advance/map.np.mapData.FromNeumannNodesToDirichletNodes",
          "State": 1,
          "Timestamp": 1573
        },
        {
          "Name": "advance/map.np.mapData.FromNeumannNodesToDirichletNodes",
          "State": 0,
          "Timestamp": 1573
        },
        {
          "Name": "advance/map.np.mapData.FromNeumannNodesToDirichletNodes",
          "State": 1,
          "Timestamp": 1573
        },
        {
          "Name": "advance/map.np.mapData.FromNeumannNodesToDirichletNodes",
          "State": 0,
          "Timestamp": 1573
        },
        {
          "Name": "advance/map.np.mapData.FromNeumannNodesToDirichletNodes",
          "State": 1,
          "Timestamp": 1770
        },
        {
          "Name": "advance/map.np.mapData.FromNeumannNodesToDirichletNodes",
          "State": 0,
          "Timestamp": 1770
        },
        {
          "Name": "advance/map.np.mapData.FromNeumannNodesToDirichletNodes",
          "State": 1,
          "Timestamp": 1770
        },
        {
          "Name": "advance/map.np.mapData.FromNeumannNodesToDirichletNodes",
          "State": 0,
          "Timestamp": 1770
        },
        {
          "Name": "advance/map.np.mapData.FromNeumannNodesToDirichletNodes",
          "State": 1,
          "Timestamp": 1770
        },
        {
          "Name": "advance/map.np.mapData.FromNeumannNodesToDirichletNodes",
          "State": 0,
          "Timestamp": 1770
        },
        {
          "Name": "advance/map.np.mapData.FromNeumannNodesToDirichletNodes",
          "State": 1,
          "Timestamp": 1931
        },
        {
          "Name": "advance/map.np.mapData.FromNeumannNodesToDirichletNodes",
          "State": 0,
          "Timestamp": 1931
        },
        {
          "Name": "advance/map.np.mapData.FromNeumannNodesToDirichletNodes",
          "State": 1,
          "Timestamp": 1931
        },
        {
          "Name": "advance/map.np.mapData.FromNeumannNodesToDirichletNodes",
          "State": 0,
          "Timestamp": 1931
        },
        {
          "Name": "advance/map.np.mapData.FromNeumannNodesToDirichletNodes",
          "State": 1,
          "Timestamp": 1931
        },
        {
          "Name": "advance/map.np.mapData.FromNeumannNodesToDirichletNodes",
          "State": 0,
          "Timestamp": 1931
        },
        {
          "Name": "advance/map.np.mapData.FromNeumannNodesToDirichletNodes",
          "State": 1,
          "Timestamp": 2130
        },
        {
          "Name": "advance/map.np.mapData.FromNeumannNodesToDirichletNodes",
          "State": 0,
          "Timestamp": 2130
        },
        {
          "Name": "advance/map.np.mapData.FromNeumannNodesToDirichletNodes",
          "State": 1,
          "Timestamp": 2130
        },
        {
          "Name": "advance/map.np.mapData.FromNeumannNodesToDirichletNodes",
          "State": 0,
          "Timestamp": 2130
        },
        {
          "Name": "advance/map.np.mapData.FromNeumannNodesToDirichletNodes",
          "State": 1,
          "Timestamp": 2130
        },
        {
          "Name": "advance/map.np.mapData.FromNeumannNodesToDirichletNodes",
          "State": 0,
          "Timestamp": 2130
        },
        {
          "Name": "advance/map.np.mapData.FromNeumannNodesToDirichletNodes",
          "State": 1,
          "Timestamp": 2308
        },
        {
          "Name": "advance/map.np.mapData.FromNeumannNodesToDirichletNodes",
          "State": 0,
          "Timestamp": 2308
        },
        {
          "Name": "advance/map.np.mapData.FromNeumannNodesToDirichletNodes",
          "State": 1,
          "Timestamp": 2308
        },
        {
          "Name": "advance/map.np.mapData.FromNeumannNodesToDirichletNodes",
          "State": 0,
          "Timestamp": 2308
        },
        {
          "Name": "advance/map.np.mapData.FromNeumannNodesToDirichletNodes",
          "State": 1,
          "Timestamp": 2308
        },
        {
          "Name": "advance/map.np.mapData.FromNeumannNodesToDirichletNodes",
          "State": 0,
          "Timestamp": 2308
        },
        {
          "Name": "advance/map.np.mapData.FromNeumannNodesToDirichletNodes",
          "State": 1,
          "Timestamp": 2502
        },
        {
          "Name": "advance/map.np.mapData.FromNeumannNodesToDirichletNodes",
          "State": 0,
          "Timestamp": 2502
        },
        {
          "Name": "advance/map.np.mapData.FromNeumannNodesToDirichletNodes",
          "State": 1,
          "Timestamp": 2502
        },
        {
          "Name": "advance/map.np.mapData.FromNeumannNodesToDirichletNodes",
          "State": 0,
          "Timestamp": 2502
        },
        {
          "Name": "advance/map.np.mapData.FromNeumannNodesToDirichletNodes",
          "State": 1,
          "Timestamp": 2502
        },
        {
          "Name": "advance/map.np.mapData.FromNeumannNodesToDirichletNodes",
          "State": 0,
          "Timestamp": 2502
        },
        {
          "Name": "advance/map.np.mapData.FromNeumannNodesToDirichletNodes",
          "State": 1,
          "Timestamp": 2702
        },
        {
          "Name": "advance/map.np.mapData.FromNeumannNodesToDirichletNodes",
          "State": 0,
          "Timestamp": 2702
        },
        {
          "Name": "advance/map.np.mapData.FromNeumannNodesToDirichletNodes",
          "State": 1,
          "Timestamp": 2702
        },
        {
          "Name": "advance/map.np.mapData.FromNeumannNodesToDirichletNodes",
          "State": 0,
          "Timestamp": 2702
        },
        {
          "Name": "advance/map.np.mapData.FromNeumannNodesToDirichletNodes",
          "State": 1,
          "Timestamp": 2702
        },
        {
          "Name": "advance/map.np.mapData.FromNeumannNodesToDirichletNodes",
          "State": 0,
          "Timestamp": 2702
        },
        {
          "Name": "advance/map.np.mapData.FromNeumannNodesToDirichletNodes",
          "State": 1,
          "Timestamp": 2884
        },
        {
          "Name": "advance/map.np.mapData.FromNeumannNodesToDirichletNodes",
          "State": 0,
          "Timestamp": 2884
        },
        {
          "Name": "advance/map.np.mapData.FromNeumannNodesToDirichletNodes",
          "State": 1,
          "Timestamp": 2884
        },
        {
          "Name": "advance/map.np.mapData.FromNeumannNodesToDirichletNodes",
          "State": 0,
          "Timestamp": 2884
        },
        {
          "Name": "advance/map.np.mapData.FromNeumannNodesToDirichletNodes",
          "State": 1,
          "Timestamp": 2884
        },
        {
          "Name": "advance/map.np.mapData.FromNeumannNodesToDirichletNodes",
          "State": 0,
          "Timestamp": 2884
        },
        {
          "Name": "advance/map.np.mapData.FromNeumannNodesToDirichletNodes",
          "State": 1,
          "Timestamp": 3082
        },
        {
          "Name": "advance/map.np.mapData.FromNeumannNodesToDirichletNodes",
          "State": 0,
          "Timestamp": 3082
        },
        {
          "Name": "advance/map.np.mapData.FromNeumannNodesToDirichletNodes",
          "State": 1,
          "Timestamp": 3082
        },
        {
          "Name": "advance/map.np.mapData.FromNeumannNodesToDirichletNodes",
          "State": 0,
          "Timestamp": 3082
        },
        {
          "Name": "advance/map.np.mapData.FromNeumannNodesToDirichletNodes",
          "State": 1,
          "Timestamp": 3082
        },
        {
          "Name": "advance/map.np.mapData.FromNeumannNodesToDirichletNodes",
          "State": 0,
          "Timestamp": 3082
        },
        {
          "Name": "advance/map.np.mapData.FromNeumannNodesToDirichletNodes",
          "State": 1,
          "Timestamp": 3262
        },
        {
          "Name": "advance/map.np.mapData.FromNeumannNodesToDirichletNodes",
          "State": 0,
          "Timestamp": 3262
        },
        {
          "Name": "advance/map.np.mapData.FromNeumannNodesToDirichletNodes",
          "State": 1,
          "Timestamp": 3262
        },
        {
          "Name": "advance/map.np.mapData.FromNeumannNodesToDirichletNodes",
          "State": 0,
          "Timestamp": 3262
        },
        {
          "Name": "advance/map.np.mapData.FromNeumannNodesToDirichletNodes",
          "State": 1,
          "Timestamp": 3262
        },
        {
          "Name": "advance/map.np.mapData.FromNeumannNodesToDirichletNodes",
          "State": 0,
          "Timestamp": 3262
        },
        {
          "Name": "advance/map.np.mapData.FromNeumannNodesToDirichletNodes",
          "State": 1,
          "Timestamp": 3458
        },
        {
          "Name": "advance/map.np.mapData.FromNeumannNodesToDirichletNodes",
          "State": 0,
          "Timestamp": 3458
        },
        {
          "Name": "advance/map.np.mapData.FromNeumannNodesToDirichletNodes",
          "State": 1,
          "Timestamp": 3458
        },
        {
          "Name": "advance/map.np.mapData.FromNeumannNodesToDirichletNodes",
          "State": 0,
          "Timestamp": 3458
        },
        {
          "Name": "advance/map.np.mapData.FromNeumannNodesToDirichletNodes",
          "State": 1,
          "Timestamp": 3458
        },
        {
          "Name": "advance/map.np.mapData.FromNeumannNodesToDirichletNodes",
          "State": 0,
          "Timestamp": 3458
        },
        {
          "Name": "advance/map.np.mapData.FromNeumannNodesToDirichletNodes",
          "State": 1,
          "Timestamp": 3620
        },
        {
          "Name": "advance/map.np.mapData.FromNeumannNodesToDirichletNodes",
          "State": 0,
          "Timestamp": 3620
        },
        {
          "Name": "advance/map.np.mapData.FromNeumannNodesToDirichletNodes",
          "State": 1,
          "Timestamp": 3620
        },
        {
          "Name": "advance/map.np.mapData.FromNeumannNodesToDirichletNodes",
          "State": 0,
          "Timestamp": 3620
        },
        {
          "Name": "advance/map.np.mapData.FromNeumannNodesToDirichletNodes",
          "State": 1,
          "Timestamp": 3620
        },
        {
          "Name": "advance/map.np.mapData.FromNeumannNodesToDirichletNodes",
          "State": 0,
          "Timestamp": 3620
        },
        {
          "Name": "configure",
          "State": 1,
          "Timestamp": 0
        },
        {
          "Name": "configure",
          "State": 0,
          "Timestamp": 0
        },
        {
          "Name": "finalize",
          "State": 1,
          "Timestamp": 3648
        },
        {
          "Name": "finalize",
          "State": 0,
          "Timestamp": 3648
        },
        {
          "Name": "initialize",
          "State": 1,
          "Timestamp": 4
        },
        {
          "Name": "initialize",
          "State": 0,
          "Timestamp": 46
        },
        {
          "Name": "initialize/m2n.requestMasterConnection",
          "State": 1,
          "Timestamp": 4
        },
        {
          "Name": "initialize/m2n.requestMasterConnection",
          "State": 0,
          "Timestamp": 5
        },
        {
          "Name": "initialize/m2n.requestSlavesConnection",
          "State": 1,
          "Timestamp": 46
        },
        {
          "Name": "initialize/m2n.requestSlavesConnection",
          "State": 0,
          "Timestamp": 46
        },
        {
          "Name": "initialize/partition.feedbackMesh.DirichletNodes",
          "State": 1,
          "Timestamp": 46
        },
        {
          "Name": "initialize/partition.feedbackMesh.DirichletNodes",
          "State": 0,
          "Timestamp": 46
        },
        {
          "Name": "initialize/partition.receiveGlobalMesh.NeumannNodes",
          "State": 1,
          "Timestamp": 5
        },
        {
          "Name": "initialize/partition.receiveGlobalMesh.NeumannNodes",
          "State": 0,
          "Timestamp": 46
        },
        {
          "Name": "initializeData",
          "State": 1,
          "Timestamp": 49
        },
        {
          "Name": "initializeData",
          "State": 0,
          "Timestamp": 49
        },
        {
          "Name": "initializeData/map.np.computeMapping.FromDirichletNodesToNeumannNodes",
          "State": 1,
          "Timestamp": 49
        },
        {
          "Name": "initializeData/map.np.computeMapping.FromDirichletNodesToNeumannNodes",
          "State": 0,
          "Timestamp": 49
        },
        {
          "Name": "initializeData/map.np.computeMapping.FromDirichletNodesToNeumannNodes.getIndexOnEdges",
          "State": 1,
          "Timestamp": 49
        },
        {
          "Name": "initializeData/map.np.computeMapping.FromDirichletNodesToNeumannNodes.getIndexOnEdges",
          "State": 0,
          "Timestamp": 49
        },
        {
          "Name": "initializeData/map.np.computeMapping.FromDirichletNodesToNeumannNodes.getIndexOnVertices",
          "State": 1,
          "Timestamp": 49
        },
        {
          "Name": "initializeData/map.np.computeMapping.FromDirichletNodesToNeumannNodes.getIndexOnVertices",
          "State": 0,
          "Timestamp": 49
        },
        {
          "Name": "initializeData/map.np.computeMapping.FromNeumannNodesToDirichletNodes",
          "State": 1,
          "Timestamp": 49
        },
        {
          "Name": "initializeData/map.np.computeMapping.FromNeumannNodesToDirichletNodes",
          "State": 0,
          "Timestamp": 49
        },
        {
          "Name": "initializeData/map.np.computeMapping.FromNeumannNodesToDirichletNodes.getIndexOnEdges",
          "State": 1,
          "Timestamp": 49
        },
        {
          "Name": "initializeData/map.np.computeMapping.FromNeumannNodesToDirichletNodes.getIndexOnEdges",
          "State": 0,
          "Timestamp": 49
        },
        {
          "Name": "initializeData/map.np.computeMapping.FromNeumannNodesToDirichletNodes.getIndexOnVertices",
          "State": 1,
          "Timestamp": 49
        },
        {
          "Name": "initializeData/map.np.computeMapping.FromNeumannNodesToDirichletNodes.getIndexOnVertices",
          "State": 0,
          "Timestamp": 49
        },
        {
          "Name": "initializeData/map.np.mapData.FromDirichletNodesToNeumannNodes",
          "State": 1,
          "Timestamp": 49
        },
        {
          "Name": "initializeData/map.np.mapData.FromDirichletNodesToNeumannNodes",
          "State": 0,
          "Timestamp": 49
        },
        {
          "Name": "initializeData/map.np.mapData.FromNeumannNodesToDirichletNodes",
          "State": 1,
          "Timestamp": 49
        },
        {
          "Name": "initializeData/map.np.mapData.FromNeumannNodesToDirichletNodes",
          "State": 0,
          "Timestamp": 49
        },
        {
          "Name": "initializeData/map.np.mapData.FromNeumannNodesToDirichletNodes",
          "State": 1,
          "Timestamp": 49
        },
        {
          "Name": "initializeData/map.np.mapData.FromNeumannNodesToDirichletNodes",
          "State": 0,
          "Timestamp": 49
        },
        {
          "Name": "initializeData/map.np.mapData.FromNeumannNodesToDirichletNodes",
          "State": 1,
          "Timestamp": 49
        },
        {
          "Name": "initializeData/map.np.mapData.FromNeumannNodesToDirichletNodes",
          "State": 0,
          "Timestamp": 49
        },
        {
          "Name": "solver.advance",
          "State": 1,
          "Timestamp": 278
        },
        {
          "Name": "solver.advance",
          "State": 0,
          "Timestamp": 312
        },
        {
          "Name": "solver.advance",
          "State": 1,
          "Timestamp": 490
        },
        {
          "Name": "solver.advance",
          "State": 0,
          "Timestamp": 549
        },
        {
          "Name": "solver.advance",
          "State": 1,
          "Timestamp": 670
        },
        {
          "Name": "solver.advance",
          "State": 0,
          "Timestamp": 720
        },
        {
          "Name": "solver.advance",
          "State": 1,
          "Timestamp": 841
        },
        {
          "Name": "solver.advance",
          "State": 0,
          "Timestamp": 875
        },
        {
          "Name": "solver.advance",
          "State": 1,
          "Timestamp": 1038
        },
        {
          "Name": "solver.advance",
          "State": 0,
          "Timestamp": 1095
        },
        {
          "Name": "solver.advance",
          "State": 1,
          "Timestamp": 1216
        },
        {
          "Name": "solver.advance",
          "State": 0,
          "Timestamp": 1250
        },
        {
          "Name": "solver.advance",
          "State": 1,
          "Timestamp": 1414
        },
        {
          "Name": "solver.advance",
          "State": 0,
          "Timestamp": 1455
        },
        {
          "Name": "solver.advance",
          "State": 1,
          "Timestamp": 1573
        },
        {
          "Name": "solver.advance",
          "State": 0,
          "Timestamp": 1607
        },
        {
          "Name": "solver.advance",
          "State": 1,
          "Timestamp": 1770
        },
        {
          "Name": "solver.advance",
          "State": 0,
          "Timestamp": 1811
        },
        {
          "Name": "solver.advance",
          "State": 1,
          "Timestamp": 1931
        },
        {
          "Name": "solver.advance",
          "State": 0,
          "Timestamp": 1967
        },
        {
          "Name": "solver.advance",
          "State": 1,
          "Timestamp": 2130
        },
        {
          "Name": "solver.advance",
          "State": 0,
          "Timestamp": 2189
        },
        {
          "Name": "solver.advance",
          "State": 1,
          "Timestamp": 2308
        },
        {
          "Name": "solver.advance",
          "State": 0,
          "Timestamp": 2343
        },
        {
          "Name": "solver.advance",
          "State": 1,
          "Timestamp": 2502
        },
        {
          "Name": "solver.advance",
          "State": 0,
          "Timestamp": 2538
        },
        {
          "Name": "solver.advance",
          "State": 1,
          "Timestamp": 2702
        },
        {
          "Name": "solver.advance",
          "State": 0,
          "Timestamp": 2762
        },
        {
          "Name": "solver.advance",
          "State": 1,
          "Timestamp": 2884
        },
        {
          "Name": "solver.advance",
          "State": 0,
          "Timestamp": 2918
        },
        {
          "Name": "solver.advance",
          "State": 1,
          "Timestamp": 3082
        },
        {
          "Name": "solver.advance",
          "State": 0,
          "Timestamp": 3139
        },
        {
          "Name": "solver.advance",
          "State": 1,
          "Timestamp": 3262
        },
        {
          "Name": "solver.advance",
          "State": 0,
          "Timestamp": 3297
        },
        {
          "Name": "solver.advance",
          "State": 1,
          "Timestamp": 3458
        },
        {
          "Name": "solver.advance",
          "State": 0,
          "Timestamp": 3499
        },
        {
          "Name": "solver.advance",
          "State": 1,
          "Timestamp": 3620
        },
        {
          "Name": "solver.advance",
          "State": 0,
          "Timestamp": 3648
        },
        {
          "Name": "solver.initialize",
          "State": 1,
          "Timestamp": 0
        },
        {
          "Name": "solver.initialize",
          "State": 2,
          "Timestamp": 4
        },
        {
          "Name": "solver.initialize",
          "State": 1,
          "Timestamp": 46
        },
        {
          "Name": "solver.initialize",
          "State": 2,
          "Timestamp": 49
        },
        {
          "Name": "solver.initialize",
          "State": 1,
          "Timestamp": 49
        },
        {
          "Name": "solver.initialize",
          "State": 0,
          "Timestamp": 120
        }
      ],
      "Timings": {
        "_GLOBAL": {
          "Count": 1,
          "Data": {},
          "Max": 3648,
          "Min": 3648,
          "TimeRatio": 1.0,
          "Total": 3648
        },
        "advance": {
          "Count": 19,
          "Data": {},
          "Max": 178,
          "Min": 118,
          "TimeRatio": 0.7472587719298246,
          "Total": 2726
        },
        "advance/map.np.mapData.FromDirichletNodesToNeumannNodes": {
          "Count": 19,
          "Data": {},
          "Max": 0,
          "Min": 0,
          "TimeRatio": 0.0,
          "Total": 0
        },
        "advance/map.np.mapData.FromNeumannNodesToDirichletNodes": {
          "Count": 57,
          "Data": {},
          "Max": 0,
          "Min": 0,
          "TimeRatio": 0.0,
          "Total": 0
        },
        "configure": {
          "Count": 1,
          "Data": {},
          "Max": 0,
          "Min": 0,
          "TimeRatio": 0.0,
          "Total": 0
        },
        "finalize": {
          "Count": 1,
          "Data": {},
          "Max": 0,
          "Min": 0,
          "TimeRatio": 0.0,
          "Total": 0
        },
        "initialize": {
          "Count": 1,
          "Data": {},
          "Max": 42,
          "Min": 42,
          "TimeRatio": 0.011513157894736841,
          "Total": 42
        },
        "initialize/m2n.requestMasterConnection": {
          "Count": 1,
          "Data": {},
          "Max": 1,
          "Min": 1,
          "TimeRatio": 0.00027412280701754384,
          "Total": 1
        },
        "initialize/m2n.requestSlavesConnection": {
          "Count": 1,
          "Data": {},
          "Max": 0,
          "Min": 0,
          "TimeRatio": 0.0,
          "Total": 0
        },
        "initialize/partition.feedbackMesh.DirichletNodes": {
          "Count": 1,
          "Data": {},
          "Max": 0,
          "Min": 0,
          "TimeRatio": 0.0,
          "Total": 0
        },
        "initialize/partition.receiveGlobalMesh.NeumannNodes": {
          "Count": 1,
          "Data": {},
          "Max": 41,
          "Min": 41,
          "TimeRatio": 0.011239035087719298,
          "Total": 41
        },
        "initializeData": {
          "Count": 1,
          "Data": {},
          "Max": 0,
          "Min": 0,
          "TimeRatio": 0.0,
          "Total": 0
        },
        "initializeData/map.np.computeMapping.FromDirichletNodesToNeumannNodes": {
          "Count": 1,
          "Data": {},
          "Max": 0,
          "Min": 0,
          "TimeRatio": 0.0,
          "Total": 0
        },
        "initializeData/map.np.computeMapping.FromDirichletNodesToNeumannNodes.getIndexOnEdges": {
          "Count": 1,
          "Data": {},
          "Max": 0,
          "Min": 0,
          "TimeRatio": 0.0,
          "Total": 0
        },
        "initializeData/map.np.computeMapping.FromDirichletNodesToNeumannNodes.getIndexOnVertices": {
          "Count": 1,
          "Data": {},
          "Max": 0,
          "Min": 0,
          "TimeRatio": 0.0,
          "Total": 0
        },
        "initializeData/map.np.computeMapping.FromNeumannNodesToDirichletNodes": {
          "Count": 1,
          "Data": {},
          "Max": 0,
          "Min": 0,
          "TimeRatio": 0.0,
          "Total": 0
        },
        "initializeData/map.np.computeMapping.FromNeumannNodesToDirichletNodes.getIndexOnEdges": {
          "Count": 1,
          "Data": {},
          "Max": 0,
          "Min": 0,
          "TimeRatio": 0.0,
          "Total": 0
        },
        "initializeData/map.np.computeMapping.FromNeumannNodesToDirichletNodes.getIndexOnVertices": {
          "Count": 1,
          "Data": {},
          "Max": 0,
          "Min": 0,
          "TimeRatio": 0.0,
          "Total": 0
        },
        "initializeData/map.np.mapData.FromDirichletNodesToNeumannNodes": {
          "Count": 1,
          "Data": {},
          "Max": 0,
          "Min": 0,
          "TimeRatio": 0.0,
          "Total": 0
        },
        "initializeData/map.np.mapData.FromNeumannNodesToDirichletNodes": {
          "Count": 3,
          "Data": {},
          "Max": 0,
          "Min": 0,
          "TimeRatio": 0.0,
          "Total": 0
        },
        "solver.advance": {
          "Count": 19,
          "Data": {},
          "Max": 59,
          "Min": 27,
          "TimeRatio": 0.21929824561403508,
          "Total": 800
        },
        "solver.initialize": {
          "Count": 1,
          "Data": {},
          "Max": 77,
          "Min": 77,
          "TimeRatio": 0.021107456140350877,
          "Total": 77
        }
      }
    }
  ]
}
