# vtk DataFile Version 2.0

ASCII

DATASET UNSTRUCTURED_GRID

POINTS 106 float 

-5.0000000000000003e-02  0.0000000000000000e+00  0.0000000000000000e+00
5.0000000000000003e-02  0.0000000000000000e+00  0.0000000000000000e+00
-5.0000000000000003e-02  2.0000000000000000e-02  0.0000000000000000e+00
5.0000000000000003e-02  2.0000000000000000e-02  0.0000000000000000e+00
-5.0000000000000003e-02  4.0000000000000001e-02  0.0000000000000000e+00
5.0000000000000003e-02  4.0000000000000001e-02  0.0000000000000000e+00
-5.0000000000000003e-02  5.9999999999999998e-02  0.0000000000000000e+00
5.0000000000000003e-02  5.9999999999999998e-02  0.0000000000000000e+00
-5.0000000000000003e-02  8.0000000000000002e-02  0.0000000000000000e+00
5.0000000000000003e-02  8.0000000000000002e-02  0.0000000000000000e+00
-5.0000000000000003e-02  1.0000000000000001e-01  0.0000000000000000e+00
5.0000000000000003e-02  1.0000000000000001e-01  0.0000000000000000e+00
-5.0000000000000003e-02  1.2000000000000000e-01  0.0000000000000000e+00
5.0000000000000003e-02  1.2000000000000000e-01  0.0000000000000000e+00
-5.0000000000000003e-02  1.4000000000000001e-01  0.0000000000000000e+00
5.0000000000000003e-02  1.4000000000000001e-01  0.0000000000000000e+00
-5.0000000000000003e-02  1.6000000000000000e-01  0.0000000000000000e+00
5.0000000000000003e-02  1.6000000000000000e-01  0.0000000000000000e+00
-5.0000000000000003e-02  1.7999999999999999e-01  0.0000000000000000e+00
5.0000000000000003e-02  1.7999999999999999e-01  0.0000000000000000e+00
-5.0000000000000003e-02  2.0000000000000001e-01  0.0000000000000000e+00
5.0000000000000003e-02  2.0000000000000001e-01  0.0000000000000000e+00
-5.0000000000000003e-02  2.2000000000000000e-01  0.0000000000000000e+00
5.0000000000000003e-02  2.2000000000000000e-01  0.0000000000000000e+00
-5.0000000000000003e-02  2.3999999999999999e-01  0.0000000000000000e+00
5.0000000000000003e-02  2.3999999999999999e-01  0.0000000000000000e+00
-5.0000000000000003e-02  2.6000000000000001e-01  0.0000000000000000e+00
5.0000000000000003e-02  2.6000000000000001e-01  0.0000000000000000e+00
-5.0000000000000003e-02  2.8000000000000003e-01  0.0000000000000000e+00
5.0000000000000003e-02  2.8000000000000003e-01  0.0000000000000000e+00
-5.0000000000000003e-02  2.9999999999999999e-01  0.0000000000000000e+00
5.0000000000000003e-02  2.9999999999999999e-01  0.0000000000000000e+00
-5.0000000000000003e-02  3.2000000000000001e-01  0.0000000000000000e+00
5.0000000000000003e-02  3.2000000000000001e-01  0.0000000000000000e+00
-5.0000000000000003e-02  3.4000000000000002e-01  0.0000000000000000e+00
5.0000000000000003e-02  3.4000000000000002e-01  0.0000000000000000e+00
-5.0000000000000003e-02  3.5999999999999999e-01  0.0000000000000000e+00
5.0000000000000003e-02  3.5999999999999999e-01  0.0000000000000000e+00
-5.0000000000000003e-02  3.8000000000000000e-01  0.0000000000000000e+00
5.0000000000000003e-02  3.8000000000000000e-01  0.0000000000000000e+00
-5.0000000000000003e-02  4.0000000000000002e-01  0.0000000000000000e+00
5.0000000000000003e-02  4.0000000000000002e-01  0.0000000000000000e+00
-5.0000000000000003e-02  4.1999999999999998e-01  0.0000000000000000e+00
5.0000000000000003e-02  4.1999999999999998e-01  0.0000000000000000e+00
-5.0000000000000003e-02  4.4000000000000000e-01  0.0000000000000000e+00
5.0000000000000003e-02  4.4000000000000000e-01  0.0000000000000000e+00
-5.0000000000000003e-02  4.6000000000000002e-01  0.0000000000000000e+00
5.0000000000000003e-02  4.6000000000000002e-01  0.0000000000000000e+00
-5.0000000000000003e-02  4.7999999999999998e-01  0.0000000000000000e+00
5.0000000000000003e-02  4.7999999999999998e-01  0.0000000000000000e+00
-5.0000000000000003e-02  5.0000000000000000e-01  0.0000000000000000e+00
5.0000000000000003e-02  5.0000000000000000e-01  0.0000000000000000e+00
-5.0000000000000003e-02  5.2000000000000002e-01  0.0000000000000000e+00
5.0000000000000003e-02  5.2000000000000002e-01  0.0000000000000000e+00
-5.0000000000000003e-02  5.4000000000000004e-01  0.0000000000000000e+00
5.0000000000000003e-02  5.4000000000000004e-01  0.0000000000000000e+00
-5.0000000000000003e-02  5.6000000000000005e-01  0.0000000000000000e+00
5.0000000000000003e-02  5.6000000000000005e-01  0.0000000000000000e+00
-5.0000000000000003e-02  5.7999999999999996e-01  0.0000000000000000e+00
5.0000000000000003e-02  5.7999999999999996e-01  0.0000000000000000e+00
-5.0000000000000003e-02  5.9999999999999998e-01  0.0000000000000000e+00
5.0000000000000003e-02  5.9999999999999998e-01  0.0000000000000000e+00
-5.0000000000000003e-02  6.2000000000000000e-01  0.0000000000000000e+00
5.0000000000000003e-02  6.2000000000000000e-01  0.0000000000000000e+00
-5.0000000000000003e-02  6.4000000000000001e-01  0.0000000000000000e+00
5.0000000000000003e-02  6.4000000000000001e-01  0.0000000000000000e+00
-5.0000000000000003e-02  6.6000000000000003e-01  0.0000000000000000e+00
5.0000000000000003e-02  6.6000000000000003e-01  0.0000000000000000e+00
-5.0000000000000003e-02  6.8000000000000005e-01  0.0000000000000000e+00
5.0000000000000003e-02  6.8000000000000005e-01  0.0000000000000000e+00
-5.0000000000000003e-02  6.9999999999999996e-01  0.0000000000000000e+00
5.0000000000000003e-02  6.9999999999999996e-01  0.0000000000000000e+00
-5.0000000000000003e-02  7.1999999999999997e-01  0.0000000000000000e+00
5.0000000000000003e-02  7.1999999999999997e-01  0.0000000000000000e+00
-5.0000000000000003e-02  7.3999999999999999e-01  0.0000000000000000e+00
5.0000000000000003e-02  7.3999999999999999e-01  0.0000000000000000e+00
-5.0000000000000003e-02  7.6000000000000001e-01  0.0000000000000000e+00
5.0000000000000003e-02  7.6000000000000001e-01  0.0000000000000000e+00
-5.0000000000000003e-02  7.8000000000000003e-01  0.0000000000000000e+00
5.0000000000000003e-02  7.8000000000000003e-01  0.0000000000000000e+00
-5.0000000000000003e-02  8.0000000000000004e-01  0.0000000000000000e+00
5.0000000000000003e-02  8.0000000000000004e-01  0.0000000000000000e+00
-5.0000000000000003e-02  8.1999999999999995e-01  0.0000000000000000e+00
5.0000000000000003e-02  8.1999999999999995e-01  0.0000000000000000e+00
-5.0000000000000003e-02  8.3999999999999997e-01  0.0000000000000000e+00
5.0000000000000003e-02  8.3999999999999997e-01  0.0000000000000000e+00
-5.0000000000000003e-02  8.5999999999999999e-01  0.0000000000000000e+00
5.0000000000000003e-02  8.5999999999999999e-01  0.0000000000000000e+00
-5.0000000000000003e-02  8.8000000000000000e-01  0.0000000000000000e+00
5.0000000000000003e-02  8.8000000000000000e-01  0.0000000000000000e+00
-5.0000000000000003e-02  9.0000000000000002e-01  0.0000000000000000e+00
5.0000000000000003e-02  9.0000000000000002e-01  0.0000000000000000e+00
-5.0000000000000003e-02  9.2000000000000004e-01  0.0000000000000000e+00
5.0000000000000003e-02  9.2000000000000004e-01  0.0000000000000000e+00
-5.0000000000000003e-02  9.3999999999999995e-01  0.0000000000000000e+00
5.0000000000000003e-02  9.3999999999999995e-01  0.0000000000000000e+00
-5.0000000000000003e-02  9.5999999999999996e-01  0.0000000000000000e+00
5.0000000000000003e-02  9.5999999999999996e-01  0.0000000000000000e+00
-5.0000000000000003e-02  9.7999999999999998e-01  0.0000000000000000e+00
5.0000000000000003e-02  9.7999999999999998e-01  0.0000000000000000e+00
-5.0000000000000003e-02  1.0000000000000000e+00  0.0000000000000000e+00
-3.0000000000000002e-02  1.0000000000000000e+00  0.0000000000000000e+00
-1.0000000000000002e-02  1.0000000000000000e+00  0.0000000000000000e+00
1.0000000000000009e-02  1.0000000000000000e+00  0.0000000000000000e+00
2.9999999999999999e-02  1.0000000000000000e+00  0.0000000000000000e+00
5.0000000000000003e-02  1.0000000000000000e+00  0.0000000000000000e+00

CELLS 0 0


CELL_TYPES 0


POINT_DATA 106

VECTORS VertexNormals float

0.0000000000000000e+00 0.0000000000000000e+00 0
0.0000000000000000e+00 0.0000000000000000e+00 0
0.0000000000000000e+00 0.0000000000000000e+00 0
0.0000000000000000e+00 0.0000000000000000e+00 0
0.0000000000000000e+00 0.0000000000000000e+00 0
0.0000000000000000e+00 0.0000000000000000e+00 0
0.0000000000000000e+00 0.0000000000000000e+00 0
0.0000000000000000e+00 0.0000000000000000e+00 0
0.0000000000000000e+00 0.0000000000000000e+00 0
0.0000000000000000e+00 0.0000000000000000e+00 0
0.0000000000000000e+00 0.0000000000000000e+00 0
0.0000000000000000e+00 0.0000000000000000e+00 0
0.0000000000000000e+00 0.0000000000000000e+00 0
0.0000000000000000e+00 0.0000000000000000e+00 0
0.0000000000000000e+00 0.0000000000000000e+00 0
0.0000000000000000e+00 0.0000000000000000e+00 0
0.0000000000000000e+00 0.0000000000000000e+00 0
0.0000000000000000e+00 0.0000000000000000e+00 0
0.0000000000000000e+00 0.0000000000000000e+00 0
0.0000000000000000e+00 0.0000000000000000e+00 0
0.0000000000000000e+00 0.0000000000000000e+00 0
0.0000000000000000e+00 0.0000000000000000e+00 0
0.0000000000000000e+00 0.0000000000000000e+00 0
0.0000000000000000e+00 0.0000000000000000e+00 0
0.0000000000000000e+00 0.0000000000000000e+00 0
0.0000000000000000e+00 0.0000000000000000e+00 0
0.0000000000000000e+00 0.0000000000000000e+00 0
0.0000000000000000e+00 0.0000000000000000e+00 0
0.0000000000000000e+00 0.0000000000000000e+00 0
0.0000000000000000e+00 0.0000000000000000e+00 0
0.0000000000000000e+00 0.0000000000000000e+00 0
0.0000000000000000e+00 0.0000000000000000e+00 0
0.0000000000000000e+00 0.0000000000000000e+00 0
0.0000000000000000e+00 0.0000000000000000e+00 0
0.0000000000000000e+00 0.0000000000000000e+00 0
0.0000000000000000e+00 0.0000000000000000e+00 0
0.0000000000000000e+00 0.0000000000000000e+00 0
0.0000000000000000e+00 0.0000000000000000e+00 0
0.0000000000000000e+00 0.0000000000000000e+00 0
0.0000000000000000e+00 0.0000000000000000e+00 0
0.0000000000000000e+00 0.0000000000000000e+00 0
0.0000000000000000e+00 0.0000000000000000e+00 0
0.0000000000000000e+00 0.0000000000000000e+00 0
0.0000000000000000e+00 0.0000000000000000e+00 0
0.0000000000000000e+00 0.0000000000000000e+00 0
0.0000000000000000e+00 0.0000000000000000e+00 0
0.0000000000000000e+00 0.0000000000000000e+00 0
0.0000000000000000e+00 0.0000000000000000e+00 0
0.0000000000000000e+00 0.0000000000000000e+00 0
0.0000000000000000e+00 0.0000000000000000e+00 0
0.0000000000000000e+00 0.0000000000000000e+00 0
0.0000000000000000e+00 0.0000000000000000e+00 0
0.0000000000000000e+00 0.0000000000000000e+00 0
0.0000000000000000e+00 0.0000000000000000e+00 0
0.0000000000000000e+00 0.0000000000000000e+00 0
0.0000000000000000e+00 0.0000000000000000e+00 0
0.0000000000000000e+00 0.0000000000000000e+00 0
0.0000000000000000e+00 0.0000000000000000e+00 0
0.0000000000000000e+00 0.0000000000000000e+00 0
0.0000000000000000e+00 0.0000000000000000e+00 0
0.0000000000000000e+00 0.0000000000000000e+00 0
0.0000000000000000e+00 0.0000000000000000e+00 0
0.0000000000000000e+00 0.0000000000000000e+00 0
0.0000000000000000e+00 0.0000000000000000e+00 0
0.0000000000000000e+00 0.0000000000000000e+00 0
0.0000000000000000e+00 0.0000000000000000e+00 0
0.0000000000000000e+00 0.0000000000000000e+00 0
0.0000000000000000e+00 0.0000000000000000e+00 0
0.0000000000000000e+00 0.0000000000000000e+00 0
0.0000000000000000e+00 0.0000000000000000e+00 0
0.0000000000000000e+00 0.0000000000000000e+00 0
0.0000000000000000e+00 0.0000000000000000e+00 0
0.0000000000000000e+00 0.0000000000000000e+00 0
0.0000000000000000e+00 0.0000000000000000e+00 0
0.0000000000000000e+00 0.0000000000000000e+00 0
0.0000000000000000e+00 0.0000000000000000e+00 0
0.0000000000000000e+00 0.0000000000000000e+00 0
0.0000000000000000e+00 0.0000000000000000e+00 0
0.0000000000000000e+00 0.0000000000000000e+00 0
0.0000000000000000e+00 0.0000000000000000e+00 0
0.0000000000000000e+00 0.0000000000000000e+00 0
0.0000000000000000e+00 0.0000000000000000e+00 0
0.0000000000000000e+00 0.0000000000000000e+00 0
0.0000000000000000e+00 0.0000000000000000e+00 0
0.0000000000000000e+00 0.0000000000000000e+00 0
0.0000000000000000e+00 0.0000000000000000e+00 0
0.0000000000000000e+00 0.0000000000000000e+00 0
0.0000000000000000e+00 0.0000000000000000e+00 0
0.0000000000000000e+00 0.0000000000000000e+00 0
0.0000000000000000e+00 0.0000000000000000e+00 0
0.0000000000000000e+00 0.0000000000000000e+00 0
0.0000000000000000e+00 0.0000000000000000e+00 0
0.0000000000000000e+00 0.0000000000000000e+00 0
0.0000000000000000e+00 0.0000000000000000e+00 0
0.0000000000000000e+00 0.0000000000000000e+00 0
0.0000000000000000e+00 0.0000000000000000e+00 0
0.0000000000000000e+00 0.0000000000000000e+00 0
0.0000000000000000e+00 0.0000000000000000e+00 0
0.0000000000000000e+00 0.0000000000000000e+00 0
0.0000000000000000e+00 0.0000000000000000e+00 0
0.0000000000000000e+00 0.0000000000000000e+00 0
0.0000000000000000e+00 0.0000000000000000e+00 0
0.0000000000000000e+00 0.0000000000000000e+00 0
0.0000000000000000e+00 0.0000000000000000e+00 0
0.0000000000000000e+00 0.0000000000000000e+00 0
0.0000000000000000e+00 0.0000000000000000e+00 0

VECTORS Displacements1 float
-2.8649346799977000e-17 1.6002971791772838e-17 0
-2.0469538065994525e-23 -8.4557747027759729e-24 0
2.6817692592756770e-07 -8.4588661962252091e-08 0
2.7829343827178642e-07 1.1152654137486828e-07 0
3.1516929773415540e-07 -6.4764487088774112e-08 0
3.1185423163607433e-07 9.8132865296444005e-08 0
2.0247638511163657e-07 -2.2050253055257458e-08 0
1.9684824200920047e-07 4.8399969560340726e-08 0
7.8053139626243637e-08 2.7286838712585802e-08 0
8.0402980543157167e-08 -2.2393365831165752e-08 0
6.7159502478711988e-07 3.8837164569756247e-08 0
6.5013964423953864e-07 4.6478986314157993e-08 0
7.8874739316491283e-08 -3.4409405161902077e-08 0
8.0654424172189389e-08 3.8000492149442745e-08 0
2.0661499225969305e-07 1.4998769551968312e-08 0
2.0283354470815521e-07 1.7251805483403270e-08 0
2.0661343042567648e-07 9.3332093714305917e-09 0
2.0291126126023801e-07 2.1843441408630942e-08 0
7.8532392963713996e-08 3.3021977556059559e-08 0
8.3522165068886160e-08 -2.6679545233947431e-08 0
6.6734406140671431e-07 3.5464085029996001e-08 0
6.6194094477414083e-07 6.1561001669440520e-08 0
7.7850501124110394e-08 -3.5805583001194336e-08 0
8.1536723287675165e-08 4.3454228320891139e-08 0
2.0564452124997358e-07 1.2750734482714586e-08 0
2.0996087885432862e-07 2.5007529121530299e-08 0
2.0567333467291912e-07 7.0924705611652676e-09 0
2.0995524593826720e-07 2.9854115759968254e-08 0
7.8362585338612473e-08 3.1339450021369455e-08 0
8.8473424356566398e-08 -2.2804660778555467e-08 0
6.6521231590533030e-07 3.2224125382802202e-08 0
6.9557100507631081e-07 8.0040123503721881e-08 0
7.7324031296013945e-08 -3.7009309059573124e-08 0
8.4834527491367158e-08 5.0714952666934095e-08 0
2.0510064998964932e-07 1.1845459646764876e-08 0
2.2372423551489815e-07 3.2967027697266834e-08 0
2.0523235344220674e-07 6.3929411807536587e-09 0
2.2365619666834621e-07 3.7998187410505059e-08 0
7.8091145258298440e-08 3.1001974953056300e-08 0
9.5997365408230225e-08 -2.0458691389460997e-08 0
6.6343470903094962e-07 3.3072038757362068e-08 0
7.5107493610456698e-07 9.8628915249892493e-08 0
7.7089445794867493e-08 -3.6733793494284819e-08 0
9.0841734956458568e-08 5.8631829814113475e-08 0
2.0468839572487178e-07 1.3067708737698640e-08 0
2.4468014211239717e-07 4.0639628278165877e-08 0
2.0493103030348902e-07 8.0012232714051703e-09 0
2.4453965552007919e-07 4.5907780423691339e-08 0
7.7532458646383339e-08 3.2928074486284486e-08 0
1.0648187693190458e-07 -2.0329312534076981e-08 0
6.6190250313128973e-07 4.0864032468520636e-08 0
8.3197099007721028e-07 1.1627036554363793e-07 0
7.7226254376962313e-08 -3.3997247710284076e-08 0
1.0004340673843568e-07 6.6919565172501545e-08 0
2.0358657088338195e-07 1.7971786284173348e-08 0
2.7382319272324579e-07 4.7412089978737968e-08 0
2.0413648142994023e-07 1.3192698313137369e-08 0
2.7372168470765570e-07 5.3234024818000522e-08 0
7.6592988529057400e-08 3.6432219637157365e-08 0
1.2072063716129553e-07 -2.1983958272529115e-08 0
6.5744798641530624e-07 5.2927858162608247e-08 0
9.4333123726227777e-07 1.3602109884785950e-07 0
7.7408595781323918e-08 -2.9418245700641978e-08 0
1.1297089177357811e-07 7.6697841971041134e-08 0
2.0491073839182080e-07 2.4687582230541991e-08 0
3.1593977535223430e-07 5.5405007870282438e-08 0
2.0544469411153550e-07 2.1293566070037547e-08 0
3.1563477982429811e-07 6.1401486958158096e-08 0
7.6111302728095131e-08 4.7615166905461723e-08 0
1.4092358704326230e-07 -2.9358672364491992e-08 0
6.6828903662827161e-07 8.9280358826784047e-08 0
1.1076829503848937e-06 1.4981875974145794e-07 0
8.0186533725572872e-08 -1.7423898242811681e-08 0
1.3264787015615573e-07 8.5782246705769040e-08 0
2.0314151021726610e-07 4.6150239513983907e-08 0
3.7272635956561176e-07 5.8218678330080160e-08 0
2.0547115046762044e-07 4.1923852029405938e-08 0
3.7334788427169709e-07 6.6458351408771312e-08 0
7.7167078648899669e-08 5.4257390889581291e-08 0
1.7099123236120462e-07 -3.4692579857494300e-08 0
6.7031962626553170e-07 1.0447219119315300e-07 0
1.3412483682765847e-06 1.9063327816491272e-07 0
8.2226826905070735e-08 -1.0250392204767568e-08 0
1.5956585257047371e-07 1.0452495879891369e-07 0
2.4291206981902007e-07 5.7240210428662545e-08 0
4.8553173763985036e-07 7.6765520941840094e-08 0
2.4284960434071384e-07 6.6244694846585539e-08 0
4.8402716247730572e-07 7.9337028328849319e-08 0
9.3109489078654597e-08 1.3805356433740134e-07 0
2.3072006290834400e-07 -8.9138986526985297e-08 0
9.3481658171077440e-07 3.6401502892539505e-07 0
1.8758473323547286e-06 1.3970533916585610e-07 0
1.3166671569261499e-07 1.0979029122213255e-07 0
2.1876637651268853e-07 9.0631839663051117e-08 0
3.6910367429332971e-07 4.3402688535572727e-07 0
7.2300078464803176e-07 -6.6841914999860220e-08 0
4.7149458763536774e-07 8.0789364496648921e-07 0
8.0273034806467788e-07 -2.8454668617453345e-07 0
1.7729505477659468e-06 1.7022213162695621e-06 0
1.9153052245556032e-06 -5.1624445827374299e-07 0
1.8961909934184239e-06 1.6046760569605646e-06 0
2.0378445580927364e-06 1.1435125530993776e-06 0
1.5870245792599632e-06 6.8455642114403147e-07 0
1.5710137523658970e-06 5.2954588812881612e-07 0
2.0551973136072453e-06 -4.6996595090552137e-08 0
1.8044219733211108e-06 -8.4158813350336326e-07 0

VECTORS Forces1 float
-4.9108886854962536e-02 3.1769907558135795e-02 0
-4.9774299190700512e-02 -2.7942777329104586e-02 0
7.0619564688470648e-01 -3.9409059873555458e-01 0
6.8988995689736898e-01 3.8311477119793491e-01 0
7.7367153933889266e-01 -1.2061960525424459e-01 0
7.5442614696909549e-01 1.1894096365534115e-01 0
4.9159180442076883e-01 2.0345918764160656e-02 0
4.7920805156416552e-01 -1.9017825256055731e-02 0
-7.4138486750187443e-02 -2.8834179900509441e-03 0
-7.2413918046691950e-02 2.5949885372896558e-03 0
1.8748012599849895e+00 -1.3114581373622801e-03 0
1.8300783234006972e+00 1.5940727039671993e-02 0
-7.9074020349008553e-02 -1.2928086561108117e-05 0
-7.7825880384478352e-02 -1.1565528482767374e-03 0
5.3112794673389818e-01 -1.4093150037886308e-03 0
5.2201858523250466e-01 9.2871105149303097e-03 0
5.3117051473796073e-01 -1.4205320330877558e-03 0
5.2207237227878367e-01 9.3071609885971105e-03 0
-7.9099623839548425e-02 6.4425413681434845e-05 0
-7.7918129342703549e-02 -1.2793545013506213e-03 0
1.8657666865430049e+00 -9.1751377654765813e-03 0
1.8589527249593236e+00 5.2182973790919261e-02 0
-7.8719018376139330e-02 4.1150582638129521e-04 0
-8.0057297207007661e-02 -2.8894687866387624e-03 0
5.2861808558066459e-01 -3.8234039926983037e-03 0
5.3719276555354789e-01 2.0634481446339278e-02 0
5.2861684665963948e-01 -3.8261848593895238e-03 0
5.3721595585075366e-01 2.0646572310498705e-02 0
-7.8700054127603655e-02 4.1554554523314847e-04 0
-8.0205167606328717e-02 -2.9590194205674526e-03 0
1.8586303831730988e+00 -1.4458993896388283e-02 0
1.9397262525067813e+00 9.1914197726420274e-02 0
-7.8388173490226684e-02 4.3747951074943201e-04 0
-8.4542320558455092e-02 -4.4971297077625750e-03 0
5.2653602343714212e-01 -3.9917185492217792e-03 0
5.6771717491305840e-01 3.1507348447350605e-02 0
5.2653306979152215e-01 -3.9944570430413343e-03 0
5.6775319120251166e-01 3.1520609959128185e-02 0
-7.8373518240473977e-02 4.1600218740613266e-04 0
-8.4803413224306165e-02 -4.5568272250454357e-03 0
1.8496617969011961e+00 -1.0029952412963637e-02 0
2.0748018919310804e+00 1.2892400054982817e-01 0
-7.7964891850823656e-02 -1.0865834680132008e-05 0
-9.1471858000513231e-02 -5.9697802215067895e-03 0
5.2380953033227273e-01 -1.0549206822165896e-03 0
6.1461115720044845e-01 4.1549948889291366e-02 0
5.2380415185655860e-01 -1.0563913495301564e-03 0
6.1466180212732469e-01 4.1564331586251814e-02 0
-7.7942291407671491e-02 -7.2838400861273167e-05 0
-9.1857038991065551e-02 -6.0122572419575365e-03 0
1.8381190520827408e+00 1.1040631513964051e-02 0
2.2728080688891490e+00 1.6052551965602557e-01 0
-7.7169895149265852e-02 -1.3833097655016507e-03 0
-1.0120834893260319e-01 -7.1255534154661257e-03 0
5.1857629665219407e-01 8.0163953197324982e-03 0
6.8033119412328724e-01 4.9567767580923412e-02 0
5.1857052326693720e-01 8.0125294005587086e-03 0
6.8040030830125242e-01 4.9586894988410381e-02 0
-7.7155875211045208e-02 -1.4873717899658349e-03 0
-1.0176598585660569e-01 -7.1532991150142448e-03 0
1.8162821065328172e+00 4.2884150339995021e-02 0
2.5458219820627082e+00 1.9313613580056821e-01 0
-7.6957285496518368e-02 -2.9745393276884228e-03 0
-1.1523835455817422e-01 -8.5322090240913199e-03 0
5.1744933466069698e-01 1.8170155108728825e-02 0
7.7493897974102033e-01 5.9590544418169855e-02 0
5.1743793209380284e-01 1.8166032164973114e-02 0
7.7502604547834730e-01 5.9614679699600513e-02 0
-7.6942947383231000e-02 -3.2229802417781139e-03 0
-1.1604919784310185e-01 -8.4985638999189785e-03 0
1.8257631668879650e+00 1.3165885926418891e-01 0
2.9490447368355421e+00 2.0562503697954301e-01 0
-7.5641872207740268e-02 -8.8589247476880059e-03 0
-1.3458104431217555e-01 -8.1889290472128926e-03 0
5.0843300439939132e-01 5.6970682466621896e-02 0
9.0457033330214653e-01 5.8106810646473821e-02 0
5.0840520345245377e-01 5.6902062314208995e-02 0
9.0464361555841954e-01 5.8162506751851417e-02 0
-7.6090853751753604e-02 -9.2691601590104370e-03 0
-1.3620905350903292e-01 -8.1493280856433058e-03 0
1.8142864819506390e+00 1.7085482605252536e-01 0
3.5216040086325591e+00 2.7183805404310257e-01 0
-8.8129818041886854e-02 -9.8911660695670256e-03 0
-1.7279579172842044e-01 -1.2058632547608918e-02 0
5.9001373269259283e-01 5.7532895237255112e-02 0
1.1563842704423022e+00 8.6738484085777501e-02 0
5.8986689894474376e-01 5.7239598794924615e-02 0
1.1562179034395839e+00 8.6880098307620807e-02 0
-8.9386008166924630e-02 -1.2541717532083682e-02 0
-1.7679606082246110e-01 -1.0761116946954094e-02 0
2.4025637504424431e+00 7.5144721928596647e-01 0
4.8420143502765791e+00 7.8941611873364584e-02 0
-1.0873872102877681e-01 -6.6414479840527840e-02 0
-2.5155336225238539e-01 1.7079795542637801e-02 0
8.0764725767158496e-01 4.2877972747788229e-01 0
1.7401325389407314e+00 -6.1393143966387849e-02 0
5.0744697918364667e-01 2.2895159372033505e-01 0
1.3489005097688114e+00 -4.9250548417676870e-02 0
2.9066209162681638e+00 1.8594151835466066e+00 0
3.5944481147086713e+00 -1.2767947168779551e-02 0
1.9878795368780183e-01 2.2862132961586654e-01 0
2.0650168810071281e+00 1.4446112894369061e+00 0
1.3314883883931030e+00 1.2029290084067794e+00 0
1.2287629014950201e+00 1.2887623366086778e+00 0
2.2444035122244341e+00 5.8666106116685435e-01 0
3.7936666233789951e-01 -1.3410228879256156e-01 0

