# vtk DataFile Version 2.0

ASCII

DATASET UNSTRUCTURED_GRID

POINTS 106 float 

-5.0000000000000003e-02  0.0000000000000000e+00  0.0000000000000000e+00
5.0000000000000003e-02  0.0000000000000000e+00  0.0000000000000000e+00
-5.0000000000000003e-02  2.0000000000000000e-02  0.0000000000000000e+00
5.0000000000000003e-02  2.0000000000000000e-02  0.0000000000000000e+00
-5.0000000000000003e-02  4.0000000000000001e-02  0.0000000000000000e+00
5.0000000000000003e-02  4.0000000000000001e-02  0.0000000000000000e+00
-5.0000000000000003e-02  5.9999999999999998e-02  0.0000000000000000e+00
5.0000000000000003e-02  5.9999999999999998e-02  0.0000000000000000e+00
-5.0000000000000003e-02  8.0000000000000002e-02  0.0000000000000000e+00
5.0000000000000003e-02  8.0000000000000002e-02  0.0000000000000000e+00
-5.0000000000000003e-02  1.0000000000000001e-01  0.0000000000000000e+00
5.0000000000000003e-02  1.0000000000000001e-01  0.0000000000000000e+00
-5.0000000000000003e-02  1.2000000000000000e-01  0.0000000000000000e+00
5.0000000000000003e-02  1.2000000000000000e-01  0.0000000000000000e+00
-5.0000000000000003e-02  1.4000000000000001e-01  0.0000000000000000e+00
5.0000000000000003e-02  1.4000000000000001e-01  0.0000000000000000e+00
-5.0000000000000003e-02  1.6000000000000000e-01  0.0000000000000000e+00
5.0000000000000003e-02  1.6000000000000000e-01  0.0000000000000000e+00
-5.0000000000000003e-02  1.7999999999999999e-01  0.0000000000000000e+00
5.0000000000000003e-02  1.7999999999999999e-01  0.0000000000000000e+00
-5.0000000000000003e-02  2.0000000000000001e-01  0.0000000000000000e+00
5.0000000000000003e-02  2.0000000000000001e-01  0.0000000000000000e+00
-5.0000000000000003e-02  2.2000000000000000e-01  0.0000000000000000e+00
5.0000000000000003e-02  2.2000000000000000e-01  0.0000000000000000e+00
-5.0000000000000003e-02  2.3999999999999999e-01  0.0000000000000000e+00
5.0000000000000003e-02  2.3999999999999999e-01  0.0000000000000000e+00
-5.0000000000000003e-02  2.6000000000000001e-01  0.0000000000000000e+00
5.0000000000000003e-02  2.6000000000000001e-01  0.0000000000000000e+00
-5.0000000000000003e-02  2.8000000000000003e-01  0.0000000000000000e+00
5.0000000000000003e-02  2.8000000000000003e-01  0.0000000000000000e+00
-5.0000000000000003e-02  2.9999999999999999e-01  0.0000000000000000e+00
5.0000000000000003e-02  2.9999999999999999e-01  0.0000000000000000e+00
-5.0000000000000003e-02  3.2000000000000001e-01  0.0000000000000000e+00
5.0000000000000003e-02  3.2000000000000001e-01  0.0000000000000000e+00
-5.0000000000000003e-02  3.4000000000000002e-01  0.0000000000000000e+00
5.0000000000000003e-02  3.4000000000000002e-01  0.0000000000000000e+00
-5.0000000000000003e-02  3.5999999999999999e-01  0.0000000000000000e+00
5.0000000000000003e-02  3.5999999999999999e-01  0.0000000000000000e+00
-5.0000000000000003e-02  3.8000000000000000e-01  0.0000000000000000e+00
5.0000000000000003e-02  3.8000000000000000e-01  0.0000000000000000e+00
-5.0000000000000003e-02  4.0000000000000002e-01  0.0000000000000000e+00
5.0000000000000003e-02  4.0000000000000002e-01  0.0000000000000000e+00
-5.0000000000000003e-02  4.1999999999999998e-01  0.0000000000000000e+00
5.0000000000000003e-02  4.1999999999999998e-01  0.0000000000000000e+00
-5.0000000000000003e-02  4.4000000000000000e-01  0.0000000000000000e+00
5.0000000000000003e-02  4.4000000000000000e-01  0.0000000000000000e+00
-5.0000000000000003e-02  4.6000000000000002e-01  0.0000000000000000e+00
5.0000000000000003e-02  4.6000000000000002e-01  0.0000000000000000e+00
-5.0000000000000003e-02  4.7999999999999998e-01  0.0000000000000000e+00
5.0000000000000003e-02  4.7999999999999998e-01  0.0000000000000000e+00
-5.0000000000000003e-02  5.0000000000000000e-01  0.0000000000000000e+00
5.0000000000000003e-02  5.0000000000000000e-01  0.0000000000000000e+00
-5.0000000000000003e-02  5.2000000000000002e-01  0.0000000000000000e+00
5.0000000000000003e-02  5.2000000000000002e-01  0.0000000000000000e+00
-5.0000000000000003e-02  5.4000000000000004e-01  0.0000000000000000e+00
5.0000000000000003e-02  5.4000000000000004e-01  0.0000000000000000e+00
-5.0000000000000003e-02  5.6000000000000005e-01  0.0000000000000000e+00
5.0000000000000003e-02  5.6000000000000005e-01  0.0000000000000000e+00
-5.0000000000000003e-02  5.7999999999999996e-01  0.0000000000000000e+00
5.0000000000000003e-02  5.7999999999999996e-01  0.0000000000000000e+00
-5.0000000000000003e-02  5.9999999999999998e-01  0.0000000000000000e+00
5.0000000000000003e-02  5.9999999999999998e-01  0.0000000000000000e+00
-5.0000000000000003e-02  6.2000000000000000e-01  0.0000000000000000e+00
5.0000000000000003e-02  6.2000000000000000e-01  0.0000000000000000e+00
-5.0000000000000003e-02  6.4000000000000001e-01  0.0000000000000000e+00
5.0000000000000003e-02  6.4000000000000001e-01  0.0000000000000000e+00
-5.0000000000000003e-02  6.6000000000000003e-01  0.0000000000000000e+00
5.0000000000000003e-02  6.6000000000000003e-01  0.0000000000000000e+00
-5.0000000000000003e-02  6.8000000000000005e-01  0.0000000000000000e+00
5.0000000000000003e-02  6.8000000000000005e-01  0.0000000000000000e+00
-5.0000000000000003e-02  6.9999999999999996e-01  0.0000000000000000e+00
5.0000000000000003e-02  6.9999999999999996e-01  0.0000000000000000e+00
-5.0000000000000003e-02  7.1999999999999997e-01  0.0000000000000000e+00
5.0000000000000003e-02  7.1999999999999997e-01  0.0000000000000000e+00
-5.0000000000000003e-02  7.3999999999999999e-01  0.0000000000000000e+00
5.0000000000000003e-02  7.3999999999999999e-01  0.0000000000000000e+00
-5.0000000000000003e-02  7.6000000000000001e-01  0.0000000000000000e+00
5.0000000000000003e-02  7.6000000000000001e-01  0.0000000000000000e+00
-5.0000000000000003e-02  7.8000000000000003e-01  0.0000000000000000e+00
5.0000000000000003e-02  7.8000000000000003e-01  0.0000000000000000e+00
-5.0000000000000003e-02  8.0000000000000004e-01  0.0000000000000000e+00
5.0000000000000003e-02  8.0000000000000004e-01  0.0000000000000000e+00
-5.0000000000000003e-02  8.1999999999999995e-01  0.0000000000000000e+00
5.0000000000000003e-02  8.1999999999999995e-01  0.0000000000000000e+00
-5.0000000000000003e-02  8.3999999999999997e-01  0.0000000000000000e+00
5.0000000000000003e-02  8.3999999999999997e-01  0.0000000000000000e+00
-5.0000000000000003e-02  8.5999999999999999e-01  0.0000000000000000e+00
5.0000000000000003e-02  8.5999999999999999e-01  0.0000000000000000e+00
-5.0000000000000003e-02  8.8000000000000000e-01  0.0000000000000000e+00
5.0000000000000003e-02  8.8000000000000000e-01  0.0000000000000000e+00
-5.0000000000000003e-02  9.0000000000000002e-01  0.0000000000000000e+00
5.0000000000000003e-02  9.0000000000000002e-01  0.0000000000000000e+00
-5.0000000000000003e-02  9.2000000000000004e-01  0.0000000000000000e+00
5.0000000000000003e-02  9.2000000000000004e-01  0.0000000000000000e+00
-5.0000000000000003e-02  9.3999999999999995e-01  0.0000000000000000e+00
5.0000000000000003e-02  9.3999999999999995e-01  0.0000000000000000e+00
-5.0000000000000003e-02  9.5999999999999996e-01  0.0000000000000000e+00
5.0000000000000003e-02  9.5999999999999996e-01  0.0000000000000000e+00
-5.0000000000000003e-02  9.7999999999999998e-01  0.0000000000000000e+00
5.0000000000000003e-02  9.7999999999999998e-01  0.0000000000000000e+00
-5.0000000000000003e-02  1.0000000000000000e+00  0.0000000000000000e+00
-3.0000000000000002e-02  1.0000000000000000e+00  0.0000000000000000e+00
-1.0000000000000002e-02  1.0000000000000000e+00  0.0000000000000000e+00
1.0000000000000009e-02  1.0000000000000000e+00  0.0000000000000000e+00
2.9999999999999999e-02  1.0000000000000000e+00  0.0000000000000000e+00
5.0000000000000003e-02  1.0000000000000000e+00  0.0000000000000000e+00

CELLS 0 0


CELL_TYPES 0


POINT_DATA 106

VECTORS VertexNormals float

0.0000000000000000e+00 0.0000000000000000e+00 0
0.0000000000000000e+00 0.0000000000000000e+00 0
0.0000000000000000e+00 0.0000000000000000e+00 0
0.0000000000000000e+00 0.0000000000000000e+00 0
0.0000000000000000e+00 0.0000000000000000e+00 0
0.0000000000000000e+00 0.0000000000000000e+00 0
0.0000000000000000e+00 0.0000000000000000e+00 0
0.0000000000000000e+00 0.0000000000000000e+00 0
0.0000000000000000e+00 0.0000000000000000e+00 0
0.0000000000000000e+00 0.0000000000000000e+00 0
0.0000000000000000e+00 0.0000000000000000e+00 0
0.0000000000000000e+00 0.0000000000000000e+00 0
0.0000000000000000e+00 0.0000000000000000e+00 0
0.0000000000000000e+00 0.0000000000000000e+00 0
0.0000000000000000e+00 0.0000000000000000e+00 0
0.0000000000000000e+00 0.0000000000000000e+00 0
0.0000000000000000e+00 0.0000000000000000e+00 0
0.0000000000000000e+00 0.0000000000000000e+00 0
0.0000000000000000e+00 0.0000000000000000e+00 0
0.0000000000000000e+00 0.0000000000000000e+00 0
0.0000000000000000e+00 0.0000000000000000e+00 0
0.0000000000000000e+00 0.0000000000000000e+00 0
0.0000000000000000e+00 0.0000000000000000e+00 0
0.0000000000000000e+00 0.0000000000000000e+00 0
0.0000000000000000e+00 0.0000000000000000e+00 0
0.0000000000000000e+00 0.0000000000000000e+00 0
0.0000000000000000e+00 0.0000000000000000e+00 0
0.0000000000000000e+00 0.0000000000000000e+00 0
0.0000000000000000e+00 0.0000000000000000e+00 0
0.0000000000000000e+00 0.0000000000000000e+00 0
0.0000000000000000e+00 0.0000000000000000e+00 0
0.0000000000000000e+00 0.0000000000000000e+00 0
0.0000000000000000e+00 0.0000000000000000e+00 0
0.0000000000000000e+00 0.0000000000000000e+00 0
0.0000000000000000e+00 0.0000000000000000e+00 0
0.0000000000000000e+00 0.0000000000000000e+00 0
0.0000000000000000e+00 0.0000000000000000e+00 0
0.0000000000000000e+00 0.0000000000000000e+00 0
0.0000000000000000e+00 0.0000000000000000e+00 0
0.0000000000000000e+00 0.0000000000000000e+00 0
0.0000000000000000e+00 0.0000000000000000e+00 0
0.0000000000000000e+00 0.0000000000000000e+00 0
0.0000000000000000e+00 0.0000000000000000e+00 0
0.0000000000000000e+00 0.0000000000000000e+00 0
0.0000000000000000e+00 0.0000000000000000e+00 0
0.0000000000000000e+00 0.0000000000000000e+00 0
0.0000000000000000e+00 0.0000000000000000e+00 0
0.0000000000000000e+00 0.0000000000000000e+00 0
0.0000000000000000e+00 0.0000000000000000e+00 0
0.0000000000000000e+00 0.0000000000000000e+00 0
0.0000000000000000e+00 0.0000000000000000e+00 0
0.0000000000000000e+00 0.0000000000000000e+00 0
0.0000000000000000e+00 0.0000000000000000e+00 0
0.0000000000000000e+00 0.0000000000000000e+00 0
0.0000000000000000e+00 0.0000000000000000e+00 0
0.0000000000000000e+00 0.0000000000000000e+00 0
0.0000000000000000e+00 0.0000000000000000e+00 0
0.0000000000000000e+00 0.0000000000000000e+00 0
0.0000000000000000e+00 0.0000000000000000e+00 0
0.0000000000000000e+00 0.0000000000000000e+00 0
0.0000000000000000e+00 0.0000000000000000e+00 0
0.0000000000000000e+00 0.0000000000000000e+00 0
0.0000000000000000e+00 0.0000000000000000e+00 0
0.0000000000000000e+00 0.0000000000000000e+00 0
0.0000000000000000e+00 0.0000000000000000e+00 0
0.0000000000000000e+00 0.0000000000000000e+00 0
0.0000000000000000e+00 0.0000000000000000e+00 0
0.0000000000000000e+00 0.0000000000000000e+00 0
0.0000000000000000e+00 0.0000000000000000e+00 0
0.0000000000000000e+00 0.0000000000000000e+00 0
0.0000000000000000e+00 0.0000000000000000e+00 0
0.0000000000000000e+00 0.0000000000000000e+00 0
0.0000000000000000e+00 0.0000000000000000e+00 0
0.0000000000000000e+00 0.0000000000000000e+00 0
0.0000000000000000e+00 0.0000000000000000e+00 0
0.0000000000000000e+00 0.0000000000000000e+00 0
0.0000000000000000e+00 0.0000000000000000e+00 0
0.0000000000000000e+00 0.0000000000000000e+00 0
0.0000000000000000e+00 0.0000000000000000e+00 0
0.0000000000000000e+00 0.0000000000000000e+00 0
0.0000000000000000e+00 0.0000000000000000e+00 0
0.0000000000000000e+00 0.0000000000000000e+00 0
0.0000000000000000e+00 0.0000000000000000e+00 0
0.0000000000000000e+00 0.0000000000000000e+00 0
0.0000000000000000e+00 0.0000000000000000e+00 0
0.0000000000000000e+00 0.0000000000000000e+00 0
0.0000000000000000e+00 0.0000000000000000e+00 0
0.0000000000000000e+00 0.0000000000000000e+00 0
0.0000000000000000e+00 0.0000000000000000e+00 0
0.0000000000000000e+00 0.0000000000000000e+00 0
0.0000000000000000e+00 0.0000000000000000e+00 0
0.0000000000000000e+00 0.0000000000000000e+00 0
0.0000000000000000e+00 0.0000000000000000e+00 0
0.0000000000000000e+00 0.0000000000000000e+00 0
0.0000000000000000e+00 0.0000000000000000e+00 0
0.0000000000000000e+00 0.0000000000000000e+00 0
0.0000000000000000e+00 0.0000000000000000e+00 0
0.0000000000000000e+00 0.0000000000000000e+00 0
0.0000000000000000e+00 0.0000000000000000e+00 0
0.0000000000000000e+00 0.0000000000000000e+00 0
0.0000000000000000e+00 0.0000000000000000e+00 0
0.0000000000000000e+00 0.0000000000000000e+00 0
0.0000000000000000e+00 0.0000000000000000e+00 0
0.0000000000000000e+00 0.0000000000000000e+00 0
0.0000000000000000e+00 0.0000000000000000e+00 0
0.0000000000000000e+00 0.0000000000000000e+00 0

VECTORS Displacements1 float
-4.5775713920303227e-17 2.5571814962814544e-17 0
-4.3385409200963331e-23 -1.0035689098819533e-23 0
5.7202887343946452e-07 -8.5408773454734288e-08 0
5.6960557115919900e-07 1.2584178009140017e-07 0
7.3460124609274057e-07 -7.6339208431468094e-08 0
7.0430135429346654e-07 1.2499000753097786e-07 0
5.9516345068273154e-07 -3.0304417293086034e-08 0
5.6936693461764511e-07 7.0487988504540322e-08 0
4.1826791023485290e-07 3.8916432898141077e-08 0
4.1000243708656104e-07 -2.6418779028813466e-08 0
1.3879070184038741e-06 4.3778070042954344e-08 0
1.3044281499913639e-06 9.4716261608497133e-08 0
4.1324458783985596e-07 -8.8992628645627182e-08 0
4.0173930660377188e-07 9.7153220293504447e-08 0
5.7832750218335093e-07 5.4663616060191156e-09 0
5.5404926734936351e-07 4.9164487392580636e-08 0
5.7627433451370342e-07 2.9121655804135599e-08 0
5.5508291464165567e-07 2.7469943581043048e-08 0
4.1172805684297527e-07 7.9084732341419847e-08 0
4.0775946230268167e-07 -5.5403245101852686e-08 0
1.3874664647374686e-06 5.7771435653581076e-08 0
1.3274817231086691e-06 1.0854750852241252e-07 0
4.1118773918729859e-07 -8.4191843749969778e-08 0
4.0434191480998207e-07 1.0593978140744212e-07 0
5.7826689289850227e-07 4.6159020136167312e-09 0
5.6669911968888882e-07 6.6426918538927105e-08 0
5.7809298914797094e-07 2.6369985174628262e-08 0
5.7184379845011059e-07 4.6735140811242807e-08 0
4.1509144184943056e-07 7.6623611360371468e-08 0
4.2423391007306308e-07 -4.1741512284492851e-08 0
1.3902146542915145e-06 5.4345323481120023e-08 0
1.3883526569753181e-06 1.4734249659597262e-07 0
4.1501999840221393e-07 -8.5878431404954565e-08 0
4.1835168530789940e-07 1.2694073144825222e-07 0
5.8281747556123929e-07 4.2957221507573583e-09 0
5.9629309901106402e-07 8.7240413545276542e-08 0
5.8339983758140642e-07 2.7104625693019067e-08 0
6.0398974868650933e-07 6.6186883246760624e-08 0
4.2116335488913312e-07 7.8200225571877028e-08 0
4.5115127947476228e-07 -3.1320683981964159e-08 0
1.3966451377418391e-06 5.9588936980152974e-08 0
1.4904582263282111e-06 1.8601528343654965e-07 0
4.2248643618585217e-07 -8.2983553865547940e-08 0
4.4312639359918392e-07 1.4916467071814841e-07 0
5.9063297177703242e-07 9.7893208710813941e-09 0
6.4243517397797121e-07 1.0737847685929517e-07 0
5.9177042873033476e-07 3.4404120567500858e-08 0
6.5288831705729310e-07 8.4058526982901386e-08 0
4.2972729205239851e-07 8.6753432285133328e-08 0
4.8977002569661351e-07 -2.5931148062137655e-08 0
1.4068516439673642e-06 7.9571206988117161e-08 0
1.6398545667343169e-06 2.2273756980042159e-07 0
4.3398373609276226e-07 -7.2778028843468157e-08 0
4.8025500060798162e-07 1.7211028727163320e-07 0
6.0074855724891353e-07 2.4387791178303601e-08 0
7.0753813303454978e-07 1.2609781436688217e-07 0
6.0244545118428437e-07 5.0626452355430600e-08 0
7.2133253719014487e-07 1.0017036324385017e-07 0
4.4081385956181605e-07 1.0128532050236445e-07 0
5.4283948279436749e-07 -2.4587057721857074e-08 0
1.4163281011596973e-06 1.1056162208815008e-07 0
1.8465814421195634e-06 2.6261530162727290e-07 0
4.5035666058197969e-07 -5.5205824213022819e-08 0
5.3289083463338128e-07 1.9773989238101355e-07 0
6.2012942921627920e-07 4.7767817680167555e-08 0
8.0135870703304868e-07 1.4557662054751159e-07 0
6.2306437016249686e-07 7.9633116752082387e-08 0
8.2021960819488786e-07 1.1425034868646626e-07 0
4.6100856892584477e-07 1.3772279068684123e-07 0
6.1986894208073641e-07 -3.5586986158461053e-08 0
1.4595387526629663e-06 1.9058257329295994e-07 0
2.1511537102190282e-06 2.9312478061248502e-07 0
4.8018967932558910e-07 -1.7499137826120978e-08 0
6.1154469063823954e-07 2.2344144083308340e-07 0
6.4353780524571979e-07 1.0114104421899726e-07 0
9.3255564375844654e-07 1.5925768570009603e-07 0
6.5006230068625949e-07 1.3241450271118081e-07 0
9.6038695125355459e-07 1.2552166311996827e-07 0
4.9342835523486726e-07 1.7028501588823289e-07 0
7.3466497009122716e-07 -4.2815403071339235e-08 0
1.5027253365515040e-06 2.4530207885727842e-07 0
2.5937264451620932e-06 3.6622804599506643e-07 0
5.3256098807518162e-07 2.8443086710746732e-08 0
7.3338335695038157e-07 2.6319764102486703e-07 0
7.6305548559556426e-07 1.7637113699857823e-07 0
1.1833986388174494e-06 1.8100425032000455e-07 0
7.9512896240259597e-07 2.7281306275075136e-07 0
1.2367418382137514e-06 1.1584134992403242e-07 0
6.5585072115476087e-07 4.8458502962940254e-07 0
9.8387947021503083e-07 -1.6806144965106902e-07 0
2.1139902674450145e-06 9.9363778462553357e-07 0
3.5816080842885721e-06 2.2615599517224289e-07 0
8.7050941081567812e-07 8.2928883067629882e-07 0
1.0190144615978555e-06 4.4865936935237802e-08 0
1.3837201576181017e-06 1.8410985931199953e-06 0
1.8523654059454137e-06 -4.6891055551630727e-07 0
2.0336553287400559e-06 3.0394035022329970e-06 0
2.3947907050707446e-06 -1.1984759730492584e-06 0
4.9502690042990599e-06 4.9129868656722040e-06 0
4.8782935262753975e-06 -1.7888513286204431e-06 0
6.1229795931409324e-06 4.8713794323218382e-06 0
6.2392482291461063e-06 3.2204991094619819e-06 0
5.2999200778129735e-06 1.7566442827975638e-06 0
5.1244566882741840e-06 1.0298220699596434e-06 0
5.8782346560124669e-06 -3.8830944826435842e-07 0
5.5539020417365142e-06 -2.3631899726646330e-06 0

VECTORS Forces1 float
-8.6460573229453719e-02 5.4974270019865740e-02 0
-7.6971452964529632e-02 -4.3431241771570643e-02 0
1.2166223784864032e+00 -6.7822277062997227e-01 0
1.0680135059588958e+00 5.9286653136652967e-01 0
1.3327067626817635e+00 -2.0782090535484332e-01 0
1.1686343112375632e+00 1.8403252431876543e-01 0
8.4724764868833402e-01 3.4777454947182637e-02 0
7.4253425201109713e-01 -2.9417578335807579e-02 0
-1.2776576657176733e-01 -4.8809120699206407e-03 0
-1.1219461534001973e-01 4.0115804269488103e-03 0
3.2378180599109809e+00 -1.6072510021049055e-03 0
2.8372666553788686e+00 2.4115252739300656e-02 0
-1.3678026370437604e-01 -1.1735854114015266e-04 0
-1.2058009251984628e-01 -1.7602569009934096e-03 0
9.1874283799444467e-01 -1.4896556667298045e-03 0
8.0886255473128554e-01 1.4125255259023623e-02 0
9.1881615146517326e-01 -1.5085141373157287e-03 0
8.0894559166654612e-01 1.4155312461845475e-02 0
-1.3685118286245121e-01 1.3822302397330492e-06 0
-1.2071005446157812e-01 -1.9530545938360934e-03 0
3.2312879641708707e+00 -9.1050790346579868e-03 0
2.8759442101496497e+00 8.0146458315398864e-02 0
-1.3646623464978289e-01 3.1385191797674841e-04 0
-1.2362608569534876e-01 -4.4655766055759537e-03 0
9.1629219629527459e-01 -3.6469233073900668e-03 0
8.2957722816863599e-01 3.1831330871902763e-02 0
9.1629132549601944e-01 -3.6496480852455430e-03 0
8.2960983511120123e-01 3.1849944412702197e-02 0
-1.3644513540997333e-01 3.0991562486576570e-04 0
-1.2383029986648571e-01 -4.5755432763451330e-03 0
3.2244107195422806e+00 -1.1629813152341155e-02 0
2.9884195925524555e+00 1.4230396303907755e-01 0
-1.3610027987123235e-01 1.2423478228666915e-04 0
-1.2990824561437189e-01 -6.9961408014505774e-03 0
9.1402210799767158e-01 -2.3575354976394778e-03 0
8.7236314398514725e-01 4.8939965206775619e-02 0
9.1401811870830740e-01 -2.3601206442069888e-03 0
8.7241427738696664e-01 4.8960440491883341e-02 0
-1.3608316745687302e-01 8.1403895137650655e-05 0
-1.3027380851520651e-01 -7.0925938149218968e-03 0
3.2131623696666463e+00 5.6659100569349903e-04 0
3.1782759988973059e+00 2.0098477154480288e-01 0
-1.3553460716115459e-01 -7.9223869890199543e-04 0
-1.3966610033376742e-01 -9.3567090206580581e-03 0
9.1036501305872353e-01 3.6943022144813242e-03 0
9.3842420011221173e-01 6.5022253540025929e-02 0
9.1035672798340550e-01 3.6938343767273576e-03 0
9.3849648405830965e-01 6.5044645687346386e-02 0
-1.3550341767847596e-01 -8.9720059722988416e-04 0
-1.4020732242229483e-01 -9.4299959313904214e-03 0
3.1967280228105985e+00 3.8494064783053103e-02 0
3.4576828486755886e+00 2.5278860247529827e-01 0
-1.3434621945994007e-01 -3.1418797446609824e-03 0
-1.5342198491545961e-01 -1.1314046912014281e-02 0
9.0249246173624198e-01 1.9271253349178653e-02 0
1.0313132713152124e+00 7.8554411872784391e-02 0
9.0248251633088272e-01 1.9267626062997562e-02 0
1.0314123844451757e+00 7.8584044678935538e-02 0
-1.3432569670710406e-01 -3.3124603490607136e-03 0
-1.5420684091261141e-01 -1.1368183365038833e-02 0
3.1626966206358551e+00 9.3836150788600275e-02 0
3.8440590717079308e+00 3.0717429059974183e-01 0
-1.3393388020288716e-01 -5.8889173506865809e-03 0
-1.7327550309974468e-01 -1.3680557033494611e-02 0
9.0008445512170054e-01 3.6943766170098362e-02 0
1.1652502104675460e+00 9.5300035969560715e-02 0
9.0006350683379033e-01 3.6940669447099624e-02 0
1.1653761526735422e+00 9.5337784460967898e-02 0
-1.3390895499942040e-01 -6.2825775338203578e-03 0
-1.7441881934142481e-01 -1.3653091271082551e-02 0
3.1725368142986876e+00 2.3820467077374124e-01 0
4.4152515822659160e+00 3.3615660283408511e-01 0
-1.3161866047354148e-01 -1.5290546936776344e-02 0
-2.0075347875106198e-01 -1.3770406706017219e-02 0
8.8406583834585362e-01 9.9058035766780683e-02 0
1.3495080280175547e+00 9.7145131526141931e-02 0
8.8401454040689387e-01 9.8958789162896049e-02 0
1.3496152907736065e+00 9.7227376097357252e-02 0
-1.3229116742827882e-01 -1.5938412630328431e-02 0
-2.0306565418658476e-01 -1.3743224274109306e-02 0
3.1420217036371816e+00 3.1129650870586972e-01 0
5.2325964376478709e+00 4.4396429224787043e-01 0
-1.4982984319583056e-01 -1.7609812400616445e-02 0
-2.5527548063717370e-01 -1.9872301053817040e-02 0
1.0024674808560574e+00 1.0503922894291298e-01 0
1.7088579459729587e+00 1.4178140387362656e-01 0
1.0021935891800917e+00 1.0460828575964108e-01 0
1.7086382822205388e+00 1.4198575128966992e-01 0
-1.5175249593350601e-01 -2.1658493317857165e-02 0
-2.6091379798624881e-01 -1.8060838882527561e-02 0
3.9933223356242791e+00 1.2242394422857581e+00 0
7.1158248006475411e+00 1.9398817828851689e-01 0
-1.7752437193649429e-01 -1.0489686294350160e-01 0
-3.6753506965315874e-01 2.0490083759009858e-02 0
1.3012107915858671e+00 6.8154112515200460e-01 0
2.5484805543892248e+00 -5.6695266791993326e-02 0
8.4096436673313513e-01 3.7534941487767598e-01 0
1.9809857884186661e+00 -5.0275098064844710e-02 0
4.4345792286477526e+00 2.8488772224254904e+00 0
5.2185856921653677e+00 9.0661767643405819e-02 0
3.1942369642220747e-01 3.4750499648294875e-01 0
3.1413131857946031e+00 2.1936036470252400e+00 0
1.9703799141863214e+00 1.8197183438888933e+00 0
1.8141927279496266e+00 1.9509243865351464e+00 0
3.2523273006874516e+00 9.4149322038957706e-01 0
5.4152765416078263e-01 -1.8858174333870806e-01 0

