# vtk DataFile Version 2.0

ASCII

DATASET UNSTRUCTURED_GRID

POINTS 106 float 

-5.0000000000000003e-02  0.0000000000000000e+00  0.0000000000000000e+00
5.0000000000000003e-02  0.0000000000000000e+00  0.0000000000000000e+00
-5.0000000000000003e-02  2.0000000000000000e-02  0.0000000000000000e+00
5.0000000000000003e-02  2.0000000000000000e-02  0.0000000000000000e+00
-5.0000000000000003e-02  4.0000000000000001e-02  0.0000000000000000e+00
5.0000000000000003e-02  4.0000000000000001e-02  0.0000000000000000e+00
-5.0000000000000003e-02  5.9999999999999998e-02  0.0000000000000000e+00
5.0000000000000003e-02  5.9999999999999998e-02  0.0000000000000000e+00
-5.0000000000000003e-02  8.0000000000000002e-02  0.0000000000000000e+00
5.0000000000000003e-02  8.0000000000000002e-02  0.0000000000000000e+00
-5.0000000000000003e-02  1.0000000000000001e-01  0.0000000000000000e+00
5.0000000000000003e-02  1.0000000000000001e-01  0.0000000000000000e+00
-5.0000000000000003e-02  1.2000000000000000e-01  0.0000000000000000e+00
5.0000000000000003e-02  1.2000000000000000e-01  0.0000000000000000e+00
-5.0000000000000003e-02  1.4000000000000001e-01  0.0000000000000000e+00
5.0000000000000003e-02  1.4000000000000001e-01  0.0000000000000000e+00
-5.0000000000000003e-02  1.6000000000000000e-01  0.0000000000000000e+00
5.0000000000000003e-02  1.6000000000000000e-01  0.0000000000000000e+00
-5.0000000000000003e-02  1.7999999999999999e-01  0.0000000000000000e+00
5.0000000000000003e-02  1.7999999999999999e-01  0.0000000000000000e+00
-5.0000000000000003e-02  2.0000000000000001e-01  0.0000000000000000e+00
5.0000000000000003e-02  2.0000000000000001e-01  0.0000000000000000e+00
-5.0000000000000003e-02  2.2000000000000000e-01  0.0000000000000000e+00
5.0000000000000003e-02  2.2000000000000000e-01  0.0000000000000000e+00
-5.0000000000000003e-02  2.3999999999999999e-01  0.0000000000000000e+00
5.0000000000000003e-02  2.3999999999999999e-01  0.0000000000000000e+00
-5.0000000000000003e-02  2.6000000000000001e-01  0.0000000000000000e+00
5.0000000000000003e-02  2.6000000000000001e-01  0.0000000000000000e+00
-5.0000000000000003e-02  2.8000000000000003e-01  0.0000000000000000e+00
5.0000000000000003e-02  2.8000000000000003e-01  0.0000000000000000e+00
-5.0000000000000003e-02  2.9999999999999999e-01  0.0000000000000000e+00
5.0000000000000003e-02  2.9999999999999999e-01  0.0000000000000000e+00
-5.0000000000000003e-02  3.2000000000000001e-01  0.0000000000000000e+00
5.0000000000000003e-02  3.2000000000000001e-01  0.0000000000000000e+00
-5.0000000000000003e-02  3.4000000000000002e-01  0.0000000000000000e+00
5.0000000000000003e-02  3.4000000000000002e-01  0.0000000000000000e+00
-5.0000000000000003e-02  3.5999999999999999e-01  0.0000000000000000e+00
5.0000000000000003e-02  3.5999999999999999e-01  0.0000000000000000e+00
-5.0000000000000003e-02  3.8000000000000000e-01  0.0000000000000000e+00
5.0000000000000003e-02  3.8000000000000000e-01  0.0000000000000000e+00
-5.0000000000000003e-02  4.0000000000000002e-01  0.0000000000000000e+00
5.0000000000000003e-02  4.0000000000000002e-01  0.0000000000000000e+00
-5.0000000000000003e-02  4.1999999999999998e-01  0.0000000000000000e+00
5.0000000000000003e-02  4.1999999999999998e-01  0.0000000000000000e+00
-5.0000000000000003e-02  4.4000000000000000e-01  0.0000000000000000e+00
5.0000000000000003e-02  4.4000000000000000e-01  0.0000000000000000e+00
-5.0000000000000003e-02  4.6000000000000002e-01  0.0000000000000000e+00
5.0000000000000003e-02  4.6000000000000002e-01  0.0000000000000000e+00
-5.0000000000000003e-02  4.7999999999999998e-01  0.0000000000000000e+00
5.0000000000000003e-02  4.7999999999999998e-01  0.0000000000000000e+00
-5.0000000000000003e-02  5.0000000000000000e-01  0.0000000000000000e+00
5.0000000000000003e-02  5.0000000000000000e-01  0.0000000000000000e+00
-5.0000000000000003e-02  5.2000000000000002e-01  0.0000000000000000e+00
5.0000000000000003e-02  5.2000000000000002e-01  0.0000000000000000e+00
-5.0000000000000003e-02  5.4000000000000004e-01  0.0000000000000000e+00
5.0000000000000003e-02  5.4000000000000004e-01  0.0000000000000000e+00
-5.0000000000000003e-02  5.6000000000000005e-01  0.0000000000000000e+00
5.0000000000000003e-02  5.6000000000000005e-01  0.0000000000000000e+00
-5.0000000000000003e-02  5.7999999999999996e-01  0.0000000000000000e+00
5.0000000000000003e-02  5.7999999999999996e-01  0.0000000000000000e+00
-5.0000000000000003e-02  5.9999999999999998e-01  0.0000000000000000e+00
5.0000000000000003e-02  5.9999999999999998e-01  0.0000000000000000e+00
-5.0000000000000003e-02  6.2000000000000000e-01  0.0000000000000000e+00
5.0000000000000003e-02  6.2000000000000000e-01  0.0000000000000000e+00
-5.0000000000000003e-02  6.4000000000000001e-01  0.0000000000000000e+00
5.0000000000000003e-02  6.4000000000000001e-01  0.0000000000000000e+00
-5.0000000000000003e-02  6.6000000000000003e-01  0.0000000000000000e+00
5.0000000000000003e-02  6.6000000000000003e-01  0.0000000000000000e+00
-5.0000000000000003e-02  6.8000000000000005e-01  0.0000000000000000e+00
5.0000000000000003e-02  6.8000000000000005e-01  0.0000000000000000e+00
-5.0000000000000003e-02  6.9999999999999996e-01  0.0000000000000000e+00
5.0000000000000003e-02  6.9999999999999996e-01  0.0000000000000000e+00
-5.0000000000000003e-02  7.1999999999999997e-01  0.0000000000000000e+00
5.0000000000000003e-02  7.1999999999999997e-01  0.0000000000000000e+00
-5.0000000000000003e-02  7.3999999999999999e-01  0.0000000000000000e+00
5.0000000000000003e-02  7.3999999999999999e-01  0.0000000000000000e+00
-5.0000000000000003e-02  7.6000000000000001e-01  0.0000000000000000e+00
5.0000000000000003e-02  7.6000000000000001e-01  0.0000000000000000e+00
-5.0000000000000003e-02  7.8000000000000003e-01  0.0000000000000000e+00
5.0000000000000003e-02  7.8000000000000003e-01  0.0000000000000000e+00
-5.0000000000000003e-02  8.0000000000000004e-01  0.0000000000000000e+00
5.0000000000000003e-02  8.0000000000000004e-01  0.0000000000000000e+00
-5.0000000000000003e-02  8.1999999999999995e-01  0.0000000000000000e+00
5.0000000000000003e-02  8.1999999999999995e-01  0.0000000000000000e+00
-5.0000000000000003e-02  8.3999999999999997e-01  0.0000000000000000e+00
5.0000000000000003e-02  8.3999999999999997e-01  0.0000000000000000e+00
-5.0000000000000003e-02  8.5999999999999999e-01  0.0000000000000000e+00
5.0000000000000003e-02  8.5999999999999999e-01  0.0000000000000000e+00
-5.0000000000000003e-02  8.8000000000000000e-01  0.0000000000000000e+00
5.0000000000000003e-02  8.8000000000000000e-01  0.0000000000000000e+00
-5.0000000000000003e-02  9.0000000000000002e-01  0.0000000000000000e+00
5.0000000000000003e-02  9.0000000000000002e-01  0.0000000000000000e+00
-5.0000000000000003e-02  9.2000000000000004e-01  0.0000000000000000e+00
5.0000000000000003e-02  9.2000000000000004e-01  0.0000000000000000e+00
-5.0000000000000003e-02  9.3999999999999995e-01  0.0000000000000000e+00
5.0000000000000003e-02  9.3999999999999995e-01  0.0000000000000000e+00
-5.0000000000000003e-02  9.5999999999999996e-01  0.0000000000000000e+00
5.0000000000000003e-02  9.5999999999999996e-01  0.0000000000000000e+00
-5.0000000000000003e-02  9.7999999999999998e-01  0.0000000000000000e+00
5.0000000000000003e-02  9.7999999999999998e-01  0.0000000000000000e+00
-5.0000000000000003e-02  1.0000000000000000e+00  0.0000000000000000e+00
-3.0000000000000002e-02  1.0000000000000000e+00  0.0000000000000000e+00
-1.0000000000000002e-02  1.0000000000000000e+00  0.0000000000000000e+00
1.0000000000000009e-02  1.0000000000000000e+00  0.0000000000000000e+00
2.9999999999999999e-02  1.0000000000000000e+00  0.0000000000000000e+00
5.0000000000000003e-02  1.0000000000000000e+00  0.0000000000000000e+00

CELLS 0 0


CELL_TYPES 0


POINT_DATA 106

VECTORS VertexNormals float

0.0000000000000000e+00 0.0000000000000000e+00 0
0.0000000000000000e+00 0.0000000000000000e+00 0
0.0000000000000000e+00 0.0000000000000000e+00 0
0.0000000000000000e+00 0.0000000000000000e+00 0
0.0000000000000000e+00 0.0000000000000000e+00 0
0.0000000000000000e+00 0.0000000000000000e+00 0
0.0000000000000000e+00 0.0000000000000000e+00 0
0.0000000000000000e+00 0.0000000000000000e+00 0
0.0000000000000000e+00 0.0000000000000000e+00 0
0.0000000000000000e+00 0.0000000000000000e+00 0
0.0000000000000000e+00 0.0000000000000000e+00 0
0.0000000000000000e+00 0.0000000000000000e+00 0
0.0000000000000000e+00 0.0000000000000000e+00 0
0.0000000000000000e+00 0.0000000000000000e+00 0
0.0000000000000000e+00 0.0000000000000000e+00 0
0.0000000000000000e+00 0.0000000000000000e+00 0
0.0000000000000000e+00 0.0000000000000000e+00 0
0.0000000000000000e+00 0.0000000000000000e+00 0
0.0000000000000000e+00 0.0000000000000000e+00 0
0.0000000000000000e+00 0.0000000000000000e+00 0
0.0000000000000000e+00 0.0000000000000000e+00 0
0.0000000000000000e+00 0.0000000000000000e+00 0
0.0000000000000000e+00 0.0000000000000000e+00 0
0.0000000000000000e+00 0.0000000000000000e+00 0
0.0000000000000000e+00 0.0000000000000000e+00 0
0.0000000000000000e+00 0.0000000000000000e+00 0
0.0000000000000000e+00 0.0000000000000000e+00 0
0.0000000000000000e+00 0.0000000000000000e+00 0
0.0000000000000000e+00 0.0000000000000000e+00 0
0.0000000000000000e+00 0.0000000000000000e+00 0
0.0000000000000000e+00 0.0000000000000000e+00 0
0.0000000000000000e+00 0.0000000000000000e+00 0
0.0000000000000000e+00 0.0000000000000000e+00 0
0.0000000000000000e+00 0.0000000000000000e+00 0
0.0000000000000000e+00 0.0000000000000000e+00 0
0.0000000000000000e+00 0.0000000000000000e+00 0
0.0000000000000000e+00 0.0000000000000000e+00 0
0.0000000000000000e+00 0.0000000000000000e+00 0
0.0000000000000000e+00 0.0000000000000000e+00 0
0.0000000000000000e+00 0.0000000000000000e+00 0
0.0000000000000000e+00 0.0000000000000000e+00 0
0.0000000000000000e+00 0.0000000000000000e+00 0
0.0000000000000000e+00 0.0000000000000000e+00 0
0.0000000000000000e+00 0.0000000000000000e+00 0
0.0000000000000000e+00 0.0000000000000000e+00 0
0.0000000000000000e+00 0.0000000000000000e+00 0
0.0000000000000000e+00 0.0000000000000000e+00 0
0.0000000000000000e+00 0.0000000000000000e+00 0
0.0000000000000000e+00 0.0000000000000000e+00 0
0.0000000000000000e+00 0.0000000000000000e+00 0
0.0000000000000000e+00 0.0000000000000000e+00 0
0.0000000000000000e+00 0.0000000000000000e+00 0
0.0000000000000000e+00 0.0000000000000000e+00 0
0.0000000000000000e+00 0.0000000000000000e+00 0
0.0000000000000000e+00 0.0000000000000000e+00 0
0.0000000000000000e+00 0.0000000000000000e+00 0
0.0000000000000000e+00 0.0000000000000000e+00 0
0.0000000000000000e+00 0.0000000000000000e+00 0
0.0000000000000000e+00 0.0000000000000000e+00 0
0.0000000000000000e+00 0.0000000000000000e+00 0
0.0000000000000000e+00 0.0000000000000000e+00 0
0.0000000000000000e+00 0.0000000000000000e+00 0
0.0000000000000000e+00 0.0000000000000000e+00 0
0.0000000000000000e+00 0.0000000000000000e+00 0
0.0000000000000000e+00 0.0000000000000000e+00 0
0.0000000000000000e+00 0.0000000000000000e+00 0
0.0000000000000000e+00 0.0000000000000000e+00 0
0.0000000000000000e+00 0.0000000000000000e+00 0
0.0000000000000000e+00 0.0000000000000000e+00 0
0.0000000000000000e+00 0.0000000000000000e+00 0
0.0000000000000000e+00 0.0000000000000000e+00 0
0.0000000000000000e+00 0.0000000000000000e+00 0
0.0000000000000000e+00 0.0000000000000000e+00 0
0.0000000000000000e+00 0.0000000000000000e+00 0
0.0000000000000000e+00 0.0000000000000000e+00 0
0.0000000000000000e+00 0.0000000000000000e+00 0
0.0000000000000000e+00 0.0000000000000000e+00 0
0.0000000000000000e+00 0.0000000000000000e+00 0
0.0000000000000000e+00 0.0000000000000000e+00 0
0.0000000000000000e+00 0.0000000000000000e+00 0
0.0000000000000000e+00 0.0000000000000000e+00 0
0.0000000000000000e+00 0.0000000000000000e+00 0
0.0000000000000000e+00 0.0000000000000000e+00 0
0.0000000000000000e+00 0.0000000000000000e+00 0
0.0000000000000000e+00 0.0000000000000000e+00 0
0.0000000000000000e+00 0.0000000000000000e+00 0
0.0000000000000000e+00 0.0000000000000000e+00 0
0.0000000000000000e+00 0.0000000000000000e+00 0
0.0000000000000000e+00 0.0000000000000000e+00 0
0.0000000000000000e+00 0.0000000000000000e+00 0
0.0000000000000000e+00 0.0000000000000000e+00 0
0.0000000000000000e+00 0.0000000000000000e+00 0
0.0000000000000000e+00 0.0000000000000000e+00 0
0.0000000000000000e+00 0.0000000000000000e+00 0
0.0000000000000000e+00 0.0000000000000000e+00 0
0.0000000000000000e+00 0.0000000000000000e+00 0
0.0000000000000000e+00 0.0000000000000000e+00 0
0.0000000000000000e+00 0.0000000000000000e+00 0
0.0000000000000000e+00 0.0000000000000000e+00 0
0.0000000000000000e+00 0.0000000000000000e+00 0
0.0000000000000000e+00 0.0000000000000000e+00 0
0.0000000000000000e+00 0.0000000000000000e+00 0
0.0000000000000000e+00 0.0000000000000000e+00 0
0.0000000000000000e+00 0.0000000000000000e+00 0
0.0000000000000000e+00 0.0000000000000000e+00 0
0.0000000000000000e+00 0.0000000000000000e+00 0

VECTORS Displacements1 float
-5.7364700374434728e-17 3.2048563369217733e-17 0
-1.3644128074421333e-22 5.0641467431424110e-23 0
1.8192576223363001e-06 7.7513672281289308e-07 0
1.7558932188185326e-06 -7.2716833220386569e-07 0
3.0819090125347075e-06 1.0824531514540660e-06 0
2.9738853338753688e-06 -1.0182217859824866e-06 0
3.8563838222539735e-06 1.1161713298029793e-06 0
3.7698907388973482e-06 -1.0448194623481723e-06 0
4.3345931990539073e-06 9.9154559537225834e-07 0
4.2878254167138875e-06 -9.2605867065317158e-07 0
5.9771149563209005e-06 7.2659661227611596e-07 0
5.7064027844072162e-06 -5.0383176093012419e-07 0
4.9860930774194437e-06 3.0796492944656106e-07 0
4.9228702100241718e-06 -2.3027062697206425e-07 0
5.2403106638815477e-06 2.3484167324470389e-07 0
5.1358463955464107e-06 -7.2098639775580864e-08 0
5.2085965072926030e-06 1.6450713505437869e-07 0
5.1049172689062833e-06 2.3790504343904295e-08 0
4.9655036254514576e-06 2.0082999424577030e-07 0
4.9081677642648658e-06 -1.9161414899040309e-08 0
6.1866206513035959e-06 2.0082909666161620e-07 0
5.9228701769667982e-06 1.6762114935320202e-07 0
5.0254040310066967e-06 4.5426307128562086e-08 0
4.9605220982123602e-06 1.6898578752841859e-07 0
5.2792153932031122e-06 1.5925174662356213e-07 0
5.1825869128472897e-06 1.5250410132416445e-07 0
5.3054498532748922e-06 1.8682513175918394e-07 0
5.2070172759226912e-06 1.5573724569431069e-07 0
5.0972668335187346e-06 2.6019761007007141e-07 0
5.0466401604015267e-06 7.5136311408417776e-08 0
6.3262927688561656e-06 2.8096150720533758e-07 0
6.1071006882242616e-06 2.7990953825119756e-07 0
5.1586949929481660e-06 1.3869218033628058e-07 0
5.0949637017331416e-06 2.4534158666771457e-07 0
5.4227299854672509e-06 2.6587662247025853e-07 0
5.3416479348336467e-06 2.2600472011875019e-07 0
5.4588953595278889e-06 2.9984071937537332e-07 0
5.3768842637960571e-06 2.2853867600725465e-07 0
5.2612808922125033e-06 3.7789903090450529e-07 0
5.2222802981000374e-06 1.3933342467847005e-07 0
6.5113888090417998e-06 4.1268689289513550e-07 0
6.3742782493562192e-06 3.7950310244216703e-07 0
5.3563503126550354e-06 2.6676725767902772e-07 0
5.2974786752484953e-06 3.2579427724041729e-07 0
5.6381220689657796e-06 4.0226752050493727e-07 0
5.5826446959722758e-06 3.0952757340261777e-07 0
5.6906717939157452e-06 4.4361372331728731e-07 0
5.6354589328567113e-06 3.1282965161541103e-07 0
5.5065901780088359e-06 5.2998356631333401e-07 0
5.4841121688437573e-06 2.1208627785908152e-07 0
6.7830739423273596e-06 5.9285775061991326e-07 0
6.7686227702948396e-06 4.9148969898112407e-07 0
5.6441646946458789e-06 4.3922960338210364e-07 0
5.5925302219286679e-06 4.1975099164818940e-07 0
5.9447163956392925e-06 5.9072724048948122e-07 0
5.9258118823386978e-06 4.0433229842198043e-07 0
6.0173430342258181e-06 6.4505917811360333e-07 0
5.9995906165119136e-06 4.0740003299554961e-07 0
5.8519751155523177e-06 7.4319242545325631e-07 0
5.8502621272236591e-06 2.9100835223161175e-07 0
7.1593868675801010e-06 8.5011207042705757e-07 0
7.3209149081317305e-06 6.1567182732055132e-07 0
6.0556852363323805e-06 6.9430098085729901e-07 0
6.0120165114399884e-06 5.2175511901781963e-07 0
6.3964484422427593e-06 8.7697223468899492e-07 0
6.4215660745111022e-06 5.0375196483063436e-07 0
6.5111855336504920e-06 9.6810607118899337e-07 0
6.5339575299201971e-06 5.0478212652705977e-07 0
6.3888963398937243e-06 1.1232823834763578e-06 0
6.3920681947488870e-06 3.6931109207409024e-07 0
7.7917434714232184e-06 1.3738452954010516e-06 0
8.1338101341388876e-06 7.6138105982496068e-07 0
6.7440021078736978e-06 1.2814068659558120e-06 0
6.6126402345023329e-06 6.8284408971807483e-07 0
7.1567842809804961e-06 1.6659500218345723e-06 0
7.0880734817269167e-06 6.9622143754623910e-07 0
7.3543282214891309e-06 2.0176387369566122e-06 0
7.1930550105850303e-06 7.3225445448315714e-07 0
7.3223596303179667e-06 2.5033941284257670e-06 0
7.0002508338915246e-06 5.9956426308209561e-07 0
8.7906817239765937e-06 3.2282968419171892e-06 0
9.0225740905894549e-06 1.0637129135366051e-06 0
7.7142563693271085e-06 3.6898853258878371e-06 0
7.0274820014597080e-06 8.0457136023304774e-07 0
8.0860266094447470e-06 4.9547467356038659e-06 0
7.4569858259039685e-06 4.0517380752778481e-07 0
8.3267498289403829e-06 6.6369224906078317e-06 0
7.6031189377991964e-06 -4.4814444338404004e-07 0
8.8801265692007392e-06 9.0180639158575520e-06 0
8.0425595094692447e-06 -2.1004611917833814e-06 0
1.2478865441596688e-05 1.2260106486077803e-05 0
1.2682316729541244e-05 -3.4256662128338166e-06 0
1.4167004500330396e-05 1.4577732159853938e-05 0
1.3303583524470110e-05 -5.6007942168687983e-06 0
1.9248205681013185e-05 1.7917332660763561e-05 0
1.8906541632238946e-05 -7.6984734385246188e-06 0
2.5258347368749167e-05 2.0709991534483328e-05 0
2.5029842760760436e-05 -9.4650237824913131e-06 0
3.4069012670230793e-05 2.3592955516750802e-05 0
3.3448149485678558e-05 -1.0415185592793960e-05 0
4.0732103663573957e-05 2.3660288876117451e-05 0
4.0763555542158909e-05 1.6541845353143612e-05 0
3.9555633771037553e-05 9.6383817451490584e-06 0
3.9305890556212884e-05 3.5292799609531649e-06 0
4.0119973114257801e-05 -3.4338627104544072e-06 0
3.9832920336654381e-05 -1.1176360097737572e-05 0

VECTORS Forces1 float
-1.5291433536359042e-01 9.4160042850825576e-02 0
-1.1122451967288031e-01 -6.3887131928192425e-02 0
2.0670502166036195e+00 -1.1495955078512130e+00 0
1.5304852970047769e+00 8.4829670028312687e-01 0
2.2632917674748363e+00 -3.5223338985483627e-01 0
1.6770304160978438e+00 2.6195564158393669e-01 0
1.4401555746225951e+00 5.8956466116699920e-02 0
1.0666631142966549e+00 -4.3023581425168364e-02 0
-2.1715590472066532e-01 -8.1027241800080835e-03 0
-1.6111137697970440e-01 5.8474271832311643e-03 0
5.5269672346526093e+00 5.0613544604471050e-04 0
4.0897098568564454e+00 2.4057761960238705e-02 0
-2.3468826729519526e-01 -3.2734720839599840e-04 0
-1.7414802618227901e-01 -1.9588329523496854e-03 0
1.5765297976853527e+00 -6.5182954646620566e-04 0
1.1687115912699060e+00 1.5978021969793872e-02 0
1.5766588598080920e+00 -6.8336886583011166e-04 0
1.1688316019449496e+00 1.6015377840026393e-02 0
-2.3492445522860028e-01 -1.5918043318900366e-04 0
-1.7433572763363311e-01 -2.2220396673552660e-03 0
5.5704891714065203e+00 -1.5325190594671723e-03 0
4.1520369750814412e+00 9.5052766266093713e-02 0
-2.3586987419763614e-01 -3.3895927335247678e-04 0
-1.7766813586653010e-01 -5.3646062396958153e-03 0
1.5835306783807508e+00 6.5766885958880859e-04 0
1.1924595233152442e+00 3.8119565936293176e-02 0
1.5835350981685019e+00 6.5887358516331974e-04 0
1.1924933805257216e+00 3.8141901678598225e-02 0
-2.3588726819053829e-01 -3.7168989210885340e-04 0
-1.7787355247396031e-01 -5.5060331628611452e-03 0
5.5803892678738540e+00 1.2260858691750875e-02 0
4.2634138946029818e+00 1.7210346015073730e-01 0
-2.3583285498379122e-01 -1.2725690586399346e-03 0
-1.8367688233174614e-01 -8.5664342601683187e-03 0
1.5832976391402043e+00 6.9897568524982445e-03 0
1.2333456236860474e+00 5.9742456131289270e-02 0
1.5832935541591069e+00 6.9917100005000227e-03 0
1.2333957696238771e+00 5.9767149366822356e-02 0
-2.3581934335062307e-01 -1.3544301234862330e-03 0
-1.8401813257584951e-01 -8.6956279744106173e-03 0
5.5702974622665167e+00 4.3553341686349653e-02 0
4.4435683438009512e+00 2.4765154446149865e-01 0
-2.3508234904445527e-01 -3.0818427734576976e-03 0
-1.9286534585473908e-01 -1.1670774562379771e-02 0
1.5782884890089206e+00 1.9051269558847700e-02 0
1.2956080583187599e+00 8.0848203720301812e-02 0
1.5782757871550097e+00 1.9056344398018163e-02 0
1.2956784924778748e+00 8.0875680069611253e-02 0
-2.3503079707348595e-01 -3.2389619396538732e-03 0
-1.9336386381972187e-01 -1.1780836643273292e-02 0
5.5425202632050645e+00 1.0674401101908453e-01 0
4.7052367780868130e+00 3.1852298556180109e-01 0
-2.3306702284318789e-01 -6.6816173670328537e-03 0
-2.0567625800629541e-01 -1.4500641679339744e-02 0
1.5646861953524183e+00 4.3049544738600662e-02 0
1.3821978305106291e+00 1.0029441206759145e-01 0
1.5646671253058835e+00 4.3052562987935000e-02 0
1.3822944849024308e+00 1.0033031383273756e-01 0
-2.3300811553446721e-01 -6.9220953207130469e-03 0
-2.0639525119280303e-01 -1.4596847409890347e-02 0
5.4807138000391822e+00 1.9399810437347262e-01 0
5.0648816931409648e+00 3.9511041459695179e-01 0
-2.3147618329999281e-01 -1.0982363713958401e-02 0
-2.2416912493390442e-01 -1.7881447536422460e-02 0
1.5541422577019299e+00 7.1129596331462916e-02 0
1.5071095562551200e+00 1.2392834805295420e-01 0
1.5540993635075524e+00 7.1137487750821599e-02 0
1.5072317159791686e+00 1.2397451083349215e-01 0
-2.3136725045295511e-01 -1.1505478500043947e-02 0
-2.2520082795750801e-01 -1.7912484868452185e-02 0
5.4515916466365679e+00 3.9792053650279330e-01 0
5.5938155593368375e+00 4.5437162088892785e-01 0
-2.2577802686477752e-01 -2.3881304896788302e-02 0
-2.4914145655715025e-01 -1.9542351105278227e-02 0
1.5145790999582462e+00 1.5681495197918885e-01 0
1.6746232476905767e+00 1.3649154322962362e-01 0
1.5144803157667472e+00 1.5671643364680415e-01 0
1.6747290009150153e+00 1.3657988304442012e-01 0
-2.2646746737548443e-01 -2.4729437187696435e-02 0
-2.5137926612239309e-01 -1.9601655093146708e-02 0
5.3185946710984355e+00 5.3379380803623655e-01 0
6.3592798470121847e+00 6.0285842768504039e-01 0
-2.4360959896547585e-01 -2.9082118416046163e-02 0
-3.0356603359351964e-01 -2.7309604074121540e-02 0
1.6284118124006568e+00 1.8074401284001401e-01 0
2.0335799836253097e+00 1.9192734161111946e-01 0
1.6279162055158374e+00 1.8028682195732065e-01 0
2.0333840159089895e+00 1.9212775490083966e-01 0
-2.4579330496162730e-01 -3.3891329824902727e-02 0
-3.0895610215102509e-01 -2.5605510122666732e-02 0
6.1682722250057935e+00 1.7088971469830836e+00 0
8.2568772187883255e+00 3.9954017176583101e-01 0
-2.6141694906386803e-01 -1.3568608331337226e-01 0
-4.1197226818798610e-01 1.0732380974081631e-02 0
1.8626788772349521e+00 8.9396811233380047e-01 0
2.8715384774822676e+00 2.1754814646326382e-02 0
1.2927691614237957e+00 5.2921637570905444e-01 0
2.2593343233773324e+00 -4.9672850650837432e-03 0
5.4182295759138510e+00 3.3900521966214709e+00 0
5.6360080288619905e+00 4.2271215917941490e-01 0
4.3925350047690892e-01 4.0780074131968408e-01 0
3.7960765438035700e+00 2.5345744065339515e+00 0
2.2083939754155986e+00 2.1021942098716702e+00 0
2.0260077164623183e+00 2.2769399672737394e+00 0
3.4952296332684534e+00 1.2744643172314258e+00 0
5.5908097753951080e-01 -1.7949085282347485e-01 0

