# vtk DataFile Version 2.0

ASCII

DATASET UNSTRUCTURED_GRID

POINTS 106 float 

-5.0000000000000003e-02  0.0000000000000000e+00  0.0000000000000000e+00
5.0000000000000003e-02  0.0000000000000000e+00  0.0000000000000000e+00
-5.0000000000000003e-02  2.0000000000000000e-02  0.0000000000000000e+00
5.0000000000000003e-02  2.0000000000000000e-02  0.0000000000000000e+00
-5.0000000000000003e-02  4.0000000000000001e-02  0.0000000000000000e+00
5.0000000000000003e-02  4.0000000000000001e-02  0.0000000000000000e+00
-5.0000000000000003e-02  5.9999999999999998e-02  0.0000000000000000e+00
5.0000000000000003e-02  5.9999999999999998e-02  0.0000000000000000e+00
-5.0000000000000003e-02  8.0000000000000002e-02  0.0000000000000000e+00
5.0000000000000003e-02  8.0000000000000002e-02  0.0000000000000000e+00
-5.0000000000000003e-02  1.0000000000000001e-01  0.0000000000000000e+00
5.0000000000000003e-02  1.0000000000000001e-01  0.0000000000000000e+00
-5.0000000000000003e-02  1.2000000000000000e-01  0.0000000000000000e+00
5.0000000000000003e-02  1.2000000000000000e-01  0.0000000000000000e+00
-5.0000000000000003e-02  1.4000000000000001e-01  0.0000000000000000e+00
5.0000000000000003e-02  1.4000000000000001e-01  0.0000000000000000e+00
-5.0000000000000003e-02  1.6000000000000000e-01  0.0000000000000000e+00
5.0000000000000003e-02  1.6000000000000000e-01  0.0000000000000000e+00
-5.0000000000000003e-02  1.7999999999999999e-01  0.0000000000000000e+00
5.0000000000000003e-02  1.7999999999999999e-01  0.0000000000000000e+00
-5.0000000000000003e-02  2.0000000000000001e-01  0.0000000000000000e+00
5.0000000000000003e-02  2.0000000000000001e-01  0.0000000000000000e+00
-5.0000000000000003e-02  2.2000000000000000e-01  0.0000000000000000e+00
5.0000000000000003e-02  2.2000000000000000e-01  0.0000000000000000e+00
-5.0000000000000003e-02  2.3999999999999999e-01  0.0000000000000000e+00
5.0000000000000003e-02  2.3999999999999999e-01  0.0000000000000000e+00
-5.0000000000000003e-02  2.6000000000000001e-01  0.0000000000000000e+00
5.0000000000000003e-02  2.6000000000000001e-01  0.0000000000000000e+00
-5.0000000000000003e-02  2.8000000000000003e-01  0.0000000000000000e+00
5.0000000000000003e-02  2.8000000000000003e-01  0.0000000000000000e+00
-5.0000000000000003e-02  2.9999999999999999e-01  0.0000000000000000e+00
5.0000000000000003e-02  2.9999999999999999e-01  0.0000000000000000e+00
-5.0000000000000003e-02  3.2000000000000001e-01  0.0000000000000000e+00
5.0000000000000003e-02  3.2000000000000001e-01  0.0000000000000000e+00
-5.0000000000000003e-02  3.4000000000000002e-01  0.0000000000000000e+00
5.0000000000000003e-02  3.4000000000000002e-01  0.0000000000000000e+00
-5.0000000000000003e-02  3.5999999999999999e-01  0.0000000000000000e+00
5.0000000000000003e-02  3.5999999999999999e-01  0.0000000000000000e+00
-5.0000000000000003e-02  3.8000000000000000e-01  0.0000000000000000e+00
5.0000000000000003e-02  3.8000000000000000e-01  0.0000000000000000e+00
-5.0000000000000003e-02  4.0000000000000002e-01  0.0000000000000000e+00
5.0000000000000003e-02  4.0000000000000002e-01  0.0000000000000000e+00
-5.0000000000000003e-02  4.1999999999999998e-01  0.0000000000000000e+00
5.0000000000000003e-02  4.1999999999999998e-01  0.0000000000000000e+00
-5.0000000000000003e-02  4.4000000000000000e-01  0.0000000000000000e+00
5.0000000000000003e-02  4.4000000000000000e-01  0.0000000000000000e+00
-5.0000000000000003e-02  4.6000000000000002e-01  0.0000000000000000e+00
5.0000000000000003e-02  4.6000000000000002e-01  0.0000000000000000e+00
-5.0000000000000003e-02  4.7999999999999998e-01  0.0000000000000000e+00
5.0000000000000003e-02  4.7999999999999998e-01  0.0000000000000000e+00
-5.0000000000000003e-02  5.0000000000000000e-01  0.0000000000000000e+00
5.0000000000000003e-02  5.0000000000000000e-01  0.0000000000000000e+00
-5.0000000000000003e-02  5.2000000000000002e-01  0.0000000000000000e+00
5.0000000000000003e-02  5.2000000000000002e-01  0.0000000000000000e+00
-5.0000000000000003e-02  5.4000000000000004e-01  0.0000000000000000e+00
5.0000000000000003e-02  5.4000000000000004e-01  0.0000000000000000e+00
-5.0000000000000003e-02  5.6000000000000005e-01  0.0000000000000000e+00
5.0000000000000003e-02  5.6000000000000005e-01  0.0000000000000000e+00
-5.0000000000000003e-02  5.7999999999999996e-01  0.0000000000000000e+00
5.0000000000000003e-02  5.7999999999999996e-01  0.0000000000000000e+00
-5.0000000000000003e-02  5.9999999999999998e-01  0.0000000000000000e+00
5.0000000000000003e-02  5.9999999999999998e-01  0.0000000000000000e+00
-5.0000000000000003e-02  6.2000000000000000e-01  0.0000000000000000e+00
5.0000000000000003e-02  6.2000000000000000e-01  0.0000000000000000e+00
-5.0000000000000003e-02  6.4000000000000001e-01  0.0000000000000000e+00
5.0000000000000003e-02  6.4000000000000001e-01  0.0000000000000000e+00
-5.0000000000000003e-02  6.6000000000000003e-01  0.0000000000000000e+00
5.0000000000000003e-02  6.6000000000000003e-01  0.0000000000000000e+00
-5.0000000000000003e-02  6.8000000000000005e-01  0.0000000000000000e+00
5.0000000000000003e-02  6.8000000000000005e-01  0.0000000000000000e+00
-5.0000000000000003e-02  6.9999999999999996e-01  0.0000000000000000e+00
5.0000000000000003e-02  6.9999999999999996e-01  0.0000000000000000e+00
-5.0000000000000003e-02  7.1999999999999997e-01  0.0000000000000000e+00
5.0000000000000003e-02  7.1999999999999997e-01  0.0000000000000000e+00
-5.0000000000000003e-02  7.3999999999999999e-01  0.0000000000000000e+00
5.0000000000000003e-02  7.3999999999999999e-01  0.0000000000000000e+00
-5.0000000000000003e-02  7.6000000000000001e-01  0.0000000000000000e+00
5.0000000000000003e-02  7.6000000000000001e-01  0.0000000000000000e+00
-5.0000000000000003e-02  7.8000000000000003e-01  0.0000000000000000e+00
5.0000000000000003e-02  7.8000000000000003e-01  0.0000000000000000e+00
-5.0000000000000003e-02  8.0000000000000004e-01  0.0000000000000000e+00
5.0000000000000003e-02  8.0000000000000004e-01  0.0000000000000000e+00
-5.0000000000000003e-02  8.1999999999999995e-01  0.0000000000000000e+00
5.0000000000000003e-02  8.1999999999999995e-01  0.0000000000000000e+00
-5.0000000000000003e-02  8.3999999999999997e-01  0.0000000000000000e+00
5.0000000000000003e-02  8.3999999999999997e-01  0.0000000000000000e+00
-5.0000000000000003e-02  8.5999999999999999e-01  0.0000000000000000e+00
5.0000000000000003e-02  8.5999999999999999e-01  0.0000000000000000e+00
-5.0000000000000003e-02  8.8000000000000000e-01  0.0000000000000000e+00
5.0000000000000003e-02  8.8000000000000000e-01  0.0000000000000000e+00
-5.0000000000000003e-02  9.0000000000000002e-01  0.0000000000000000e+00
5.0000000000000003e-02  9.0000000000000002e-01  0.0000000000000000e+00
-5.0000000000000003e-02  9.2000000000000004e-01  0.0000000000000000e+00
5.0000000000000003e-02  9.2000000000000004e-01  0.0000000000000000e+00
-5.0000000000000003e-02  9.3999999999999995e-01  0.0000000000000000e+00
5.0000000000000003e-02  9.3999999999999995e-01  0.0000000000000000e+00
-5.0000000000000003e-02  9.5999999999999996e-01  0.0000000000000000e+00
5.0000000000000003e-02  9.5999999999999996e-01  0.0000000000000000e+00
-5.0000000000000003e-02  9.7999999999999998e-01  0.0000000000000000e+00
5.0000000000000003e-02  9.7999999999999998e-01  0.0000000000000000e+00
-5.0000000000000003e-02  1.0000000000000000e+00  0.0000000000000000e+00
-3.0000000000000002e-02  1.0000000000000000e+00  0.0000000000000000e+00
-1.0000000000000002e-02  1.0000000000000000e+00  0.0000000000000000e+00
1.0000000000000009e-02  1.0000000000000000e+00  0.0000000000000000e+00
2.9999999999999999e-02  1.0000000000000000e+00  0.0000000000000000e+00
5.0000000000000003e-02  1.0000000000000000e+00  0.0000000000000000e+00

CELLS 0 0


CELL_TYPES 0


POINT_DATA 106

VECTORS VertexNormals float

0.0000000000000000e+00 0.0000000000000000e+00 0
0.0000000000000000e+00 0.0000000000000000e+00 0
0.0000000000000000e+00 0.0000000000000000e+00 0
0.0000000000000000e+00 0.0000000000000000e+00 0
0.0000000000000000e+00 0.0000000000000000e+00 0
0.0000000000000000e+00 0.0000000000000000e+00 0
0.0000000000000000e+00 0.0000000000000000e+00 0
0.0000000000000000e+00 0.0000000000000000e+00 0
0.0000000000000000e+00 0.0000000000000000e+00 0
0.0000000000000000e+00 0.0000000000000000e+00 0
0.0000000000000000e+00 0.0000000000000000e+00 0
0.0000000000000000e+00 0.0000000000000000e+00 0
0.0000000000000000e+00 0.0000000000000000e+00 0
0.0000000000000000e+00 0.0000000000000000e+00 0
0.0000000000000000e+00 0.0000000000000000e+00 0
0.0000000000000000e+00 0.0000000000000000e+00 0
0.0000000000000000e+00 0.0000000000000000e+00 0
0.0000000000000000e+00 0.0000000000000000e+00 0
0.0000000000000000e+00 0.0000000000000000e+00 0
0.0000000000000000e+00 0.0000000000000000e+00 0
0.0000000000000000e+00 0.0000000000000000e+00 0
0.0000000000000000e+00 0.0000000000000000e+00 0
0.0000000000000000e+00 0.0000000000000000e+00 0
0.0000000000000000e+00 0.0000000000000000e+00 0
0.0000000000000000e+00 0.0000000000000000e+00 0
0.0000000000000000e+00 0.0000000000000000e+00 0
0.0000000000000000e+00 0.0000000000000000e+00 0
0.0000000000000000e+00 0.0000000000000000e+00 0
0.0000000000000000e+00 0.0000000000000000e+00 0
0.0000000000000000e+00 0.0000000000000000e+00 0
0.0000000000000000e+00 0.0000000000000000e+00 0
0.0000000000000000e+00 0.0000000000000000e+00 0
0.0000000000000000e+00 0.0000000000000000e+00 0
0.0000000000000000e+00 0.0000000000000000e+00 0
0.0000000000000000e+00 0.0000000000000000e+00 0
0.0000000000000000e+00 0.0000000000000000e+00 0
0.0000000000000000e+00 0.0000000000000000e+00 0
0.0000000000000000e+00 0.0000000000000000e+00 0
0.0000000000000000e+00 0.0000000000000000e+00 0
0.0000000000000000e+00 0.0000000000000000e+00 0
0.0000000000000000e+00 0.0000000000000000e+00 0
0.0000000000000000e+00 0.0000000000000000e+00 0
0.0000000000000000e+00 0.0000000000000000e+00 0
0.0000000000000000e+00 0.0000000000000000e+00 0
0.0000000000000000e+00 0.0000000000000000e+00 0
0.0000000000000000e+00 0.0000000000000000e+00 0
0.0000000000000000e+00 0.0000000000000000e+00 0
0.0000000000000000e+00 0.0000000000000000e+00 0
0.0000000000000000e+00 0.0000000000000000e+00 0
0.0000000000000000e+00 0.0000000000000000e+00 0
0.0000000000000000e+00 0.0000000000000000e+00 0
0.0000000000000000e+00 0.0000000000000000e+00 0
0.0000000000000000e+00 0.0000000000000000e+00 0
0.0000000000000000e+00 0.0000000000000000e+00 0
0.0000000000000000e+00 0.0000000000000000e+00 0
0.0000000000000000e+00 0.0000000000000000e+00 0
0.0000000000000000e+00 0.0000000000000000e+00 0
0.0000000000000000e+00 0.0000000000000000e+00 0
0.0000000000000000e+00 0.0000000000000000e+00 0
0.0000000000000000e+00 0.0000000000000000e+00 0
0.0000000000000000e+00 0.0000000000000000e+00 0
0.0000000000000000e+00 0.0000000000000000e+00 0
0.0000000000000000e+00 0.0000000000000000e+00 0
0.0000000000000000e+00 0.0000000000000000e+00 0
0.0000000000000000e+00 0.0000000000000000e+00 0
0.0000000000000000e+00 0.0000000000000000e+00 0
0.0000000000000000e+00 0.0000000000000000e+00 0
0.0000000000000000e+00 0.0000000000000000e+00 0
0.0000000000000000e+00 0.0000000000000000e+00 0
0.0000000000000000e+00 0.0000000000000000e+00 0
0.0000000000000000e+00 0.0000000000000000e+00 0
0.0000000000000000e+00 0.0000000000000000e+00 0
0.0000000000000000e+00 0.0000000000000000e+00 0
0.0000000000000000e+00 0.0000000000000000e+00 0
0.0000000000000000e+00 0.0000000000000000e+00 0
0.0000000000000000e+00 0.0000000000000000e+00 0
0.0000000000000000e+00 0.0000000000000000e+00 0
0.0000000000000000e+00 0.0000000000000000e+00 0
0.0000000000000000e+00 0.0000000000000000e+00 0
0.0000000000000000e+00 0.0000000000000000e+00 0
0.0000000000000000e+00 0.0000000000000000e+00 0
0.0000000000000000e+00 0.0000000000000000e+00 0
0.0000000000000000e+00 0.0000000000000000e+00 0
0.0000000000000000e+00 0.0000000000000000e+00 0
0.0000000000000000e+00 0.0000000000000000e+00 0
0.0000000000000000e+00 0.0000000000000000e+00 0
0.0000000000000000e+00 0.0000000000000000e+00 0
0.0000000000000000e+00 0.0000000000000000e+00 0
0.0000000000000000e+00 0.0000000000000000e+00 0
0.0000000000000000e+00 0.0000000000000000e+00 0
0.0000000000000000e+00 0.0000000000000000e+00 0
0.0000000000000000e+00 0.0000000000000000e+00 0
0.0000000000000000e+00 0.0000000000000000e+00 0
0.0000000000000000e+00 0.0000000000000000e+00 0
0.0000000000000000e+00 0.0000000000000000e+00 0
0.0000000000000000e+00 0.0000000000000000e+00 0
0.0000000000000000e+00 0.0000000000000000e+00 0
0.0000000000000000e+00 0.0000000000000000e+00 0
0.0000000000000000e+00 0.0000000000000000e+00 0
0.0000000000000000e+00 0.0000000000000000e+00 0
0.0000000000000000e+00 0.0000000000000000e+00 0
0.0000000000000000e+00 0.0000000000000000e+00 0
0.0000000000000000e+00 0.0000000000000000e+00 0
0.0000000000000000e+00 0.0000000000000000e+00 0
0.0000000000000000e+00 0.0000000000000000e+00 0
0.0000000000000000e+00 0.0000000000000000e+00 0

VECTORS Displacements1 float
-5.5987653932253606e-17 3.1278497906184825e-17 0
-1.1467286288662445e-22 3.3962322541033827e-23 0
1.5283830637483781e-06 5.3988759899284535e-07 0
1.4795536525123802e-06 -4.9670961036970010e-07 0
2.5473675382764226e-06 7.1844689924703044e-07 0
2.4553542629809249e-06 -6.6333540286277702e-07 0
3.0359490188727452e-06 6.7846695283683406e-07 0
2.9588779951654976e-06 -6.1771608432239846e-07 0
3.2295378384345690e-06 5.4759784373057170e-07 0
3.1837012293297040e-06 -5.0045384467525930e-07 0
4.5816951119087277e-06 3.4655265869522913e-07 0
4.3410573486216270e-06 -1.5171718768019212e-07 0
3.4617687004080204e-06 5.5453755320909178e-08 0
3.4135668200625904e-06 -5.3046816227884268e-09 0
3.7039158282125634e-06 8.2804881464689393e-08 0
3.6147572603901011e-06 4.5061981902070866e-08 0
3.6945675194259404e-06 5.3894614705341100e-08 0
3.6049798087975292e-06 9.0314332629488507e-08 0
3.4508781979287160e-06 1.0780646353134254e-07 0
3.4053682664208309e-06 2.1866798898053466e-08 0
4.6269979265484634e-06 1.2580619620694876e-07 0
4.3985024031409326e-06 1.8030846599912348e-07 0
3.4878205843450507e-06 -5.0831497664730394e-09 0
3.4387809126414066e-06 1.5072546766116890e-07 0
3.7722698812294419e-06 1.0271654679405708e-07 0
3.6879649860985319e-06 1.3006488658275867e-07 0
3.7860591158736688e-06 9.7069462998164433e-08 0
3.7019079200229097e-06 1.5544040638351011e-07 0
3.5373714342791784e-06 1.5763006308050689e-07 0
3.4946055857882228e-06 7.7113904246501762e-08 0
4.7125094519082995e-06 1.8524093262785203e-07 0
4.5255211967905345e-06 2.5875246657346456e-07 0
3.5764959066712395e-06 5.6945576291412325e-08 0
3.5263250030190673e-06 2.0587021415671858e-07 0
3.8701545306046441e-06 1.6741775513646678e-07 0
3.7998847970826857e-06 1.8991745208073115e-07 0
3.8942745354559153e-06 1.6361370519381105e-07 0
3.8231282965750609e-06 2.1803344834411615e-07 0
3.6539246342524087e-06 2.2661806870118370e-07 0
3.6158178554066464e-06 1.3183229385561687e-07 0
4.8444136505545905e-06 2.6485032045131111e-07 0
4.7333015758206669e-06 3.4681127212750977e-07 0
3.7164619241816545e-06 1.3329284196918723e-07 0
3.6664883762945618e-06 2.7173200886670978e-07 0
4.0235729630966814e-06 2.5174128225452911e-07 0
3.9764322851459098e-06 2.5761956391783379e-07 0
4.0599284577640822e-06 2.5331703715031197e-07 0
4.0102388402386706e-06 2.8740729569886813e-07 0
3.8289005819864666e-06 3.2219423008507799e-07 0
3.7977909982215754e-06 1.8857460642535616e-07 0
5.0379596733066315e-06 3.8399005825745512e-07 0
5.0405675976152938e-06 4.3856340433724187e-07 0
3.9204039369779500e-06 2.4362850842831894e-07 0
3.8714338231942665e-06 3.4213182077322185e-07 0
4.2423870366470411e-06 3.7560930576061037e-07 0
4.2287346177618345e-06 3.2825683113885871e-07 0
4.2936875337114624e-06 3.8620118812307037e-07 0
4.2749863303063133e-06 3.6029882599827782e-07 0
4.0747120853445982e-06 4.6229177809043589e-07 0
4.0520765871594747e-06 2.4561990015175533e-07 0
5.3024781166749356e-06 5.6012593389818081e-07 0
5.4684401111797645e-06 5.3631726219956445e-07 0
4.2092937640387097e-06 4.1232350580107901e-07 0
4.1601227475065670e-06 4.1418180486021887e-07 0
4.5618537339587406e-06 5.6582035540848501e-07 0
4.5903302964062214e-06 3.9843048949265318e-07 0
4.6424316618621696e-06 5.9620766040431101e-07 0
4.6623360526293660e-06 4.3060890503336274e-07 0
4.4492588431068632e-06 6.9766735049584117e-07 0
4.4342952862377995e-06 2.8964826777274103e-07 0
5.7413052080183770e-06 8.8115423281089569e-07 0
6.1145630865264310e-06 6.2502795791594875e-07 0
4.6775750348233293e-06 7.2649438540606242e-07 0
4.6064989672533577e-06 4.8650230291653074e-07 0
5.0824924992602450e-06 9.8177635705544949e-07 0
5.1273713591733997e-06 4.7472733918807482e-07 0
5.2348724199897382e-06 1.1462505893087932e-06 0
5.2202164219952813e-06 5.2394380615197217e-07 0
5.1174123512392698e-06 1.4385152368595905e-06 0
4.9507601519914200e-06 3.6295408581179992e-07 0
6.5244743790116453e-06 1.9807835105848456e-06 0
6.9803404862418224e-06 7.6815431525145273e-07 0
5.5771586454840009e-06 2.2314152299898215e-06 0
5.1256735038159198e-06 5.2303299291040090e-07 0
6.1011844162496049e-06 3.0934429969396594e-06 0
5.7373752678508171e-06 3.3425016585234711e-07 0
6.2688871514680847e-06 4.1676155850875576e-06 0
5.7593210292172114e-06 -5.9725377723821568e-08 0
6.3094784108543121e-06 5.8743484292398789e-06 0
5.5629057424377513e-06 -1.1922253556438649e-06 0
8.9195039654024861e-06 8.5113944873061689e-06 0
9.1622424329645468e-06 -2.1013719208487398e-06 0
9.4071730664845764e-06 1.0463583632921942e-05 0
8.5121318870868018e-06 -3.9870160195102415e-06 0
1.3160656760349697e-05 1.3562934340141606e-05 0
1.2765042188073389e-05 -5.9058919047990485e-06 0
1.7806773266805227e-05 1.6224991316215831e-05 0
1.7450688734673657e-05 -7.5231027986294634e-06 0
2.5238667944410517e-05 1.9052493952626262e-05 0
2.4357804194773085e-05 -8.4257066268225407e-06 0
3.0605186241243235e-05 1.9139150114481369e-05 0
3.0611723951829524e-05 1.3314616610485065e-05 0
2.9345556347938158e-05 7.6542227892970798e-06 0
2.8961007160116703e-05 2.7488932213398160e-06 0
2.9628355573926580e-05 -2.8668427825627536e-06 0
2.9269818560495303e-05 -9.1632039440466060e-06 0

VECTORS Forces1 float
-3.0264357046761969e-01 1.8137841350925901e-01 0
-2.0718922954118335e-01 -1.2214883953446809e-01 0
3.9860194649881202e+00 -2.2090912934926767e+00 0
2.7833262941871282e+00 1.5400234702132154e+00 0
4.3673885674307318e+00 -6.7705682941553647e-01 0
3.0577162513135514e+00 4.7414410366427345e-01 0
2.7821206988676401e+00 1.1342715213733472e-01 0
1.9488157367962409e+00 -7.8065860102486437e-02 0
-4.1938533849742093e-01 -1.5272242126805476e-02 0
-2.9423513047303573e-01 1.0542796188208345e-02 0
1.0709165783969203e+01 4.3917584855703113e-03 0
7.5179801217876561e+00 2.1335319567333828e-02 0
-4.5507187297054130e-01 -5.8116510613917983e-04 0
-3.2066731363061313e-01 -1.7414746809145080e-03 0
3.0573463428895997e+00 1.1535271949075002e-04 0
2.1528565556210317e+00 1.5367267681293612e-02 0
3.0575900160976985e+00 5.1133378420292653e-05 0
2.1530730376804397e+00 1.5417000685176785e-02 0
-4.5558467183973828e-01 -2.6767483593164826e-04 0
-3.2103352512573397e-01 -2.1244159054634882e-03 0
1.0796985928260181e+01 -2.1413688216865663e-03 0
7.6320380312524225e+00 9.4580613849388540e-02 0
-4.5675217696142728e-01 -3.2111525380439576e-04 0
-3.2498102603451628e-01 -5.2547387159671485e-03 0
3.0661184108198403e+00 5.1758317866532153e-04 0
2.1811308265594183e+00 3.7395870033256971e-02 0
3.0661191625044664e+00 5.1954939475532826e-04 0
2.1811651738345721e+00 3.7416105021603863e-02 0
-4.5673307453294493e-01 -3.4912280157653632e-04 0
-3.2516625698083995e-01 -5.3939325050984350e-03 0
1.0788479216530499e+01 1.2820930789575198e-02 0
7.7356939947785248e+00 1.6621896159847374e-01 0
-4.5503881011535563e-01 -1.3004036728770109e-03 0
-3.2979131626362440e-01 -8.2169297640772992e-03 0
3.0543454432536334e+00 7.2155115953382760e-03 0
2.2137439273413211e+00 5.7329289691651443e-02 0
3.0543270935551812e+00 7.2184143480910918e-03 0
2.2137850869136964e+00 5.7351637465983332e-02 0
-4.5490568646211826e-01 -1.3802522659311317e-03 0
-3.3003085346676836e-01 -8.3387633201315054e-03 0
1.0717359830693086e+01 4.3963566707963940e-02 0
7.8672043229982158e+00 2.3695818242191199e-01 0
-4.5096881706852437e-01 -3.0797927094491991e-03 0
-3.3621664734647611e-01 -1.1125619579586229e-02 0
3.0267901863524158e+00 1.9093009691207918e-02 0
2.2572818583651775e+00 7.7092109551275351e-02 0
3.0267534228190778e+00 1.9098874337284948e-02 0
2.2573351537712258e+00 7.7117255546606631e-02 0
-4.5072160438032238e-01 -3.2326079330216614e-03 0
-3.3653797572403155e-01 -1.1228404612963741e-02 0
1.0591594448680429e+01 1.0660239197874059e-01 0
8.0455121700944474e+00 3.0230236125252280e-01 0
-4.4397868723775735e-01 -6.6426556049659575e-03 0
-3.4469318632748563e-01 -1.3714835107746522e-02 0
2.9794961546076224e+00 4.2877946874586591e-02 0
2.3146153941394574e+00 9.4875227558112674e-02 0
2.9794422987668030e+00 4.2882146138815525e-02 0
2.3146866633064347e+00 9.4908077743022609e-02 0
-4.4364700408558055e-01 -6.8764172614957748e-03 0
-3.4515411149208414e-01 -1.3801920993000318e-02 0
1.0389878184950897e+01 1.9269958262925263e-01 0
8.2812780229291505e+00 3.7284110890576039e-01 0
-4.3566298178710416e-01 -1.0870422266457375e-02 0
-3.5711653778153407e-01 -1.6780074641119268e-02 0
2.9234306918384747e+00 7.0522248181081368e-02 0
2.3986312836040140e+00 1.1632106270919418e-01 0
2.9233362945017656e+00 7.0533235171537909e-02 0
2.3987137440590245e+00 1.1636246852058121e-01 0
-4.3518387297355510e-01 -1.1384814772293942e-02 0
-3.5776143306039399e-01 -1.6798556935254949e-02 0
1.0173099305570895e+01 3.9583244899648062e-01 0
8.6347403698831044e+00 4.2011106522508973e-01 0
-4.2042927150290188e-01 -2.3835587735638569e-02 0
-3.7242302523876775e-01 -1.7943129977294962e-02 0
2.8190200720358698e+00 1.5681747784405861e-01 0
2.5007887802393860e+00 1.2541814386042940e-01 0
2.8188339711594947e+00 1.5673353226615291e-01 0
2.5008380516311064e+00 1.2549977016971092e-01 0
-4.2077372561793086e-01 -2.4683521783920151e-02 0
-3.7426837067225421e-01 -1.7987478890369831e-02 0
9.7899848643476410e+00 5.4208084569982362e-01 0
9.1465649964947424e+00 5.6569944529011684e-01 0
-4.2901633952344315e-01 -3.0244622447284264e-02 0
-4.1894069594739497e-01 -2.5153856727798476e-02 0
2.8682856960900973e+00 1.8972179839252384e-01 0
2.8058799397483729e+00 1.7705244754765637e-01 0
2.8674846099771902e+00 1.8933944198333488e-01 0
2.8055465484143709e+00 1.7721525647705597e-01 0
-4.3059931105447896e-01 -3.5001884354731970e-02 0
-4.2350246574504569e-01 -2.3352633060174884e-02 0
1.0272666400893366e+01 1.7994055959755022e+00 0
1.0795484787013999e+01 2.6422336199563690e-01 0
-4.1208488822168954e-01 -1.4044410727494319e-01 0
-4.9932981262388881e-01 1.9068255060673864e-02 0
2.8785777301716671e+00 9.2797778889915450e-01 0
3.4790930650116554e+00 -4.2162354147771176e-02 0
2.1793057920224093e+00 5.8938367467764874e-01 0
2.7786106490541052e+00 -6.2770948449332689e-02 0
6.5342250177875663e+00 3.1217813798097351e+00 0
6.4376381532617861e+00 3.6698039368705287e-01 0
5.7732155461794576e-01 3.9613793389682139e-01 0
4.4949434587184083e+00 2.1420062736392778e+00 0
2.4990339656818201e+00 1.8185540488745007e+00 0
2.3391819440084043e+00 2.0967134802202256e+00 0
4.0458598189428612e+00 1.2811960170758254e+00 0
6.2043883832751889e-01 -1.8099957906736724e-01 0

