# vtk DataFile Version 2.0

ASCII

DATASET UNSTRUCTURED_GRID

POINTS 106 float 

-5.0000000000000003e-02  0.0000000000000000e+00  0.0000000000000000e+00
5.0000000000000003e-02  0.0000000000000000e+00  0.0000000000000000e+00
-5.0000000000000003e-02  2.0000000000000000e-02  0.0000000000000000e+00
5.0000000000000003e-02  2.0000000000000000e-02  0.0000000000000000e+00
-5.0000000000000003e-02  4.0000000000000001e-02  0.0000000000000000e+00
5.0000000000000003e-02  4.0000000000000001e-02  0.0000000000000000e+00
-5.0000000000000003e-02  5.9999999999999998e-02  0.0000000000000000e+00
5.0000000000000003e-02  5.9999999999999998e-02  0.0000000000000000e+00
-5.0000000000000003e-02  8.0000000000000002e-02  0.0000000000000000e+00
5.0000000000000003e-02  8.0000000000000002e-02  0.0000000000000000e+00
-5.0000000000000003e-02  1.0000000000000001e-01  0.0000000000000000e+00
5.0000000000000003e-02  1.0000000000000001e-01  0.0000000000000000e+00
-5.0000000000000003e-02  1.2000000000000000e-01  0.0000000000000000e+00
5.0000000000000003e-02  1.2000000000000000e-01  0.0000000000000000e+00
-5.0000000000000003e-02  1.4000000000000001e-01  0.0000000000000000e+00
5.0000000000000003e-02  1.4000000000000001e-01  0.0000000000000000e+00
-5.0000000000000003e-02  1.6000000000000000e-01  0.0000000000000000e+00
5.0000000000000003e-02  1.6000000000000000e-01  0.0000000000000000e+00
-5.0000000000000003e-02  1.7999999999999999e-01  0.0000000000000000e+00
5.0000000000000003e-02  1.7999999999999999e-01  0.0000000000000000e+00
-5.0000000000000003e-02  2.0000000000000001e-01  0.0000000000000000e+00
5.0000000000000003e-02  2.0000000000000001e-01  0.0000000000000000e+00
-5.0000000000000003e-02  2.2000000000000000e-01  0.0000000000000000e+00
5.0000000000000003e-02  2.2000000000000000e-01  0.0000000000000000e+00
-5.0000000000000003e-02  2.3999999999999999e-01  0.0000000000000000e+00
5.0000000000000003e-02  2.3999999999999999e-01  0.0000000000000000e+00
-5.0000000000000003e-02  2.6000000000000001e-01  0.0000000000000000e+00
5.0000000000000003e-02  2.6000000000000001e-01  0.0000000000000000e+00
-5.0000000000000003e-02  2.8000000000000003e-01  0.0000000000000000e+00
5.0000000000000003e-02  2.8000000000000003e-01  0.0000000000000000e+00
-5.0000000000000003e-02  2.9999999999999999e-01  0.0000000000000000e+00
5.0000000000000003e-02  2.9999999999999999e-01  0.0000000000000000e+00
-5.0000000000000003e-02  3.2000000000000001e-01  0.0000000000000000e+00
5.0000000000000003e-02  3.2000000000000001e-01  0.0000000000000000e+00
-5.0000000000000003e-02  3.4000000000000002e-01  0.0000000000000000e+00
5.0000000000000003e-02  3.4000000000000002e-01  0.0000000000000000e+00
-5.0000000000000003e-02  3.5999999999999999e-01  0.0000000000000000e+00
5.0000000000000003e-02  3.5999999999999999e-01  0.0000000000000000e+00
-5.0000000000000003e-02  3.8000000000000000e-01  0.0000000000000000e+00
5.0000000000000003e-02  3.8000000000000000e-01  0.0000000000000000e+00
-5.0000000000000003e-02  4.0000000000000002e-01  0.0000000000000000e+00
5.0000000000000003e-02  4.0000000000000002e-01  0.0000000000000000e+00
-5.0000000000000003e-02  4.1999999999999998e-01  0.0000000000000000e+00
5.0000000000000003e-02  4.1999999999999998e-01  0.0000000000000000e+00
-5.0000000000000003e-02  4.4000000000000000e-01  0.0000000000000000e+00
5.0000000000000003e-02  4.4000000000000000e-01  0.0000000000000000e+00
-5.0000000000000003e-02  4.6000000000000002e-01  0.0000000000000000e+00
5.0000000000000003e-02  4.6000000000000002e-01  0.0000000000000000e+00
-5.0000000000000003e-02  4.7999999999999998e-01  0.0000000000000000e+00
5.0000000000000003e-02  4.7999999999999998e-01  0.0000000000000000e+00
-5.0000000000000003e-02  5.0000000000000000e-01  0.0000000000000000e+00
5.0000000000000003e-02  5.0000000000000000e-01  0.0000000000000000e+00
-5.0000000000000003e-02  5.2000000000000002e-01  0.0000000000000000e+00
5.0000000000000003e-02  5.2000000000000002e-01  0.0000000000000000e+00
-5.0000000000000003e-02  5.4000000000000004e-01  0.0000000000000000e+00
5.0000000000000003e-02  5.4000000000000004e-01  0.0000000000000000e+00
-5.0000000000000003e-02  5.6000000000000005e-01  0.0000000000000000e+00
5.0000000000000003e-02  5.6000000000000005e-01  0.0000000000000000e+00
-5.0000000000000003e-02  5.7999999999999996e-01  0.0000000000000000e+00
5.0000000000000003e-02  5.7999999999999996e-01  0.0000000000000000e+00
-5.0000000000000003e-02  5.9999999999999998e-01  0.0000000000000000e+00
5.0000000000000003e-02  5.9999999999999998e-01  0.0000000000000000e+00
-5.0000000000000003e-02  6.2000000000000000e-01  0.0000000000000000e+00
5.0000000000000003e-02  6.2000000000000000e-01  0.0000000000000000e+00
-5.0000000000000003e-02  6.4000000000000001e-01  0.0000000000000000e+00
5.0000000000000003e-02  6.4000000000000001e-01  0.0000000000000000e+00
-5.0000000000000003e-02  6.6000000000000003e-01  0.0000000000000000e+00
5.0000000000000003e-02  6.6000000000000003e-01  0.0000000000000000e+00
-5.0000000000000003e-02  6.8000000000000005e-01  0.0000000000000000e+00
5.0000000000000003e-02  6.8000000000000005e-01  0.0000000000000000e+00
-5.0000000000000003e-02  6.9999999999999996e-01  0.0000000000000000e+00
5.0000000000000003e-02  6.9999999999999996e-01  0.0000000000000000e+00
-5.0000000000000003e-02  7.1999999999999997e-01  0.0000000000000000e+00
5.0000000000000003e-02  7.1999999999999997e-01  0.0000000000000000e+00
-5.0000000000000003e-02  7.3999999999999999e-01  0.0000000000000000e+00
5.0000000000000003e-02  7.3999999999999999e-01  0.0000000000000000e+00
-5.0000000000000003e-02  7.6000000000000001e-01  0.0000000000000000e+00
5.0000000000000003e-02  7.6000000000000001e-01  0.0000000000000000e+00
-5.0000000000000003e-02  7.8000000000000003e-01  0.0000000000000000e+00
5.0000000000000003e-02  7.8000000000000003e-01  0.0000000000000000e+00
-5.0000000000000003e-02  8.0000000000000004e-01  0.0000000000000000e+00
5.0000000000000003e-02  8.0000000000000004e-01  0.0000000000000000e+00
-5.0000000000000003e-02  8.1999999999999995e-01  0.0000000000000000e+00
5.0000000000000003e-02  8.1999999999999995e-01  0.0000000000000000e+00
-5.0000000000000003e-02  8.3999999999999997e-01  0.0000000000000000e+00
5.0000000000000003e-02  8.3999999999999997e-01  0.0000000000000000e+00
-5.0000000000000003e-02  8.5999999999999999e-01  0.0000000000000000e+00
5.0000000000000003e-02  8.5999999999999999e-01  0.0000000000000000e+00
-5.0000000000000003e-02  8.8000000000000000e-01  0.0000000000000000e+00
5.0000000000000003e-02  8.8000000000000000e-01  0.0000000000000000e+00
-5.0000000000000003e-02  9.0000000000000002e-01  0.0000000000000000e+00
5.0000000000000003e-02  9.0000000000000002e-01  0.0000000000000000e+00
-5.0000000000000003e-02  9.2000000000000004e-01  0.0000000000000000e+00
5.0000000000000003e-02  9.2000000000000004e-01  0.0000000000000000e+00
-5.0000000000000003e-02  9.3999999999999995e-01  0.0000000000000000e+00
5.0000000000000003e-02  9.3999999999999995e-01  0.0000000000000000e+00
-5.0000000000000003e-02  9.5999999999999996e-01  0.0000000000000000e+00
5.0000000000000003e-02  9.5999999999999996e-01  0.0000000000000000e+00
-5.0000000000000003e-02  9.7999999999999998e-01  0.0000000000000000e+00
5.0000000000000003e-02  9.7999999999999998e-01  0.0000000000000000e+00
-5.0000000000000003e-02  1.0000000000000000e+00  0.0000000000000000e+00
-3.0000000000000002e-02  1.0000000000000000e+00  0.0000000000000000e+00
-1.0000000000000002e-02  1.0000000000000000e+00  0.0000000000000000e+00
1.0000000000000009e-02  1.0000000000000000e+00  0.0000000000000000e+00
2.9999999999999999e-02  1.0000000000000000e+00  0.0000000000000000e+00
5.0000000000000003e-02  1.0000000000000000e+00  0.0000000000000000e+00

CELLS 0 0


CELL_TYPES 0


POINT_DATA 106

VECTORS VertexNormals float

0.0000000000000000e+00 0.0000000000000000e+00 0
0.0000000000000000e+00 0.0000000000000000e+00 0
0.0000000000000000e+00 0.0000000000000000e+00 0
0.0000000000000000e+00 0.0000000000000000e+00 0
0.0000000000000000e+00 0.0000000000000000e+00 0
0.0000000000000000e+00 0.0000000000000000e+00 0
0.0000000000000000e+00 0.0000000000000000e+00 0
0.0000000000000000e+00 0.0000000000000000e+00 0
0.0000000000000000e+00 0.0000000000000000e+00 0
0.0000000000000000e+00 0.0000000000000000e+00 0
0.0000000000000000e+00 0.0000000000000000e+00 0
0.0000000000000000e+00 0.0000000000000000e+00 0
0.0000000000000000e+00 0.0000000000000000e+00 0
0.0000000000000000e+00 0.0000000000000000e+00 0
0.0000000000000000e+00 0.0000000000000000e+00 0
0.0000000000000000e+00 0.0000000000000000e+00 0
0.0000000000000000e+00 0.0000000000000000e+00 0
0.0000000000000000e+00 0.0000000000000000e+00 0
0.0000000000000000e+00 0.0000000000000000e+00 0
0.0000000000000000e+00 0.0000000000000000e+00 0
0.0000000000000000e+00 0.0000000000000000e+00 0
0.0000000000000000e+00 0.0000000000000000e+00 0
0.0000000000000000e+00 0.0000000000000000e+00 0
0.0000000000000000e+00 0.0000000000000000e+00 0
0.0000000000000000e+00 0.0000000000000000e+00 0
0.0000000000000000e+00 0.0000000000000000e+00 0
0.0000000000000000e+00 0.0000000000000000e+00 0
0.0000000000000000e+00 0.0000000000000000e+00 0
0.0000000000000000e+00 0.0000000000000000e+00 0
0.0000000000000000e+00 0.0000000000000000e+00 0
0.0000000000000000e+00 0.0000000000000000e+00 0
0.0000000000000000e+00 0.0000000000000000e+00 0
0.0000000000000000e+00 0.0000000000000000e+00 0
0.0000000000000000e+00 0.0000000000000000e+00 0
0.0000000000000000e+00 0.0000000000000000e+00 0
0.0000000000000000e+00 0.0000000000000000e+00 0
0.0000000000000000e+00 0.0000000000000000e+00 0
0.0000000000000000e+00 0.0000000000000000e+00 0
0.0000000000000000e+00 0.0000000000000000e+00 0
0.0000000000000000e+00 0.0000000000000000e+00 0
0.0000000000000000e+00 0.0000000000000000e+00 0
0.0000000000000000e+00 0.0000000000000000e+00 0
0.0000000000000000e+00 0.0000000000000000e+00 0
0.0000000000000000e+00 0.0000000000000000e+00 0
0.0000000000000000e+00 0.0000000000000000e+00 0
0.0000000000000000e+00 0.0000000000000000e+00 0
0.0000000000000000e+00 0.0000000000000000e+00 0
0.0000000000000000e+00 0.0000000000000000e+00 0
0.0000000000000000e+00 0.0000000000000000e+00 0
0.0000000000000000e+00 0.0000000000000000e+00 0
0.0000000000000000e+00 0.0000000000000000e+00 0
0.0000000000000000e+00 0.0000000000000000e+00 0
0.0000000000000000e+00 0.0000000000000000e+00 0
0.0000000000000000e+00 0.0000000000000000e+00 0
0.0000000000000000e+00 0.0000000000000000e+00 0
0.0000000000000000e+00 0.0000000000000000e+00 0
0.0000000000000000e+00 0.0000000000000000e+00 0
0.0000000000000000e+00 0.0000000000000000e+00 0
0.0000000000000000e+00 0.0000000000000000e+00 0
0.0000000000000000e+00 0.0000000000000000e+00 0
0.0000000000000000e+00 0.0000000000000000e+00 0
0.0000000000000000e+00 0.0000000000000000e+00 0
0.0000000000000000e+00 0.0000000000000000e+00 0
0.0000000000000000e+00 0.0000000000000000e+00 0
0.0000000000000000e+00 0.0000000000000000e+00 0
0.0000000000000000e+00 0.0000000000000000e+00 0
0.0000000000000000e+00 0.0000000000000000e+00 0
0.0000000000000000e+00 0.0000000000000000e+00 0
0.0000000000000000e+00 0.0000000000000000e+00 0
0.0000000000000000e+00 0.0000000000000000e+00 0
0.0000000000000000e+00 0.0000000000000000e+00 0
0.0000000000000000e+00 0.0000000000000000e+00 0
0.0000000000000000e+00 0.0000000000000000e+00 0
0.0000000000000000e+00 0.0000000000000000e+00 0
0.0000000000000000e+00 0.0000000000000000e+00 0
0.0000000000000000e+00 0.0000000000000000e+00 0
0.0000000000000000e+00 0.0000000000000000e+00 0
0.0000000000000000e+00 0.0000000000000000e+00 0
0.0000000000000000e+00 0.0000000000000000e+00 0
0.0000000000000000e+00 0.0000000000000000e+00 0
0.0000000000000000e+00 0.0000000000000000e+00 0
0.0000000000000000e+00 0.0000000000000000e+00 0
0.0000000000000000e+00 0.0000000000000000e+00 0
0.0000000000000000e+00 0.0000000000000000e+00 0
0.0000000000000000e+00 0.0000000000000000e+00 0
0.0000000000000000e+00 0.0000000000000000e+00 0
0.0000000000000000e+00 0.0000000000000000e+00 0
0.0000000000000000e+00 0.0000000000000000e+00 0
0.0000000000000000e+00 0.0000000000000000e+00 0
0.0000000000000000e+00 0.0000000000000000e+00 0
0.0000000000000000e+00 0.0000000000000000e+00 0
0.0000000000000000e+00 0.0000000000000000e+00 0
0.0000000000000000e+00 0.0000000000000000e+00 0
0.0000000000000000e+00 0.0000000000000000e+00 0
0.0000000000000000e+00 0.0000000000000000e+00 0
0.0000000000000000e+00 0.0000000000000000e+00 0
0.0000000000000000e+00 0.0000000000000000e+00 0
0.0000000000000000e+00 0.0000000000000000e+00 0
0.0000000000000000e+00 0.0000000000000000e+00 0
0.0000000000000000e+00 0.0000000000000000e+00 0
0.0000000000000000e+00 0.0000000000000000e+00 0
0.0000000000000000e+00 0.0000000000000000e+00 0
0.0000000000000000e+00 0.0000000000000000e+00 0
0.0000000000000000e+00 0.0000000000000000e+00 0
0.0000000000000000e+00 0.0000000000000000e+00 0
0.0000000000000000e+00 0.0000000000000000e+00 0

VECTORS Displacements1 float
-1.7689694293676906e-17 9.8808496242774108e-18 0
-1.0715800451738076e-23 -5.5022819828098406e-24 0
1.3907035127471255e-07 -5.5859400701047116e-08 0
1.4948030971337718e-07 7.3866568418176662e-08 0
1.6066832159267540e-07 -3.1864105283639706e-08 0
1.6288884670406045e-07 5.4064569125222419e-08 0
9.6948073182287342e-08 -7.9074901253538335e-09 0
9.5945325363408333e-08 2.4449853189594544e-08 0
1.1481365321950782e-08 1.5806201905629509e-08 0
1.3620230966725859e-08 -1.3316345739131504e-08 0
3.6568241373366891e-07 2.4256498950146006e-08 0
3.6248070144890359e-07 2.7933393757010268e-08 0
1.1148565564256053e-08 -1.4576535140734353e-08 0
1.2675701774444594e-08 1.7015298374015537e-08 0
1.0445503797114205e-07 1.4333898866785632e-08 0
1.0515601988352401e-07 4.1586937207766497e-09 0
1.0459245857915467e-07 7.6423662106584060e-10 0
1.0467189279480665e-07 1.7889715874478626e-08 0
1.1109635412697425e-08 1.4811694248613470e-08 0
1.3680166743674848e-08 -1.2211419033695509e-08 0
3.6268998848785729e-07 2.1366143433910299e-08 0
3.6985020201902874e-07 3.6070457173485147e-08 0
1.0857497030614645e-08 -1.5247253738453142e-08 0
1.2447146404716181e-08 1.9243368946290548e-08 0
1.0385838909224980e-07 1.3052811988771408e-08 0
1.0923811113665887e-07 7.5283771086848876e-09 0
1.0387740057984765e-07 -4.2274245814587365e-10 0
1.0826053591235560e-07 2.1745083354831376e-08 0
1.1086675491849046e-08 1.4010920191999380e-08 0
1.4899961617998599e-08 -1.0984381493554584e-08 0
3.6098735191410412e-07 1.9080960025617404e-08 0
3.8902993883909331e-07 4.5825801051189486e-08 0
1.0595831844460957e-08 -1.5823427350074442e-08 0
1.2666645113284839e-08 2.2037393808520067e-08 0
1.0344429334132822e-07 1.2428128018385059e-08 0
1.1675383933220248e-07 1.0799331607033025e-08 0
1.0344183737492050e-07 -9.1279809696915875e-10 0
1.1528571343287434e-07 2.5915505025465069e-08 0
1.0958630868218471e-08 1.3722484513382858e-08 0
1.6517402499437993e-08 -1.0438755468854709e-08 0
3.5945661127319111e-07 1.8937106085520708e-08 0
4.2044677043269102e-07 5.5709940858418454e-08 0
1.0422221005009980e-08 -1.5857680016822603e-08 0
1.3315390610073410e-08 2.5164441557947158e-08 0
1.0302759602431847e-07 1.2726909656129027e-08 0
1.2803073440920395e-07 1.3811588933180077e-08 0
1.0310118378779291e-07 -4.2488828385108566e-10 0
1.2606340439032831e-07 3.0281020027424993e-08 0
1.0666660431412731e-08 1.4278159248622962e-08 0
1.8594942803943094e-08 -1.0865984519113569e-08 0
3.5801926722954382e-07 2.2394726662990262e-08 0
4.6611367632009717e-07 6.5115622325265765e-08 0
1.0412080270902607e-08 -1.4974400987959653e-08 0
1.4499973258414926e-08 2.8491902709316643e-08 0
1.0217008001468441e-07 1.4703378788455131e-08 0
1.4358216379860072e-07 1.6166486260047423e-08 0
1.0251771655637647e-07 1.7374148919004962e-09 0
1.4114715460228277e-07 3.4609146541706914e-08 0
1.0260844132965341e-08 1.5364825072779618e-08 0
2.1349966515039169e-08 -1.2095529295970664e-08 0
3.5495699199550521e-07 2.7932133238222025e-08 0
5.2885087518433271e-07 7.5753319934597356e-08 0
1.0304224018814777e-08 -1.3470496122524671e-08 0
1.6122780345549841e-08 3.2511784552105569e-08 0
1.0252140432492592e-07 1.7192433779991105e-08 0
1.6605856037776466e-07 1.9075129962325889e-08 0
1.0304605047881893e-07 4.6541589445617185e-09 0
1.6285836340373045e-07 4.0139611481813489e-08 0
9.5964575487284710e-09 1.9449016674203725e-08 0
2.5023677914921820e-08 -1.5898546559501224e-08 0
3.6033325052561744e-07 4.6164237820233561e-08 0
6.2150268727661577e-07 8.3014026584036463e-08 0
1.1148711882998669e-08 -9.1419083973027665e-09 0
1.9029634765986275e-08 3.6188762575896904e-08 0
1.0117028736795899e-07 2.7134205638548886e-08 0
1.9613384262693020e-07 1.8410679512971410e-08 0
1.0278938330302042e-07 1.4270675227409857e-08 0
1.9249194703930497e-07 4.3882512674240310e-08 0
9.7923689380088543e-09 2.1425424387617524e-08 0
3.1071430315622627e-08 -1.8964351970154483e-08 0
3.6136531569262367e-07 5.2136616775793449e-08 0
7.5271188708837840e-07 1.0561389738934505e-07 0
9.4532829969560460e-09 -7.4686573239416167e-09 0
2.0978802314291607e-08 4.4261324128468454e-08 0
1.2211458355871410e-07 2.9616450642939214e-08 0
2.5705548575221325e-07 2.6955741614365993e-08 0
1.2153816610563102e-07 1.8866098343178780e-08 0
2.4943021735349816e-07 5.7544250357557372e-08 0
1.0363015211506929e-08 5.4013397444488155e-08 0
4.0971515064597610e-08 -4.3758783094037229e-08 0
5.0471939910216591e-07 1.8546193036039813e-07 0
1.0544775538943357e-06 7.5944467972572212e-08 0
2.1212801812937699e-08 2.2513282575483037e-08 0
3.1675350237105430e-08 4.3900665563005568e-08 0
1.7128034102575039e-07 1.5190634069853796e-07 0
3.7026915357849358e-07 -1.8835988819205050e-08 0
1.6704747429022250e-07 2.5750006891689612e-07 0
3.6820454847434952e-07 -6.9690722542184594e-08 0
8.0941632038988053e-07 6.9961865078789706e-07 0
9.2728670424742091e-07 -1.5795453185035819e-07 0
6.9771182362556169e-07 6.0830518156916306e-07 0
8.2549353461232332e-07 4.9416520205063409e-07 0
6.0792173338830721e-07 3.1953787514329556e-07 0
6.0974385856983096e-07 2.9181649416525344e-07 0
8.8034091026192506e-07 1.5881921741030024e-08 0
6.8867425484117959e-07 -3.3197110352431409e-07 0

VECTORS Forces1 float
-3.2591866901565791e-02 2.1004533053026853e-02 0
-3.7137345548437159e-02 -2.0977157963070005e-02 0
4.6639826453301581e-01 -2.5994687670722738e-01 0
5.0583774719500418e-01 2.8065369482958175e-01 0
5.1153902557648789e-01 -7.9664767503852457e-02 0
5.5358933586095627e-01 8.7087434705566860e-02 0
3.2525939860636444e-01 1.3323910716113644e-02 0
3.5197131389249270e-01 -1.3866560078060702e-02 0
-4.9052703325804844e-02 -1.8791025264023439e-03 0
-5.3163966449107605e-02 1.8790022577265741e-03 0
1.2425166521062296e+00 -1.2109728915986890e-03 0
1.3478518851728731e+00 9.7690227709633214e-03 0
-5.2385903984189214e-02 1.5402481623505010e-05 0
-5.7324072201540746e-02 -6.6984307202237715e-04 0
3.5187577522132113e-01 -1.0397855822896159e-03 0
3.8460649276641273e-01 5.4519998844168331e-03 0
3.5190396183256878e-01 -1.0470151392578118e-03 0
3.8464445244827811e-01 5.4654269314517237e-03 0
-5.2399210581317752e-02 6.8378212569190848e-05 0
-5.7395034749546638e-02 -7.4813338457206267e-04 0
1.2340087908842732e+00 -6.8782016579607896e-03 0
1.3674513060965108e+00 3.0311941701310234e-02 0
-5.1979659018998259e-02 3.3580865464873945e-04 0
-5.8731961409865224e-02 -1.6695697888160273e-03 0
3.4903427698954120e-01 -2.9040169943092306e-03 0
3.9409286359085527e-01 1.1946525261167802e-02 0
3.4903223316454562e-01 -2.9060148885130311e-03 0
3.9410729945903905e-01 1.1953469836778035e-02 0
-5.1957495522353382e-02 3.4132700303571431e-04 0
-5.8823314406905830e-02 -1.7091114836007609e-03 0
1.2245912920586679e+00 -1.1593387306525548e-02 0
1.4176930222693862e+00 5.3048733047507325e-02 0
-5.1523013561693601e-02 4.1707743334932579e-04 0
-6.1497746111756200e-02 -2.5839075882149332e-03 0
3.4604951891397162e-01 -3.4455024760585364e-03 0
4.1291028132941282e-01 1.8130536573049874e-02 0
3.4604603060991168e-01 -3.4475186081851187e-03 0
4.1293236756035273e-01 1.8138163618387347e-02 0
-5.1499549049529969e-02 4.0750010538741563e-04 0
-6.1657376100741998e-02 -2.6171308016271796e-03 0
1.2118611507149595e+00 -1.0550242140163708e-02 0
1.5003129848215602e+00 7.3933069699067197e-02 0
-5.0909804673852532e-02 2.2080067491868932e-04 0
-6.5718586875295207e-02 -3.4062927869488433e-03 0
3.4199607875099391e-01 -2.1722865634232103e-03 0
4.4146140298356845e-01 2.3742447895998428e-02 0
3.4199066547553497e-01 -2.1736195293635984e-03 0
4.4149206989624740e-01 2.3750657975955027e-02 0
-5.0876498560041492e-02 1.8756326312970980e-04 0
-6.5952167205422088e-02 -3.4283385913781682e-03 0
1.1952225184835326e+00 1.5194464023304276e-04 0
1.6204458331490941e+00 9.1169571621714462e-02 0
-4.9971855854345291e-02 -5.1024420995836469e-04 0
-7.1603232794659744e-02 -4.0150180824821292e-03 0
3.3576212490390239e-01 2.6472995349144284e-03 0
4.8116329620061549e-01 2.7979766138915493e-02 0
3.3575609584290989e-01 2.6444342429186992e-03 0
4.8120467898659691e-01 2.7990726120596575e-02 0
-4.9937924600659690e-02 -5.6782851675573969e-04 0
-7.1939940734419922e-02 -4.0272967807347257e-03 0
1.1699741340644387e+00 1.6911484058570368e-02 0
1.7847756009200246e+00 1.0861537510084286e-01 0
-4.9267238075321303e-02 -1.3551762472796352e-03 0
-8.0041639723216082e-02 -4.7596966328416175e-03 0
3.3122288493981800e-01 8.0007980833380395e-03 0
5.3803314115574730e-01 3.3324257821892488e-02 0
3.3121339677902684e-01 7.9975361783823865e-03 0
5.3808416811482107e-01 3.3337897062372467e-02 0
-4.9226009927912963e-02 -1.4965773906800181e-03 0
-8.0529068717317853e-02 -4.7319308103988648e-03 0
1.1604011531025920e+00 6.6497807310254939e-02 0
2.0265647488285814e+00 1.1236392887914416e-01 0
-4.7783072092920702e-02 -4.6841814975084779e-03 0
-9.1554171749375829e-02 -4.3400489300504672e-03 0
3.2118526643677259e-01 2.9917554590642742e-02 0
6.1509884620974697e-01 3.0984050695132673e-02 0
3.2116651238272087e-01 2.9875770014340459e-02 0
6.1513842260896512e-01 3.1017040681550312e-02 0
-4.8011802135195875e-02 -4.9183691321815224e-03 0
-9.2541137361441858e-02 -4.3065631843038250e-03 0
1.1367468257631228e+00 8.5515385232252536e-02 0
2.3659608133833605e+00 1.4856907076690160e-01 0
-5.4489383068033664e-02 -5.0747618718603501e-03 0
-1.1450693627337659e-01 -6.5308010604561923e-03 0
3.6494992847005536e-01 2.8765521841771780e-02 0
7.6607269705741288e-01 4.7339459884967544e-02 0
3.6486862157596778e-01 2.8589983547080516e-02 0
7.6594660983406693e-01 4.7422536275687079e-02 0
-5.5148171515125410e-02 -6.6361149983495196e-03 0
-1.1695465491326747e-01 -5.7147078014915869e-03 0
1.4669553488602731e+00 4.2184426946816250e-01 0
3.1554289275822018e+00 1.7121671156956564e-02 0
-6.5405908464738011e-02 -3.8298911038972358e-02 0
-1.6096367070358811e-01 1.2212956091820657e-02 0
4.8850777562428299e-01 2.4636248972885480e-01 0
1.1100110772213836e+00 -5.0700319342645538e-02 0
3.0851685079064667e-01 1.2920542962072895e-01 0
8.6429701745925513e-01 -4.0829279538934594e-02 0
1.7460817018414243e+00 1.0900954258384346e+00 0
2.2518624801324920e+00 -3.0836349984684583e-02 0
1.1475156427067741e-01 1.3469649316771667e-01 0
1.2422622779329457e+00 8.5139215766692433e-01 0
8.1538769861783467e-01 7.2258485138336448e-01 0
7.5376633786060232e-01 7.7817948795469938e-01 0
1.4075514687620663e+00 3.4910214308015797e-01 0
2.4180886840994645e-01 -8.3539140273932194e-02 0

