# vtk DataFile Version 2.0

ASCII

DATASET UNSTRUCTURED_GRID

POINTS 106 float 

-5.0000000000000003e-02  0.0000000000000000e+00  0.0000000000000000e+00
5.0000000000000003e-02  0.0000000000000000e+00  0.0000000000000000e+00
-5.0000000000000003e-02  2.0000000000000000e-02  0.0000000000000000e+00
5.0000000000000003e-02  2.0000000000000000e-02  0.0000000000000000e+00
-5.0000000000000003e-02  4.0000000000000001e-02  0.0000000000000000e+00
5.0000000000000003e-02  4.0000000000000001e-02  0.0000000000000000e+00
-5.0000000000000003e-02  5.9999999999999998e-02  0.0000000000000000e+00
5.0000000000000003e-02  5.9999999999999998e-02  0.0000000000000000e+00
-5.0000000000000003e-02  8.0000000000000002e-02  0.0000000000000000e+00
5.0000000000000003e-02  8.0000000000000002e-02  0.0000000000000000e+00
-5.0000000000000003e-02  1.0000000000000001e-01  0.0000000000000000e+00
5.0000000000000003e-02  1.0000000000000001e-01  0.0000000000000000e+00
-5.0000000000000003e-02  1.2000000000000000e-01  0.0000000000000000e+00
5.0000000000000003e-02  1.2000000000000000e-01  0.0000000000000000e+00
-5.0000000000000003e-02  1.4000000000000001e-01  0.0000000000000000e+00
5.0000000000000003e-02  1.4000000000000001e-01  0.0000000000000000e+00
-5.0000000000000003e-02  1.6000000000000000e-01  0.0000000000000000e+00
5.0000000000000003e-02  1.6000000000000000e-01  0.0000000000000000e+00
-5.0000000000000003e-02  1.7999999999999999e-01  0.0000000000000000e+00
5.0000000000000003e-02  1.7999999999999999e-01  0.0000000000000000e+00
-5.0000000000000003e-02  2.0000000000000001e-01  0.0000000000000000e+00
5.0000000000000003e-02  2.0000000000000001e-01  0.0000000000000000e+00
-5.0000000000000003e-02  2.2000000000000000e-01  0.0000000000000000e+00
5.0000000000000003e-02  2.2000000000000000e-01  0.0000000000000000e+00
-5.0000000000000003e-02  2.3999999999999999e-01  0.0000000000000000e+00
5.0000000000000003e-02  2.3999999999999999e-01  0.0000000000000000e+00
-5.0000000000000003e-02  2.6000000000000001e-01  0.0000000000000000e+00
5.0000000000000003e-02  2.6000000000000001e-01  0.0000000000000000e+00
-5.0000000000000003e-02  2.8000000000000003e-01  0.0000000000000000e+00
5.0000000000000003e-02  2.8000000000000003e-01  0.0000000000000000e+00
-5.0000000000000003e-02  2.9999999999999999e-01  0.0000000000000000e+00
5.0000000000000003e-02  2.9999999999999999e-01  0.0000000000000000e+00
-5.0000000000000003e-02  3.2000000000000001e-01  0.0000000000000000e+00
5.0000000000000003e-02  3.2000000000000001e-01  0.0000000000000000e+00
-5.0000000000000003e-02  3.4000000000000002e-01  0.0000000000000000e+00
5.0000000000000003e-02  3.4000000000000002e-01  0.0000000000000000e+00
-5.0000000000000003e-02  3.5999999999999999e-01  0.0000000000000000e+00
5.0000000000000003e-02  3.5999999999999999e-01  0.0000000000000000e+00
-5.0000000000000003e-02  3.8000000000000000e-01  0.0000000000000000e+00
5.0000000000000003e-02  3.8000000000000000e-01  0.0000000000000000e+00
-5.0000000000000003e-02  4.0000000000000002e-01  0.0000000000000000e+00
5.0000000000000003e-02  4.0000000000000002e-01  0.0000000000000000e+00
-5.0000000000000003e-02  4.1999999999999998e-01  0.0000000000000000e+00
5.0000000000000003e-02  4.1999999999999998e-01  0.0000000000000000e+00
-5.0000000000000003e-02  4.4000000000000000e-01  0.0000000000000000e+00
5.0000000000000003e-02  4.4000000000000000e-01  0.0000000000000000e+00
-5.0000000000000003e-02  4.6000000000000002e-01  0.0000000000000000e+00
5.0000000000000003e-02  4.6000000000000002e-01  0.0000000000000000e+00
-5.0000000000000003e-02  4.7999999999999998e-01  0.0000000000000000e+00
5.0000000000000003e-02  4.7999999999999998e-01  0.0000000000000000e+00
-5.0000000000000003e-02  5.0000000000000000e-01  0.0000000000000000e+00
5.0000000000000003e-02  5.0000000000000000e-01  0.0000000000000000e+00
-5.0000000000000003e-02  5.2000000000000002e-01  0.0000000000000000e+00
5.0000000000000003e-02  5.2000000000000002e-01  0.0000000000000000e+00
-5.0000000000000003e-02  5.4000000000000004e-01  0.0000000000000000e+00
5.0000000000000003e-02  5.4000000000000004e-01  0.0000000000000000e+00
-5.0000000000000003e-02  5.6000000000000005e-01  0.0000000000000000e+00
5.0000000000000003e-02  5.6000000000000005e-01  0.0000000000000000e+00
-5.0000000000000003e-02  5.7999999999999996e-01  0.0000000000000000e+00
5.0000000000000003e-02  5.7999999999999996e-01  0.0000000000000000e+00
-5.0000000000000003e-02  5.9999999999999998e-01  0.0000000000000000e+00
5.0000000000000003e-02  5.9999999999999998e-01  0.0000000000000000e+00
-5.0000000000000003e-02  6.2000000000000000e-01  0.0000000000000000e+00
5.0000000000000003e-02  6.2000000000000000e-01  0.0000000000000000e+00
-5.0000000000000003e-02  6.4000000000000001e-01  0.0000000000000000e+00
5.0000000000000003e-02  6.4000000000000001e-01  0.0000000000000000e+00
-5.0000000000000003e-02  6.6000000000000003e-01  0.0000000000000000e+00
5.0000000000000003e-02  6.6000000000000003e-01  0.0000000000000000e+00
-5.0000000000000003e-02  6.8000000000000005e-01  0.0000000000000000e+00
5.0000000000000003e-02  6.8000000000000005e-01  0.0000000000000000e+00
-5.0000000000000003e-02  6.9999999999999996e-01  0.0000000000000000e+00
5.0000000000000003e-02  6.9999999999999996e-01  0.0000000000000000e+00
-5.0000000000000003e-02  7.1999999999999997e-01  0.0000000000000000e+00
5.0000000000000003e-02  7.1999999999999997e-01  0.0000000000000000e+00
-5.0000000000000003e-02  7.3999999999999999e-01  0.0000000000000000e+00
5.0000000000000003e-02  7.3999999999999999e-01  0.0000000000000000e+00
-5.0000000000000003e-02  7.6000000000000001e-01  0.0000000000000000e+00
5.0000000000000003e-02  7.6000000000000001e-01  0.0000000000000000e+00
-5.0000000000000003e-02  7.8000000000000003e-01  0.0000000000000000e+00
5.0000000000000003e-02  7.8000000000000003e-01  0.0000000000000000e+00
-5.0000000000000003e-02  8.0000000000000004e-01  0.0000000000000000e+00
5.0000000000000003e-02  8.0000000000000004e-01  0.0000000000000000e+00
-5.0000000000000003e-02  8.1999999999999995e-01  0.0000000000000000e+00
5.0000000000000003e-02  8.1999999999999995e-01  0.0000000000000000e+00
-5.0000000000000003e-02  8.3999999999999997e-01  0.0000000000000000e+00
5.0000000000000003e-02  8.3999999999999997e-01  0.0000000000000000e+00
-5.0000000000000003e-02  8.5999999999999999e-01  0.0000000000000000e+00
5.0000000000000003e-02  8.5999999999999999e-01  0.0000000000000000e+00
-5.0000000000000003e-02  8.8000000000000000e-01  0.0000000000000000e+00
5.0000000000000003e-02  8.8000000000000000e-01  0.0000000000000000e+00
-5.0000000000000003e-02  9.0000000000000002e-01  0.0000000000000000e+00
5.0000000000000003e-02  9.0000000000000002e-01  0.0000000000000000e+00
-5.0000000000000003e-02  9.2000000000000004e-01  0.0000000000000000e+00
5.0000000000000003e-02  9.2000000000000004e-01  0.0000000000000000e+00
-5.0000000000000003e-02  9.3999999999999995e-01  0.0000000000000000e+00
5.0000000000000003e-02  9.3999999999999995e-01  0.0000000000000000e+00
-5.0000000000000003e-02  9.5999999999999996e-01  0.0000000000000000e+00
5.0000000000000003e-02  9.5999999999999996e-01  0.0000000000000000e+00
-5.0000000000000003e-02  9.7999999999999998e-01  0.0000000000000000e+00
5.0000000000000003e-02  9.7999999999999998e-01  0.0000000000000000e+00
-5.0000000000000003e-02  1.0000000000000000e+00  0.0000000000000000e+00
-3.0000000000000002e-02  1.0000000000000000e+00  0.0000000000000000e+00
-1.0000000000000002e-02  1.0000000000000000e+00  0.0000000000000000e+00
1.0000000000000009e-02  1.0000000000000000e+00  0.0000000000000000e+00
2.9999999999999999e-02  1.0000000000000000e+00  0.0000000000000000e+00
5.0000000000000003e-02  1.0000000000000000e+00  0.0000000000000000e+00

CELLS 0 0


CELL_TYPES 0


POINT_DATA 106

VECTORS VertexNormals float

0.0000000000000000e+00 0.0000000000000000e+00 0
0.0000000000000000e+00 0.0000000000000000e+00 0
0.0000000000000000e+00 0.0000000000000000e+00 0
0.0000000000000000e+00 0.0000000000000000e+00 0
0.0000000000000000e+00 0.0000000000000000e+00 0
0.0000000000000000e+00 0.0000000000000000e+00 0
0.0000000000000000e+00 0.0000000000000000e+00 0
0.0000000000000000e+00 0.0000000000000000e+00 0
0.0000000000000000e+00 0.0000000000000000e+00 0
0.0000000000000000e+00 0.0000000000000000e+00 0
0.0000000000000000e+00 0.0000000000000000e+00 0
0.0000000000000000e+00 0.0000000000000000e+00 0
0.0000000000000000e+00 0.0000000000000000e+00 0
0.0000000000000000e+00 0.0000000000000000e+00 0
0.0000000000000000e+00 0.0000000000000000e+00 0
0.0000000000000000e+00 0.0000000000000000e+00 0
0.0000000000000000e+00 0.0000000000000000e+00 0
0.0000000000000000e+00 0.0000000000000000e+00 0
0.0000000000000000e+00 0.0000000000000000e+00 0
0.0000000000000000e+00 0.0000000000000000e+00 0
0.0000000000000000e+00 0.0000000000000000e+00 0
0.0000000000000000e+00 0.0000000000000000e+00 0
0.0000000000000000e+00 0.0000000000000000e+00 0
0.0000000000000000e+00 0.0000000000000000e+00 0
0.0000000000000000e+00 0.0000000000000000e+00 0
0.0000000000000000e+00 0.0000000000000000e+00 0
0.0000000000000000e+00 0.0000000000000000e+00 0
0.0000000000000000e+00 0.0000000000000000e+00 0
0.0000000000000000e+00 0.0000000000000000e+00 0
0.0000000000000000e+00 0.0000000000000000e+00 0
0.0000000000000000e+00 0.0000000000000000e+00 0
0.0000000000000000e+00 0.0000000000000000e+00 0
0.0000000000000000e+00 0.0000000000000000e+00 0
0.0000000000000000e+00 0.0000000000000000e+00 0
0.0000000000000000e+00 0.0000000000000000e+00 0
0.0000000000000000e+00 0.0000000000000000e+00 0
0.0000000000000000e+00 0.0000000000000000e+00 0
0.0000000000000000e+00 0.0000000000000000e+00 0
0.0000000000000000e+00 0.0000000000000000e+00 0
0.0000000000000000e+00 0.0000000000000000e+00 0
0.0000000000000000e+00 0.0000000000000000e+00 0
0.0000000000000000e+00 0.0000000000000000e+00 0
0.0000000000000000e+00 0.0000000000000000e+00 0
0.0000000000000000e+00 0.0000000000000000e+00 0
0.0000000000000000e+00 0.0000000000000000e+00 0
0.0000000000000000e+00 0.0000000000000000e+00 0
0.0000000000000000e+00 0.0000000000000000e+00 0
0.0000000000000000e+00 0.0000000000000000e+00 0
0.0000000000000000e+00 0.0000000000000000e+00 0
0.0000000000000000e+00 0.0000000000000000e+00 0
0.0000000000000000e+00 0.0000000000000000e+00 0
0.0000000000000000e+00 0.0000000000000000e+00 0
0.0000000000000000e+00 0.0000000000000000e+00 0
0.0000000000000000e+00 0.0000000000000000e+00 0
0.0000000000000000e+00 0.0000000000000000e+00 0
0.0000000000000000e+00 0.0000000000000000e+00 0
0.0000000000000000e+00 0.0000000000000000e+00 0
0.0000000000000000e+00 0.0000000000000000e+00 0
0.0000000000000000e+00 0.0000000000000000e+00 0
0.0000000000000000e+00 0.0000000000000000e+00 0
0.0000000000000000e+00 0.0000000000000000e+00 0
0.0000000000000000e+00 0.0000000000000000e+00 0
0.0000000000000000e+00 0.0000000000000000e+00 0
0.0000000000000000e+00 0.0000000000000000e+00 0
0.0000000000000000e+00 0.0000000000000000e+00 0
0.0000000000000000e+00 0.0000000000000000e+00 0
0.0000000000000000e+00 0.0000000000000000e+00 0
0.0000000000000000e+00 0.0000000000000000e+00 0
0.0000000000000000e+00 0.0000000000000000e+00 0
0.0000000000000000e+00 0.0000000000000000e+00 0
0.0000000000000000e+00 0.0000000000000000e+00 0
0.0000000000000000e+00 0.0000000000000000e+00 0
0.0000000000000000e+00 0.0000000000000000e+00 0
0.0000000000000000e+00 0.0000000000000000e+00 0
0.0000000000000000e+00 0.0000000000000000e+00 0
0.0000000000000000e+00 0.0000000000000000e+00 0
0.0000000000000000e+00 0.0000000000000000e+00 0
0.0000000000000000e+00 0.0000000000000000e+00 0
0.0000000000000000e+00 0.0000000000000000e+00 0
0.0000000000000000e+00 0.0000000000000000e+00 0
0.0000000000000000e+00 0.0000000000000000e+00 0
0.0000000000000000e+00 0.0000000000000000e+00 0
0.0000000000000000e+00 0.0000000000000000e+00 0
0.0000000000000000e+00 0.0000000000000000e+00 0
0.0000000000000000e+00 0.0000000000000000e+00 0
0.0000000000000000e+00 0.0000000000000000e+00 0
0.0000000000000000e+00 0.0000000000000000e+00 0
0.0000000000000000e+00 0.0000000000000000e+00 0
0.0000000000000000e+00 0.0000000000000000e+00 0
0.0000000000000000e+00 0.0000000000000000e+00 0
0.0000000000000000e+00 0.0000000000000000e+00 0
0.0000000000000000e+00 0.0000000000000000e+00 0
0.0000000000000000e+00 0.0000000000000000e+00 0
0.0000000000000000e+00 0.0000000000000000e+00 0
0.0000000000000000e+00 0.0000000000000000e+00 0
0.0000000000000000e+00 0.0000000000000000e+00 0
0.0000000000000000e+00 0.0000000000000000e+00 0
0.0000000000000000e+00 0.0000000000000000e+00 0
0.0000000000000000e+00 0.0000000000000000e+00 0
0.0000000000000000e+00 0.0000000000000000e+00 0
0.0000000000000000e+00 0.0000000000000000e+00 0
0.0000000000000000e+00 0.0000000000000000e+00 0
0.0000000000000000e+00 0.0000000000000000e+00 0
0.0000000000000000e+00 0.0000000000000000e+00 0
0.0000000000000000e+00 0.0000000000000000e+00 0
0.0000000000000000e+00 0.0000000000000000e+00 0

VECTORS Displacements1 float
-5.9185360527743031e-17 3.3064199027293049e-17 0
-1.5573384099659054e-22 7.1138252513969328e-23 0
2.0972585501698716e-06 1.0629578643857878e-06 0
2.0142255773853475e-06 -1.0093557756801257e-06 0
3.6749719798607096e-06 1.5520197445502531e-06 0
3.5425531943359744e-06 -1.4734274348065985e-06 0
4.7952141479550195e-06 1.6970935679424568e-06 0
4.6843380342616907e-06 -1.5973537115015742e-06 0
5.6525029555545206e-06 1.6024424196518746e-06 0
5.5864821098820654e-06 -1.5017631561654716e-06 0
7.6708853237286287e-06 1.2749954830221788e-06 0
7.3614238959346893e-06 -1.0123109205379170e-06 0
6.8841323637836101e-06 7.5205365395359740e-07 0
6.8073100968871707e-06 -6.3218842944473784e-07 0
7.3085373694739868e-06 5.6354674332732914e-07 0
7.1789980986567774e-06 -3.4599405556242292e-07 0
7.3321806280290214e-06 3.9075106131905403e-07 0
7.2007275140945721e-06 -1.3934977525269755e-07 0
7.0826066365697539e-06 3.6609694382469902e-07 0
7.0052935839542781e-06 -1.0863454495271368e-07 0
8.3288041394329495e-06 3.1723133527490837e-07 0
8.0078131258254470e-06 1.3937315546554974e-07 0
7.0845503454893585e-06 1.3611033530179531e-07 0
6.9928728816370405e-06 1.6499911547339134e-07 0
7.3325677483824923e-06 2.6569012094049197e-07 0
7.2081010564087037e-06 1.5091021235844319e-07 0
7.3705290120995931e-06 3.1583211723162443e-07 0
7.2451867071314509e-06 1.4735219562592069e-07 0
7.2003071465764015e-06 4.0972622129659352e-07 0
7.1301951130942183e-06 6.6046762164292925e-08 0
8.5203415667974711e-06 4.1249553041026888e-07 0
8.2383910599302468e-06 3.0506524672256975e-07 0
7.2875270128438806e-06 2.4763153920999892e-07 0
7.1957577085242567e-06 2.9358366764912283e-07 0
7.5404451773051205e-06 4.0561241895937051e-07 0
7.4314807898515142e-06 2.6403443015774262e-07 0
7.5920642294480866e-06 4.7984255291935403e-07 0
7.4855550882588767e-06 2.4516967531159653e-07 0
7.4373588338708831e-06 5.8755452082528038e-07 0
7.3807912207285394e-06 1.4984945278710683e-07 0
8.7847551860919183e-06 6.0979769052679727e-07 0
8.5826755020543358e-06 4.2546864049080715e-07 0
7.5653465194484066e-06 4.4306199505083345e-07 0
7.4777085614131543e-06 3.9304021548100102e-07 0
7.8398170379982509e-06 6.1339850145831925e-07 0
7.7585146924501428e-06 3.6597362165949662e-07 0
7.9146424042029504e-06 6.9978581766274279e-07 0
7.8373742113017617e-06 3.4910512527136959e-07 0
7.7831840732894240e-06 8.1884288515795346e-07 0
7.7455119937708758e-06 2.4629108328485837e-07 0
9.1670915308842332e-06 8.7027657316073476e-07 0
9.0853475623673807e-06 5.6739452646576246e-07 0
7.9666075287088551e-06 6.9567440550252366e-07 0
7.8849325696991990e-06 5.1700795142801583e-07 0
8.2649111628173096e-06 8.8845979141051472e-07 0
8.2229703787194577e-06 4.9086072160632965e-07 0
8.3704978813771287e-06 9.9711181540305823e-07 0
8.3339717878688080e-06 4.7390935346113577e-07 0
8.2733295044963964e-06 1.1370004511067828e-06 0
8.2588090394235079e-06 3.5769647434845459e-07 0
9.7043771197623122e-06 1.2416586975924550e-06 0
9.7940279234156394e-06 7.3077895527848903e-07 0
8.5497512894030552e-06 1.0783220139910870e-06 0
8.4661158126681713e-06 6.6158814661661620e-07 0
8.9050091698356929e-06 1.3391398299868925e-06 0
8.8871413013278024e-06 6.4503559120423733e-07 0
9.0795486449989109e-06 1.5433172800089145e-06 0
9.0370407225753312e-06 6.5036517450017183e-07 0
9.0627353659636151e-06 1.8157153875655688e-06 0
8.9687064870365526e-06 5.5647947387737384e-07 0
1.0617164304669974e-05 2.1532955481028079e-06 0
1.0750651063324940e-05 1.0573405981046786e-06 0
9.5258903030473235e-06 2.1547420633104796e-06 0
9.1692251820828698e-06 1.0609300821392513e-06 0
9.9361879522094138e-06 2.7309121205402074e-06 0
9.6165954839500959e-06 1.1243214303780204e-06 0
1.0170009861002410e-05 3.2804480759185289e-06 0
9.7166321556878985e-06 1.2146379218314609e-06 0
1.0134341539172969e-05 3.9239820881336045e-06 0
9.4968216087568187e-06 1.1581689655334973e-06 0
1.1522921560880916e-05 4.8192498237253189e-06 0
1.1392536353342376e-05 1.7009503848501972e-06 0
1.0145559246621834e-05 5.5916445240972539e-06 0
9.1733744222908049e-06 1.3014580377676478e-06 0
1.0483347292198357e-05 7.4888297082495587e-06 0
9.6676662925631294e-06 4.6959777262078509e-07 0
1.1206333763762873e-05 9.9574186215669829e-06 0
1.0411630556906232e-05 -9.6950323024589457e-07 0
1.2817815587883833e-05 1.3049711388786796e-05 0
1.1982768715203498e-05 -3.1553500359398868e-06 0
1.7890796315935490e-05 1.6774188341884408e-05 0
1.8068209098804535e-05 -4.7946871369411654e-06 0
2.1005300797696426e-05 1.9350983538700745e-05 0
2.0172060428275864e-05 -7.1653429341454838e-06 0
2.7585657419557511e-05 2.2934238002998390e-05 0
2.7288361279167390e-05 -9.4097252064849950e-06 0
3.5157040757682991e-05 2.5917790742496654e-05 0
3.4963431225479049e-05 -1.1275099749575131e-05 0
4.5647525378130200e-05 2.8953523481409549e-05 0
4.4925503329413502e-05 -1.2261353384482067e-05 0
5.4013118963271471e-05 2.9044257971167447e-05 0
5.3958579435636178e-05 2.0273636953066585e-05 0
5.2592509195439882e-05 1.1883503665532873e-05 0
5.2248059956945772e-05 4.4262576355326084e-06 0
5.3072904961069097e-05 -3.8396987197408565e-06 0
5.2841453962045253e-05 -1.3047620517320202e-05 0

VECTORS Forces1 float
-4.1150727017720329e-01 2.4446399396396853e-01 0
-2.5467732462265524e-01 -1.5194162021207330e-01 0
5.3703129691712777e+00 -2.9749887381544160e+00 0
3.4187083552677779e+00 1.8916428074729801e+00 0
5.8803560051177959e+00 -9.1097472342377550e-01 0
3.7570473689211963e+00 5.8075920830722372e-01 0
3.7457639667467055e+00 1.5365162260020709e-01 0
2.3950365741968667e+00 -9.7002823450562201e-02 0
-5.6465637153012394e-01 -2.0561605752172394e-02 0
-3.6166803286881383e-01 1.3112669630406819e-02 0
1.4434864203214186e+01 7.2728422262949687e-03 0
9.2625699909260888e+00 1.8871155847331809e-02 0
-6.1566538140327931e-01 -6.1683805213328497e-04 0
-3.9729940006248171e-01 -1.8182367749015247e-03 0
4.1367189599170002e+00 -3.0845761562034858e-04 0
2.6679337033235551e+00 1.6439861398797263e-02 0
4.1370588654387834e+00 -3.9753741837451477e-04 0
2.6682186669982362e+00 1.6494213271975370e-02 0
-6.1653210449124562e-01 -2.0942637575595909e-04 0
-3.9786451742499634e-01 -2.2810072297724453e-03 0
1.4667521806400101e+01 -2.9733093978416276e-04 0
9.5036517690054687e+00 9.9079379973864484e-02 0
-6.2141240572261258e-01 -6.2947347004914357e-04 0
-4.0474738872352412e-01 -5.4237471892787060e-03 0
4.1717771064006390e+00 2.6523384394644112e-03 0
2.7170335074933516e+00 3.8538920221155591e-02 0
4.1717892358361164e+00 2.6569456747563064e-03 0
2.7170753143482709e+00 3.8558914589452015e-02 0
-6.2148703732251043e-01 -6.7127925841718240e-04 0
-4.0498418792670526e-01 -5.5717857475498607e-03 0
1.4686317541066749e+01 2.3360111714686643e-02 0
9.6144659447701919e+00 1.7334002678427526e-01 0
-6.1989214488621136e-01 -1.9010113646325503e-03 0
-4.0887013830082924e-01 -8.6270237459684790e-03 0
4.1606885186525817e+00 1.1323164258927867e-02 0
2.7444895727134639e+00 6.0096123165375666e-02 0
4.1606676787914711e+00 1.1328776318531679e-02 0
2.7445252859344973e+00 6.0118916811331385e-02 0
-6.1974343297611034e-01 -1.9969262940811297e-03 0
-4.0904403768401498e-01 -8.7610266898252593e-03 0
1.4610127808833795e+01 6.3677958766869908e-02 0
9.7194534033988038e+00 2.4867399666959711e-01 0
-6.1502551029192376e-01 -4.1371456326244763e-03 0
-4.1351669749163655e-01 -1.1720126043048515e-02 0
4.1275890372131840e+00 2.6312885608843439e-02 0
2.7760193604723535e+00 8.1065021769741050e-02 0
4.1275419481866740e+00 2.6322445995246854e-02 0
2.7760606084927555e+00 8.1090353237921214e-02 0
-6.1470851981616237e-01 -4.3123337124399324e-03 0
-4.1370372787661741e-01 -1.1834596067797597e-02 0
1.4446943701613497e+01 1.3861948001885149e-01 0
9.8351479031551836e+00 3.1877210140884821e-01 0
-6.0575497510375964e-01 -8.2767887059492385e-03 0
-4.1847983572069514e-01 -1.4515503502781690e-02 0
4.0646411524106290e+00 5.4013586194267410e-02 0
2.8096361347091605e+00 1.0020850386031566e-01 0
4.0645674457829370e+00 5.4023213058854651e-02 0
2.8096866289542315e+00 1.0024188905614258e-01 0
-6.0529525267978646e-01 -8.5435637100577371e-03 0
-4.1871034378369648e-01 -1.4621708575083079e-02 0
1.4174121121399562e+01 2.4124347103392249e-01 0
9.9644499230083099e+00 3.9495450414103828e-01 0
-5.9395185489115510e-01 -1.3449181398276777e-02 0
-4.2530723715704449e-01 -1.8025715705561135e-02 0
3.9847478757580368e+00 8.8097495851637411e-02 0
2.8560086370632205e+00 1.2463641017189793e-01 0
3.9846057333657861e+00 8.8119160837167032e-02 0
2.8560591167408873e+00 1.2467870698488986e-01 0
-5.9318651536102940e-01 -1.4029351173083465e-02 0
-4.2556924442137978e-01 -1.8080235087781352e-02 0
1.3830180373285272e+01 4.8266498138523639e-01 0
1.0148350591773285e+01 4.5914236208799752e-01 0
-5.6903081996427296e-01 -2.8478294925175292e-02 0
-4.3129175249506019e-01 -1.9957302767582293e-02 0
3.8137022161779321e+00 1.8850584525544128e-01 0
2.8953832420142702e+00 1.3885950019996590e-01 0
3.8134412973412659e+00 1.8843039130674985e-01 0
2.8954244428467724e+00 1.3894270953520346e-01 0
-5.6923669624612450e-01 -2.9354783195330164e-02 0
-4.3289738862319255e-01 -2.0072798396363240e-02 0
1.3191784156604607e+01 6.4633679060412275e-01 0
1.0473896382469395e+01 6.3342427076647778e-01 0
-5.7612867844845939e-01 -3.4514466220084451e-02 0
-4.7855922620057090e-01 -2.8781091723300095e-02 0
3.8514975586433655e+00 2.1875766345137157e-01 0
3.2075542344407757e+00 2.0112620791584435e-01 0
3.8504198946638732e+00 2.1842617783191590e-01 0
3.2072446172608444e+00 2.0126360861924550e-01 0
-5.7787014015743365e-01 -3.9373663095186986e-02 0
-4.8236282505989175e-01 -2.7074931279465673e-02 0
1.3694449895081503e+01 2.0052545394271735e+00 0
1.2176679524486300e+01 3.2337124806235301e-01 0
-5.4209631443763062e-01 -1.5290425591515255e-01 0
-5.3831321524576092e-01 1.6281944406770318e-02 0
3.7431921957196947e+00 1.0164304742984833e+00 0
3.7666999824986673e+00 -2.6119609891452331e-02 0
2.9265061490972681e+00 6.8149594028989879e-01 0
3.0379079671895819e+00 -5.7396366184448239e-02 0
7.5374079749354443e+00 3.0689362606171127e+00 0
6.7071980720378441e+00 4.6615030158888365e-01 0
7.2274216991667362e-01 4.0269531158157651e-01 0
5.1087064272624554e+00 1.9236365006639748e+00 0
2.6566521041581028e+00 1.6154805116285178e+00 0
2.5073545250673250e+00 1.9659788392283148e+00 0
4.2276502962861748e+00 1.3437075855248592e+00 0
6.1221513676007000e-01 -1.6694046723003739e-01 0

