# vtk DataFile Version 2.0

ASCII

DATASET UNSTRUCTURED_GRID

POINTS 106 float 

-5.0000000000000003e-02  0.0000000000000000e+00  0.0000000000000000e+00
5.0000000000000003e-02  0.0000000000000000e+00  0.0000000000000000e+00
-5.0000000000000003e-02  2.0000000000000000e-02  0.0000000000000000e+00
5.0000000000000003e-02  2.0000000000000000e-02  0.0000000000000000e+00
-5.0000000000000003e-02  4.0000000000000001e-02  0.0000000000000000e+00
5.0000000000000003e-02  4.0000000000000001e-02  0.0000000000000000e+00
-5.0000000000000003e-02  5.9999999999999998e-02  0.0000000000000000e+00
5.0000000000000003e-02  5.9999999999999998e-02  0.0000000000000000e+00
-5.0000000000000003e-02  8.0000000000000002e-02  0.0000000000000000e+00
5.0000000000000003e-02  8.0000000000000002e-02  0.0000000000000000e+00
-5.0000000000000003e-02  1.0000000000000001e-01  0.0000000000000000e+00
5.0000000000000003e-02  1.0000000000000001e-01  0.0000000000000000e+00
-5.0000000000000003e-02  1.2000000000000000e-01  0.0000000000000000e+00
5.0000000000000003e-02  1.2000000000000000e-01  0.0000000000000000e+00
-5.0000000000000003e-02  1.4000000000000001e-01  0.0000000000000000e+00
5.0000000000000003e-02  1.4000000000000001e-01  0.0000000000000000e+00
-5.0000000000000003e-02  1.6000000000000000e-01  0.0000000000000000e+00
5.0000000000000003e-02  1.6000000000000000e-01  0.0000000000000000e+00
-5.0000000000000003e-02  1.7999999999999999e-01  0.0000000000000000e+00
5.0000000000000003e-02  1.7999999999999999e-01  0.0000000000000000e+00
-5.0000000000000003e-02  2.0000000000000001e-01  0.0000000000000000e+00
5.0000000000000003e-02  2.0000000000000001e-01  0.0000000000000000e+00
-5.0000000000000003e-02  2.2000000000000000e-01  0.0000000000000000e+00
5.0000000000000003e-02  2.2000000000000000e-01  0.0000000000000000e+00
-5.0000000000000003e-02  2.3999999999999999e-01  0.0000000000000000e+00
5.0000000000000003e-02  2.3999999999999999e-01  0.0000000000000000e+00
-5.0000000000000003e-02  2.6000000000000001e-01  0.0000000000000000e+00
5.0000000000000003e-02  2.6000000000000001e-01  0.0000000000000000e+00
-5.0000000000000003e-02  2.8000000000000003e-01  0.0000000000000000e+00
5.0000000000000003e-02  2.8000000000000003e-01  0.0000000000000000e+00
-5.0000000000000003e-02  2.9999999999999999e-01  0.0000000000000000e+00
5.0000000000000003e-02  2.9999999999999999e-01  0.0000000000000000e+00
-5.0000000000000003e-02  3.2000000000000001e-01  0.0000000000000000e+00
5.0000000000000003e-02  3.2000000000000001e-01  0.0000000000000000e+00
-5.0000000000000003e-02  3.4000000000000002e-01  0.0000000000000000e+00
5.0000000000000003e-02  3.4000000000000002e-01  0.0000000000000000e+00
-5.0000000000000003e-02  3.5999999999999999e-01  0.0000000000000000e+00
5.0000000000000003e-02  3.5999999999999999e-01  0.0000000000000000e+00
-5.0000000000000003e-02  3.8000000000000000e-01  0.0000000000000000e+00
5.0000000000000003e-02  3.8000000000000000e-01  0.0000000000000000e+00
-5.0000000000000003e-02  4.0000000000000002e-01  0.0000000000000000e+00
5.0000000000000003e-02  4.0000000000000002e-01  0.0000000000000000e+00
-5.0000000000000003e-02  4.1999999999999998e-01  0.0000000000000000e+00
5.0000000000000003e-02  4.1999999999999998e-01  0.0000000000000000e+00
-5.0000000000000003e-02  4.4000000000000000e-01  0.0000000000000000e+00
5.0000000000000003e-02  4.4000000000000000e-01  0.0000000000000000e+00
-5.0000000000000003e-02  4.6000000000000002e-01  0.0000000000000000e+00
5.0000000000000003e-02  4.6000000000000002e-01  0.0000000000000000e+00
-5.0000000000000003e-02  4.7999999999999998e-01  0.0000000000000000e+00
5.0000000000000003e-02  4.7999999999999998e-01  0.0000000000000000e+00
-5.0000000000000003e-02  5.0000000000000000e-01  0.0000000000000000e+00
5.0000000000000003e-02  5.0000000000000000e-01  0.0000000000000000e+00
-5.0000000000000003e-02  5.2000000000000002e-01  0.0000000000000000e+00
5.0000000000000003e-02  5.2000000000000002e-01  0.0000000000000000e+00
-5.0000000000000003e-02  5.4000000000000004e-01  0.0000000000000000e+00
5.0000000000000003e-02  5.4000000000000004e-01  0.0000000000000000e+00
-5.0000000000000003e-02  5.6000000000000005e-01  0.0000000000000000e+00
5.0000000000000003e-02  5.6000000000000005e-01  0.0000000000000000e+00
-5.0000000000000003e-02  5.7999999999999996e-01  0.0000000000000000e+00
5.0000000000000003e-02  5.7999999999999996e-01  0.0000000000000000e+00
-5.0000000000000003e-02  5.9999999999999998e-01  0.0000000000000000e+00
5.0000000000000003e-02  5.9999999999999998e-01  0.0000000000000000e+00
-5.0000000000000003e-02  6.2000000000000000e-01  0.0000000000000000e+00
5.0000000000000003e-02  6.2000000000000000e-01  0.0000000000000000e+00
-5.0000000000000003e-02  6.4000000000000001e-01  0.0000000000000000e+00
5.0000000000000003e-02  6.4000000000000001e-01  0.0000000000000000e+00
-5.0000000000000003e-02  6.6000000000000003e-01  0.0000000000000000e+00
5.0000000000000003e-02  6.6000000000000003e-01  0.0000000000000000e+00
-5.0000000000000003e-02  6.8000000000000005e-01  0.0000000000000000e+00
5.0000000000000003e-02  6.8000000000000005e-01  0.0000000000000000e+00
-5.0000000000000003e-02  6.9999999999999996e-01  0.0000000000000000e+00
5.0000000000000003e-02  6.9999999999999996e-01  0.0000000000000000e+00
-5.0000000000000003e-02  7.1999999999999997e-01  0.0000000000000000e+00
5.0000000000000003e-02  7.1999999999999997e-01  0.0000000000000000e+00
-5.0000000000000003e-02  7.3999999999999999e-01  0.0000000000000000e+00
5.0000000000000003e-02  7.3999999999999999e-01  0.0000000000000000e+00
-5.0000000000000003e-02  7.6000000000000001e-01  0.0000000000000000e+00
5.0000000000000003e-02  7.6000000000000001e-01  0.0000000000000000e+00
-5.0000000000000003e-02  7.8000000000000003e-01  0.0000000000000000e+00
5.0000000000000003e-02  7.8000000000000003e-01  0.0000000000000000e+00
-5.0000000000000003e-02  8.0000000000000004e-01  0.0000000000000000e+00
5.0000000000000003e-02  8.0000000000000004e-01  0.0000000000000000e+00
-5.0000000000000003e-02  8.1999999999999995e-01  0.0000000000000000e+00
5.0000000000000003e-02  8.1999999999999995e-01  0.0000000000000000e+00
-5.0000000000000003e-02  8.3999999999999997e-01  0.0000000000000000e+00
5.0000000000000003e-02  8.3999999999999997e-01  0.0000000000000000e+00
-5.0000000000000003e-02  8.5999999999999999e-01  0.0000000000000000e+00
5.0000000000000003e-02  8.5999999999999999e-01  0.0000000000000000e+00
-5.0000000000000003e-02  8.8000000000000000e-01  0.0000000000000000e+00
5.0000000000000003e-02  8.8000000000000000e-01  0.0000000000000000e+00
-5.0000000000000003e-02  9.0000000000000002e-01  0.0000000000000000e+00
5.0000000000000003e-02  9.0000000000000002e-01  0.0000000000000000e+00
-5.0000000000000003e-02  9.2000000000000004e-01  0.0000000000000000e+00
5.0000000000000003e-02  9.2000000000000004e-01  0.0000000000000000e+00
-5.0000000000000003e-02  9.3999999999999995e-01  0.0000000000000000e+00
5.0000000000000003e-02  9.3999999999999995e-01  0.0000000000000000e+00
-5.0000000000000003e-02  9.5999999999999996e-01  0.0000000000000000e+00
5.0000000000000003e-02  9.5999999999999996e-01  0.0000000000000000e+00
-5.0000000000000003e-02  9.7999999999999998e-01  0.0000000000000000e+00
5.0000000000000003e-02  9.7999999999999998e-01  0.0000000000000000e+00
-5.0000000000000003e-02  1.0000000000000000e+00  0.0000000000000000e+00
-3.0000000000000002e-02  1.0000000000000000e+00  0.0000000000000000e+00
-1.0000000000000002e-02  1.0000000000000000e+00  0.0000000000000000e+00
1.0000000000000009e-02  1.0000000000000000e+00  0.0000000000000000e+00
2.9999999999999999e-02  1.0000000000000000e+00  0.0000000000000000e+00
5.0000000000000003e-02  1.0000000000000000e+00  0.0000000000000000e+00

CELLS 0 0


CELL_TYPES 0


POINT_DATA 106

VECTORS VertexNormals float

0.0000000000000000e+00 0.0000000000000000e+00 0
0.0000000000000000e+00 0.0000000000000000e+00 0
0.0000000000000000e+00 0.0000000000000000e+00 0
0.0000000000000000e+00 0.0000000000000000e+00 0
0.0000000000000000e+00 0.0000000000000000e+00 0
0.0000000000000000e+00 0.0000000000000000e+00 0
0.0000000000000000e+00 0.0000000000000000e+00 0
0.0000000000000000e+00 0.0000000000000000e+00 0
0.0000000000000000e+00 0.0000000000000000e+00 0
0.0000000000000000e+00 0.0000000000000000e+00 0
0.0000000000000000e+00 0.0000000000000000e+00 0
0.0000000000000000e+00 0.0000000000000000e+00 0
0.0000000000000000e+00 0.0000000000000000e+00 0
0.0000000000000000e+00 0.0000000000000000e+00 0
0.0000000000000000e+00 0.0000000000000000e+00 0
0.0000000000000000e+00 0.0000000000000000e+00 0
0.0000000000000000e+00 0.0000000000000000e+00 0
0.0000000000000000e+00 0.0000000000000000e+00 0
0.0000000000000000e+00 0.0000000000000000e+00 0
0.0000000000000000e+00 0.0000000000000000e+00 0
0.0000000000000000e+00 0.0000000000000000e+00 0
0.0000000000000000e+00 0.0000000000000000e+00 0
0.0000000000000000e+00 0.0000000000000000e+00 0
0.0000000000000000e+00 0.0000000000000000e+00 0
0.0000000000000000e+00 0.0000000000000000e+00 0
0.0000000000000000e+00 0.0000000000000000e+00 0
0.0000000000000000e+00 0.0000000000000000e+00 0
0.0000000000000000e+00 0.0000000000000000e+00 0
0.0000000000000000e+00 0.0000000000000000e+00 0
0.0000000000000000e+00 0.0000000000000000e+00 0
0.0000000000000000e+00 0.0000000000000000e+00 0
0.0000000000000000e+00 0.0000000000000000e+00 0
0.0000000000000000e+00 0.0000000000000000e+00 0
0.0000000000000000e+00 0.0000000000000000e+00 0
0.0000000000000000e+00 0.0000000000000000e+00 0
0.0000000000000000e+00 0.0000000000000000e+00 0
0.0000000000000000e+00 0.0000000000000000e+00 0
0.0000000000000000e+00 0.0000000000000000e+00 0
0.0000000000000000e+00 0.0000000000000000e+00 0
0.0000000000000000e+00 0.0000000000000000e+00 0
0.0000000000000000e+00 0.0000000000000000e+00 0
0.0000000000000000e+00 0.0000000000000000e+00 0
0.0000000000000000e+00 0.0000000000000000e+00 0
0.0000000000000000e+00 0.0000000000000000e+00 0
0.0000000000000000e+00 0.0000000000000000e+00 0
0.0000000000000000e+00 0.0000000000000000e+00 0
0.0000000000000000e+00 0.0000000000000000e+00 0
0.0000000000000000e+00 0.0000000000000000e+00 0
0.0000000000000000e+00 0.0000000000000000e+00 0
0.0000000000000000e+00 0.0000000000000000e+00 0
0.0000000000000000e+00 0.0000000000000000e+00 0
0.0000000000000000e+00 0.0000000000000000e+00 0
0.0000000000000000e+00 0.0000000000000000e+00 0
0.0000000000000000e+00 0.0000000000000000e+00 0
0.0000000000000000e+00 0.0000000000000000e+00 0
0.0000000000000000e+00 0.0000000000000000e+00 0
0.0000000000000000e+00 0.0000000000000000e+00 0
0.0000000000000000e+00 0.0000000000000000e+00 0
0.0000000000000000e+00 0.0000000000000000e+00 0
0.0000000000000000e+00 0.0000000000000000e+00 0
0.0000000000000000e+00 0.0000000000000000e+00 0
0.0000000000000000e+00 0.0000000000000000e+00 0
0.0000000000000000e+00 0.0000000000000000e+00 0
0.0000000000000000e+00 0.0000000000000000e+00 0
0.0000000000000000e+00 0.0000000000000000e+00 0
0.0000000000000000e+00 0.0000000000000000e+00 0
0.0000000000000000e+00 0.0000000000000000e+00 0
0.0000000000000000e+00 0.0000000000000000e+00 0
0.0000000000000000e+00 0.0000000000000000e+00 0
0.0000000000000000e+00 0.0000000000000000e+00 0
0.0000000000000000e+00 0.0000000000000000e+00 0
0.0000000000000000e+00 0.0000000000000000e+00 0
0.0000000000000000e+00 0.0000000000000000e+00 0
0.0000000000000000e+00 0.0000000000000000e+00 0
0.0000000000000000e+00 0.0000000000000000e+00 0
0.0000000000000000e+00 0.0000000000000000e+00 0
0.0000000000000000e+00 0.0000000000000000e+00 0
0.0000000000000000e+00 0.0000000000000000e+00 0
0.0000000000000000e+00 0.0000000000000000e+00 0
0.0000000000000000e+00 0.0000000000000000e+00 0
0.0000000000000000e+00 0.0000000000000000e+00 0
0.0000000000000000e+00 0.0000000000000000e+00 0
0.0000000000000000e+00 0.0000000000000000e+00 0
0.0000000000000000e+00 0.0000000000000000e+00 0
0.0000000000000000e+00 0.0000000000000000e+00 0
0.0000000000000000e+00 0.0000000000000000e+00 0
0.0000000000000000e+00 0.0000000000000000e+00 0
0.0000000000000000e+00 0.0000000000000000e+00 0
0.0000000000000000e+00 0.0000000000000000e+00 0
0.0000000000000000e+00 0.0000000000000000e+00 0
0.0000000000000000e+00 0.0000000000000000e+00 0
0.0000000000000000e+00 0.0000000000000000e+00 0
0.0000000000000000e+00 0.0000000000000000e+00 0
0.0000000000000000e+00 0.0000000000000000e+00 0
0.0000000000000000e+00 0.0000000000000000e+00 0
0.0000000000000000e+00 0.0000000000000000e+00 0
0.0000000000000000e+00 0.0000000000000000e+00 0
0.0000000000000000e+00 0.0000000000000000e+00 0
0.0000000000000000e+00 0.0000000000000000e+00 0
0.0000000000000000e+00 0.0000000000000000e+00 0
0.0000000000000000e+00 0.0000000000000000e+00 0
0.0000000000000000e+00 0.0000000000000000e+00 0
0.0000000000000000e+00 0.0000000000000000e+00 0
0.0000000000000000e+00 0.0000000000000000e+00 0
0.0000000000000000e+00 0.0000000000000000e+00 0
0.0000000000000000e+00 0.0000000000000000e+00 0

VECTORS Displacements1 float
-5.5260710051660577e-17 3.0872362009526641e-17 0
-1.0439330952643936e-22 2.6243876450365867e-23 0
1.3897754613619641e-06 4.2944353806954705e-07 0
1.3480630332349745e-06 -3.8923291560435492e-07 0
2.2789760623607957e-06 5.6774472667401060e-07 0
2.1934156606343786e-06 -5.1106592759957156e-07 0
2.6633886086057361e-06 5.0982771707017470e-07 0
2.5859390447915022e-06 -4.5176845398073204e-07 0
2.7448306816327016e-06 3.8495127099508776e-07 0
2.6991010824466494e-06 -3.4492909592461487e-07 0
3.9957688215092305e-06 2.1930458127776591e-07 0
3.7686768545319118e-06 -3.3280283019759987e-08 0
2.8495364640237001e-06 -2.2100850343096594e-08 0
2.8039216982114720e-06 6.0980041806175874e-08 0
3.0893421654369671e-06 4.5088545136090843e-08 0
3.0059452909114198e-06 6.8917451442997810e-08 0
3.0973610234334707e-06 3.0725281308354178e-08 0
3.0123060108555168e-06 9.6521324025113870e-08 0
2.8575430292000432e-06 8.9151222055000893e-08 0
2.8141129282216729e-06 2.0118571079435893e-08 0
4.0151192423948910e-06 1.0322151778230338e-07 0
3.8007012849220664e-06 1.7755229014332821e-07 0
2.8813715037168534e-06 -2.8233803435748599e-08 0
2.8339837349454285e-06 1.4649207926520086e-07 0
3.1560387038724679e-06 7.9957270128648746e-08 0
3.0787192457530696e-06 1.2029922912134972e-07 0
3.1694725940652112e-06 7.0298804867126954e-08 0
3.0907909103046832e-06 1.4691035691188026e-07 0
2.9217896549577669e-06 1.3033377671503606e-07 0
2.8798663904547008e-06 6.3659245740456724e-08 0
4.0831944713015294e-06 1.4981789229631113e-07 0
3.9111903414475505e-06 2.4890080163852865e-07 0
2.9526156157706436e-06 1.6157535705398909e-08 0
2.9033100821242959e-06 1.9764053290970337e-07 0
3.2363368001342093e-06 1.2703380993664569e-07 0
3.1745196953266458e-06 1.7548891854869763e-07 0
3.2587052225867003e-06 1.1875466264766128e-07 0
3.1938679293776294e-06 2.0544789369403753e-07 0
3.0189779753133442e-06 1.8053150764639057e-07 0
2.9815449855654824e-06 1.1411693934009166e-07 0
4.1937811714450336e-06 2.0998669677554492e-07 0
4.0979180396511346e-06 3.3130239747811417e-07 0
3.0684792636748076e-06 7.3324535782740973e-08 0
3.0188391836973183e-06 2.5721022732093738e-07 0
3.3625935540559079e-06 1.9161897357446306e-07 0
3.3256284929260933e-06 2.3574782020402044e-07 0
3.3958763929525769e-06 1.8858826950088302e-07 0
3.3541451740887466e-06 2.6751077078562627e-07 0
3.1642601869606850e-06 2.5511554464019555e-07 0
3.1334331501862457e-06 1.6324255437578654e-07 0
4.3554113142105936e-06 3.0589102175336317e-07 0
4.3732181518228190e-06 4.1492076018045176e-07 0
3.2373595912674983e-06 1.5943552728492794e-07 0
3.1883517536865668e-06 3.1904745689738008e-07 0
3.5423843641682785e-06 2.9025300789638103e-07 0
3.5418942708353241e-06 2.9643182171769494e-07 0
3.5894204856493613e-06 2.9531547683940290e-07 0
3.5815044513612728e-06 3.3084873851441105e-07 0
3.3681992957505418e-06 3.6713480700098240e-07 0
3.3458685326235516e-06 2.1051158496692601e-07 0
4.5749827472024303e-06 4.5084571435225179e-07 0
4.7562468028713322e-06 5.0245696864270830e-07 0
3.4757011238835324e-06 2.9495350263536182e-07 0
3.4264921039966355e-06 3.8062721390630957e-07 0
3.8047077785191196e-06 4.4487316111520687e-07 0
3.8508071951132682e-06 3.5474164787267312e-07 0
3.8773991165014529e-06 4.6616976423945620e-07 0
3.9126375175760850e-06 3.9101702509070127e-07 0
3.6780204951533753e-06 5.5825501151544526e-07 0
3.6637892281502068e-06 2.4425624410251409e-07 0
4.9419533848146523e-06 7.1486936125229602e-07 0
5.3341393711326886e-06 5.8004409126577555e-07 0
3.8557209833542628e-06 5.3129713503861399e-07 0
3.7993148630025661e-06 4.3764274455885036e-07 0
4.2239384271429614e-06 7.4997657526925193e-07 0
4.3221787394810113e-06 4.0615624952812206e-07 0
4.3536233852646611e-06 8.5712838187230963e-07 0
4.4059448581405155e-06 4.5334824543413060e-07 0
4.2229740451480349e-06 1.0745546755572182e-06 0
4.1233656971932622e-06 2.8476529559146030e-07 0
5.5806772311108731e-06 1.5072179664626031e-06 0
6.1488396869134679e-06 6.8672191194247661e-07 0
4.6294983710418777e-06 1.6555677104621495e-06 0
4.2898575447247429e-06 4.5246468682529461e-07 0
5.1711979576117279e-06 2.3789455738892167e-06 0
4.9601916934715464e-06 3.0315775086965996e-07 0
5.3605070791545764e-06 3.2278793442255323e-06 0
5.0117553823806220e-06 5.6753490766369043e-08 0
5.3165459324146269e-06 4.6291162557301649e-06 0
4.6939866145839134e-06 -8.4678138481918071e-07 0
7.6051550440340190e-06 6.9341442431501339e-06 0
7.9650549742368200e-06 -1.5091968631760834e-06 0
7.6059597084620375e-06 8.6496640488051823e-06 0
6.7669004830973958e-06 -3.1904583353232379e-06 0
1.0761677307305730e-05 1.1614603407749954e-05 0
1.0393209782748161e-05 -5.0044285506565745e-06 0
1.4785380099717146e-05 1.4218726822148786e-05 0
1.4403152785817666e-05 -6.5573415938019796e-06 0
2.1625787183869752e-05 1.7031533301459891e-05 0
2.0632958018475658e-05 -7.4457791237301590e-06 0
2.6446161014963871e-05 1.7129099102204045e-05 0
2.6450597906846442e-05 1.1840513736157929e-05 0
2.5143105415808718e-05 6.7215275524106915e-06 0
2.4673727368108326e-05 2.4297231641806005e-06 0
2.5268857669377331e-05 -2.5419170181011504e-06 0
2.4886995949702099e-05 -8.1683788870268372e-06 0

VECTORS Forces1 float
-2.8797150230466484e-01 1.7262492555078496e-01 0
-1.9393627441985470e-01 -1.1430754634688908e-01 0
3.7968078940074279e+00 -2.1044548220488797e+00 0
2.6112933809523118e+00 1.4450531768832067e+00 0
4.1600201503131959e+00 -6.4526656295603335e-01 0
2.8690718991340201e+00 4.4535916539014242e-01 0
2.6499266146638423e+00 1.0781300617435084e-01 0
1.8285501446881574e+00 -7.2876035606334905e-02 0
-3.9944653902690880e-01 -1.4523830124659697e-02 0
-2.7609193605188975e-01 9.8516974205746337e-03 0
1.0196935291542967e+01 2.9699391232284305e-03 0
7.0517934738005081e+00 2.2589191857509041e-02 0
-4.3299425977569711e-01 -5.3247119201279961e-04 0
-3.0054799061131504e-01 -1.7529094196809341e-03 0
2.9089807633365004e+00 -1.0505191479509167e-04 0
2.0176506489932144e+00 1.5339191623954898e-02 0
2.9092101967325221e+00 -1.6659823345875635e-04 0
2.0178533086490034e+00 1.5386185944264927e-02 0
-4.3346287325026073e-01 -2.3360714858372254e-04 0
-3.0087218880168592e-01 -2.1185089714022510e-03 0
1.0265980867583146e+01 -3.1240276149373043e-03 0
7.1471301942170911e+00 9.3464052354058844e-02 0
-4.3418441964481580e-01 -2.3831962268339507e-04 0
-3.0430844546492009e-01 -5.1906825160660374e-03 0
2.9145858956889099e+00 -4.6848530084277311e-05 0
2.0422997315105555e+00 3.6958139616337364e-02 0
2.9145856659126852e+00 -4.5441449562355076e-05 0
2.0423321071235336e+00 3.6978198888339961e-02 0
-4.3415715454327919e-01 -2.6345815044506997e-04 0
-3.0447969746173853e-01 -5.3270213683862975e-03 0
1.0255446648364893e+01 9.8076700248266660e-03 0
7.2452872303070492e+00 1.6413858776839163e-01 0
-4.3257843142902591e-01 -1.1285655035927244e-03 0
-3.0902363962894375e-01 -8.1070427105618941e-03 0
2.9036220608431482e+00 6.0418610741982673e-03 0
2.0743398810344322e+00 5.6589795369568006e-02 0
2.9036051601291537e+00 6.0440667315603269e-03 0
2.0743806898174788e+00 5.6612003915012879e-02 0
-4.3245653102077058e-01 -1.2041936384559364e-03 0
-3.0926383206543512e-01 -8.2262746059391361e-03 0
1.0189978044402068e+01 3.8611175312435547e-02 0
7.3765027731081778e+00 2.3380409797646431e-01 0
-4.2886857454431637e-01 -2.8022372381163842e-03 0
-3.1551918731894329e-01 -1.0965890471841865e-02 0
2.8785210983685743e+00 1.7202444476766804e-02 0
2.1183680649827505e+00 7.6020754387863404e-02 0
2.8784873309273582e+00 1.7207484192218014e-02 0
2.1184219523773971e+00 7.6045739144598043e-02 0
-4.2864475379871608e-01 -2.9499244256266243e-03 0
-3.1585011992320250e-01 -1.1065575254387550e-02 0
1.0076070409602156e+01 9.8440901160109617e-02 0
7.5588814966740348e+00 2.9781197074450844e-01 0
-4.2251814870434162e-01 -6.2353596280790829e-03 0
-3.2427508197369553e-01 -1.3492155276622422e-02 0
2.8355663882814910e+00 4.0107201272891510e-02 0
2.1776030972858180e+00 9.3383780820966919e-02 0
2.8355167540912607e+00 4.0110360556928612e-02 0
2.1776761086291470e+00 9.3416470106778865e-02 0
-4.2221938134736980e-01 -6.4627660673912419e-03 0
-3.2475587178464693e-01 -1.3575186365755469e-02 0
9.8922150467583201e+00 1.8126622293445743e-01 0
7.8039911053243598e+00 3.6677982723594410e-01 0
-4.1497726276707581e-01 -1.0299651611535621e-02 0
-3.3719653565797864e-01 -1.6477484844112829e-02 0
2.7847290400218960e+00 6.6641498867034382e-02 0
2.2649872656060985e+00 1.1429918216534160e-01 0
2.7846420109019903e+00 6.6650267131700205e-02 0
2.2650747015006272e+00 1.1434066524349722e-01 0
-4.1455421563198147e-01 -1.0799600803732023e-02 0
-3.3788785779204039e-01 -1.6489919698247580e-02 0
9.6988352471937560e+00 3.7702947134049775e-01 0
8.1761494879677468e+00 4.1195255097808609e-01 0
-4.0138613131882894e-01 -2.2779560878620916e-02 0
-3.5390004701327743e-01 -1.7536144139147281e-02 0
2.6915207119294844e+00 1.4961924211278374e-01 0
2.3766724834773898e+00 1.2271287774278879e-01 0
2.6913451988084653e+00 1.4953332314500320e-01 0
2.3767275962908725e+00 1.2279539198345578e-01 0
-4.0177592515186733e-01 -2.3610899620217823e-02 0
-3.5577535740432670e-01 -1.7565616374632050e-02 0
9.3608798105852475e+00 5.1463056672826835e-01 0
8.7225470532852381e+00 5.5243768574933239e-01 0
-4.1072985134239848e-01 -2.8974788622539736e-02 0
-4.0051575038711185e-01 -2.4464879673153958e-02 0
2.7460037758223317e+00 1.8115994035765723e-01 0
2.6824048456554084e+00 1.7256141354383431e-01 0
2.7452325385800171e+00 1.8077272322757545e-01 0
2.6820890405156268e+00 1.7273367771444176e-01 0
-4.1235928050480009e-01 -3.3696495724240237e-02 0
-4.0512669636599913e-01 -2.2627546072774098e-02 0
9.8540908371300819e+00 1.7500656213372388e+00 0
1.0365473088313285e+01 2.5099672851925398e-01 0
-3.9689822781568534e-01 -1.3774666348983344e-01 0
-4.8362805344171866e-01 1.9841367295447384e-02 0
2.7752879231747687e+00 9.0832785107208036e-01 0
3.3712802147337002e+00 -4.7520049731406680e-02 0
2.0915811509653945e+00 5.7277940392263860e-01 0
2.6838458123658064e+00 -6.2341798829010878e-02 0
6.3959198670423545e+00 3.0939773942671001e+00 0
6.3235588788157777e+00 3.0999721600507213e-01 0
5.6240543681523802e-01 3.9372546685691162e-01 0
4.4040608317385956e+00 2.1336359489501420e+00 0
2.4614702802868074e+00 1.7919242861275919e+00 0
2.3043511732964244e+00 2.0561065985985807e+00 0
3.9758657559240551e+00 1.2186863488980801e+00 0
6.0892431346809173e-01 -1.8481254052022891e-01 0

