# vtk DataFile Version 2.0

ASCII

DATASET UNSTRUCTURED_GRID

POINTS 106 float 

-5.0000000000000003e-02  0.0000000000000000e+00  0.0000000000000000e+00
5.0000000000000003e-02  0.0000000000000000e+00  0.0000000000000000e+00
-5.0000000000000003e-02  2.0000000000000000e-02  0.0000000000000000e+00
5.0000000000000003e-02  2.0000000000000000e-02  0.0000000000000000e+00
-5.0000000000000003e-02  4.0000000000000001e-02  0.0000000000000000e+00
5.0000000000000003e-02  4.0000000000000001e-02  0.0000000000000000e+00
-5.0000000000000003e-02  5.9999999999999998e-02  0.0000000000000000e+00
5.0000000000000003e-02  5.9999999999999998e-02  0.0000000000000000e+00
-5.0000000000000003e-02  8.0000000000000002e-02  0.0000000000000000e+00
5.0000000000000003e-02  8.0000000000000002e-02  0.0000000000000000e+00
-5.0000000000000003e-02  1.0000000000000001e-01  0.0000000000000000e+00
5.0000000000000003e-02  1.0000000000000001e-01  0.0000000000000000e+00
-5.0000000000000003e-02  1.2000000000000000e-01  0.0000000000000000e+00
5.0000000000000003e-02  1.2000000000000000e-01  0.0000000000000000e+00
-5.0000000000000003e-02  1.4000000000000001e-01  0.0000000000000000e+00
5.0000000000000003e-02  1.4000000000000001e-01  0.0000000000000000e+00
-5.0000000000000003e-02  1.6000000000000000e-01  0.0000000000000000e+00
5.0000000000000003e-02  1.6000000000000000e-01  0.0000000000000000e+00
-5.0000000000000003e-02  1.7999999999999999e-01  0.0000000000000000e+00
5.0000000000000003e-02  1.7999999999999999e-01  0.0000000000000000e+00
-5.0000000000000003e-02  2.0000000000000001e-01  0.0000000000000000e+00
5.0000000000000003e-02  2.0000000000000001e-01  0.0000000000000000e+00
-5.0000000000000003e-02  2.2000000000000000e-01  0.0000000000000000e+00
5.0000000000000003e-02  2.2000000000000000e-01  0.0000000000000000e+00
-5.0000000000000003e-02  2.3999999999999999e-01  0.0000000000000000e+00
5.0000000000000003e-02  2.3999999999999999e-01  0.0000000000000000e+00
-5.0000000000000003e-02  2.6000000000000001e-01  0.0000000000000000e+00
5.0000000000000003e-02  2.6000000000000001e-01  0.0000000000000000e+00
-5.0000000000000003e-02  2.8000000000000003e-01  0.0000000000000000e+00
5.0000000000000003e-02  2.8000000000000003e-01  0.0000000000000000e+00
-5.0000000000000003e-02  2.9999999999999999e-01  0.0000000000000000e+00
5.0000000000000003e-02  2.9999999999999999e-01  0.0000000000000000e+00
-5.0000000000000003e-02  3.2000000000000001e-01  0.0000000000000000e+00
5.0000000000000003e-02  3.2000000000000001e-01  0.0000000000000000e+00
-5.0000000000000003e-02  3.4000000000000002e-01  0.0000000000000000e+00
5.0000000000000003e-02  3.4000000000000002e-01  0.0000000000000000e+00
-5.0000000000000003e-02  3.5999999999999999e-01  0.0000000000000000e+00
5.0000000000000003e-02  3.5999999999999999e-01  0.0000000000000000e+00
-5.0000000000000003e-02  3.8000000000000000e-01  0.0000000000000000e+00
5.0000000000000003e-02  3.8000000000000000e-01  0.0000000000000000e+00
-5.0000000000000003e-02  4.0000000000000002e-01  0.0000000000000000e+00
5.0000000000000003e-02  4.0000000000000002e-01  0.0000000000000000e+00
-5.0000000000000003e-02  4.1999999999999998e-01  0.0000000000000000e+00
5.0000000000000003e-02  4.1999999999999998e-01  0.0000000000000000e+00
-5.0000000000000003e-02  4.4000000000000000e-01  0.0000000000000000e+00
5.0000000000000003e-02  4.4000000000000000e-01  0.0000000000000000e+00
-5.0000000000000003e-02  4.6000000000000002e-01  0.0000000000000000e+00
5.0000000000000003e-02  4.6000000000000002e-01  0.0000000000000000e+00
-5.0000000000000003e-02  4.7999999999999998e-01  0.0000000000000000e+00
5.0000000000000003e-02  4.7999999999999998e-01  0.0000000000000000e+00
-5.0000000000000003e-02  5.0000000000000000e-01  0.0000000000000000e+00
5.0000000000000003e-02  5.0000000000000000e-01  0.0000000000000000e+00
-5.0000000000000003e-02  5.2000000000000002e-01  0.0000000000000000e+00
5.0000000000000003e-02  5.2000000000000002e-01  0.0000000000000000e+00
-5.0000000000000003e-02  5.4000000000000004e-01  0.0000000000000000e+00
5.0000000000000003e-02  5.4000000000000004e-01  0.0000000000000000e+00
-5.0000000000000003e-02  5.6000000000000005e-01  0.0000000000000000e+00
5.0000000000000003e-02  5.6000000000000005e-01  0.0000000000000000e+00
-5.0000000000000003e-02  5.7999999999999996e-01  0.0000000000000000e+00
5.0000000000000003e-02  5.7999999999999996e-01  0.0000000000000000e+00
-5.0000000000000003e-02  5.9999999999999998e-01  0.0000000000000000e+00
5.0000000000000003e-02  5.9999999999999998e-01  0.0000000000000000e+00
-5.0000000000000003e-02  6.2000000000000000e-01  0.0000000000000000e+00
5.0000000000000003e-02  6.2000000000000000e-01  0.0000000000000000e+00
-5.0000000000000003e-02  6.4000000000000001e-01  0.0000000000000000e+00
5.0000000000000003e-02  6.4000000000000001e-01  0.0000000000000000e+00
-5.0000000000000003e-02  6.6000000000000003e-01  0.0000000000000000e+00
5.0000000000000003e-02  6.6000000000000003e-01  0.0000000000000000e+00
-5.0000000000000003e-02  6.8000000000000005e-01  0.0000000000000000e+00
5.0000000000000003e-02  6.8000000000000005e-01  0.0000000000000000e+00
-5.0000000000000003e-02  6.9999999999999996e-01  0.0000000000000000e+00
5.0000000000000003e-02  6.9999999999999996e-01  0.0000000000000000e+00
-5.0000000000000003e-02  7.1999999999999997e-01  0.0000000000000000e+00
5.0000000000000003e-02  7.1999999999999997e-01  0.0000000000000000e+00
-5.0000000000000003e-02  7.3999999999999999e-01  0.0000000000000000e+00
5.0000000000000003e-02  7.3999999999999999e-01  0.0000000000000000e+00
-5.0000000000000003e-02  7.6000000000000001e-01  0.0000000000000000e+00
5.0000000000000003e-02  7.6000000000000001e-01  0.0000000000000000e+00
-5.0000000000000003e-02  7.8000000000000003e-01  0.0000000000000000e+00
5.0000000000000003e-02  7.8000000000000003e-01  0.0000000000000000e+00
-5.0000000000000003e-02  8.0000000000000004e-01  0.0000000000000000e+00
5.0000000000000003e-02  8.0000000000000004e-01  0.0000000000000000e+00
-5.0000000000000003e-02  8.1999999999999995e-01  0.0000000000000000e+00
5.0000000000000003e-02  8.1999999999999995e-01  0.0000000000000000e+00
-5.0000000000000003e-02  8.3999999999999997e-01  0.0000000000000000e+00
5.0000000000000003e-02  8.3999999999999997e-01  0.0000000000000000e+00
-5.0000000000000003e-02  8.5999999999999999e-01  0.0000000000000000e+00
5.0000000000000003e-02  8.5999999999999999e-01  0.0000000000000000e+00
-5.0000000000000003e-02  8.8000000000000000e-01  0.0000000000000000e+00
5.0000000000000003e-02  8.8000000000000000e-01  0.0000000000000000e+00
-5.0000000000000003e-02  9.0000000000000002e-01  0.0000000000000000e+00
5.0000000000000003e-02  9.0000000000000002e-01  0.0000000000000000e+00
-5.0000000000000003e-02  9.2000000000000004e-01  0.0000000000000000e+00
5.0000000000000003e-02  9.2000000000000004e-01  0.0000000000000000e+00
-5.0000000000000003e-02  9.3999999999999995e-01  0.0000000000000000e+00
5.0000000000000003e-02  9.3999999999999995e-01  0.0000000000000000e+00
-5.0000000000000003e-02  9.5999999999999996e-01  0.0000000000000000e+00
5.0000000000000003e-02  9.5999999999999996e-01  0.0000000000000000e+00
-5.0000000000000003e-02  9.7999999999999998e-01  0.0000000000000000e+00
5.0000000000000003e-02  9.7999999999999998e-01  0.0000000000000000e+00
-5.0000000000000003e-02  1.0000000000000000e+00  0.0000000000000000e+00
-3.0000000000000002e-02  1.0000000000000000e+00  0.0000000000000000e+00
-1.0000000000000002e-02  1.0000000000000000e+00  0.0000000000000000e+00
1.0000000000000009e-02  1.0000000000000000e+00  0.0000000000000000e+00
2.9999999999999999e-02  1.0000000000000000e+00  0.0000000000000000e+00
5.0000000000000003e-02  1.0000000000000000e+00  0.0000000000000000e+00

CELLS 0 0


CELL_TYPES 0


POINT_DATA 106

VECTORS VertexNormals float

0.0000000000000000e+00 0.0000000000000000e+00 0
0.0000000000000000e+00 0.0000000000000000e+00 0
0.0000000000000000e+00 0.0000000000000000e+00 0
0.0000000000000000e+00 0.0000000000000000e+00 0
0.0000000000000000e+00 0.0000000000000000e+00 0
0.0000000000000000e+00 0.0000000000000000e+00 0
0.0000000000000000e+00 0.0000000000000000e+00 0
0.0000000000000000e+00 0.0000000000000000e+00 0
0.0000000000000000e+00 0.0000000000000000e+00 0
0.0000000000000000e+00 0.0000000000000000e+00 0
0.0000000000000000e+00 0.0000000000000000e+00 0
0.0000000000000000e+00 0.0000000000000000e+00 0
0.0000000000000000e+00 0.0000000000000000e+00 0
0.0000000000000000e+00 0.0000000000000000e+00 0
0.0000000000000000e+00 0.0000000000000000e+00 0
0.0000000000000000e+00 0.0000000000000000e+00 0
0.0000000000000000e+00 0.0000000000000000e+00 0
0.0000000000000000e+00 0.0000000000000000e+00 0
0.0000000000000000e+00 0.0000000000000000e+00 0
0.0000000000000000e+00 0.0000000000000000e+00 0
0.0000000000000000e+00 0.0000000000000000e+00 0
0.0000000000000000e+00 0.0000000000000000e+00 0
0.0000000000000000e+00 0.0000000000000000e+00 0
0.0000000000000000e+00 0.0000000000000000e+00 0
0.0000000000000000e+00 0.0000000000000000e+00 0
0.0000000000000000e+00 0.0000000000000000e+00 0
0.0000000000000000e+00 0.0000000000000000e+00 0
0.0000000000000000e+00 0.0000000000000000e+00 0
0.0000000000000000e+00 0.0000000000000000e+00 0
0.0000000000000000e+00 0.0000000000000000e+00 0
0.0000000000000000e+00 0.0000000000000000e+00 0
0.0000000000000000e+00 0.0000000000000000e+00 0
0.0000000000000000e+00 0.0000000000000000e+00 0
0.0000000000000000e+00 0.0000000000000000e+00 0
0.0000000000000000e+00 0.0000000000000000e+00 0
0.0000000000000000e+00 0.0000000000000000e+00 0
0.0000000000000000e+00 0.0000000000000000e+00 0
0.0000000000000000e+00 0.0000000000000000e+00 0
0.0000000000000000e+00 0.0000000000000000e+00 0
0.0000000000000000e+00 0.0000000000000000e+00 0
0.0000000000000000e+00 0.0000000000000000e+00 0
0.0000000000000000e+00 0.0000000000000000e+00 0
0.0000000000000000e+00 0.0000000000000000e+00 0
0.0000000000000000e+00 0.0000000000000000e+00 0
0.0000000000000000e+00 0.0000000000000000e+00 0
0.0000000000000000e+00 0.0000000000000000e+00 0
0.0000000000000000e+00 0.0000000000000000e+00 0
0.0000000000000000e+00 0.0000000000000000e+00 0
0.0000000000000000e+00 0.0000000000000000e+00 0
0.0000000000000000e+00 0.0000000000000000e+00 0
0.0000000000000000e+00 0.0000000000000000e+00 0
0.0000000000000000e+00 0.0000000000000000e+00 0
0.0000000000000000e+00 0.0000000000000000e+00 0
0.0000000000000000e+00 0.0000000000000000e+00 0
0.0000000000000000e+00 0.0000000000000000e+00 0
0.0000000000000000e+00 0.0000000000000000e+00 0
0.0000000000000000e+00 0.0000000000000000e+00 0
0.0000000000000000e+00 0.0000000000000000e+00 0
0.0000000000000000e+00 0.0000000000000000e+00 0
0.0000000000000000e+00 0.0000000000000000e+00 0
0.0000000000000000e+00 0.0000000000000000e+00 0
0.0000000000000000e+00 0.0000000000000000e+00 0
0.0000000000000000e+00 0.0000000000000000e+00 0
0.0000000000000000e+00 0.0000000000000000e+00 0
0.0000000000000000e+00 0.0000000000000000e+00 0
0.0000000000000000e+00 0.0000000000000000e+00 0
0.0000000000000000e+00 0.0000000000000000e+00 0
0.0000000000000000e+00 0.0000000000000000e+00 0
0.0000000000000000e+00 0.0000000000000000e+00 0
0.0000000000000000e+00 0.0000000000000000e+00 0
0.0000000000000000e+00 0.0000000000000000e+00 0
0.0000000000000000e+00 0.0000000000000000e+00 0
0.0000000000000000e+00 0.0000000000000000e+00 0
0.0000000000000000e+00 0.0000000000000000e+00 0
0.0000000000000000e+00 0.0000000000000000e+00 0
0.0000000000000000e+00 0.0000000000000000e+00 0
0.0000000000000000e+00 0.0000000000000000e+00 0
0.0000000000000000e+00 0.0000000000000000e+00 0
0.0000000000000000e+00 0.0000000000000000e+00 0
0.0000000000000000e+00 0.0000000000000000e+00 0
0.0000000000000000e+00 0.0000000000000000e+00 0
0.0000000000000000e+00 0.0000000000000000e+00 0
0.0000000000000000e+00 0.0000000000000000e+00 0
0.0000000000000000e+00 0.0000000000000000e+00 0
0.0000000000000000e+00 0.0000000000000000e+00 0
0.0000000000000000e+00 0.0000000000000000e+00 0
0.0000000000000000e+00 0.0000000000000000e+00 0
0.0000000000000000e+00 0.0000000000000000e+00 0
0.0000000000000000e+00 0.0000000000000000e+00 0
0.0000000000000000e+00 0.0000000000000000e+00 0
0.0000000000000000e+00 0.0000000000000000e+00 0
0.0000000000000000e+00 0.0000000000000000e+00 0
0.0000000000000000e+00 0.0000000000000000e+00 0
0.0000000000000000e+00 0.0000000000000000e+00 0
0.0000000000000000e+00 0.0000000000000000e+00 0
0.0000000000000000e+00 0.0000000000000000e+00 0
0.0000000000000000e+00 0.0000000000000000e+00 0
0.0000000000000000e+00 0.0000000000000000e+00 0
0.0000000000000000e+00 0.0000000000000000e+00 0
0.0000000000000000e+00 0.0000000000000000e+00 0
0.0000000000000000e+00 0.0000000000000000e+00 0
0.0000000000000000e+00 0.0000000000000000e+00 0
0.0000000000000000e+00 0.0000000000000000e+00 0
0.0000000000000000e+00 0.0000000000000000e+00 0
0.0000000000000000e+00 0.0000000000000000e+00 0
0.0000000000000000e+00 0.0000000000000000e+00 0

VECTORS Displacements1 float
-1.5387387070542836e-17 8.5949549900093814e-18 0
-8.9319960122808166e-24 -4.8174774726340769e-24 0
1.1590620081059555e-07 -4.9095622391014043e-08 0
1.2545103365790867e-07 6.5059303205683185e-08 0
1.3270286329431544e-07 -2.5233710735659573e-08 0
1.3523029539292308e-07 4.4533918064874135e-08 0
8.0331556753429346e-08 -5.1507142894761086e-09 0
7.9951835055764954e-08 1.9630475325507109e-08 0
3.7661184125034695e-09 1.2791556017822472e-08 0
5.3027500284880731e-09 -1.0807007647988393e-08 0
3.0821333772612870e-07 2.0949313426567124e-08 0
3.0746381847716405e-07 2.4157441655931529e-08 0
3.4963195735466751e-09 -1.1464126188493449e-08 0
4.6287818435102325e-09 1.3568142009499140e-08 0
8.7059978833925761e-08 1.3073695311893582e-08 0
8.8166398183387965e-08 2.6106659050045804e-09 0
8.7147203264797880e-08 -5.5484239480783179e-11 0
8.7731707037453206e-08 1.6124438473944286e-08 0
3.5323666947161258e-09 1.1778385374951886e-08 0
5.3286118416638438e-09 -9.7886051806376382e-09 0
3.0562503259414257e-07 1.8458996010533571e-08 0
3.1379403715619186e-07 3.0984782867313092e-08 0
3.2821496720100223e-09 -1.1987742655411954e-08 0
4.3409161498428906e-09 1.5289291170049807e-08 0
8.6537675040252094e-08 1.1989327447105698e-08 0
9.1607098332247607e-08 5.2446780743347180e-09 0
8.6500308207172830e-08 -1.0397577872696391e-09 0
9.0743287099912052e-08 1.9285261341993557e-08 0
3.5528671274665511e-09 1.1136224219647561e-08 0
6.0472307297541120e-09 -8.8963745885796146e-09 0
3.0407550376735293e-07 1.6429540539150736e-08 0
3.3014057605196054e-07 3.9139468098651970e-08 0
3.0944491417685896e-09 -1.2451198487354427e-08 0
4.2126944550768090e-09 1.7434368900526414e-08 0
8.6170477255070280e-08 1.1443296533777620e-08 0
9.7944947281911333e-08 7.8038604938754391e-09 0
8.6091584934139196e-08 -1.4651862858884373e-09 0
9.6646367112053617e-08 2.2748770987722771e-08 0
3.4884648479232101e-09 1.0884164129669580e-08 0
6.8971853458255909e-09 -8.5455796630558549e-09 0
3.0267020254184273e-07 1.6188876634622472e-08 0
3.5686988906262031e-07 4.7420265398284830e-08 0
2.9765643707936295e-09 -1.2508207376262587e-08 0
4.2394995086002708e-09 1.9851898837022079e-08 0
8.5791399589969203e-08 1.1634460915385217e-08 0
1.0743478585547117e-07 1.0127139027529170e-08 0
8.5766641012657436e-08 -1.1158490279894518e-09 0
1.0570373281686399e-07 2.6433208431417371e-08 0
3.2999533434455526e-09 1.1271690275789304e-08 0
7.9033563452492072e-09 -8.9589692256643980e-09 0
3.0133656508870368e-07 1.8947545120225275e-08 0
3.9569736157921626e-07 5.5306423101936761e-08 0
2.9970563962746470e-09 -1.1876462666712962e-08 0
4.4766345374947566e-09 2.2441675101148908e-08 0
8.5040244050230110e-08 1.3178417005231654e-08 0
1.2050811152687576e-07 1.1868797451409667e-08 0
8.5240360036816667e-08 5.8815466403823501e-10 0
1.1837862181802792e-07 3.0138536479650446e-08 0
3.0484115799634318e-09 1.2053141501618742e-08 0
9.2010083981287307e-09 -1.0005047534586085e-08 0
2.9863549598653710e-07 2.3419702981956337e-08 0
4.4901886515634496e-07 6.4243105752298597e-08 0
2.9386196908546186e-09 -1.0784621718739026e-08 0
4.7763720202432962e-09 2.5582477372142734e-08 0
8.5266303934804465e-08 1.5089659405146988e-08 0
1.3938532411785048e-07 1.4044383497586616e-08 0
8.5662887762961927e-08 2.8063836366272096e-09 0
1.3664090089381624e-07 3.4976363117218350e-08 0
2.5157518325202181e-09 1.5124986567342060e-08 0
1.0803494930289996e-08 -1.3083542015621820e-08 0
3.0304751235666999e-07 3.8474189628257051e-08 0
5.2776428415444458e-07 7.0312915441031975e-08 0
3.5865475910801378e-09 -7.5852618505164300e-09 0
5.6659199526879468e-09 2.8497032303253390e-08 0
8.4133452884132952e-08 2.3144298870262020e-08 0
1.6464602525577106e-07 1.3086508844654620e-08 0
8.5410356764458249e-08 1.0581872363213727e-08 0
1.6153909761718871e-07 3.8321002394505877e-08 0
2.7132273304816731e-09 1.6548351783666402e-08 0
1.3765256128146452e-08 -1.5604286031596957e-08 0
3.0395789478017051e-07 4.3162300662455974e-08 0
6.3926313770762156e-07 8.9372248796288647e-08 0
1.9036394095729241e-09 -6.4848181678097699e-09 0
4.9112605035475307e-09 3.4833563310190045e-08 0
1.0133118050223688e-07 2.4809197624432613e-08 0
2.1573533990429841e-07 1.9817028723990549e-08 0
1.0142609368820175e-07 1.3237538934531056e-08 0
2.0959321321498900e-07 5.0885361385631696e-08 0
1.3634574873315515e-09 4.1518274934172179e-08 0
1.7531054744612129e-08 -3.5309433478686189e-08 0
4.2586718007527971e-07 1.5438791222245811e-07 0
8.9581002334377870e-07 6.4400799009871462e-08 0
8.8203148092745078e-09 1.5421727712927346e-08 0
8.0111866193874737e-09 3.3601461116830595e-08 0
1.4306617108793100e-07 1.1800739493112290e-07 0
3.1135308388727088e-07 -1.3636548687796421e-08 0
1.2711885305424839e-07 1.8900120338289601e-07 0
2.9716227409256999e-07 -4.5099441144120748e-08 0
6.5904997542348426e-07 5.5106586024151433e-07 0
7.6524266193588147e-07 -1.1133447375187992e-07 0
5.2658244611253640e-07 4.6370463683091697e-07 0
6.4870778478901002e-07 3.9435450489436950e-07 0
4.7470905567579995e-07 2.5810193476469276e-07 0
4.7613076053085410e-07 2.4797336411871520e-07 0
7.0183382166414379e-07 2.2283748642200408e-08 0
5.2382226766584281e-07 -2.5378250179513604e-07 0

VECTORS Forces1 float
-2.7855062566133969e-02 1.7983307545149024e-02 0
-3.1888365895189771e-02 -1.8005714340673738e-02 0
3.9978894426388928e-01 -2.2285956015427741e-01 0
4.3476609303026231e-01 2.4125010261710139e-01 0
4.3843804305437123e-01 -6.8284265171904876e-02 0
4.7577183479466351e-01 7.4859937683721386e-02 0
2.7874297107531953e-01 1.1440364214089191e-02 0
3.0247222431861814e-01 -1.1924753132256648e-02 0
-4.2037368068338153e-02 -1.6151801675506148e-03 0
-4.5689793731637000e-02 1.6172098499414313e-03 0
1.0643588051973771e+00 -1.1126538105818747e-03 0
1.1581297531026442e+00 8.4700417035164163e-03 0
-4.4865124698154367e-02 2.3112321088548285e-05 0
-4.9263341241494729e-02 -5.8198683473160192e-04 0
3.0135972391840332e-01 -9.7196055611694623e-04 0
3.3051413201015267e-01 4.7392057927761310e-03 0
3.0138383814186043e-01 -9.7825035634384458e-04 0
3.3054692330135771e-01 4.7508122947618617e-03 0
-4.4875568828149900e-02 6.9326447615803872e-05 0
-4.9324982485728266e-02 -6.4961760720670452e-04 0
1.0567961923714746e+00 -6.4016904682576538e-03 0
1.1755329011832683e+00 2.6335967465202868e-02 0
-4.4512600860138744e-02 3.1641879234171503e-04 0
-5.0510114639924761e-02 -1.4492614572179702e-03 0
2.9890183653321006e-01 -2.6954898657879220e-03 0
3.3892161851326114e-01 1.0375138450139388e-02 0
2.9890008543567265e-01 -2.6973308817361385e-03 0
3.3893433931578415e-01 1.0381179854058370e-02 0
-4.4493556824365336e-02 3.2185774307154228e-04 0
-5.0590851727360921e-02 -1.4834846876042530e-03 0
1.0486930815984010e+00 -1.0851388887956242e-02 0
1.2198492779664742e+00 4.6049430303469654e-02 0
-4.4122942094031108e-02 4.0149747740289115e-04 0
-5.2947627591786749e-02 -2.2412119230554319e-03 0
2.9635774633418005e-01 -3.2635783813199171e-03 0
3.5550385881369417e-01 1.5731736812327979e-02 0
2.9635478616286970e-01 -3.2654378704228800e-03 0
3.5552329128352261e-01 1.5738369221754107e-02 0
-4.4103105464650391e-02 3.9376940585722291e-04 0
-5.3088372877413366e-02 -2.2698306548805578e-03 0
1.0379216481619886e+00 -1.0284371552168974e-02 0
1.2926531183138956e+00 6.4115218782827263e-02 0
-4.3606397399088490e-02 2.4496862696558094e-04 0
-5.6666773630626117e-02 -2.9509148672930588e-03 0
2.9294752298418680e-01 -2.2522933822916439e-03 0
3.8066066398654619e-01 2.0575739450157352e-02 0
2.9294294745058319e-01 -2.2535685344986802e-03 0
3.8068764331961519e-01 2.0582867896178057e-02 0
-4.3578396970456512e-02 2.1663650160947767e-04 0
-5.6872706637960110e-02 -2.9695924064286850e-03 0
1.0239540621128262e+00 -1.3150851774319751e-03 0
1.3985016452074359e+00 7.8910884169481013e-02 0
-4.2815850992639834e-02 -3.7646114536634280e-04 0
-6.1851882425377834e-02 -3.4691449824287616e-03 0
2.8769799173194699e-01 1.8413822829473688e-03 0
4.1564210473151431e-01 2.4186381166555276e-02 0
2.8769295675843570e-01 1.8387441208136805e-03 0
4.1567851974087805e-01 2.4195907626196750e-02 0
-4.2787762983123721e-02 -4.2595920932388495e-04 0
-6.2148804034255219e-02 -3.4790942199024138e-03 0
1.0027298106569176e+00 1.2884882705344233e-02 0
1.5433059891493039e+00 9.3826662223262816e-02 0
-4.2240932186866094e-02 -1.0942616740978672e-03 0
-6.9290419966895930e-02 -4.1043285044841697e-03 0
2.8400957829962337e-01 6.3800274563121165e-03 0
4.6577256103046694e-01 2.8753264986275503e-02 0
2.8400165072610695e-01 6.3769882453947350e-03 0
4.6581748032188813e-01 2.8765102924108995e-02 0
-4.2207068831027976e-02 -1.2166531379359160e-03 0
-6.9720381479791746e-02 -4.0785926309640863e-03 0
9.9550780072762035e-01 5.5585951336516053e-02 0
1.7565287841782100e+00 9.6459090013640295e-02 0
-4.1003492803626890e-02 -3.9702333415685227e-03 0
-7.9442415456126833e-02 -3.6996328829078792e-03 0
2.7564543015697868e-01 2.5306322499123925e-02 0
5.3373069990891064e-01 2.6453390099518592e-02 0
2.7562963244947875e-01 2.5269619954057375e-02 0
5.3376570359478126e-01 2.6482353819572452e-02 0
-4.1206248722932506e-02 -4.1731357321459920e-03 0
-8.0312273249098065e-02 -3.6680576700852904e-03 0
9.7662744017015335e-01 7.1373423863705168e-02 0
2.0556996202570708e+00 1.2757661562715886e-01 0
-4.6947016959189583e-02 -4.2733719747041383e-03 0
-9.9678161648433711e-02 -5.5911159891170164e-03 0
3.1446351469011774e-01 2.4047872521001160e-02 0
6.6684794857371110e-01 4.0615621311841071e-02 0
3.1439457748024763e-01 2.3894062666976336e-02 0
6.6673750128714604e-01 4.0689114716751774e-02 0
-4.7526679211626247e-02 -5.6339526945087606e-03 0
-1.0183629727397586e-01 -4.8682066967593186e-03 0
1.2681478389064127e+00 3.6326187878026972e-01 0
2.7522550351354482e+00 1.0023124223296272e-02 0
-5.6724343570390412e-02 -3.3173049310369712e-02 0
-1.4067570291478496e-01 1.1002396867727896e-02 0
4.2426621371009171e-01 2.1307605212255970e-01 0
9.7002330997153607e-01 -4.6585456957403515e-02 0
2.6716868948624367e-01 1.1119970515210480e-01 0
7.5454345808113321e-01 -3.7010351144576882e-02 0
1.5246741647819275e+00 9.4774218490625173e-01 0
1.9750714139816943e+00 -3.5934303700826856e-02 0
9.9730527182065473e-02 1.1748795241617785e-01 0
1.0845569135093114e+00 7.4021654777029822e-01 0
7.1388136192234497e-01 6.2697409387060643e-01 0
6.6045790359831147e-01 6.7533058280808633e-01 0
1.2351446145596505e+00 2.9831837495079422e-01 0
2.1223312540246611e-01 -7.3889107114368704e-02 0

