# vtk DataFile Version 2.0

ASCII

DATASET UNSTRUCTURED_GRID

POINTS 106 float 

-5.0000000000000003e-02  0.0000000000000000e+00  0.0000000000000000e+00
5.0000000000000003e-02  0.0000000000000000e+00  0.0000000000000000e+00
-5.0000000000000003e-02  2.0000000000000000e-02  0.0000000000000000e+00
5.0000000000000003e-02  2.0000000000000000e-02  0.0000000000000000e+00
-5.0000000000000003e-02  4.0000000000000001e-02  0.0000000000000000e+00
5.0000000000000003e-02  4.0000000000000001e-02  0.0000000000000000e+00
-5.0000000000000003e-02  5.9999999999999998e-02  0.0000000000000000e+00
5.0000000000000003e-02  5.9999999999999998e-02  0.0000000000000000e+00
-5.0000000000000003e-02  8.0000000000000002e-02  0.0000000000000000e+00
5.0000000000000003e-02  8.0000000000000002e-02  0.0000000000000000e+00
-5.0000000000000003e-02  1.0000000000000001e-01  0.0000000000000000e+00
5.0000000000000003e-02  1.0000000000000001e-01  0.0000000000000000e+00
-5.0000000000000003e-02  1.2000000000000000e-01  0.0000000000000000e+00
5.0000000000000003e-02  1.2000000000000000e-01  0.0000000000000000e+00
-5.0000000000000003e-02  1.4000000000000001e-01  0.0000000000000000e+00
5.0000000000000003e-02  1.4000000000000001e-01  0.0000000000000000e+00
-5.0000000000000003e-02  1.6000000000000000e-01  0.0000000000000000e+00
5.0000000000000003e-02  1.6000000000000000e-01  0.0000000000000000e+00
-5.0000000000000003e-02  1.7999999999999999e-01  0.0000000000000000e+00
5.0000000000000003e-02  1.7999999999999999e-01  0.0000000000000000e+00
-5.0000000000000003e-02  2.0000000000000001e-01  0.0000000000000000e+00
5.0000000000000003e-02  2.0000000000000001e-01  0.0000000000000000e+00
-5.0000000000000003e-02  2.2000000000000000e-01  0.0000000000000000e+00
5.0000000000000003e-02  2.2000000000000000e-01  0.0000000000000000e+00
-5.0000000000000003e-02  2.3999999999999999e-01  0.0000000000000000e+00
5.0000000000000003e-02  2.3999999999999999e-01  0.0000000000000000e+00
-5.0000000000000003e-02  2.6000000000000001e-01  0.0000000000000000e+00
5.0000000000000003e-02  2.6000000000000001e-01  0.0000000000000000e+00
-5.0000000000000003e-02  2.8000000000000003e-01  0.0000000000000000e+00
5.0000000000000003e-02  2.8000000000000003e-01  0.0000000000000000e+00
-5.0000000000000003e-02  2.9999999999999999e-01  0.0000000000000000e+00
5.0000000000000003e-02  2.9999999999999999e-01  0.0000000000000000e+00
-5.0000000000000003e-02  3.2000000000000001e-01  0.0000000000000000e+00
5.0000000000000003e-02  3.2000000000000001e-01  0.0000000000000000e+00
-5.0000000000000003e-02  3.4000000000000002e-01  0.0000000000000000e+00
5.0000000000000003e-02  3.4000000000000002e-01  0.0000000000000000e+00
-5.0000000000000003e-02  3.5999999999999999e-01  0.0000000000000000e+00
5.0000000000000003e-02  3.5999999999999999e-01  0.0000000000000000e+00
-5.0000000000000003e-02  3.8000000000000000e-01  0.0000000000000000e+00
5.0000000000000003e-02  3.8000000000000000e-01  0.0000000000000000e+00
-5.0000000000000003e-02  4.0000000000000002e-01  0.0000000000000000e+00
5.0000000000000003e-02  4.0000000000000002e-01  0.0000000000000000e+00
-5.0000000000000003e-02  4.1999999999999998e-01  0.0000000000000000e+00
5.0000000000000003e-02  4.1999999999999998e-01  0.0000000000000000e+00
-5.0000000000000003e-02  4.4000000000000000e-01  0.0000000000000000e+00
5.0000000000000003e-02  4.4000000000000000e-01  0.0000000000000000e+00
-5.0000000000000003e-02  4.6000000000000002e-01  0.0000000000000000e+00
5.0000000000000003e-02  4.6000000000000002e-01  0.0000000000000000e+00
-5.0000000000000003e-02  4.7999999999999998e-01  0.0000000000000000e+00
5.0000000000000003e-02  4.7999999999999998e-01  0.0000000000000000e+00
-5.0000000000000003e-02  5.0000000000000000e-01  0.0000000000000000e+00
5.0000000000000003e-02  5.0000000000000000e-01  0.0000000000000000e+00
-5.0000000000000003e-02  5.2000000000000002e-01  0.0000000000000000e+00
5.0000000000000003e-02  5.2000000000000002e-01  0.0000000000000000e+00
-5.0000000000000003e-02  5.4000000000000004e-01  0.0000000000000000e+00
5.0000000000000003e-02  5.4000000000000004e-01  0.0000000000000000e+00
-5.0000000000000003e-02  5.6000000000000005e-01  0.0000000000000000e+00
5.0000000000000003e-02  5.6000000000000005e-01  0.0000000000000000e+00
-5.0000000000000003e-02  5.7999999999999996e-01  0.0000000000000000e+00
5.0000000000000003e-02  5.7999999999999996e-01  0.0000000000000000e+00
-5.0000000000000003e-02  5.9999999999999998e-01  0.0000000000000000e+00
5.0000000000000003e-02  5.9999999999999998e-01  0.0000000000000000e+00
-5.0000000000000003e-02  6.2000000000000000e-01  0.0000000000000000e+00
5.0000000000000003e-02  6.2000000000000000e-01  0.0000000000000000e+00
-5.0000000000000003e-02  6.4000000000000001e-01  0.0000000000000000e+00
5.0000000000000003e-02  6.4000000000000001e-01  0.0000000000000000e+00
-5.0000000000000003e-02  6.6000000000000003e-01  0.0000000000000000e+00
5.0000000000000003e-02  6.6000000000000003e-01  0.0000000000000000e+00
-5.0000000000000003e-02  6.8000000000000005e-01  0.0000000000000000e+00
5.0000000000000003e-02  6.8000000000000005e-01  0.0000000000000000e+00
-5.0000000000000003e-02  6.9999999999999996e-01  0.0000000000000000e+00
5.0000000000000003e-02  6.9999999999999996e-01  0.0000000000000000e+00
-5.0000000000000003e-02  7.1999999999999997e-01  0.0000000000000000e+00
5.0000000000000003e-02  7.1999999999999997e-01  0.0000000000000000e+00
-5.0000000000000003e-02  7.3999999999999999e-01  0.0000000000000000e+00
5.0000000000000003e-02  7.3999999999999999e-01  0.0000000000000000e+00
-5.0000000000000003e-02  7.6000000000000001e-01  0.0000000000000000e+00
5.0000000000000003e-02  7.6000000000000001e-01  0.0000000000000000e+00
-5.0000000000000003e-02  7.8000000000000003e-01  0.0000000000000000e+00
5.0000000000000003e-02  7.8000000000000003e-01  0.0000000000000000e+00
-5.0000000000000003e-02  8.0000000000000004e-01  0.0000000000000000e+00
5.0000000000000003e-02  8.0000000000000004e-01  0.0000000000000000e+00
-5.0000000000000003e-02  8.1999999999999995e-01  0.0000000000000000e+00
5.0000000000000003e-02  8.1999999999999995e-01  0.0000000000000000e+00
-5.0000000000000003e-02  8.3999999999999997e-01  0.0000000000000000e+00
5.0000000000000003e-02  8.3999999999999997e-01  0.0000000000000000e+00
-5.0000000000000003e-02  8.5999999999999999e-01  0.0000000000000000e+00
5.0000000000000003e-02  8.5999999999999999e-01  0.0000000000000000e+00
-5.0000000000000003e-02  8.8000000000000000e-01  0.0000000000000000e+00
5.0000000000000003e-02  8.8000000000000000e-01  0.0000000000000000e+00
-5.0000000000000003e-02  9.0000000000000002e-01  0.0000000000000000e+00
5.0000000000000003e-02  9.0000000000000002e-01  0.0000000000000000e+00
-5.0000000000000003e-02  9.2000000000000004e-01  0.0000000000000000e+00
5.0000000000000003e-02  9.2000000000000004e-01  0.0000000000000000e+00
-5.0000000000000003e-02  9.3999999999999995e-01  0.0000000000000000e+00
5.0000000000000003e-02  9.3999999999999995e-01  0.0000000000000000e+00
-5.0000000000000003e-02  9.5999999999999996e-01  0.0000000000000000e+00
5.0000000000000003e-02  9.5999999999999996e-01  0.0000000000000000e+00
-5.0000000000000003e-02  9.7999999999999998e-01  0.0000000000000000e+00
5.0000000000000003e-02  9.7999999999999998e-01  0.0000000000000000e+00
-5.0000000000000003e-02  1.0000000000000000e+00  0.0000000000000000e+00
-3.0000000000000002e-02  1.0000000000000000e+00  0.0000000000000000e+00
-1.0000000000000002e-02  1.0000000000000000e+00  0.0000000000000000e+00
1.0000000000000009e-02  1.0000000000000000e+00  0.0000000000000000e+00
2.9999999999999999e-02  1.0000000000000000e+00  0.0000000000000000e+00
5.0000000000000003e-02  1.0000000000000000e+00  0.0000000000000000e+00

CELLS 0 0


CELL_TYPES 0


POINT_DATA 106

VECTORS VertexNormals float

0.0000000000000000e+00 0.0000000000000000e+00 0
0.0000000000000000e+00 0.0000000000000000e+00 0
0.0000000000000000e+00 0.0000000000000000e+00 0
0.0000000000000000e+00 0.0000000000000000e+00 0
0.0000000000000000e+00 0.0000000000000000e+00 0
0.0000000000000000e+00 0.0000000000000000e+00 0
0.0000000000000000e+00 0.0000000000000000e+00 0
0.0000000000000000e+00 0.0000000000000000e+00 0
0.0000000000000000e+00 0.0000000000000000e+00 0
0.0000000000000000e+00 0.0000000000000000e+00 0
0.0000000000000000e+00 0.0000000000000000e+00 0
0.0000000000000000e+00 0.0000000000000000e+00 0
0.0000000000000000e+00 0.0000000000000000e+00 0
0.0000000000000000e+00 0.0000000000000000e+00 0
0.0000000000000000e+00 0.0000000000000000e+00 0
0.0000000000000000e+00 0.0000000000000000e+00 0
0.0000000000000000e+00 0.0000000000000000e+00 0
0.0000000000000000e+00 0.0000000000000000e+00 0
0.0000000000000000e+00 0.0000000000000000e+00 0
0.0000000000000000e+00 0.0000000000000000e+00 0
0.0000000000000000e+00 0.0000000000000000e+00 0
0.0000000000000000e+00 0.0000000000000000e+00 0
0.0000000000000000e+00 0.0000000000000000e+00 0
0.0000000000000000e+00 0.0000000000000000e+00 0
0.0000000000000000e+00 0.0000000000000000e+00 0
0.0000000000000000e+00 0.0000000000000000e+00 0
0.0000000000000000e+00 0.0000000000000000e+00 0
0.0000000000000000e+00 0.0000000000000000e+00 0
0.0000000000000000e+00 0.0000000000000000e+00 0
0.0000000000000000e+00 0.0000000000000000e+00 0
0.0000000000000000e+00 0.0000000000000000e+00 0
0.0000000000000000e+00 0.0000000000000000e+00 0
0.0000000000000000e+00 0.0000000000000000e+00 0
0.0000000000000000e+00 0.0000000000000000e+00 0
0.0000000000000000e+00 0.0000000000000000e+00 0
0.0000000000000000e+00 0.0000000000000000e+00 0
0.0000000000000000e+00 0.0000000000000000e+00 0
0.0000000000000000e+00 0.0000000000000000e+00 0
0.0000000000000000e+00 0.0000000000000000e+00 0
0.0000000000000000e+00 0.0000000000000000e+00 0
0.0000000000000000e+00 0.0000000000000000e+00 0
0.0000000000000000e+00 0.0000000000000000e+00 0
0.0000000000000000e+00 0.0000000000000000e+00 0
0.0000000000000000e+00 0.0000000000000000e+00 0
0.0000000000000000e+00 0.0000000000000000e+00 0
0.0000000000000000e+00 0.0000000000000000e+00 0
0.0000000000000000e+00 0.0000000000000000e+00 0
0.0000000000000000e+00 0.0000000000000000e+00 0
0.0000000000000000e+00 0.0000000000000000e+00 0
0.0000000000000000e+00 0.0000000000000000e+00 0
0.0000000000000000e+00 0.0000000000000000e+00 0
0.0000000000000000e+00 0.0000000000000000e+00 0
0.0000000000000000e+00 0.0000000000000000e+00 0
0.0000000000000000e+00 0.0000000000000000e+00 0
0.0000000000000000e+00 0.0000000000000000e+00 0
0.0000000000000000e+00 0.0000000000000000e+00 0
0.0000000000000000e+00 0.0000000000000000e+00 0
0.0000000000000000e+00 0.0000000000000000e+00 0
0.0000000000000000e+00 0.0000000000000000e+00 0
0.0000000000000000e+00 0.0000000000000000e+00 0
0.0000000000000000e+00 0.0000000000000000e+00 0
0.0000000000000000e+00 0.0000000000000000e+00 0
0.0000000000000000e+00 0.0000000000000000e+00 0
0.0000000000000000e+00 0.0000000000000000e+00 0
0.0000000000000000e+00 0.0000000000000000e+00 0
0.0000000000000000e+00 0.0000000000000000e+00 0
0.0000000000000000e+00 0.0000000000000000e+00 0
0.0000000000000000e+00 0.0000000000000000e+00 0
0.0000000000000000e+00 0.0000000000000000e+00 0
0.0000000000000000e+00 0.0000000000000000e+00 0
0.0000000000000000e+00 0.0000000000000000e+00 0
0.0000000000000000e+00 0.0000000000000000e+00 0
0.0000000000000000e+00 0.0000000000000000e+00 0
0.0000000000000000e+00 0.0000000000000000e+00 0
0.0000000000000000e+00 0.0000000000000000e+00 0
0.0000000000000000e+00 0.0000000000000000e+00 0
0.0000000000000000e+00 0.0000000000000000e+00 0
0.0000000000000000e+00 0.0000000000000000e+00 0
0.0000000000000000e+00 0.0000000000000000e+00 0
0.0000000000000000e+00 0.0000000000000000e+00 0
0.0000000000000000e+00 0.0000000000000000e+00 0
0.0000000000000000e+00 0.0000000000000000e+00 0
0.0000000000000000e+00 0.0000000000000000e+00 0
0.0000000000000000e+00 0.0000000000000000e+00 0
0.0000000000000000e+00 0.0000000000000000e+00 0
0.0000000000000000e+00 0.0000000000000000e+00 0
0.0000000000000000e+00 0.0000000000000000e+00 0
0.0000000000000000e+00 0.0000000000000000e+00 0
0.0000000000000000e+00 0.0000000000000000e+00 0
0.0000000000000000e+00 0.0000000000000000e+00 0
0.0000000000000000e+00 0.0000000000000000e+00 0
0.0000000000000000e+00 0.0000000000000000e+00 0
0.0000000000000000e+00 0.0000000000000000e+00 0
0.0000000000000000e+00 0.0000000000000000e+00 0
0.0000000000000000e+00 0.0000000000000000e+00 0
0.0000000000000000e+00 0.0000000000000000e+00 0
0.0000000000000000e+00 0.0000000000000000e+00 0
0.0000000000000000e+00 0.0000000000000000e+00 0
0.0000000000000000e+00 0.0000000000000000e+00 0
0.0000000000000000e+00 0.0000000000000000e+00 0
0.0000000000000000e+00 0.0000000000000000e+00 0
0.0000000000000000e+00 0.0000000000000000e+00 0
0.0000000000000000e+00 0.0000000000000000e+00 0
0.0000000000000000e+00 0.0000000000000000e+00 0
0.0000000000000000e+00 0.0000000000000000e+00 0
0.0000000000000000e+00 0.0000000000000000e+00 0

VECTORS Displacements1 float
-1.2658801146556126e-17 7.0709425166364940e-18 0
-6.9276524442748641e-24 -3.9621789489477123e-24 0
8.9981295906347635e-08 -4.0473094362939752e-08 0
9.8321304036663320e-08 5.3958700662795265e-08 0
1.0187160957703394e-07 -1.8109494059370940e-08 0
1.0459036089691083e-07 3.3975809725471267e-08 0
6.2460067145859824e-08 -2.0669014348388800e-09 0
6.2567804275508913e-08 1.4193132290910952e-08 0
-2.8688924477496022e-09 9.1117245407589134e-09 0
-1.9600927663405233e-09 -7.7641386783253190e-09 0
2.4292504940563556e-07 1.7192438173230755e-08 0
2.4448498742525571e-07 1.9774504053883836e-08 0
-3.0929553806072074e-09 -8.0721524840398529e-09 0
-2.5597915272693162e-09 9.6967677083635598e-09 0
6.7900837480431792e-08 1.0833715461464623e-08 0
6.9192081722893590e-08 1.7731413156184729e-09 0
6.7826507385066195e-08 -1.0684874566194008e-10 0
6.8979704977906007e-08 1.3295820754269177e-08 0
-3.0694815174590680e-09 8.2786881639778551e-09 0
-2.0397859681766161e-09 -7.0545230314607139e-09 0
2.4084231463819010e-07 1.5177237963666168e-08 0
2.4957061581619087e-07 2.5194964054209688e-08 0
-3.2048672224419587e-09 -8.4469281294412668e-09 0
-2.8362418039270100e-09 1.0790321382693346e-08 0
6.7471981903872254e-08 9.9790278326140955e-09 0
7.1903758642961391e-08 3.7178430806306827e-09 0
6.7274567684833685e-08 -8.6651709186741864e-10 0
7.1366537040613954e-08 1.5687036026330226e-08 0
-3.0121572735282174e-09 7.8122164474045250e-09 0
-1.8007492025944768e-09 -6.4911744650652827e-09 0
2.3949441549157722e-07 1.3476465337447651e-08 0
2.6263794090664392e-07 3.1559802319835117e-08 0
-3.3075465687634242e-09 -8.7868709543566335e-09 0
-3.2554048105998344e-09 1.2252524558332361e-08 0
6.7164344893684897e-08 9.5341336255136357e-09 0
7.6890041693096593e-08 5.5819996208991994e-09 0
6.6906095034099830e-08 -1.2102077005383295e-09 0
7.6032881383531511e-08 1.8337259771614166e-08 0
-3.0184040817515213e-09 7.6061682651364592e-09 0
-1.6633864360394812e-09 -6.3070597556081148e-09 0
2.3825444225292126e-07 1.3174345820158759e-08 0
2.8395531867020933e-07 3.8039362312273298e-08 0
-3.3597770147340199e-09 -8.8573100980095147e-09 0
-3.7636600776575884e-09 1.3912870838471934e-08 0
6.6843447431127652e-08 9.6326855705017401e-09 0
8.4346837296818554e-08 7.2612930985789265e-09 0
6.6600024416489391e-08 -9.8572695763315086e-10 0
8.3181810365543232e-08 2.1198755830224748e-08 0
-3.1079850243611397e-09 7.8279830513721994e-09 0
-1.6380693422162785e-09 -6.6615966200474012e-09 0
2.3705788052247392e-07 1.5205730653544540e-08 0
3.1489396963631135e-07 4.4215398576351013e-08 0
-3.3028850546576899e-09 -8.4726631693361163e-09 0
-4.3542695308313354e-09 1.5705122653130175e-08 0
6.6236859603630278e-08 1.0740827084184751e-08 0
9.4614427117801851e-08 8.4780816123980538e-09 0
6.6129821556290539e-08 2.5582724054941718e-10 0
9.3176737600482488e-08 2.4107160742390788e-08 0
-3.2167205018672244e-09 8.2981067118856542e-09 0
-1.6708179407188257e-09 -7.4617412905335824e-09 0
2.3477795411266005e-07 1.8561632874836873e-08 0
3.5736114197135205e-07 5.1230149534170304e-08 0
-3.3026665548272468e-09 -7.7850330802003870e-09 0
-5.2078146980406398e-09 1.7884701819291171e-08 0
6.6362928598490492e-08 1.2082553719643476e-08 0
1.0942010624683199e-07 1.0029183344170740e-08 0
6.6411314403750403e-08 1.8080884907995621e-09 0
1.0759392667905974e-07 2.7988703396603171e-08 0
-3.6053410056844644e-09 1.0329193787033716e-08 0
-1.9363433677633304e-09 -9.7071626335255734e-09 0
2.3808954329276915e-07 3.0149472068387977e-08 0
4.2007199850995457e-07 5.5957049314530930e-08 0
-2.8494067376169712e-09 -5.7340719392232817e-09 0
-6.1130657042932619e-09 1.9947147120617472e-08 0
6.5515952765028300e-08 1.8125645216776370e-08 0
1.2924975044936214e-07 9.0541939305600042e-09 0
6.6135651541295209e-08 7.6604872069686759e-09 0
1.2722206009062083e-07 3.0665737167704169e-08 0
-3.4466204220739983e-09 1.1130174143811254e-08 0
-1.8198029126570328e-09 -1.1556368908671064e-08 0
2.3876500608249911e-07 3.3628067876227983e-08 0
5.0884736340635672e-07 7.0977471867385007e-08 0
-4.3923766696269055e-09 -5.1419261554724767e-09 0
-9.1525084944390664e-09 2.4345492166794484e-08 0
7.8615537270331487e-08 1.9112737598446339e-08 0
1.6915572450300820e-07 1.4100322932189040e-08 0
7.8952389739772847e-08 8.7666300549302930e-09 0
1.6535805806681257e-07 4.1238957621722646e-08 0
-6.3949340174823009e-09 2.8504462996205160e-08 0
-3.5707263874570280e-09 -2.5649959852896190e-08 0
3.3612255838368584e-07 1.1985833274977506e-07 0
7.1306374691735806e-07 5.1269054170115395e-08 0
-2.7962212368706556e-09 9.3567359937293912e-09 0
-1.3058481294313231e-08 2.2713728594455888e-08 0
1.1248384590920532e-07 8.5229288629790835e-08 0
2.4717443296498641e-07 -8.1591955431357367e-09 0
8.6996783896799840e-08 1.2411938516479325e-07 0
2.2068739878368368e-07 -2.4103598750765184e-08 0
4.9813225552576209e-07 3.9782870410148997e-07 0
5.8934687814556751e-07 -6.6683345996492543e-08 0
3.5498352578342903e-07 3.1798570819411142e-07 0
4.6693378221637723e-07 2.8955571797614267e-07 0
3.4176875804579300e-07 1.9245280913436201e-07 0
3.4227018585096921e-07 1.9694849897371255e-07 0
5.1579249944724960e-07 2.6726379704775417e-08 0
3.5700741642726035e-07 -1.7477976542280722e-07 0

VECTORS Forces1 float
-2.2305050105881175e-02 1.4437256678073846e-02 0
-2.5633571213760555e-02 -1.4465312264379714e-02 0
3.2153384213753716e-01 -1.7928473782334195e-01 0
3.5010711249130749e-01 1.9430963575627072e-01 0
3.5255820413508798e-01 -5.4916767551870346e-02 0
3.8308040841178431e-01 6.0291766299785859e-02 0
2.2409945576625251e-01 9.2232410934990107e-03 0
2.4351254098931574e-01 -9.6135854945529290e-03 0
-3.3796350527982771e-02 -1.3042213156265940e-03 0
-3.6786932753374427e-02 1.3055848530159739e-03 0
8.5514293337028868e-01 -9.9009388522934864e-04 0
9.3213606226035983e-01 6.9150299628883780e-03 0
-3.6035179574958706e-02 3.0527857135081689e-05 0
-3.9659938319295290e-02 -4.7743668498654207e-04 0
2.4205000782454472e-01 -8.7899907007441631e-04 0
2.6607018027318857e-01 3.8905683663160726e-03 0
2.4206934010938860e-01 -8.8417230721493905e-04 0
2.6609680423068527e-01 3.9000047039373059e-03 0
-3.6042496798338861e-02 6.8615899818926855e-05 0
-3.9710294533157164e-02 -5.3243775720066716e-04 0
8.4876465137501622e-01 -5.7464278702716223e-03 0
9.4683311894356326e-01 2.1620304249136975e-02 0
-3.5748232308270997e-02 2.8787040183774398e-04 0
-4.0710204655137222e-02 -1.1884902082792545e-03 0
2.4005820904683239e-01 -2.4094993603452461e-03 0
2.7316157421159654e-01 8.5142478229766685e-03 0
2.4005681329951856e-01 -2.4111293166448259e-03 0
2.7317222068416736e-01 8.5192206573427142e-03 0
-3.5732957337065732e-02 2.9304586274949004e-04 0
-4.0778048228104526e-02 -1.2164598049790956e-03 0
8.4225908608461131e-01 -9.7911406476121760e-03 0
9.8396926873258295e-01 3.7769105542731371e-02 0
-3.5439323321010407e-02 3.7374014867995654e-04 0
-4.2750632006756273e-02 -1.8363311595825113e-03 0
2.3804521792873837e-01 -2.9840403441587561e-03 0
2.8704055620246954e-01 1.2896493812458635e-02 0
2.3804288690904352e-01 -2.9856882201741951e-03 0
2.8705678888414543e-01 1.2901949602972449e-02 0
-3.5423833090505744e-02 3.6804302157547830e-04 0
-4.2868534923430159e-02 -1.8595660830054018e-03 0
8.3382821643471117e-01 -9.7002953449077112e-03 0
1.0449103096816350e+00 5.2523102045880482e-02 0
-3.5037829621002804e-02 2.6061496165662650e-04 0
-4.5863792401825712e-02 -2.4140575090113633e-03 0
2.3540007575319075e-01 -2.2581452189325436e-03 0
3.0809779279407079e-01 1.6840892691361631e-02 0
2.3539648918393791e-01 -2.2593235461884176e-03 0
3.0812033202944178e-01 1.6846744823001338e-02 0
-3.5016143752020383e-02 2.3793852823191777e-04 0
-4.6036317118068756e-02 -2.4288712253987110e-03 0
8.2303030533702193e-01 -2.6958666751030116e-03 0
1.1335141591701201e+00 6.4479141389406261e-02 0
-3.4422075412528376e-02 -2.3472894686274378e-04 0
-5.0204714705201062e-02 -2.8280045346298758e-03 0
2.3131721659179746e-01 1.0012085744804913e-03 0
3.3738319631199432e-01 1.9728694243249155e-02 0
2.3131334418228219e-01 9.9887509752624357e-04 0
3.3741363444713623e-01 1.9736527127172183e-02 0
-3.4400920702685960e-02 -2.7481204635106788e-04 0
-5.0453566844293002e-02 -2.8353787217408146e-03 0
8.0656663038588239e-01 8.5716289879746686e-03 0
1.2547633244197953e+00 7.6466170000772701e-02 0
-3.3999770939465303e-02 -8.0651381924972591e-04 0
-5.6436423227093503e-02 -3.3368176877242675e-03 0
2.2862850714434629e-01 4.6060053665441065e-03 0
3.7937998047013533e-01 2.3396336774450539e-02 0
2.2862239285367655e-01 4.6032780439359917e-03 0
3.7941756527465942e-01 2.3406053093677361e-02 0
-3.3974657801139861e-02 -9.0656026518807532e-04 0
-5.6796978505659762e-02 -3.3138820915132516e-03 0
8.0208613734581846e-01 4.3229637377486536e-02 0
1.4335046046230437e+00 7.7940710934142884e-02 0
-3.3053472116650801e-02 -3.1509719991317901e-03 0
-6.4948119293134751e-02 -2.9600407135740138e-03 0
2.2223717668872778e-01 2.0025520546624927e-02 0
4.3635927170350497e-01 2.1212478979321162e-02 0
2.2222480198705724e-01 1.9994924769124831e-02 0
4.3638878353928595e-01 2.1236619473108367e-02 0
-3.3225270962658100e-02 -3.3170699757276551e-03 0
-6.5676531777704591e-02 -2.9312982623443460e-03 0
7.8878819531489242e-01 5.5392388509484018e-02 0
1.6842045602382805e+00 1.0312402318658076e-01 0
-3.8082161665836431e-02 -3.3609876117950584e-03 0
-8.1901729201666648e-02 -4.5000975089989209e-03 0
2.5511619607820463e-01 1.8713746072703753e-02 0
5.4790497548993511e-01 3.2790597390272846e-02 0
2.5506145988813717e-01 1.8585940371936036e-02 0
5.4781363231093771e-01 3.2852519304772766e-02 0
-3.8568574986112242e-02 -4.4833641292601695e-03 0
-8.3710075596602651e-02 -3.8906537790025109e-03 0
1.0339650261240525e+00 2.9484235261139591e-01 0
2.2685716813244960e+00 2.8808403797874194e-03 0
-4.6488573588334525e-02 -2.7142480315308321e-02 0
-1.1633068971143581e-01 9.4713774055414750e-03 0
3.4834942098327271e-01 1.7398368808651382e-01 0
8.0211667102886597e-01 -4.1070349547688095e-02 0
2.1847660491740531e-01 9.0198197459061588e-02 0
6.2299075028605566e-01 -3.2062436273637494e-02 0
1.2611643975771074e+00 7.7923317972520290e-01 0
1.6422957438935930e+00 -4.0002881944493730e-02 0
8.2029615481324897e-02 9.7046810890538029e-02 0
8.9692929256453013e-01 6.0847695485868492e-01 0
5.9263599320248639e-01 5.1364288183793150e-01 0
5.4891780073468321e-01 5.5336501474400102e-01 0
1.0278346747563936e+00 2.3901924077056003e-01 0
1.7656437281760864e-01 -6.2168508615630218e-02 0

