# vtk DataFile Version 2.0

ASCII

DATASET UNSTRUCTURED_GRID

POINTS 106 float 

-5.0000000000000003e-02  0.0000000000000000e+00  0.0000000000000000e+00
5.0000000000000003e-02  0.0000000000000000e+00  0.0000000000000000e+00
-5.0000000000000003e-02  2.0000000000000000e-02  0.0000000000000000e+00
5.0000000000000003e-02  2.0000000000000000e-02  0.0000000000000000e+00
-5.0000000000000003e-02  4.0000000000000001e-02  0.0000000000000000e+00
5.0000000000000003e-02  4.0000000000000001e-02  0.0000000000000000e+00
-5.0000000000000003e-02  5.9999999999999998e-02  0.0000000000000000e+00
5.0000000000000003e-02  5.9999999999999998e-02  0.0000000000000000e+00
-5.0000000000000003e-02  8.0000000000000002e-02  0.0000000000000000e+00
5.0000000000000003e-02  8.0000000000000002e-02  0.0000000000000000e+00
-5.0000000000000003e-02  1.0000000000000001e-01  0.0000000000000000e+00
5.0000000000000003e-02  1.0000000000000001e-01  0.0000000000000000e+00
-5.0000000000000003e-02  1.2000000000000000e-01  0.0000000000000000e+00
5.0000000000000003e-02  1.2000000000000000e-01  0.0000000000000000e+00
-5.0000000000000003e-02  1.4000000000000001e-01  0.0000000000000000e+00
5.0000000000000003e-02  1.4000000000000001e-01  0.0000000000000000e+00
-5.0000000000000003e-02  1.6000000000000000e-01  0.0000000000000000e+00
5.0000000000000003e-02  1.6000000000000000e-01  0.0000000000000000e+00
-5.0000000000000003e-02  1.7999999999999999e-01  0.0000000000000000e+00
5.0000000000000003e-02  1.7999999999999999e-01  0.0000000000000000e+00
-5.0000000000000003e-02  2.0000000000000001e-01  0.0000000000000000e+00
5.0000000000000003e-02  2.0000000000000001e-01  0.0000000000000000e+00
-5.0000000000000003e-02  2.2000000000000000e-01  0.0000000000000000e+00
5.0000000000000003e-02  2.2000000000000000e-01  0.0000000000000000e+00
-5.0000000000000003e-02  2.3999999999999999e-01  0.0000000000000000e+00
5.0000000000000003e-02  2.3999999999999999e-01  0.0000000000000000e+00
-5.0000000000000003e-02  2.6000000000000001e-01  0.0000000000000000e+00
5.0000000000000003e-02  2.6000000000000001e-01  0.0000000000000000e+00
-5.0000000000000003e-02  2.8000000000000003e-01  0.0000000000000000e+00
5.0000000000000003e-02  2.8000000000000003e-01  0.0000000000000000e+00
-5.0000000000000003e-02  2.9999999999999999e-01  0.0000000000000000e+00
5.0000000000000003e-02  2.9999999999999999e-01  0.0000000000000000e+00
-5.0000000000000003e-02  3.2000000000000001e-01  0.0000000000000000e+00
5.0000000000000003e-02  3.2000000000000001e-01  0.0000000000000000e+00
-5.0000000000000003e-02  3.4000000000000002e-01  0.0000000000000000e+00
5.0000000000000003e-02  3.4000000000000002e-01  0.0000000000000000e+00
-5.0000000000000003e-02  3.5999999999999999e-01  0.0000000000000000e+00
5.0000000000000003e-02  3.5999999999999999e-01  0.0000000000000000e+00
-5.0000000000000003e-02  3.8000000000000000e-01  0.0000000000000000e+00
5.0000000000000003e-02  3.8000000000000000e-01  0.0000000000000000e+00
-5.0000000000000003e-02  4.0000000000000002e-01  0.0000000000000000e+00
5.0000000000000003e-02  4.0000000000000002e-01  0.0000000000000000e+00
-5.0000000000000003e-02  4.1999999999999998e-01  0.0000000000000000e+00
5.0000000000000003e-02  4.1999999999999998e-01  0.0000000000000000e+00
-5.0000000000000003e-02  4.4000000000000000e-01  0.0000000000000000e+00
5.0000000000000003e-02  4.4000000000000000e-01  0.0000000000000000e+00
-5.0000000000000003e-02  4.6000000000000002e-01  0.0000000000000000e+00
5.0000000000000003e-02  4.6000000000000002e-01  0.0000000000000000e+00
-5.0000000000000003e-02  4.7999999999999998e-01  0.0000000000000000e+00
5.0000000000000003e-02  4.7999999999999998e-01  0.0000000000000000e+00
-5.0000000000000003e-02  5.0000000000000000e-01  0.0000000000000000e+00
5.0000000000000003e-02  5.0000000000000000e-01  0.0000000000000000e+00
-5.0000000000000003e-02  5.2000000000000002e-01  0.0000000000000000e+00
5.0000000000000003e-02  5.2000000000000002e-01  0.0000000000000000e+00
-5.0000000000000003e-02  5.4000000000000004e-01  0.0000000000000000e+00
5.0000000000000003e-02  5.4000000000000004e-01  0.0000000000000000e+00
-5.0000000000000003e-02  5.6000000000000005e-01  0.0000000000000000e+00
5.0000000000000003e-02  5.6000000000000005e-01  0.0000000000000000e+00
-5.0000000000000003e-02  5.7999999999999996e-01  0.0000000000000000e+00
5.0000000000000003e-02  5.7999999999999996e-01  0.0000000000000000e+00
-5.0000000000000003e-02  5.9999999999999998e-01  0.0000000000000000e+00
5.0000000000000003e-02  5.9999999999999998e-01  0.0000000000000000e+00
-5.0000000000000003e-02  6.2000000000000000e-01  0.0000000000000000e+00
5.0000000000000003e-02  6.2000000000000000e-01  0.0000000000000000e+00
-5.0000000000000003e-02  6.4000000000000001e-01  0.0000000000000000e+00
5.0000000000000003e-02  6.4000000000000001e-01  0.0000000000000000e+00
-5.0000000000000003e-02  6.6000000000000003e-01  0.0000000000000000e+00
5.0000000000000003e-02  6.6000000000000003e-01  0.0000000000000000e+00
-5.0000000000000003e-02  6.8000000000000005e-01  0.0000000000000000e+00
5.0000000000000003e-02  6.8000000000000005e-01  0.0000000000000000e+00
-5.0000000000000003e-02  6.9999999999999996e-01  0.0000000000000000e+00
5.0000000000000003e-02  6.9999999999999996e-01  0.0000000000000000e+00
-5.0000000000000003e-02  7.1999999999999997e-01  0.0000000000000000e+00
5.0000000000000003e-02  7.1999999999999997e-01  0.0000000000000000e+00
-5.0000000000000003e-02  7.3999999999999999e-01  0.0000000000000000e+00
5.0000000000000003e-02  7.3999999999999999e-01  0.0000000000000000e+00
-5.0000000000000003e-02  7.6000000000000001e-01  0.0000000000000000e+00
5.0000000000000003e-02  7.6000000000000001e-01  0.0000000000000000e+00
-5.0000000000000003e-02  7.8000000000000003e-01  0.0000000000000000e+00
5.0000000000000003e-02  7.8000000000000003e-01  0.0000000000000000e+00
-5.0000000000000003e-02  8.0000000000000004e-01  0.0000000000000000e+00
5.0000000000000003e-02  8.0000000000000004e-01  0.0000000000000000e+00
-5.0000000000000003e-02  8.1999999999999995e-01  0.0000000000000000e+00
5.0000000000000003e-02  8.1999999999999995e-01  0.0000000000000000e+00
-5.0000000000000003e-02  8.3999999999999997e-01  0.0000000000000000e+00
5.0000000000000003e-02  8.3999999999999997e-01  0.0000000000000000e+00
-5.0000000000000003e-02  8.5999999999999999e-01  0.0000000000000000e+00
5.0000000000000003e-02  8.5999999999999999e-01  0.0000000000000000e+00
-5.0000000000000003e-02  8.8000000000000000e-01  0.0000000000000000e+00
5.0000000000000003e-02  8.8000000000000000e-01  0.0000000000000000e+00
-5.0000000000000003e-02  9.0000000000000002e-01  0.0000000000000000e+00
5.0000000000000003e-02  9.0000000000000002e-01  0.0000000000000000e+00
-5.0000000000000003e-02  9.2000000000000004e-01  0.0000000000000000e+00
5.0000000000000003e-02  9.2000000000000004e-01  0.0000000000000000e+00
-5.0000000000000003e-02  9.3999999999999995e-01  0.0000000000000000e+00
5.0000000000000003e-02  9.3999999999999995e-01  0.0000000000000000e+00
-5.0000000000000003e-02  9.5999999999999996e-01  0.0000000000000000e+00
5.0000000000000003e-02  9.5999999999999996e-01  0.0000000000000000e+00
-5.0000000000000003e-02  9.7999999999999998e-01  0.0000000000000000e+00
5.0000000000000003e-02  9.7999999999999998e-01  0.0000000000000000e+00
-5.0000000000000003e-02  1.0000000000000000e+00  0.0000000000000000e+00
-3.0000000000000002e-02  1.0000000000000000e+00  0.0000000000000000e+00
-1.0000000000000002e-02  1.0000000000000000e+00  0.0000000000000000e+00
1.0000000000000009e-02  1.0000000000000000e+00  0.0000000000000000e+00
2.9999999999999999e-02  1.0000000000000000e+00  0.0000000000000000e+00
5.0000000000000003e-02  1.0000000000000000e+00  0.0000000000000000e+00

CELLS 0 0


CELL_TYPES 0


POINT_DATA 106

VECTORS VertexNormals float

0.0000000000000000e+00 0.0000000000000000e+00 0
0.0000000000000000e+00 0.0000000000000000e+00 0
0.0000000000000000e+00 0.0000000000000000e+00 0
0.0000000000000000e+00 0.0000000000000000e+00 0
0.0000000000000000e+00 0.0000000000000000e+00 0
0.0000000000000000e+00 0.0000000000000000e+00 0
0.0000000000000000e+00 0.0000000000000000e+00 0
0.0000000000000000e+00 0.0000000000000000e+00 0
0.0000000000000000e+00 0.0000000000000000e+00 0
0.0000000000000000e+00 0.0000000000000000e+00 0
0.0000000000000000e+00 0.0000000000000000e+00 0
0.0000000000000000e+00 0.0000000000000000e+00 0
0.0000000000000000e+00 0.0000000000000000e+00 0
0.0000000000000000e+00 0.0000000000000000e+00 0
0.0000000000000000e+00 0.0000000000000000e+00 0
0.0000000000000000e+00 0.0000000000000000e+00 0
0.0000000000000000e+00 0.0000000000000000e+00 0
0.0000000000000000e+00 0.0000000000000000e+00 0
0.0000000000000000e+00 0.0000000000000000e+00 0
0.0000000000000000e+00 0.0000000000000000e+00 0
0.0000000000000000e+00 0.0000000000000000e+00 0
0.0000000000000000e+00 0.0000000000000000e+00 0
0.0000000000000000e+00 0.0000000000000000e+00 0
0.0000000000000000e+00 0.0000000000000000e+00 0
0.0000000000000000e+00 0.0000000000000000e+00 0
0.0000000000000000e+00 0.0000000000000000e+00 0
0.0000000000000000e+00 0.0000000000000000e+00 0
0.0000000000000000e+00 0.0000000000000000e+00 0
0.0000000000000000e+00 0.0000000000000000e+00 0
0.0000000000000000e+00 0.0000000000000000e+00 0
0.0000000000000000e+00 0.0000000000000000e+00 0
0.0000000000000000e+00 0.0000000000000000e+00 0
0.0000000000000000e+00 0.0000000000000000e+00 0
0.0000000000000000e+00 0.0000000000000000e+00 0
0.0000000000000000e+00 0.0000000000000000e+00 0
0.0000000000000000e+00 0.0000000000000000e+00 0
0.0000000000000000e+00 0.0000000000000000e+00 0
0.0000000000000000e+00 0.0000000000000000e+00 0
0.0000000000000000e+00 0.0000000000000000e+00 0
0.0000000000000000e+00 0.0000000000000000e+00 0
0.0000000000000000e+00 0.0000000000000000e+00 0
0.0000000000000000e+00 0.0000000000000000e+00 0
0.0000000000000000e+00 0.0000000000000000e+00 0
0.0000000000000000e+00 0.0000000000000000e+00 0
0.0000000000000000e+00 0.0000000000000000e+00 0
0.0000000000000000e+00 0.0000000000000000e+00 0
0.0000000000000000e+00 0.0000000000000000e+00 0
0.0000000000000000e+00 0.0000000000000000e+00 0
0.0000000000000000e+00 0.0000000000000000e+00 0
0.0000000000000000e+00 0.0000000000000000e+00 0
0.0000000000000000e+00 0.0000000000000000e+00 0
0.0000000000000000e+00 0.0000000000000000e+00 0
0.0000000000000000e+00 0.0000000000000000e+00 0
0.0000000000000000e+00 0.0000000000000000e+00 0
0.0000000000000000e+00 0.0000000000000000e+00 0
0.0000000000000000e+00 0.0000000000000000e+00 0
0.0000000000000000e+00 0.0000000000000000e+00 0
0.0000000000000000e+00 0.0000000000000000e+00 0
0.0000000000000000e+00 0.0000000000000000e+00 0
0.0000000000000000e+00 0.0000000000000000e+00 0
0.0000000000000000e+00 0.0000000000000000e+00 0
0.0000000000000000e+00 0.0000000000000000e+00 0
0.0000000000000000e+00 0.0000000000000000e+00 0
0.0000000000000000e+00 0.0000000000000000e+00 0
0.0000000000000000e+00 0.0000000000000000e+00 0
0.0000000000000000e+00 0.0000000000000000e+00 0
0.0000000000000000e+00 0.0000000000000000e+00 0
0.0000000000000000e+00 0.0000000000000000e+00 0
0.0000000000000000e+00 0.0000000000000000e+00 0
0.0000000000000000e+00 0.0000000000000000e+00 0
0.0000000000000000e+00 0.0000000000000000e+00 0
0.0000000000000000e+00 0.0000000000000000e+00 0
0.0000000000000000e+00 0.0000000000000000e+00 0
0.0000000000000000e+00 0.0000000000000000e+00 0
0.0000000000000000e+00 0.0000000000000000e+00 0
0.0000000000000000e+00 0.0000000000000000e+00 0
0.0000000000000000e+00 0.0000000000000000e+00 0
0.0000000000000000e+00 0.0000000000000000e+00 0
0.0000000000000000e+00 0.0000000000000000e+00 0
0.0000000000000000e+00 0.0000000000000000e+00 0
0.0000000000000000e+00 0.0000000000000000e+00 0
0.0000000000000000e+00 0.0000000000000000e+00 0
0.0000000000000000e+00 0.0000000000000000e+00 0
0.0000000000000000e+00 0.0000000000000000e+00 0
0.0000000000000000e+00 0.0000000000000000e+00 0
0.0000000000000000e+00 0.0000000000000000e+00 0
0.0000000000000000e+00 0.0000000000000000e+00 0
0.0000000000000000e+00 0.0000000000000000e+00 0
0.0000000000000000e+00 0.0000000000000000e+00 0
0.0000000000000000e+00 0.0000000000000000e+00 0
0.0000000000000000e+00 0.0000000000000000e+00 0
0.0000000000000000e+00 0.0000000000000000e+00 0
0.0000000000000000e+00 0.0000000000000000e+00 0
0.0000000000000000e+00 0.0000000000000000e+00 0
0.0000000000000000e+00 0.0000000000000000e+00 0
0.0000000000000000e+00 0.0000000000000000e+00 0
0.0000000000000000e+00 0.0000000000000000e+00 0
0.0000000000000000e+00 0.0000000000000000e+00 0
0.0000000000000000e+00 0.0000000000000000e+00 0
0.0000000000000000e+00 0.0000000000000000e+00 0
0.0000000000000000e+00 0.0000000000000000e+00 0
0.0000000000000000e+00 0.0000000000000000e+00 0
0.0000000000000000e+00 0.0000000000000000e+00 0
0.0000000000000000e+00 0.0000000000000000e+00 0
0.0000000000000000e+00 0.0000000000000000e+00 0
0.0000000000000000e+00 0.0000000000000000e+00 0

VECTORS Displacements1 float
-5.7639920103422660e-17 3.2202347809943407e-17 0
-1.4018284931823975e-22 5.3944317641956842e-23 0
1.8716609605394156e-06 8.2261383739811880e-07 0
1.8034847484739464e-06 -7.7253378652973056e-07 0
3.1834768552094197e-06 1.1583099055139961e-06 0
3.0724919854184024e-06 -1.0933050582709793e-06 0
4.0170829036254300e-06 1.2103562182622059e-06 0
3.9253899901325971e-06 -1.1363727339970422e-06 0
4.5578801312224199e-06 1.0879344420674736e-06 0
4.5102296095922410e-06 -1.0188445255632967e-06 0
6.2635793526000577e-06 8.1408738171623765e-07 0
5.9870574556825503e-06 -5.8411453325414042e-07 0
5.3014506176104226e-06 3.7158973717085084e-07 0
5.2353921715920112e-06 -2.8621666267752217e-07 0
5.5728676404792334e-06 2.7705637608543911e-07 0
5.4639223873388838e-06 -1.0746475659710198e-07 0
5.5420263311012208e-06 1.9405794113650275e-07 0
5.4344955281486849e-06 1.9437802574858883e-09 0
5.2946575540707606e-06 2.2535062901916592e-07 0
5.2343171760057510e-06 -3.1693713667087584e-08 0
6.5276865866956466e-06 2.2058156035719938e-07 0
6.2545009808856659e-06 1.6275667839141718e-07 0
5.3508887877426031e-06 5.7297887592983118e-08 0
5.2832958301515861e-06 1.7112435158876730e-07 0
5.6047239597628176e-06 1.7297172485732998e-07 0
5.5021550357259539e-06 1.5426757521619278e-07 0
5.6294375607020045e-06 2.0665555706824971e-07 0
5.5297532674679391e-06 1.5380838087447155e-07 0
5.4319565836334193e-06 2.8477887424484893e-07 0
5.3779802683680172e-06 7.2005438787336357e-08 0
6.6795750675688739e-06 3.0310710122583887e-07 0
6.4512372386459617e-06 2.8453447818518767e-07 0
5.4958590398989793e-06 1.5499104647495988e-07 0
5.4294857449412453e-06 2.5550063697551229e-07 0
5.7573890710954013e-06 2.8684196229147475e-07 0
5.6716396268041744e-06 2.3066974332381491e-07 0
5.7934370842597923e-06 3.2877924747948283e-07 0
5.7110523219824417e-06 2.2925151780405427e-07 0
5.6065589165268421e-06 4.1352765071050137e-07 0
5.5658217300137050e-06 1.3822351343163810e-07 0
6.8765360324701672e-06 4.4579226158951552e-07 0
6.7313907129802727e-06 3.8703115745808061e-07 0
5.7059377254702704e-06 2.9420768044759041e-07 0
5.6452902502929387e-06 3.3850428671782437e-07 0
5.9856289796581007e-06 4.3491184398663995e-07 0
5.9265757144351055e-06 3.1677220436197259e-07 0
6.0389793903907347e-06 4.8437662287140683e-07 0
5.9849692750973689e-06 3.1652837991220158e-07 0
5.8672631219381628e-06 5.7808707538408395e-07 0
5.8451066060627683e-06 2.1408430334398539e-07 0
7.1651860047110029e-06 6.3922298608762165e-07 0
7.1445116320272480e-06 5.0362720209474342e-07 0
6.0114337059784047e-06 4.7967018383682671e-07 0
5.9590254148369788e-06 4.3763274345235782e-07 0
6.3104793707313675e-06 6.3705953249102326e-07 0
6.2895886293550779e-06 4.1607890657996034e-07 0
6.3849572991696625e-06 7.0051479278527777e-07 0
6.3706446690794277e-06 4.1572090046378109e-07 0
6.2346888391477307e-06 8.0730856807981394e-07 0
6.2360483364070757e-06 2.9740763834784030e-07 0
7.5659444896083321e-06 9.1430491268614413e-07 0
7.7239715813685934e-06 6.3379483382121038e-07 0
6.4490686058918860e-06 7.5313834685968594e-07 0
6.4060956395629384e-06 5.4602019714134644e-07 0
6.7898052352142581e-06 9.4461767378244825e-07 0
6.8148883770771141e-06 5.2061996380627905e-07 0
6.9106482961907343e-06 1.0502061960618240e-06 0
6.9355686080364298e-06 5.2008455852373678e-07 0
6.8087904833308234e-06 1.2270601003233434e-06 0
6.8102880091043035e-06 3.8614481171523962e-07 0
8.2426499209762608e-06 1.4914344163991386e-06 0
8.5691377537391124e-06 7.9885049287938788e-07 0
7.1844936144690397e-06 1.4100623780543829e-06 0
7.0341935020941272e-06 7.3350866173913294e-07 0
7.5994845079789605e-06 1.8267074961442744e-06 0
7.4971266485078139e-06 7.4718698104015372e-07 0
7.8021755283212302e-06 2.2212691966834229e-06 0
7.6133850057842368e-06 7.8947729753932932e-07 0
7.7868027253671695e-06 2.7411860638490790e-06 0
7.4214475500762200e-06 6.6123171431935595e-07 0
9.2599459435313204e-06 3.4934569228116709e-06 0
9.4443459664158005e-06 1.1442525138147487e-06 0
8.1310483012178640e-06 3.9967462521924305e-06 0
7.3941677025629434e-06 8.7718851856347057e-07 0
8.4741716831083448e-06 5.3532277262429704e-06 0
7.8017919633870908e-06 4.1704725902308207e-07 0
8.7570299748776971e-06 7.1639785533601092e-06 0
8.0154080227977577e-06 -5.3157020219355733e-07 0
9.4563829987906063e-06 9.6830069257912362e-06 0
8.6267564810686149e-06 -2.2874714304064420e-06 0
1.3296939765323609e-05 1.3021185526120421e-05 0
1.3508386062894967e-05 -3.6721326347296689e-06 0
1.5224394236951122e-05 1.5388037981144718e-05 0
1.4376755577428265e-05 -5.8853385583772826e-06 0
2.0568186783989883e-05 1.8768028834869500e-05 0
2.0235360232683888e-05 -8.0118840362912146e-06 0
2.6837405707867879e-05 2.1590717664321740e-05 0
2.6635292354939196e-05 -9.7963965254492171e-06 0
3.5924377684139670e-05 2.4499031573118252e-05 0
3.5328858109076849e-05 -1.0765839662661884e-05 0
4.2875929982124206e-05 2.4563477085279331e-05 0
4.2900607116087918e-05 1.7168611799157256e-05 0
4.1682150919133769e-05 1.0013670531069988e-05 0
4.1445984837625629e-05 3.6816127681478621e-06 0
4.2284771623104845e-05 -3.5157925280238290e-06 0
4.1999790152763127e-05 -1.1529693790272280e-05 0

VECTORS Forces1 float
-3.6276855039331934e-01 2.1640991668927123e-01 0
-2.3975095556314036e-01 -1.4214240876279835e-01 0
4.7526791108447837e+00 -2.6331446527692157e+00 0
3.2137483073057505e+00 1.7779784329515376e+00 0
5.2060561167973258e+00 -8.0655362428757105e-01 0
3.5310944327244163e+00 5.4645847596442421e-01 0
3.3164707444438495e+00 1.3568230728508893e-01 0
2.2508654509707080e+00 -9.0778931056893053e-02 0
-4.9994403472750215e-01 -1.8205782814120559e-02 0
-3.3984712421303559e-01 1.2254976495190480e-02 0
1.2775757163020067e+01 6.5938148390876526e-03 0
8.6950379670660087e+00 1.9513630477997437e-02 0
-5.4400100302964316e-01 -6.4532535240803253e-04 0
-3.7188972903173928e-01 -1.7508860112385477e-03 0
3.6550098803777651e+00 1.6867735671836928e-04 0
2.4970991636398883e+00 1.5760471178686050e-02 0
3.6553066714772493e+00 9.1364584774983226e-05 0
2.4973565176678942e+00 1.5814529983360248e-02 0
-5.4469600688694531e-01 -2.7826748718734018e-04 0
-3.7236988335714138e-01 -2.1828966447783125e-03 0
1.2935130814072650e+01 -4.6167779540947230e-04 0
8.8728369938224141e+00 9.6968931474735801e-02 0
-5.4761780234968671e-01 -5.1367900397888619e-04 0
-3.7779242280984116e-01 -5.3618430734330026e-03 0
3.6762183233802057e+00 1.8431999444196974e-03 0
2.5358481632912664e+00 3.8123838824410193e-02 0
3.6762239394592577e+00 1.8466834939346460e-03 0
2.5358866455826496e+00 3.8144058376234212e-02 0
-5.4763858274173638e-01 -5.4928987913670929e-04 0
-3.7800509127367216e-01 -5.5068581088851499e-03 0
1.2937400644454565e+01 1.9474701568227563e-02 0
8.9818970941161709e+00 1.7046548207326220e-01 0
-5.4581367310607753e-01 -1.6793636069403139e-03 0
-3.8233890834736406e-01 -8.4547968393357490e-03 0
3.6635224487855100e+00 9.8073681515023978e-03 0
2.5664314310823300e+00 5.8931017512390015e-02 0
3.6635012778125304e+00 9.8119575684092915e-03 0
2.5664703603321599e+00 5.8953578210129788e-02 0
-5.4566016525400118e-01 -1.7690524138797743e-03 0
-3.8254769082173229e-01 -8.5833814273667489e-03 0
1.2857204056116693e+01 5.6240636538266608e-02 0
9.1014225917138081e+00 2.4367346839783796e-01 0
-5.4099618589945619e-01 -3.7326681693575035e-03 0
-3.8790469112204945e-01 -1.1466612245343176e-02 0
3.6308306315554622e+00 2.3550114196901790e-02 0
2.6041555808871584e+00 7.9368671621952505e-02 0
3.6307862047597399e+00 2.3558134109869795e-02 0
2.6042030953901234e+00 7.9393924105307823e-02 0
-5.4069383748223065e-01 -3.8982777290692884e-03 0
-3.8815865313492043e-01 -1.1576190924284979e-02 0
1.2702616402261460e+01 1.2610157721705273e-01 0
9.2485678350140716e+00 3.1180539212869057e-01 0
-5.3235418436156923e-01 -7.6169268811596630e-03 0
-3.9461265492625514e-01 -1.4179350350886072e-02 0
3.5722565056378777e+00 4.9515740523536717e-02 0
2.6495398574165692e+00 9.7968127409860203e-02 0
3.5721899396293399e+00 4.9522962265287830e-02 0
2.6496007489893127e+00 9.8001153542711120e-02 0
-5.3193498010630769e-01 -7.8684705642559118e-03 0
-3.9495729071646657e-01 -1.4276566276367895e-02 0
1.2452275371189110e+01 2.2088033072640639e-01 0
9.4305518647281161e+00 3.8542526951587919e-01 0
-5.2181192386225761e-01 -1.2352125316105765e-02 0
-4.0421867456115262e-01 -1.7457263175955827e-02 0
3.5010524170007042e+00 8.0619942761362681e-02 0
2.7145942837600230e+00 1.2082961878300577e-01 0
3.5009308468559355e+00 8.0637245301332275e-02 0
2.7146580274802830e+00 1.2087092997434200e-01 0
-5.2115798041854267e-01 -1.2904921720307204e-02 0
-4.0465343875511767e-01 -1.7493096602090585e-02 0
1.2160073129870188e+01 4.4622890082449335e-01 0
9.6940168415714592e+00 4.3982513482000452e-01 0
-5.0092008035435343e-01 -2.6572174668182617e-02 0
-4.1406524687769641e-01 -1.8946594087508227e-02 0
3.3578165684437260e+00 1.7550239015266589e-01 0
2.7798425596646683e+00 1.3208104167833998e-01 0
3.3575874440856808e+00 1.7542373558783989e-01 0
2.7798806062656753e+00 1.3216268315534418e-01 0
-5.0114660376150133e-01 -2.7443021768223969e-02 0
-4.1575721535510818e-01 -1.9032786242233361e-02 0
1.1621723023446659e+01 6.0603449908101714e-01 0
1.0083401169253742e+01 6.0125289274873583e-01 0
-5.0754056326765828e-01 -3.2935191480454873e-02 0
-4.6006597283425188e-01 -2.7145687211249849e-02 0
3.3930538376684245e+00 2.0799381031532846e-01 0
3.0822903403362516e+00 1.9021367291981012e-01 0
3.3921071742013056e+00 2.0763790191175563e-01 0
3.0819487637121870e+00 1.9035865286706405e-01 0
-5.0912600844566958e-01 -3.7753615023458455e-02 0
-4.6422509608233481e-01 -2.5414312355499933e-02 0
1.2084282311020592e+01 1.9202524351560804e+00 0
1.1740963875763574e+01 2.9804595284249852e-01 0
-4.8034644808174753e-01 -1.4755507272334545e-01 0
-5.2859832683317087e-01 1.7395808076535856e-02 0
3.3343010107633981e+00 9.7890703978377747e-01 0
3.6884827461599432e+00 -3.2160753983490185e-02 0
2.5722463283011572e+00 6.4045315419289794e-01 0
2.9655126881378782e+00 -6.1336853134271979e-02 0
7.0744227453756299e+00 3.1117491412548941e+00 0
6.6436512808073038e+00 4.4869918852352375e-01 0
6.5175392470285887e-01 4.0011628523464299e-01 0
4.8293033257823872e+00 2.0456919799993853e+00 0
2.5951649188064536e+00 1.7426273640229242e+00 0
2.4382881911697383e+00 2.0632177526158020e+00 0
4.1797102872043022e+00 1.3512214417059227e+00 0
6.2598242342555688e-01 -1.7210930829491439e-01 0

