# vtk DataFile Version 2.0

ASCII

DATASET UNSTRUCTURED_GRID

POINTS 106 float 

-5.0000000000000003e-02  0.0000000000000000e+00  0.0000000000000000e+00
5.0000000000000003e-02  0.0000000000000000e+00  0.0000000000000000e+00
-5.0000000000000003e-02  2.0000000000000000e-02  0.0000000000000000e+00
5.0000000000000003e-02  2.0000000000000000e-02  0.0000000000000000e+00
-5.0000000000000003e-02  4.0000000000000001e-02  0.0000000000000000e+00
5.0000000000000003e-02  4.0000000000000001e-02  0.0000000000000000e+00
-5.0000000000000003e-02  5.9999999999999998e-02  0.0000000000000000e+00
5.0000000000000003e-02  5.9999999999999998e-02  0.0000000000000000e+00
-5.0000000000000003e-02  8.0000000000000002e-02  0.0000000000000000e+00
5.0000000000000003e-02  8.0000000000000002e-02  0.0000000000000000e+00
-5.0000000000000003e-02  1.0000000000000001e-01  0.0000000000000000e+00
5.0000000000000003e-02  1.0000000000000001e-01  0.0000000000000000e+00
-5.0000000000000003e-02  1.2000000000000000e-01  0.0000000000000000e+00
5.0000000000000003e-02  1.2000000000000000e-01  0.0000000000000000e+00
-5.0000000000000003e-02  1.4000000000000001e-01  0.0000000000000000e+00
5.0000000000000003e-02  1.4000000000000001e-01  0.0000000000000000e+00
-5.0000000000000003e-02  1.6000000000000000e-01  0.0000000000000000e+00
5.0000000000000003e-02  1.6000000000000000e-01  0.0000000000000000e+00
-5.0000000000000003e-02  1.7999999999999999e-01  0.0000000000000000e+00
5.0000000000000003e-02  1.7999999999999999e-01  0.0000000000000000e+00
-5.0000000000000003e-02  2.0000000000000001e-01  0.0000000000000000e+00
5.0000000000000003e-02  2.0000000000000001e-01  0.0000000000000000e+00
-5.0000000000000003e-02  2.2000000000000000e-01  0.0000000000000000e+00
5.0000000000000003e-02  2.2000000000000000e-01  0.0000000000000000e+00
-5.0000000000000003e-02  2.3999999999999999e-01  0.0000000000000000e+00
5.0000000000000003e-02  2.3999999999999999e-01  0.0000000000000000e+00
-5.0000000000000003e-02  2.6000000000000001e-01  0.0000000000000000e+00
5.0000000000000003e-02  2.6000000000000001e-01  0.0000000000000000e+00
-5.0000000000000003e-02  2.8000000000000003e-01  0.0000000000000000e+00
5.0000000000000003e-02  2.8000000000000003e-01  0.0000000000000000e+00
-5.0000000000000003e-02  2.9999999999999999e-01  0.0000000000000000e+00
5.0000000000000003e-02  2.9999999999999999e-01  0.0000000000000000e+00
-5.0000000000000003e-02  3.2000000000000001e-01  0.0000000000000000e+00
5.0000000000000003e-02  3.2000000000000001e-01  0.0000000000000000e+00
-5.0000000000000003e-02  3.4000000000000002e-01  0.0000000000000000e+00
5.0000000000000003e-02  3.4000000000000002e-01  0.0000000000000000e+00
-5.0000000000000003e-02  3.5999999999999999e-01  0.0000000000000000e+00
5.0000000000000003e-02  3.5999999999999999e-01  0.0000000000000000e+00
-5.0000000000000003e-02  3.8000000000000000e-01  0.0000000000000000e+00
5.0000000000000003e-02  3.8000000000000000e-01  0.0000000000000000e+00
-5.0000000000000003e-02  4.0000000000000002e-01  0.0000000000000000e+00
5.0000000000000003e-02  4.0000000000000002e-01  0.0000000000000000e+00
-5.0000000000000003e-02  4.1999999999999998e-01  0.0000000000000000e+00
5.0000000000000003e-02  4.1999999999999998e-01  0.0000000000000000e+00
-5.0000000000000003e-02  4.4000000000000000e-01  0.0000000000000000e+00
5.0000000000000003e-02  4.4000000000000000e-01  0.0000000000000000e+00
-5.0000000000000003e-02  4.6000000000000002e-01  0.0000000000000000e+00
5.0000000000000003e-02  4.6000000000000002e-01  0.0000000000000000e+00
-5.0000000000000003e-02  4.7999999999999998e-01  0.0000000000000000e+00
5.0000000000000003e-02  4.7999999999999998e-01  0.0000000000000000e+00
-5.0000000000000003e-02  5.0000000000000000e-01  0.0000000000000000e+00
5.0000000000000003e-02  5.0000000000000000e-01  0.0000000000000000e+00
-5.0000000000000003e-02  5.2000000000000002e-01  0.0000000000000000e+00
5.0000000000000003e-02  5.2000000000000002e-01  0.0000000000000000e+00
-5.0000000000000003e-02  5.4000000000000004e-01  0.0000000000000000e+00
5.0000000000000003e-02  5.4000000000000004e-01  0.0000000000000000e+00
-5.0000000000000003e-02  5.6000000000000005e-01  0.0000000000000000e+00
5.0000000000000003e-02  5.6000000000000005e-01  0.0000000000000000e+00
-5.0000000000000003e-02  5.7999999999999996e-01  0.0000000000000000e+00
5.0000000000000003e-02  5.7999999999999996e-01  0.0000000000000000e+00
-5.0000000000000003e-02  5.9999999999999998e-01  0.0000000000000000e+00
5.0000000000000003e-02  5.9999999999999998e-01  0.0000000000000000e+00
-5.0000000000000003e-02  6.2000000000000000e-01  0.0000000000000000e+00
5.0000000000000003e-02  6.2000000000000000e-01  0.0000000000000000e+00
-5.0000000000000003e-02  6.4000000000000001e-01  0.0000000000000000e+00
5.0000000000000003e-02  6.4000000000000001e-01  0.0000000000000000e+00
-5.0000000000000003e-02  6.6000000000000003e-01  0.0000000000000000e+00
5.0000000000000003e-02  6.6000000000000003e-01  0.0000000000000000e+00
-5.0000000000000003e-02  6.8000000000000005e-01  0.0000000000000000e+00
5.0000000000000003e-02  6.8000000000000005e-01  0.0000000000000000e+00
-5.0000000000000003e-02  6.9999999999999996e-01  0.0000000000000000e+00
5.0000000000000003e-02  6.9999999999999996e-01  0.0000000000000000e+00
-5.0000000000000003e-02  7.1999999999999997e-01  0.0000000000000000e+00
5.0000000000000003e-02  7.1999999999999997e-01  0.0000000000000000e+00
-5.0000000000000003e-02  7.3999999999999999e-01  0.0000000000000000e+00
5.0000000000000003e-02  7.3999999999999999e-01  0.0000000000000000e+00
-5.0000000000000003e-02  7.6000000000000001e-01  0.0000000000000000e+00
5.0000000000000003e-02  7.6000000000000001e-01  0.0000000000000000e+00
-5.0000000000000003e-02  7.8000000000000003e-01  0.0000000000000000e+00
5.0000000000000003e-02  7.8000000000000003e-01  0.0000000000000000e+00
-5.0000000000000003e-02  8.0000000000000004e-01  0.0000000000000000e+00
5.0000000000000003e-02  8.0000000000000004e-01  0.0000000000000000e+00
-5.0000000000000003e-02  8.1999999999999995e-01  0.0000000000000000e+00
5.0000000000000003e-02  8.1999999999999995e-01  0.0000000000000000e+00
-5.0000000000000003e-02  8.3999999999999997e-01  0.0000000000000000e+00
5.0000000000000003e-02  8.3999999999999997e-01  0.0000000000000000e+00
-5.0000000000000003e-02  8.5999999999999999e-01  0.0000000000000000e+00
5.0000000000000003e-02  8.5999999999999999e-01  0.0000000000000000e+00
-5.0000000000000003e-02  8.8000000000000000e-01  0.0000000000000000e+00
5.0000000000000003e-02  8.8000000000000000e-01  0.0000000000000000e+00
-5.0000000000000003e-02  9.0000000000000002e-01  0.0000000000000000e+00
5.0000000000000003e-02  9.0000000000000002e-01  0.0000000000000000e+00
-5.0000000000000003e-02  9.2000000000000004e-01  0.0000000000000000e+00
5.0000000000000003e-02  9.2000000000000004e-01  0.0000000000000000e+00
-5.0000000000000003e-02  9.3999999999999995e-01  0.0000000000000000e+00
5.0000000000000003e-02  9.3999999999999995e-01  0.0000000000000000e+00
-5.0000000000000003e-02  9.5999999999999996e-01  0.0000000000000000e+00
5.0000000000000003e-02  9.5999999999999996e-01  0.0000000000000000e+00
-5.0000000000000003e-02  9.7999999999999998e-01  0.0000000000000000e+00
5.0000000000000003e-02  9.7999999999999998e-01  0.0000000000000000e+00
-5.0000000000000003e-02  1.0000000000000000e+00  0.0000000000000000e+00
-3.0000000000000002e-02  1.0000000000000000e+00  0.0000000000000000e+00
-1.0000000000000002e-02  1.0000000000000000e+00  0.0000000000000000e+00
1.0000000000000009e-02  1.0000000000000000e+00  0.0000000000000000e+00
2.9999999999999999e-02  1.0000000000000000e+00  0.0000000000000000e+00
5.0000000000000003e-02  1.0000000000000000e+00  0.0000000000000000e+00

CELLS 0 0


CELL_TYPES 0


POINT_DATA 106

VECTORS VertexNormals float

0.0000000000000000e+00 0.0000000000000000e+00 0
0.0000000000000000e+00 0.0000000000000000e+00 0
0.0000000000000000e+00 0.0000000000000000e+00 0
0.0000000000000000e+00 0.0000000000000000e+00 0
0.0000000000000000e+00 0.0000000000000000e+00 0
0.0000000000000000e+00 0.0000000000000000e+00 0
0.0000000000000000e+00 0.0000000000000000e+00 0
0.0000000000000000e+00 0.0000000000000000e+00 0
0.0000000000000000e+00 0.0000000000000000e+00 0
0.0000000000000000e+00 0.0000000000000000e+00 0
0.0000000000000000e+00 0.0000000000000000e+00 0
0.0000000000000000e+00 0.0000000000000000e+00 0
0.0000000000000000e+00 0.0000000000000000e+00 0
0.0000000000000000e+00 0.0000000000000000e+00 0
0.0000000000000000e+00 0.0000000000000000e+00 0
0.0000000000000000e+00 0.0000000000000000e+00 0
0.0000000000000000e+00 0.0000000000000000e+00 0
0.0000000000000000e+00 0.0000000000000000e+00 0
0.0000000000000000e+00 0.0000000000000000e+00 0
0.0000000000000000e+00 0.0000000000000000e+00 0
0.0000000000000000e+00 0.0000000000000000e+00 0
0.0000000000000000e+00 0.0000000000000000e+00 0
0.0000000000000000e+00 0.0000000000000000e+00 0
0.0000000000000000e+00 0.0000000000000000e+00 0
0.0000000000000000e+00 0.0000000000000000e+00 0
0.0000000000000000e+00 0.0000000000000000e+00 0
0.0000000000000000e+00 0.0000000000000000e+00 0
0.0000000000000000e+00 0.0000000000000000e+00 0
0.0000000000000000e+00 0.0000000000000000e+00 0
0.0000000000000000e+00 0.0000000000000000e+00 0
0.0000000000000000e+00 0.0000000000000000e+00 0
0.0000000000000000e+00 0.0000000000000000e+00 0
0.0000000000000000e+00 0.0000000000000000e+00 0
0.0000000000000000e+00 0.0000000000000000e+00 0
0.0000000000000000e+00 0.0000000000000000e+00 0
0.0000000000000000e+00 0.0000000000000000e+00 0
0.0000000000000000e+00 0.0000000000000000e+00 0
0.0000000000000000e+00 0.0000000000000000e+00 0
0.0000000000000000e+00 0.0000000000000000e+00 0
0.0000000000000000e+00 0.0000000000000000e+00 0
0.0000000000000000e+00 0.0000000000000000e+00 0
0.0000000000000000e+00 0.0000000000000000e+00 0
0.0000000000000000e+00 0.0000000000000000e+00 0
0.0000000000000000e+00 0.0000000000000000e+00 0
0.0000000000000000e+00 0.0000000000000000e+00 0
0.0000000000000000e+00 0.0000000000000000e+00 0
0.0000000000000000e+00 0.0000000000000000e+00 0
0.0000000000000000e+00 0.0000000000000000e+00 0
0.0000000000000000e+00 0.0000000000000000e+00 0
0.0000000000000000e+00 0.0000000000000000e+00 0
0.0000000000000000e+00 0.0000000000000000e+00 0
0.0000000000000000e+00 0.0000000000000000e+00 0
0.0000000000000000e+00 0.0000000000000000e+00 0
0.0000000000000000e+00 0.0000000000000000e+00 0
0.0000000000000000e+00 0.0000000000000000e+00 0
0.0000000000000000e+00 0.0000000000000000e+00 0
0.0000000000000000e+00 0.0000000000000000e+00 0
0.0000000000000000e+00 0.0000000000000000e+00 0
0.0000000000000000e+00 0.0000000000000000e+00 0
0.0000000000000000e+00 0.0000000000000000e+00 0
0.0000000000000000e+00 0.0000000000000000e+00 0
0.0000000000000000e+00 0.0000000000000000e+00 0
0.0000000000000000e+00 0.0000000000000000e+00 0
0.0000000000000000e+00 0.0000000000000000e+00 0
0.0000000000000000e+00 0.0000000000000000e+00 0
0.0000000000000000e+00 0.0000000000000000e+00 0
0.0000000000000000e+00 0.0000000000000000e+00 0
0.0000000000000000e+00 0.0000000000000000e+00 0
0.0000000000000000e+00 0.0000000000000000e+00 0
0.0000000000000000e+00 0.0000000000000000e+00 0
0.0000000000000000e+00 0.0000000000000000e+00 0
0.0000000000000000e+00 0.0000000000000000e+00 0
0.0000000000000000e+00 0.0000000000000000e+00 0
0.0000000000000000e+00 0.0000000000000000e+00 0
0.0000000000000000e+00 0.0000000000000000e+00 0
0.0000000000000000e+00 0.0000000000000000e+00 0
0.0000000000000000e+00 0.0000000000000000e+00 0
0.0000000000000000e+00 0.0000000000000000e+00 0
0.0000000000000000e+00 0.0000000000000000e+00 0
0.0000000000000000e+00 0.0000000000000000e+00 0
0.0000000000000000e+00 0.0000000000000000e+00 0
0.0000000000000000e+00 0.0000000000000000e+00 0
0.0000000000000000e+00 0.0000000000000000e+00 0
0.0000000000000000e+00 0.0000000000000000e+00 0
0.0000000000000000e+00 0.0000000000000000e+00 0
0.0000000000000000e+00 0.0000000000000000e+00 0
0.0000000000000000e+00 0.0000000000000000e+00 0
0.0000000000000000e+00 0.0000000000000000e+00 0
0.0000000000000000e+00 0.0000000000000000e+00 0
0.0000000000000000e+00 0.0000000000000000e+00 0
0.0000000000000000e+00 0.0000000000000000e+00 0
0.0000000000000000e+00 0.0000000000000000e+00 0
0.0000000000000000e+00 0.0000000000000000e+00 0
0.0000000000000000e+00 0.0000000000000000e+00 0
0.0000000000000000e+00 0.0000000000000000e+00 0
0.0000000000000000e+00 0.0000000000000000e+00 0
0.0000000000000000e+00 0.0000000000000000e+00 0
0.0000000000000000e+00 0.0000000000000000e+00 0
0.0000000000000000e+00 0.0000000000000000e+00 0
0.0000000000000000e+00 0.0000000000000000e+00 0
0.0000000000000000e+00 0.0000000000000000e+00 0
0.0000000000000000e+00 0.0000000000000000e+00 0
0.0000000000000000e+00 0.0000000000000000e+00 0
0.0000000000000000e+00 0.0000000000000000e+00 0
0.0000000000000000e+00 0.0000000000000000e+00 0
0.0000000000000000e+00 0.0000000000000000e+00 0

VECTORS Displacements1 float
-5.3297424085064177e-17 2.9775963980326855e-17 0
-8.0490623460298912e-23 9.1734449823140649e-24 0
1.0710972497002380e-06 1.9172095308611105e-07 0
1.0401945323108650e-06 -1.4811590418134501e-07 0
1.6569811261390467e-06 2.4364683535130977e-07 0
1.5833763500175765e-06 -1.8704568005530892e-07 0
1.7948726487058417e-06 1.9689551849865228e-07 0
1.7275233015274012e-06 -1.4487723361418934e-07 0
1.7082732154272878e-06 1.3266544573736405e-07 0
1.6652421020834626e-06 -1.0505427957319677e-07 0
2.8162720545542692e-06 5.4516218206661812e-08 0
2.6285586119913293e-06 1.1231928805010262e-07 0
1.6832414306025896e-06 -1.1385768471764499e-07 0
1.6395150077747292e-06 1.3576744396057448e-07 0
1.8814577606155198e-06 -3.7320933972310931e-09 0
1.8156362996296554e-06 8.9890569864266778e-08 0
1.8957873147074680e-06 2.9094325827902013e-08 0
1.8310303865971146e-06 6.7011521941362984e-08 0
1.7058415352371610e-06 8.4710421668688890e-08 0
1.6670796931574575e-06 -1.4294317876556250e-08 0
2.8252742475719096e-06 7.5000821472680447e-08 0
2.6523585057458561e-06 1.5717604942621792e-07 0
1.7127973715529550e-06 -7.7521591167891217e-08 0
1.6706745028614971e-06 1.4628528844004354e-07 0
1.9149983461335750e-06 2.2831937287307781e-08 0
1.8575794544679770e-06 1.1390420464684755e-07 0
1.9228600915780005e-06 4.9645778111999536e-08 0
1.8683247601332423e-06 9.9206278468505581e-08 0
1.7362221145824677e-06 1.0338104172297155e-07 0
1.7062991642165753e-06 1.6761139471185594e-08 0
2.8614937863220946e-06 9.0901630097379576e-08 0
2.7385280868761007e-06 2.1972951495979276e-07 0
1.7509509921888584e-06 -6.4109251619482594e-08 0
1.7127731376793232e-06 1.8982904455692996e-07 0
1.9580714306735964e-06 3.8389654754568419e-08 0
1.9219597415038490e-06 1.5985590639813304e-07 0
1.9714530366493575e-06 6.8345656791941810e-08 0
1.9399355397269492e-06 1.4451986047639771e-07 0
1.7906523583731223e-06 1.2410162068262987e-07 0
1.7747323025445715e-06 5.3221932905850568e-08 0
2.9240200154682789e-06 1.1877401465988462e-07 0
2.8883008872870403e-06 2.8741301227267444e-07 0
1.8149769227996558e-06 -3.9847816109845921e-08 0
1.7858331960002842e-06 2.3610455327012807e-07 0
2.0259382679052575e-06 6.8861669959368629e-08 0
2.0238930176014918e-06 2.0481160625930931e-07 0
2.0453541004982700e-06 1.0394777393317168e-07 0
2.0498670104549872e-06 1.8798968595387075e-07 0
1.8708949813280229e-06 1.6290059664723680e-07 0
1.8756849333059756e-06 8.4466844231055316e-08 0
3.0151062083791533e-06 1.7409117365800776e-07 0
3.1087188787818449e-06 3.5306635397509525e-07 0
1.9083036482878024e-06 3.7927035145046669e-09 0
1.8937635623778584e-06 2.8224243539104368e-07 0
2.1217679934938308e-06 1.2199078657093071e-07 0
2.1698407832199666e-06 2.4767300861623764e-07 0
2.1487622217411379e-06 1.6385252500383730e-07 0
2.2057658992026859e-06 2.2919588630029490e-07 0
1.9829351938497038e-06 2.2460626059463305e-07 0
2.0170391736376058e-06 1.1103194594422602e-07 0
3.1359920638432533e-06 2.6093647175453839e-07 0
3.4154028282920989e-06 4.2061585906111129e-07 0
2.0394896116649855e-06 7.7920330813070425e-08 0
2.0456511960730534e-06 3.2716580923032729e-07 0
2.2636852616694743e-06 2.1082131676638365e-07 0
2.3782701386625751e-06 2.8692411039742215e-07 0
2.3045894533471599e-06 2.6610491512735900e-07 0
2.4310695461302162e-06 2.6473422623497471e-07 0
2.1530206145822742e-06 3.3931672968872465e-07 0
2.2251488018806140e-06 1.2293102221412197e-07 0
3.3495046774123358e-06 4.3301403054004718e-07 0
3.8728097253100285e-06 4.7810200261713199e-07 0
2.2490659585587590e-06 2.0495731178023131e-07 0
2.2819532127309475e-06 3.7003094305233464e-07 0
2.4800297388272984e-06 3.7057993429609678e-07 0
2.6942531427953422e-06 3.1670342817219922e-07 0
2.5488460841221205e-06 4.4671521501886578e-07 0
2.7763889885686197e-06 2.9178217273256108e-07 0
2.4354476990382528e-06 5.3591746611559000e-07 0
2.5502892087231817e-06 1.2869656755268706e-07 0
3.6854251468305542e-06 7.4225460296324050e-07 0
4.5534580457842168e-06 5.5888377508753860e-07 0
2.6536669039108412e-06 6.4983224258101354e-07 0
2.6426575639805914e-06 3.7994594740711021e-07 0
3.0667932424422027e-06 1.0926745367493814e-06 0
3.2336592201842135e-06 2.7554520494988013e-07 0
3.2772355378814519e-06 1.5909351141192057e-06 0
3.3609783860216674e-06 1.3612589215702462e-07 0
3.2484036521875668e-06 2.3885402891792047e-06 0
3.0956764666899590e-06 -3.6105833641689445e-07 0
5.1004580683972115e-06 3.8685172342534432e-06 0
5.9624727926239504e-06 -4.0798135097298998e-07 0
4.2376203227570642e-06 4.8429751182524859e-06 0
3.7887926845275179e-06 -1.4507943341648410e-06 0
6.0596834391475179e-06 7.2907396466375045e-06 0
5.9832067439971257e-06 -2.8770637732001041e-06 0
8.7197716138529996e-06 9.7081122419341199e-06 0
8.4981315685631653e-06 -4.3288841423883430e-06 0
1.4264311000892883e-05 1.2440753608057047e-05 0
1.3340152481908897e-05 -5.1902915086966043e-06 0
1.7859707659210666e-05 1.2545620221012196e-05 0
1.7846359926791291e-05 8.4646214745745772e-06 0
1.6487638991128019e-05 4.6528264554364952e-06 0
1.5951108137514663e-05 1.7801785862461056e-06 0
1.6531631109154680e-05 -1.7047829051525876e-06 0
1.6138642172054418e-05 -5.8715042686316658e-06 0

VECTORS Forces1 float
-2.4301471804766159e-01 1.4605799128028688e-01 0
-1.5814401302064640e-01 -9.3024938506615751e-02 0
3.2192992515101655e+00 -1.7852456982305855e+00 0
2.1459583689300095e+00 1.1882692319321364e+00 0
3.5268882982198737e+00 -5.4783966723835764e-01 0
2.3577964012224828e+00 3.6716506438857044e-01 0
2.2461961310961480e+00 9.1071758653401363e-02 0
1.5023042797234136e+00 -5.9217481821900030e-02 0
-3.3857672429192481e-01 -1.2302249194765639e-02 0
-2.2687714077836932e-01 8.0305121470868254e-03 0
8.6351293301336582e+00 -6.3819226302779894e-06 0
5.7868726540361557e+00 2.5175951033105767e-02 0
-3.6616119486083515e-01 -4.0072279424230848e-04 0
-2.4630420436836553e-01 -1.7942272467156527e-03 0
2.4599049919160887e+00 -6.7898775757243754e-04 0
1.6531998676291522e+00 1.5320026127538550e-02 0
2.4600952874682891e+00 -7.3190972236691703e-04 0
1.6533672737309542e+00 1.5360368178809626e-02 0
-3.6652262054421780e-01 -1.4491723755864403e-04 0
-2.4654281519258264e-01 -2.1127467003741319e-03 0
8.6705910729561158e+00 -5.2931919592764934e-03 0
5.8509580844720839e+00 9.0614964822490082e-02 0
-3.6653696173764388e-01 -4.5033336846484192e-05 0
-2.4929857917236009e-01 -5.0357900263599776e-03 0
2.4604605454677047e+00 -1.3576704553836987e-03 0
1.6729874350094394e+00 3.5891214024966367e-02 0
2.4604589835599149e+00 -1.3576914420528278e-03 0
1.6730177921514811e+00 3.5910981487605895e-02 0
-3.6650090406574964e-01 -6.3037836905115833e-05 0
-2.4945910492545781e-01 -5.1654382269323285e-03 0
8.6577893204933041e+00 2.1995468270342654e-03 0
5.9453700359917416e+00 1.5961442206454099e-01 0
-3.6524918494997938e-01 -6.9397430926204022e-04 0
-2.5418523037049584e-01 -7.8680672419285062e-03 0
2.4517941946473507e+00 3.0765255175536736e-03 0
1.7063019902046987e+00 5.4980298663395995e-02 0
2.4517809580912635e+00 3.0769663925580733e-03 0
1.7063445305337248e+00 5.5002293240431016e-02 0
-3.6515791978356588e-01 -7.5900605619406481e-04 0
-2.5444803032663621e-01 -7.9814940456426828e-03 0
8.6079419633134275e+00 2.5332374003610218e-02 0
6.0868310916621704e+00 2.2673667842343825e-01 0
-3.6248376130992649e-01 -2.1187000409456811e-03 0
-2.6135127200054803e-01 -1.0605701766706273e-02 0
2.4331291562937287e+00 1.2553152805007435e-02 0
1.7548877491333561e+00 7.3601189392296026e-02 0
2.4331028607951630e+00 1.2556182790745211e-02 0
1.7549460616514232e+00 7.3625779358208035e-02 0
-3.6232016141031176e-01 -2.2538450773402084e-03 0
-2.6173027847025149e-01 -1.0697673857529892e-02 0
8.5240407564236520e+00 7.8323095914555968e-02 0
6.2915351722019910e+00 2.8757717176566844e-01 0
-3.5774183799367337e-01 -5.2252994835805333e-03 0
-2.7133724720928770e-01 -1.2973769461039177e-02 0
2.4010858734837441e+00 3.3240516195240301e-02 0
1.8224427914718411e+00 8.9907795374424240e-02 0
2.4010472822529669e+00 3.3241189998861664e-02 0
1.8225232403529541e+00 8.9940134553191900e-02 0
-3.5752966676981540e-01 -5.4375363615516330e-03 0
-2.7189468387598081e-01 -1.3047347274073915e-02 0
8.3861094674513836e+00 1.5298054440774089e-01 0
6.5732142658891783e+00 3.5256408020107999e-01 0
-3.5230514520710682e-01 -8.9156242706862811e-03 0
-2.8610474972004907e-01 -1.5785939054647608e-02 0
2.3644804976654443e+00 5.7239651763498149e-02 0
1.9222787705697473e+00 1.0967913884545409e-01 0
2.3644115731368007e+00 5.7243530122615481e-02 0
1.9223800783089955e+00 1.0972058777389322e-01 0
-3.5201517580581343e-01 -9.3841204832836918e-03 0
-2.8692882351590193e-01 -1.5783167359691392e-02 0
8.2535308732830419e+00 3.3319097888120541e-01 0
7.0035800457301978e+00 3.9290763658010230e-01 0
-3.4240855548311167e-01 -2.0350500719415722e-02 0
-3.0637174517372578e-01 -1.6534707666456892e-02 0
2.2964488791733744e+00 1.3307202872227761e-01 0
2.0581387672733000e+00 1.1603975910190664e-01 0
2.2963041716922783e+00 1.3297963739827728e-01 0
2.0582125096477926e+00 1.1612507944990177e-01 0
-3.4292982155149093e-01 -2.1133082279580339e-02 0
-3.0837186499793207e-01 -1.6536096882793574e-02 0
8.0207501248040636e+00 4.4650233672649742e-01 0
7.6417619111786061e+00 5.2297229247756494e-01 0
-3.5498903400947884e-01 -2.5485162919076029e-02 0
-3.5508052781867561e-01 -2.3140726730559422e-02 0
2.3734102875227987e+00 1.5753769610137064e-01 0
2.3780819356971903e+00 1.6400647766242557e-01 0
2.3727386091803506e+00 1.5713471611355823e-01 0
2.3778119400625637e+00 1.6420059006018412e-01 0
-3.5682437140183337e-01 -3.0109971238195397e-02 0
-3.5993630372408397e-01 -2.1231746207163213e-02 0
8.6182541308898397e+00 1.6158305757458153e+00 0
9.3426423614642289e+00 2.2836055568653416e-01 0
-3.5255712251578086e-01 -1.3067666058038602e-01 0
-4.4709230636519881e-01 2.1295469115893671e-02 0
2.4757472926644275e+00 8.5743356156527406e-01 0
3.1190801020527310e+00 -5.7451118004581601e-02 0
1.8349262512967981e+00 5.2778738582600038e-01 0
2.4625567934690866e+00 -5.9998668282574677e-02 0
6.0193261002783389e+00 3.0424864197675587e+00 0
6.0506025822271239e+00 1.8908506049817941e-01 0
5.1852969666985371e-01 3.8790003466977740e-01 0
4.1630799526442344e+00 2.1370427709276463e+00 0
2.3723910315394319e+00 1.7539491466333317e+00 0
2.2185562849443836e+00 1.9822279176420223e+00 0
3.8063613497536610e+00 1.0865002514887143e+00 0
5.8427285931395112e-01 -1.9311041848749444e-01 0

