# vtk DataFile Version 2.0

ASCII

DATASET UNSTRUCTURED_GRID

POINTS 106 float 

-5.0000000000000003e-02  0.0000000000000000e+00  0.0000000000000000e+00
5.0000000000000003e-02  0.0000000000000000e+00  0.0000000000000000e+00
-5.0000000000000003e-02  2.0000000000000000e-02  0.0000000000000000e+00
5.0000000000000003e-02  2.0000000000000000e-02  0.0000000000000000e+00
-5.0000000000000003e-02  4.0000000000000001e-02  0.0000000000000000e+00
5.0000000000000003e-02  4.0000000000000001e-02  0.0000000000000000e+00
-5.0000000000000003e-02  5.9999999999999998e-02  0.0000000000000000e+00
5.0000000000000003e-02  5.9999999999999998e-02  0.0000000000000000e+00
-5.0000000000000003e-02  8.0000000000000002e-02  0.0000000000000000e+00
5.0000000000000003e-02  8.0000000000000002e-02  0.0000000000000000e+00
-5.0000000000000003e-02  1.0000000000000001e-01  0.0000000000000000e+00
5.0000000000000003e-02  1.0000000000000001e-01  0.0000000000000000e+00
-5.0000000000000003e-02  1.2000000000000000e-01  0.0000000000000000e+00
5.0000000000000003e-02  1.2000000000000000e-01  0.0000000000000000e+00
-5.0000000000000003e-02  1.4000000000000001e-01  0.0000000000000000e+00
5.0000000000000003e-02  1.4000000000000001e-01  0.0000000000000000e+00
-5.0000000000000003e-02  1.6000000000000000e-01  0.0000000000000000e+00
5.0000000000000003e-02  1.6000000000000000e-01  0.0000000000000000e+00
-5.0000000000000003e-02  1.7999999999999999e-01  0.0000000000000000e+00
5.0000000000000003e-02  1.7999999999999999e-01  0.0000000000000000e+00
-5.0000000000000003e-02  2.0000000000000001e-01  0.0000000000000000e+00
5.0000000000000003e-02  2.0000000000000001e-01  0.0000000000000000e+00
-5.0000000000000003e-02  2.2000000000000000e-01  0.0000000000000000e+00
5.0000000000000003e-02  2.2000000000000000e-01  0.0000000000000000e+00
-5.0000000000000003e-02  2.3999999999999999e-01  0.0000000000000000e+00
5.0000000000000003e-02  2.3999999999999999e-01  0.0000000000000000e+00
-5.0000000000000003e-02  2.6000000000000001e-01  0.0000000000000000e+00
5.0000000000000003e-02  2.6000000000000001e-01  0.0000000000000000e+00
-5.0000000000000003e-02  2.8000000000000003e-01  0.0000000000000000e+00
5.0000000000000003e-02  2.8000000000000003e-01  0.0000000000000000e+00
-5.0000000000000003e-02  2.9999999999999999e-01  0.0000000000000000e+00
5.0000000000000003e-02  2.9999999999999999e-01  0.0000000000000000e+00
-5.0000000000000003e-02  3.2000000000000001e-01  0.0000000000000000e+00
5.0000000000000003e-02  3.2000000000000001e-01  0.0000000000000000e+00
-5.0000000000000003e-02  3.4000000000000002e-01  0.0000000000000000e+00
5.0000000000000003e-02  3.4000000000000002e-01  0.0000000000000000e+00
-5.0000000000000003e-02  3.5999999999999999e-01  0.0000000000000000e+00
5.0000000000000003e-02  3.5999999999999999e-01  0.0000000000000000e+00
-5.0000000000000003e-02  3.8000000000000000e-01  0.0000000000000000e+00
5.0000000000000003e-02  3.8000000000000000e-01  0.0000000000000000e+00
-5.0000000000000003e-02  4.0000000000000002e-01  0.0000000000000000e+00
5.0000000000000003e-02  4.0000000000000002e-01  0.0000000000000000e+00
-5.0000000000000003e-02  4.1999999999999998e-01  0.0000000000000000e+00
5.0000000000000003e-02  4.1999999999999998e-01  0.0000000000000000e+00
-5.0000000000000003e-02  4.4000000000000000e-01  0.0000000000000000e+00
5.0000000000000003e-02  4.4000000000000000e-01  0.0000000000000000e+00
-5.0000000000000003e-02  4.6000000000000002e-01  0.0000000000000000e+00
5.0000000000000003e-02  4.6000000000000002e-01  0.0000000000000000e+00
-5.0000000000000003e-02  4.7999999999999998e-01  0.0000000000000000e+00
5.0000000000000003e-02  4.7999999999999998e-01  0.0000000000000000e+00
-5.0000000000000003e-02  5.0000000000000000e-01  0.0000000000000000e+00
5.0000000000000003e-02  5.0000000000000000e-01  0.0000000000000000e+00
-5.0000000000000003e-02  5.2000000000000002e-01  0.0000000000000000e+00
5.0000000000000003e-02  5.2000000000000002e-01  0.0000000000000000e+00
-5.0000000000000003e-02  5.4000000000000004e-01  0.0000000000000000e+00
5.0000000000000003e-02  5.4000000000000004e-01  0.0000000000000000e+00
-5.0000000000000003e-02  5.6000000000000005e-01  0.0000000000000000e+00
5.0000000000000003e-02  5.6000000000000005e-01  0.0000000000000000e+00
-5.0000000000000003e-02  5.7999999999999996e-01  0.0000000000000000e+00
5.0000000000000003e-02  5.7999999999999996e-01  0.0000000000000000e+00
-5.0000000000000003e-02  5.9999999999999998e-01  0.0000000000000000e+00
5.0000000000000003e-02  5.9999999999999998e-01  0.0000000000000000e+00
-5.0000000000000003e-02  6.2000000000000000e-01  0.0000000000000000e+00
5.0000000000000003e-02  6.2000000000000000e-01  0.0000000000000000e+00
-5.0000000000000003e-02  6.4000000000000001e-01  0.0000000000000000e+00
5.0000000000000003e-02  6.4000000000000001e-01  0.0000000000000000e+00
-5.0000000000000003e-02  6.6000000000000003e-01  0.0000000000000000e+00
5.0000000000000003e-02  6.6000000000000003e-01  0.0000000000000000e+00
-5.0000000000000003e-02  6.8000000000000005e-01  0.0000000000000000e+00
5.0000000000000003e-02  6.8000000000000005e-01  0.0000000000000000e+00
-5.0000000000000003e-02  6.9999999999999996e-01  0.0000000000000000e+00
5.0000000000000003e-02  6.9999999999999996e-01  0.0000000000000000e+00
-5.0000000000000003e-02  7.1999999999999997e-01  0.0000000000000000e+00
5.0000000000000003e-02  7.1999999999999997e-01  0.0000000000000000e+00
-5.0000000000000003e-02  7.3999999999999999e-01  0.0000000000000000e+00
5.0000000000000003e-02  7.3999999999999999e-01  0.0000000000000000e+00
-5.0000000000000003e-02  7.6000000000000001e-01  0.0000000000000000e+00
5.0000000000000003e-02  7.6000000000000001e-01  0.0000000000000000e+00
-5.0000000000000003e-02  7.8000000000000003e-01  0.0000000000000000e+00
5.0000000000000003e-02  7.8000000000000003e-01  0.0000000000000000e+00
-5.0000000000000003e-02  8.0000000000000004e-01  0.0000000000000000e+00
5.0000000000000003e-02  8.0000000000000004e-01  0.0000000000000000e+00
-5.0000000000000003e-02  8.1999999999999995e-01  0.0000000000000000e+00
5.0000000000000003e-02  8.1999999999999995e-01  0.0000000000000000e+00
-5.0000000000000003e-02  8.3999999999999997e-01  0.0000000000000000e+00
5.0000000000000003e-02  8.3999999999999997e-01  0.0000000000000000e+00
-5.0000000000000003e-02  8.5999999999999999e-01  0.0000000000000000e+00
5.0000000000000003e-02  8.5999999999999999e-01  0.0000000000000000e+00
-5.0000000000000003e-02  8.8000000000000000e-01  0.0000000000000000e+00
5.0000000000000003e-02  8.8000000000000000e-01  0.0000000000000000e+00
-5.0000000000000003e-02  9.0000000000000002e-01  0.0000000000000000e+00
5.0000000000000003e-02  9.0000000000000002e-01  0.0000000000000000e+00
-5.0000000000000003e-02  9.2000000000000004e-01  0.0000000000000000e+00
5.0000000000000003e-02  9.2000000000000004e-01  0.0000000000000000e+00
-5.0000000000000003e-02  9.3999999999999995e-01  0.0000000000000000e+00
5.0000000000000003e-02  9.3999999999999995e-01  0.0000000000000000e+00
-5.0000000000000003e-02  9.5999999999999996e-01  0.0000000000000000e+00
5.0000000000000003e-02  9.5999999999999996e-01  0.0000000000000000e+00
-5.0000000000000003e-02  9.7999999999999998e-01  0.0000000000000000e+00
5.0000000000000003e-02  9.7999999999999998e-01  0.0000000000000000e+00
-5.0000000000000003e-02  1.0000000000000000e+00  0.0000000000000000e+00
-3.0000000000000002e-02  1.0000000000000000e+00  0.0000000000000000e+00
-1.0000000000000002e-02  1.0000000000000000e+00  0.0000000000000000e+00
1.0000000000000009e-02  1.0000000000000000e+00  0.0000000000000000e+00
2.9999999999999999e-02  1.0000000000000000e+00  0.0000000000000000e+00
5.0000000000000003e-02  1.0000000000000000e+00  0.0000000000000000e+00

CELLS 0 0


CELL_TYPES 0


POINT_DATA 106

VECTORS VertexNormals float

0.0000000000000000e+00 0.0000000000000000e+00 0
0.0000000000000000e+00 0.0000000000000000e+00 0
0.0000000000000000e+00 0.0000000000000000e+00 0
0.0000000000000000e+00 0.0000000000000000e+00 0
0.0000000000000000e+00 0.0000000000000000e+00 0
0.0000000000000000e+00 0.0000000000000000e+00 0
0.0000000000000000e+00 0.0000000000000000e+00 0
0.0000000000000000e+00 0.0000000000000000e+00 0
0.0000000000000000e+00 0.0000000000000000e+00 0
0.0000000000000000e+00 0.0000000000000000e+00 0
0.0000000000000000e+00 0.0000000000000000e+00 0
0.0000000000000000e+00 0.0000000000000000e+00 0
0.0000000000000000e+00 0.0000000000000000e+00 0
0.0000000000000000e+00 0.0000000000000000e+00 0
0.0000000000000000e+00 0.0000000000000000e+00 0
0.0000000000000000e+00 0.0000000000000000e+00 0
0.0000000000000000e+00 0.0000000000000000e+00 0
0.0000000000000000e+00 0.0000000000000000e+00 0
0.0000000000000000e+00 0.0000000000000000e+00 0
0.0000000000000000e+00 0.0000000000000000e+00 0
0.0000000000000000e+00 0.0000000000000000e+00 0
0.0000000000000000e+00 0.0000000000000000e+00 0
0.0000000000000000e+00 0.0000000000000000e+00 0
0.0000000000000000e+00 0.0000000000000000e+00 0
0.0000000000000000e+00 0.0000000000000000e+00 0
0.0000000000000000e+00 0.0000000000000000e+00 0
0.0000000000000000e+00 0.0000000000000000e+00 0
0.0000000000000000e+00 0.0000000000000000e+00 0
0.0000000000000000e+00 0.0000000000000000e+00 0
0.0000000000000000e+00 0.0000000000000000e+00 0
0.0000000000000000e+00 0.0000000000000000e+00 0
0.0000000000000000e+00 0.0000000000000000e+00 0
0.0000000000000000e+00 0.0000000000000000e+00 0
0.0000000000000000e+00 0.0000000000000000e+00 0
0.0000000000000000e+00 0.0000000000000000e+00 0
0.0000000000000000e+00 0.0000000000000000e+00 0
0.0000000000000000e+00 0.0000000000000000e+00 0
0.0000000000000000e+00 0.0000000000000000e+00 0
0.0000000000000000e+00 0.0000000000000000e+00 0
0.0000000000000000e+00 0.0000000000000000e+00 0
0.0000000000000000e+00 0.0000000000000000e+00 0
0.0000000000000000e+00 0.0000000000000000e+00 0
0.0000000000000000e+00 0.0000000000000000e+00 0
0.0000000000000000e+00 0.0000000000000000e+00 0
0.0000000000000000e+00 0.0000000000000000e+00 0
0.0000000000000000e+00 0.0000000000000000e+00 0
0.0000000000000000e+00 0.0000000000000000e+00 0
0.0000000000000000e+00 0.0000000000000000e+00 0
0.0000000000000000e+00 0.0000000000000000e+00 0
0.0000000000000000e+00 0.0000000000000000e+00 0
0.0000000000000000e+00 0.0000000000000000e+00 0
0.0000000000000000e+00 0.0000000000000000e+00 0
0.0000000000000000e+00 0.0000000000000000e+00 0
0.0000000000000000e+00 0.0000000000000000e+00 0
0.0000000000000000e+00 0.0000000000000000e+00 0
0.0000000000000000e+00 0.0000000000000000e+00 0
0.0000000000000000e+00 0.0000000000000000e+00 0
0.0000000000000000e+00 0.0000000000000000e+00 0
0.0000000000000000e+00 0.0000000000000000e+00 0
0.0000000000000000e+00 0.0000000000000000e+00 0
0.0000000000000000e+00 0.0000000000000000e+00 0
0.0000000000000000e+00 0.0000000000000000e+00 0
0.0000000000000000e+00 0.0000000000000000e+00 0
0.0000000000000000e+00 0.0000000000000000e+00 0
0.0000000000000000e+00 0.0000000000000000e+00 0
0.0000000000000000e+00 0.0000000000000000e+00 0
0.0000000000000000e+00 0.0000000000000000e+00 0
0.0000000000000000e+00 0.0000000000000000e+00 0
0.0000000000000000e+00 0.0000000000000000e+00 0
0.0000000000000000e+00 0.0000000000000000e+00 0
0.0000000000000000e+00 0.0000000000000000e+00 0
0.0000000000000000e+00 0.0000000000000000e+00 0
0.0000000000000000e+00 0.0000000000000000e+00 0
0.0000000000000000e+00 0.0000000000000000e+00 0
0.0000000000000000e+00 0.0000000000000000e+00 0
0.0000000000000000e+00 0.0000000000000000e+00 0
0.0000000000000000e+00 0.0000000000000000e+00 0
0.0000000000000000e+00 0.0000000000000000e+00 0
0.0000000000000000e+00 0.0000000000000000e+00 0
0.0000000000000000e+00 0.0000000000000000e+00 0
0.0000000000000000e+00 0.0000000000000000e+00 0
0.0000000000000000e+00 0.0000000000000000e+00 0
0.0000000000000000e+00 0.0000000000000000e+00 0
0.0000000000000000e+00 0.0000000000000000e+00 0
0.0000000000000000e+00 0.0000000000000000e+00 0
0.0000000000000000e+00 0.0000000000000000e+00 0
0.0000000000000000e+00 0.0000000000000000e+00 0
0.0000000000000000e+00 0.0000000000000000e+00 0
0.0000000000000000e+00 0.0000000000000000e+00 0
0.0000000000000000e+00 0.0000000000000000e+00 0
0.0000000000000000e+00 0.0000000000000000e+00 0
0.0000000000000000e+00 0.0000000000000000e+00 0
0.0000000000000000e+00 0.0000000000000000e+00 0
0.0000000000000000e+00 0.0000000000000000e+00 0
0.0000000000000000e+00 0.0000000000000000e+00 0
0.0000000000000000e+00 0.0000000000000000e+00 0
0.0000000000000000e+00 0.0000000000000000e+00 0
0.0000000000000000e+00 0.0000000000000000e+00 0
0.0000000000000000e+00 0.0000000000000000e+00 0
0.0000000000000000e+00 0.0000000000000000e+00 0
0.0000000000000000e+00 0.0000000000000000e+00 0
0.0000000000000000e+00 0.0000000000000000e+00 0
0.0000000000000000e+00 0.0000000000000000e+00 0
0.0000000000000000e+00 0.0000000000000000e+00 0
0.0000000000000000e+00 0.0000000000000000e+00 0
0.0000000000000000e+00 0.0000000000000000e+00 0

VECTORS Displacements1 float
-2.5237657745430838e-20 1.4111424553452158e-20 0
-5.1256168680197495e-28 -2.8765204164955283e-28 0
5.3814128157581742e-12 -2.8003268479384428e-12 0
9.4268841852496841e-12 5.1875074539288342e-12 0
6.0889574519362360e-12 -8.7642605571526376e-13 0
1.0725274408709905e-11 2.0385422414134771e-12 0
3.8813329857882552e-12 1.8402463212341683e-13 0
6.8083259150137595e-12 1.1813206495750901e-14 0
4.0877371400481623e-13 5.2039204671183428e-14 0
7.2364344581060081e-13 1.4912747784292654e-13 0
1.3448885392576202e-11 1.5261549075848615e-13 0
2.3903782094395811e-11 6.1986676796568638e-13 0
3.9199907765334243e-13 5.6852409901629109e-14 0
6.7525146819023613e-13 1.5185745540400642e-13 0
3.9863589828769952e-12 2.5640886527422585e-14 0
7.2210999820411080e-12 2.4952221624970569e-13 0
3.9856165960058277e-12 2.0492153038671319e-14 0
7.2225314850484434e-12 2.6117305612250537e-13 0
3.7337485745807762e-13 5.9554236507056721e-14 0
7.0397065826377772e-13 1.3479877339566032e-13 0
1.3106289821137034e-11 -1.0057774257125529e-13 0
2.4430717733875645e-11 9.3435328162360960e-13 0
3.8133774228661004e-13 5.1941071410008884e-14 0
6.8315730860394938e-13 1.5904419752395068e-13 0
3.8820649573001889e-12 -5.5281970036723417e-14 0
7.4767908139706219e-12 3.5503245353195085e-13 0
3.8807994201008757e-12 -6.0244601492732937e-14 0
7.4786569618426186e-12 3.6703361548793340e-13 0
3.6229799282964967e-13 5.3943607518869918e-14 0
7.4848875225975400e-13 1.4568799866051675e-13 0
1.2746849552346497e-11 -3.4108084023086927e-13 0
2.5628486013158345e-11 1.2831210987025310e-12 0
3.7113173051733941e-13 4.4659166334590779e-14 0
7.1012658969533227e-13 1.7293512525665453e-13 0
3.7645821735905850e-12 -1.1402191721664489e-13 0
7.9401640423762558e-12 4.5474765825053966e-13 0
3.7630605743521328e-12 -1.1867348197082094e-13 0
7.9429595856327691e-12 4.6747254948779949e-13 0
3.4820676761858816e-13 4.9528253323734521e-14 0
8.1333706250750841e-13 1.5888222356751210e-13 0
1.2302868687410252e-11 -4.9104027961883786e-13 0
2.7540480301535414e-11 1.5961145236651522e-12 0
3.5950121334037246e-13 3.8045071542437561e-14 0
7.5570109110625677e-13 1.9072969797065927e-13 0
3.6176014618540247e-12 -1.4372246390612258e-13 0
8.6338601854792861e-12 5.4256580253105946e-13 0
3.6158113920991405e-12 -1.4792530683371219e-13 0
8.6377919490915170e-12 5.5631886215517276e-13 0
3.3133894153609181e-13 4.7997610941505798e-14 0
9.0334562585657196e-13 1.7329714444350950e-13 0
1.1745494085680744e-11 -4.9282340207095638e-13 0
3.0295307877693883e-11 1.8234190750676335e-12 0
3.4751143657343839e-13 3.1929994343278784e-14 0
8.2353591731303784e-13 2.1316496136026549e-13 0
3.4157763644793440e-12 -1.1804933100056198e-13 0
9.5933377411906124e-12 5.9541222518881928e-13 0
3.4136811801604276e-12 -1.2181441218700002e-13 0
9.5987098336580077e-12 6.1072852618714193e-13 0
3.0851491952725299e-13 4.2820158211702654e-14 0
1.0241115906954147e-12 1.9527906981991222e-13 0
1.0980183634102547e-11 -4.2284201649088064e-13 0
3.4056040219100155e-11 2.0415332880405278e-12 0
3.2428189993893302e-13 2.7827268530019309e-14 0
9.1008475490189413e-13 2.3980300518289265e-13 0
3.2233419964106075e-12 -9.3037038241994181e-14 0
1.0966952626683928e-11 6.7114775147534643e-13 0
3.2214281148441067e-12 -9.5883331911071392e-14 0
1.0974642875742829e-11 6.8833402880573204e-13 0
2.9811806654472386e-13 5.9556263934393497e-14 0
1.2025493241848096e-12 2.0747149897319979e-13 0
1.0416928084383985e-11 1.4175928653293979e-13 0
3.9586091785522531e-11 1.9044582534415200e-12 0
3.2477451168417471e-13 2.0321394003853157e-14 0
1.0474387786797195e-12 2.8077907184140403e-13 0
2.9214457675132830e-12 1.9207221951199723e-13 0
1.2823506519057615e-11 5.4046782710731569e-13 0
2.9192719091154708e-12 1.8851394351158869e-13 0
1.2833732491033682e-11 5.6167534843387218e-13 0
2.7802384740437637e-13 1.9923759931146425e-14 0
1.4501888007723920e-12 2.7952224607253741e-13 0
9.5840320205488630e-12 9.3245016504711094e-14 0
4.7272135976777842e-11 2.4436140127133502e-12 0
2.1942211766772474e-13 1.9942002637609421e-14 0
1.1474779169804295e-12 3.2903841325626696e-13 0
3.5946195759225746e-12 6.8154759430779686e-14 0
1.6383414640154833e-11 8.5671661112128255e-13 0
3.6002918838821338e-12 6.6523575613703211e-14 0
1.6400868628137793e-11 8.8097585567873372e-13 0
5.2911359457582969e-13 2.5832855617417080e-13 0
2.0446953696865739e-12 1.8603746656843577e-13 0
1.5047887290957030e-11 5.1783748959968456e-12 0
6.4948140300141650e-11 -9.3607251013159703e-13 0
5.3072718856702744e-13 -8.2018902612953502e-14 0
1.4589129368405979e-12 5.9497833943264207e-13 0
6.0301958436071951e-12 3.6981874088691902e-12 0
2.4157467308135621e-11 -1.5622752937061697e-12 0
5.6516316465109227e-12 3.2450690852072229e-12 0
2.1964152313688195e-11 -1.1128234353762960e-12 0
3.3059774070372868e-11 2.2545769171872976e-11 0
4.9218821795513273e-11 -1.6521026454698556e-12 0
1.2199884191940614e-11 1.2981767298871980e-11 0
2.6081290336817431e-11 2.0037378836528795e-11 0
1.8633485124767116e-11 1.7042873584596616e-11 0
1.7149370204917293e-11 1.6859207910632229e-11 0
3.1847347283271295e-11 7.2948530392741218e-12 0
1.4397527736189476e-11 -2.0672258572273358e-12 0

VECTORS Forces1 float
-7.8085819824867520e-05 5.1427823261287952e-05 0
-9.3327876918543879e-05 -5.2742350799838780e-05 0
1.1735687647771260e-03 -6.5611863263845716e-04 0
1.2900637052855601e-03 7.1689240172927355e-04 0
1.2846204176066905e-03 -2.0140470490016043e-04 0
1.4107531582767553e-03 2.2167778370265864e-04 0
8.1502361163615232e-04 3.3622836127901654e-05 0
8.9606738982705395e-04 -3.6255096394186183e-05 0
-1.2288332570455031e-04 -4.7873356699237491e-06 0
-1.3548976544213817e-04 5.0081402100028709e-06 0
3.0899493103718153e-03 -1.4375061497443789e-05 0
3.4254402665539708e-03 2.1929199643420979e-05 0
-1.2969038911403525e-04 1.0216227114171330e-06 0
-1.4611033632652004e-04 -1.5610076360125045e-06 0
8.7125411404372305e-04 -9.8847601597594140e-06 0
9.7971142577916938e-04 1.3431312640483686e-05 0
8.7132061578098629e-04 -9.9101320931948248e-06 0
9.7981748962678444e-04 1.3466254269730897e-05 0
-1.2966954234231378e-04 1.2079847897697856e-06 0
-1.4632372010290324e-04 -1.7635021093914858e-06 0
3.0490501209688293e-03 -5.7477824205706511e-05 0
3.5029499379898980e-03 7.6701111913445169e-05 0
-1.2817999727648038e-04 3.0623648686282644e-06 0
-1.5151526588576654e-04 -4.1938274773213669e-06 0
8.6110897110924290e-04 -2.2894346463490799e-05 0
1.0164573962397438e-03 3.0546739474053749e-05 0
8.6110232476477127e-04 -2.2907737802839107e-05 0
1.0165098506930898e-03 3.0565974409243136e-05 0
-1.2810983341372375e-04 3.1276603592911570e-06 0
-1.5185799473161284e-04 -4.2907447920461414e-06 0
3.0180152236901382e-03 -9.7758372756014120e-05 0
3.6878280241814804e-03 1.3512656286767389e-04 0
-1.2687584357589667e-04 4.4139082551903378e-06 0
-1.6156682272469046e-04 -6.4594135855431404e-06 0
8.5268678701244975e-04 -3.1993602337341527e-05 0
1.0847558973299798e-03 4.5889123728946909e-05 0
8.5267821801016455e-04 -3.2007453401739378e-05 0
1.0848343361540725e-03 4.5910066318965279e-05 0
-1.2681778833439558e-04 4.4344144612123064e-06 0
-1.6214903213157951e-04 -6.5287762258359814e-06 0
2.9868542092659593e-03 -1.2142603543427125e-04 0
3.9868285831629368e-03 1.8474950301305293e-04 0
-1.2550755846137929e-04 4.9760057185420800e-06 0
-1.7682091109131129e-04 -8.2734263042168641e-06 0
8.4382418578536850e-04 -3.5959861946387460e-05 0
1.1878880475012742e-03 5.8351109916583354e-05 0
8.4381274612542966e-04 -3.5972651897057380e-05 0
1.1879963595908946e-03 5.8372812910696998e-05 0
-1.2543697700088269e-04 4.9281033466588641e-06 0
-1.7767076750970976e-04 -8.2933965775115205e-06 0
2.9529059089066488e-03 -1.1800751041903264e-04 0
4.4204276405821119e-03 2.1634969063260816e-04 0
-1.2355403597428814e-04 4.0559399571625045e-06 0
-1.9804820909726217e-04 -9.0337704522747341e-06 0
8.3107376484940234e-04 -3.0149895409861165e-05 0
1.3310310813189382e-03 6.3915725535330193e-05 0
8.3106428737445470e-04 -3.0169433538403709e-05 0
1.3311773771981135e-03 6.3945572906143856e-05 0
-1.2350005844622482e-04 3.9403948581497649e-06 0
-1.9927785442295913e-04 -9.0068318263143974e-06 0
2.9039061391931808e-03 -1.0066153680681466e-04 0
5.0134926118498412e-03 2.4293964483416275e-04 0
-1.2283020230793566e-04 3.0285832809222215e-06 0
-2.2869955196921305e-04 -1.0042091040951602e-05 0
8.2707307145151300e-04 -2.4379579735924348e-05 0
1.5375206264590362e-03 7.1843454831793291e-05 0
8.2706029619756627e-04 -2.4404659180472470e-05 0
1.5377004110590452e-03 7.1879022723189305e-05 0
-1.2278242817242776e-04 2.6773087763992251e-06 0
-2.3048487676222262e-04 -9.8322962753340291e-06 0
2.9182736210469906e-03 4.9361146073593548e-06 0
5.8956486162373752e-03 2.0098654797110843e-04 0
-1.2073947732610605e-04 -4.8164021138235995e-06 0
-2.7049444066922906e-04 -5.5487817017271894e-06 0
8.1331508581132419e-04 2.6645011598087091e-05 0
1.8171605948340867e-03 4.3173078950786191e-05 0
8.1328608961122911e-04 2.6498938998492523e-05 0
1.8173045176973635e-03 4.3286274797478431e-05 0
-1.2159552160398730e-04 -5.4173775350106416e-06 0
-2.7408988545045079e-04 -5.2561073975390043e-06 0
2.9305585279438919e-03 3.0058331497814840e-06 0
7.1206978958457167e-03 2.7102001957822231e-04 0
-1.4615209945200176e-04 -3.1294863153891819e-06 0
-3.5428141321911828e-04 -1.0542425935313197e-05 0
9.8082854696464718e-04 3.8136780559940090e-06 0
2.3687585342263159e-03 8.3747196636394718e-05 0
9.8069185869249635e-04 3.2350665191383590e-06 0
2.3683106755033791e-03 8.4070109608510934e-05 0
-1.4839185926564239e-04 -7.7759743481524273e-06 0
-3.6335035997414053e-04 -7.1604197578320630e-06 0
4.1218714393605410e-03 9.0025994845444946e-04 0
1.0057201752364096e-02 -3.8302161421870486e-04 0
-1.9298941567453200e-04 -9.8725652852550572e-05 0
-5.2765410151214072e-04 6.7405351870849009e-05 0
1.4738251166985011e-03 6.1129136238014014e-04 0
3.6314028478726624e-03 -3.5947299964234606e-04 0
9.0378926638255979e-04 2.8128234724149364e-04 0
2.7831287891399567e-03 -2.5502423945242253e-04 0
5.5651822101398744e-03 3.0548678456584471e-03 0
7.7899334889048296e-03 -7.8793925013486495e-04 0
3.3613887887769494e-04 4.0961258123565141e-04 0
3.9402334952668670e-03 2.3550125306751679e-03 0
2.7364971475087561e-03 1.8929045538368450e-03 0
2.5779974550991843e-03 2.0647078289602180e-03 0
4.9326959830614647e-03 5.8476836852238410e-04 0
8.4606105600362866e-04 -3.3249271366956381e-04 0

