# vtk DataFile Version 2.0

ASCII

DATASET UNSTRUCTURED_GRID

POINTS 106 float 

-5.0000000000000003e-02  0.0000000000000000e+00  0.0000000000000000e+00
5.0000000000000003e-02  0.0000000000000000e+00  0.0000000000000000e+00
-5.0000000000000003e-02  2.0000000000000000e-02  0.0000000000000000e+00
5.0000000000000003e-02  2.0000000000000000e-02  0.0000000000000000e+00
-5.0000000000000003e-02  4.0000000000000001e-02  0.0000000000000000e+00
5.0000000000000003e-02  4.0000000000000001e-02  0.0000000000000000e+00
-5.0000000000000003e-02  5.9999999999999998e-02  0.0000000000000000e+00
5.0000000000000003e-02  5.9999999999999998e-02  0.0000000000000000e+00
-5.0000000000000003e-02  8.0000000000000002e-02  0.0000000000000000e+00
5.0000000000000003e-02  8.0000000000000002e-02  0.0000000000000000e+00
-5.0000000000000003e-02  1.0000000000000001e-01  0.0000000000000000e+00
5.0000000000000003e-02  1.0000000000000001e-01  0.0000000000000000e+00
-5.0000000000000003e-02  1.2000000000000000e-01  0.0000000000000000e+00
5.0000000000000003e-02  1.2000000000000000e-01  0.0000000000000000e+00
-5.0000000000000003e-02  1.4000000000000001e-01  0.0000000000000000e+00
5.0000000000000003e-02  1.4000000000000001e-01  0.0000000000000000e+00
-5.0000000000000003e-02  1.6000000000000000e-01  0.0000000000000000e+00
5.0000000000000003e-02  1.6000000000000000e-01  0.0000000000000000e+00
-5.0000000000000003e-02  1.7999999999999999e-01  0.0000000000000000e+00
5.0000000000000003e-02  1.7999999999999999e-01  0.0000000000000000e+00
-5.0000000000000003e-02  2.0000000000000001e-01  0.0000000000000000e+00
5.0000000000000003e-02  2.0000000000000001e-01  0.0000000000000000e+00
-5.0000000000000003e-02  2.2000000000000000e-01  0.0000000000000000e+00
5.0000000000000003e-02  2.2000000000000000e-01  0.0000000000000000e+00
-5.0000000000000003e-02  2.3999999999999999e-01  0.0000000000000000e+00
5.0000000000000003e-02  2.3999999999999999e-01  0.0000000000000000e+00
-5.0000000000000003e-02  2.6000000000000001e-01  0.0000000000000000e+00
5.0000000000000003e-02  2.6000000000000001e-01  0.0000000000000000e+00
-5.0000000000000003e-02  2.8000000000000003e-01  0.0000000000000000e+00
5.0000000000000003e-02  2.8000000000000003e-01  0.0000000000000000e+00
-5.0000000000000003e-02  2.9999999999999999e-01  0.0000000000000000e+00
5.0000000000000003e-02  2.9999999999999999e-01  0.0000000000000000e+00
-5.0000000000000003e-02  3.2000000000000001e-01  0.0000000000000000e+00
5.0000000000000003e-02  3.2000000000000001e-01  0.0000000000000000e+00
-5.0000000000000003e-02  3.4000000000000002e-01  0.0000000000000000e+00
5.0000000000000003e-02  3.4000000000000002e-01  0.0000000000000000e+00
-5.0000000000000003e-02  3.5999999999999999e-01  0.0000000000000000e+00
5.0000000000000003e-02  3.5999999999999999e-01  0.0000000000000000e+00
-5.0000000000000003e-02  3.8000000000000000e-01  0.0000000000000000e+00
5.0000000000000003e-02  3.8000000000000000e-01  0.0000000000000000e+00
-5.0000000000000003e-02  4.0000000000000002e-01  0.0000000000000000e+00
5.0000000000000003e-02  4.0000000000000002e-01  0.0000000000000000e+00
-5.0000000000000003e-02  4.1999999999999998e-01  0.0000000000000000e+00
5.0000000000000003e-02  4.1999999999999998e-01  0.0000000000000000e+00
-5.0000000000000003e-02  4.4000000000000000e-01  0.0000000000000000e+00
5.0000000000000003e-02  4.4000000000000000e-01  0.0000000000000000e+00
-5.0000000000000003e-02  4.6000000000000002e-01  0.0000000000000000e+00
5.0000000000000003e-02  4.6000000000000002e-01  0.0000000000000000e+00
-5.0000000000000003e-02  4.7999999999999998e-01  0.0000000000000000e+00
5.0000000000000003e-02  4.7999999999999998e-01  0.0000000000000000e+00
-5.0000000000000003e-02  5.0000000000000000e-01  0.0000000000000000e+00
5.0000000000000003e-02  5.0000000000000000e-01  0.0000000000000000e+00
-5.0000000000000003e-02  5.2000000000000002e-01  0.0000000000000000e+00
5.0000000000000003e-02  5.2000000000000002e-01  0.0000000000000000e+00
-5.0000000000000003e-02  5.4000000000000004e-01  0.0000000000000000e+00
5.0000000000000003e-02  5.4000000000000004e-01  0.0000000000000000e+00
-5.0000000000000003e-02  5.6000000000000005e-01  0.0000000000000000e+00
5.0000000000000003e-02  5.6000000000000005e-01  0.0000000000000000e+00
-5.0000000000000003e-02  5.7999999999999996e-01  0.0000000000000000e+00
5.0000000000000003e-02  5.7999999999999996e-01  0.0000000000000000e+00
-5.0000000000000003e-02  5.9999999999999998e-01  0.0000000000000000e+00
5.0000000000000003e-02  5.9999999999999998e-01  0.0000000000000000e+00
-5.0000000000000003e-02  6.2000000000000000e-01  0.0000000000000000e+00
5.0000000000000003e-02  6.2000000000000000e-01  0.0000000000000000e+00
-5.0000000000000003e-02  6.4000000000000001e-01  0.0000000000000000e+00
5.0000000000000003e-02  6.4000000000000001e-01  0.0000000000000000e+00
-5.0000000000000003e-02  6.6000000000000003e-01  0.0000000000000000e+00
5.0000000000000003e-02  6.6000000000000003e-01  0.0000000000000000e+00
-5.0000000000000003e-02  6.8000000000000005e-01  0.0000000000000000e+00
5.0000000000000003e-02  6.8000000000000005e-01  0.0000000000000000e+00
-5.0000000000000003e-02  6.9999999999999996e-01  0.0000000000000000e+00
5.0000000000000003e-02  6.9999999999999996e-01  0.0000000000000000e+00
-5.0000000000000003e-02  7.1999999999999997e-01  0.0000000000000000e+00
5.0000000000000003e-02  7.1999999999999997e-01  0.0000000000000000e+00
-5.0000000000000003e-02  7.3999999999999999e-01  0.0000000000000000e+00
5.0000000000000003e-02  7.3999999999999999e-01  0.0000000000000000e+00
-5.0000000000000003e-02  7.6000000000000001e-01  0.0000000000000000e+00
5.0000000000000003e-02  7.6000000000000001e-01  0.0000000000000000e+00
-5.0000000000000003e-02  7.8000000000000003e-01  0.0000000000000000e+00
5.0000000000000003e-02  7.8000000000000003e-01  0.0000000000000000e+00
-5.0000000000000003e-02  8.0000000000000004e-01  0.0000000000000000e+00
5.0000000000000003e-02  8.0000000000000004e-01  0.0000000000000000e+00
-5.0000000000000003e-02  8.1999999999999995e-01  0.0000000000000000e+00
5.0000000000000003e-02  8.1999999999999995e-01  0.0000000000000000e+00
-5.0000000000000003e-02  8.3999999999999997e-01  0.0000000000000000e+00
5.0000000000000003e-02  8.3999999999999997e-01  0.0000000000000000e+00
-5.0000000000000003e-02  8.5999999999999999e-01  0.0000000000000000e+00
5.0000000000000003e-02  8.5999999999999999e-01  0.0000000000000000e+00
-5.0000000000000003e-02  8.8000000000000000e-01  0.0000000000000000e+00
5.0000000000000003e-02  8.8000000000000000e-01  0.0000000000000000e+00
-5.0000000000000003e-02  9.0000000000000002e-01  0.0000000000000000e+00
5.0000000000000003e-02  9.0000000000000002e-01  0.0000000000000000e+00
-5.0000000000000003e-02  9.2000000000000004e-01  0.0000000000000000e+00
5.0000000000000003e-02  9.2000000000000004e-01  0.0000000000000000e+00
-5.0000000000000003e-02  9.3999999999999995e-01  0.0000000000000000e+00
5.0000000000000003e-02  9.3999999999999995e-01  0.0000000000000000e+00
-5.0000000000000003e-02  9.5999999999999996e-01  0.0000000000000000e+00
5.0000000000000003e-02  9.5999999999999996e-01  0.0000000000000000e+00
-5.0000000000000003e-02  9.7999999999999998e-01  0.0000000000000000e+00
5.0000000000000003e-02  9.7999999999999998e-01  0.0000000000000000e+00
-5.0000000000000003e-02  1.0000000000000000e+00  0.0000000000000000e+00
-3.0000000000000002e-02  1.0000000000000000e+00  0.0000000000000000e+00
-1.0000000000000002e-02  1.0000000000000000e+00  0.0000000000000000e+00
1.0000000000000009e-02  1.0000000000000000e+00  0.0000000000000000e+00
2.9999999999999999e-02  1.0000000000000000e+00  0.0000000000000000e+00
5.0000000000000003e-02  1.0000000000000000e+00  0.0000000000000000e+00

CELLS 0 0


CELL_TYPES 0


POINT_DATA 106

VECTORS VertexNormals float

0.0000000000000000e+00 0.0000000000000000e+00 0
0.0000000000000000e+00 0.0000000000000000e+00 0
0.0000000000000000e+00 0.0000000000000000e+00 0
0.0000000000000000e+00 0.0000000000000000e+00 0
0.0000000000000000e+00 0.0000000000000000e+00 0
0.0000000000000000e+00 0.0000000000000000e+00 0
0.0000000000000000e+00 0.0000000000000000e+00 0
0.0000000000000000e+00 0.0000000000000000e+00 0
0.0000000000000000e+00 0.0000000000000000e+00 0
0.0000000000000000e+00 0.0000000000000000e+00 0
0.0000000000000000e+00 0.0000000000000000e+00 0
0.0000000000000000e+00 0.0000000000000000e+00 0
0.0000000000000000e+00 0.0000000000000000e+00 0
0.0000000000000000e+00 0.0000000000000000e+00 0
0.0000000000000000e+00 0.0000000000000000e+00 0
0.0000000000000000e+00 0.0000000000000000e+00 0
0.0000000000000000e+00 0.0000000000000000e+00 0
0.0000000000000000e+00 0.0000000000000000e+00 0
0.0000000000000000e+00 0.0000000000000000e+00 0
0.0000000000000000e+00 0.0000000000000000e+00 0
0.0000000000000000e+00 0.0000000000000000e+00 0
0.0000000000000000e+00 0.0000000000000000e+00 0
0.0000000000000000e+00 0.0000000000000000e+00 0
0.0000000000000000e+00 0.0000000000000000e+00 0
0.0000000000000000e+00 0.0000000000000000e+00 0
0.0000000000000000e+00 0.0000000000000000e+00 0
0.0000000000000000e+00 0.0000000000000000e+00 0
0.0000000000000000e+00 0.0000000000000000e+00 0
0.0000000000000000e+00 0.0000000000000000e+00 0
0.0000000000000000e+00 0.0000000000000000e+00 0
0.0000000000000000e+00 0.0000000000000000e+00 0
0.0000000000000000e+00 0.0000000000000000e+00 0
0.0000000000000000e+00 0.0000000000000000e+00 0
0.0000000000000000e+00 0.0000000000000000e+00 0
0.0000000000000000e+00 0.0000000000000000e+00 0
0.0000000000000000e+00 0.0000000000000000e+00 0
0.0000000000000000e+00 0.0000000000000000e+00 0
0.0000000000000000e+00 0.0000000000000000e+00 0
0.0000000000000000e+00 0.0000000000000000e+00 0
0.0000000000000000e+00 0.0000000000000000e+00 0
0.0000000000000000e+00 0.0000000000000000e+00 0
0.0000000000000000e+00 0.0000000000000000e+00 0
0.0000000000000000e+00 0.0000000000000000e+00 0
0.0000000000000000e+00 0.0000000000000000e+00 0
0.0000000000000000e+00 0.0000000000000000e+00 0
0.0000000000000000e+00 0.0000000000000000e+00 0
0.0000000000000000e+00 0.0000000000000000e+00 0
0.0000000000000000e+00 0.0000000000000000e+00 0
0.0000000000000000e+00 0.0000000000000000e+00 0
0.0000000000000000e+00 0.0000000000000000e+00 0
0.0000000000000000e+00 0.0000000000000000e+00 0
0.0000000000000000e+00 0.0000000000000000e+00 0
0.0000000000000000e+00 0.0000000000000000e+00 0
0.0000000000000000e+00 0.0000000000000000e+00 0
0.0000000000000000e+00 0.0000000000000000e+00 0
0.0000000000000000e+00 0.0000000000000000e+00 0
0.0000000000000000e+00 0.0000000000000000e+00 0
0.0000000000000000e+00 0.0000000000000000e+00 0
0.0000000000000000e+00 0.0000000000000000e+00 0
0.0000000000000000e+00 0.0000000000000000e+00 0
0.0000000000000000e+00 0.0000000000000000e+00 0
0.0000000000000000e+00 0.0000000000000000e+00 0
0.0000000000000000e+00 0.0000000000000000e+00 0
0.0000000000000000e+00 0.0000000000000000e+00 0
0.0000000000000000e+00 0.0000000000000000e+00 0
0.0000000000000000e+00 0.0000000000000000e+00 0
0.0000000000000000e+00 0.0000000000000000e+00 0
0.0000000000000000e+00 0.0000000000000000e+00 0
0.0000000000000000e+00 0.0000000000000000e+00 0
0.0000000000000000e+00 0.0000000000000000e+00 0
0.0000000000000000e+00 0.0000000000000000e+00 0
0.0000000000000000e+00 0.0000000000000000e+00 0
0.0000000000000000e+00 0.0000000000000000e+00 0
0.0000000000000000e+00 0.0000000000000000e+00 0
0.0000000000000000e+00 0.0000000000000000e+00 0
0.0000000000000000e+00 0.0000000000000000e+00 0
0.0000000000000000e+00 0.0000000000000000e+00 0
0.0000000000000000e+00 0.0000000000000000e+00 0
0.0000000000000000e+00 0.0000000000000000e+00 0
0.0000000000000000e+00 0.0000000000000000e+00 0
0.0000000000000000e+00 0.0000000000000000e+00 0
0.0000000000000000e+00 0.0000000000000000e+00 0
0.0000000000000000e+00 0.0000000000000000e+00 0
0.0000000000000000e+00 0.0000000000000000e+00 0
0.0000000000000000e+00 0.0000000000000000e+00 0
0.0000000000000000e+00 0.0000000000000000e+00 0
0.0000000000000000e+00 0.0000000000000000e+00 0
0.0000000000000000e+00 0.0000000000000000e+00 0
0.0000000000000000e+00 0.0000000000000000e+00 0
0.0000000000000000e+00 0.0000000000000000e+00 0
0.0000000000000000e+00 0.0000000000000000e+00 0
0.0000000000000000e+00 0.0000000000000000e+00 0
0.0000000000000000e+00 0.0000000000000000e+00 0
0.0000000000000000e+00 0.0000000000000000e+00 0
0.0000000000000000e+00 0.0000000000000000e+00 0
0.0000000000000000e+00 0.0000000000000000e+00 0
0.0000000000000000e+00 0.0000000000000000e+00 0
0.0000000000000000e+00 0.0000000000000000e+00 0
0.0000000000000000e+00 0.0000000000000000e+00 0
0.0000000000000000e+00 0.0000000000000000e+00 0
0.0000000000000000e+00 0.0000000000000000e+00 0
0.0000000000000000e+00 0.0000000000000000e+00 0
0.0000000000000000e+00 0.0000000000000000e+00 0
0.0000000000000000e+00 0.0000000000000000e+00 0
0.0000000000000000e+00 0.0000000000000000e+00 0
0.0000000000000000e+00 0.0000000000000000e+00 0

VECTORS Displacements1 float
-5.4775722194871251e-17 3.0601597833871865e-17 0
-9.8377625242053539e-23 2.1688302522629853e-23 0
1.3080056176978270e-06 3.6544490203364353e-07 0
1.2704556086191970e-06 -3.2499893575510072e-07 0
2.1182882618243771e-06 4.8345220464981112e-07 0
2.0369166037260984e-06 -4.2632638233334816e-07 0
2.4446211586380739e-06 4.2186042158487020e-07 0
2.3671255676601490e-06 -3.6490484107839325e-07 0
2.4712396333102383e-06 3.0308111156383139e-07 0
2.4265585820264678e-06 -2.6684903701705510e-07 0
3.6727380288596079e-06 1.6148185125724325e-07 0
3.4544588163693104e-06 1.9514263115144146e-08 0
2.5220939519714588e-06 -5.6921411948866477e-08 0
2.4780078626336401e-06 9.0382074991159109e-08 0
2.7570166061637318e-06 2.8904461195890448e-08 0
2.6770641396554237e-06 7.7403783287187675e-08 0
2.7699021435209720e-06 2.5643510107751489e-08 0
2.6885339743768644e-06 9.3750949979173863e-08 0
2.5388905891571530e-06 8.3181650260534719e-08 0
2.4973785731832951e-06 1.4480598291896178e-08 0
3.6844395263344559e-06 9.3827091768754420e-08 0
3.4797689900627352e-06 1.7360954530684062e-07 0
2.5574975226388418e-06 -4.2111645946470403e-08 0
2.5096259894915800e-06 1.4604930007944890e-07 0
2.8165726219599318e-06 6.5560462234031796e-08 0
2.7453615192018042e-06 1.1739941353502825e-07 0
2.8297350697534378e-06 6.0960767674056472e-08 0
2.7548203220790977e-06 1.3768024187209972e-07 0
2.5920359146791213e-06 1.1895244428068909e-07 0
2.5524509196128318e-06 5.3168723399163488e-08 0
3.7444788183388453e-06 1.3203766593991110e-07 0
3.5836105144623281e-06 2.4281379198311025e-07 0
2.6196159413638947e-06 -6.7978387736127199e-09 0
2.5704744560013704e-06 1.9494378969123545e-07 0
2.8863816449777601e-06 1.0315801827329971e-07 0
2.8320255851964254e-06 1.7023739568011163e-07 0
2.9085908755679170e-06 1.0019473217302214e-07 0
2.8491308313652276e-06 1.9362941352023666e-07 0
2.6783612824069269e-06 1.5984657857961138e-07 0
2.6442312236526396e-06 1.0055866225154069e-07 0
3.8423546089512573e-06 1.8264015180119639e-07 0
3.7592821374993247e-06 3.2157413195780637e-07 0
2.7219564676523662e-06 4.0441072993700376e-08 0
2.6734735166864389e-06 2.5113913925450625e-07 0
2.9970211594700987e-06 1.5764731855309888e-07 0
2.9694476167582993e-06 2.2638492865760404e-07 0
3.0292015481577911e-06 1.5989347645957768e-07 0
2.9952101251631393e-06 2.5122019930771492e-07 0
2.8067055139488617e-06 2.2372262802814696e-07 0
2.7809287644492757e-06 1.4515172914438380e-07 0
3.9854957769439692e-06 2.6665933620768629e-07 0
4.0184212242710940e-06 4.0049947546430743e-07 0
2.8710337287625029e-06 1.1403647642724766e-07 0
2.8247430653093695e-06 3.0863213118186574e-07 0
3.1543829485571662e-06 2.4307863002781305e-07 0
3.1662624022124992e-06 2.8189925015715218e-07 0
3.1992335410574282e-06 2.5308194979794312e-07 0
3.2025864428903513e-06 3.0900838779975682e-07 0
2.9867403785625077e-06 3.2107624157824661e-07 0
2.9722774091256586e-06 1.8685278857839479e-07 0
4.1791095064652937e-06 3.9511654156625646e-07 0
4.3789019727463695e-06 4.8245799224273806e-07 0
3.0811466908704968e-06 2.3221852407204088e-07 0
3.0371761237691883e-06 3.6514183516999886e-07 0
3.3843035747599592e-06 3.7900233704325199e-07 0
3.4471058699969358e-06 3.3432012090979248e-07 0
3.4524653001419961e-06 4.0425166722661572e-07 0
3.5038891183368533e-06 3.6290123683283846e-07 0
3.2591736435844225e-06 4.8925874468816691e-07 0
3.2574947078215132e-06 2.1501052745132462e-07 0
4.5057291129395438e-06 6.3252407069209362e-07 0
4.9223456946800593e-06 5.5441189279250603e-07 0
3.4146491879844540e-06 4.3360489891658203e-07 0
3.3703464840789814e-06 4.1700549165241040e-07 0
3.7469415348563238e-06 6.3552120693530071e-07 0
3.8771025077103129e-06 3.7634358808748843e-07 0
3.8658346278806795e-06 7.2314188120105237e-07 0
3.9600595797188358e-06 4.1286114896821402e-07 0
3.7334490909967313e-06 9.0085322955572867e-07 0
3.6831086210515409e-06 2.4295429303854317e-07 0
5.0612658375651995e-06 1.2714534157596737e-06 0
5.7003155733977946e-06 6.4743874867590147e-07 0
4.0960165752423742e-06 1.3558514606313027e-06 0
3.8358587398097444e-06 4.2656219263559239e-07 0
4.6220610200848014e-06 2.0044025069930985e-06 0
4.5033580675503491e-06 2.9022700441600828e-07 0
4.8281336996633114e-06 2.7479571567926083e-06 0
4.5856707264595407e-06 9.7977773130139839e-08 0
4.7665265752945942e-06 3.9783136127944495e-06 0
4.2462596127493319e-06 -6.8172555436110658e-07 0
6.9099651123966956e-06 6.0774839908780780e-06 0
7.3705935121014470e-06 -1.1865843233841013e-06 0
6.6551633467590161e-06 7.6308114134359548e-06 0
5.8825054976027630e-06 -2.7287979256319484e-06 0
9.4600051837838400e-06 1.0497816691655194e-05 0
9.1395543965501097e-06 -4.4642813843526224e-06 0
1.3135354475438645e-05 1.3071715306766700e-05 0
1.2761267137601741e-05 -5.9944952228977658e-06 0
1.9642525501616166e-05 1.5872181150630219e-05 0
1.8621076280818176e-05 -6.8740926626529775e-06 0
2.4155293945566542e-05 1.5973027238802249e-05 0
2.4159670809508439e-05 1.0982348808303141e-05 0
2.2833029623335712e-05 6.1819510059676575e-06 0
2.2323147567322598e-05 2.2545727974341322e-06 0
2.2890604003330207e-05 -2.3394248035375126e-06 0
2.2493838275019220e-05 -7.5823943061240843e-06 0

VECTORS Forces1 float
-2.7875348111537496e-01 1.6712505367213784e-01 0
-1.8524121076001041e-01 -1.0918044655906976e-01 0
3.6778794820308822e+00 -2.0387035205160129e+00 0
2.4986847058899566e+00 1.3829136834448332e+00 0
4.0295978843881377e+00 -6.2525517203800240e-01 0
2.7455080126923015e+00 4.2647913046153874e-01 0
2.5667601807257610e+00 1.0431881932121863e-01 0
1.7497436714520012e+00 -6.9523195212480376e-02 0
-3.8690374058445576e-01 -1.4057994807458974e-02 0
-2.6420534612137136e-01 9.4058030967192948e-03 0
9.8748119671714463e+00 2.1490455460958778e-03 0
6.7463931460427125e+00 2.3327611068194736e-02 0
-4.1915819139238053e-01 -5.0086708704759819e-04 0
-2.8741926677087076e-01 -1.7626983795521189e-03 0
2.8160082768862065e+00 -2.4923101727175134e-04 0
1.9294299063849887e+00 1.5337380141450722e-02 0
2.8162290727675892e+00 -3.0913543082843287e-04 0
1.9296240362806960e+00 1.5382586460063994e-02 0
-4.1960240739562510e-01 -2.1128637200356609e-04 0
-2.8771957565300538e-01 -2.1173281615712710e-03 0
9.9345500313945347e+00 -3.6923675603722566e-03 0
6.8322634438051679e+00 9.2805366056768729e-02 0
-4.2012055352577748e-01 -1.8992035155235702e-04 0
-2.9092434840952364e-01 -5.1541255093857149e-03 0
2.8201648634060876e+00 -3.7537925613394377e-04 0
1.9524332730589604e+00 3.6707064186224971e-02 0
2.8201642440836578e+00 -3.7430762969685753e-04 0
1.9524648440815757e+00 3.6727028017992158e-02 0
-4.2009042628721438e-01 -2.1339049615618874e-04 0
-2.9109028354149052e-01 -5.2888015388411636e-03 0
9.9234821769683030e+00 7.9918722677194843e-03 0
6.9285268089158345e+00 1.6299475910198338e-01 0
-4.1859533150853590e-01 -1.0252323830695585e-03 0
-2.9563562768560891e-01 -8.0459010778699495e-03 0
2.8097876323566475e+00 5.3368221158051621e-03 0
1.9844821946981943e+00 5.6177798858596827e-02 0
2.8097716268197317e+00 5.3386077331614590e-03 0
1.9845231164066484e+00 5.6199932852513235e-02 0
-4.1848085980874794e-01 -1.0983306483923971e-03 0
-2.9587860889114126e-01 -8.1636406902778746e-03 0
9.8617141740072256e+00 3.5420703021173679e-02 0
7.0608047008596406e+00 2.3201508384481936e-01 0
-4.1511095483223925e-01 -2.6369495205955736e-03 0
-3.0222593251606944e-01 -1.0874902279149893e-02 0
2.7862208036848077e+00 1.6077629767598189e-02 0
2.0291582455527966e+00 7.5409575124333605e-02 0
2.7861888287299914e+00 1.6082178636017280e-02 0
2.0292128307611623e+00 7.5434459264891521e-02 0
-4.1490171483337418e-01 -2.7815645468422545e-03 0
-3.0256505317115856e-01 -1.0972729087934802e-02 0
9.7550678364205368e+00 9.3567646747227479e-02 0
7.2468927813747790e+00 2.9523823094654678e-01 0
-4.0915200562990983e-01 -5.9912566324932812e-03 0
-3.1120452431709555e-01 -1.3363137236688093e-02 0
2.7459198526955877e+00 3.8447484601277532e-02 0
2.0899051305987277e+00 9.2518601973806083e-02 0
2.7458727407187160e+00 3.8450038952153896e-02 0
2.0899795750725589e+00 9.2551197120917472e-02 0
-4.0887366977019451e-01 -6.2149378261914532e-03 0
-3.1169985440016912e-01 -1.3443835449734870e-02 0
9.5821802227840642e+00 1.7444480986901795e-01 0
7.4989889319793246e+00 3.6325297169268661e-01 0
-4.0208901152423759e-01 -9.9628269367932308e-03 0
-3.2448753295749788e-01 -1.6304098827817921e-02 0
2.6983060050077432e+00 6.4353102067077506e-02 0
2.1797339627510866e+00 1.1314010209376310e-01 0
2.6982231793790552e+00 6.4360612626480490e-02 0
2.1798246718715637e+00 1.1318160573351727e-01 0
-4.0169890477499298e-01 -1.0454497803709247e-02 0
-3.2520801582913550e-01 -1.6312919878801149e-02 0
9.4027514467082547e+00 3.6607961083316382e-01 0
7.8835660195251585e+00 4.0724182397634517e-01 0
-3.8943036420799593e-01 -2.2164785088826765e-02 0
-3.4203494540803159e-01 -1.7294823062986096e-02 0
2.6114486004074315e+00 1.4543089429619868e-01 0
2.2971677033325055e+00 1.2110622628686421e-01 0
2.6112796034187196e+00 1.4534366442610552e-01 0
2.2972270951358227e+00 1.2118935831169979e-01 0
-3.8985091651296089e-01 -2.2984861864386075e-02 0
-3.4393241428125554e-01 -1.7316162208729495e-02 0
9.0912034274087379e+00 4.9801697142130441e-01 0
8.4512529817600228e+00 5.4486457867742510e-01 0
-3.9940496626897221e-01 -2.8167233395668581e-02 0
-3.8890258615143974e-01 -2.4091862710528912e-02 0
2.6702779993243202e+00 1.7571147553058869e-01 0
2.6046235818228909e+00 1.7013948134226539e-01 0
2.6695255348726583e+00 1.7532140060626547e-01 0
2.6043203554915078e+00 1.7031747315245963e-01 0
-4.0107898958549232e-01 -3.2865435402313604e-02 0
-3.9354948021580416e-01 -2.2234690481837772e-02 0
9.5999174505540452e+00 1.7191058877197964e+00 0
1.0098339170488524e+01 2.4420625531645565e-01 0
-3.8784948856774171e-01 -1.3608370261515310e-01 0
-4.7383790848491547e-01 2.0240909495668650e-02 0
2.7136787491963550e+00 8.9626003390366615e-01 0
3.3042387838683318e+00 -5.0328621929553105e-02 0
2.0391359975144350e+00 5.6262442807594326e-01 0
2.6250126591370573e+00 -6.1719423015647014e-02 0
6.3144423555533882e+00 3.0765079587983544e+00 0
6.2518994300534247e+00 2.7608229361525066e-01 0
5.5381025325662236e-01 3.9219948190228060e-01 0
4.3506105219803146e+00 2.1274963885793285e+00 0
2.4391086837113640e+00 1.7743868741107949e+00 0
2.2835839230067005e+00 2.0301594153417470e+00 0
3.9319370795039457e+00 1.1806540373524319e+00 0
6.0144958769044521e-01 -1.8696264920944453e-01 0

