Timesteps  Total_Iterations  Iterations  Convergence  avgConvRate(0)  avgConvRate(1)  avgConvRate(2)  avgConvRate(3)  avgConvRate(4)  avgConvRate(5)  deleted_Columns  
1  20  20  1  0.1891223134484822  0.1877801154921354  0.1867960979544890  0.1825102935363380  0.1864011121192004  0.2237938946596623  1  
2  39  19  1  0.1709303105484698  0.1742019315555769  0.1775363721723440  0.1787137156554551  0.1806728576546561  0.2222270997125604  1  
3  51  12  1  0.0606597221226343  0.0637680235700439  0.0651394376635452  0.0651124599089505  0.0665482478485119  0.0858664567568372  0  
4  54  3  1  0.0000193058755168  0.0000244732683245  0.0000265573492792  0.0000279109075244  0.0000301451830933  0.0000453859488877  0  