{
  "Finalized": "2019-11-13T17:25:57.841",
  "Initialized": "2019-11-13T17:25:50.495",
  "Name": "",
  "Ranks": [
    {
      "Finalized": "2019-11-13T17:25:57.841",
      "Initialized": "2019-11-13T17:25:50.495",
      "StateChanges": [
        {
          "Name": "_GLOBAL",
          "State": 1,
          "Timestamp": 0
        },
        {
          "Name": "_GLOBAL",
          "State": 0,
          "Timestamp": 7346
        },
        {
          "Name": "advance",
          "State": 1,
          "Timestamp": 165
        },
        {
          "Name": "advance",
          "State": 0,
          "Timestamp": 363
        },
        {
          "Name": "advance",
          "State": 1,
          "Timestamp": 445
        },
        {
          "Name": "advance",
          "State": 0,
          "Timestamp": 581
        },
        {
          "Name": "advance",
          "State": 1,
          "Timestamp": 647
        },
        {
          "Name": "advance",
          "State": 0,
          "Timestamp": 768
        },
        {
          "Name": "advance",
          "State": 1,
          "Timestamp": 834
        },
        {
          "Name": "advance",
          "State": 0,
          "Timestamp": 954
        },
        {
          "Name": "advance",
          "State": 1,
          "Timestamp": 1020
        },
        {
          "Name": "advance",
          "State": 0,
          "Timestamp": 1140
        },
        {
          "Name": "advance",
          "State": 1,
          "Timestamp": 1206
        },
        {
          "Name": "advance",
          "State": 0,
          "Timestamp": 1326
        },
        {
          "Name": "advance",
          "State": 1,
          "Timestamp": 1393
        },
        {
          "Name": "advance",
          "State": 0,
          "Timestamp": 1512
        },
        {
          "Name": "advance",
          "State": 1,
          "Timestamp": 1580
        },
        {
          "Name": "advance",
          "State": 0,
          "Timestamp": 1700
        },
        {
          "Name": "advance",
          "State": 1,
          "Timestamp": 1767
        },
        {
          "Name": "advance",
          "State": 0,
          "Timestamp": 1887
        },
        {
          "Name": "advance",
          "State": 1,
          "Timestamp": 1953
        },
        {
          "Name": "advance",
          "State": 0,
          "Timestamp": 2073
        },
        {
          "Name": "advance",
          "State": 1,
          "Timestamp": 2140
        },
        {
          "Name": "advance",
          "State": 0,
          "Timestamp": 2260
        },
        {
          "Name": "advance",
          "State": 1,
          "Timestamp": 2327
        },
        {
          "Name": "advance",
          "State": 0,
          "Timestamp": 2447
        },
        {
          "Name": "advance",
          "State": 1,
          "Timestamp": 2513
        },
        {
          "Name": "advance",
          "State": 0,
          "Timestamp": 2634
        },
        {
          "Name": "advance",
          "State": 1,
          "Timestamp": 2700
        },
        {
          "Name": "advance",
          "State": 0,
          "Timestamp": 2820
        },
        {
          "Name": "advance",
          "State": 1,
          "Timestamp": 2886
        },
        {
          "Name": "advance",
          "State": 0,
          "Timestamp": 3006
        },
        {
          "Name": "advance",
          "State": 1,
          "Timestamp": 3071
        },
        {
          "Name": "advance",
          "State": 0,
          "Timestamp": 3191
        },
        {
          "Name": "advance",
          "State": 1,
          "Timestamp": 3257
        },
        {
          "Name": "advance",
          "State": 0,
          "Timestamp": 3376
        },
        {
          "Name": "advance",
          "State": 1,
          "Timestamp": 3442
        },
        {
          "Name": "advance",
          "State": 0,
          "Timestamp": 3562
        },
        {
          "Name": "advance",
          "State": 1,
          "Timestamp": 3629
        },
        {
          "Name": "advance",
          "State": 0,
          "Timestamp": 3749
        },
        {
          "Name": "advance",
          "State": 1,
          "Timestamp": 3826
        },
        {
          "Name": "advance",
          "State": 0,
          "Timestamp": 3956
        },
        {
          "Name": "advance",
          "State": 1,
          "Timestamp": 4022
        },
        {
          "Name": "advance",
          "State": 0,
          "Timestamp": 4142
        },
        {
          "Name": "advance",
          "State": 1,
          "Timestamp": 4208
        },
        {
          "Name": "advance",
          "State": 0,
          "Timestamp": 4329
        },
        {
          "Name": "advance",
          "State": 1,
          "Timestamp": 4395
        },
        {
          "Name": "advance",
          "State": 0,
          "Timestamp": 4515
        },
        {
          "Name": "advance",
          "State": 1,
          "Timestamp": 4582
        },
        {
          "Name": "advance",
          "State": 0,
          "Timestamp": 4703
        },
        {
          "Name": "advance",
          "State": 1,
          "Timestamp": 4770
        },
        {
          "Name": "advance",
          "State": 0,
          "Timestamp": 4892
        },
        {
          "Name": "advance",
          "State": 1,
          "Timestamp": 4959
        },
        {
          "Name": "advance",
          "State": 0,
          "Timestamp": 5078
        },
        {
          "Name": "advance",
          "State": 1,
          "Timestamp": 5144
        },
        {
          "Name": "advance",
          "State": 0,
          "Timestamp": 5263
        },
        {
          "Name": "advance",
          "State": 1,
          "Timestamp": 5329
        },
        {
          "Name": "advance",
          "State": 0,
          "Timestamp": 5449
        },
        {
          "Name": "advance",
          "State": 1,
          "Timestamp": 5515
        },
        {
          "Name": "advance",
          "State": 0,
          "Timestamp": 5637
        },
        {
          "Name": "advance",
          "State": 1,
          "Timestamp": 5704
        },
        {
          "Name": "advance",
          "State": 0,
          "Timestamp": 5824
        },
        {
          "Name": "advance",
          "State": 1,
          "Timestamp": 5890
        },
        {
          "Name": "advance",
          "State": 0,
          "Timestamp": 6010
        },
        {
          "Name": "advance",
          "State": 1,
          "Timestamp": 6076
        },
        {
          "Name": "advance",
          "State": 0,
          "Timestamp": 6196
        },
        {
          "Name": "advance",
          "State": 1,
          "Timestamp": 6263
        },
        {
          "Name": "advance",
          "State": 0,
          "Timestamp": 6382
        },
        {
          "Name": "advance",
          "State": 1,
          "Timestamp": 6448
        },
        {
          "Name": "advance",
          "State": 0,
          "Timestamp": 6568
        },
        {
          "Name": "advance",
          "State": 1,
          "Timestamp": 6635
        },
        {
          "Name": "advance",
          "State": 0,
          "Timestamp": 6756
        },
        {
          "Name": "advance",
          "State": 1,
          "Timestamp": 6823
        },
        {
          "Name": "advance",
          "State": 0,
          "Timestamp": 6943
        },
        {
          "Name": "advance",
          "State": 1,
          "Timestamp": 7009
        },
        {
          "Name": "advance",
          "State": 0,
          "Timestamp": 7130
        },
        {
          "Name": "advance",
          "State": 1,
          "Timestamp": 7196
        },
        {
          "Name": "advance",
          "State": 0,
          "Timestamp": 7318
        },
        {
          "Name": "advance/map.np.mapData.FromDirichletNodesToNeumannNodes",
          "State": 1,
          "Timestamp": 165
        },
        {
          "Name": "advance/map.np.mapData.FromDirichletNodesToNeumannNodes",
          "State": 0,
          "Timestamp": 165
        },
        {
          "Name": "advance/map.np.mapData.FromDirichletNodesToNeumannNodes",
          "State": 1,
          "Timestamp": 165
        },
        {
          "Name": "advance/map.np.mapData.FromDirichletNodesToNeumannNodes",
          "State": 0,
          "Timestamp": 165
        },
        {
          "Name": "advance/map.np.mapData.FromDirichletNodesToNeumannNodes",
          "State": 1,
          "Timestamp": 445
        },
        {
          "Name": "advance/map.np.mapData.FromDirichletNodesToNeumannNodes",
          "State": 0,
          "Timestamp": 445
        },
        {
          "Name": "advance/map.np.mapData.FromDirichletNodesToNeumannNodes",
          "State": 1,
          "Timestamp": 445
        },
        {
          "Name": "advance/map.np.mapData.FromDirichletNodesToNeumannNodes",
          "State": 0,
          "Timestamp": 445
        },
        {
          "Name": "advance/map.np.mapData.FromDirichletNodesToNeumannNodes",
          "State": 1,
          "Timestamp": 647
        },
        {
          "Name": "advance/map.np.mapData.FromDirichletNodesToNeumannNodes",
          "State": 0,
          "Timestamp": 647
        },
        {
          "Name": "advance/map.np.mapData.FromDirichletNodesToNeumannNodes",
          "State": 1,
          "Timestamp": 647
        },
        {
          "Name": "advance/map.np.mapData.FromDirichletNodesToNeumannNodes",
          "State": 0,
          "Timestamp": 647
        },
        {
          "Name": "advance/map.np.mapData.FromDirichletNodesToNeumannNodes",
          "State": 1,
          "Timestamp": 834
        },
        {
          "Name": "advance/map.np.mapData.FromDirichletNodesToNeumannNodes",
          "State": 0,
          "Timestamp": 834
        },
        {
          "Name": "advance/map.np.mapData.FromDirichletNodesToNeumannNodes",
          "State": 1,
          "Timestamp": 834
        },
        {
          "Name": "advance/map.np.mapData.FromDirichletNodesToNeumannNodes",
          "State": 0,
          "Timestamp": 834
        },
        {
          "Name": "advance/map.np.mapData.FromDirichletNodesToNeumannNodes",
          "State": 1,
          "Timestamp": 1020
        },
        {
          "Name": "advance/map.np.mapData.FromDirichletNodesToNeumannNodes",
          "State": 0,
          "Timestamp": 1020
        },
        {
          "Name": "advance/map.np.mapData.FromDirichletNodesToNeumannNodes",
          "State": 1,
          "Timestamp": 1020
        },
        {
          "Name": "advance/map.np.mapData.FromDirichletNodesToNeumannNodes",
          "State": 0,
          "Timestamp": 1020
        },
        {
          "Name": "advance/map.np.mapData.FromDirichletNodesToNeumannNodes",
          "State": 1,
          "Timestamp": 1206
        },
        {
          "Name": "advance/map.np.mapData.FromDirichletNodesToNeumannNodes",
          "State": 0,
          "Timestamp": 1206
        },
        {
          "Name": "advance/map.np.mapData.FromDirichletNodesToNeumannNodes",
          "State": 1,
          "Timestamp": 1206
        },
        {
          "Name": "advance/map.np.mapData.FromDirichletNodesToNeumannNodes",
          "State": 0,
          "Timestamp": 1206
        },
        {
          "Name": "advance/map.np.mapData.FromDirichletNodesToNeumannNodes",
          "State": 1,
          "Timestamp": 1393
        },
        {
          "Name": "advance/map.np.mapData.FromDirichletNodesToNeumannNodes",
          "State": 0,
          "Timestamp": 1393
        },
        {
          "Name": "advance/map.np.mapData.FromDirichletNodesToNeumannNodes",
          "State": 1,
          "Timestamp": 1393
        },
        {
          "Name": "advance/map.np.mapData.FromDirichletNodesToNeumannNodes",
          "State": 0,
          "Timestamp": 1393
        },
        {
          "Name": "advance/map.np.mapData.FromDirichletNodesToNeumannNodes",
          "State": 1,
          "Timestamp": 1580
        },
        {
          "Name": "advance/map.np.mapData.FromDirichletNodesToNeumannNodes",
          "State": 0,
          "Timestamp": 1580
        },
        {
          "Name": "advance/map.np.mapData.FromDirichletNodesToNeumannNodes",
          "State": 1,
          "Timestamp": 1580
        },
        {
          "Name": "advance/map.np.mapData.FromDirichletNodesToNeumannNodes",
          "State": 0,
          "Timestamp": 1580
        },
        {
          "Name": "advance/map.np.mapData.FromDirichletNodesToNeumannNodes",
          "State": 1,
          "Timestamp": 1767
        },
        {
          "Name": "advance/map.np.mapData.FromDirichletNodesToNeumannNodes",
          "State": 0,
          "Timestamp": 1767
        },
        {
          "Name": "advance/map.np.mapData.FromDirichletNodesToNeumannNodes",
          "State": 1,
          "Timestamp": 1767
        },
        {
          "Name": "advance/map.np.mapData.FromDirichletNodesToNeumannNodes",
          "State": 0,
          "Timestamp": 1767
        },
        {
          "Name": "advance/map.np.mapData.FromDirichletNodesToNeumannNodes",
          "State": 1,
          "Timestamp": 1954
        },
        {
          "Name": "advance/map.np.mapData.FromDirichletNodesToNeumannNodes",
          "State": 0,
          "Timestamp": 1954
        },
        {
          "Name": "advance/map.np.mapData.FromDirichletNodesToNeumannNodes",
          "State": 1,
          "Timestamp": 1954
        },
        {
          "Name": "advance/map.np.mapData.FromDirichletNodesToNeumannNodes",
          "State": 0,
          "Timestamp": 1954
        },
        {
          "Name": "advance/map.np.mapData.FromDirichletNodesToNeumannNodes",
          "State": 1,
          "Timestamp": 2140
        },
        {
          "Name": "advance/map.np.mapData.FromDirichletNodesToNeumannNodes",
          "State": 0,
          "Timestamp": 2140
        },
        {
          "Name": "advance/map.np.mapData.FromDirichletNodesToNeumannNodes",
          "State": 1,
          "Timestamp": 2140
        },
        {
          "Name": "advance/map.np.mapData.FromDirichletNodesToNeumannNodes",
          "State": 0,
          "Timestamp": 2140
        },
        {
          "Name": "advance/map.np.mapData.FromDirichletNodesToNeumannNodes",
          "State": 1,
          "Timestamp": 2327
        },
        {
          "Name": "advance/map.np.mapData.FromDirichletNodesToNeumannNodes",
          "State": 0,
          "Timestamp": 2327
        },
        {
          "Name": "advance/map.np.mapData.FromDirichletNodesToNeumannNodes",
          "State": 1,
          "Timestamp": 2327
        },
        {
          "Name": "advance/map.np.mapData.FromDirichletNodesToNeumannNodes",
          "State": 0,
          "Timestamp": 2327
        },
        {
          "Name": "advance/map.np.mapData.FromDirichletNodesToNeumannNodes",
          "State": 1,
          "Timestamp": 2513
        },
        {
          "Name": "advance/map.np.mapData.FromDirichletNodesToNeumannNodes",
          "State": 0,
          "Timestamp": 2513
        },
        {
          "Name": "advance/map.np.mapData.FromDirichletNodesToNeumannNodes",
          "State": 1,
          "Timestamp": 2513
        },
        {
          "Name": "advance/map.np.mapData.FromDirichletNodesToNeumannNodes",
          "State": 0,
          "Timestamp": 2513
        },
        {
          "Name": "advance/map.np.mapData.FromDirichletNodesToNeumannNodes",
          "State": 1,
          "Timestamp": 2700
        },
        {
          "Name": "advance/map.np.mapData.FromDirichletNodesToNeumannNodes",
          "State": 0,
          "Timestamp": 2700
        },
        {
          "Name": "advance/map.np.mapData.FromDirichletNodesToNeumannNodes",
          "State": 1,
          "Timestamp": 2700
        },
        {
          "Name": "advance/map.np.mapData.FromDirichletNodesToNeumannNodes",
          "State": 0,
          "Timestamp": 2700
        },
        {
          "Name": "advance/map.np.mapData.FromDirichletNodesToNeumannNodes",
          "State": 1,
          "Timestamp": 2886
        },
        {
          "Name": "advance/map.np.mapData.FromDirichletNodesToNeumannNodes",
          "State": 0,
          "Timestamp": 2886
        },
        {
          "Name": "advance/map.np.mapData.FromDirichletNodesToNeumannNodes",
          "State": 1,
          "Timestamp": 2886
        },
        {
          "Name": "advance/map.np.mapData.FromDirichletNodesToNeumannNodes",
          "State": 0,
          "Timestamp": 2886
        },
        {
          "Name": "advance/map.np.mapData.FromDirichletNodesToNeumannNodes",
          "State": 1,
          "Timestamp": 3071
        },
        {
          "Name": "advance/map.np.mapData.FromDirichletNodesToNeumannNodes",
          "State": 0,
          "Timestamp": 3071
        },
        {
          "Name": "advance/map.np.mapData.FromDirichletNodesToNeumannNodes",
          "State": 1,
          "Timestamp": 3071
        },
        {
          "Name": "advance/map.np.mapData.FromDirichletNodesToNeumannNodes",
          "State": 0,
          "Timestamp": 3071
        },
        {
          "Name": "advance/map.np.mapData.FromDirichletNodesToNeumannNodes",
          "State": 1,
          "Timestamp": 3257
        },
        {
          "Name": "advance/map.np.mapData.FromDirichletNodesToNeumannNodes",
          "State": 0,
          "Timestamp": 3257
        },
        {
          "Name": "advance/map.np.mapData.FromDirichletNodesToNeumannNodes",
          "State": 1,
          "Timestamp": 3257
        },
        {
          "Name": "advance/map.np.mapData.FromDirichletNodesToNeumannNodes",
          "State": 0,
          "Timestamp": 3257
        },
        {
          "Name": "advance/map.np.mapData.FromDirichletNodesToNeumannNodes",
          "State": 1,
          "Timestamp": 3442
        },
        {
          "Name": "advance/map.np.mapData.FromDirichletNodesToNeumannNodes",
          "State": 0,
          "Timestamp": 3442
        },
        {
          "Name": "advance/map.np.mapData.FromDirichletNodesToNeumannNodes",
          "State": 1,
          "Timestamp": 3442
        },
        {
          "Name": "advance/map.np.mapData.FromDirichletNodesToNeumannNodes",
          "State": 0,
          "Timestamp": 3442
        },
        {
          "Name": "advance/map.np.mapData.FromDirichletNodesToNeumannNodes",
          "State": 1,
          "Timestamp": 3629
        },
        {
          "Name": "advance/map.np.mapData.FromDirichletNodesToNeumannNodes",
          "State": 0,
          "Timestamp": 3629
        },
        {
          "Name": "advance/map.np.mapData.FromDirichletNodesToNeumannNodes",
          "State": 1,
          "Timestamp": 3629
        },
        {
          "Name": "advance/map.np.mapData.FromDirichletNodesToNeumannNodes",
          "State": 0,
          "Timestamp": 3629
        },
        {
          "Name": "advance/map.np.mapData.FromDirichletNodesToNeumannNodes",
          "State": 1,
          "Timestamp": 3826
        },
        {
          "Name": "advance/map.np.mapData.FromDirichletNodesToNeumannNodes",
          "State": 0,
          "Timestamp": 3826
        },
        {
          "Name": "advance/map.np.mapData.FromDirichletNodesToNeumannNodes",
          "State": 1,
          "Timestamp": 3826
        },
        {
          "Name": "advance/map.np.mapData.FromDirichletNodesToNeumannNodes",
          "State": 0,
          "Timestamp": 3826
        },
        {
          "Name": "advance/map.np.mapData.FromDirichletNodesToNeumannNodes",
          "State": 1,
          "Timestamp": 4022
        },
        {
          "Name": "advance/map.np.mapData.FromDirichletNodesToNeumannNodes",
          "State": 0,
          "Timestamp": 4022
        },
        {
          "Name": "advance/map.np.mapData.FromDirichletNodesToNeumannNodes",
          "State": 1,
          "Timestamp": 4022
        },
        {
          "Name": "advance/map.np.mapData.FromDirichletNodesToNeumannNodes",
          "State": 0,
          "Timestamp": 4022
        },
        {
          "Name": "advance/map.np.mapData.FromDirichletNodesToNeumannNodes",
          "State": 1,
          "Timestamp": 4208
        },
        {
          "Name": "advance/map.np.mapData.FromDirichletNodesToNeumannNodes",
          "State": 0,
          "Timestamp": 4208
        },
        {
          "Name": "advance/map.np.mapData.FromDirichletNodesToNeumannNodes",
          "State": 1,
          "Timestamp": 4208
        },
        {
          "Name": "advance/map.np.mapData.FromDirichletNodesToNeumannNodes",
          "State": 0,
          "Timestamp": 4208
        },
        {
          "Name": "advance/map.np.mapData.FromDirichletNodesToNeumannNodes",
          "State": 1,
          "Timestamp": 4395
        },
        {
          "Name": "advance/map.np.mapData.FromDirichletNodesToNeumannNodes",
          "State": 0,
          "Timestamp": 4395
        },
        {
          "Name": "advance/map.np.mapData.FromDirichletNodesToNeumannNodes",
          "State": 1,
          "Timestamp": 4395
        },
        {
          "Name": "advance/map.np.mapData.FromDirichletNodesToNeumannNodes",
          "State": 0,
          "Timestamp": 4395
        },
        {
          "Name": "advance/map.np.mapData.FromDirichletNodesToNeumannNodes",
          "State": 1,
          "Timestamp": 4582
        },
        {
          "Name": "advance/map.np.mapData.FromDirichletNodesToNeumannNodes",
          "State": 0,
          "Timestamp": 4582
        },
        {
          "Name": "advance/map.np.mapData.FromDirichletNodesToNeumannNodes",
          "State": 1,
          "Timestamp": 4582
        },
        {
          "Name": "advance/map.np.mapData.FromDirichletNodesToNeumannNodes",
          "State": 0,
          "Timestamp": 4582
        },
        {
          "Name": "advance/map.np.mapData.FromDirichletNodesToNeumannNodes",
          "State": 1,
          "Timestamp": 4770
        },
        {
          "Name": "advance/map.np.mapData.FromDirichletNodesToNeumannNodes",
          "State": 0,
          "Timestamp": 4770
        },
        {
          "Name": "advance/map.np.mapData.FromDirichletNodesToNeumannNodes",
          "State": 1,
          "Timestamp": 4770
        },
        {
          "Name": "advance/map.np.mapData.FromDirichletNodesToNeumannNodes",
          "State": 0,
          "Timestamp": 4770
        },
        {
          "Name": "advance/map.np.mapData.FromDirichletNodesToNeumannNodes",
          "State": 1,
          "Timestamp": 4959
        },
        {
          "Name": "advance/map.np.mapData.FromDirichletNodesToNeumannNodes",
          "State": 0,
          "Timestamp": 4959
        },
        {
          "Name": "advance/map.np.mapData.FromDirichletNodesToNeumannNodes",
          "State": 1,
          "Timestamp": 4959
        },
        {
          "Name": "advance/map.np.mapData.FromDirichletNodesToNeumannNodes",
          "State": 0,
          "Timestamp": 4959
        },
        {
          "Name": "advance/map.np.mapData.FromDirichletNodesToNeumannNodes",
          "State": 1,
          "Timestamp": 5144
        },
        {
          "Name": "advance/map.np.mapData.FromDirichletNodesToNeumannNodes",
          "State": 0,
          "Timestamp": 5144
        },
        {
          "Name": "advance/map.np.mapData.FromDirichletNodesToNeumannNodes",
          "State": 1,
          "Timestamp": 5144
        },
        {
          "Name": "advance/map.np.mapData.FromDirichletNodesToNeumannNodes",
          "State": 0,
          "Timestamp": 5144
        },
        {
          "Name": "advance/map.np.mapData.FromDirichletNodesToNeumannNodes",
          "State": 1,
          "Timestamp": 5329
        },
        {
          "Name": "advance/map.np.mapData.FromDirichletNodesToNeumannNodes",
          "State": 0,
          "Timestamp": 5329
        },
        {
          "Name": "advance/map.np.mapData.FromDirichletNodesToNeumannNodes",
          "State": 1,
          "Timestamp": 5329
        },
        {
          "Name": "advance/map.np.mapData.FromDirichletNodesToNeumannNodes",
          "State": 0,
          "Timestamp": 5329
        },
        {
          "Name": "advance/map.np.mapData.FromDirichletNodesToNeumannNodes",
          "State": 1,
          "Timestamp": 5515
        },
        {
          "Name": "advance/map.np.mapData.FromDirichletNodesToNeumannNodes",
          "State": 0,
          "Timestamp": 5515
        },
        {
          "Name": "advance/map.np.mapData.FromDirichletNodesToNeumannNodes",
          "State": 1,
          "Timestamp": 5515
        },
        {
          "Name": "advance/map.np.mapData.FromDirichletNodesToNeumannNodes",
          "State": 0,
          "Timestamp": 5515
        },
        {
          "Name": "advance/map.np.mapData.FromDirichletNodesToNeumannNodes",
          "State": 1,
          "Timestamp": 5704
        },
        {
          "Name": "advance/map.np.mapData.FromDirichletNodesToNeumannNodes",
          "State": 0,
          "Timestamp": 5704
        },
        {
          "Name": "advance/map.np.mapData.FromDirichletNodesToNeumannNodes",
          "State": 1,
          "Timestamp": 5704
        },
        {
          "Name": "advance/map.np.mapData.FromDirichletNodesToNeumannNodes",
          "State": 0,
          "Timestamp": 5704
        },
        {
          "Name": "advance/map.np.mapData.FromDirichletNodesToNeumannNodes",
          "State": 1,
          "Timestamp": 5890
        },
        {
          "Name": "advance/map.np.mapData.FromDirichletNodesToNeumannNodes",
          "State": 0,
          "Timestamp": 5890
        },
        {
          "Name": "advance/map.np.mapData.FromDirichletNodesToNeumannNodes",
          "State": 1,
          "Timestamp": 5890
        },
        {
          "Name": "advance/map.np.mapData.FromDirichletNodesToNeumannNodes",
          "State": 0,
          "Timestamp": 5890
        },
        {
          "Name": "advance/map.np.mapData.FromDirichletNodesToNeumannNodes",
          "State": 1,
          "Timestamp": 6076
        },
        {
          "Name": "advance/map.np.mapData.FromDirichletNodesToNeumannNodes",
          "State": 0,
          "Timestamp": 6076
        },
        {
          "Name": "advance/map.np.mapData.FromDirichletNodesToNeumannNodes",
          "State": 1,
          "Timestamp": 6076
        },
        {
          "Name": "advance/map.np.mapData.FromDirichletNodesToNeumannNodes",
          "State": 0,
          "Timestamp": 6076
        },
        {
          "Name": "advance/map.np.mapData.FromDirichletNodesToNeumannNodes",
          "State": 1,
          "Timestamp": 6263
        },
        {
          "Name": "advance/map.np.mapData.FromDirichletNodesToNeumannNodes",
          "State": 0,
          "Timestamp": 6263
        },
        {
          "Name": "advance/map.np.mapData.FromDirichletNodesToNeumannNodes",
          "State": 1,
          "Timestamp": 6263
        },
        {
          "Name": "advance/map.np.mapData.FromDirichletNodesToNeumannNodes",
          "State": 0,
          "Timestamp": 6263
        },
        {
          "Name": "advance/map.np.mapData.FromDirichletNodesToNeumannNodes",
          "State": 1,
          "Timestamp": 6448
        },
        {
          "Name": "advance/map.np.mapData.FromDirichletNodesToNeumannNodes",
          "State": 0,
          "Timestamp": 6448
        },
        {
          "Name": "advance/map.np.mapData.FromDirichletNodesToNeumannNodes",
          "State": 1,
          "Timestamp": 6448
        },
        {
          "Name": "advance/map.np.mapData.FromDirichletNodesToNeumannNodes",
          "State": 0,
          "Timestamp": 6448
        },
        {
          "Name": "advance/map.np.mapData.FromDirichletNodesToNeumannNodes",
          "State": 1,
          "Timestamp": 6635
        },
        {
          "Name": "advance/map.np.mapData.FromDirichletNodesToNeumannNodes",
          "State": 0,
          "Timestamp": 6635
        },
        {
          "Name": "advance/map.np.mapData.FromDirichletNodesToNeumannNodes",
          "State": 1,
          "Timestamp": 6635
        },
        {
          "Name": "advance/map.np.mapData.FromDirichletNodesToNeumannNodes",
          "State": 0,
          "Timestamp": 6635
        },
        {
          "Name": "advance/map.np.mapData.FromDirichletNodesToNeumannNodes",
          "State": 1,
          "Timestamp": 6823
        },
        {
          "Name": "advance/map.np.mapData.FromDirichletNodesToNeumannNodes",
          "State": 0,
          "Timestamp": 6823
        },
        {
          "Name": "advance/map.np.mapData.FromDirichletNodesToNeumannNodes",
          "State": 1,
          "Timestamp": 6823
        },
        {
          "Name": "advance/map.np.mapData.FromDirichletNodesToNeumannNodes",
          "State": 0,
          "Timestamp": 6823
        },
        {
          "Name": "advance/map.np.mapData.FromDirichletNodesToNeumannNodes",
          "State": 1,
          "Timestamp": 7009
        },
        {
          "Name": "advance/map.np.mapData.FromDirichletNodesToNeumannNodes",
          "State": 0,
          "Timestamp": 7009
        },
        {
          "Name": "advance/map.np.mapData.FromDirichletNodesToNeumannNodes",
          "State": 1,
          "Timestamp": 7009
        },
        {
          "Name": "advance/map.np.mapData.FromDirichletNodesToNeumannNodes",
          "State": 0,
          "Timestamp": 7009
        },
        {
          "Name": "advance/map.np.mapData.FromDirichletNodesToNeumannNodes",
          "State": 1,
          "Timestamp": 7196
        },
        {
          "Name": "advance/map.np.mapData.FromDirichletNodesToNeumannNodes",
          "State": 0,
          "Timestamp": 7196
        },
        {
          "Name": "advance/map.np.mapData.FromDirichletNodesToNeumannNodes",
          "State": 1,
          "Timestamp": 7196
        },
        {
          "Name": "advance/map.np.mapData.FromDirichletNodesToNeumannNodes",
          "State": 0,
          "Timestamp": 7196
        },
        {
          "Name": "advance/map.np.mapData.FromNeumannNodesToDirichletNodes",
          "State": 1,
          "Timestamp": 363
        },
        {
          "Name": "advance/map.np.mapData.FromNeumannNodesToDirichletNodes",
          "State": 0,
          "Timestamp": 363
        },
        {
          "Name": "advance/map.np.mapData.FromNeumannNodesToDirichletNodes",
          "State": 1,
          "Timestamp": 363
        },
        {
          "Name": "advance/map.np.mapData.FromNeumannNodesToDirichletNodes",
          "State": 0,
          "Timestamp": 363
        },
        {
          "Name": "advance/map.np.mapData.FromNeumannNodesToDirichletNodes",
          "State": 1,
          "Timestamp": 581
        },
        {
          "Name": "advance/map.np.mapData.FromNeumannNodesToDirichletNodes",
          "State": 0,
          "Timestamp": 581
        },
        {
          "Name": "advance/map.np.mapData.FromNeumannNodesToDirichletNodes",
          "State": 1,
          "Timestamp": 581
        },
        {
          "Name": "advance/map.np.mapData.FromNeumannNodesToDirichletNodes",
          "State": 0,
          "Timestamp": 581
        },
        {
          "Name": "advance/map.np.mapData.FromNeumannNodesToDirichletNodes",
          "State": 1,
          "Timestamp": 768
        },
        {
          "Name": "advance/map.np.mapData.FromNeumannNodesToDirichletNodes",
          "State": 0,
          "Timestamp": 768
        },
        {
          "Name": "advance/map.np.mapData.FromNeumannNodesToDirichletNodes",
          "State": 1,
          "Timestamp": 768
        },
        {
          "Name": "advance/map.np.mapData.FromNeumannNodesToDirichletNodes",
          "State": 0,
          "Timestamp": 768
        },
        {
          "Name": "advance/map.np.mapData.FromNeumannNodesToDirichletNodes",
          "State": 1,
          "Timestamp": 954
        },
        {
          "Name": "advance/map.np.mapData.FromNeumannNodesToDirichletNodes",
          "State": 0,
          "Timestamp": 954
        },
        {
          "Name": "advance/map.np.mapData.FromNeumannNodesToDirichletNodes",
          "State": 1,
          "Timestamp": 954
        },
        {
          "Name": "advance/map.np.mapData.FromNeumannNodesToDirichletNodes",
          "State": 0,
          "Timestamp": 954
        },
        {
          "Name": "advance/map.np.mapData.FromNeumannNodesToDirichletNodes",
          "State": 1,
          "Timestamp": 1140
        },
        {
          "Name": "advance/map.np.mapData.FromNeumannNodesToDirichletNodes",
          "State": 0,
          "Timestamp": 1140
        },
        {
          "Name": "advance/map.np.mapData.FromNeumannNodesToDirichletNodes",
          "State": 1,
          "Timestamp": 1140
        },
        {
          "Name": "advance/map.np.mapData.FromNeumannNodesToDirichletNodes",
          "State": 0,
          "Timestamp": 1140
        },
        {
          "Name": "advance/map.np.mapData.FromNeumannNodesToDirichletNodes",
          "State": 1,
          "Timestamp": 1326
        },
        {
          "Name": "advance/map.np.mapData.FromNeumannNodesToDirichletNodes",
          "State": 0,
          "Timestamp": 1326
        },
        {
          "Name": "advance/map.np.mapData.FromNeumannNodesToDirichletNodes",
          "State": 1,
          "Timestamp": 1326
        },
        {
          "Name": "advance/map.np.mapData.FromNeumannNodesToDirichletNodes",
          "State": 0,
          "Timestamp": 1326
        },
        {
          "Name": "advance/map.np.mapData.FromNeumannNodesToDirichletNodes",
          "State": 1,
          "Timestamp": 1512
        },
        {
          "Name": "advance/map.np.mapData.FromNeumannNodesToDirichletNodes",
          "State": 0,
          "Timestamp": 1512
        },
        {
          "Name": "advance/map.np.mapData.FromNeumannNodesToDirichletNodes",
          "State": 1,
          "Timestamp": 1512
        },
        {
          "Name": "advance/map.np.mapData.FromNeumannNodesToDirichletNodes",
          "State": 0,
          "Timestamp": 1512
        },
        {
          "Name": "advance/map.np.mapData.FromNeumannNodesToDirichletNodes",
          "State": 1,
          "Timestamp": 1700
        },
        {
          "Name": "advance/map.np.mapData.FromNeumannNodesToDirichletNodes",
          "State": 0,
          "Timestamp": 1700
        },
        {
          "Name": "advance/map.np.mapData.FromNeumannNodesToDirichletNodes",
          "State": 1,
          "Timestamp": 1700
        },
        {
          "Name": "advance/map.np.mapData.FromNeumannNodesToDirichletNodes",
          "State": 0,
          "Timestamp": 1700
        },
        {
          "Name": "advance/map.np.mapData.FromNeumannNodesToDirichletNodes",
          "State": 1,
          "Timestamp": 1887
        },
        {
          "Name": "advance/map.np.mapData.FromNeumannNodesToDirichletNodes",
          "State": 0,
          "Timestamp": 1887
        },
        {
          "Name": "advance/map.np.mapData.FromNeumannNodesToDirichletNodes",
          "State": 1,
          "Timestamp": 1887
        },
        {
          "Name": "advance/map.np.mapData.FromNeumannNodesToDirichletNodes",
          "State": 0,
          "Timestamp": 1887
        },
        {
          "Name": "advance/map.np.mapData.FromNeumannNodesToDirichletNodes",
          "State": 1,
          "Timestamp": 2073
        },
        {
          "Name": "advance/map.np.mapData.FromNeumannNodesToDirichletNodes",
          "State": 0,
          "Timestamp": 2073
        },
        {
          "Name": "advance/map.np.mapData.FromNeumannNodesToDirichletNodes",
          "State": 1,
          "Timestamp": 2073
        },
        {
          "Name": "advance/map.np.mapData.FromNeumannNodesToDirichletNodes",
          "State": 0,
          "Timestamp": 2073
        },
        {
          "Name": "advance/map.np.mapData.FromNeumannNodesToDirichletNodes",
          "State": 1,
          "Timestamp": 2260
        },
        {
          "Name": "advance/map.np.mapData.FromNeumannNodesToDirichletNodes",
          "State": 0,
          "Timestamp": 2260
        },
        {
          "Name": "advance/map.np.mapData.FromNeumannNodesToDirichletNodes",
          "State": 1,
          "Timestamp": 2260
        },
        {
          "Name": "advance/map.np.mapData.FromNeumannNodesToDirichletNodes",
          "State": 0,
          "Timestamp": 2260
        },
        {
          "Name": "advance/map.np.mapData.FromNeumannNodesToDirichletNodes",
          "State": 1,
          "Timestamp": 2447
        },
        {
          "Name": "advance/map.np.mapData.FromNeumannNodesToDirichletNodes",
          "State": 0,
          "Timestamp": 2447
        },
        {
          "Name": "advance/map.np.mapData.FromNeumannNodesToDirichletNodes",
          "State": 1,
          "Timestamp": 2447
        },
        {
          "Name": "advance/map.np.mapData.FromNeumannNodesToDirichletNodes",
          "State": 0,
          "Timestamp": 2447
        },
        {
          "Name": "advance/map.np.mapData.FromNeumannNodesToDirichletNodes",
          "State": 1,
          "Timestamp": 2634
        },
        {
          "Name": "advance/map.np.mapData.FromNeumannNodesToDirichletNodes",
          "State": 0,
          "Timestamp": 2634
        },
        {
          "Name": "advance/map.np.mapData.FromNeumannNodesToDirichletNodes",
          "State": 1,
          "Timestamp": 2634
        },
        {
          "Name": "advance/map.np.mapData.FromNeumannNodesToDirichletNodes",
          "State": 0,
          "Timestamp": 2634
        },
        {
          "Name": "advance/map.np.mapData.FromNeumannNodesToDirichletNodes",
          "State": 1,
          "Timestamp": 2820
        },
        {
          "Name": "advance/map.np.mapData.FromNeumannNodesToDirichletNodes",
          "State": 0,
          "Timestamp": 2820
        },
        {
          "Name": "advance/map.np.mapData.FromNeumannNodesToDirichletNodes",
          "State": 1,
          "Timestamp": 2820
        },
        {
          "Name": "advance/map.np.mapData.FromNeumannNodesToDirichletNodes",
          "State": 0,
          "Timestamp": 2820
        },
        {
          "Name": "advance/map.np.mapData.FromNeumannNodesToDirichletNodes",
          "State": 1,
          "Timestamp": 3006
        },
        {
          "Name": "advance/map.np.mapData.FromNeumannNodesToDirichletNodes",
          "State": 0,
          "Timestamp": 3006
        },
        {
          "Name": "advance/map.np.mapData.FromNeumannNodesToDirichletNodes",
          "State": 1,
          "Timestamp": 3006
        },
        {
          "Name": "advance/map.np.mapData.FromNeumannNodesToDirichletNodes",
          "State": 0,
          "Timestamp": 3006
        },
        {
          "Name": "advance/map.np.mapData.FromNeumannNodesToDirichletNodes",
          "State": 1,
          "Timestamp": 3191
        },
        {
          "Name": "advance/map.np.mapData.FromNeumannNodesToDirichletNodes",
          "State": 0,
          "Timestamp": 3191
        },
        {
          "Name": "advance/map.np.mapData.FromNeumannNodesToDirichletNodes",
          "State": 1,
          "Timestamp": 3191
        },
        {
          "Name": "advance/map.np.mapData.FromNeumannNodesToDirichletNodes",
          "State": 0,
          "Timestamp": 3191
        },
        {
          "Name": "advance/map.np.mapData.FromNeumannNodesToDirichletNodes",
          "State": 1,
          "Timestamp": 3376
        },
        {
          "Name": "advance/map.np.mapData.FromNeumannNodesToDirichletNodes",
          "State": 0,
          "Timestamp": 3376
        },
        {
          "Name": "advance/map.np.mapData.FromNeumannNodesToDirichletNodes",
          "State": 1,
          "Timestamp": 3376
        },
        {
          "Name": "advance/map.np.mapData.FromNeumannNodesToDirichletNodes",
          "State": 0,
          "Timestamp": 3376
        },
        {
          "Name": "advance/map.np.mapData.FromNeumannNodesToDirichletNodes",
          "State": 1,
          "Timestamp": 3562
        },
        {
          "Name": "advance/map.np.mapData.FromNeumannNodesToDirichletNodes",
          "State": 0,
          "Timestamp": 3562
        },
        {
          "Name": "advance/map.np.mapData.FromNeumannNodesToDirichletNodes",
          "State": 1,
          "Timestamp": 3562
        },
        {
          "Name": "advance/map.np.mapData.FromNeumannNodesToDirichletNodes",
          "State": 0,
          "Timestamp": 3562
        },
        {
          "Name": "advance/map.np.mapData.FromNeumannNodesToDirichletNodes",
          "State": 1,
          "Timestamp": 3749
        },
        {
          "Name": "advance/map.np.mapData.FromNeumannNodesToDirichletNodes",
          "State": 0,
          "Timestamp": 3749
        },
        {
          "Name": "advance/map.np.mapData.FromNeumannNodesToDirichletNodes",
          "State": 1,
          "Timestamp": 3749
        },
        {
          "Name": "advance/map.np.mapData.FromNeumannNodesToDirichletNodes",
          "State": 0,
          "Timestamp": 3749
        },
        {
          "Name": "advance/map.np.mapData.FromNeumannNodesToDirichletNodes",
          "State": 1,
          "Timestamp": 3956
        },
        {
          "Name": "advance/map.np.mapData.FromNeumannNodesToDirichletNodes",
          "State": 0,
          "Timestamp": 3956
        },
        {
          "Name": "advance/map.np.mapData.FromNeumannNodesToDirichletNodes",
          "State": 1,
          "Timestamp": 3956
        },
        {
          "Name": "advance/map.np.mapData.FromNeumannNodesToDirichletNodes",
          "State": 0,
          "Timestamp": 3956
        },
        {
          "Name": "advance/map.np.mapData.FromNeumannNodesToDirichletNodes",
          "State": 1,
          "Timestamp": 4142
        },
        {
          "Name": "advance/map.np.mapData.FromNeumannNodesToDirichletNodes",
          "State": 0,
          "Timestamp": 4142
        },
        {
          "Name": "advance/map.np.mapData.FromNeumannNodesToDirichletNodes",
          "State": 1,
          "Timestamp": 4142
        },
        {
          "Name": "advance/map.np.mapData.FromNeumannNodesToDirichletNodes",
          "State": 0,
          "Timestamp": 4142
        },
        {
          "Name": "advance/map.np.mapData.FromNeumannNodesToDirichletNodes",
          "State": 1,
          "Timestamp": 4329
        },
        {
          "Name": "advance/map.np.mapData.FromNeumannNodesToDirichletNodes",
          "State": 0,
          "Timestamp": 4329
        },
        {
          "Name": "advance/map.np.mapData.FromNeumannNodesToDirichletNodes",
          "State": 1,
          "Timestamp": 4329
        },
        {
          "Name": "advance/map.np.mapData.FromNeumannNodesToDirichletNodes",
          "State": 0,
          "Timestamp": 4329
        },
        {
          "Name": "advance/map.np.mapData.FromNeumannNodesToDirichletNodes",
          "State": 1,
          "Timestamp": 4515
        },
        {
          "Name": "advance/map.np.mapData.FromNeumannNodesToDirichletNodes",
          "State": 0,
          "Timestamp": 4515
        },
        {
          "Name": "advance/map.np.mapData.FromNeumannNodesToDirichletNodes",
          "State": 1,
          "Timestamp": 4515
        },
        {
          "Name": "advance/map.np.mapData.FromNeumannNodesToDirichletNodes",
          "State": 0,
          "Timestamp": 4515
        },
        {
          "Name": "advance/map.np.mapData.FromNeumannNodesToDirichletNodes",
          "State": 1,
          "Timestamp": 4702
        },
        {
          "Name": "advance/map.np.mapData.FromNeumannNodesToDirichletNodes",
          "State": 0,
          "Timestamp": 4702
        },
        {
          "Name": "advance/map.np.mapData.FromNeumannNodesToDirichletNodes",
          "State": 1,
          "Timestamp": 4702
        },
        {
          "Name": "advance/map.np.mapData.FromNeumannNodesToDirichletNodes",
          "State": 0,
          "Timestamp": 4702
        },
        {
          "Name": "advance/map.np.mapData.FromNeumannNodesToDirichletNodes",
          "State": 1,
          "Timestamp": 4892
        },
        {
          "Name": "advance/map.np.mapData.FromNeumannNodesToDirichletNodes",
          "State": 0,
          "Timestamp": 4892
        },
        {
          "Name": "advance/map.np.mapData.FromNeumannNodesToDirichletNodes",
          "State": 1,
          "Timestamp": 4892
        },
        {
          "Name": "advance/map.np.mapData.FromNeumannNodesToDirichletNodes",
          "State": 0,
          "Timestamp": 4892
        },
        {
          "Name": "advance/map.np.mapData.FromNeumannNodesToDirichletNodes",
          "State": 1,
          "Timestamp": 5078
        },
        {
          "Name": "advance/map.np.mapData.FromNeumannNodesToDirichletNodes",
          "State": 0,
          "Timestamp": 5078
        },
        {
          "Name": "advance/map.np.mapData.FromNeumannNodesToDirichletNodes",
          "State": 1,
          "Timestamp": 5078
        },
        {
          "Name": "advance/map.np.mapData.FromNeumannNodesToDirichletNodes",
          "State": 0,
          "Timestamp": 5078
        },
        {
          "Name": "advance/map.np.mapData.FromNeumannNodesToDirichletNodes",
          "State": 1,
          "Timestamp": 5263
        },
        {
          "Name": "advance/map.np.mapData.FromNeumannNodesToDirichletNodes",
          "State": 0,
          "Timestamp": 5263
        },
        {
          "Name": "advance/map.np.mapData.FromNeumannNodesToDirichletNodes",
          "State": 1,
          "Timestamp": 5263
        },
        {
          "Name": "advance/map.np.mapData.FromNeumannNodesToDirichletNodes",
          "State": 0,
          "Timestamp": 5263
        },
        {
          "Name": "advance/map.np.mapData.FromNeumannNodesToDirichletNodes",
          "State": 1,
          "Timestamp": 5449
        },
        {
          "Name": "advance/map.np.mapData.FromNeumannNodesToDirichletNodes",
          "State": 0,
          "Timestamp": 5449
        },
        {
          "Name": "advance/map.np.mapData.FromNeumannNodesToDirichletNodes",
          "State": 1,
          "Timestamp": 5449
        },
        {
          "Name": "advance/map.np.mapData.FromNeumannNodesToDirichletNodes",
          "State": 0,
          "Timestamp": 5449
        },
        {
          "Name": "advance/map.np.mapData.FromNeumannNodesToDirichletNodes",
          "State": 1,
          "Timestamp": 5637
        },
        {
          "Name": "advance/map.np.mapData.FromNeumannNodesToDirichletNodes",
          "State": 0,
          "Timestamp": 5637
        },
        {
          "Name": "advance/map.np.mapData.FromNeumannNodesToDirichletNodes",
          "State": 1,
          "Timestamp": 5637
        },
        {
          "Name": "advance/map.np.mapData.FromNeumannNodesToDirichletNodes",
          "State": 0,
          "Timestamp": 5637
        },
        {
          "Name": "advance/map.np.mapData.FromNeumannNodesToDirichletNodes",
          "State": 1,
          "Timestamp": 5824
        },
        {
          "Name": "advance/map.np.mapData.FromNeumannNodesToDirichletNodes",
          "State": 0,
          "Timestamp": 5824
        },
        {
          "Name": "advance/map.np.mapData.FromNeumannNodesToDirichletNodes",
          "State": 1,
          "Timestamp": 5824
        },
        {
          "Name": "advance/map.np.mapData.FromNeumannNodesToDirichletNodes",
          "State": 0,
          "Timestamp": 5824
        },
        {
          "Name": "advance/map.np.mapData.FromNeumannNodesToDirichletNodes",
          "State": 1,
          "Timestamp": 6010
        },
        {
          "Name": "advance/map.np.mapData.FromNeumannNodesToDirichletNodes",
          "State": 0,
          "Timestamp": 6010
        },
        {
          "Name": "advance/map.np.mapData.FromNeumannNodesToDirichletNodes",
          "State": 1,
          "Timestamp": 6010
        },
        {
          "Name": "advance/map.np.mapData.FromNeumannNodesToDirichletNodes",
          "State": 0,
          "Timestamp": 6010
        },
        {
          "Name": "advance/map.np.mapData.FromNeumannNodesToDirichletNodes",
          "State": 1,
          "Timestamp": 6196
        },
        {
          "Name": "advance/map.np.mapData.FromNeumannNodesToDirichletNodes",
          "State": 0,
          "Timestamp": 6196
        },
        {
          "Name": "advance/map.np.mapData.FromNeumannNodesToDirichletNodes",
          "State": 1,
          "Timestamp": 6196
        },
        {
          "Name": "advance/map.np.mapData.FromNeumannNodesToDirichletNodes",
          "State": 0,
          "Timestamp": 6196
        },
        {
          "Name": "advance/map.np.mapData.FromNeumannNodesToDirichletNodes",
          "State": 1,
          "Timestamp": 6382
        },
        {
          "Name": "advance/map.np.mapData.FromNeumannNodesToDirichletNodes",
          "State": 0,
          "Timestamp": 6382
        },
        {
          "Name": "advance/map.np.mapData.FromNeumannNodesToDirichletNodes",
          "State": 1,
          "Timestamp": 6382
        },
        {
          "Name": "advance/map.np.mapData.FromNeumannNodesToDirichletNodes",
          "State": 0,
          "Timestamp": 6382
        },
        {
          "Name": "advance/map.np.mapData.FromNeumannNodesToDirichletNodes",
          "State": 1,
          "Timestamp": 6568
        },
        {
          "Name": "advance/map.np.mapData.FromNeumannNodesToDirichletNodes",
          "State": 0,
          "Timestamp": 6568
        },
        {
          "Name": "advance/map.np.mapData.FromNeumannNodesToDirichletNodes",
          "State": 1,
          "Timestamp": 6568
        },
        {
          "Name": "advance/map.np.mapData.FromNeumannNodesToDirichletNodes",
          "State": 0,
          "Timestamp": 6568
        },
        {
          "Name": "advance/map.np.mapData.FromNeumannNodesToDirichletNodes",
          "State": 1,
          "Timestamp": 6756
        },
        {
          "Name": "advance/map.np.mapData.FromNeumannNodesToDirichletNodes",
          "State": 0,
          "Timestamp": 6756
        },
        {
          "Name": "advance/map.np.mapData.FromNeumannNodesToDirichletNodes",
          "State": 1,
          "Timestamp": 6756
        },
        {
          "Name": "advance/map.np.mapData.FromNeumannNodesToDirichletNodes",
          "State": 0,
          "Timestamp": 6756
        },
        {
          "Name": "advance/map.np.mapData.FromNeumannNodesToDirichletNodes",
          "State": 1,
          "Timestamp": 6943
        },
        {
          "Name": "advance/map.np.mapData.FromNeumannNodesToDirichletNodes",
          "State": 0,
          "Timestamp": 6943
        },
        {
          "Name": "advance/map.np.mapData.FromNeumannNodesToDirichletNodes",
          "State": 1,
          "Timestamp": 6943
        },
        {
          "Name": "advance/map.np.mapData.FromNeumannNodesToDirichletNodes",
          "State": 0,
          "Timestamp": 6943
        },
        {
          "Name": "advance/map.np.mapData.FromNeumannNodesToDirichletNodes",
          "State": 1,
          "Timestamp": 7130
        },
        {
          "Name": "advance/map.np.mapData.FromNeumannNodesToDirichletNodes",
          "State": 0,
          "Timestamp": 7130
        },
        {
          "Name": "advance/map.np.mapData.FromNeumannNodesToDirichletNodes",
          "State": 1,
          "Timestamp": 7130
        },
        {
          "Name": "advance/map.np.mapData.FromNeumannNodesToDirichletNodes",
          "State": 0,
          "Timestamp": 7130
        },
        {
          "Name": "advance/map.np.mapData.FromNeumannNodesToDirichletNodes",
          "State": 1,
          "Timestamp": 7318
        },
        {
          "Name": "advance/map.np.mapData.FromNeumannNodesToDirichletNodes",
          "State": 0,
          "Timestamp": 7318
        },
        {
          "Name": "advance/map.np.mapData.FromNeumannNodesToDirichletNodes",
          "State": 1,
          "Timestamp": 7318
        },
        {
          "Name": "advance/map.np.mapData.FromNeumannNodesToDirichletNodes",
          "State": 0,
          "Timestamp": 7318
        },
        {
          "Name": "configure",
          "State": 1,
          "Timestamp": 0
        },
        {
          "Name": "configure",
          "State": 0,
          "Timestamp": 0
        },
        {
          "Name": "finalize",
          "State": 1,
          "Timestamp": 7344
        },
        {
          "Name": "finalize",
          "State": 0,
          "Timestamp": 7346
        },
        {
          "Name": "initialize",
          "State": 1,
          "Timestamp": 4
        },
        {
          "Name": "initialize",
          "State": 0,
          "Timestamp": 58
        },
        {
          "Name": "initialize/m2n.requestMasterConnection",
          "State": 1,
          "Timestamp": 4
        },
        {
          "Name": "initialize/m2n.requestMasterConnection",
          "State": 0,
          "Timestamp": 14
        },
        {
          "Name": "initialize/m2n.requestSlavesConnection",
          "State": 1,
          "Timestamp": 58
        },
        {
          "Name": "initialize/m2n.requestSlavesConnection",
          "State": 0,
          "Timestamp": 58
        },
        {
          "Name": "initialize/partition.feedbackMesh.DirichletNodes",
          "State": 1,
          "Timestamp": 58
        },
        {
          "Name": "initialize/partition.feedbackMesh.DirichletNodes",
          "State": 0,
          "Timestamp": 58
        },
        {
          "Name": "initialize/partition.receiveGlobalMesh.NeumannNodes",
          "State": 1,
          "Timestamp": 14
        },
        {
          "Name": "initialize/partition.receiveGlobalMesh.NeumannNodes",
          "State": 0,
          "Timestamp": 58
        },
        {
          "Name": "initializeData",
          "State": 1,
          "Timestamp": 63
        },
        {
          "Name": "initializeData",
          "State": 0,
          "Timestamp": 63
        },
        {
          "Name": "initializeData/map.np.computeMapping.FromDirichletNodesToNeumannNodes",
          "State": 1,
          "Timestamp": 63
        },
        {
          "Name": "initializeData/map.np.computeMapping.FromDirichletNodesToNeumannNodes",
          "State": 0,
          "Timestamp": 63
        },
        {
          "Name": "initializeData/map.np.computeMapping.FromDirichletNodesToNeumannNodes.getIndexOnEdges",
          "State": 1,
          "Timestamp": 63
        },
        {
          "Name": "initializeData/map.np.computeMapping.FromDirichletNodesToNeumannNodes.getIndexOnEdges",
          "State": 0,
          "Timestamp": 63
        },
        {
          "Name": "initializeData/map.np.computeMapping.FromDirichletNodesToNeumannNodes.getIndexOnVertices",
          "State": 1,
          "Timestamp": 63
        },
        {
          "Name": "initializeData/map.np.computeMapping.FromDirichletNodesToNeumannNodes.getIndexOnVertices",
          "State": 0,
          "Timestamp": 63
        },
        {
          "Name": "initializeData/map.np.computeMapping.FromNeumannNodesToDirichletNodes",
          "State": 1,
          "Timestamp": 63
        },
        {
          "Name": "initializeData/map.np.computeMapping.FromNeumannNodesToDirichletNodes",
          "State": 0,
          "Timestamp": 63
        },
        {
          "Name": "initializeData/map.np.computeMapping.FromNeumannNodesToDirichletNodes.getIndexOnEdges",
          "State": 1,
          "Timestamp": 63
        },
        {
          "Name": "initializeData/map.np.computeMapping.FromNeumannNodesToDirichletNodes.getIndexOnEdges",
          "State": 0,
          "Timestamp": 63
        },
        {
          "Name": "initializeData/map.np.computeMapping.FromNeumannNodesToDirichletNodes.getIndexOnVertices",
          "State": 1,
          "Timestamp": 63
        },
        {
          "Name": "initializeData/map.np.computeMapping.FromNeumannNodesToDirichletNodes.getIndexOnVertices",
          "State": 0,
          "Timestamp": 63
        },
        {
          "Name": "initializeData/map.np.mapData.FromDirichletNodesToNeumannNodes",
          "State": 1,
          "Timestamp": 63
        },
        {
          "Name": "initializeData/map.np.mapData.FromDirichletNodesToNeumannNodes",
          "State": 0,
          "Timestamp": 63
        },
        {
          "Name": "initializeData/map.np.mapData.FromDirichletNodesToNeumannNodes",
          "State": 1,
          "Timestamp": 63
        },
        {
          "Name": "initializeData/map.np.mapData.FromDirichletNodesToNeumannNodes",
          "State": 0,
          "Timestamp": 63
        },
        {
          "Name": "initializeData/map.np.mapData.FromNeumannNodesToDirichletNodes",
          "State": 1,
          "Timestamp": 63
        },
        {
          "Name": "initializeData/map.np.mapData.FromNeumannNodesToDirichletNodes",
          "State": 0,
          "Timestamp": 63
        },
        {
          "Name": "initializeData/map.np.mapData.FromNeumannNodesToDirichletNodes",
          "State": 1,
          "Timestamp": 63
        },
        {
          "Name": "initializeData/map.np.mapData.FromNeumannNodesToDirichletNodes",
          "State": 0,
          "Timestamp": 63
        },
        {
          "Name": "solver.advance",
          "State": 1,
          "Timestamp": 363
        },
        {
          "Name": "solver.advance",
          "State": 0,
          "Timestamp": 445
        },
        {
          "Name": "solver.advance",
          "State": 1,
          "Timestamp": 581
        },
        {
          "Name": "solver.advance",
          "State": 0,
          "Timestamp": 647
        },
        {
          "Name": "solver.advance",
          "State": 1,
          "Timestamp": 768
        },
        {
          "Name": "solver.advance",
          "State": 0,
          "Timestamp": 834
        },
        {
          "Name": "solver.advance",
          "State": 1,
          "Timestamp": 954
        },
        {
          "Name": "solver.advance",
          "State": 0,
          "Timestamp": 1020
        },
        {
          "Name": "solver.advance",
          "State": 1,
          "Timestamp": 1140
        },
        {
          "Name": "solver.advance",
          "State": 0,
          "Timestamp": 1206
        },
        {
          "Name": "solver.advance",
          "State": 1,
          "Timestamp": 1326
        },
        {
          "Name": "solver.advance",
          "State": 0,
          "Timestamp": 1393
        },
        {
          "Name": "solver.advance",
          "State": 1,
          "Timestamp": 1512
        },
        {
          "Name": "solver.advance",
          "State": 0,
          "Timestamp": 1580
        },
        {
          "Name": "solver.advance",
          "State": 1,
          "Timestamp": 1700
        },
        {
          "Name": "solver.advance",
          "State": 0,
          "Timestamp": 1767
        },
        {
          "Name": "solver.advance",
          "State": 1,
          "Timestamp": 1887
        },
        {
          "Name": "solver.advance",
          "State": 0,
          "Timestamp": 1953
        },
        {
          "Name": "solver.advance",
          "State": 1,
          "Timestamp": 2073
        },
        {
          "Name": "solver.advance",
          "State": 0,
          "Timestamp": 2140
        },
        {
          "Name": "solver.advance",
          "State": 1,
          "Timestamp": 2260
        },
        {
          "Name": "solver.advance",
          "State": 0,
          "Timestamp": 2327
        },
        {
          "Name": "solver.advance",
          "State": 1,
          "Timestamp": 2447
        },
        {
          "Name": "solver.advance",
          "State": 0,
          "Timestamp": 2513
        },
        {
          "Name": "solver.advance",
          "State": 1,
          "Timestamp": 2634
        },
        {
          "Name": "solver.advance",
          "State": 0,
          "Timestamp": 2700
        },
        {
          "Name": "solver.advance",
          "State": 1,
          "Timestamp": 2820
        },
        {
          "Name": "solver.advance",
          "State": 0,
          "Timestamp": 2886
        },
        {
          "Name": "solver.advance",
          "State": 1,
          "Timestamp": 3006
        },
        {
          "Name": "solver.advance",
          "State": 0,
          "Timestamp": 3071
        },
        {
          "Name": "solver.advance",
          "State": 1,
          "Timestamp": 3191
        },
        {
          "Name": "solver.advance",
          "State": 0,
          "Timestamp": 3257
        },
        {
          "Name": "solver.advance",
          "State": 1,
          "Timestamp": 3376
        },
        {
          "Name": "solver.advance",
          "State": 0,
          "Timestamp": 3442
        },
        {
          "Name": "solver.advance",
          "State": 1,
          "Timestamp": 3562
        },
        {
          "Name": "solver.advance",
          "State": 0,
          "Timestamp": 3629
        },
        {
          "Name": "solver.advance",
          "State": 1,
          "Timestamp": 3749
        },
        {
          "Name": "solver.advance",
          "State": 0,
          "Timestamp": 3826
        },
        {
          "Name": "solver.advance",
          "State": 1,
          "Timestamp": 3956
        },
        {
          "Name": "solver.advance",
          "State": 0,
          "Timestamp": 4022
        },
        {
          "Name": "solver.advance",
          "State": 1,
          "Timestamp": 4142
        },
        {
          "Name": "solver.advance",
          "State": 0,
          "Timestamp": 4208
        },
        {
          "Name": "solver.advance",
          "State": 1,
          "Timestamp": 4329
        },
        {
          "Name": "solver.advance",
          "State": 0,
          "Timestamp": 4395
        },
        {
          "Name": "solver.advance",
          "State": 1,
          "Timestamp": 4515
        },
        {
          "Name": "solver.advance",
          "State": 0,
          "Timestamp": 4582
        },
        {
          "Name": "solver.advance",
          "State": 1,
          "Timestamp": 4703
        },
        {
          "Name": "solver.advance",
          "State": 0,
          "Timestamp": 4770
        },
        {
          "Name": "solver.advance",
          "State": 1,
          "Timestamp": 4892
        },
        {
          "Name": "solver.advance",
          "State": 0,
          "Timestamp": 4959
        },
        {
          "Name": "solver.advance",
          "State": 1,
          "Timestamp": 5078
        },
        {
          "Name": "solver.advance",
          "State": 0,
          "Timestamp": 5144
        },
        {
          "Name": "solver.advance",
          "State": 1,
          "Timestamp": 5263
        },
        {
          "Name": "solver.advance",
          "State": 0,
          "Timestamp": 5329
        },
        {
          "Name": "solver.advance",
          "State": 1,
          "Timestamp": 5449
        },
        {
          "Name": "solver.advance",
          "State": 0,
          "Timestamp": 5515
        },
        {
          "Name": "solver.advance",
          "State": 1,
          "Timestamp": 5637
        },
        {
          "Name": "solver.advance",
          "State": 0,
          "Timestamp": 5704
        },
        {
          "Name": "solver.advance",
          "State": 1,
          "Timestamp": 5824
        },
        {
          "Name": "solver.advance",
          "State": 0,
          "Timestamp": 5890
        },
        {
          "Name": "solver.advance",
          "State": 1,
          "Timestamp": 6010
        },
        {
          "Name": "solver.advance",
          "State": 0,
          "Timestamp": 6076
        },
        {
          "Name": "solver.advance",
          "State": 1,
          "Timestamp": 6196
        },
        {
          "Name": "solver.advance",
          "State": 0,
          "Timestamp": 6262
        },
        {
          "Name": "solver.advance",
          "State": 1,
          "Timestamp": 6382
        },
        {
          "Name": "solver.advance",
          "State": 0,
          "Timestamp": 6448
        },
        {
          "Name": "solver.advance",
          "State": 1,
          "Timestamp": 6568
        },
        {
          "Name": "solver.advance",
          "State": 0,
          "Timestamp": 6635
        },
        {
          "Name": "solver.advance",
          "State": 1,
          "Timestamp": 6756
        },
        {
          "Name": "solver.advance",
          "State": 0,
          "Timestamp": 6823
        },
        {
          "Name": "solver.advance",
          "State": 1,
          "Timestamp": 6943
        },
        {
          "Name": "solver.advance",
          "State": 0,
          "Timestamp": 7009
        },
        {
          "Name": "solver.advance",
          "State": 1,
          "Timestamp": 7130
        },
        {
          "Name": "solver.advance",
          "State": 0,
          "Timestamp": 7196
        },
        {
          "Name": "solver.advance",
          "State": 1,
          "Timestamp": 7318
        },
        {
          "Name": "solver.advance",
          "State": 0,
          "Timestamp": 7344
        },
        {
          "Name": "solver.initialize",
          "State": 1,
          "Timestamp": 0
        },
        {
          "Name": "solver.initialize",
          "State": 2,
          "Timestamp": 4
        },
        {
          "Name": "solver.initialize",
          "State": 1,
          "Timestamp": 58
        },
        {
          "Name": "solver.initialize",
          "State": 2,
          "Timestamp": 63
        },
        {
          "Name": "solver.initialize",
          "State": 1,
          "Timestamp": 63
        },
        {
          "Name": "solver.initialize",
          "State": 0,
          "Timestamp": 165
        }
      ],
      "Timings": {
        "_GLOBAL": {
          "Count": 1,
          "Data": {},
          "Max": 7346,
          "Min": 7346,
          "TimeRatio": 1.0,
          "Total": 7346
        },
        "advance": {
          "Count": 38,
          "Data": {},
          "Max": 198,
          "Min": 118,
          "TimeRatio": 0.6354478627824667,
          "Total": 4668
        },
        "advance/map.np.mapData.FromDirichletNodesToNeumannNodes": {
          "Count": 76,
          "Data": {},
          "Max": 0,
          "Min": 0,
          "TimeRatio": 0.0,
          "Total": 0
        },
        "advance/map.np.mapData.FromNeumannNodesToDirichletNodes": {
          "Count": 76,
          "Data": {},
          "Max": 0,
          "Min": 0,
          "TimeRatio": 0.0,
          "Total": 0
        },
        "configure": {
          "Count": 1,
          "Data": {},
          "Max": 0,
          "Min": 0,
          "TimeRatio": 0.0,
          "Total": 0
        },
        "finalize": {
          "Count": 1,
          "Data": {},
          "Max": 1,
          "Min": 1,
          "TimeRatio": 0.0001361285053090117,
          "Total": 1
        },
        "initialize": {
          "Count": 1,
          "Data": {},
          "Max": 54,
          "Min": 54,
          "TimeRatio": 0.007350939286686632,
          "Total": 54
        },
        "initialize/m2n.requestMasterConnection": {
          "Count": 1,
          "Data": {},
          "Max": 9,
          "Min": 9,
          "TimeRatio": 0.0012251565477811054,
          "Total": 9
        },
        "initialize/m2n.requestSlavesConnection": {
          "Count": 1,
          "Data": {},
          "Max": 0,
          "Min": 0,
          "TimeRatio": 0.0,
          "Total": 0
        },
        "initialize/partition.feedbackMesh.DirichletNodes": {
          "Count": 1,
          "Data": {},
          "Max": 0,
          "Min": 0,
          "TimeRatio": 0.0,
          "Total": 0
        },
        "initialize/partition.receiveGlobalMesh.NeumannNodes": {
          "Count": 1,
          "Data": {},
          "Max": 44,
          "Min": 44,
          "TimeRatio": 0.005989654233596515,
          "Total": 44
        },
        "initializeData": {
          "Count": 1,
          "Data": {},
          "Max": 0,
          "Min": 0,
          "TimeRatio": 0.0,
          "Total": 0
        },
        "initializeData/map.np.computeMapping.FromDirichletNodesToNeumannNodes": {
          "Count": 1,
          "Data": {},
          "Max": 0,
          "Min": 0,
          "TimeRatio": 0.0,
          "Total": 0
        },
        "initializeData/map.np.computeMapping.FromDirichletNodesToNeumannNodes.getIndexOnEdges": {
          "Count": 1,
          "Data": {},
          "Max": 0,
          "Min": 0,
          "TimeRatio": 0.0,
          "Total": 0
        },
        "initializeData/map.np.computeMapping.FromDirichletNodesToNeumannNodes.getIndexOnVertices": {
          "Count": 1,
          "Data": {},
          "Max": 0,
          "Min": 0,
          "TimeRatio": 0.0,
          "Total": 0
        },
        "initializeData/map.np.computeMapping.FromNeumannNodesToDirichletNodes": {
          "Count": 1,
          "Data": {},
          "Max": 0,
          "Min": 0,
          "TimeRatio": 0.0,
          "Total": 0
        },
        "initializeData/map.np.computeMapping.FromNeumannNodesToDirichletNodes.getIndexOnEdges": {
          "Count": 1,
          "Data": {},
          "Max": 0,
          "Min": 0,
          "TimeRatio": 0.0,
          "Total": 0
        },
        "initializeData/map.np.computeMapping.FromNeumannNodesToDirichletNodes.getIndexOnVertices": {
          "Count": 1,
          "Data": {},
          "Max": 0,
          "Min": 0,
          "TimeRatio": 0.0,
          "Total": 0
        },
        "initializeData/map.np.mapData.FromDirichletNodesToNeumannNodes": {
          "Count": 2,
          "Data": {},
          "Max": 0,
          "Min": 0,
          "TimeRatio": 0.0,
          "Total": 0
        },
        "initializeData/map.np.mapData.FromNeumannNodesToDirichletNodes": {
          "Count": 2,
          "Data": {},
          "Max": 0,
          "Min": 0,
          "TimeRatio": 0.0,
          "Total": 0
        },
        "solver.advance": {
          "Count": 38,
          "Data": {},
          "Max": 81,
          "Min": 26,
          "TimeRatio": 0.3416825483256194,
          "Total": 2510
        },
        "solver.initialize": {
          "Count": 1,
          "Data": {},
          "Max": 111,
          "Min": 111,
          "TimeRatio": 0.0151102640893003,
          "Total": 111
        }
      }
    }
  ]
}
