{
  "Finalized": "2019-11-13T14:05:48.163",
  "Initialized": "2019-11-13T14:05:34.789",
  "Name": "",
  "Ranks": [
    {
      "Finalized": "2019-11-13T14:05:48.163",
      "Initialized": "2019-11-13T14:05:34.789",
      "StateChanges": [
        {
          "Name": "_GLOBAL",
          "State": 1,
          "Timestamp": 0
        },
        {
          "Name": "_GLOBAL",
          "State": 0,
          "Timestamp": 13374
        },
        {
          "Name": "advance",
          "State": 1,
          "Timestamp": 310
        },
        {
          "Name": "advance",
          "State": 0,
          "Timestamp": 345
        },
        {
          "Name": "advance",
          "State": 1,
          "Timestamp": 482
        },
        {
          "Name": "advance",
          "State": 0,
          "Timestamp": 584
        },
        {
          "Name": "advance",
          "State": 1,
          "Timestamp": 704
        },
        {
          "Name": "advance",
          "State": 0,
          "Timestamp": 754
        },
        {
          "Name": "advance",
          "State": 1,
          "Timestamp": 878
        },
        {
          "Name": "advance",
          "State": 0,
          "Timestamp": 913
        },
        {
          "Name": "advance",
          "State": 1,
          "Timestamp": 1033
        },
        {
          "Name": "advance",
          "State": 0,
          "Timestamp": 1114
        },
        {
          "Name": "advance",
          "State": 1,
          "Timestamp": 1233
        },
        {
          "Name": "advance",
          "State": 0,
          "Timestamp": 1334
        },
        {
          "Name": "advance",
          "State": 1,
          "Timestamp": 1456
        },
        {
          "Name": "advance",
          "State": 0,
          "Timestamp": 1491
        },
        {
          "Name": "advance",
          "State": 1,
          "Timestamp": 1611
        },
        {
          "Name": "advance",
          "State": 0,
          "Timestamp": 1690
        },
        {
          "Name": "advance",
          "State": 1,
          "Timestamp": 1817
        },
        {
          "Name": "advance",
          "State": 0,
          "Timestamp": 1919
        },
        {
          "Name": "advance",
          "State": 1,
          "Timestamp": 2039
        },
        {
          "Name": "advance",
          "State": 0,
          "Timestamp": 2074
        },
        {
          "Name": "advance",
          "State": 1,
          "Timestamp": 2194
        },
        {
          "Name": "advance",
          "State": 0,
          "Timestamp": 2275
        },
        {
          "Name": "advance",
          "State": 1,
          "Timestamp": 2397
        },
        {
          "Name": "advance",
          "State": 0,
          "Timestamp": 2499
        },
        {
          "Name": "advance",
          "State": 1,
          "Timestamp": 2621
        },
        {
          "Name": "advance",
          "State": 0,
          "Timestamp": 2655
        },
        {
          "Name": "advance",
          "State": 1,
          "Timestamp": 2777
        },
        {
          "Name": "advance",
          "State": 0,
          "Timestamp": 2859
        },
        {
          "Name": "advance",
          "State": 1,
          "Timestamp": 2982
        },
        {
          "Name": "advance",
          "State": 0,
          "Timestamp": 3059
        },
        {
          "Name": "advance",
          "State": 1,
          "Timestamp": 3182
        },
        {
          "Name": "advance",
          "State": 0,
          "Timestamp": 3281
        },
        {
          "Name": "advance",
          "State": 1,
          "Timestamp": 3403
        },
        {
          "Name": "advance",
          "State": 0,
          "Timestamp": 3438
        },
        {
          "Name": "advance",
          "State": 1,
          "Timestamp": 3558
        },
        {
          "Name": "advance",
          "State": 0,
          "Timestamp": 3649
        },
        {
          "Name": "advance",
          "State": 1,
          "Timestamp": 3780
        },
        {
          "Name": "advance",
          "State": 0,
          "Timestamp": 3814
        },
        {
          "Name": "advance",
          "State": 1,
          "Timestamp": 3934
        },
        {
          "Name": "advance",
          "State": 0,
          "Timestamp": 4014
        },
        {
          "Name": "advance",
          "State": 1,
          "Timestamp": 4134
        },
        {
          "Name": "advance",
          "State": 0,
          "Timestamp": 4234
        },
        {
          "Name": "advance",
          "State": 1,
          "Timestamp": 4358
        },
        {
          "Name": "advance",
          "State": 0,
          "Timestamp": 4392
        },
        {
          "Name": "advance",
          "State": 1,
          "Timestamp": 4516
        },
        {
          "Name": "advance",
          "State": 0,
          "Timestamp": 4620
        },
        {
          "Name": "advance",
          "State": 1,
          "Timestamp": 4739
        },
        {
          "Name": "advance",
          "State": 0,
          "Timestamp": 4773
        },
        {
          "Name": "advance",
          "State": 1,
          "Timestamp": 4893
        },
        {
          "Name": "advance",
          "State": 0,
          "Timestamp": 4974
        },
        {
          "Name": "advance",
          "State": 1,
          "Timestamp": 5095
        },
        {
          "Name": "advance",
          "State": 0,
          "Timestamp": 5180
        },
        {
          "Name": "advance",
          "State": 1,
          "Timestamp": 5301
        },
        {
          "Name": "advance",
          "State": 0,
          "Timestamp": 5336
        },
        {
          "Name": "advance",
          "State": 1,
          "Timestamp": 5456
        },
        {
          "Name": "advance",
          "State": 0,
          "Timestamp": 5540
        },
        {
          "Name": "advance",
          "State": 1,
          "Timestamp": 5661
        },
        {
          "Name": "advance",
          "State": 0,
          "Timestamp": 5696
        },
        {
          "Name": "advance",
          "State": 1,
          "Timestamp": 5816
        },
        {
          "Name": "advance",
          "State": 0,
          "Timestamp": 5919
        },
        {
          "Name": "advance",
          "State": 1,
          "Timestamp": 6039
        },
        {
          "Name": "advance",
          "State": 0,
          "Timestamp": 6073
        },
        {
          "Name": "advance",
          "State": 1,
          "Timestamp": 6194
        },
        {
          "Name": "advance",
          "State": 0,
          "Timestamp": 6274
        },
        {
          "Name": "advance",
          "State": 1,
          "Timestamp": 6397
        },
        {
          "Name": "advance",
          "State": 0,
          "Timestamp": 6499
        },
        {
          "Name": "advance",
          "State": 1,
          "Timestamp": 6619
        },
        {
          "Name": "advance",
          "State": 0,
          "Timestamp": 6654
        },
        {
          "Name": "advance",
          "State": 1,
          "Timestamp": 6773
        },
        {
          "Name": "advance",
          "State": 0,
          "Timestamp": 6867
        },
        {
          "Name": "advance",
          "State": 1,
          "Timestamp": 7002
        },
        {
          "Name": "advance",
          "State": 0,
          "Timestamp": 7037
        },
        {
          "Name": "advance",
          "State": 1,
          "Timestamp": 7159
        },
        {
          "Name": "advance",
          "State": 0,
          "Timestamp": 7238
        },
        {
          "Name": "advance",
          "State": 1,
          "Timestamp": 7361
        },
        {
          "Name": "advance",
          "State": 0,
          "Timestamp": 7464
        },
        {
          "Name": "advance",
          "State": 1,
          "Timestamp": 7585
        },
        {
          "Name": "advance",
          "State": 0,
          "Timestamp": 7619
        },
        {
          "Name": "advance",
          "State": 1,
          "Timestamp": 7741
        },
        {
          "Name": "advance",
          "State": 0,
          "Timestamp": 7825
        },
        {
          "Name": "advance",
          "State": 1,
          "Timestamp": 7946
        },
        {
          "Name": "advance",
          "State": 0,
          "Timestamp": 7980
        },
        {
          "Name": "advance",
          "State": 1,
          "Timestamp": 8105
        },
        {
          "Name": "advance",
          "State": 0,
          "Timestamp": 8189
        },
        {
          "Name": "advance",
          "State": 1,
          "Timestamp": 8311
        },
        {
          "Name": "advance",
          "State": 0,
          "Timestamp": 8346
        },
        {
          "Name": "advance",
          "State": 1,
          "Timestamp": 8469
        },
        {
          "Name": "advance",
          "State": 0,
          "Timestamp": 8550
        },
        {
          "Name": "advance",
          "State": 1,
          "Timestamp": 8671
        },
        {
          "Name": "advance",
          "State": 0,
          "Timestamp": 8770
        },
        {
          "Name": "advance",
          "State": 1,
          "Timestamp": 8891
        },
        {
          "Name": "advance",
          "State": 0,
          "Timestamp": 8926
        },
        {
          "Name": "advance",
          "State": 1,
          "Timestamp": 9045
        },
        {
          "Name": "advance",
          "State": 0,
          "Timestamp": 9125
        },
        {
          "Name": "advance",
          "State": 1,
          "Timestamp": 9246
        },
        {
          "Name": "advance",
          "State": 0,
          "Timestamp": 9345
        },
        {
          "Name": "advance",
          "State": 1,
          "Timestamp": 9468
        },
        {
          "Name": "advance",
          "State": 0,
          "Timestamp": 9515
        },
        {
          "Name": "advance",
          "State": 1,
          "Timestamp": 9648
        },
        {
          "Name": "advance",
          "State": 0,
          "Timestamp": 9683
        },
        {
          "Name": "advance",
          "State": 1,
          "Timestamp": 9805
        },
        {
          "Name": "advance",
          "State": 0,
          "Timestamp": 9886
        },
        {
          "Name": "advance",
          "State": 1,
          "Timestamp": 10006
        },
        {
          "Name": "advance",
          "State": 0,
          "Timestamp": 10096
        },
        {
          "Name": "advance",
          "State": 1,
          "Timestamp": 10228
        },
        {
          "Name": "advance",
          "State": 0,
          "Timestamp": 10263
        },
        {
          "Name": "advance",
          "State": 1,
          "Timestamp": 10384
        },
        {
          "Name": "advance",
          "State": 0,
          "Timestamp": 10469
        },
        {
          "Name": "advance",
          "State": 1,
          "Timestamp": 10590
        },
        {
          "Name": "advance",
          "State": 0,
          "Timestamp": 10635
        },
        {
          "Name": "advance",
          "State": 1,
          "Timestamp": 10768
        },
        {
          "Name": "advance",
          "State": 0,
          "Timestamp": 10802
        },
        {
          "Name": "advance",
          "State": 1,
          "Timestamp": 10925
        },
        {
          "Name": "advance",
          "State": 0,
          "Timestamp": 11009
        },
        {
          "Name": "advance",
          "State": 1,
          "Timestamp": 11130
        },
        {
          "Name": "advance",
          "State": 0,
          "Timestamp": 11175
        },
        {
          "Name": "advance",
          "State": 1,
          "Timestamp": 11309
        },
        {
          "Name": "advance",
          "State": 0,
          "Timestamp": 11344
        },
        {
          "Name": "advance",
          "State": 1,
          "Timestamp": 11465
        },
        {
          "Name": "advance",
          "State": 0,
          "Timestamp": 11546
        },
        {
          "Name": "advance",
          "State": 1,
          "Timestamp": 11667
        },
        {
          "Name": "advance",
          "State": 0,
          "Timestamp": 11755
        },
        {
          "Name": "advance",
          "State": 1,
          "Timestamp": 11888
        },
        {
          "Name": "advance",
          "State": 0,
          "Timestamp": 11923
        },
        {
          "Name": "advance",
          "State": 1,
          "Timestamp": 12046
        },
        {
          "Name": "advance",
          "State": 0,
          "Timestamp": 12145
        },
        {
          "Name": "advance",
          "State": 1,
          "Timestamp": 12267
        },
        {
          "Name": "advance",
          "State": 0,
          "Timestamp": 12313
        },
        {
          "Name": "advance",
          "State": 1,
          "Timestamp": 12445
        },
        {
          "Name": "advance",
          "State": 0,
          "Timestamp": 12480
        },
        {
          "Name": "advance",
          "State": 1,
          "Timestamp": 12601
        },
        {
          "Name": "advance",
          "State": 0,
          "Timestamp": 12684
        },
        {
          "Name": "advance",
          "State": 1,
          "Timestamp": 12806
        },
        {
          "Name": "advance",
          "State": 0,
          "Timestamp": 12852
        },
        {
          "Name": "advance",
          "State": 1,
          "Timestamp": 12985
        },
        {
          "Name": "advance",
          "State": 0,
          "Timestamp": 13020
        },
        {
          "Name": "advance",
          "State": 1,
          "Timestamp": 13141
        },
        {
          "Name": "advance",
          "State": 0,
          "Timestamp": 13224
        },
        {
          "Name": "advance",
          "State": 1,
          "Timestamp": 13347
        },
        {
          "Name": "advance",
          "State": 0,
          "Timestamp": 13347
        },
        {
          "Name": "advance/cpl.computeQuasiNewtonUpdate",
          "State": 1,
          "Timestamp": 310
        },
        {
          "Name": "advance/cpl.computeQuasiNewtonUpdate",
          "State": 0,
          "Timestamp": 310
        },
        {
          "Name": "advance/cpl.computeQuasiNewtonUpdate",
          "State": 1,
          "Timestamp": 482
        },
        {
          "Name": "advance/cpl.computeQuasiNewtonUpdate",
          "State": 0,
          "Timestamp": 482
        },
        {
          "Name": "advance/cpl.computeQuasiNewtonUpdate",
          "State": 1,
          "Timestamp": 704
        },
        {
          "Name": "advance/cpl.computeQuasiNewtonUpdate",
          "State": 0,
          "Timestamp": 704
        },
        {
          "Name": "advance/cpl.computeQuasiNewtonUpdate",
          "State": 1,
          "Timestamp": 878
        },
        {
          "Name": "advance/cpl.computeQuasiNewtonUpdate",
          "State": 0,
          "Timestamp": 878
        },
        {
          "Name": "advance/cpl.computeQuasiNewtonUpdate",
          "State": 1,
          "Timestamp": 1033
        },
        {
          "Name": "advance/cpl.computeQuasiNewtonUpdate",
          "State": 0,
          "Timestamp": 1033
        },
        {
          "Name": "advance/cpl.computeQuasiNewtonUpdate",
          "State": 1,
          "Timestamp": 1233
        },
        {
          "Name": "advance/cpl.computeQuasiNewtonUpdate",
          "State": 0,
          "Timestamp": 1233
        },
        {
          "Name": "advance/cpl.computeQuasiNewtonUpdate",
          "State": 1,
          "Timestamp": 1456
        },
        {
          "Name": "advance/cpl.computeQuasiNewtonUpdate",
          "State": 0,
          "Timestamp": 1456
        },
        {
          "Name": "advance/cpl.computeQuasiNewtonUpdate",
          "State": 1,
          "Timestamp": 1611
        },
        {
          "Name": "advance/cpl.computeQuasiNewtonUpdate",
          "State": 0,
          "Timestamp": 1611
        },
        {
          "Name": "advance/cpl.computeQuasiNewtonUpdate",
          "State": 1,
          "Timestamp": 1817
        },
        {
          "Name": "advance/cpl.computeQuasiNewtonUpdate",
          "State": 0,
          "Timestamp": 1817
        },
        {
          "Name": "advance/cpl.computeQuasiNewtonUpdate",
          "State": 1,
          "Timestamp": 2039
        },
        {
          "Name": "advance/cpl.computeQuasiNewtonUpdate",
          "State": 0,
          "Timestamp": 2039
        },
        {
          "Name": "advance/cpl.computeQuasiNewtonUpdate",
          "State": 1,
          "Timestamp": 2194
        },
        {
          "Name": "advance/cpl.computeQuasiNewtonUpdate",
          "State": 0,
          "Timestamp": 2194
        },
        {
          "Name": "advance/cpl.computeQuasiNewtonUpdate",
          "State": 1,
          "Timestamp": 2397
        },
        {
          "Name": "advance/cpl.computeQuasiNewtonUpdate",
          "State": 0,
          "Timestamp": 2397
        },
        {
          "Name": "advance/cpl.computeQuasiNewtonUpdate",
          "State": 1,
          "Timestamp": 2621
        },
        {
          "Name": "advance/cpl.computeQuasiNewtonUpdate",
          "State": 0,
          "Timestamp": 2621
        },
        {
          "Name": "advance/cpl.computeQuasiNewtonUpdate",
          "State": 1,
          "Timestamp": 2777
        },
        {
          "Name": "advance/cpl.computeQuasiNewtonUpdate",
          "State": 0,
          "Timestamp": 2777
        },
        {
          "Name": "advance/cpl.computeQuasiNewtonUpdate",
          "State": 1,
          "Timestamp": 2982
        },
        {
          "Name": "advance/cpl.computeQuasiNewtonUpdate",
          "State": 0,
          "Timestamp": 2982
        },
        {
          "Name": "advance/cpl.computeQuasiNewtonUpdate",
          "State": 1,
          "Timestamp": 3182
        },
        {
          "Name": "advance/cpl.computeQuasiNewtonUpdate",
          "State": 0,
          "Timestamp": 3182
        },
        {
          "Name": "advance/cpl.computeQuasiNewtonUpdate",
          "State": 1,
          "Timestamp": 3403
        },
        {
          "Name": "advance/cpl.computeQuasiNewtonUpdate",
          "State": 0,
          "Timestamp": 3403
        },
        {
          "Name": "advance/cpl.computeQuasiNewtonUpdate",
          "State": 1,
          "Timestamp": 3780
        },
        {
          "Name": "advance/cpl.computeQuasiNewtonUpdate",
          "State": 0,
          "Timestamp": 3780
        },
        {
          "Name": "advance/cpl.computeQuasiNewtonUpdate",
          "State": 1,
          "Timestamp": 3934
        },
        {
          "Name": "advance/cpl.computeQuasiNewtonUpdate",
          "State": 0,
          "Timestamp": 3934
        },
        {
          "Name": "advance/cpl.computeQuasiNewtonUpdate",
          "State": 1,
          "Timestamp": 4134
        },
        {
          "Name": "advance/cpl.computeQuasiNewtonUpdate",
          "State": 0,
          "Timestamp": 4134
        },
        {
          "Name": "advance/cpl.computeQuasiNewtonUpdate",
          "State": 1,
          "Timestamp": 4358
        },
        {
          "Name": "advance/cpl.computeQuasiNewtonUpdate",
          "State": 0,
          "Timestamp": 4358
        },
        {
          "Name": "advance/cpl.computeQuasiNewtonUpdate",
          "State": 1,
          "Timestamp": 4517
        },
        {
          "Name": "advance/cpl.computeQuasiNewtonUpdate",
          "State": 0,
          "Timestamp": 4517
        },
        {
          "Name": "advance/cpl.computeQuasiNewtonUpdate",
          "State": 1,
          "Timestamp": 4739
        },
        {
          "Name": "advance/cpl.computeQuasiNewtonUpdate",
          "State": 0,
          "Timestamp": 4739
        },
        {
          "Name": "advance/cpl.computeQuasiNewtonUpdate",
          "State": 1,
          "Timestamp": 4893
        },
        {
          "Name": "advance/cpl.computeQuasiNewtonUpdate",
          "State": 0,
          "Timestamp": 4893
        },
        {
          "Name": "advance/cpl.computeQuasiNewtonUpdate",
          "State": 1,
          "Timestamp": 5096
        },
        {
          "Name": "advance/cpl.computeQuasiNewtonUpdate",
          "State": 0,
          "Timestamp": 5096
        },
        {
          "Name": "advance/cpl.computeQuasiNewtonUpdate",
          "State": 1,
          "Timestamp": 5301
        },
        {
          "Name": "advance/cpl.computeQuasiNewtonUpdate",
          "State": 0,
          "Timestamp": 5301
        },
        {
          "Name": "advance/cpl.computeQuasiNewtonUpdate",
          "State": 1,
          "Timestamp": 5456
        },
        {
          "Name": "advance/cpl.computeQuasiNewtonUpdate",
          "State": 0,
          "Timestamp": 5456
        },
        {
          "Name": "advance/cpl.computeQuasiNewtonUpdate",
          "State": 1,
          "Timestamp": 5661
        },
        {
          "Name": "advance/cpl.computeQuasiNewtonUpdate",
          "State": 0,
          "Timestamp": 5661
        },
        {
          "Name": "advance/cpl.computeQuasiNewtonUpdate",
          "State": 1,
          "Timestamp": 5816
        },
        {
          "Name": "advance/cpl.computeQuasiNewtonUpdate",
          "State": 0,
          "Timestamp": 5816
        },
        {
          "Name": "advance/cpl.computeQuasiNewtonUpdate",
          "State": 1,
          "Timestamp": 6039
        },
        {
          "Name": "advance/cpl.computeQuasiNewtonUpdate",
          "State": 0,
          "Timestamp": 6039
        },
        {
          "Name": "advance/cpl.computeQuasiNewtonUpdate",
          "State": 1,
          "Timestamp": 6194
        },
        {
          "Name": "advance/cpl.computeQuasiNewtonUpdate",
          "State": 0,
          "Timestamp": 6194
        },
        {
          "Name": "advance/cpl.computeQuasiNewtonUpdate",
          "State": 1,
          "Timestamp": 6397
        },
        {
          "Name": "advance/cpl.computeQuasiNewtonUpdate",
          "State": 0,
          "Timestamp": 6397
        },
        {
          "Name": "advance/cpl.computeQuasiNewtonUpdate",
          "State": 1,
          "Timestamp": 6619
        },
        {
          "Name": "advance/cpl.computeQuasiNewtonUpdate",
          "State": 0,
          "Timestamp": 6619
        },
        {
          "Name": "advance/cpl.computeQuasiNewtonUpdate",
          "State": 1,
          "Timestamp": 7002
        },
        {
          "Name": "advance/cpl.computeQuasiNewtonUpdate",
          "State": 0,
          "Timestamp": 7002
        },
        {
          "Name": "advance/cpl.computeQuasiNewtonUpdate",
          "State": 1,
          "Timestamp": 7160
        },
        {
          "Name": "advance/cpl.computeQuasiNewtonUpdate",
          "State": 0,
          "Timestamp": 7160
        },
        {
          "Name": "advance/cpl.computeQuasiNewtonUpdate",
          "State": 1,
          "Timestamp": 7361
        },
        {
          "Name": "advance/cpl.computeQuasiNewtonUpdate",
          "State": 0,
          "Timestamp": 7361
        },
        {
          "Name": "advance/cpl.computeQuasiNewtonUpdate",
          "State": 1,
          "Timestamp": 7585
        },
        {
          "Name": "advance/cpl.computeQuasiNewtonUpdate",
          "State": 0,
          "Timestamp": 7585
        },
        {
          "Name": "advance/cpl.computeQuasiNewtonUpdate",
          "State": 1,
          "Timestamp": 7741
        },
        {
          "Name": "advance/cpl.computeQuasiNewtonUpdate",
          "State": 0,
          "Timestamp": 7741
        },
        {
          "Name": "advance/cpl.computeQuasiNewtonUpdate",
          "State": 1,
          "Timestamp": 7946
        },
        {
          "Name": "advance/cpl.computeQuasiNewtonUpdate",
          "State": 0,
          "Timestamp": 7946
        },
        {
          "Name": "advance/cpl.computeQuasiNewtonUpdate",
          "State": 1,
          "Timestamp": 8105
        },
        {
          "Name": "advance/cpl.computeQuasiNewtonUpdate",
          "State": 0,
          "Timestamp": 8105
        },
        {
          "Name": "advance/cpl.computeQuasiNewtonUpdate",
          "State": 1,
          "Timestamp": 8311
        },
        {
          "Name": "advance/cpl.computeQuasiNewtonUpdate",
          "State": 0,
          "Timestamp": 8311
        },
        {
          "Name": "advance/cpl.computeQuasiNewtonUpdate",
          "State": 1,
          "Timestamp": 8469
        },
        {
          "Name": "advance/cpl.computeQuasiNewtonUpdate",
          "State": 0,
          "Timestamp": 8469
        },
        {
          "Name": "advance/cpl.computeQuasiNewtonUpdate",
          "State": 1,
          "Timestamp": 8672
        },
        {
          "Name": "advance/cpl.computeQuasiNewtonUpdate",
          "State": 0,
          "Timestamp": 8672
        },
        {
          "Name": "advance/cpl.computeQuasiNewtonUpdate",
          "State": 1,
          "Timestamp": 8891
        },
        {
          "Name": "advance/cpl.computeQuasiNewtonUpdate",
          "State": 0,
          "Timestamp": 8891
        },
        {
          "Name": "advance/cpl.computeQuasiNewtonUpdate",
          "State": 1,
          "Timestamp": 9046
        },
        {
          "Name": "advance/cpl.computeQuasiNewtonUpdate",
          "State": 0,
          "Timestamp": 9046
        },
        {
          "Name": "advance/cpl.computeQuasiNewtonUpdate",
          "State": 1,
          "Timestamp": 9246
        },
        {
          "Name": "advance/cpl.computeQuasiNewtonUpdate",
          "State": 0,
          "Timestamp": 9246
        },
        {
          "Name": "advance/cpl.computeQuasiNewtonUpdate",
          "State": 1,
          "Timestamp": 9648
        },
        {
          "Name": "advance/cpl.computeQuasiNewtonUpdate",
          "State": 0,
          "Timestamp": 9648
        },
        {
          "Name": "advance/cpl.computeQuasiNewtonUpdate",
          "State": 1,
          "Timestamp": 9805
        },
        {
          "Name": "advance/cpl.computeQuasiNewtonUpdate",
          "State": 0,
          "Timestamp": 9805
        },
        {
          "Name": "advance/cpl.computeQuasiNewtonUpdate",
          "State": 1,
          "Timestamp": 10228
        },
        {
          "Name": "advance/cpl.computeQuasiNewtonUpdate",
          "State": 0,
          "Timestamp": 10228
        },
        {
          "Name": "advance/cpl.computeQuasiNewtonUpdate",
          "State": 1,
          "Timestamp": 10384
        },
        {
          "Name": "advance/cpl.computeQuasiNewtonUpdate",
          "State": 0,
          "Timestamp": 10384
        },
        {
          "Name": "advance/cpl.computeQuasiNewtonUpdate",
          "State": 1,
          "Timestamp": 10768
        },
        {
          "Name": "advance/cpl.computeQuasiNewtonUpdate",
          "State": 0,
          "Timestamp": 10768
        },
        {
          "Name": "advance/cpl.computeQuasiNewtonUpdate",
          "State": 1,
          "Timestamp": 10925
        },
        {
          "Name": "advance/cpl.computeQuasiNewtonUpdate",
          "State": 0,
          "Timestamp": 10925
        },
        {
          "Name": "advance/cpl.computeQuasiNewtonUpdate",
          "State": 1,
          "Timestamp": 11309
        },
        {
          "Name": "advance/cpl.computeQuasiNewtonUpdate",
          "State": 0,
          "Timestamp": 11309
        },
        {
          "Name": "advance/cpl.computeQuasiNewtonUpdate",
          "State": 1,
          "Timestamp": 11465
        },
        {
          "Name": "advance/cpl.computeQuasiNewtonUpdate",
          "State": 0,
          "Timestamp": 11465
        },
        {
          "Name": "advance/cpl.computeQuasiNewtonUpdate",
          "State": 1,
          "Timestamp": 11888
        },
        {
          "Name": "advance/cpl.computeQuasiNewtonUpdate",
          "State": 0,
          "Timestamp": 11888
        },
        {
          "Name": "advance/cpl.computeQuasiNewtonUpdate",
          "State": 1,
          "Timestamp": 12046
        },
        {
          "Name": "advance/cpl.computeQuasiNewtonUpdate",
          "State": 0,
          "Timestamp": 12046
        },
        {
          "Name": "advance/cpl.computeQuasiNewtonUpdate",
          "State": 1,
          "Timestamp": 12446
        },
        {
          "Name": "advance/cpl.computeQuasiNewtonUpdate",
          "State": 0,
          "Timestamp": 12446
        },
        {
          "Name": "advance/cpl.computeQuasiNewtonUpdate",
          "State": 1,
          "Timestamp": 12601
        },
        {
          "Name": "advance/cpl.computeQuasiNewtonUpdate",
          "State": 0,
          "Timestamp": 12601
        },
        {
          "Name": "advance/cpl.computeQuasiNewtonUpdate",
          "State": 1,
          "Timestamp": 12985
        },
        {
          "Name": "advance/cpl.computeQuasiNewtonUpdate",
          "State": 0,
          "Timestamp": 12985
        },
        {
          "Name": "advance/cpl.computeQuasiNewtonUpdate",
          "State": 1,
          "Timestamp": 13141
        },
        {
          "Name": "advance/cpl.computeQuasiNewtonUpdate",
          "State": 0,
          "Timestamp": 13141
        },
        {
          "Name": "configure",
          "State": 1,
          "Timestamp": 0
        },
        {
          "Name": "configure",
          "State": 0,
          "Timestamp": 0
        },
        {
          "Name": "finalize",
          "State": 1,
          "Timestamp": 13372
        },
        {
          "Name": "finalize",
          "State": 0,
          "Timestamp": 13374
        },
        {
          "Name": "initialize",
          "State": 1,
          "Timestamp": 4
        },
        {
          "Name": "initialize",
          "State": 0,
          "Timestamp": 6
        },
        {
          "Name": "initialize/m2n.acceptMasterConnection",
          "State": 1,
          "Timestamp": 4
        },
        {
          "Name": "initialize/m2n.acceptMasterConnection",
          "State": 0,
          "Timestamp": 6
        },
        {
          "Name": "initialize/m2n.acceptSlavesConnection",
          "State": 1,
          "Timestamp": 6
        },
        {
          "Name": "initialize/m2n.acceptSlavesConnection",
          "State": 0,
          "Timestamp": 6
        },
        {
          "Name": "initialize/partition.feedbackMesh.NeumannNodes",
          "State": 1,
          "Timestamp": 6
        },
        {
          "Name": "initialize/partition.feedbackMesh.NeumannNodes",
          "State": 0,
          "Timestamp": 6
        },
        {
          "Name": "initialize/partition.gatherMesh.NeumannNodes",
          "State": 1,
          "Timestamp": 6
        },
        {
          "Name": "initialize/partition.gatherMesh.NeumannNodes",
          "State": 0,
          "Timestamp": 6
        },
        {
          "Name": "initialize/partition.sendGlobalMesh.NeumannNodes",
          "State": 1,
          "Timestamp": 6
        },
        {
          "Name": "initialize/partition.sendGlobalMesh.NeumannNodes",
          "State": 0,
          "Timestamp": 6
        },
        {
          "Name": "initializeData",
          "State": 1,
          "Timestamp": 13
        },
        {
          "Name": "initializeData",
          "State": 0,
          "Timestamp": 151
        },
        {
          "Name": "solver.advance",
          "State": 1,
          "Timestamp": 345
        },
        {
          "Name": "solver.advance",
          "State": 0,
          "Timestamp": 482
        },
        {
          "Name": "solver.advance",
          "State": 1,
          "Timestamp": 584
        },
        {
          "Name": "solver.advance",
          "State": 0,
          "Timestamp": 704
        },
        {
          "Name": "solver.advance",
          "State": 1,
          "Timestamp": 754
        },
        {
          "Name": "solver.advance",
          "State": 0,
          "Timestamp": 878
        },
        {
          "Name": "solver.advance",
          "State": 1,
          "Timestamp": 913
        },
        {
          "Name": "solver.advance",
          "State": 0,
          "Timestamp": 1033
        },
        {
          "Name": "solver.advance",
          "State": 1,
          "Timestamp": 1114
        },
        {
          "Name": "solver.advance",
          "State": 0,
          "Timestamp": 1233
        },
        {
          "Name": "solver.advance",
          "State": 1,
          "Timestamp": 1334
        },
        {
          "Name": "solver.advance",
          "State": 0,
          "Timestamp": 1456
        },
        {
          "Name": "solver.advance",
          "State": 1,
          "Timestamp": 1491
        },
        {
          "Name": "solver.advance",
          "State": 0,
          "Timestamp": 1611
        },
        {
          "Name": "solver.advance",
          "State": 1,
          "Timestamp": 1690
        },
        {
          "Name": "solver.advance",
          "State": 0,
          "Timestamp": 1817
        },
        {
          "Name": "solver.advance",
          "State": 1,
          "Timestamp": 1919
        },
        {
          "Name": "solver.advance",
          "State": 0,
          "Timestamp": 2039
        },
        {
          "Name": "solver.advance",
          "State": 1,
          "Timestamp": 2074
        },
        {
          "Name": "solver.advance",
          "State": 0,
          "Timestamp": 2194
        },
        {
          "Name": "solver.advance",
          "State": 1,
          "Timestamp": 2275
        },
        {
          "Name": "solver.advance",
          "State": 0,
          "Timestamp": 2397
        },
        {
          "Name": "solver.advance",
          "State": 1,
          "Timestamp": 2499
        },
        {
          "Name": "solver.advance",
          "State": 0,
          "Timestamp": 2621
        },
        {
          "Name": "solver.advance",
          "State": 1,
          "Timestamp": 2655
        },
        {
          "Name": "solver.advance",
          "State": 0,
          "Timestamp": 2777
        },
        {
          "Name": "solver.advance",
          "State": 1,
          "Timestamp": 2859
        },
        {
          "Name": "solver.advance",
          "State": 0,
          "Timestamp": 2982
        },
        {
          "Name": "solver.advance",
          "State": 1,
          "Timestamp": 3059
        },
        {
          "Name": "solver.advance",
          "State": 0,
          "Timestamp": 3182
        },
        {
          "Name": "solver.advance",
          "State": 1,
          "Timestamp": 3281
        },
        {
          "Name": "solver.advance",
          "State": 0,
          "Timestamp": 3403
        },
        {
          "Name": "solver.advance",
          "State": 1,
          "Timestamp": 3438
        },
        {
          "Name": "solver.advance",
          "State": 0,
          "Timestamp": 3558
        },
        {
          "Name": "solver.advance",
          "State": 1,
          "Timestamp": 3649
        },
        {
          "Name": "solver.advance",
          "State": 0,
          "Timestamp": 3780
        },
        {
          "Name": "solver.advance",
          "State": 1,
          "Timestamp": 3814
        },
        {
          "Name": "solver.advance",
          "State": 0,
          "Timestamp": 3934
        },
        {
          "Name": "solver.advance",
          "State": 1,
          "Timestamp": 4014
        },
        {
          "Name": "solver.advance",
          "State": 0,
          "Timestamp": 4134
        },
        {
          "Name": "solver.advance",
          "State": 1,
          "Timestamp": 4234
        },
        {
          "Name": "solver.advance",
          "State": 0,
          "Timestamp": 4358
        },
        {
          "Name": "solver.advance",
          "State": 1,
          "Timestamp": 4392
        },
        {
          "Name": "solver.advance",
          "State": 0,
          "Timestamp": 4516
        },
        {
          "Name": "solver.advance",
          "State": 1,
          "Timestamp": 4620
        },
        {
          "Name": "solver.advance",
          "State": 0,
          "Timestamp": 4739
        },
        {
          "Name": "solver.advance",
          "State": 1,
          "Timestamp": 4773
        },
        {
          "Name": "solver.advance",
          "State": 0,
          "Timestamp": 4893
        },
        {
          "Name": "solver.advance",
          "State": 1,
          "Timestamp": 4974
        },
        {
          "Name": "solver.advance",
          "State": 0,
          "Timestamp": 5095
        },
        {
          "Name": "solver.advance",
          "State": 1,
          "Timestamp": 5180
        },
        {
          "Name": "solver.advance",
          "State": 0,
          "Timestamp": 5301
        },
        {
          "Name": "solver.advance",
          "State": 1,
          "Timestamp": 5336
        },
        {
          "Name": "solver.advance",
          "State": 0,
          "Timestamp": 5456
        },
        {
          "Name": "solver.advance",
          "State": 1,
          "Timestamp": 5540
        },
        {
          "Name": "solver.advance",
          "State": 0,
          "Timestamp": 5661
        },
        {
          "Name": "solver.advance",
          "State": 1,
          "Timestamp": 5696
        },
        {
          "Name": "solver.advance",
          "State": 0,
          "Timestamp": 5816
        },
        {
          "Name": "solver.advance",
          "State": 1,
          "Timestamp": 5919
        },
        {
          "Name": "solver.advance",
          "State": 0,
          "Timestamp": 6039
        },
        {
          "Name": "solver.advance",
          "State": 1,
          "Timestamp": 6073
        },
        {
          "Name": "solver.advance",
          "State": 0,
          "Timestamp": 6194
        },
        {
          "Name": "solver.advance",
          "State": 1,
          "Timestamp": 6274
        },
        {
          "Name": "solver.advance",
          "State": 0,
          "Timestamp": 6397
        },
        {
          "Name": "solver.advance",
          "State": 1,
          "Timestamp": 6499
        },
        {
          "Name": "solver.advance",
          "State": 0,
          "Timestamp": 6619
        },
        {
          "Name": "solver.advance",
          "State": 1,
          "Timestamp": 6654
        },
        {
          "Name": "solver.advance",
          "State": 0,
          "Timestamp": 6773
        },
        {
          "Name": "solver.advance",
          "State": 1,
          "Timestamp": 6867
        },
        {
          "Name": "solver.advance",
          "State": 0,
          "Timestamp": 7002
        },
        {
          "Name": "solver.advance",
          "State": 1,
          "Timestamp": 7037
        },
        {
          "Name": "solver.advance",
          "State": 0,
          "Timestamp": 7159
        },
        {
          "Name": "solver.advance",
          "State": 1,
          "Timestamp": 7238
        },
        {
          "Name": "solver.advance",
          "State": 0,
          "Timestamp": 7361
        },
        {
          "Name": "solver.advance",
          "State": 1,
          "Timestamp": 7464
        },
        {
          "Name": "solver.advance",
          "State": 0,
          "Timestamp": 7585
        },
        {
          "Name": "solver.advance",
          "State": 1,
          "Timestamp": 7619
        },
        {
          "Name": "solver.advance",
          "State": 0,
          "Timestamp": 7741
        },
        {
          "Name": "solver.advance",
          "State": 1,
          "Timestamp": 7825
        },
        {
          "Name": "solver.advance",
          "State": 0,
          "Timestamp": 7946
        },
        {
          "Name": "solver.advance",
          "State": 1,
          "Timestamp": 7980
        },
        {
          "Name": "solver.advance",
          "State": 0,
          "Timestamp": 8105
        },
        {
          "Name": "solver.advance",
          "State": 1,
          "Timestamp": 8189
        },
        {
          "Name": "solver.advance",
          "State": 0,
          "Timestamp": 8311
        },
        {
          "Name": "solver.advance",
          "State": 1,
          "Timestamp": 8346
        },
        {
          "Name": "solver.advance",
          "State": 0,
          "Timestamp": 8469
        },
        {
          "Name": "solver.advance",
          "State": 1,
          "Timestamp": 8550
        },
        {
          "Name": "solver.advance",
          "State": 0,
          "Timestamp": 8671
        },
        {
          "Name": "solver.advance",
          "State": 1,
          "Timestamp": 8770
        },
        {
          "Name": "solver.advance",
          "State": 0,
          "Timestamp": 8891
        },
        {
          "Name": "solver.advance",
          "State": 1,
          "Timestamp": 8926
        },
        {
          "Name": "solver.advance",
          "State": 0,
          "Timestamp": 9045
        },
        {
          "Name": "solver.advance",
          "State": 1,
          "Timestamp": 9125
        },
        {
          "Name": "solver.advance",
          "State": 0,
          "Timestamp": 9246
        },
        {
          "Name": "solver.advance",
          "State": 1,
          "Timestamp": 9345
        },
        {
          "Name": "solver.advance",
          "State": 0,
          "Timestamp": 9468
        },
        {
          "Name": "solver.advance",
          "State": 1,
          "Timestamp": 9515
        },
        {
          "Name": "solver.advance",
          "State": 0,
          "Timestamp": 9648
        },
        {
          "Name": "solver.advance",
          "State": 1,
          "Timestamp": 9683
        },
        {
          "Name": "solver.advance",
          "State": 0,
          "Timestamp": 9805
        },
        {
          "Name": "solver.advance",
          "State": 1,
          "Timestamp": 9886
        },
        {
          "Name": "solver.advance",
          "State": 0,
          "Timestamp": 10006
        },
        {
          "Name": "solver.advance",
          "State": 1,
          "Timestamp": 10096
        },
        {
          "Name": "solver.advance",
          "State": 0,
          "Timestamp": 10228
        },
        {
          "Name": "solver.advance",
          "State": 1,
          "Timestamp": 10263
        },
        {
          "Name": "solver.advance",
          "State": 0,
          "Timestamp": 10384
        },
        {
          "Name": "solver.advance",
          "State": 1,
          "Timestamp": 10469
        },
        {
          "Name": "solver.advance",
          "State": 0,
          "Timestamp": 10590
        },
        {
          "Name": "solver.advance",
          "State": 1,
          "Timestamp": 10635
        },
        {
          "Name": "solver.advance",
          "State": 0,
          "Timestamp": 10768
        },
        {
          "Name": "solver.advance",
          "State": 1,
          "Timestamp": 10802
        },
        {
          "Name": "solver.advance",
          "State": 0,
          "Timestamp": 10925
        },
        {
          "Name": "solver.advance",
          "State": 1,
          "Timestamp": 11009
        },
        {
          "Name": "solver.advance",
          "State": 0,
          "Timestamp": 11130
        },
        {
          "Name": "solver.advance",
          "State": 1,
          "Timestamp": 11175
        },
        {
          "Name": "solver.advance",
          "State": 0,
          "Timestamp": 11309
        },
        {
          "Name": "solver.advance",
          "State": 1,
          "Timestamp": 11344
        },
        {
          "Name": "solver.advance",
          "State": 0,
          "Timestamp": 11465
        },
        {
          "Name": "solver.advance",
          "State": 1,
          "Timestamp": 11546
        },
        {
          "Name": "solver.advance",
          "State": 0,
          "Timestamp": 11667
        },
        {
          "Name": "solver.advance",
          "State": 1,
          "Timestamp": 11755
        },
        {
          "Name": "solver.advance",
          "State": 0,
          "Timestamp": 11888
        },
        {
          "Name": "solver.advance",
          "State": 1,
          "Timestamp": 11923
        },
        {
          "Name": "solver.advance",
          "State": 0,
          "Timestamp": 12046
        },
        {
          "Name": "solver.advance",
          "State": 1,
          "Timestamp": 12145
        },
        {
          "Name": "solver.advance",
          "State": 0,
          "Timestamp": 12267
        },
        {
          "Name": "solver.advance",
          "State": 1,
          "Timestamp": 12313
        },
        {
          "Name": "solver.advance",
          "State": 0,
          "Timestamp": 12445
        },
        {
          "Name": "solver.advance",
          "State": 1,
          "Timestamp": 12480
        },
        {
          "Name": "solver.advance",
          "State": 0,
          "Timestamp": 12601
        },
        {
          "Name": "solver.advance",
          "State": 1,
          "Timestamp": 12684
        },
        {
          "Name": "solver.advance",
          "State": 0,
          "Timestamp": 12806
        },
        {
          "Name": "solver.advance",
          "State": 1,
          "Timestamp": 12852
        },
        {
          "Name": "solver.advance",
          "State": 0,
          "Timestamp": 12985
        },
        {
          "Name": "solver.advance",
          "State": 1,
          "Timestamp": 13020
        },
        {
          "Name": "solver.advance",
          "State": 0,
          "Timestamp": 13141
        },
        {
          "Name": "solver.advance",
          "State": 1,
          "Timestamp": 13224
        },
        {
          "Name": "solver.advance",
          "State": 0,
          "Timestamp": 13347
        },
        {
          "Name": "solver.advance",
          "State": 1,
          "Timestamp": 13347
        },
        {
          "Name": "solver.advance",
          "State": 0,
          "Timestamp": 13372
        },
        {
          "Name": "solver.initialize",
          "State": 1,
          "Timestamp": 0
        },
        {
          "Name": "solver.initialize",
          "State": 2,
          "Timestamp": 4
        },
        {
          "Name": "solver.initialize",
          "State": 1,
          "Timestamp": 6
        },
        {
          "Name": "solver.initialize",
          "State": 2,
          "Timestamp": 13
        },
        {
          "Name": "solver.initialize",
          "State": 1,
          "Timestamp": 151
        },
        {
          "Name": "solver.initialize",
          "State": 0,
          "Timestamp": 310
        }
      ],
      "Timings": {
        "_GLOBAL": {
          "Count": 1,
          "Data": {},
          "Max": 13374,
          "Min": 13374,
          "TimeRatio": 1.0,
          "Total": 13374
        },
        "advance": {
          "Count": 70,
          "Data": {},
          "Max": 103,
          "Min": 0,
          "TimeRatio": 0.3392403170330492,
          "Total": 4537
        },
        "advance/cpl.computeQuasiNewtonUpdate": {
          "Count": 60,
          "Data": {},
          "Max": 0,
          "Min": 0,
          "TimeRatio": 7.477194556602363e-05,
          "Total": 1
        },
        "configure": {
          "Count": 1,
          "Data": {},
          "Max": 0,
          "Min": 0,
          "TimeRatio": 0.0,
          "Total": 0
        },
        "finalize": {
          "Count": 1,
          "Data": {},
          "Max": 2,
          "Min": 2,
          "TimeRatio": 0.00014954389113204725,
          "Total": 2
        },
        "initialize": {
          "Count": 1,
          "Data": {},
          "Max": 2,
          "Min": 2,
          "TimeRatio": 0.00014954389113204725,
          "Total": 2
        },
        "initialize/m2n.acceptMasterConnection": {
          "Count": 1,
          "Data": {},
          "Max": 2,
          "Min": 2,
          "TimeRatio": 0.00014954389113204725,
          "Total": 2
        },
        "initialize/m2n.acceptSlavesConnection": {
          "Count": 1,
          "Data": {},
          "Max": 0,
          "Min": 0,
          "TimeRatio": 0.0,
          "Total": 0
        },
        "initialize/partition.feedbackMesh.NeumannNodes": {
          "Count": 1,
          "Data": {},
          "Max": 0,
          "Min": 0,
          "TimeRatio": 0.0,
          "Total": 0
        },
        "initialize/partition.gatherMesh.NeumannNodes": {
          "Count": 1,
          "Data": {},
          "Max": 0,
          "Min": 0,
          "TimeRatio": 0.0,
          "Total": 0
        },
        "initialize/partition.sendGlobalMesh.NeumannNodes": {
          "Count": 1,
          "Data": {},
          "Max": 0,
          "Min": 0,
          "TimeRatio": 0.0,
          "Total": 0
        },
        "initializeData": {
          "Count": 1,
          "Data": {},
          "Max": 137,
          "Min": 137,
          "TimeRatio": 0.010243756542545238,
          "Total": 137
        },
        "solver.advance": {
          "Count": 70,
          "Data": {},
          "Max": 136,
          "Min": 25,
          "TimeRatio": 0.6373560640047854,
          "Total": 8524
        },
        "solver.initialize": {
          "Count": 1,
          "Data": {},
          "Max": 169,
          "Min": 169,
          "TimeRatio": 0.012636458800657993,
          "Total": 169
        }
      }
    }
  ]
}
