Timesteps  Total_Iterations  Iterations  Convergence  avgConvRate(0)  avgConvRate(1)  avgConvRate(2)  avgConvRate(3)  deleted_Columns  
1  11  11  1  0.1783550305597206  0.1813326651048809  0.1849323562239607  0.3068565978732804  0  
2  21  10  1  0.1385069286071502  0.1553251289159698  0.1628628053889063  0.2593383690821212  1  
3  30  9  1  0.1303360919810664  0.1309309142933890  0.1303406138278638  0.2679802577027868  0  
4  40  10  1  0.1327450881891824  0.1398052299765531  0.1456839872614385  0.2649085008852610  0  
5  48  8  1  0.0951788238922984  0.1086140467326811  0.1172004509100556  0.2275546605437630  0  