# vtk DataFile Version 2.0

ASCII

DATASET UNSTRUCTURED_GRID

POINTS 106 float 

-5.0000000000000003e-02  0.0000000000000000e+00  0.0000000000000000e+00
5.0000000000000003e-02  0.0000000000000000e+00  0.0000000000000000e+00
-5.0000000000000003e-02  2.0000000000000000e-02  0.0000000000000000e+00
5.0000000000000003e-02  2.0000000000000000e-02  0.0000000000000000e+00
-5.0000000000000003e-02  4.0000000000000001e-02  0.0000000000000000e+00
5.0000000000000003e-02  4.0000000000000001e-02  0.0000000000000000e+00
-5.0000000000000003e-02  5.9999999999999998e-02  0.0000000000000000e+00
5.0000000000000003e-02  5.9999999999999998e-02  0.0000000000000000e+00
-5.0000000000000003e-02  8.0000000000000002e-02  0.0000000000000000e+00
5.0000000000000003e-02  8.0000000000000002e-02  0.0000000000000000e+00
-5.0000000000000003e-02  1.0000000000000001e-01  0.0000000000000000e+00
5.0000000000000003e-02  1.0000000000000001e-01  0.0000000000000000e+00
-5.0000000000000003e-02  1.2000000000000000e-01  0.0000000000000000e+00
5.0000000000000003e-02  1.2000000000000000e-01  0.0000000000000000e+00
-5.0000000000000003e-02  1.4000000000000001e-01  0.0000000000000000e+00
5.0000000000000003e-02  1.4000000000000001e-01  0.0000000000000000e+00
-5.0000000000000003e-02  1.6000000000000000e-01  0.0000000000000000e+00
5.0000000000000003e-02  1.6000000000000000e-01  0.0000000000000000e+00
-5.0000000000000003e-02  1.7999999999999999e-01  0.0000000000000000e+00
5.0000000000000003e-02  1.7999999999999999e-01  0.0000000000000000e+00
-5.0000000000000003e-02  2.0000000000000001e-01  0.0000000000000000e+00
5.0000000000000003e-02  2.0000000000000001e-01  0.0000000000000000e+00
-5.0000000000000003e-02  2.2000000000000000e-01  0.0000000000000000e+00
5.0000000000000003e-02  2.2000000000000000e-01  0.0000000000000000e+00
-5.0000000000000003e-02  2.3999999999999999e-01  0.0000000000000000e+00
5.0000000000000003e-02  2.3999999999999999e-01  0.0000000000000000e+00
-5.0000000000000003e-02  2.6000000000000001e-01  0.0000000000000000e+00
5.0000000000000003e-02  2.6000000000000001e-01  0.0000000000000000e+00
-5.0000000000000003e-02  2.8000000000000003e-01  0.0000000000000000e+00
5.0000000000000003e-02  2.8000000000000003e-01  0.0000000000000000e+00
-5.0000000000000003e-02  2.9999999999999999e-01  0.0000000000000000e+00
5.0000000000000003e-02  2.9999999999999999e-01  0.0000000000000000e+00
-5.0000000000000003e-02  3.2000000000000001e-01  0.0000000000000000e+00
5.0000000000000003e-02  3.2000000000000001e-01  0.0000000000000000e+00
-5.0000000000000003e-02  3.4000000000000002e-01  0.0000000000000000e+00
5.0000000000000003e-02  3.4000000000000002e-01  0.0000000000000000e+00
-5.0000000000000003e-02  3.5999999999999999e-01  0.0000000000000000e+00
5.0000000000000003e-02  3.5999999999999999e-01  0.0000000000000000e+00
-5.0000000000000003e-02  3.8000000000000000e-01  0.0000000000000000e+00
5.0000000000000003e-02  3.8000000000000000e-01  0.0000000000000000e+00
-5.0000000000000003e-02  4.0000000000000002e-01  0.0000000000000000e+00
5.0000000000000003e-02  4.0000000000000002e-01  0.0000000000000000e+00
-5.0000000000000003e-02  4.1999999999999998e-01  0.0000000000000000e+00
5.0000000000000003e-02  4.1999999999999998e-01  0.0000000000000000e+00
-5.0000000000000003e-02  4.4000000000000000e-01  0.0000000000000000e+00
5.0000000000000003e-02  4.4000000000000000e-01  0.0000000000000000e+00
-5.0000000000000003e-02  4.6000000000000002e-01  0.0000000000000000e+00
5.0000000000000003e-02  4.6000000000000002e-01  0.0000000000000000e+00
-5.0000000000000003e-02  4.7999999999999998e-01  0.0000000000000000e+00
5.0000000000000003e-02  4.7999999999999998e-01  0.0000000000000000e+00
-5.0000000000000003e-02  5.0000000000000000e-01  0.0000000000000000e+00
5.0000000000000003e-02  5.0000000000000000e-01  0.0000000000000000e+00
-5.0000000000000003e-02  5.2000000000000002e-01  0.0000000000000000e+00
5.0000000000000003e-02  5.2000000000000002e-01  0.0000000000000000e+00
-5.0000000000000003e-02  5.4000000000000004e-01  0.0000000000000000e+00
5.0000000000000003e-02  5.4000000000000004e-01  0.0000000000000000e+00
-5.0000000000000003e-02  5.6000000000000005e-01  0.0000000000000000e+00
5.0000000000000003e-02  5.6000000000000005e-01  0.0000000000000000e+00
-5.0000000000000003e-02  5.7999999999999996e-01  0.0000000000000000e+00
5.0000000000000003e-02  5.7999999999999996e-01  0.0000000000000000e+00
-5.0000000000000003e-02  5.9999999999999998e-01  0.0000000000000000e+00
5.0000000000000003e-02  5.9999999999999998e-01  0.0000000000000000e+00
-5.0000000000000003e-02  6.2000000000000000e-01  0.0000000000000000e+00
5.0000000000000003e-02  6.2000000000000000e-01  0.0000000000000000e+00
-5.0000000000000003e-02  6.4000000000000001e-01  0.0000000000000000e+00
5.0000000000000003e-02  6.4000000000000001e-01  0.0000000000000000e+00
-5.0000000000000003e-02  6.6000000000000003e-01  0.0000000000000000e+00
5.0000000000000003e-02  6.6000000000000003e-01  0.0000000000000000e+00
-5.0000000000000003e-02  6.8000000000000005e-01  0.0000000000000000e+00
5.0000000000000003e-02  6.8000000000000005e-01  0.0000000000000000e+00
-5.0000000000000003e-02  6.9999999999999996e-01  0.0000000000000000e+00
5.0000000000000003e-02  6.9999999999999996e-01  0.0000000000000000e+00
-5.0000000000000003e-02  7.1999999999999997e-01  0.0000000000000000e+00
5.0000000000000003e-02  7.1999999999999997e-01  0.0000000000000000e+00
-5.0000000000000003e-02  7.3999999999999999e-01  0.0000000000000000e+00
5.0000000000000003e-02  7.3999999999999999e-01  0.0000000000000000e+00
-5.0000000000000003e-02  7.6000000000000001e-01  0.0000000000000000e+00
5.0000000000000003e-02  7.6000000000000001e-01  0.0000000000000000e+00
-5.0000000000000003e-02  7.8000000000000003e-01  0.0000000000000000e+00
5.0000000000000003e-02  7.8000000000000003e-01  0.0000000000000000e+00
-5.0000000000000003e-02  8.0000000000000004e-01  0.0000000000000000e+00
5.0000000000000003e-02  8.0000000000000004e-01  0.0000000000000000e+00
-5.0000000000000003e-02  8.1999999999999995e-01  0.0000000000000000e+00
5.0000000000000003e-02  8.1999999999999995e-01  0.0000000000000000e+00
-5.0000000000000003e-02  8.3999999999999997e-01  0.0000000000000000e+00
5.0000000000000003e-02  8.3999999999999997e-01  0.0000000000000000e+00
-5.0000000000000003e-02  8.5999999999999999e-01  0.0000000000000000e+00
5.0000000000000003e-02  8.5999999999999999e-01  0.0000000000000000e+00
-5.0000000000000003e-02  8.8000000000000000e-01  0.0000000000000000e+00
5.0000000000000003e-02  8.8000000000000000e-01  0.0000000000000000e+00
-5.0000000000000003e-02  9.0000000000000002e-01  0.0000000000000000e+00
5.0000000000000003e-02  9.0000000000000002e-01  0.0000000000000000e+00
-5.0000000000000003e-02  9.2000000000000004e-01  0.0000000000000000e+00
5.0000000000000003e-02  9.2000000000000004e-01  0.0000000000000000e+00
-5.0000000000000003e-02  9.3999999999999995e-01  0.0000000000000000e+00
5.0000000000000003e-02  9.3999999999999995e-01  0.0000000000000000e+00
-5.0000000000000003e-02  9.5999999999999996e-01  0.0000000000000000e+00
5.0000000000000003e-02  9.5999999999999996e-01  0.0000000000000000e+00
-5.0000000000000003e-02  9.7999999999999998e-01  0.0000000000000000e+00
5.0000000000000003e-02  9.7999999999999998e-01  0.0000000000000000e+00
-5.0000000000000003e-02  1.0000000000000000e+00  0.0000000000000000e+00
-3.0000000000000002e-02  1.0000000000000000e+00  0.0000000000000000e+00
-1.0000000000000002e-02  1.0000000000000000e+00  0.0000000000000000e+00
1.0000000000000009e-02  1.0000000000000000e+00  0.0000000000000000e+00
2.9999999999999999e-02  1.0000000000000000e+00  0.0000000000000000e+00
5.0000000000000003e-02  1.0000000000000000e+00  0.0000000000000000e+00

CELLS 0 0


CELL_TYPES 0


POINT_DATA 106

VECTORS VertexNormals float

0.0000000000000000e+00 0.0000000000000000e+00 0
0.0000000000000000e+00 0.0000000000000000e+00 0
0.0000000000000000e+00 0.0000000000000000e+00 0
0.0000000000000000e+00 0.0000000000000000e+00 0
0.0000000000000000e+00 0.0000000000000000e+00 0
0.0000000000000000e+00 0.0000000000000000e+00 0
0.0000000000000000e+00 0.0000000000000000e+00 0
0.0000000000000000e+00 0.0000000000000000e+00 0
0.0000000000000000e+00 0.0000000000000000e+00 0
0.0000000000000000e+00 0.0000000000000000e+00 0
0.0000000000000000e+00 0.0000000000000000e+00 0
0.0000000000000000e+00 0.0000000000000000e+00 0
0.0000000000000000e+00 0.0000000000000000e+00 0
0.0000000000000000e+00 0.0000000000000000e+00 0
0.0000000000000000e+00 0.0000000000000000e+00 0
0.0000000000000000e+00 0.0000000000000000e+00 0
0.0000000000000000e+00 0.0000000000000000e+00 0
0.0000000000000000e+00 0.0000000000000000e+00 0
0.0000000000000000e+00 0.0000000000000000e+00 0
0.0000000000000000e+00 0.0000000000000000e+00 0
0.0000000000000000e+00 0.0000000000000000e+00 0
0.0000000000000000e+00 0.0000000000000000e+00 0
0.0000000000000000e+00 0.0000000000000000e+00 0
0.0000000000000000e+00 0.0000000000000000e+00 0
0.0000000000000000e+00 0.0000000000000000e+00 0
0.0000000000000000e+00 0.0000000000000000e+00 0
0.0000000000000000e+00 0.0000000000000000e+00 0
0.0000000000000000e+00 0.0000000000000000e+00 0
0.0000000000000000e+00 0.0000000000000000e+00 0
0.0000000000000000e+00 0.0000000000000000e+00 0
0.0000000000000000e+00 0.0000000000000000e+00 0
0.0000000000000000e+00 0.0000000000000000e+00 0
0.0000000000000000e+00 0.0000000000000000e+00 0
0.0000000000000000e+00 0.0000000000000000e+00 0
0.0000000000000000e+00 0.0000000000000000e+00 0
0.0000000000000000e+00 0.0000000000000000e+00 0
0.0000000000000000e+00 0.0000000000000000e+00 0
0.0000000000000000e+00 0.0000000000000000e+00 0
0.0000000000000000e+00 0.0000000000000000e+00 0
0.0000000000000000e+00 0.0000000000000000e+00 0
0.0000000000000000e+00 0.0000000000000000e+00 0
0.0000000000000000e+00 0.0000000000000000e+00 0
0.0000000000000000e+00 0.0000000000000000e+00 0
0.0000000000000000e+00 0.0000000000000000e+00 0
0.0000000000000000e+00 0.0000000000000000e+00 0
0.0000000000000000e+00 0.0000000000000000e+00 0
0.0000000000000000e+00 0.0000000000000000e+00 0
0.0000000000000000e+00 0.0000000000000000e+00 0
0.0000000000000000e+00 0.0000000000000000e+00 0
0.0000000000000000e+00 0.0000000000000000e+00 0
0.0000000000000000e+00 0.0000000000000000e+00 0
0.0000000000000000e+00 0.0000000000000000e+00 0
0.0000000000000000e+00 0.0000000000000000e+00 0
0.0000000000000000e+00 0.0000000000000000e+00 0
0.0000000000000000e+00 0.0000000000000000e+00 0
0.0000000000000000e+00 0.0000000000000000e+00 0
0.0000000000000000e+00 0.0000000000000000e+00 0
0.0000000000000000e+00 0.0000000000000000e+00 0
0.0000000000000000e+00 0.0000000000000000e+00 0
0.0000000000000000e+00 0.0000000000000000e+00 0
0.0000000000000000e+00 0.0000000000000000e+00 0
0.0000000000000000e+00 0.0000000000000000e+00 0
0.0000000000000000e+00 0.0000000000000000e+00 0
0.0000000000000000e+00 0.0000000000000000e+00 0
0.0000000000000000e+00 0.0000000000000000e+00 0
0.0000000000000000e+00 0.0000000000000000e+00 0
0.0000000000000000e+00 0.0000000000000000e+00 0
0.0000000000000000e+00 0.0000000000000000e+00 0
0.0000000000000000e+00 0.0000000000000000e+00 0
0.0000000000000000e+00 0.0000000000000000e+00 0
0.0000000000000000e+00 0.0000000000000000e+00 0
0.0000000000000000e+00 0.0000000000000000e+00 0
0.0000000000000000e+00 0.0000000000000000e+00 0
0.0000000000000000e+00 0.0000000000000000e+00 0
0.0000000000000000e+00 0.0000000000000000e+00 0
0.0000000000000000e+00 0.0000000000000000e+00 0
0.0000000000000000e+00 0.0000000000000000e+00 0
0.0000000000000000e+00 0.0000000000000000e+00 0
0.0000000000000000e+00 0.0000000000000000e+00 0
0.0000000000000000e+00 0.0000000000000000e+00 0
0.0000000000000000e+00 0.0000000000000000e+00 0
0.0000000000000000e+00 0.0000000000000000e+00 0
0.0000000000000000e+00 0.0000000000000000e+00 0
0.0000000000000000e+00 0.0000000000000000e+00 0
0.0000000000000000e+00 0.0000000000000000e+00 0
0.0000000000000000e+00 0.0000000000000000e+00 0
0.0000000000000000e+00 0.0000000000000000e+00 0
0.0000000000000000e+00 0.0000000000000000e+00 0
0.0000000000000000e+00 0.0000000000000000e+00 0
0.0000000000000000e+00 0.0000000000000000e+00 0
0.0000000000000000e+00 0.0000000000000000e+00 0
0.0000000000000000e+00 0.0000000000000000e+00 0
0.0000000000000000e+00 0.0000000000000000e+00 0
0.0000000000000000e+00 0.0000000000000000e+00 0
0.0000000000000000e+00 0.0000000000000000e+00 0
0.0000000000000000e+00 0.0000000000000000e+00 0
0.0000000000000000e+00 0.0000000000000000e+00 0
0.0000000000000000e+00 0.0000000000000000e+00 0
0.0000000000000000e+00 0.0000000000000000e+00 0
0.0000000000000000e+00 0.0000000000000000e+00 0
0.0000000000000000e+00 0.0000000000000000e+00 0
0.0000000000000000e+00 0.0000000000000000e+00 0
0.0000000000000000e+00 0.0000000000000000e+00 0
0.0000000000000000e+00 0.0000000000000000e+00 0
0.0000000000000000e+00 0.0000000000000000e+00 0
0.0000000000000000e+00 0.0000000000000000e+00 0

VECTORS Displacements1 float
-5.7563430529372226e-17 3.2159754422247760e-17 0
-1.3924409057638204e-22 5.3430835512623432e-23 0
1.8606874462846069e-06 8.1347099275520488e-07 0
1.7921159077258941e-06 -7.6548773486736268e-07 0
3.1663478611554635e-06 1.1431804060277945e-06 0
3.0529853584193303e-06 -1.0782623158599302e-06 0
3.9831859972583766e-06 1.1905821695321958e-06 0
3.8931842115720529e-06 -1.1155167457169526e-06 0
4.5111866712503488e-06 1.0700874509395776e-06 0
4.4606231038318717e-06 -9.9959051671278567e-07 0
6.2022669306558127e-06 7.9614521885919984e-07 0
5.9261821338962231e-06 -5.6889465941734803e-07 0
5.2364826436026423e-06 3.6116868575915269e-07 0
5.1695650270976526e-06 -2.7818344739167987e-07 0
5.5053671230307076e-06 2.7176710014541493e-07 0
5.3972665572225864e-06 -1.0204618328958189e-07 0
5.4764840095669792e-06 1.9002890172247564e-07 0
5.3687614858739831e-06 5.8363427689686520e-09 0
5.2358024327947992e-06 2.2026456922776816e-07 0
5.1743685290510317e-06 -2.8608280655631311e-08 0
6.4608279824448932e-06 2.1500138790815959e-07 0
6.1880260731616231e-06 1.6500146252641599e-07 0
5.2907758680140543e-06 5.6056579764759755e-08 0
5.2223560417265809e-06 1.6971926506226015e-07 0
5.5446384403944403e-06 1.7208478224839831e-07 0
5.4423457417128242e-06 1.5301127623711289e-07 0
5.5704136424462494e-06 2.0243631625098863e-07 0
5.4684926640825068e-06 1.5529873704971024e-07 0
5.3687962075433001e-06 2.7893728877767529e-07 0
5.3146086629425243e-06 7.5978994551462044e-08 0
6.6057388959877178e-06 2.9787503717044808e-07 0
6.3769136915382324e-06 2.8297918416770841e-07 0
5.4326040578499417e-06 1.5379767417381338e-07 0
5.3657767434757881e-06 2.5144417051099816e-07 0
5.6960098637922325e-06 2.8380242213113551e-07 0
5.6090682216973699e-06 2.3115807840784409e-07 0
5.7323879403014356e-06 3.2227102212802711e-07 0
5.6474249049806059e-06 2.3103081631527659e-07 0
5.5416931182431972e-06 4.0492580381680275e-07 0
5.4996924160558056e-06 1.4247318325074476e-07 0
6.8005638721632622e-06 4.3799155573728696e-07 0
6.6537063369752166e-06 3.8536665500021743e-07 0
5.6405008339013900e-06 2.9046707902747809e-07 0
5.5790187432889316e-06 3.3453876313656108e-07 0
5.9224022034810358e-06 4.2941918022490729e-07 0
5.8610652667212965e-06 3.1729158192816057e-07 0
5.9757171450418452e-06 4.7565351263368126e-07 0
5.9178721988444993e-06 3.1806116429994450e-07 0
5.7997876981062103e-06 5.6711905832627416e-07 0
5.7750652310690465e-06 2.1844726277433811e-07 0
7.0859975719663030e-06 6.2860978033580104e-07 0
7.0619054783596195e-06 5.0112415719574235e-07 0
5.9427679980347024e-06 4.7357121459322284e-07 0
5.8892004805455048e-06 4.3256467894130896e-07 0
6.2446321600105168e-06 6.2925662217560215e-07 0
6.2197891276693087e-06 4.1618381470732336e-07 0
6.3187967118636212e-06 6.8940262865513427e-07 0
6.2987691549019828e-06 4.1666546078209509e-07 0
6.1634551313514072e-06 7.9390927152092261e-07 0
6.1603550528650438e-06 3.0186573654837387e-07 0
7.4822682882195235e-06 9.0068857648944229e-07 0
7.6339418505185492e-06 6.3046543642475105e-07 0
6.3761232025896924e-06 7.4524753197392401e-07 0
6.3302093120543540e-06 5.4062011263767919e-07 0
6.7208638228572682e-06 9.3621912870293238e-07 0
6.7371443513541350e-06 5.2308519184442904e-07 0
6.8396667173862760e-06 1.0396255933520241e-06 0
6.8549023661961471e-06 5.2402949023546702e-07 0
6.7318056196798225e-06 1.2094759170314620e-06 0
6.7255332772651922e-06 3.9459676510930141e-07 0
8.1478295730138123e-06 1.4681846707707706e-06 0
8.4670500569513314e-06 7.9636823589241632e-07 0
7.1015419707380775e-06 1.3890814418960930e-06 0
6.9494576580263000e-06 7.2777726483848601e-07 0
7.5172091943119198e-06 1.7967124425856349e-06 0
7.4146219930009078e-06 7.4817034421384118e-07 0
7.7180701463550006e-06 2.1737587935573504e-06 0
7.5226761314324966e-06 7.9047711127705312e-07 0
7.6865711301012157e-06 2.6840012297996764e-06 0
7.3290425330719356e-06 6.6509291062264577e-07 0
9.1530664334226095e-06 3.4398304090042404e-06 0
9.3373627037925006e-06 1.1373804515888965e-06 0
8.0489148069284513e-06 3.9442918368138429e-06 0
7.3281272938062805e-06 8.6434612779829273e-07 0
8.4133605106391438e-06 5.2831884407348147e-06 0
7.7509856685253342e-06 4.1767195716878657e-07 0
8.6982114004842088e-06 7.0646762897809916e-06 0
7.9526395973467612e-06 -5.1231041570590025e-07 0
9.3644028913170869e-06 9.5490437480168122e-06 0
8.5223994907023737e-06 -2.2450501393582615e-06 0
1.3143874809110151e-05 1.2864071337968048e-05 0
1.3337784399469995e-05 -3.6223043529362672e-06 0
1.5028240514810681e-05 1.5228414343111369e-05 0
1.4169872808042267e-05 -5.8330217004420379e-06 0
2.0315175372040350e-05 1.8600992403867235e-05 0
1.9978240806413934e-05 -7.9475727267835388e-06 0
2.6538695892636104e-05 2.1420273930411565e-05 0
2.6317184590369956e-05 -9.7332366969521535e-06 0
3.5574983338358645e-05 2.4319757338269072e-05 0
3.4962423081015346e-05 -1.0692301329317496e-05 0
4.2456793873727642e-05 2.4385244387189516e-05 0
4.2477858932956295e-05 1.7051237748192891e-05 0
4.1261294114780596e-05 9.9490836302050195e-06 0
4.1015684670080152e-05 3.6518932508005444e-06 0
4.1841264859143720e-05 -3.4966261066870078e-06 0
4.1552230444044080e-05 -1.1451766335709214e-05 0

VECTORS Forces1 float
-1.2114664989483058e-01 7.5651023436327916e-02 0
-9.1074853820123550e-02 -5.1614755470610653e-02 0
1.6598721398171354e+00 -9.2465285593023472e-01 0
1.2672331281177254e+00 7.0279976573297009e-01 0
1.8169766206716609e+00 -2.8328558379952162e-01 0
1.3870106829852786e+00 2.1733334818300964e-01 0
1.1555473021142755e+00 4.7373766853983548e-02 0
8.8139685896212328e-01 -3.5648884170946110e-02 0
-1.7426299799566408e-01 -6.5787233659079531e-03 0
-1.3314865973384360e-01 4.8590614239379659e-03 0
4.4272686762851281e+00 -4.0839096267792355e-04 0
3.3688780275110166e+00 2.4645923285178145e-02 0
-1.8780988740777169e-01 -2.7855638499164751e-04 0
-1.4322248221883463e-01 -1.9978635945007693e-03 0
1.2615195660450442e+00 -7.8194868031858475e-04 0
9.6096854056409009e-01 1.6060783386461153e-02 0
1.2616235215345779e+00 -8.0652747544777113e-04 0
9.6106731215940311e-01 1.6095603783970625e-02 0
-1.8798010124536790e-01 -1.4112592007683883e-04 0
-1.4336507510223781e-01 -2.2359774142779983e-03 0
4.4558588764691498e+00 -1.3703223061377766e-03 0
3.4145233063806617e+00 9.5172735311342155e-02 0
-1.8872475072034708e-01 -3.3943487520784945e-04 0
-1.4640282469375282e-01 -5.3976192205136969e-03 0
1.2670615974001684e+00 6.6227167541685393e-04 0
9.8259930265345152e-01 3.8342237800162347e-02 0
1.2670663139150404e+00 6.6330121539264722e-04 0
9.8263245283214073e-01 3.8365098707363730e-02 0
-1.8874554962321619e-01 -3.7311615403177805e-04 0
-1.4660746230568522e-01 -5.5400274079383206e-03 0
4.4685218728268108e+00 1.2149442592038047e-02 0
3.5259913424659302e+00 1.7362631056834224e-01 0
-1.8902040950581317e-01 -1.2688003236210831e-03 0
-1.5262020739385718e-01 -8.6565333415575124e-03 0
1.2691451279960688e+00 6.9554517050885670e-03 0
1.0249547577488973e+00 6.0364183964526447e-02 0
1.2691440007665662e+00 6.9572065342925343e-03 0
1.0250065476315511e+00 6.0389446541136746e-02 0
-1.8903142404519291e-01 -1.3512089752735746e-03 0
-1.5298103289781001e-01 -8.7877426979000531e-03 0
4.4707621518080281e+00 4.3490666235124632e-02 0
3.7151947285102884e+00 2.5049361598288400e-01 0
-1.8896049374536938e-01 -3.0829098368615284e-03 0
-1.6235025926116725e-01 -1.1817018333312260e-02 0
1.2688286480722444e+00 1.9044674310575008e-02 0
1.0908895076500216e+00 8.1854756492606415e-02 0
1.2688211044319699e+00 1.9049574817992486e-02 0
1.0909634014112621e+00 8.1882839084177705e-02 0
-1.8895059820649904e-01 -3.2410878506313971e-03 0
-1.6288518619490402e-01 -1.1929334815170004e-02 0
4.4639401883903034e+00 1.0682147515477264e-01 0
3.9939347037592370e+00 3.2288891604442982e-01 0
-1.8802269140971445e-01 -6.6960346566662301e-03 0
-1.7607114789142977e-01 -1.4715607718964902e-02 0
1.2625286444416366e+00 4.3125994545255689e-02 0
1.1836270532593707e+00 1.0177346651493772e-01 0
1.2625170519159794e+00 4.3128733816988757e-02 0
1.1837291036562048e+00 1.0181012389623173e-01 0
-1.8802228986477559e-01 -6.9380201386856711e-03 0
-1.7684522149092155e-01 -1.4814349080721777e-02 0
4.4324004551312584e+00 1.9445092014049489e-01 0
4.3800125978925513e+00 4.0120152500161987e-01 0
-1.8786485279024595e-01 -1.1006940365700275e-02 0
-1.9587121835549473e-01 -1.8174526061127870e-02 0
1.2616823932411776e+00 7.1260070486210289e-02 0
1.3173493534409528e+00 1.2594632827956065e-01 0
1.2616512197114300e+00 7.1267070649446887e-02 0
1.3174805191997871e+00 1.2599367646836085e-01 0
-1.8784079014007077e-01 -1.1530838831069689e-02 0
-1.9699047520800733e-01 -1.8209066006876787e-02 0
4.4445037191855272e+00 3.9776258082289351e-01 0
4.9479523978547721e+00 4.6335407661727346e-01 0
-1.8445011592654686e-01 -2.3843497938449462e-02 0
-2.2309636150630979e-01 -1.9972015682898438e-02 0
1.2376684379671721e+00 1.5648206869353509e-01 0
1.5001157469144673e+00 1.3945646745522128e-01 0
1.2375887338670633e+00 1.5638054662426154e-01 0
1.5002327955402577e+00 1.3954592983300265e-01 0
-1.8521451530897665e-01 -2.4694659492222364e-02 0
-2.2541252739618536e-01 -2.0032999465658962e-02 0
4.3713813670121189e+00 5.3217791739333820e-01 0
5.7701108958080933e+00 6.1166896189129072e-01 0
-2.0409307641318905e-01 -2.8935396060400378e-02 0
-2.7878924562739477e-01 -2.7753750350805073e-02 0
1.3641358083167592e+00 1.7950758356364976e-01 0
1.8676581789009556e+00 1.9497729101069836e-01 0
1.3637036327072318e+00 1.7903373240607567e-01 0
1.8674898000944997e+00 1.9518579518709775e-01 0
-2.0638460771328956e-01 -3.3764363537857847e-02 0
-2.8434107764793526e-01 -2.6073921546365713e-02 0
5.2850177255499302e+00 1.6924212943166168e+00 0
7.7029336674845865e+00 4.3126134507459402e-01 0
-2.2868587077734623e-01 -1.3484399448133649e-01 0
-3.9296479035707510e-01 8.7385412413773650e-03 0
1.6418889303381989e+00 8.8793116656244375e-01 0
2.7393193541726930e+00 3.7044222909911384e-02 0
1.0999604629190436e+00 5.1680688832827482e-01 0
2.1461614414534651e+00 8.5361946487544672e-03 0
5.1770790373149715e+00 3.4549873529297983e+00 0
5.4632320692276402e+00 4.3933072487580438e-01 0
4.0920894282053816e-01 4.1085557458971400e-01 0
3.6470115951342534e+00 2.6260298552752053e+00 0
2.1483880974806691e+00 2.1706837842054654e+00 0
1.9607621831444544e+00 2.3229648864438137e+00 0
3.3774455900721718e+00 1.2779725509281143e+00 0
5.4578390060466986e-01 -1.7900901351243659e-01 0

