# vtk DataFile Version 2.0

ASCII

DATASET UNSTRUCTURED_GRID

POINTS 106 float 

-5.0000000000000003e-02  0.0000000000000000e+00  0.0000000000000000e+00
5.0000000000000003e-02  0.0000000000000000e+00  0.0000000000000000e+00
-5.0000000000000003e-02  2.0000000000000000e-02  0.0000000000000000e+00
5.0000000000000003e-02  2.0000000000000000e-02  0.0000000000000000e+00
-5.0000000000000003e-02  4.0000000000000001e-02  0.0000000000000000e+00
5.0000000000000003e-02  4.0000000000000001e-02  0.0000000000000000e+00
-5.0000000000000003e-02  5.9999999999999998e-02  0.0000000000000000e+00
5.0000000000000003e-02  5.9999999999999998e-02  0.0000000000000000e+00
-5.0000000000000003e-02  8.0000000000000002e-02  0.0000000000000000e+00
5.0000000000000003e-02  8.0000000000000002e-02  0.0000000000000000e+00
-5.0000000000000003e-02  1.0000000000000001e-01  0.0000000000000000e+00
5.0000000000000003e-02  1.0000000000000001e-01  0.0000000000000000e+00
-5.0000000000000003e-02  1.2000000000000000e-01  0.0000000000000000e+00
5.0000000000000003e-02  1.2000000000000000e-01  0.0000000000000000e+00
-5.0000000000000003e-02  1.4000000000000001e-01  0.0000000000000000e+00
5.0000000000000003e-02  1.4000000000000001e-01  0.0000000000000000e+00
-5.0000000000000003e-02  1.6000000000000000e-01  0.0000000000000000e+00
5.0000000000000003e-02  1.6000000000000000e-01  0.0000000000000000e+00
-5.0000000000000003e-02  1.7999999999999999e-01  0.0000000000000000e+00
5.0000000000000003e-02  1.7999999999999999e-01  0.0000000000000000e+00
-5.0000000000000003e-02  2.0000000000000001e-01  0.0000000000000000e+00
5.0000000000000003e-02  2.0000000000000001e-01  0.0000000000000000e+00
-5.0000000000000003e-02  2.2000000000000000e-01  0.0000000000000000e+00
5.0000000000000003e-02  2.2000000000000000e-01  0.0000000000000000e+00
-5.0000000000000003e-02  2.3999999999999999e-01  0.0000000000000000e+00
5.0000000000000003e-02  2.3999999999999999e-01  0.0000000000000000e+00
-5.0000000000000003e-02  2.6000000000000001e-01  0.0000000000000000e+00
5.0000000000000003e-02  2.6000000000000001e-01  0.0000000000000000e+00
-5.0000000000000003e-02  2.8000000000000003e-01  0.0000000000000000e+00
5.0000000000000003e-02  2.8000000000000003e-01  0.0000000000000000e+00
-5.0000000000000003e-02  2.9999999999999999e-01  0.0000000000000000e+00
5.0000000000000003e-02  2.9999999999999999e-01  0.0000000000000000e+00
-5.0000000000000003e-02  3.2000000000000001e-01  0.0000000000000000e+00
5.0000000000000003e-02  3.2000000000000001e-01  0.0000000000000000e+00
-5.0000000000000003e-02  3.4000000000000002e-01  0.0000000000000000e+00
5.0000000000000003e-02  3.4000000000000002e-01  0.0000000000000000e+00
-5.0000000000000003e-02  3.5999999999999999e-01  0.0000000000000000e+00
5.0000000000000003e-02  3.5999999999999999e-01  0.0000000000000000e+00
-5.0000000000000003e-02  3.8000000000000000e-01  0.0000000000000000e+00
5.0000000000000003e-02  3.8000000000000000e-01  0.0000000000000000e+00
-5.0000000000000003e-02  4.0000000000000002e-01  0.0000000000000000e+00
5.0000000000000003e-02  4.0000000000000002e-01  0.0000000000000000e+00
-5.0000000000000003e-02  4.1999999999999998e-01  0.0000000000000000e+00
5.0000000000000003e-02  4.1999999999999998e-01  0.0000000000000000e+00
-5.0000000000000003e-02  4.4000000000000000e-01  0.0000000000000000e+00
5.0000000000000003e-02  4.4000000000000000e-01  0.0000000000000000e+00
-5.0000000000000003e-02  4.6000000000000002e-01  0.0000000000000000e+00
5.0000000000000003e-02  4.6000000000000002e-01  0.0000000000000000e+00
-5.0000000000000003e-02  4.7999999999999998e-01  0.0000000000000000e+00
5.0000000000000003e-02  4.7999999999999998e-01  0.0000000000000000e+00
-5.0000000000000003e-02  5.0000000000000000e-01  0.0000000000000000e+00
5.0000000000000003e-02  5.0000000000000000e-01  0.0000000000000000e+00
-5.0000000000000003e-02  5.2000000000000002e-01  0.0000000000000000e+00
5.0000000000000003e-02  5.2000000000000002e-01  0.0000000000000000e+00
-5.0000000000000003e-02  5.4000000000000004e-01  0.0000000000000000e+00
5.0000000000000003e-02  5.4000000000000004e-01  0.0000000000000000e+00
-5.0000000000000003e-02  5.6000000000000005e-01  0.0000000000000000e+00
5.0000000000000003e-02  5.6000000000000005e-01  0.0000000000000000e+00
-5.0000000000000003e-02  5.7999999999999996e-01  0.0000000000000000e+00
5.0000000000000003e-02  5.7999999999999996e-01  0.0000000000000000e+00
-5.0000000000000003e-02  5.9999999999999998e-01  0.0000000000000000e+00
5.0000000000000003e-02  5.9999999999999998e-01  0.0000000000000000e+00
-5.0000000000000003e-02  6.2000000000000000e-01  0.0000000000000000e+00
5.0000000000000003e-02  6.2000000000000000e-01  0.0000000000000000e+00
-5.0000000000000003e-02  6.4000000000000001e-01  0.0000000000000000e+00
5.0000000000000003e-02  6.4000000000000001e-01  0.0000000000000000e+00
-5.0000000000000003e-02  6.6000000000000003e-01  0.0000000000000000e+00
5.0000000000000003e-02  6.6000000000000003e-01  0.0000000000000000e+00
-5.0000000000000003e-02  6.8000000000000005e-01  0.0000000000000000e+00
5.0000000000000003e-02  6.8000000000000005e-01  0.0000000000000000e+00
-5.0000000000000003e-02  6.9999999999999996e-01  0.0000000000000000e+00
5.0000000000000003e-02  6.9999999999999996e-01  0.0000000000000000e+00
-5.0000000000000003e-02  7.1999999999999997e-01  0.0000000000000000e+00
5.0000000000000003e-02  7.1999999999999997e-01  0.0000000000000000e+00
-5.0000000000000003e-02  7.3999999999999999e-01  0.0000000000000000e+00
5.0000000000000003e-02  7.3999999999999999e-01  0.0000000000000000e+00
-5.0000000000000003e-02  7.6000000000000001e-01  0.0000000000000000e+00
5.0000000000000003e-02  7.6000000000000001e-01  0.0000000000000000e+00
-5.0000000000000003e-02  7.8000000000000003e-01  0.0000000000000000e+00
5.0000000000000003e-02  7.8000000000000003e-01  0.0000000000000000e+00
-5.0000000000000003e-02  8.0000000000000004e-01  0.0000000000000000e+00
5.0000000000000003e-02  8.0000000000000004e-01  0.0000000000000000e+00
-5.0000000000000003e-02  8.1999999999999995e-01  0.0000000000000000e+00
5.0000000000000003e-02  8.1999999999999995e-01  0.0000000000000000e+00
-5.0000000000000003e-02  8.3999999999999997e-01  0.0000000000000000e+00
5.0000000000000003e-02  8.3999999999999997e-01  0.0000000000000000e+00
-5.0000000000000003e-02  8.5999999999999999e-01  0.0000000000000000e+00
5.0000000000000003e-02  8.5999999999999999e-01  0.0000000000000000e+00
-5.0000000000000003e-02  8.8000000000000000e-01  0.0000000000000000e+00
5.0000000000000003e-02  8.8000000000000000e-01  0.0000000000000000e+00
-5.0000000000000003e-02  9.0000000000000002e-01  0.0000000000000000e+00
5.0000000000000003e-02  9.0000000000000002e-01  0.0000000000000000e+00
-5.0000000000000003e-02  9.2000000000000004e-01  0.0000000000000000e+00
5.0000000000000003e-02  9.2000000000000004e-01  0.0000000000000000e+00
-5.0000000000000003e-02  9.3999999999999995e-01  0.0000000000000000e+00
5.0000000000000003e-02  9.3999999999999995e-01  0.0000000000000000e+00
-5.0000000000000003e-02  9.5999999999999996e-01  0.0000000000000000e+00
5.0000000000000003e-02  9.5999999999999996e-01  0.0000000000000000e+00
-5.0000000000000003e-02  9.7999999999999998e-01  0.0000000000000000e+00
5.0000000000000003e-02  9.7999999999999998e-01  0.0000000000000000e+00
-5.0000000000000003e-02  1.0000000000000000e+00  0.0000000000000000e+00
-3.0000000000000002e-02  1.0000000000000000e+00  0.0000000000000000e+00
-1.0000000000000002e-02  1.0000000000000000e+00  0.0000000000000000e+00
1.0000000000000009e-02  1.0000000000000000e+00  0.0000000000000000e+00
2.9999999999999999e-02  1.0000000000000000e+00  0.0000000000000000e+00
5.0000000000000003e-02  1.0000000000000000e+00  0.0000000000000000e+00

CELLS 0 0


CELL_TYPES 0


POINT_DATA 106

VECTORS VertexNormals float

0.0000000000000000e+00 0.0000000000000000e+00 0
0.0000000000000000e+00 0.0000000000000000e+00 0
0.0000000000000000e+00 0.0000000000000000e+00 0
0.0000000000000000e+00 0.0000000000000000e+00 0
0.0000000000000000e+00 0.0000000000000000e+00 0
0.0000000000000000e+00 0.0000000000000000e+00 0
0.0000000000000000e+00 0.0000000000000000e+00 0
0.0000000000000000e+00 0.0000000000000000e+00 0
0.0000000000000000e+00 0.0000000000000000e+00 0
0.0000000000000000e+00 0.0000000000000000e+00 0
0.0000000000000000e+00 0.0000000000000000e+00 0
0.0000000000000000e+00 0.0000000000000000e+00 0
0.0000000000000000e+00 0.0000000000000000e+00 0
0.0000000000000000e+00 0.0000000000000000e+00 0
0.0000000000000000e+00 0.0000000000000000e+00 0
0.0000000000000000e+00 0.0000000000000000e+00 0
0.0000000000000000e+00 0.0000000000000000e+00 0
0.0000000000000000e+00 0.0000000000000000e+00 0
0.0000000000000000e+00 0.0000000000000000e+00 0
0.0000000000000000e+00 0.0000000000000000e+00 0
0.0000000000000000e+00 0.0000000000000000e+00 0
0.0000000000000000e+00 0.0000000000000000e+00 0
0.0000000000000000e+00 0.0000000000000000e+00 0
0.0000000000000000e+00 0.0000000000000000e+00 0
0.0000000000000000e+00 0.0000000000000000e+00 0
0.0000000000000000e+00 0.0000000000000000e+00 0
0.0000000000000000e+00 0.0000000000000000e+00 0
0.0000000000000000e+00 0.0000000000000000e+00 0
0.0000000000000000e+00 0.0000000000000000e+00 0
0.0000000000000000e+00 0.0000000000000000e+00 0
0.0000000000000000e+00 0.0000000000000000e+00 0
0.0000000000000000e+00 0.0000000000000000e+00 0
0.0000000000000000e+00 0.0000000000000000e+00 0
0.0000000000000000e+00 0.0000000000000000e+00 0
0.0000000000000000e+00 0.0000000000000000e+00 0
0.0000000000000000e+00 0.0000000000000000e+00 0
0.0000000000000000e+00 0.0000000000000000e+00 0
0.0000000000000000e+00 0.0000000000000000e+00 0
0.0000000000000000e+00 0.0000000000000000e+00 0
0.0000000000000000e+00 0.0000000000000000e+00 0
0.0000000000000000e+00 0.0000000000000000e+00 0
0.0000000000000000e+00 0.0000000000000000e+00 0
0.0000000000000000e+00 0.0000000000000000e+00 0
0.0000000000000000e+00 0.0000000000000000e+00 0
0.0000000000000000e+00 0.0000000000000000e+00 0
0.0000000000000000e+00 0.0000000000000000e+00 0
0.0000000000000000e+00 0.0000000000000000e+00 0
0.0000000000000000e+00 0.0000000000000000e+00 0
0.0000000000000000e+00 0.0000000000000000e+00 0
0.0000000000000000e+00 0.0000000000000000e+00 0
0.0000000000000000e+00 0.0000000000000000e+00 0
0.0000000000000000e+00 0.0000000000000000e+00 0
0.0000000000000000e+00 0.0000000000000000e+00 0
0.0000000000000000e+00 0.0000000000000000e+00 0
0.0000000000000000e+00 0.0000000000000000e+00 0
0.0000000000000000e+00 0.0000000000000000e+00 0
0.0000000000000000e+00 0.0000000000000000e+00 0
0.0000000000000000e+00 0.0000000000000000e+00 0
0.0000000000000000e+00 0.0000000000000000e+00 0
0.0000000000000000e+00 0.0000000000000000e+00 0
0.0000000000000000e+00 0.0000000000000000e+00 0
0.0000000000000000e+00 0.0000000000000000e+00 0
0.0000000000000000e+00 0.0000000000000000e+00 0
0.0000000000000000e+00 0.0000000000000000e+00 0
0.0000000000000000e+00 0.0000000000000000e+00 0
0.0000000000000000e+00 0.0000000000000000e+00 0
0.0000000000000000e+00 0.0000000000000000e+00 0
0.0000000000000000e+00 0.0000000000000000e+00 0
0.0000000000000000e+00 0.0000000000000000e+00 0
0.0000000000000000e+00 0.0000000000000000e+00 0
0.0000000000000000e+00 0.0000000000000000e+00 0
0.0000000000000000e+00 0.0000000000000000e+00 0
0.0000000000000000e+00 0.0000000000000000e+00 0
0.0000000000000000e+00 0.0000000000000000e+00 0
0.0000000000000000e+00 0.0000000000000000e+00 0
0.0000000000000000e+00 0.0000000000000000e+00 0
0.0000000000000000e+00 0.0000000000000000e+00 0
0.0000000000000000e+00 0.0000000000000000e+00 0
0.0000000000000000e+00 0.0000000000000000e+00 0
0.0000000000000000e+00 0.0000000000000000e+00 0
0.0000000000000000e+00 0.0000000000000000e+00 0
0.0000000000000000e+00 0.0000000000000000e+00 0
0.0000000000000000e+00 0.0000000000000000e+00 0
0.0000000000000000e+00 0.0000000000000000e+00 0
0.0000000000000000e+00 0.0000000000000000e+00 0
0.0000000000000000e+00 0.0000000000000000e+00 0
0.0000000000000000e+00 0.0000000000000000e+00 0
0.0000000000000000e+00 0.0000000000000000e+00 0
0.0000000000000000e+00 0.0000000000000000e+00 0
0.0000000000000000e+00 0.0000000000000000e+00 0
0.0000000000000000e+00 0.0000000000000000e+00 0
0.0000000000000000e+00 0.0000000000000000e+00 0
0.0000000000000000e+00 0.0000000000000000e+00 0
0.0000000000000000e+00 0.0000000000000000e+00 0
0.0000000000000000e+00 0.0000000000000000e+00 0
0.0000000000000000e+00 0.0000000000000000e+00 0
0.0000000000000000e+00 0.0000000000000000e+00 0
0.0000000000000000e+00 0.0000000000000000e+00 0
0.0000000000000000e+00 0.0000000000000000e+00 0
0.0000000000000000e+00 0.0000000000000000e+00 0
0.0000000000000000e+00 0.0000000000000000e+00 0
0.0000000000000000e+00 0.0000000000000000e+00 0
0.0000000000000000e+00 0.0000000000000000e+00 0
0.0000000000000000e+00 0.0000000000000000e+00 0
0.0000000000000000e+00 0.0000000000000000e+00 0
0.0000000000000000e+00 0.0000000000000000e+00 0

VECTORS Displacements1 float
-2.8635670357874809e-17 1.5995486650970600e-17 0
-2.0525316522629579e-23 -8.4276131449619502e-24 0
2.6866468292503871e-07 -8.3703039108452075e-08 0
2.7897562535439148e-07 1.1101581208838779e-07 0
3.1740640228781598e-07 -6.3967851169490376e-08 0
3.1384746470217791e-07 9.6940016578949691e-08 0
2.0486018454423476e-07 -2.1553982025187828e-08 0
1.9990594463989578e-07 4.7884823676329228e-08 0
8.0473083859854596e-08 2.7436631660756288e-08 0
8.3286902459279024e-08 -2.2496533776564454e-08 0
6.7420503173027165e-07 3.8591144443267102e-08 0
6.5230925644006824e-07 4.7048089278519948e-08 0
8.0832937507226863e-08 -3.4099777530122107e-08 0
8.3053057439014243e-08 3.8406335176011134e-08 0
2.0972146180425170e-07 1.4875972352847808e-08 0
2.0614713632519463e-07 1.6368849539811888e-08 0
2.0983834419124800e-07 9.5340053195331170e-09 0
2.0607073043045637e-07 2.2676990680016975e-08 0
8.0493436246585795e-08 3.2873790632012045e-08 0
8.5682919931902020e-08 -2.6662749252666386e-08 0
6.6989521354935067e-07 3.5457386012303122e-08 0
6.6447536448968642e-07 6.1361106288140746e-08 0
7.9871059466853104e-08 -3.5334702278278721e-08 0
8.3693684637182176e-08 4.3846078420758825e-08 0
2.0880016090095672e-07 1.2667021057813655e-08 0
2.1333995868939891e-07 2.4090993586684224e-08 0
2.0896803105430845e-07 7.3371353843499264e-09 0
2.1314660139383745e-07 3.0707891503716459e-08 0
8.0401371004610826e-08 3.1213652330266364e-08 0
9.0626188125845022e-08 -2.2760367301637238e-08 0
6.6788629758888954e-07 3.2219626149799735e-08 0
6.9811418986370292e-07 7.9889143393219267e-08 0
7.9441531921775674e-08 -3.6506208529579944e-08 0
8.6983215069551508e-08 5.1132271408736974e-08 0
2.0837616462609266e-07 1.1754295161941331e-08 0
2.2719101685077563e-07 3.2028061231987200e-08 0
2.0866397962413159e-07 6.6908950149075770e-09 0
2.2690322183277258e-07 3.8920435852195233e-08 0
8.0262642078539046e-08 3.0904335943564237e-08 0
9.8159390136578581e-08 -2.0382116750004593e-08 0
6.6631009761218901e-07 3.3077007442389378e-08 0
7.5364722695594230e-07 9.8525897627874702e-08 0
7.9361197113684717e-08 -3.6183329157934292e-08 0
9.2987537683502556e-08 5.9077165606732072e-08 0
2.0814693265902020e-07 1.2969891043318467e-08 0
2.4828039967864355e-07 3.9654503258870948e-08 0
2.0857512022970870e-07 8.3755666982187121e-09 0
2.4788624324116437e-07 4.6919383305890561e-08 0
7.9899029814566776e-08 3.2869804346538026e-08 0
1.0865935984813917e-07 -2.0216319235575496e-08 0
6.6506538061569828e-07 4.0888726181445206e-08 0
8.3458795488942922e-07 1.1621830903657022e-07 0
7.9719536316480334e-08 -3.3380592094662750e-08 0
1.0219063221024105e-07 6.7395968607825158e-08 0
2.0730241078131144e-07 1.7860849269546046e-08 0
2.7761048018031024e-07 4.6358194153781524e-08 0
2.0808186461895983e-07 1.3670060354735455e-08 0
2.7721749746335425e-07 5.4362374936982308e-08 0
7.9232425782372673e-08 3.6434387680418517e-08 0
1.2292643961122739e-07 -2.1834407956404809e-08 0
6.6102457440764191e-07 5.2997356536217829e-08 0
9.4602340769985856e-07 1.3600831101968219e-07 0
8.0201342811589583e-08 -2.8688532603127775e-08 0
1.1512200552346016e-07 7.7200442155674073e-08 0
2.0900166153822768e-07 2.4606379642708563e-08 0
3.2000493187834416e-07 5.4223613564039328e-08 0
2.0983222431306556e-07 2.1934162818486082e-08 0
3.1936144047064163e-07 6.2667842267472489e-08 0
7.9140866555782307e-08 4.7709661587694497e-08 0
1.4318415552739090e-07 -2.9155755846201569e-08 0
6.7243656856485736e-07 8.9385932933019625e-08 0
1.1104821924595594e-06 1.4989776168260333e-07 0
8.3422514850671446e-08 -1.6548702355205128e-08 0
1.3483642190479604e-07 8.6325263052293923e-08 0
2.0780421994826762e-07 4.6037068152179930e-08 0
3.7723402383824999e-07 5.6904238425050034e-08 0
2.1052536425273834e-07 4.2753812874567196e-08 0
3.7744003772590268e-07 6.7926198678155514e-08 0
8.0775901393557414e-08 5.4559821846656765e-08 0
1.7342926100086922e-07 -3.4482252030044879e-08 0
6.7555452552971740e-07 1.0477765630443665e-07 0
1.3443788246735744e-06 1.9065394488709543e-07 0
8.6020056889087157e-08 -8.8736050946297255e-09 0
1.6182671581195129e-07 1.0501066076573790e-07 0
2.4889223727133315e-07 5.7726229902345053e-08 0
4.9104933523367793e-07 7.4912182591597286e-08 0
2.4902394326553773e-07 6.8083236422905615e-08 0
4.8891865458307398e-07 8.1006775878840897e-08 0
9.9504470333324286e-08 1.3979276649417055e-07 0
2.3362062313731411e-07 -8.8677348245257476e-08 0
9.4140926741197432e-07 3.6990873649004766e-07 0
1.8793025480637304e-06 1.3888431976946067e-07 0
1.4095632034141874e-07 1.1905122472359488e-07 0
2.2396241979219160e-07 8.9037840196242785e-08 0
3.8032666690816214e-07 4.4522269805111040e-07 0
7.2828494071739824e-07 -7.1659942822206738e-08 0
4.8679184330473090e-07 8.1788705280459710e-07 0
8.1489780266831873e-07 -2.8687012830931644e-07 0
1.7868983712210946e-06 1.7107732447522416e-06 0
1.9255738917058729e-06 -5.1758251217150026e-07 0
1.9116263375888829e-06 1.6136189355264607e-06 0
2.0544256542388670e-06 1.1514875274633047e-06 0
1.6026300839110511e-06 6.9034364642287370e-07 0
1.5841693906371593e-06 5.3016672033899381e-07 0
2.0672623286053268e-06 -4.8018012745472047e-08 0
1.8176431972075024e-06 -8.4391097079456324e-07 0

VECTORS Forces1 float
-5.0620759010181947e-02 3.2832018402934690e-02 0
-5.0144252689027759e-02 -2.8079291291522885e-02 0
7.3022861525339777e-01 -4.0766705767918965e-01 0
6.9867835098868847e-01 3.8809296841333668e-01 0
7.9975113455621605e-01 -1.2470497670042659e-01 0
7.6380881212735319e-01 1.2049228219003982e-01 0
5.0804028455994577e-01 2.1112488995892301e-02 0
4.8501376610233798e-01 -1.9307269175154036e-02 0
-7.6620044182403271e-02 -2.9985542902983726e-03 0
-7.3301147015040619e-02 2.6401300745116010e-03 0
1.9362650294242765e+00 -1.2239162865216111e-03 0
1.8505466702372670e+00 1.6948297463447237e-02 0
-8.1665948021232643e-02 -1.7999031357211988e-05 0
-7.8696564314767542e-02 -1.2480141341779359e-03 0
5.4853293492308686e-01 -1.4641589354306829e-03 0
5.2781161789602471e-01 9.9909499493271332e-03 0
5.4857694657646172e-01 -1.4758553235844701e-03 0
5.2786669506914285e-01 1.0011863959527790e-02 0
-8.1692701737286308e-02 6.1965491548786816e-05 0
-7.8789139398413824e-02 -1.3772897392219932e-03 0
1.9276801830657377e+00 -9.4889857508522434e-03 0
1.8807170882809188e+00 5.6266380183714486e-02 0
-8.1362764215675801e-02 4.1760959403658147e-04 0
-8.1071752619919876e-02 -3.1189199785650037e-03 0
5.4638711528700057e-01 -3.9366684797233053e-03 0
5.4400071657847959e-01 2.2265000507622208e-02 0
5.4638631984055852e-01 -3.9395678568496925e-03 0
5.4402542927508768e-01 2.2278078956931891e-02 0
-8.1346876594360282e-02 4.2102786160358121e-04 0
-8.1229836976244432e-02 -3.1942106530285937e-03 0
1.9221190239866173e+00 -1.4705967991937151e-02 0
1.9668664466674814e+00 9.9239924469479504e-02 0
-8.1114783026189366e-02 4.2641239116364383e-04 0
-8.5863626567034543e-02 -4.8596672796537262e-03 0
5.4487291667626070e-01 -3.9896287701571337e-03 0
5.7661446064616761e-01 3.4038105708634372e-02 0
5.4487048037304786e-01 -3.9924638993450497e-03 0
5.7665295963571017e-01 3.4052442150888006e-02 0
-8.1105219553038371e-02 4.0239951634520000e-04 0
-8.6143194070878337e-02 -4.9245301579280091e-03 0
1.9156022740553171e+00 -9.4900707244452848e-03 0
2.1114475918411713e+00 1.3936855821271668e-01 0
-8.0813811433793403e-02 -7.5575073455437934e-05 0
-9.3287550606467512e-02 -6.4591258338414659e-03 0
5.4297977580207013e-01 -6.9800215035268319e-04 0
6.2685807358414214e-01 4.4944342633560973e-02 0
5.4297497113134796e-01 -6.9945100259233371e-04 0
6.2691235939472389e-01 4.4959908345893092e-02 0
-8.0797973677521256e-02 -1.4321708889692526e-04 0
-9.3700714555213963e-02 -6.5057932279445965e-03 0
1.9073895541761183e+00 1.3679501667822632e-02 0
2.3237534610664663e+00 1.7382264218004329e-01 0
-8.0159890092670341e-02 -1.5750935292592702e-03 0
-1.0373593463723427e-01 -7.7261983068838838e-03 0
5.3870303023145283e-01 9.2168930850176616e-03 0
6.9738931204487753e-01 5.3729609266197131e-02 0
5.3869800822604230e-01 9.2129058886717061e-03 0
6.9746357260424585e-01 5.3750294927350527e-02 0
-8.0155741939435005e-02 -1.6881562716324471e-03 0
-1.0433463573599405e-01 -7.7573697865437087e-03 0
1.8892438290833007e+00 4.8531846540063893e-02 0
2.6169827289004939e+00 2.0949109897342758e-01 0
-8.0182468455105710e-02 -3.3143682807274433e-03 0
-1.1880794794866950e-01 -9.2672949024335920e-03 0
5.3917586513839499e-01 2.0326594591271844e-02 0
7.9903446195074679e-01 6.4697828647547986e-02 0
5.3916494300103068e-01 2.0322411834101387e-02 0
7.9912843065775918e-01 6.4723991759384522e-02 0
-8.0180943433008176e-02 -3.5831719530188405e-03 0
-1.1967931217773914e-01 -9.2336532218959752e-03 0
1.9060630924175190e+00 1.4486461646731535e-01 0
3.0504434300603629e+00 2.2409529779899348e-01 0
-7.9077059493338153e-02 -9.6879531627775701e-03 0
-1.3963336856351141e-01 -8.9681499921102879e-03 0
5.3154862381576418e-01 6.2363680842512703e-02 0
9.3863550469058099e-01 6.3575051294942717e-02 0
5.3152009086251861e-01 6.2290298531279327e-02 0
9.3871596521345169e-01 6.3634941090131583e-02 0
-7.9574219711889299e-02 -1.0131650329690883e-02 0
-1.4137844633626567e-01 -8.9286693310696476e-03 0
1.9010276392594168e+00 1.8835103426961788e-01 0
3.6672222966377253e+00 2.9623292330483392e-01 0
-9.2778523075198252e-02 -1.0868349255835779e-02 0
-1.8067426317160915e-01 -1.3157704647520229e-02 0
6.2109603923725798e-01 6.3446211249245557e-02 0
1.2091826710715012e+00 9.4529915777091925e-02 0
6.2093819043044207e-01 6.3131240622389173e-02 0
1.2090141909150984e+00 9.4682755912705863e-02 0
-9.4158997818745024e-02 -1.3717448062298453e-02 0
-1.8495426263482220e-01 -1.1778987799095406e-02 0
2.5409786631962303e+00 8.1386959869154196e-01 0
5.0867713716613441e+00 9.4863551482051778e-02 0
-1.1552078760018142e-01 -7.1594654318953413e-02 0
-2.6560650255789975e-01 1.7631765206608120e-02 0
8.5779885179217052e-01 4.6244004953535750e-01 0
1.8385081379822417e+00 -6.1028712516071143e-02 0
5.3679618528116069e-01 2.4735413342889820e-01 0
1.4233100368374432e+00 -4.8726407181327133e-02 0
3.1078117889514059e+00 2.0015127446939713e+00 0
3.8167397373472354e+00 -7.4517605901430082e-03 0
2.1370407457416282e-01 2.4583476836115159e-01 0
2.2076732557658594e+00 1.5544140432412408e+00 0
1.4195209488539380e+00 1.2892807276807947e+00 0
1.3094077090086600e+00 1.3792825275852258e+00 0
2.3824075104684526e+00 6.2814520898645254e-01 0
4.0156959625649935e-01 -1.4282779234451537e-01 0

