# vtk DataFile Version 2.0

ASCII

DATASET UNSTRUCTURED_GRID

POINTS 106 float 

-5.0000000000000003e-02  0.0000000000000000e+00  0.0000000000000000e+00
5.0000000000000003e-02  0.0000000000000000e+00  0.0000000000000000e+00
-5.0000000000000003e-02  2.0000000000000000e-02  0.0000000000000000e+00
5.0000000000000003e-02  2.0000000000000000e-02  0.0000000000000000e+00
-5.0000000000000003e-02  4.0000000000000001e-02  0.0000000000000000e+00
5.0000000000000003e-02  4.0000000000000001e-02  0.0000000000000000e+00
-5.0000000000000003e-02  5.9999999999999998e-02  0.0000000000000000e+00
5.0000000000000003e-02  5.9999999999999998e-02  0.0000000000000000e+00
-5.0000000000000003e-02  8.0000000000000002e-02  0.0000000000000000e+00
5.0000000000000003e-02  8.0000000000000002e-02  0.0000000000000000e+00
-5.0000000000000003e-02  1.0000000000000001e-01  0.0000000000000000e+00
5.0000000000000003e-02  1.0000000000000001e-01  0.0000000000000000e+00
-5.0000000000000003e-02  1.2000000000000000e-01  0.0000000000000000e+00
5.0000000000000003e-02  1.2000000000000000e-01  0.0000000000000000e+00
-5.0000000000000003e-02  1.4000000000000001e-01  0.0000000000000000e+00
5.0000000000000003e-02  1.4000000000000001e-01  0.0000000000000000e+00
-5.0000000000000003e-02  1.6000000000000000e-01  0.0000000000000000e+00
5.0000000000000003e-02  1.6000000000000000e-01  0.0000000000000000e+00
-5.0000000000000003e-02  1.7999999999999999e-01  0.0000000000000000e+00
5.0000000000000003e-02  1.7999999999999999e-01  0.0000000000000000e+00
-5.0000000000000003e-02  2.0000000000000001e-01  0.0000000000000000e+00
5.0000000000000003e-02  2.0000000000000001e-01  0.0000000000000000e+00
-5.0000000000000003e-02  2.2000000000000000e-01  0.0000000000000000e+00
5.0000000000000003e-02  2.2000000000000000e-01  0.0000000000000000e+00
-5.0000000000000003e-02  2.3999999999999999e-01  0.0000000000000000e+00
5.0000000000000003e-02  2.3999999999999999e-01  0.0000000000000000e+00
-5.0000000000000003e-02  2.6000000000000001e-01  0.0000000000000000e+00
5.0000000000000003e-02  2.6000000000000001e-01  0.0000000000000000e+00
-5.0000000000000003e-02  2.8000000000000003e-01  0.0000000000000000e+00
5.0000000000000003e-02  2.8000000000000003e-01  0.0000000000000000e+00
-5.0000000000000003e-02  2.9999999999999999e-01  0.0000000000000000e+00
5.0000000000000003e-02  2.9999999999999999e-01  0.0000000000000000e+00
-5.0000000000000003e-02  3.2000000000000001e-01  0.0000000000000000e+00
5.0000000000000003e-02  3.2000000000000001e-01  0.0000000000000000e+00
-5.0000000000000003e-02  3.4000000000000002e-01  0.0000000000000000e+00
5.0000000000000003e-02  3.4000000000000002e-01  0.0000000000000000e+00
-5.0000000000000003e-02  3.5999999999999999e-01  0.0000000000000000e+00
5.0000000000000003e-02  3.5999999999999999e-01  0.0000000000000000e+00
-5.0000000000000003e-02  3.8000000000000000e-01  0.0000000000000000e+00
5.0000000000000003e-02  3.8000000000000000e-01  0.0000000000000000e+00
-5.0000000000000003e-02  4.0000000000000002e-01  0.0000000000000000e+00
5.0000000000000003e-02  4.0000000000000002e-01  0.0000000000000000e+00
-5.0000000000000003e-02  4.1999999999999998e-01  0.0000000000000000e+00
5.0000000000000003e-02  4.1999999999999998e-01  0.0000000000000000e+00
-5.0000000000000003e-02  4.4000000000000000e-01  0.0000000000000000e+00
5.0000000000000003e-02  4.4000000000000000e-01  0.0000000000000000e+00
-5.0000000000000003e-02  4.6000000000000002e-01  0.0000000000000000e+00
5.0000000000000003e-02  4.6000000000000002e-01  0.0000000000000000e+00
-5.0000000000000003e-02  4.7999999999999998e-01  0.0000000000000000e+00
5.0000000000000003e-02  4.7999999999999998e-01  0.0000000000000000e+00
-5.0000000000000003e-02  5.0000000000000000e-01  0.0000000000000000e+00
5.0000000000000003e-02  5.0000000000000000e-01  0.0000000000000000e+00
-5.0000000000000003e-02  5.2000000000000002e-01  0.0000000000000000e+00
5.0000000000000003e-02  5.2000000000000002e-01  0.0000000000000000e+00
-5.0000000000000003e-02  5.4000000000000004e-01  0.0000000000000000e+00
5.0000000000000003e-02  5.4000000000000004e-01  0.0000000000000000e+00
-5.0000000000000003e-02  5.6000000000000005e-01  0.0000000000000000e+00
5.0000000000000003e-02  5.6000000000000005e-01  0.0000000000000000e+00
-5.0000000000000003e-02  5.7999999999999996e-01  0.0000000000000000e+00
5.0000000000000003e-02  5.7999999999999996e-01  0.0000000000000000e+00
-5.0000000000000003e-02  5.9999999999999998e-01  0.0000000000000000e+00
5.0000000000000003e-02  5.9999999999999998e-01  0.0000000000000000e+00
-5.0000000000000003e-02  6.2000000000000000e-01  0.0000000000000000e+00
5.0000000000000003e-02  6.2000000000000000e-01  0.0000000000000000e+00
-5.0000000000000003e-02  6.4000000000000001e-01  0.0000000000000000e+00
5.0000000000000003e-02  6.4000000000000001e-01  0.0000000000000000e+00
-5.0000000000000003e-02  6.6000000000000003e-01  0.0000000000000000e+00
5.0000000000000003e-02  6.6000000000000003e-01  0.0000000000000000e+00
-5.0000000000000003e-02  6.8000000000000005e-01  0.0000000000000000e+00
5.0000000000000003e-02  6.8000000000000005e-01  0.0000000000000000e+00
-5.0000000000000003e-02  6.9999999999999996e-01  0.0000000000000000e+00
5.0000000000000003e-02  6.9999999999999996e-01  0.0000000000000000e+00
-5.0000000000000003e-02  7.1999999999999997e-01  0.0000000000000000e+00
5.0000000000000003e-02  7.1999999999999997e-01  0.0000000000000000e+00
-5.0000000000000003e-02  7.3999999999999999e-01  0.0000000000000000e+00
5.0000000000000003e-02  7.3999999999999999e-01  0.0000000000000000e+00
-5.0000000000000003e-02  7.6000000000000001e-01  0.0000000000000000e+00
5.0000000000000003e-02  7.6000000000000001e-01  0.0000000000000000e+00
-5.0000000000000003e-02  7.8000000000000003e-01  0.0000000000000000e+00
5.0000000000000003e-02  7.8000000000000003e-01  0.0000000000000000e+00
-5.0000000000000003e-02  8.0000000000000004e-01  0.0000000000000000e+00
5.0000000000000003e-02  8.0000000000000004e-01  0.0000000000000000e+00
-5.0000000000000003e-02  8.1999999999999995e-01  0.0000000000000000e+00
5.0000000000000003e-02  8.1999999999999995e-01  0.0000000000000000e+00
-5.0000000000000003e-02  8.3999999999999997e-01  0.0000000000000000e+00
5.0000000000000003e-02  8.3999999999999997e-01  0.0000000000000000e+00
-5.0000000000000003e-02  8.5999999999999999e-01  0.0000000000000000e+00
5.0000000000000003e-02  8.5999999999999999e-01  0.0000000000000000e+00
-5.0000000000000003e-02  8.8000000000000000e-01  0.0000000000000000e+00
5.0000000000000003e-02  8.8000000000000000e-01  0.0000000000000000e+00
-5.0000000000000003e-02  9.0000000000000002e-01  0.0000000000000000e+00
5.0000000000000003e-02  9.0000000000000002e-01  0.0000000000000000e+00
-5.0000000000000003e-02  9.2000000000000004e-01  0.0000000000000000e+00
5.0000000000000003e-02  9.2000000000000004e-01  0.0000000000000000e+00
-5.0000000000000003e-02  9.3999999999999995e-01  0.0000000000000000e+00
5.0000000000000003e-02  9.3999999999999995e-01  0.0000000000000000e+00
-5.0000000000000003e-02  9.5999999999999996e-01  0.0000000000000000e+00
5.0000000000000003e-02  9.5999999999999996e-01  0.0000000000000000e+00
-5.0000000000000003e-02  9.7999999999999998e-01  0.0000000000000000e+00
5.0000000000000003e-02  9.7999999999999998e-01  0.0000000000000000e+00
-5.0000000000000003e-02  1.0000000000000000e+00  0.0000000000000000e+00
-3.0000000000000002e-02  1.0000000000000000e+00  0.0000000000000000e+00
-1.0000000000000002e-02  1.0000000000000000e+00  0.0000000000000000e+00
1.0000000000000009e-02  1.0000000000000000e+00  0.0000000000000000e+00
2.9999999999999999e-02  1.0000000000000000e+00  0.0000000000000000e+00
5.0000000000000003e-02  1.0000000000000000e+00  0.0000000000000000e+00

CELLS 0 0


CELL_TYPES 0


POINT_DATA 106

VECTORS VertexNormals float

0.0000000000000000e+00 0.0000000000000000e+00 0
0.0000000000000000e+00 0.0000000000000000e+00 0
0.0000000000000000e+00 0.0000000000000000e+00 0
0.0000000000000000e+00 0.0000000000000000e+00 0
0.0000000000000000e+00 0.0000000000000000e+00 0
0.0000000000000000e+00 0.0000000000000000e+00 0
0.0000000000000000e+00 0.0000000000000000e+00 0
0.0000000000000000e+00 0.0000000000000000e+00 0
0.0000000000000000e+00 0.0000000000000000e+00 0
0.0000000000000000e+00 0.0000000000000000e+00 0
0.0000000000000000e+00 0.0000000000000000e+00 0
0.0000000000000000e+00 0.0000000000000000e+00 0
0.0000000000000000e+00 0.0000000000000000e+00 0
0.0000000000000000e+00 0.0000000000000000e+00 0
0.0000000000000000e+00 0.0000000000000000e+00 0
0.0000000000000000e+00 0.0000000000000000e+00 0
0.0000000000000000e+00 0.0000000000000000e+00 0
0.0000000000000000e+00 0.0000000000000000e+00 0
0.0000000000000000e+00 0.0000000000000000e+00 0
0.0000000000000000e+00 0.0000000000000000e+00 0
0.0000000000000000e+00 0.0000000000000000e+00 0
0.0000000000000000e+00 0.0000000000000000e+00 0
0.0000000000000000e+00 0.0000000000000000e+00 0
0.0000000000000000e+00 0.0000000000000000e+00 0
0.0000000000000000e+00 0.0000000000000000e+00 0
0.0000000000000000e+00 0.0000000000000000e+00 0
0.0000000000000000e+00 0.0000000000000000e+00 0
0.0000000000000000e+00 0.0000000000000000e+00 0
0.0000000000000000e+00 0.0000000000000000e+00 0
0.0000000000000000e+00 0.0000000000000000e+00 0
0.0000000000000000e+00 0.0000000000000000e+00 0
0.0000000000000000e+00 0.0000000000000000e+00 0
0.0000000000000000e+00 0.0000000000000000e+00 0
0.0000000000000000e+00 0.0000000000000000e+00 0
0.0000000000000000e+00 0.0000000000000000e+00 0
0.0000000000000000e+00 0.0000000000000000e+00 0
0.0000000000000000e+00 0.0000000000000000e+00 0
0.0000000000000000e+00 0.0000000000000000e+00 0
0.0000000000000000e+00 0.0000000000000000e+00 0
0.0000000000000000e+00 0.0000000000000000e+00 0
0.0000000000000000e+00 0.0000000000000000e+00 0
0.0000000000000000e+00 0.0000000000000000e+00 0
0.0000000000000000e+00 0.0000000000000000e+00 0
0.0000000000000000e+00 0.0000000000000000e+00 0
0.0000000000000000e+00 0.0000000000000000e+00 0
0.0000000000000000e+00 0.0000000000000000e+00 0
0.0000000000000000e+00 0.0000000000000000e+00 0
0.0000000000000000e+00 0.0000000000000000e+00 0
0.0000000000000000e+00 0.0000000000000000e+00 0
0.0000000000000000e+00 0.0000000000000000e+00 0
0.0000000000000000e+00 0.0000000000000000e+00 0
0.0000000000000000e+00 0.0000000000000000e+00 0
0.0000000000000000e+00 0.0000000000000000e+00 0
0.0000000000000000e+00 0.0000000000000000e+00 0
0.0000000000000000e+00 0.0000000000000000e+00 0
0.0000000000000000e+00 0.0000000000000000e+00 0
0.0000000000000000e+00 0.0000000000000000e+00 0
0.0000000000000000e+00 0.0000000000000000e+00 0
0.0000000000000000e+00 0.0000000000000000e+00 0
0.0000000000000000e+00 0.0000000000000000e+00 0
0.0000000000000000e+00 0.0000000000000000e+00 0
0.0000000000000000e+00 0.0000000000000000e+00 0
0.0000000000000000e+00 0.0000000000000000e+00 0
0.0000000000000000e+00 0.0000000000000000e+00 0
0.0000000000000000e+00 0.0000000000000000e+00 0
0.0000000000000000e+00 0.0000000000000000e+00 0
0.0000000000000000e+00 0.0000000000000000e+00 0
0.0000000000000000e+00 0.0000000000000000e+00 0
0.0000000000000000e+00 0.0000000000000000e+00 0
0.0000000000000000e+00 0.0000000000000000e+00 0
0.0000000000000000e+00 0.0000000000000000e+00 0
0.0000000000000000e+00 0.0000000000000000e+00 0
0.0000000000000000e+00 0.0000000000000000e+00 0
0.0000000000000000e+00 0.0000000000000000e+00 0
0.0000000000000000e+00 0.0000000000000000e+00 0
0.0000000000000000e+00 0.0000000000000000e+00 0
0.0000000000000000e+00 0.0000000000000000e+00 0
0.0000000000000000e+00 0.0000000000000000e+00 0
0.0000000000000000e+00 0.0000000000000000e+00 0
0.0000000000000000e+00 0.0000000000000000e+00 0
0.0000000000000000e+00 0.0000000000000000e+00 0
0.0000000000000000e+00 0.0000000000000000e+00 0
0.0000000000000000e+00 0.0000000000000000e+00 0
0.0000000000000000e+00 0.0000000000000000e+00 0
0.0000000000000000e+00 0.0000000000000000e+00 0
0.0000000000000000e+00 0.0000000000000000e+00 0
0.0000000000000000e+00 0.0000000000000000e+00 0
0.0000000000000000e+00 0.0000000000000000e+00 0
0.0000000000000000e+00 0.0000000000000000e+00 0
0.0000000000000000e+00 0.0000000000000000e+00 0
0.0000000000000000e+00 0.0000000000000000e+00 0
0.0000000000000000e+00 0.0000000000000000e+00 0
0.0000000000000000e+00 0.0000000000000000e+00 0
0.0000000000000000e+00 0.0000000000000000e+00 0
0.0000000000000000e+00 0.0000000000000000e+00 0
0.0000000000000000e+00 0.0000000000000000e+00 0
0.0000000000000000e+00 0.0000000000000000e+00 0
0.0000000000000000e+00 0.0000000000000000e+00 0
0.0000000000000000e+00 0.0000000000000000e+00 0
0.0000000000000000e+00 0.0000000000000000e+00 0
0.0000000000000000e+00 0.0000000000000000e+00 0
0.0000000000000000e+00 0.0000000000000000e+00 0
0.0000000000000000e+00 0.0000000000000000e+00 0
0.0000000000000000e+00 0.0000000000000000e+00 0
0.0000000000000000e+00 0.0000000000000000e+00 0
0.0000000000000000e+00 0.0000000000000000e+00 0

VECTORS Displacements1 float
-5.8231462607927494e-17 3.2532149769124076e-17 0
-1.4649141426686605e-22 6.0145841242528934e-23 0
1.9620382741410244e-06 9.0833218396522518e-07 0
1.8872886316622731e-06 -8.5821399832759164e-07 0
3.3702407015868863e-06 1.3019094749791316e-06 0
3.2500136665356497e-06 -1.2314803592073357e-06 0
4.3081250983891545e-06 1.3857760122292268e-06 0
4.2102909864402634e-06 -1.3030228375036807e-06 0
4.9658622292923520e-06 1.2731248028246820e-06 0
4.9126983752641753e-06 -1.1945783073401961e-06 0
6.7877853186929263e-06 9.7913747986993034e-07 0
6.5000365301559301e-06 -7.3644561759419641e-07 0
5.8838676403617094e-06 4.9912033555642291e-07 0
5.8136025753063704e-06 -4.0190652664368085e-07 0
6.2005912986032526e-06 3.7065773130335102e-07 0
6.0823775563657987e-06 -1.8504697657096370e-07 0
6.1781354211578520e-06 2.5632480238778874e-07 0
6.0639770650386459e-06 -4.2141168769737287e-08 0
5.9285779260358151e-06 2.7449295753744584e-07 0
5.8621422226131462e-06 -5.8212905141318268e-08 0
7.1742219047527342e-06 2.5692835912134450e-07 0
6.8825264908096906e-06 1.5442909722553861e-07 0
5.9696394391008071e-06 8.1551449894604860e-08 0
5.8959341841171634e-06 1.7218642709207568e-07 0
6.2236255501571464e-06 2.0461561102590341e-07 0
6.1107905802563784e-06 1.5332756517426016e-07 0
6.2494126785602601e-06 2.4329742033744085e-07 0
6.1441932059551239e-06 1.5350590917412307e-07 0
6.0656804593911189e-06 3.3215354525461378e-07 0
6.0054311107211907e-06 6.6645938362146422e-08 0
7.3453486695533159e-06 3.4362153222634817e-07 0
7.0985898482162193e-06 2.9262651043095553e-07 0
6.1360029558923653e-06 1.8509120133171125e-07 0
6.0630544473078398e-06 2.7261919980796209e-07 0
6.3955144542457354e-06 3.3044676315265266e-07 0
6.3000207603077539e-06 2.3990526015395739e-07 0
6.4335573027791729e-06 3.8147111313440825e-07 0
6.3472029448807682e-06 2.3473662148406863e-07 0
6.2615359419498178e-06 4.7982843027511995e-07 0
6.2157585247342943e-06 1.3779198042667990e-07 0
7.5654694387523831e-06 5.0683600212296812e-07 0
7.4026143250219520e-06 4.0128903735645641e-07 0
6.3699121248708694e-06 3.4467710697681314e-07 0
6.3029994859717189e-06 3.6104620887220748e-07 0
6.6487487235744029e-06 5.0016169095291634e-07 0
6.5810335522338555e-06 3.3089394296331614e-07 0
6.7057037615853671e-06 5.5990568244658393e-07 0
6.6496919983248854e-06 3.2799668694819115e-07 0
6.5519739039477147e-06 6.6819080314827863e-07 0
6.5268209705896522e-06 2.2017728821339969e-07 0
7.8870263758064572e-06 7.2477509747217059e-07 0
7.8495275245057916e-06 5.2679633832421196e-07 0
6.7090934591298450e-06 5.5425493359377457e-07 0
6.6510395075450214e-06 4.6937547393785846e-07 0
7.0088436177120234e-06 7.2833165411257378e-07 0
6.9809720351720401e-06 4.3900588329576866e-07 0
7.0896355880498375e-06 8.0435407512094586e-07 0
7.0758511128245815e-06 4.3615809820416373e-07 0
6.9619505150929328e-06 9.2869676477880901e-07 0
6.9629190511877656e-06 3.1265872114442707e-07 0
8.3357259441806456e-06 1.0337123996151468e-06 0
8.4779217571016209e-06 6.6838867707978016e-07 0
7.1969991586328162e-06 8.6430127088793085e-07 0
7.1480234850618609e-06 5.8973622075793571e-07 0
7.5434858019214468e-06 1.0808682305469066e-06 0
7.5594421075813284e-06 5.5718330340497707e-07 0
7.6771577896963695e-06 1.2155537208635898e-06 0
7.6950716119719710e-06 5.6044091528422502e-07 0
7.6104068978512841e-06 1.4329705207784714e-06 0
7.5923291677903255e-06 4.3058335072151940e-07 0
9.0966659943603962e-06 1.7206533649113553e-06 0
9.3733175097660646e-06 8.8026849548657080e-07 0
8.0210036668286256e-06 1.6641981276630040e-06 0
7.8138322380573347e-06 8.4088730581347972e-07 0
8.4389098402436727e-06 2.1449504647691204e-06 0
8.2681788882546320e-06 8.6212114554670092e-07 0
8.6529009425170128e-06 2.6028782797353743e-06 0
8.3859886650516009e-06 9.2156281003553047e-07 0
8.6468863544377030e-06 3.1793477191116095e-06 0
8.1941953383155757e-06 8.0564982699581648e-07 0
1.0110489699584688e-05 3.9814939754369180e-06 0
1.0189555470666505e-05 1.3219179732800179e-06 0
8.8832853155894692e-06 4.5711915241105434e-06 0
8.0585845557931729e-06 1.0269851215334427e-06 0
9.1986069914543925e-06 6.1121888361620724e-06 0
8.4631838754537900e-06 4.3746237760638299e-07 0
9.6003577900824544e-06 8.1627882290197430e-06 0
8.8366486608886487e-06 -6.8913874161501816e-07 0
1.0607826130862823e-05 1.0915776843864408e-05 0
9.7801936167188401e-06 -2.6207817950769691e-06 0
1.4894440071280969e-05 1.4408625458823143e-05 0
1.5110952800586101e-05 -4.1032071909305690e-06 0
1.7265067597633882e-05 1.6859962467856914e-05 0
1.6430443854689839e-05 -6.3767147203638399e-06 0
2.3073005164113373e-05 2.0317776240135272e-05 0
2.2759924838204883e-05 -8.5542836790672427e-06 0
2.9819245784155497e-05 2.3195134478155615e-05 0
2.9643291078939706e-05 -1.0372898769269893e-05 0
3.9419919799741645e-05 2.6149877026034603e-05 0
3.8819708371876750e-05 -1.1362513766968886e-05 0
4.6903376623566218e-05 2.6222680119206536e-05 0
4.6901843647004351e-05 1.8311777336750844e-05 0
4.5643772345972757e-05 1.0701693528772317e-05 0
4.5396841222390429e-05 3.9600393235629574e-06 0
4.6253714178544095e-05 -3.6495055234206893e-06 0
4.5994053159245425e-05 -1.2138738363607529e-05 0

VECTORS Displacements2 float
-5.8339878027279818e-17 3.2592739879632549e-17 0
-1.4780269611192311e-22 6.1569995629900701e-23 0
1.9812776710808035e-06 9.2802372868214268e-07 0
1.9051008685035776e-06 -8.7786529126248257e-07 0
3.4115530504814843e-06 1.3344736498311101e-06 0
3.2893271618812630e-06 -1.2629816859031529e-06 0
4.3729077516237355e-06 1.4258515471147210e-06 0
4.2739611160057108e-06 -1.3408321308404111e-06 0
5.0572733009437802e-06 1.3158904827469280e-06 0
5.0023271791616477e-06 -1.2347201004279889e-06 0
6.9054063199033587e-06 1.0169228337550611e-06 0
6.6148820477216574e-06 -7.7169363770537363e-07 0
6.0153917695108533e-06 5.2987289362371507e-07 0
5.9441697856123885e-06 -4.3000116299590787e-07 0
6.3443433900538819e-06 3.9378860544187295e-07 0
6.2243005452079318e-06 -2.0436791306334435e-07 0
6.3255890499773977e-06 2.7181004837973272e-07 0
6.2095917059808969e-06 -5.3040369581277749e-08 0
6.0755365244011646e-06 2.8625393880417600e-07 0
6.0076477395380662e-06 -6.4618117576207110e-08 0
7.3229034654393856e-06 2.6491114955174889e-07 0
7.0269471648156639e-06 1.5238552949564142e-07 0
6.1122543865976252e-06 8.7710609930088480e-08 0
6.0367303530395705e-06 1.7189593748260907e-07 0
6.3659583554759143e-06 2.1227206338171614e-07 0
6.2512837578347959e-06 1.5285035001331424e-07 0
6.3928779988723586e-06 2.5192504209356609e-07 0
6.2855085740404494e-06 1.5336904509965645e-07 0
6.2112537791329370e-06 3.4301901763553278e-07 0
6.1497620661340161e-06 6.5756204024704717e-08 0
7.4979159034992162e-06 3.5250909352140454e-07 0
7.2467023071945986e-06 2.9416093833867024e-07 0
6.2835468284207959e-06 1.9230059874244830e-07 0
6.2086182260079570e-06 2.7615571573262873e-07 0
6.5424163620285095e-06 3.4048402646993053e-07 0
6.4449936367941589e-06 2.4234509979631791e-07 0
6.5816808701577898e-06 3.9367786296820624e-07 0
6.4934817530192496e-06 2.3609559483154753e-07 0
6.4122105250070559e-06 4.9476657917909178e-07 0
6.3652725848758629e-06 1.3824602663838231e-07 0
7.7235036585933341e-06 5.2037280526872602e-07 0
7.5560765305326937e-06 4.0430104090143067e-07 0
6.5229739567606221e-06 3.5651720072966555e-07 0
6.4539843460705825e-06 3.6590082226464928e-07 0
6.8014464852664492e-06 5.1510813730286248e-07 0
6.7320144765173504e-06 3.3451322502013037e-07 0
6.8600896192701928e-06 5.7742368104112642e-07 0
6.8024794679965807e-06 3.3072771481029619e-07 0
6.7095794590019069e-06 6.8863468927418553e-07 0
6.6834953481904665e-06 2.2224701661835467e-07 0
8.0527467326059679e-06 7.4384624767519455e-07 0
8.0105276172640298e-06 5.3188482459284635e-07 0
6.8699905816506728e-06 5.7159805325976795e-07 0
6.8097955020224942e-06 4.7627409941674700e-07 0
7.1697045239269646e-06 7.4925444714813717e-07 0
7.1403685451505686e-06 4.4469853983706459e-07 0
7.2529791693679181e-06 8.2848000126250321e-07 0
7.2378963165376291e-06 4.4096467241473868e-07 0
7.1295053389017917e-06 9.5645529486837299e-07 0
7.1298114260423352e-06 3.1695918584343545e-07 0
8.5126469912171161e-06 1.0605884131812103e-06 0
8.6498311093427339e-06 6.7616260120373435e-07 0
7.3697662434733379e-06 8.9037159741890001e-07 0
7.3179873330799588e-06 5.9937752460284524e-07 0
7.7174568761960560e-06 1.1128385496121678e-06 0
7.7306034879094650e-06 5.6659462820300023e-07 0
7.8550214301780398e-06 1.2553894206773265e-06 0
7.8690291197482204e-06 5.7070426798645533e-07 0
7.7955372211173949e-06 1.4814466700296794e-06 0
7.7711785028277371e-06 4.4307984030993711e-07 0
9.2930201241923099e-06 1.7742706842946466e-06 0
9.5552816168854993e-06 9.0034886423443002e-07 0
8.2140540278601747e-06 1.7246359916107209e-06 0
7.9904432718469081e-06 8.6711036190691630e-07 0
8.6315269182452176e-06 2.2195216471647817e-06 0
8.4443972445528149e-06 8.9160106636588490e-07 0
8.8488869858711571e-06 2.6908378689635473e-06 0
8.5606472004307289e-06 9.5480515454499392e-07 0
8.8419594773497463e-06 3.2781966343615790e-06 0
8.3678759589005055e-06 8.4363800604421255e-07 0
1.0300377177699787e-05 4.0915811226889993e-06 0
1.0353598876824077e-05 1.3661011653503623e-06 0
9.0507234727424380e-06 4.7022270033572017e-06 0
8.2064829541278858e-06 1.0625800614628859e-06 0
9.3632950351200361e-06 6.2873614276166511e-06 0
8.6163417107173936e-06 4.4201672296799026e-07 0
9.7986645969544467e-06 8.3925939015634926e-06 0
9.0314262859711766e-06 -7.2524343276879395e-07 0
1.0880915749409026e-05 1.1195161519662222e-05 0
1.0053462193575598e-05 -2.6938524593616333e-06 0
1.5270207193450332e-05 1.4720272831749700e-05 0
1.5485255418990037e-05 -4.1973893579659234e-06 0
1.7740141813316345e-05 1.7189359956554876e-05 0
1.6907044954744120e-05 -6.4829962820244863e-06 0
2.3650615514949545e-05 2.0664751756196245e-05 0
2.3341790466916192e-05 -8.6714457500029594e-06 0
3.0504358520393903e-05 2.3554944264252173e-05 0
3.0330577656740657e-05 -1.0497355108211353e-05 0
4.0221352464746510e-05 2.6519771756290223e-05 0
3.9613255413526980e-05 -1.1489091009487352e-05 0
4.7824408471967040e-05 2.6595636765955918e-05 0
4.7815560136895175e-05 1.8568949608433502e-05 0
4.6545935459869224e-05 1.0856522075748346e-05 0
4.6291588612292480e-05 4.0222177698649271e-06 0
4.7148448927553202e-05 -3.6767018627220410e-06 0
4.6895789391070432e-05 -1.2269101155833837e-05 0

VECTORS Forces1 float
-6.1003004786857018e-01 3.6022448369577492e-01 0
-3.8088037255120777e-01 -2.2858480965383129e-01 0
7.9149000456144378e+00 -4.3809115959652365e+00 0
5.0702244894290409e+00 2.8042095908167068e+00 0
8.6696413961072682e+00 -1.3412655138602179e+00 0
5.5763185442228700e+00 8.5989149831473988e-01 0
5.5244697930414617e+00 2.2661912699715403e-01 0
3.5570980321327932e+00 -1.4404362860869369e-01 0
-8.3273304325281972e-01 -3.0185036176096251e-02 0
-5.3704931419014978e-01 1.9428339339875714e-02 0
2.1308242085622474e+01 1.4858401618819931e-02 0
1.3781591929596791e+01 1.3094692878039728e-02 0
-9.0864904188316609e-01 -9.7493604032675130e-04 0
-5.9099651252147101e-01 -1.5669151933401519e-03 0
6.1054350509062587e+00 7.9356553619039307e-04 0
3.9691043993053179e+00 1.5935670180876542e-02 0
6.1059321518476501e+00 6.6136635254366238e-04 0
3.9695208836716911e+00 1.6006973352158241e-02 0
-9.0992601566189446e-01 -3.7631152316071722e-04 0
-5.9183221213990944e-01 -2.1925711188839326e-03 0
2.1632652045778201e+01 3.6794840307272938e-04 0
1.4118782186432938e+01 1.0059937089597558e-01 0
-9.1602715346996599e-01 -7.8682834718700478e-04 0
-6.0030986037414891e-01 -5.3640586605590282e-03 0
6.1493698864902866e+00 3.6634313044650877e-03 0
4.0297012603870668e+00 3.8205520404494604e-02 0
6.1493804992010119e+00 3.6700807643903206e-03 0
4.0297468586069485e+00 3.8223145572484442e-02 0
-9.1608238597563629e-01 -8.3062990430179842e-04 0
-6.0054591119392153e-01 -5.5121282561718683e-03 0
2.1635579660929054e+01 3.0361315129726195e-02 0
1.4226882815833433e+01 1.6886388209075340e-01 0
-9.1255004817483087e-01 -2.3077762583695585e-03 0
-6.0314571156987207e-01 -8.3333256346518874e-03 0
6.1246492482097210e+00 1.4089482262935939e-02 0
4.0481374009305604e+00 5.8095724298670312e-02 0
6.1246106773295601e+00 1.4097575184733738e-02 0
4.0481634298657152e+00 5.8115907866095710e-02 0
-9.1225562534622973e-01 -2.4118825398928459e-03 0
-6.0320058772321605e-01 -8.4607825445259278e-03 0
2.1486020732604253e+01 7.5947665896184319e-02 0
1.4277340540654816e+01 2.3931718634310578e-01 0
-9.0354818778875479e-01 -4.7680236429989619e-03 0
-6.0453884748274578e-01 -1.1228943723172190e-02 0
6.0634380341463574e+00 3.0611283828447959e-02 0
4.0576237700465834e+00 7.7705070508148705e-02 0
6.0633594514747138e+00 3.0623255068758379e-02 0
4.0576447372474345e+00 7.7727873539677250e-02 0
-9.0298064643548559e-01 -4.9508431504755564e-03 0
-6.0450608264554917e-01 -1.1336485391175590e-02 0
2.1196599593268257e+01 1.5681209001673951e-01 0
1.4290652928718622e+01 3.0393798913485853e-01 0
-8.8773928407431824e-01 -9.1397357797796622e-03 0
-6.0404408837227996e-01 -1.3779001232798887e-02 0
5.9561568234351201e+00 5.9905951356318335e-02 0
4.0543866134531710e+00 9.5154099772786230e-02 0
5.9560375718381398e+00 5.9918801805205806e-02 0
4.0544055509035406e+00 9.5184327194164975e-02 0
-8.8693069724760876e-01 -9.4161304065857893e-03 0
-6.0394264106576590e-01 -1.3876655715773008e-02 0
2.0740182761837541e+01 2.6493423928377791e-01 0
1.4261621262694831e+01 3.7373427610745963e-01 0
-8.6741923994836367e-01 -1.4668563929143822e-02 0
-6.0305013691556419e-01 -1.6985850320851970e-02 0
5.8186140701480289e+00 9.6455501548456279e-02 0
4.0480797269367939e+00 1.1748342316890856e-01 0
5.8183990478810834e+00 9.6485047879583313e-02 0
4.0480758812695763e+00 1.1752077794711284e-01 0
-8.6614109535843331e-01 -1.5279467503804784e-02 0
-6.0277047174056630e-01 -1.7029674244167126e-02 0
2.0151360177286865e+01 5.2646008045396753e-01 0
1.4208936518353871e+01 4.2586787000906456e-01 0
-8.2838510442509006e-01 -3.0995866418418682e-02 0
-5.9496017073135177e-01 -1.8446687771789316e-02 0
5.5513334228064357e+00 2.0584886572970823e-01 0
3.9921550578281750e+00 1.2843976107169622e-01 0
5.5509492095982678e+00 2.0579079270053596e-01 0
3.9921258465400569e+00 1.2851865174440466e-01 0
-8.2813953392587036e-01 -3.1911679039756745e-02 0
-5.9606014471946800e-01 -1.8567552932222630e-02 0
1.9130870578359236e+01 7.1486699099244966e-01 0
1.4171381233134257e+01 6.1245306293651502e-01 0
-8.2419271365979430e-01 -3.8518465548423260e-02 0
-6.3381615310337436e-01 -2.7525546582510382e-02 0
5.5100350232740656e+00 2.4669602089594295e-01 0
4.2473931780144483e+00 1.9246572338875073e-01 0
5.5085422641514663e+00 2.4645160424941701e-01 0
4.2469241872460533e+00 1.9255865071780981e-01 0
-8.2537866859272668e-01 -4.3477204485165455e-02 0
-6.3660353342981246e-01 -2.5666923279402225e-02 0
1.9257100261571129e+01 2.2320194167031415e+00 0
1.5656526916181994e+01 1.6904446571307111e-01 0
-7.4985118992827104e-01 -1.6609674195040569e-01 0
-6.5914515727822465e-01 2.6766706413811330e-02 0
5.1439850979452020e+00 1.1079368865281849e+00 0
4.6101963585398007e+00 -1.0391644893486202e-01 0
4.1401942067430646e+00 7.9441699134981991e-01 0
3.7602973778793145e+00 -1.3080165840924271e-01 0
9.1598624151960841e+00 2.8350702122096720e+00 0
7.8081588123087027e+00 4.3196596581716185e-01 0
9.2387222154272119e-01 4.0195026723610355e-01 0
6.1205786047612305e+00 1.4848702799797897e+00 0
3.0557799159567893e+00 1.2832506953879952e+00 0
2.9307991747828059e+00 1.7724017925693460e+00 0
4.9671496592986699e+00 1.3890559689851054e+00 0
6.9410218822067948e-01 -1.7040353026154476e-01 0

VECTORS Forces2 float
5.5263005072212046e-01 -3.1659652872500554e-01 0
3.1277900810551706e-01 1.9507335095347153e-01 0
-6.9491666025579697e+00 3.8356341899287996e+00 0
-4.0153115387320444e+00 -2.2196107942009933e+00 0
-7.6086751821884775e+00 1.1772074619048900e+00 0
-4.4256286499519115e+00 -6.7932920133432273e-01 0
-4.8521802768513433e+00 -1.9628362235935942e-01 0
-2.8294465128100437e+00 1.1207015320844142e-01 0
7.3113392147818779e-01 2.5422142491204981e-02 0
4.2693314129768156e-01 -1.4922148704308344e-02 0
-1.8755964042613265e+01 -1.2190590111177233e-03 0
-1.1041813767614041e+01 2.2401539897577198e-02 0
8.0137576321517168e-01 8.2259973438601671e-05 0
4.7571577749884419e-01 -2.1488652319201227e-03 0
-5.3853768052852784e+00 8.8951658914270394e-04 0
-3.1967658995747774e+00 1.3431161235995359e-02 0
-5.3858058550594565e+00 1.0124585454890282e-03 0
-3.1970991307997170e+00 1.3416295616027174e-02 0
8.0266501430774095e-01 -4.1274688525745195e-04 0
4.7647960752475099e-01 -1.8611451401315700e-03 0
-1.9104652333658027e+01 2.9186224983303423e-03 0
-1.1372200544664940e+01 8.7055764775815961e-02 0
8.0872569913197145e-01 -8.3227450162439668e-05 0
4.8056252798474230e-01 -5.4572182960192757e-03 0
-5.4286715338849030e+00 -1.2813179903646916e-03 0
-3.2261688795252828e+00 3.8878568203035195e-02 0
-5.4286718297937790e+00 -1.2883219477927042e-03 0
-3.2261510758602476e+00 3.8910516800430027e-02 0
8.0873125862367745e-01 -1.0507208603357474e-04 0
4.8039029464956595e-01 -5.6016240637993403e-03 0
-1.9072131873308798e+01 -1.7274216303684040e-03 0
-1.1254874452427782e+01 1.8126878730530391e-01 0
8.0288052279872812e-01 -4.7262220297935057e-04 0
4.6956677833496485e-01 -9.1351173889526096e-03 0
-5.3873278762992314e+00 1.2279133291856566e-03 0
-3.1500809376196672e+00 6.3924782532481322e-02 0
-5.3872741995398341e+00 1.2221239127239132e-03 0
-3.1499917389827088e+00 6.3957813494989538e-02 0
8.0242402771223176e-01 -5.4135187303710293e-04 0
4.6877183051359661e-01 -9.2710479143216437e-03 0
-1.8846916500996439e+01 1.6884428589755748e-02 0
-1.0866508186990908e+01 2.6793809713521666e-01 0
7.8990428059458717e-01 -1.7321115089465530e-03 0
4.4790204719300747e-01 -1.2702059168585449e-02 0
-5.2988751955015685e+00 9.4394752416315283e-03 0
-3.0032895781988938e+00 8.8326216508704952e-02 0
-5.2987804156027165e+00 9.4356269485631247e-03 0
-3.0031395608120159e+00 8.8362918663914700e-02 0
7.8910815508137300e-01 -1.8774671858880329e-03 0
4.4656186447100882e-01 -1.2819194194713824e-02 0
-1.8445308555697029e+01 6.5291103649471299e-02 0
-1.0209837007286627e+01 3.5180182617370032e-01 0
7.6948499841033147e-01 -4.7253956238986292e-03 0
4.1403580713548743e-01 -1.6099289991417479e-02 0
-5.1602043161829947e+00 2.9147978664186253e-02 0
-2.7745262215780171e+00 1.1182868857140937e-01 0
-5.1600608963875105e+00 2.9138057801678434e-02 0
-2.7743048681722451e+00 1.1187685086142396e-01 0
7.6831046275847559e-01 -4.9555333685725612e-03 0
4.1201825728347069e-01 -1.6197961676576032e-02 0
-1.7865403057753078e+01 1.3677425953335626e-01 0
-9.2350169475380781e+00 4.4332350373731261e-01 0
7.4020238957198525e-01 -8.1722209152518249e-03 0
3.6455191237397994e-01 -2.0063866594558416e-02 0
-4.9614670588694789e+00 5.1097723486736871e-02 0
-2.4408274694420400e+00 1.3973852832591666e-01 0
-4.9612409071333792e+00 5.1076964185508479e-02 0
-2.4405072384268576e+00 1.3980546224346657e-01 0
7.3843842260659143e-01 -8.6579285223669679e-03 0
3.6147636649266629e-01 -2.0088498540858198e-02 0
-1.6983748167869546e+01 2.9414094930153728e-01 0
-7.7880051641861261e+00 5.2610083881996472e-01 0
6.9392249113740112e-01 -1.8250557950700977e-02 0
2.8850971914825091e-01 -2.2755763287816873e-02 0
-4.6465003471954072e+00 1.1671314215990179e-01 0
-1.9283058994855495e+00 1.5993554973489127e-01 0
-4.6461634957062543e+00 1.1655107311152313e-01 0
-1.9279835208831106e+00 1.6004915526256519e-01 0
6.9158559704589873e-01 -1.9177075642429479e-02 0
2.8436069657961011e-01 -2.2708310446085997e-02 0
-1.5733759520973448e+01 4.0191300876694169e-01 0
-5.7622731858020817e+00 6.3921197900318061e-01 0
6.3669231397264903e-01 -2.3065550683220727e-02 0
2.0458818461033118e-01 -2.8337923959866531e-02 0
-4.2577678503989063e+00 1.3494710968117765e-01 0
-1.3724839171516665e+00 2.0140607572542904e-01 0
-4.2567768948176639e+00 1.3411630785444648e-01 0
-1.3722353769472651e+00 2.0180489870781554e-01 0
6.3216424576456653e-01 -2.8288733458009575e-02 0
1.9461670973494832e-01 -2.6546895451187436e-02 0
-1.3495645938201399e+01 1.2528563311730407e+00 0
-2.9598974668984601e+00 7.1421993792650673e-01 0
4.6044397316937580e-01 -1.1042430176099230e-01 0
-4.7560259421832646e-02 -8.8102188715937311e-03 0
-2.9778186036270586e+00 7.0508221109577285e-01 0
3.2064157833744511e-01 1.9185734595555951e-01 0
-2.9560345693647880e+00 2.2048157588393347e-01 0
1.9947005400721467e-02 1.7047528878799811e-01 0
3.8137554420561204e-01 4.6160900169054520e+00 0
2.8257199167507929e+00 3.7762206977491430e-01 0
-2.4128795373489473e-01 4.6745706899639811e-01 0
7.7325872194802825e-01 4.4163187392060896e+00 0
1.2882134372550573e+00 3.4710660351526221e+00 0
1.0093648773505246e+00 3.1479427059666523e+00 0
1.6484648518425218e+00 1.0846774114022717e+00 0
3.8212786267979104e-01 -2.1620975213257784e-01 0

VECTORS Forces3 float
-4.2488528242629109e-02 2.9848884320805957e-02 0
-4.4247568373515664e-02 -2.3222772549993765e-02 0
6.4050863990800933e-01 -3.6457496437601228e-01 0
6.4040447861450578e-01 3.5953826752370188e-01 0
6.9404014602771635e-01 -1.1506132845966556e-01 0
6.9049155958763375e-01 1.1519792687072564e-01 0
4.3796173467107447e-01 1.5223510585136511e-02 0
4.3491510279215700e-01 -1.5154348869989332e-02 0
-6.6050767548810771e-02 -2.2597230635112648e-03 0
-6.5692771419348858e-02 2.0405224966440370e-03 0
1.6262807169754763e+00 -2.2312348709273084e-02 0
1.6034328706708063e+00 4.3750215012489699e-02 0
-6.7674950159924141e-02 4.0810260880486625e-04 0
-6.6775477239425229e-02 -2.5128698742319586e-03 0
4.5399881845520040e-01 -4.7246618200767650e-03 0
4.4716719802145827e-01 1.8900080177579583e-02 0
4.5403211580506569e-01 -4.7311792239974294e-03 0
4.4720700346225162e-01 1.8927622479532329e-02 0
-6.7620118001113921e-02 4.6498600181413822e-04 0
-6.6756885636227489e-02 -2.6793074525680071e-03 0
1.5891785326424488e+00 -7.0950521396534105e-03 0
1.5824979028355914e+00 9.5948870550773155e-02 0
-6.7329224138096222e-02 -8.1382183711646980e-06 0
-6.8670355833828911e-02 -5.4649106197992205e-03 0
4.5212345104094959e-01 -1.3417854465420354e-03 0
4.6075967332345691e-01 3.8551481536281899e-02 0
4.5212603950172553e-01 -1.3409160639208367e-03 0
4.6078913815255518e-01 3.8573920638766822e-02 0
-6.7338998813859768e-02 -4.2271655554928961e-05 0
-6.8860969986117820e-02 -5.6008137535510233e-03 0
1.6027567637706062e+00 1.3812064550753128e-03 0
1.6920038100850869e+00 1.7653219881438892e-01 0
-6.8133246015403923e-02 -6.6326814424920802e-04 0
-7.5255852494476611e-02 -8.8605997359020236e-03 0
4.5785502204962347e-01 3.0229892403639542e-03 0
5.0578144931851876e-01 6.1577006997207057e-02 0
4.5785840350992552e-01 3.0231303352694912e-03 0
5.0583541768540297e-01 6.1603025453588145e-02 0
-6.8183576261879764e-02 -7.3179728123211015e-04 0
-7.5652580123319060e-02 -8.9977767797641602e-03 0
1.6234687506554877e+00 2.6393213946951256e-02 0
1.8957702160876049e+00 2.5600495768522774e-01 0
-6.9168450647705576e-02 -2.1787711152642625e-03 0
-8.5909124146461360e-02 -1.2130618955773387e-02 0
4.6497759668971306e-01 1.3119736052846821e-02 0
5.7794248089469180e-01 8.3783903967469472e-02 0
4.6497902683039716e-01 1.3123316720963386e-02 0
5.7802203708940869e-01 8.3812257789006236e-02 0
-6.9229786194926327e-02 -2.3200051361616943e-03 0
-8.6513232246204594e-02 -1.2250569520049515e-02 0
1.6523159897354101e+00 8.1537255656925156e-02 0
2.2056740034768003e+00 3.3167274022342874e-01 0
-7.0169420556826026e-02 -5.4333496799862284e-03 0
-1.0138533495633907e-01 -1.5188434393001736e-02 0
4.7185155773833970e-01 3.4821183391674990e-02 0
6.8252954235039076e-01 1.0474441111109921e-01 0
4.7185283260067329e-01 3.4822110096712933e-02 0
6.8264079914606013e-01 1.0478053330934807e-01 0
-7.0262273387840468e-02 -5.6461118802182738e-03 0
-1.0226328518300785e-01 -1.5295798662361580e-02 0
1.6740561553617195e+00 1.5893354947241856e-01 0
2.6426114429339860e+00 4.1318297541776799e-01 0
-7.2161151984999714e-02 -9.0173182578030323e-03 0
-1.2352944093704392e-01 -1.8720045045781904e-02 0
4.8554847704873777e-01 5.8092384635993248e-02 0
8.3198966917328787e-01 1.2931792383701465e-01 0
4.8554303462724074e-01 5.8094462157281757e-02 0
8.3214074162060003e-01 1.2936266698483881e-01 0
-7.2296921815225484e-02 -9.4689171809901659e-03 0
-1.2484065180689384e-01 -1.8760854763933521e-02 0
1.7527975140715386e+00 3.2996368218208366e-01 0
3.2862792474689462e+00 4.7654383654339344e-01 0
-7.3898957367937460e-02 -1.9871786329220532e-02 0
-1.5621751752803806e-01 -2.0426799322525217e-02 0
4.9696676774620591e-01 1.2998257279385136e-01 0
1.0519260362879874e+00 1.4202232838553142e-01 0
4.9693833230852846e-01 1.2987384879931646e-01 0
1.0520696439644146e+00 1.4210613192257454e-01 0
-7.4696249699171421e-02 -2.0572917823483597e-02 0
-1.5859321448729657e-01 -2.0521599347475602e-02 0
1.8156914872290764e+00 4.1492388217119341e-01 0
4.2357727655538371e+00 6.0955471826904017e-01 0
-9.4136488246127512e-02 -2.1579972115248178e-02 0
-2.1089067154797789e-01 -2.8870125852642717e-02 0
6.2934881083452887e-01 1.3062809823389715e-01 0
1.4131252276716719e+00 2.0157299685160496e-01 0
6.2910763118145197e-01 1.3015197830142675e-01 0
1.4130272226854157e+00 2.0177182998630003e-01 0
-9.6048976521722854e-02 -2.5919959871865083e-02 0
-2.1627970825985396e-01 -2.7590743229697207e-02 0
2.6785089328009670e+00 1.3681710678109424e+00 0
6.0356382713082422e+00 5.8704654536550693e-01 0
-1.2113563271318632e-01 -1.1544212582466767e-01 0
-3.2492108459312929e-01 -3.1802071701433855e-03 0
9.0637945451434176e-01 7.6144391709065462e-01 0
2.2566804726792804e+00 1.1275375616842102e-01 0
5.0099507917275421e-01 4.0658087888518857e-01 0
1.7689941506167837e+00 7.0652429440531170e-02 0
3.9387810663806273e+00 3.3274154698821214e+00 0
4.4722135975652675e+00 5.5133244353505495e-01 0
2.8096481014086172e-01 3.7653854381027152e-01 0
2.7864800935053764e+00 2.6494895774491503e+00 0
1.6505139771946751e+00 2.2682045409590752e+00 0
1.4539257540280979e+00 2.3738768977079650e+00 0
2.6522748940465255e+00 1.3237317970547380e+00 0
4.7302813294873414e-01 -1.5335028684901411e-01 0

