# vtk DataFile Version 2.0

ASCII

DATASET UNSTRUCTURED_GRID

POINTS 106 float 

-5.0000000000000003e-02  0.0000000000000000e+00  0.0000000000000000e+00
5.0000000000000003e-02  0.0000000000000000e+00  0.0000000000000000e+00
-5.0000000000000003e-02  2.0000000000000000e-02  0.0000000000000000e+00
5.0000000000000003e-02  2.0000000000000000e-02  0.0000000000000000e+00
-5.0000000000000003e-02  4.0000000000000001e-02  0.0000000000000000e+00
5.0000000000000003e-02  4.0000000000000001e-02  0.0000000000000000e+00
-5.0000000000000003e-02  5.9999999999999998e-02  0.0000000000000000e+00
5.0000000000000003e-02  5.9999999999999998e-02  0.0000000000000000e+00
-5.0000000000000003e-02  8.0000000000000002e-02  0.0000000000000000e+00
5.0000000000000003e-02  8.0000000000000002e-02  0.0000000000000000e+00
-5.0000000000000003e-02  1.0000000000000001e-01  0.0000000000000000e+00
5.0000000000000003e-02  1.0000000000000001e-01  0.0000000000000000e+00
-5.0000000000000003e-02  1.2000000000000000e-01  0.0000000000000000e+00
5.0000000000000003e-02  1.2000000000000000e-01  0.0000000000000000e+00
-5.0000000000000003e-02  1.4000000000000001e-01  0.0000000000000000e+00
5.0000000000000003e-02  1.4000000000000001e-01  0.0000000000000000e+00
-5.0000000000000003e-02  1.6000000000000000e-01  0.0000000000000000e+00
5.0000000000000003e-02  1.6000000000000000e-01  0.0000000000000000e+00
-5.0000000000000003e-02  1.7999999999999999e-01  0.0000000000000000e+00
5.0000000000000003e-02  1.7999999999999999e-01  0.0000000000000000e+00
-5.0000000000000003e-02  2.0000000000000001e-01  0.0000000000000000e+00
5.0000000000000003e-02  2.0000000000000001e-01  0.0000000000000000e+00
-5.0000000000000003e-02  2.2000000000000000e-01  0.0000000000000000e+00
5.0000000000000003e-02  2.2000000000000000e-01  0.0000000000000000e+00
-5.0000000000000003e-02  2.3999999999999999e-01  0.0000000000000000e+00
5.0000000000000003e-02  2.3999999999999999e-01  0.0000000000000000e+00
-5.0000000000000003e-02  2.6000000000000001e-01  0.0000000000000000e+00
5.0000000000000003e-02  2.6000000000000001e-01  0.0000000000000000e+00
-5.0000000000000003e-02  2.8000000000000003e-01  0.0000000000000000e+00
5.0000000000000003e-02  2.8000000000000003e-01  0.0000000000000000e+00
-5.0000000000000003e-02  2.9999999999999999e-01  0.0000000000000000e+00
5.0000000000000003e-02  2.9999999999999999e-01  0.0000000000000000e+00
-5.0000000000000003e-02  3.2000000000000001e-01  0.0000000000000000e+00
5.0000000000000003e-02  3.2000000000000001e-01  0.0000000000000000e+00
-5.0000000000000003e-02  3.4000000000000002e-01  0.0000000000000000e+00
5.0000000000000003e-02  3.4000000000000002e-01  0.0000000000000000e+00
-5.0000000000000003e-02  3.5999999999999999e-01  0.0000000000000000e+00
5.0000000000000003e-02  3.5999999999999999e-01  0.0000000000000000e+00
-5.0000000000000003e-02  3.8000000000000000e-01  0.0000000000000000e+00
5.0000000000000003e-02  3.8000000000000000e-01  0.0000000000000000e+00
-5.0000000000000003e-02  4.0000000000000002e-01  0.0000000000000000e+00
5.0000000000000003e-02  4.0000000000000002e-01  0.0000000000000000e+00
-5.0000000000000003e-02  4.1999999999999998e-01  0.0000000000000000e+00
5.0000000000000003e-02  4.1999999999999998e-01  0.0000000000000000e+00
-5.0000000000000003e-02  4.4000000000000000e-01  0.0000000000000000e+00
5.0000000000000003e-02  4.4000000000000000e-01  0.0000000000000000e+00
-5.0000000000000003e-02  4.6000000000000002e-01  0.0000000000000000e+00
5.0000000000000003e-02  4.6000000000000002e-01  0.0000000000000000e+00
-5.0000000000000003e-02  4.7999999999999998e-01  0.0000000000000000e+00
5.0000000000000003e-02  4.7999999999999998e-01  0.0000000000000000e+00
-5.0000000000000003e-02  5.0000000000000000e-01  0.0000000000000000e+00
5.0000000000000003e-02  5.0000000000000000e-01  0.0000000000000000e+00
-5.0000000000000003e-02  5.2000000000000002e-01  0.0000000000000000e+00
5.0000000000000003e-02  5.2000000000000002e-01  0.0000000000000000e+00
-5.0000000000000003e-02  5.4000000000000004e-01  0.0000000000000000e+00
5.0000000000000003e-02  5.4000000000000004e-01  0.0000000000000000e+00
-5.0000000000000003e-02  5.6000000000000005e-01  0.0000000000000000e+00
5.0000000000000003e-02  5.6000000000000005e-01  0.0000000000000000e+00
-5.0000000000000003e-02  5.7999999999999996e-01  0.0000000000000000e+00
5.0000000000000003e-02  5.7999999999999996e-01  0.0000000000000000e+00
-5.0000000000000003e-02  5.9999999999999998e-01  0.0000000000000000e+00
5.0000000000000003e-02  5.9999999999999998e-01  0.0000000000000000e+00
-5.0000000000000003e-02  6.2000000000000000e-01  0.0000000000000000e+00
5.0000000000000003e-02  6.2000000000000000e-01  0.0000000000000000e+00
-5.0000000000000003e-02  6.4000000000000001e-01  0.0000000000000000e+00
5.0000000000000003e-02  6.4000000000000001e-01  0.0000000000000000e+00
-5.0000000000000003e-02  6.6000000000000003e-01  0.0000000000000000e+00
5.0000000000000003e-02  6.6000000000000003e-01  0.0000000000000000e+00
-5.0000000000000003e-02  6.8000000000000005e-01  0.0000000000000000e+00
5.0000000000000003e-02  6.8000000000000005e-01  0.0000000000000000e+00
-5.0000000000000003e-02  6.9999999999999996e-01  0.0000000000000000e+00
5.0000000000000003e-02  6.9999999999999996e-01  0.0000000000000000e+00
-5.0000000000000003e-02  7.1999999999999997e-01  0.0000000000000000e+00
5.0000000000000003e-02  7.1999999999999997e-01  0.0000000000000000e+00
-5.0000000000000003e-02  7.3999999999999999e-01  0.0000000000000000e+00
5.0000000000000003e-02  7.3999999999999999e-01  0.0000000000000000e+00
-5.0000000000000003e-02  7.6000000000000001e-01  0.0000000000000000e+00
5.0000000000000003e-02  7.6000000000000001e-01  0.0000000000000000e+00
-5.0000000000000003e-02  7.8000000000000003e-01  0.0000000000000000e+00
5.0000000000000003e-02  7.8000000000000003e-01  0.0000000000000000e+00
-5.0000000000000003e-02  8.0000000000000004e-01  0.0000000000000000e+00
5.0000000000000003e-02  8.0000000000000004e-01  0.0000000000000000e+00
-5.0000000000000003e-02  8.1999999999999995e-01  0.0000000000000000e+00
5.0000000000000003e-02  8.1999999999999995e-01  0.0000000000000000e+00
-5.0000000000000003e-02  8.3999999999999997e-01  0.0000000000000000e+00
5.0000000000000003e-02  8.3999999999999997e-01  0.0000000000000000e+00
-5.0000000000000003e-02  8.5999999999999999e-01  0.0000000000000000e+00
5.0000000000000003e-02  8.5999999999999999e-01  0.0000000000000000e+00
-5.0000000000000003e-02  8.8000000000000000e-01  0.0000000000000000e+00
5.0000000000000003e-02  8.8000000000000000e-01  0.0000000000000000e+00
-5.0000000000000003e-02  9.0000000000000002e-01  0.0000000000000000e+00
5.0000000000000003e-02  9.0000000000000002e-01  0.0000000000000000e+00
-5.0000000000000003e-02  9.2000000000000004e-01  0.0000000000000000e+00
5.0000000000000003e-02  9.2000000000000004e-01  0.0000000000000000e+00
-5.0000000000000003e-02  9.3999999999999995e-01  0.0000000000000000e+00
5.0000000000000003e-02  9.3999999999999995e-01  0.0000000000000000e+00
-5.0000000000000003e-02  9.5999999999999996e-01  0.0000000000000000e+00
5.0000000000000003e-02  9.5999999999999996e-01  0.0000000000000000e+00
-5.0000000000000003e-02  9.7999999999999998e-01  0.0000000000000000e+00
5.0000000000000003e-02  9.7999999999999998e-01  0.0000000000000000e+00
-5.0000000000000003e-02  1.0000000000000000e+00  0.0000000000000000e+00
-3.0000000000000002e-02  1.0000000000000000e+00  0.0000000000000000e+00
-1.0000000000000002e-02  1.0000000000000000e+00  0.0000000000000000e+00
1.0000000000000009e-02  1.0000000000000000e+00  0.0000000000000000e+00
2.9999999999999999e-02  1.0000000000000000e+00  0.0000000000000000e+00
5.0000000000000003e-02  1.0000000000000000e+00  0.0000000000000000e+00

CELLS 0 0


CELL_TYPES 0


POINT_DATA 106

VECTORS VertexNormals float

0.0000000000000000e+00 0.0000000000000000e+00 0
0.0000000000000000e+00 0.0000000000000000e+00 0
0.0000000000000000e+00 0.0000000000000000e+00 0
0.0000000000000000e+00 0.0000000000000000e+00 0
0.0000000000000000e+00 0.0000000000000000e+00 0
0.0000000000000000e+00 0.0000000000000000e+00 0
0.0000000000000000e+00 0.0000000000000000e+00 0
0.0000000000000000e+00 0.0000000000000000e+00 0
0.0000000000000000e+00 0.0000000000000000e+00 0
0.0000000000000000e+00 0.0000000000000000e+00 0
0.0000000000000000e+00 0.0000000000000000e+00 0
0.0000000000000000e+00 0.0000000000000000e+00 0
0.0000000000000000e+00 0.0000000000000000e+00 0
0.0000000000000000e+00 0.0000000000000000e+00 0
0.0000000000000000e+00 0.0000000000000000e+00 0
0.0000000000000000e+00 0.0000000000000000e+00 0
0.0000000000000000e+00 0.0000000000000000e+00 0
0.0000000000000000e+00 0.0000000000000000e+00 0
0.0000000000000000e+00 0.0000000000000000e+00 0
0.0000000000000000e+00 0.0000000000000000e+00 0
0.0000000000000000e+00 0.0000000000000000e+00 0
0.0000000000000000e+00 0.0000000000000000e+00 0
0.0000000000000000e+00 0.0000000000000000e+00 0
0.0000000000000000e+00 0.0000000000000000e+00 0
0.0000000000000000e+00 0.0000000000000000e+00 0
0.0000000000000000e+00 0.0000000000000000e+00 0
0.0000000000000000e+00 0.0000000000000000e+00 0
0.0000000000000000e+00 0.0000000000000000e+00 0
0.0000000000000000e+00 0.0000000000000000e+00 0
0.0000000000000000e+00 0.0000000000000000e+00 0
0.0000000000000000e+00 0.0000000000000000e+00 0
0.0000000000000000e+00 0.0000000000000000e+00 0
0.0000000000000000e+00 0.0000000000000000e+00 0
0.0000000000000000e+00 0.0000000000000000e+00 0
0.0000000000000000e+00 0.0000000000000000e+00 0
0.0000000000000000e+00 0.0000000000000000e+00 0
0.0000000000000000e+00 0.0000000000000000e+00 0
0.0000000000000000e+00 0.0000000000000000e+00 0
0.0000000000000000e+00 0.0000000000000000e+00 0
0.0000000000000000e+00 0.0000000000000000e+00 0
0.0000000000000000e+00 0.0000000000000000e+00 0
0.0000000000000000e+00 0.0000000000000000e+00 0
0.0000000000000000e+00 0.0000000000000000e+00 0
0.0000000000000000e+00 0.0000000000000000e+00 0
0.0000000000000000e+00 0.0000000000000000e+00 0
0.0000000000000000e+00 0.0000000000000000e+00 0
0.0000000000000000e+00 0.0000000000000000e+00 0
0.0000000000000000e+00 0.0000000000000000e+00 0
0.0000000000000000e+00 0.0000000000000000e+00 0
0.0000000000000000e+00 0.0000000000000000e+00 0
0.0000000000000000e+00 0.0000000000000000e+00 0
0.0000000000000000e+00 0.0000000000000000e+00 0
0.0000000000000000e+00 0.0000000000000000e+00 0
0.0000000000000000e+00 0.0000000000000000e+00 0
0.0000000000000000e+00 0.0000000000000000e+00 0
0.0000000000000000e+00 0.0000000000000000e+00 0
0.0000000000000000e+00 0.0000000000000000e+00 0
0.0000000000000000e+00 0.0000000000000000e+00 0
0.0000000000000000e+00 0.0000000000000000e+00 0
0.0000000000000000e+00 0.0000000000000000e+00 0
0.0000000000000000e+00 0.0000000000000000e+00 0
0.0000000000000000e+00 0.0000000000000000e+00 0
0.0000000000000000e+00 0.0000000000000000e+00 0
0.0000000000000000e+00 0.0000000000000000e+00 0
0.0000000000000000e+00 0.0000000000000000e+00 0
0.0000000000000000e+00 0.0000000000000000e+00 0
0.0000000000000000e+00 0.0000000000000000e+00 0
0.0000000000000000e+00 0.0000000000000000e+00 0
0.0000000000000000e+00 0.0000000000000000e+00 0
0.0000000000000000e+00 0.0000000000000000e+00 0
0.0000000000000000e+00 0.0000000000000000e+00 0
0.0000000000000000e+00 0.0000000000000000e+00 0
0.0000000000000000e+00 0.0000000000000000e+00 0
0.0000000000000000e+00 0.0000000000000000e+00 0
0.0000000000000000e+00 0.0000000000000000e+00 0
0.0000000000000000e+00 0.0000000000000000e+00 0
0.0000000000000000e+00 0.0000000000000000e+00 0
0.0000000000000000e+00 0.0000000000000000e+00 0
0.0000000000000000e+00 0.0000000000000000e+00 0
0.0000000000000000e+00 0.0000000000000000e+00 0
0.0000000000000000e+00 0.0000000000000000e+00 0
0.0000000000000000e+00 0.0000000000000000e+00 0
0.0000000000000000e+00 0.0000000000000000e+00 0
0.0000000000000000e+00 0.0000000000000000e+00 0
0.0000000000000000e+00 0.0000000000000000e+00 0
0.0000000000000000e+00 0.0000000000000000e+00 0
0.0000000000000000e+00 0.0000000000000000e+00 0
0.0000000000000000e+00 0.0000000000000000e+00 0
0.0000000000000000e+00 0.0000000000000000e+00 0
0.0000000000000000e+00 0.0000000000000000e+00 0
0.0000000000000000e+00 0.0000000000000000e+00 0
0.0000000000000000e+00 0.0000000000000000e+00 0
0.0000000000000000e+00 0.0000000000000000e+00 0
0.0000000000000000e+00 0.0000000000000000e+00 0
0.0000000000000000e+00 0.0000000000000000e+00 0
0.0000000000000000e+00 0.0000000000000000e+00 0
0.0000000000000000e+00 0.0000000000000000e+00 0
0.0000000000000000e+00 0.0000000000000000e+00 0
0.0000000000000000e+00 0.0000000000000000e+00 0
0.0000000000000000e+00 0.0000000000000000e+00 0
0.0000000000000000e+00 0.0000000000000000e+00 0
0.0000000000000000e+00 0.0000000000000000e+00 0
0.0000000000000000e+00 0.0000000000000000e+00 0
0.0000000000000000e+00 0.0000000000000000e+00 0
0.0000000000000000e+00 0.0000000000000000e+00 0
0.0000000000000000e+00 0.0000000000000000e+00 0

VECTORS Displacements1 float
-5.5965148380491178e-17 3.1266113046160093e-17 0
-1.1465232188183152e-22 3.3994762261220800e-23 0
1.5284853196821813e-06 5.3984655144816449e-07 0
1.4792488346819192e-06 -4.9728122747279481e-07 0
2.5471436862195425e-06 7.1850423220284860e-07 0
2.4549590281640942e-06 -6.6340992101103341e-07 0
3.0360982155602746e-06 6.7841507542079145e-07 0
2.9590546261973186e-06 -6.1773636277036695e-07 0
3.2294695274598282e-06 5.4789681448649397e-07 0
3.1832954795399059e-06 -5.0056278316654564e-07 0
4.5818420111577302e-06 3.4648428916114686e-07 0
4.3412857932910234e-06 -1.5172231291848325e-07 0
3.4616039226467279e-06 5.5538001083838687e-08 0
3.4133356173661138e-06 -5.6286445376691817e-09 0
3.7039736421724266e-06 8.2897586748940986e-08 0
3.6148429258744479e-06 4.5107432062751099e-08 0
3.6954294565969053e-06 5.3785338851503703e-08 0
3.6059576580804357e-06 9.0071797318758369e-08 0
3.4513037481502344e-06 1.0810860882359588e-07 0
3.4054105796815841e-06 2.1756089782953374e-08 0
4.6276071752188308e-06 1.2558145205157127e-07 0
4.3991428806140020e-06 1.8017716525099026e-07 0
3.4875953184753422e-06 -5.0989752388899811e-09 0
3.4388914368013415e-06 1.5059207630605891e-07 0
3.7726332310510503e-06 1.0284689593317466e-07 0
3.6879732168365513e-06 1.2990426754868609e-07 0
3.7865536401582358e-06 9.6942185658610182e-08 0
3.7026453070870136e-06 1.5549421699953532e-07 0
3.5375259765125623e-06 1.5780148628082079e-07 0
3.4943991371125771e-06 7.7003472660715315e-08 0
4.7129586900993386e-06 1.8501714461913359e-07 0
4.5258657830916839e-06 2.5855630498503345e-07 0
3.5763148943962251e-06 5.6823269480266253e-08 0
3.5264543298344289e-06 2.0589971508405673e-07 0
3.8707501923763257e-06 1.6758185888635644e-07 0
3.8001039730173084e-06 1.8977397196930569e-07 0
3.8946553477115823e-06 1.6340577906289971e-07 0
3.8237936578968714e-06 2.1809058063282123e-07 0
3.6540968640248815e-06 2.2682926802283949e-07 0
3.6157161403179970e-06 1.3177364451150962e-07 0
4.8450660211832944e-06 2.6456793658149471e-07 0
4.7338029449306546e-06 3.4661742145181699e-07 0
3.7162718794425079e-06 1.3323336477671162e-07 0
3.6665361038177194e-06 2.7173686302027053e-07 0
4.0242498389957686e-06 2.5189361828129520e-07 0
3.9766451864589881e-06 2.5746986207453913e-07 0
4.0603353121404229e-06 2.5314829331299637e-07 0
4.0109500635674062e-06 2.8745191411118912e-07 0
3.8291251813893981e-06 3.2240341792630060e-07 0
3.7976842061119470e-06 1.8853372726585672e-07 0
5.0387010157377010e-06 3.8369077024519720e-07 0
5.0410960845893906e-06 4.3838126105616560e-07 0
3.9202701655853748e-06 2.4355692049062281e-07 0
3.8714698793971668e-06 3.4212277093208002e-07 0
4.2431210351743400e-06 3.7579272598378244e-07 0
4.2289239977688916e-06 3.2811260450728042e-07 0
4.2941815527803226e-06 3.8603699747363572e-07 0
4.2757923677964013e-06 3.6032570559948125e-07 0
4.0749975998305448e-06 4.6250062115847134e-07 0
4.0519421723082118e-06 2.4561293656277636e-07 0
5.3034052232103055e-06 5.5986110786459689e-07 0
5.4690358362465006e-06 5.3610110347630147e-07 0
4.2091832100068213e-06 4.1224412308946020e-07 0
4.1600917324872077e-06 4.1423233148626860e-07 0
4.5626455050378306e-06 5.6609531277863123e-07 0
4.5905399325310845e-06 3.9819977207038216e-07 0
4.6428735801511720e-06 5.9596444057750257e-07 0
4.6631833143223798e-06 4.3073332624491083e-07 0
4.4499982198222006e-06 6.9824790821259127e-07 0
4.4341424612573136e-06 2.8961440723256069e-07 0
5.7425197208037064e-06 8.8095229022707286e-07 0
6.1146546739798353e-06 6.2507505523305507e-07 0
4.6775928083557683e-06 7.2676404350920082e-07 0
4.6061657802609014e-06 4.8648741170226897e-07 0
5.0834535732540927e-06 9.8206919082606288e-07 0
5.1280678064881252e-06 4.7498036151010994e-07 0
5.2349774673246503e-06 1.1464290502123214e-06 0
5.2204352499974240e-06 5.2411849659918683e-07 0
5.1177796558882360e-06 1.4384276139789210e-06 0
4.9503545854066978e-06 3.6297773006445879e-07 0
6.5245717331536992e-06 1.9801390787434459e-06 0
6.9807131852962250e-06 7.6862494445287675e-07 0
5.5771506269789329e-06 2.2313953449955690e-06 0
5.1244308068060405e-06 5.2281874958767689e-07 0
6.1024954375748879e-06 3.0938798563100745e-06 0
5.7384155478809479e-06 3.3394266528049778e-07 0
6.2701922899656497e-06 4.1670802415766576e-06 0
5.7608110577265812e-06 -5.9202391582580690e-08 0
6.3117359431611104e-06 5.8746342179659390e-06 0
5.5644683974978363e-06 -1.1916993140194206e-06 0
8.9210712268706470e-06 8.5111695983863385e-06 0
9.1636539221112675e-06 -2.1010593501895196e-06 0
9.4080649331794748e-06 1.0463337939373523e-05 0
8.5131591741408696e-06 -3.9864889419454314e-06 0
1.3163657894087281e-05 1.3563381409681658e-05 0
1.2767108628079844e-05 -5.9056625007671603e-06 0
1.7808277425155375e-05 1.6224452618482149e-05 0
1.7451767989495514e-05 -7.5219546016276354e-06 0
2.5240015574231787e-05 1.9052877764976446e-05 0
2.4357985519769000e-05 -8.4250140412960510e-06 0
3.0606282898894175e-05 1.9138945735547444e-05 0
3.0613403156548984e-05 1.3315594354564065e-05 0
2.9347333575131837e-05 7.6540566235503359e-06 0
2.8962359117369978e-05 2.7485276293991560e-06 0
2.9627837938273916e-05 -2.8669434761751535e-06 0
2.9270758988971704e-05 -9.1634644771102517e-06 0

VECTORS Displacements2 float
-5.6111304046492472e-17 3.1347609798170491e-17 0
-1.1636090368030372e-22 3.5261031159994074e-23 0
1.5513894030874700e-06 5.5787877414808356e-07 0
1.5009767277890593e-06 -5.1476829934385866e-07 0
2.5900528322256542e-06 7.4471446651859211e-07 0
2.4967236758350997e-06 -6.8954882739153368e-07 0
3.0979742475622885e-06 7.0870901860213675e-07 0
3.0207771135746930e-06 -6.4744228861423094e-07 0
3.3115664869029892e-06 5.7752974012435923e-07 0
3.2654967639735569e-06 -5.2904068070725389e-07 0
4.6829672885447208e-06 3.7099545548455298e-07 0
4.4400914905669102e-06 -1.7467020978977993e-07 0
3.5698488799890737e-06 7.0605566960602295e-08 0
3.5208098378712499e-06 -1.8824803429358832e-08 0
3.8116644466715894e-06 9.0839949480153423e-08 0
3.7214884191667570e-06 3.9554268054782475e-08 0
3.7996742791991089e-06 5.9398706280272456e-08 0
3.7093339851980822e-06 8.7684249226543233e-08 0
3.5561113806822011e-06 1.1247026405207275e-07 0
3.5098482100330813e-06 2.0746906515446147e-08 0
4.7352453609991679e-06 1.3019150890560651e-07 0
4.5043732597876611e-06 1.8010488345620873e-07 0
3.5951423424885544e-06 -1.3922737925883186e-09 0
3.5456006036570944e-06 1.5172518214594689e-07 0
3.8791757381086632e-06 1.0659022030388658e-07 0
3.7937455899814362e-06 1.3182305099662571e-07 0
3.8935366374657723e-06 1.0252320266745979e-07 0
3.8085258339899829e-06 1.5622451172931661e-07 0
3.6463493433056252e-06 1.6346187422845101e-07 0
3.6031702225749971e-06 7.8321629973211127e-08 0
4.8240762840977409e-06 1.9157827188786261e-07 0
4.6346965458903692e-06 2.6023119719692579e-07 0
3.6868501914835195e-06 6.3453204689545042e-08 0
3.6363886032944281e-06 2.0781457743552013e-07 0
3.9802968494455839e-06 1.7445067342722321e-07 0
3.9088172124200571e-06 1.9254615291098786e-07 0
4.0049180453474949e-06 1.7227402812200027e-07 0
3.9330232128425083e-06 2.1951265641462894e-07 0
3.7662465639131842e-06 2.3586944500955557e-07 0
3.7280603124761544e-06 1.3372873872715478e-07 0
4.9597524252065838e-06 2.7473364921192656e-07 0
4.8465042744205088e-06 3.4916435245578498e-07 0
3.8309654758869100e-06 1.4334057103880334e-07 0
3.7809496995110582e-06 2.7476497710642059e-07 0
4.1383398858136653e-06 2.6232197061623101e-07 0
4.0898625676996313e-06 2.6150707760645669e-07 0
4.1753866456879606e-06 2.6564224712830838e-07 0
4.1250343062733901e-06 2.9004874391329207e-07 0
3.9463114927447160e-06 3.3525586682897001e-07 0
3.9155319964504213e-06 1.9173794895588056e-07 0
5.1588332885140644e-06 3.9806217879904712e-07 0
5.1596918710508632e-06 4.4232634613168154e-07 0
4.0409849425006767e-06 2.5802185853621028e-07 0
3.9922818664154882e-06 3.4673851173244982e-07 0
4.3637103928797257e-06 3.9072058252937462e-07 0
4.3485163993312787e-06 3.3392637628820286e-07 0
4.4159646942076321e-06 4.0324132007576702e-07 0
4.3966135327163857e-06 3.6452447165867712e-07 0
4.1992908145631631e-06 4.8036630502495269e-07 0
4.1774601030687698e-06 2.5045806259411382e-07 0
5.4312383324450552e-06 5.7979734759542208e-07 0
5.5959442668793239e-06 5.4186272483747719e-07 0
4.3386170668538991e-06 4.3265278071132485e-07 0
4.2901136069779709e-06 4.2082167359609378e-07 0
4.6928692480649952e-06 5.8741658659341054e-07 0
4.7195086242704070e-06 4.0616601013064003e-07 0
4.7750343636877292e-06 6.2035707390048682e-07 0
4.7941766505711022e-06 4.3656432870915786e-07 0
4.5852963640415147e-06 7.2433981423416671e-07 0
4.5711764992742751e-06 2.9631026060715489e-07 0
5.8830549386643824e-06 9.1226822461554368e-07 0
6.2540303411963816e-06 6.3315885280927450e-07 0
4.8225962263390324e-06 7.6273779586218839e-07 0
4.7488751489041437e-06 4.9694253048770904e-07 0
5.2310380380796708e-06 1.0255474642125354e-06 0
5.2677504225245630e-06 4.8835871764882853e-07 0
5.3868181997469741e-06 1.2016677018486642e-06 0
5.3614331541778268e-06 5.3651930760201450e-07 0
5.2741532307247479e-06 1.5076002322080552e-06 0
5.0970542767037078e-06 3.7718737114343274e-07 0
6.6881728937744977e-06 2.0666840951225873e-06 0
7.1265512899777448e-06 7.8471704246997207e-07 0
5.7383074256064145e-06 2.3339777786727666e-06 0
5.2688627579859565e-06 5.3821089329759826e-07 0
6.2548143302866189e-06 3.2221235137367718e-06 0
5.8671105034531353e-06 3.3961455565041311e-07 0
6.4213422019220749e-06 4.3374335281184845e-06 0
5.8887284369255227e-06 -8.3743634727106920e-08 0
6.4855695551054658e-06 6.0962963167750099e-06 0
5.7241277764906031e-06 -1.2554053688049924e-06 0
9.1569598373599022e-06 8.7849368762887483e-06 0
9.3878832958359339e-06 -2.2025574855051685e-06 0
9.7307407561346222e-06 1.0772013708127033e-05 0
8.8322816455657150e-06 -4.1178689231780709e-06 0
1.3585826907321362e-05 1.3892267582522880e-05 0
1.3190279393886560e-05 -6.0521806910124435e-06 0
1.8336228028527794e-05 1.6563892400410367e-05 0
1.7987469906739648e-05 -7.6810679184930561e-06 0
2.5869990958768588e-05 1.9394297922225299e-05 0
2.5010773649067884e-05 -8.5865181902694861e-06 0
3.1329204514685973e-05 1.9478547786932878e-05 0
3.1337081312026863e-05 1.3561333671066566e-05 0
3.0078430685612092e-05 7.8088320850724009e-06 0
2.9707717519888657e-05 2.8052849812858682e-06 0
3.0387150386779986e-05 -2.9173720694831345e-06 0
3.0033936772546424e-05 -9.3260749335937912e-06 0

VECTORS Forces1 float
-4.7244989865684522e-01 2.8038118471243656e-01 0
-3.1414923671165523e-01 -1.8704372738974018e-01 0
6.1620502956827590e+00 -3.4113816392360650e+00 0
4.1839818705043479e+00 2.3138207049051442e+00 0
6.7529382222946905e+00 -1.0453237660027987e+00 0
4.6010946405512669e+00 7.1107861421930840e-01 0
4.3034573737318640e+00 1.7553387226428716e-01 0
2.9347709635195360e+00 -1.1773798629320453e-01 0
-6.4866491643345880e-01 -2.3462960346525685e-02 0
-4.4302981115893081e-01 1.5869105649701874e-02 0
1.6586836732546214e+01 1.0058845240717212e-02 0
1.1350951786947951e+01 1.6979601701813823e-02 0
-7.0533714355123389e-01 -8.9616922290852144e-04 0
-4.8465271779663904e-01 -1.5261751426009081e-03 0
4.7389582752860644e+00 1.1054642017992900e-03 0
3.2543853282663253e+00 1.4939913643005214e-02 0
4.7393345527001918e+00 1.0045601527866326e-03 0
3.2547112026511407e+00 1.5004024868633194e-02 0
-7.0618557604963872e-01 -4.2084174815606084e-04 0
-4.8522759171027552e-01 -2.0484006767865818e-03 0
1.6739789795506915e+01 -1.2193103599139495e-03 0
1.1530895205221807e+01 9.6673310472651819e-02 0
-7.0809370076054723e-01 -4.8474159014600505e-04 0
-4.9006008866882428e-01 -5.2682674132666319e-03 0
4.7531798256452156e+00 1.5620264917823032e-03 0
3.2891184962686304e+00 3.7572101327562071e-02 0
4.7531788318125985e+00 1.5659659807416026e-03 0
3.2891541089465663e+00 3.7590689528490616e-02 0
-7.0805256126964711e-01 -5.1660278862880062e-04 0
-4.9022895703786651e-01 -5.4099761957222426e-03 0
1.6718395502415063e+01 2.0388812731165135e-02 0
1.1627229335782989e+01 1.6437516694322493e-01 0
-7.0480283320822201e-01 -1.7451190098382321e-03 0
-4.9358734181297986e-01 -8.0757001768883372e-03 0
4.7304590162558249e+00 1.0222677481483391e-02 0
3.3128463745964574e+00 5.6383856509608497e-02 0
4.7304263553177774e+00 1.0227949670741554e-02 0
3.3128780740771191e+00 5.6404411020781836e-02 0
-7.0455070536155040e-01 -1.8348113867737300e-03 0
-4.9371661173275477e-01 -8.1946411881127380e-03 0
1.6586611133294483e+01 5.7188512061979772e-02 0
1.1706758257220176e+01 2.3263405148780450e-01 0
-6.9734447616701667e-01 -3.7602882765004277e-03 0
-4.9703007191859833e-01 -1.0894838858962688e-02 0
4.6798607416782998e+00 2.3700288922057448e-02 0
3.3361865811009648e+00 7.5525552983550792e-02 0
4.6797984926160350e+00 2.3708490468141857e-02 0
3.3362215830857198e+00 7.5549188310510274e-02 0
-6.9689383743740008e-01 -3.9234934652643281e-03 0
-4.9715692975267511e-01 -1.0995564811384043e-02 0
1.6358644003697126e+01 1.2644791436788552e-01 0
1.1794159594618153e+01 2.9527484218112721e-01 0
-6.8508456321746980e-01 -7.6243170392061351e-03 0
-5.0074485416005410e-01 -1.3374418543417393e-02 0
4.5968366308826978e+00 4.9541789368606211e-02 0
3.3613924291300079e+00 9.2541713984473556e-02 0
4.5967453111533194e+00 4.9548969289702989e-02 0
3.3614363466953550e+00 9.2572651652336066e-02 0
-6.8446724284677629e-01 -7.8710637611301495e-03 0
-5.0091904042334834e-01 -1.3458187663207413e-02 0
1.6007859363121064e+01 2.2001455560403557e-01 0
1.1893269430610713e+01 3.6304945603559963e-01 0
-6.6969961923872290e-01 -1.2225415587147008e-02 0
-5.0644552225474604e-01 -1.6276556852503316e-02 0
4.4928814489645186e+00 7.9737906197411737e-02 0
3.4001444553327409e+00 1.1284897720452730e-01 0
4.4927282652233442e+00 7.9755139260100555e-02 0
3.4001832196484840e+00 1.1288742791912018e-01 0
-6.6881586016130701e-01 -1.2769167692476132e-02 0
-5.0664834458354524e-01 -1.6291303438194280e-02 0
1.5590122057996027e+01 4.3986867079011799e-01 0
1.2049608933495842e+01 4.0312629286139412e-01 0
-6.4355695241883726e-01 -2.6289137306362335e-02 0
-5.1064372470265185e-01 -1.7223566821144277e-02 0
4.3140964536830380e+00 1.7359717326647653e-01 0
3.4272097811341995e+00 1.2043532706823989e-01 0
4.3138080892175461e+00 1.7352822077270094e-01 0
3.4271996677116516e+00 1.2051288734494379e-01 0
-6.4355171507582665e-01 -2.7193676335352624e-02 0
-5.1205684245911309e-01 -1.7267977027921301e-02 0
1.4915983578218636e+01 6.1362898128969712e-01 0
1.2274493867038480e+01 5.5766600829120827e-01 0
-6.4277052163714621e-01 -3.4706636480443941e-02 0
-5.4913787360196498e-01 -2.4293690521128453e-02 0
4.2973911144779890e+00 2.2047376632025331e-01 0
3.6778153730172711e+00 1.7108401975403884e-01 0
4.2962255029469132e+00 2.2016102552220898e-01 0
3.6773500958114722e+00 1.7121092221354578e-01 0
-6.4387398550723041e-01 -3.9633930839333031e-02 0
-5.5280118845996706e-01 -2.2359508950033899e-02 0
1.5049778475924255e+01 2.0344717857737868e+00 0
1.3690723990636961e+01 1.4549002057637545e-01 0
-5.9013344153386882e-01 -1.5431125340902291e-01 0
-6.0041649686299103e-01 2.7269357251755253e-02 0
4.0782237489738113e+00 1.0236952207354295e+00 0
4.1861512684112379e+00 -1.0195458657554664e-01 0
3.2168607999232166e+00 6.9725942943847019e-01 0
3.3835830201535719e+00 -1.2084742587064980e-01 0
7.9410858380917508e+00 2.9794181835126228e+00 0
7.3678351586113155e+00 3.5870100060460147e-01 0
7.5203247927139694e-01 4.0146116981222496e-01 0
5.3774413759430146e+00 1.8148925496011312e+00 0
2.8489689302082786e+00 1.5722356017801984e+00 0
2.7077680007368521e+00 1.9664821482867776e+00 0
4.6708373090703974e+00 1.3395952170209438e+00 0
6.8766167892290564e-01 -1.8424240865910510e-01 0

VECTORS Forces2 float
3.9359201741063027e-01 -2.2447951164997207e-01 0
2.3164005278718283e-01 1.4442720296790240e-01 0
-4.9212542758813322e+00 2.7138698644006802e+00 0
-2.9474598612692904e+00 -1.6278039461223648e+00 0
-5.3914296427420600e+00 8.3370861798385631e-01 0
-3.2510343356096096e+00 -4.9841047766953839e-01 0
-3.4397897543226339e+00 -1.3812087336131673e-01 0
-2.0798628638693577e+00 8.1718434204281237e-02 0
5.1824690557605180e-01 1.7805061786301715e-02 0
3.1369021593333235e-01 -1.0835385469045477e-02 0
-1.3299358606030250e+01 -1.8399484889131553e-03 0
-8.1153096386196495e+00 2.3938568945177933e-02 0
5.6671838855654544e-01 2.2415843183209500e-04 0
3.4778023265619162e-01 -2.2896963075879398e-03 0
-3.8081803378777432e+00 -9.7676462697259946e-04 0
-2.3370419327797731e+00 1.5170863971578711e-02 0
-3.8084724690893128e+00 -8.9093667261321929e-04 0
-2.3372669186152089e+00 1.5163393063730600e-02 0
5.6753437045794597e-01 -1.2137868796995846e-04 0
3.4822733400803452e-01 -2.1136578614083914e-03 0
-1.3464022179253375e+01 -2.0710894346412335e-03 0
-8.2598476283267122e+00 8.8533801653910435e-02 0
5.6917338058908706e-01 1.5382464406422219e-05 0
3.4778113036665148e-01 -5.2673203109104474e-03 0
-3.8201148805255118e+00 -1.8285197803507350e-03 0
-2.3343349187007059e+00 3.7474071121779369e-02 0
-3.8201044254248031e+00 -1.8341749619998425e-03 0
-2.3343037465526555e+00 3.7502331186545924e-02 0
5.6908667062660967e-01 -5.0233028098996144e-06 0
3.4751715295365443e-01 -5.4009359718119364e-03 0
-1.3410495609738620e+01 -5.2455135636902961e-03 0
-8.1188080270860521e+00 1.7402756734208011e-01 0
5.6394717094009261e-01 -2.5466934330670214e-04 0
3.3730087763855759e-01 -8.7309149211116325e-03 0
-3.7837790477491380e+00 -1.3373161152283427e-04 0
-2.2624796081325047e+00 6.1059471231340048e-02 0
-3.7837352235120099e+00 -1.3894409173509389e-04 0
-2.2623964648528720e+00 6.1089555882193378e-02 0
5.6356611352582975e-01 -3.1612415500887795e-04 0
3.3658579468732497e-01 -8.8584158560882798e-03 0
-1.3220036399869423e+01 1.1517935025075985e-02 0
-7.7626307511169452e+00 2.5405200917835719e-01 0
5.5346084960295605e-01 -1.4563254454731031e-03 0
3.1803839037397108e-01 -1.1983245023158161e-02 0
-3.7123597201375214e+00 7.7386137467421448e-03 0
-2.1320006094232484e+00 8.3279737660486935e-02 0
-3.7122874482001800e+00 7.7357155787673194e-03 0
-2.1318679033235863e+00 8.3312675494853689e-02 0
5.5283711760684306e-01 -1.5924807630302987e-03 0
3.1688533403425795e-01 -1.2088427066622090e-02 0
-1.2907541005479324e+01 5.7808729749180957e-02 0
-7.1935839721760777e+00 3.2960012447799142e-01 0
5.3794085951190906e-01 -4.2971849575576806e-03 0
2.8917193165473432e-01 -1.4987787713115666e-02 0
-3.6070493931825309e+00 2.6466882236126428e-02 0
-1.9370725705523226e+00 1.0406585292108274e-01 0
-3.6069426708330004e+00 2.6458927700858965e-02 0
-1.9368828101355797e+00 1.0410940012182483e-01 0
5.3704065879865304e-01 -4.5152973517467651e-03 0
2.8748161570016162e-01 -1.5076176693400545e-02 0
-1.2471460869409400e+01 1.2583026577490070e-01 0
-6.3727338156112507e+00 4.1106247977401261e-01 0
5.1564464851732583e-01 -7.6848403842182849e-03 0
2.4779615146369466e-01 -1.8612393744201785e-02 0
-3.4557356216002257e+00 4.8143024322727684e-02 0
-1.6580607745013820e+00 1.2959829571898610e-01 0
-3.4555818514772820e+00 4.8128896219253176e-02 0
-1.6577937632622854e+00 1.2965810364213456e-01 0
5.1438594214745148e-01 -8.1626996303622006e-03 0
2.4527746291586605e-01 -1.8627108627092652e-02 0
-1.1818495909618060e+01 2.8966901746375379e-01 0
-5.1747854349044911e+00 4.8343093577463914e-01 0
4.8465265877129093e-01 -1.8146235978019936e-02 0
1.8591190572538496e-01 -2.0705779848052601e-02 0
-3.2453069055376131e+00 1.1667039930526885e-01 0
-1.2412448622753527e+00 1.4556428068277305e-01 0
-3.2450747899463930e+00 1.1652140985711142e-01 0
-1.2409530502468618e+00 1.4567561575248064e-01 0
4.8268817853072310e-01 -1.8972906631107997e-02 0
1.8212427843521253e-01 -2.0689204114643128e-02 0
-1.0967456839765568e+01 3.7724865676268537e-01 0
-3.4540910009421069e+00 6.0917408485181967e-01 0
4.3342095551318049e-01 -2.0634856697216080e-02 0
1.0232809293477683e-01 -2.7664828092438573e-02 0
-2.8982629567009814e+00 1.2019176230106704e-01 0
-6.8559134576134040e-01 1.9646983280427821e-01 0
-2.8975977348434467e+00 1.1946555509269548e-01 0
-6.8539623744671785e-01 1.9682868991355543e-01 0
4.2914573672330736e-01 -2.5506987087032851e-02 0
9.3346205051017525e-02 -2.5856472284775549e-02 0
-8.8379343289695438e+00 1.2214042318176312e+00 0
-6.1934663553579161e-01 6.0596229231369980e-01 0
2.8659786410120103e-01 -1.0818031901431262e-01 0
-1.1655780694235353e-01 -1.9922346994753625e-03 0
-1.8150115838165839e+00 6.9258935727906168e-01 0
8.0899440337839768e-01 1.3188473533187944e-01 0
-1.9271802563022475e+00 2.5846995602639367e-01 0
4.5244146301261273e-01 1.2273248746221729e-01 0
1.5050865387464112e+00 4.1149965265560535e+00 0
3.3353999413878350e+00 2.5094474804001371e-01 0
-7.7989705399907280e-02 4.3598632002692622e-01 0
1.4187002450456969e+00 3.7731150463514176e+00 0
1.4438965040877154e+00 2.9373361176051644e+00 0
1.2025817966331442e+00 2.7291849430411750e+00 0
1.9964195289415525e+00 9.6841042351610851e-01 0
4.0234602786877560e-01 -2.0998626068321663e-01 0

VECTORS Forces3 float
-4.9593463546674106e-02 3.3944064027102941e-02 0
-4.9061043547085854e-02 -2.6352864612474828e-02 0
7.3492320577096470e-01 -4.1571920277038882e-01 0
7.0440524997024756e-01 3.9435879711935390e-01 0
7.9816119489262216e-01 -1.2918709611193838e-01 0
7.6173943294459390e-01 1.2462079077558411e-01 0
5.0449244782963343e-01 1.9370406075747661e-02 0
4.8062867912048518e-01 -1.8064204541348005e-02 0
-7.6093119627636485e-02 -2.8246455307654114e-03 0
-7.2621735382114277e-02 2.4495221176853272e-03 0
1.8888368331658334e+00 -1.4584048315642598e-02 0
1.7889536543024458e+00 3.7294331166970292e-02 0
-7.9293467754731603e-02 2.1569211999346083e-04 0
-7.5303140611263947e-02 -2.3225650651606321e-03 0
5.3219964088599614e-01 -3.4624653852223007e-03 0
5.0455189057727745e-01 1.7654507445501514e-02 0
5.3224160530352727e-01 -3.4714750413646707e-03 0
5.0460147898684293e-01 1.7682488872828969e-02 0
-7.9278517915131311e-02 2.8496666297173317e-04 0
-7.5331977525694455e-02 -2.4941031636715556e-03 0
1.8743858310813675e+00 -5.8545658073984484e-03 0
1.7983233263225635e+00 9.1894638236162382e-02 0
-7.9369199009091437e-02 2.1239401703705850e-05 0
-7.7937892113621926e-02 -5.2421733541961378e-03 0
5.3303081254066131e-01 -1.5552535441584012e-03 0
5.2303314177387494e-01 3.7036067522967626e-02 0
5.3303372723957088e-01 -1.5555662256377218e-03 0
5.2306493186354253e-01 3.7057930250240768e-02 0
-7.9382246558425837e-02 -3.5119614721838870e-06 0
-7.8145075341676751e-02 -5.3740530658212011e-03 0
1.8835984309417135e+00 -1.8159537766694878e-03 0
1.9105577690663724e+00 1.6990809181061492e-01 0
-7.9920603738377782e-02 -4.4854453164006367e-04 0
-8.4549053617004544e-02 -8.5007034188171200e-03 0
5.3696605981072298e-01 1.5701695935549519e-03 0
5.6811766943480091e-01 5.9120271124522256e-02 0
5.3696813536448251e-01 1.5694674485584694e-03 0
5.6817199261589024e-01 5.9145175329506278e-02 0
-7.9959573510475557e-02 -5.0913731043362477e-04 0
-8.4946677285986830e-02 -8.6300288832911898e-03 0
1.9003351441752003e+00 1.9637054176353808e-02 0
2.1165995662178685e+00 2.4486412665526514e-01 0
-8.0744041698277438e-02 -1.8200709281059643e-03 0
-9.5252827975156315e-02 -1.1563010382422873e-02 0
5.4268352095974492e-01 1.0708681219878084e-02 0
6.4062485840659367e-01 7.9916710275269989e-02 0
5.4268335428935677e-01 1.0711391901546290e-02 0
6.4070417470581986e-01 7.9943502971284289e-02 0
-8.0790603991248683e-02 -1.9520454085033795e-03 0
-9.5854003768649540e-02 -1.1672014118292435e-02 0
1.9217236700712150e+00 7.0620761162666204e-02 0
2.4251446718032348e+00 3.1502176956867745e-01 0
-8.1346458822234541e-02 -4.8474454788543214e-03 0
-1.1056831733902490e-01 -1.4344646298152774e-02 0
5.4686112208599480e-01 3.0876465975308028e-02 0
7.4409415266789547e-01 9.9004317496523248e-02 0
5.4686090390203235e-01 3.0876861115763352e-02 0
7.4420424423876597e-01 9.9038988209839904e-02 0
-8.1423410313207253e-02 -5.0522629174647379e-03 0
-1.1143837167087110e-01 -1.4442871123560604e-02 0
1.9340928809495010e+00 1.4312376279329048e-01 0
2.8566437658458179e+00 3.9025121367269466e-01 0
-8.3097309387198559e-02 -8.3564425697624269e-03 0
-1.3252403644336871e-01 -1.7731214421991812e-02 0
5.5898209918454533e-01 5.3681771785628635e-02 0
8.9227472323669377e-01 1.2261529640090493e-01 0
5.5897212939132179e-01 5.3684253801975723e-02 0
8.9242068505068972e-01 1.2265854439532098e-01 0
-8.3190046722931912e-02 -8.8023645322074136e-03 0
-1.3380081982514089e-01 -1.7763621525690859e-02 0
2.0019790154168886e+00 3.1445574126916132e-01 0
3.4900941411862010e+00 4.5055457847725922e-01 0
-8.3327785875087157e-02 -1.9137578384868837e-02 0
-1.6387787590746744e-01 -1.9182835567979045e-02 0
5.6008123388756437e-01 1.2512035423660026e-01 0
1.1030078502609384e+00 1.3358146638922491e-01 0
5.6004793859201718e-01 1.2501244959944799e-01 0
1.1031496678635953e+00 1.3366597617785508e-01 0
-8.4109976050665086e-02 -1.9805453835004892e-02 0
-1.6629184979481462e-01 -1.9269048766534579e-02 0
2.0251123629675547e+00 3.9050932263077998e-01 0
4.4136173906709910e+00 5.8370435635989537e-01 0
-1.0412148219210314e-01 -1.9960042620529125e-02 0
-2.2087329701540220e-01 -2.7677493144494310e-02 0
6.9635502197086263e-01 1.1997902861820658e-01 0
1.4799849154792946e+00 1.9364627471719748e-01 0
6.9611347432413262e-01 1.1951438005543821e-01 0
1.4798698542546731e+00 1.9384219638424927e-01 0
-1.0611546439495274e-01 -2.4171561088296326e-02 0
-2.2642119552227546e-01 -2.6316406129100182e-02 0
2.9498827143104398e+00 1.3091617756417868e+00 0
6.3234216264935572e+00 5.1769071862189842e-01 0
-1.3337296720019284e-01 -1.1152596524984526e-01 0
-3.3632117932470890e-01 1.0776504933762703e-03 0
9.9277899683635973e-01 7.3381445858122774e-01 0
2.3350255030790317e+00 8.0976164665454958e-02 0
5.7357913914786418e-01 3.9206501779534858e-01 0
1.8278152413160971e+00 4.7722434090265060e-02 0
4.0654390475463700e+00 3.2011158576279617e+00 0
4.6535903792642106e+00 4.6604491630261652e-01 0
2.9071144557377571e-01 3.6656615763367001e-01 0
2.8751822293807328e+00 2.5337967666119550e+00 0
1.7215558187299136e+00 2.1662365555201171e+00 0
1.5320348807766262e+00 2.2803203635446443e+00 0
2.7908372503235772e+00 1.2542190116264260e+00 0
4.9032944047532917e-01 -1.5824596118785722e-01 0

