# vtk DataFile Version 2.0

ASCII

DATASET UNSTRUCTURED_GRID

POINTS 106 float 

-5.0000000000000003e-02  0.0000000000000000e+00  0.0000000000000000e+00
5.0000000000000003e-02  0.0000000000000000e+00  0.0000000000000000e+00
-5.0000000000000003e-02  2.0000000000000000e-02  0.0000000000000000e+00
5.0000000000000003e-02  2.0000000000000000e-02  0.0000000000000000e+00
-5.0000000000000003e-02  4.0000000000000001e-02  0.0000000000000000e+00
5.0000000000000003e-02  4.0000000000000001e-02  0.0000000000000000e+00
-5.0000000000000003e-02  5.9999999999999998e-02  0.0000000000000000e+00
5.0000000000000003e-02  5.9999999999999998e-02  0.0000000000000000e+00
-5.0000000000000003e-02  8.0000000000000002e-02  0.0000000000000000e+00
5.0000000000000003e-02  8.0000000000000002e-02  0.0000000000000000e+00
-5.0000000000000003e-02  1.0000000000000001e-01  0.0000000000000000e+00
5.0000000000000003e-02  1.0000000000000001e-01  0.0000000000000000e+00
-5.0000000000000003e-02  1.2000000000000000e-01  0.0000000000000000e+00
5.0000000000000003e-02  1.2000000000000000e-01  0.0000000000000000e+00
-5.0000000000000003e-02  1.4000000000000001e-01  0.0000000000000000e+00
5.0000000000000003e-02  1.4000000000000001e-01  0.0000000000000000e+00
-5.0000000000000003e-02  1.6000000000000000e-01  0.0000000000000000e+00
5.0000000000000003e-02  1.6000000000000000e-01  0.0000000000000000e+00
-5.0000000000000003e-02  1.7999999999999999e-01  0.0000000000000000e+00
5.0000000000000003e-02  1.7999999999999999e-01  0.0000000000000000e+00
-5.0000000000000003e-02  2.0000000000000001e-01  0.0000000000000000e+00
5.0000000000000003e-02  2.0000000000000001e-01  0.0000000000000000e+00
-5.0000000000000003e-02  2.2000000000000000e-01  0.0000000000000000e+00
5.0000000000000003e-02  2.2000000000000000e-01  0.0000000000000000e+00
-5.0000000000000003e-02  2.3999999999999999e-01  0.0000000000000000e+00
5.0000000000000003e-02  2.3999999999999999e-01  0.0000000000000000e+00
-5.0000000000000003e-02  2.6000000000000001e-01  0.0000000000000000e+00
5.0000000000000003e-02  2.6000000000000001e-01  0.0000000000000000e+00
-5.0000000000000003e-02  2.8000000000000003e-01  0.0000000000000000e+00
5.0000000000000003e-02  2.8000000000000003e-01  0.0000000000000000e+00
-5.0000000000000003e-02  2.9999999999999999e-01  0.0000000000000000e+00
5.0000000000000003e-02  2.9999999999999999e-01  0.0000000000000000e+00
-5.0000000000000003e-02  3.2000000000000001e-01  0.0000000000000000e+00
5.0000000000000003e-02  3.2000000000000001e-01  0.0000000000000000e+00
-5.0000000000000003e-02  3.4000000000000002e-01  0.0000000000000000e+00
5.0000000000000003e-02  3.4000000000000002e-01  0.0000000000000000e+00
-5.0000000000000003e-02  3.5999999999999999e-01  0.0000000000000000e+00
5.0000000000000003e-02  3.5999999999999999e-01  0.0000000000000000e+00
-5.0000000000000003e-02  3.8000000000000000e-01  0.0000000000000000e+00
5.0000000000000003e-02  3.8000000000000000e-01  0.0000000000000000e+00
-5.0000000000000003e-02  4.0000000000000002e-01  0.0000000000000000e+00
5.0000000000000003e-02  4.0000000000000002e-01  0.0000000000000000e+00
-5.0000000000000003e-02  4.1999999999999998e-01  0.0000000000000000e+00
5.0000000000000003e-02  4.1999999999999998e-01  0.0000000000000000e+00
-5.0000000000000003e-02  4.4000000000000000e-01  0.0000000000000000e+00
5.0000000000000003e-02  4.4000000000000000e-01  0.0000000000000000e+00
-5.0000000000000003e-02  4.6000000000000002e-01  0.0000000000000000e+00
5.0000000000000003e-02  4.6000000000000002e-01  0.0000000000000000e+00
-5.0000000000000003e-02  4.7999999999999998e-01  0.0000000000000000e+00
5.0000000000000003e-02  4.7999999999999998e-01  0.0000000000000000e+00
-5.0000000000000003e-02  5.0000000000000000e-01  0.0000000000000000e+00
5.0000000000000003e-02  5.0000000000000000e-01  0.0000000000000000e+00
-5.0000000000000003e-02  5.2000000000000002e-01  0.0000000000000000e+00
5.0000000000000003e-02  5.2000000000000002e-01  0.0000000000000000e+00
-5.0000000000000003e-02  5.4000000000000004e-01  0.0000000000000000e+00
5.0000000000000003e-02  5.4000000000000004e-01  0.0000000000000000e+00
-5.0000000000000003e-02  5.6000000000000005e-01  0.0000000000000000e+00
5.0000000000000003e-02  5.6000000000000005e-01  0.0000000000000000e+00
-5.0000000000000003e-02  5.7999999999999996e-01  0.0000000000000000e+00
5.0000000000000003e-02  5.7999999999999996e-01  0.0000000000000000e+00
-5.0000000000000003e-02  5.9999999999999998e-01  0.0000000000000000e+00
5.0000000000000003e-02  5.9999999999999998e-01  0.0000000000000000e+00
-5.0000000000000003e-02  6.2000000000000000e-01  0.0000000000000000e+00
5.0000000000000003e-02  6.2000000000000000e-01  0.0000000000000000e+00
-5.0000000000000003e-02  6.4000000000000001e-01  0.0000000000000000e+00
5.0000000000000003e-02  6.4000000000000001e-01  0.0000000000000000e+00
-5.0000000000000003e-02  6.6000000000000003e-01  0.0000000000000000e+00
5.0000000000000003e-02  6.6000000000000003e-01  0.0000000000000000e+00
-5.0000000000000003e-02  6.8000000000000005e-01  0.0000000000000000e+00
5.0000000000000003e-02  6.8000000000000005e-01  0.0000000000000000e+00
-5.0000000000000003e-02  6.9999999999999996e-01  0.0000000000000000e+00
5.0000000000000003e-02  6.9999999999999996e-01  0.0000000000000000e+00
-5.0000000000000003e-02  7.1999999999999997e-01  0.0000000000000000e+00
5.0000000000000003e-02  7.1999999999999997e-01  0.0000000000000000e+00
-5.0000000000000003e-02  7.3999999999999999e-01  0.0000000000000000e+00
5.0000000000000003e-02  7.3999999999999999e-01  0.0000000000000000e+00
-5.0000000000000003e-02  7.6000000000000001e-01  0.0000000000000000e+00
5.0000000000000003e-02  7.6000000000000001e-01  0.0000000000000000e+00
-5.0000000000000003e-02  7.8000000000000003e-01  0.0000000000000000e+00
5.0000000000000003e-02  7.8000000000000003e-01  0.0000000000000000e+00
-5.0000000000000003e-02  8.0000000000000004e-01  0.0000000000000000e+00
5.0000000000000003e-02  8.0000000000000004e-01  0.0000000000000000e+00
-5.0000000000000003e-02  8.1999999999999995e-01  0.0000000000000000e+00
5.0000000000000003e-02  8.1999999999999995e-01  0.0000000000000000e+00
-5.0000000000000003e-02  8.3999999999999997e-01  0.0000000000000000e+00
5.0000000000000003e-02  8.3999999999999997e-01  0.0000000000000000e+00
-5.0000000000000003e-02  8.5999999999999999e-01  0.0000000000000000e+00
5.0000000000000003e-02  8.5999999999999999e-01  0.0000000000000000e+00
-5.0000000000000003e-02  8.8000000000000000e-01  0.0000000000000000e+00
5.0000000000000003e-02  8.8000000000000000e-01  0.0000000000000000e+00
-5.0000000000000003e-02  9.0000000000000002e-01  0.0000000000000000e+00
5.0000000000000003e-02  9.0000000000000002e-01  0.0000000000000000e+00
-5.0000000000000003e-02  9.2000000000000004e-01  0.0000000000000000e+00
5.0000000000000003e-02  9.2000000000000004e-01  0.0000000000000000e+00
-5.0000000000000003e-02  9.3999999999999995e-01  0.0000000000000000e+00
5.0000000000000003e-02  9.3999999999999995e-01  0.0000000000000000e+00
-5.0000000000000003e-02  9.5999999999999996e-01  0.0000000000000000e+00
5.0000000000000003e-02  9.5999999999999996e-01  0.0000000000000000e+00
-5.0000000000000003e-02  9.7999999999999998e-01  0.0000000000000000e+00
5.0000000000000003e-02  9.7999999999999998e-01  0.0000000000000000e+00
-5.0000000000000003e-02  1.0000000000000000e+00  0.0000000000000000e+00
-3.0000000000000002e-02  1.0000000000000000e+00  0.0000000000000000e+00
-1.0000000000000002e-02  1.0000000000000000e+00  0.0000000000000000e+00
1.0000000000000009e-02  1.0000000000000000e+00  0.0000000000000000e+00
2.9999999999999999e-02  1.0000000000000000e+00  0.0000000000000000e+00
5.0000000000000003e-02  1.0000000000000000e+00  0.0000000000000000e+00

CELLS 0 0


CELL_TYPES 0


POINT_DATA 106

VECTORS VertexNormals float

0.0000000000000000e+00 0.0000000000000000e+00 0
0.0000000000000000e+00 0.0000000000000000e+00 0
0.0000000000000000e+00 0.0000000000000000e+00 0
0.0000000000000000e+00 0.0000000000000000e+00 0
0.0000000000000000e+00 0.0000000000000000e+00 0
0.0000000000000000e+00 0.0000000000000000e+00 0
0.0000000000000000e+00 0.0000000000000000e+00 0
0.0000000000000000e+00 0.0000000000000000e+00 0
0.0000000000000000e+00 0.0000000000000000e+00 0
0.0000000000000000e+00 0.0000000000000000e+00 0
0.0000000000000000e+00 0.0000000000000000e+00 0
0.0000000000000000e+00 0.0000000000000000e+00 0
0.0000000000000000e+00 0.0000000000000000e+00 0
0.0000000000000000e+00 0.0000000000000000e+00 0
0.0000000000000000e+00 0.0000000000000000e+00 0
0.0000000000000000e+00 0.0000000000000000e+00 0
0.0000000000000000e+00 0.0000000000000000e+00 0
0.0000000000000000e+00 0.0000000000000000e+00 0
0.0000000000000000e+00 0.0000000000000000e+00 0
0.0000000000000000e+00 0.0000000000000000e+00 0
0.0000000000000000e+00 0.0000000000000000e+00 0
0.0000000000000000e+00 0.0000000000000000e+00 0
0.0000000000000000e+00 0.0000000000000000e+00 0
0.0000000000000000e+00 0.0000000000000000e+00 0
0.0000000000000000e+00 0.0000000000000000e+00 0
0.0000000000000000e+00 0.0000000000000000e+00 0
0.0000000000000000e+00 0.0000000000000000e+00 0
0.0000000000000000e+00 0.0000000000000000e+00 0
0.0000000000000000e+00 0.0000000000000000e+00 0
0.0000000000000000e+00 0.0000000000000000e+00 0
0.0000000000000000e+00 0.0000000000000000e+00 0
0.0000000000000000e+00 0.0000000000000000e+00 0
0.0000000000000000e+00 0.0000000000000000e+00 0
0.0000000000000000e+00 0.0000000000000000e+00 0
0.0000000000000000e+00 0.0000000000000000e+00 0
0.0000000000000000e+00 0.0000000000000000e+00 0
0.0000000000000000e+00 0.0000000000000000e+00 0
0.0000000000000000e+00 0.0000000000000000e+00 0
0.0000000000000000e+00 0.0000000000000000e+00 0
0.0000000000000000e+00 0.0000000000000000e+00 0
0.0000000000000000e+00 0.0000000000000000e+00 0
0.0000000000000000e+00 0.0000000000000000e+00 0
0.0000000000000000e+00 0.0000000000000000e+00 0
0.0000000000000000e+00 0.0000000000000000e+00 0
0.0000000000000000e+00 0.0000000000000000e+00 0
0.0000000000000000e+00 0.0000000000000000e+00 0
0.0000000000000000e+00 0.0000000000000000e+00 0
0.0000000000000000e+00 0.0000000000000000e+00 0
0.0000000000000000e+00 0.0000000000000000e+00 0
0.0000000000000000e+00 0.0000000000000000e+00 0
0.0000000000000000e+00 0.0000000000000000e+00 0
0.0000000000000000e+00 0.0000000000000000e+00 0
0.0000000000000000e+00 0.0000000000000000e+00 0
0.0000000000000000e+00 0.0000000000000000e+00 0
0.0000000000000000e+00 0.0000000000000000e+00 0
0.0000000000000000e+00 0.0000000000000000e+00 0
0.0000000000000000e+00 0.0000000000000000e+00 0
0.0000000000000000e+00 0.0000000000000000e+00 0
0.0000000000000000e+00 0.0000000000000000e+00 0
0.0000000000000000e+00 0.0000000000000000e+00 0
0.0000000000000000e+00 0.0000000000000000e+00 0
0.0000000000000000e+00 0.0000000000000000e+00 0
0.0000000000000000e+00 0.0000000000000000e+00 0
0.0000000000000000e+00 0.0000000000000000e+00 0
0.0000000000000000e+00 0.0000000000000000e+00 0
0.0000000000000000e+00 0.0000000000000000e+00 0
0.0000000000000000e+00 0.0000000000000000e+00 0
0.0000000000000000e+00 0.0000000000000000e+00 0
0.0000000000000000e+00 0.0000000000000000e+00 0
0.0000000000000000e+00 0.0000000000000000e+00 0
0.0000000000000000e+00 0.0000000000000000e+00 0
0.0000000000000000e+00 0.0000000000000000e+00 0
0.0000000000000000e+00 0.0000000000000000e+00 0
0.0000000000000000e+00 0.0000000000000000e+00 0
0.0000000000000000e+00 0.0000000000000000e+00 0
0.0000000000000000e+00 0.0000000000000000e+00 0
0.0000000000000000e+00 0.0000000000000000e+00 0
0.0000000000000000e+00 0.0000000000000000e+00 0
0.0000000000000000e+00 0.0000000000000000e+00 0
0.0000000000000000e+00 0.0000000000000000e+00 0
0.0000000000000000e+00 0.0000000000000000e+00 0
0.0000000000000000e+00 0.0000000000000000e+00 0
0.0000000000000000e+00 0.0000000000000000e+00 0
0.0000000000000000e+00 0.0000000000000000e+00 0
0.0000000000000000e+00 0.0000000000000000e+00 0
0.0000000000000000e+00 0.0000000000000000e+00 0
0.0000000000000000e+00 0.0000000000000000e+00 0
0.0000000000000000e+00 0.0000000000000000e+00 0
0.0000000000000000e+00 0.0000000000000000e+00 0
0.0000000000000000e+00 0.0000000000000000e+00 0
0.0000000000000000e+00 0.0000000000000000e+00 0
0.0000000000000000e+00 0.0000000000000000e+00 0
0.0000000000000000e+00 0.0000000000000000e+00 0
0.0000000000000000e+00 0.0000000000000000e+00 0
0.0000000000000000e+00 0.0000000000000000e+00 0
0.0000000000000000e+00 0.0000000000000000e+00 0
0.0000000000000000e+00 0.0000000000000000e+00 0
0.0000000000000000e+00 0.0000000000000000e+00 0
0.0000000000000000e+00 0.0000000000000000e+00 0
0.0000000000000000e+00 0.0000000000000000e+00 0
0.0000000000000000e+00 0.0000000000000000e+00 0
0.0000000000000000e+00 0.0000000000000000e+00 0
0.0000000000000000e+00 0.0000000000000000e+00 0
0.0000000000000000e+00 0.0000000000000000e+00 0
0.0000000000000000e+00 0.0000000000000000e+00 0
0.0000000000000000e+00 0.0000000000000000e+00 0

VECTORS Displacements1 float
-3.1380814226888303e-18 1.7531295719824669e-18 0
-1.1147234017786251e-24 -7.5728713642512882e-25 0
1.5129951678010025e-08 -7.3833580297972822e-09 0
1.7648560070958706e-08 1.1229798519121543e-08 0
1.6848118596398900e-08 -1.2855574056792263e-09 0
1.8285549227251241e-08 5.4662872978331182e-09 0
1.0903954922613672e-08 1.3480299583794055e-09 0
1.1332091310955176e-08 1.1185039168354257e-09 0
-3.1382822252434003e-09 5.5900722592695541e-10 0
-3.3352340664305316e-09 -1.8101541005097699e-11 0
4.3411766183922633e-08 4.0040277544653463e-09 0
4.5736527755474661e-08 4.6823144856140746e-09 0
-3.2452356096153936e-09 -6.8371019393035455e-11 0
-3.5000155937234101e-09 6.2650112343544764e-10 0
1.1895060533926548e-08 1.2642667085932034e-09 0
1.2702678190887520e-08 1.4121318048129511e-09 0
1.1902210311090923e-08 1.0206170815483770e-09 0
1.2691857069681838e-08 1.6661067602364800e-09 0
-3.2325619000452402e-09 5.7594991244679485e-10 0
-3.5051709257875199e-09 -5.1595331496585513e-11 0
4.2914314868419454e-08 3.5063500897730202e-09 0
4.6790558575523057e-08 5.6123828841699573e-09 0
-3.2161584320074172e-09 -7.5950743702192384e-11 0
-3.6101201279148931e-09 6.4020764193806043e-10 0
1.1775995778696328e-08 1.1071515632001783e-09 0
1.3195606939361118e-08 1.7254565641701048e-09 0
1.1779699338214054e-08 8.6525056624907625e-10 0
1.3175900741736501e-08 1.9877441032613015e-09 0
-3.2002502741386321e-09 5.6354145669837744e-10 0
-3.6419483597261589e-09 -4.7451172786872159e-11 0
4.2550460557587623e-08 3.0691280088890486e-09 0
4.9304910296039108e-08 6.7385082161730490e-09 0
-3.1942676700409902e-09 -8.9770592279837447e-11 0
-3.8339002093188747e-09 6.8098514801715630e-10 0
1.1684349648863176e-08 1.0115461052048782e-09 0
1.4099972938273442e-08 2.0569941716468501e-09 0
1.1687260008947061e-08 7.7103146978877127e-10 0
1.4073353455606307e-08 2.3357949995398558e-09 0
-3.1727506023281218e-09 5.5448431647479223e-10 0
-3.8963160075290414e-09 -4.8541831921270777e-11 0
4.2210426162193702e-08 2.8731903340414404e-09 0
5.3352213028655302e-08 7.9091905383306341e-09 0
-3.1682247214031109e-09 -1.0174695625926470e-10 0
-4.1806130845079364e-09 7.4100652100684457e-10 0
1.1595217689597387e-08 9.9377703526036728e-10 0
1.5456694135701205e-08 2.3969398792395456e-09 0
1.1599015064725594e-08 7.5481216904868589e-10 0
1.5423357433044727e-08 2.7010884613171652e-09 0
-3.1440825464731895e-09 5.5311549293216421e-10 0
-4.2845964243339483e-09 -5.9329408156450574e-11 0
4.1877773036614015e-08 3.0721990553721616e-09 0
5.9191834721513807e-08 9.0409967325068434e-09 0
-3.1266965426867602e-09 -1.1284898880593516e-10 0
-4.6697007135407931e-09 8.2355914656396736e-10 0
1.1467782216292375e-08 1.1205109584170996e-09 0
1.7329004810038681e-08 2.7021178431242220e-09 0
1.1476461512709013e-08 8.8393612227807653e-10 0
1.7290246521148734e-08 3.0420452052523801e-09 0
-3.1010784519546883e-09 5.4197812686097010e-10 0
-4.8247141746402787e-09 -6.8098609857185059e-11 0
4.1360633490332366e-08 3.4793943762417189e-09 0
6.7182739145273701e-08 1.0346618362928300e-08 0
-3.0962379353439000e-09 -1.1679173358969176e-10 0
-5.3638792775323548e-09 9.2586482061642255e-10 0
1.1463127375299671e-08 1.2729857722931874e-09 0
2.0029748798957710e-08 3.1276982078789356e-09 0
1.1474214987086078e-08 1.0364849539775183e-09 0
1.9981287259140791e-08 3.5182781350466931e-09 0
-3.1049700042543535e-09 5.9520014309294771e-10 0
-5.6336202681534975e-09 -1.2567477783100242e-10 0
4.1849356646424153e-08 5.2872050088435009e-09 0
7.8966786561664675e-08 1.1222185397338785e-08 0
-3.0483348651462323e-09 -1.4158553069773555e-10 0
-6.3392616751181073e-09 1.0874040679021764e-09 0
1.1364037173279166e-08 2.1033183475805104e-09 0
2.3658379850852792e-08 3.1923224602763112e-09 0
1.1398397049721780e-08 1.8673648622925863e-09 0
2.3608813325772875e-08 3.6544085556644430e-09 0
-3.0866376970609087e-09 5.0825020554578934e-10 0
-6.7225238537422822e-09 -8.3545739224234900e-11 0
4.2048151184629504e-08 5.6323707550286232e-09 0
9.5616044371283037e-08 1.4042254622167345e-08 0
-3.4573043430565278e-09 -1.3580858407044723e-10 0
-8.0910702838939997e-09 1.2557621415676729e-09 0
1.3614194842436349e-08 2.1574295841849547e-09 0
3.0896366564230952e-08 4.5199472611835859e-09 0
1.3609001246539885e-08 1.8668081141241295e-09 0
3.0786245349177815e-08 5.1071575400798914e-09 0
-4.0011982832065520e-09 1.2897203420925368e-09 0
-9.2882082467863781e-09 -5.6260821158487751e-10 0
5.9921721403584762e-08 2.0667716181765580e-08 0
1.3395236620001832e-07 1.0283537214687627e-08 0
-4.6237126793662352e-09 -5.3218741250439212e-10 0
-1.1875957742708422e-08 2.0435557470966835e-09 0
2.0984750544744615e-08 1.1846465667332595e-08 0
4.6904925070195951e-08 4.9874853140819758e-10 0
1.0433481945393271e-08 9.9696581600268968e-09 0
3.2911322143880444e-08 8.5723823023071143e-10 0
8.0440926379230039e-08 5.1634050026563185e-08 0
1.0180756581072732e-07 2.5319985450747924e-09 0
2.4398108898628513e-08 2.6568058585506451e-08 0
5.9995904572459884e-08 3.6953912255089669e-08 0
4.5277121426114805e-08 3.0493858242723256e-08 0
4.2724022860592515e-08 3.4216404070647627e-08 0
7.0982696222219507e-08 1.6319327336565726e-08 0
2.5367106117731007e-08 -1.2856505145508040e-08 0

VECTORS Displacements2 float
-3.7333332169510540e-18 2.0856133528833648e-18 0
-1.3920215909676914e-24 -9.4758768834138301e-25 0
1.8774475066661277e-08 -9.3202659128689207e-09 0
2.1656912211831222e-08 1.3867991669996982e-08 0
2.0848590584303036e-08 -1.8961538190073865e-09 0
2.2464871482400072e-08 6.8084712284488557e-09 0
1.3491757391379161e-08 1.6387678815861614e-09 0
1.3976561215108711e-08 1.3978855595707014e-09 0
-4.2010957598427427e-09 6.1451505777398457e-10 0
-4.4267660246347840e-09 -1.0570554472608202e-10 0
5.4080265246475742e-08 4.8438094538769094e-09 0
5.6705159619162077e-08 5.6498999678976536e-09 0
-4.3415502431258088e-09 -1.7393105798470038e-10 0
-4.6429687501187804e-09 6.9188355240982444e-10 0
1.4781554741345756e-08 1.5082395956916364e-09 0
1.5701809935415117e-08 1.7677066286856245e-09 0
1.4783441735920109e-08 1.2876125825176962e-09 0
1.5696752712505135e-08 1.9982185195199339e-09 0
-4.3188271439922261e-09 6.1204512851186226e-10 0
-4.6587520896435698e-09 -1.3047864963307877e-10 0
5.3478112473264453e-08 4.2476565160213684e-09 0
5.8002688891300146e-08 6.8077211832221965e-09 0
-4.3026727493757918e-09 -1.9476427330984168e-10 0
-4.7871076487352389e-09 7.2635559708120739e-10 0
1.4637937535028116e-08 1.3168987512287990e-09 0
1.6307687508476461e-08 2.1619006002230103e-09 0
1.4636228861838280e-08 1.0977592643219016e-09 0
1.6293905282589044e-08 2.4008353633066439e-09 0
-4.2768448146794013e-09 5.8601655278741777e-10 0
-4.8445132889531999e-09 -1.0919381811098032e-10 0
5.3041701717816582e-08 3.7247613354940763e-09 0
6.1111313668705467e-08 8.2046556506861281e-09 0
-4.2738786867043233e-09 -2.2165722280266200e-10 0
-5.0829180207854973e-09 7.9226101197796965e-10 0
1.4528135194667917e-08 1.2029650394184265e-09 0
1.7423047159154276e-08 2.5789273022227483e-09 0
1.4525813210934618e-08 9.8471599334868480e-10 0
1.7402519435273406e-08 2.8341602932855092e-09 0
-4.2413905617969605e-09 5.6967571489610330e-10 0
-5.1862510348066375e-09 -9.9903832614371754e-11 0
5.2634335905170732e-08 3.5022895062989123e-09 0
6.6122356264624656e-08 9.6537029347878214e-09 0
-4.2405692007753219e-09 -2.4035074061200192e-10 0
-5.5414857949120840e-09 8.7604183996510035e-10 0
1.4421909430482645e-08 1.1872070554346606e-09 0
1.9098073558351668e-08 3.0068133495429899e-09 0
1.4420341029544475e-08 9.6988305944734859e-10 0
1.9070681932250887e-08 3.2866465743159809e-09 0
-4.2051441797374076e-09 5.7180278213954247e-10 0
-5.7055122267882110e-09 -1.1115326161100181e-10 0
5.2235769915472734e-08 3.7723718513768322e-09 0
7.3357052959207323e-08 1.1052494906169610e-08 0
-4.1886454551443593e-09 -2.4792208451439405e-10 0
-6.1884825467133878e-09 9.7806586614959369e-10 0
1.4268611624131195e-08 1.3542862169706828e-09 0
2.1411416074784578e-08 3.3923837882873725e-09 0
1.4271660277855915e-08 1.1388830498235994e-09 0
2.1378827442340656e-08 3.7062065209463235e-09 0
-4.1500157640612027e-09 5.6884759200812112e-10 0
-6.4269715578032003e-09 -1.2658659492961130e-10 0
5.1607698800340962e-08 4.3051527046189395e-09 0
8.3261101912897372e-08 1.2663374276207775e-08 0
-4.1507352557572757e-09 -2.4157936658913671e-10 0
-7.1050586346266161e-09 1.0996419210292654e-09 0
1.4268695823715193e-08 1.5537796970806659e-09 0
2.4747932934083700e-08 3.9277925976706914e-09 0
1.4272685006520835e-08 1.3379986600269208e-09 0
2.4703568053853258e-08 4.2914236166415947e-09 0
-4.1615323810818113e-09 6.6935199373536095e-10 0
-7.5046141337607640e-09 -2.2578617149671624e-10 0
5.2227905116670076e-08 6.5838074852694629e-09 0
9.7867025288994059e-08 1.3744115048746257e-08 0
-4.0979891592747109e-09 -2.2717103174416801e-10 0
-8.3947168108795087e-09 1.2618249051424121e-09 0
1.4150237855601078e-08 2.6107523701402720e-09 0
2.9236524060799892e-08 4.0190447431203600e-09 0
1.4177809066533780e-08 2.3988910696506880e-09 0
2.9194896416331455e-08 4.4479446283672559e-09 0
-4.1380282303922943e-09 5.7833873355392279e-10 0
-8.9624152935689680e-09 -1.9090299707993954e-10 0
5.2478245413646247e-08 7.0556376730859085e-09 0
1.1851975107679744e-07 1.7217074816001037e-08 0
-4.6206201992676740e-09 -2.1733226093506645e-10 0
-1.0691402384192849e-08 1.4648991026109378e-09 0
1.6942788149652385e-08 2.6745057169945142e-09 0
3.8176831465806632e-08 5.6703255629127162e-09 0
1.6921502048411537e-08 2.4121364128265744e-09 0
3.8050802492701288e-08 6.2401526433998513e-09 0
-5.4062981336250388e-09 1.7683393745615750e-09 0
-1.2368532420951743e-08 -1.0055246719174824e-09 0
7.4648004367938138e-08 2.5769236393982393e-08 0
1.6603749517067562e-07 1.2581405833193847e-08 0
-6.1929749493527377e-09 -3.4319535374418287e-10 0
-1.5651723270543294e-08 2.0935435375826112e-09 0
2.6146089777575346e-08 1.4902954621842319e-08 0
5.8052620855269583e-08 7.2834632053003378e-10 0
1.2614197183046870e-08 1.3273731580468630e-08 0
3.9974044310180870e-08 4.1423393608364504e-10 0
9.9894827795993167e-08 6.4959013810840077e-08 0
1.2607533465488012e-07 2.3502733776039156e-09 0
3.2119849368570168e-08 3.4681652620302014e-08 0
7.5215656241230602e-08 4.6664756599705391e-08 0
5.7468876765210554e-08 3.7640892075483167e-08 0
5.4728956849989151e-08 4.2225247399031092e-08 0
8.9511619670940524e-08 1.9465216593950566e-08 0
3.4144220753138057e-08 -1.8249041371393153e-08 0

VECTORS Forces1 float
-6.5423973491053992e-03 4.2653029313365664e-03 0
-7.8418860728457305e-03 -4.4259692405619029e-03 0
9.5652791982024268e-02 -5.3369507059802181e-02 0
1.0727683404081925e-01 5.9563468040507744e-02 0
1.0484688408063676e-01 -1.6341915036188780e-02 0
1.1736338181767367e-01 1.8473128637996852e-02 0
6.6609633200878537e-02 2.7568665415180719e-03 0
7.4592785194251304e-02 -2.9553950808937804e-03 0
-1.0044963057932451e-02 -3.9118810056414479e-04 0
-1.1270943483203778e-02 4.0279341647693305e-04 0
2.5369045416206587e-01 -4.7085501894514933e-04 0
2.8551554786349503e-01 2.0681675381510876e-03 0
-1.0677113222612325e-02 2.7311860175270584e-05 0
-1.2158871259003287e-02 -1.4240016813078546e-04 0
7.1720941442188268e-02 -3.9903364917392515e-04 0
8.1562340840351230e-02 1.1732048394304127e-03 0
7.1726619907187789e-02 -4.0070687842906828e-04 0
8.1570661855932550e-02 1.1761016397349628e-03 0
-1.0677916471753842e-02 3.9855419703120982e-05 0
-1.2175275004625015e-02 -1.5907722954784263e-04 0
2.5131228746667417e-01 -2.5236106795069025e-03 0
2.9066236030904974e-01 6.5200625507930102e-03 0
-1.0577173424813921e-02 1.3162356640244064e-04 0
-1.2517341795090325e-02 -3.5669521747987588e-04 0
7.1037001199766525e-02 -1.0411348807778658e-03 0
8.3986310099751993e-02 2.5657289610257097e-03 0
7.1036523061741241e-02 -1.0418043635711852e-03 0
8.3989858370326423e-02 2.5672472391592076e-03 0
-1.0572070889547864e-02 1.3431277875440727e-04 0
-1.2540189471051642e-02 -3.6496121120124499e-04 0
2.4909510789793363e-01 -4.3566458057118958e-03 0
3.0309093634299333e-01 1.1350820078337176e-02 0
-1.0475380982388887e-02 1.8248214596769689e-04 0
-1.3195942425867784e-02 -5.4873953598580231e-04 0
7.0374350972221403e-02 -1.3826624535238461e-03 0
8.8599714565242488e-02 3.8652233438178814e-03 0
7.0373618853907485e-02 -1.3833451517850526e-03 0
8.8605066237222571e-02 3.8668854362220698e-03 0
-1.0470419885676490e-02 1.8177105024020542e-04 0
-1.3235139516325036e-02 -5.5534397224668857e-04 0
2.4641884598163152e-01 -4.9087799712129064e-03 0
3.2330010748056348e-01 1.5679133654185304e-02 0
-1.0350579600073063e-02 1.7202077465570861e-04 0
-1.4227041809741207e-02 -7.1511764200640890e-04 0
6.9554958626040359e-02 -1.3241489360119173e-03 0
9.5572427722246847e-02 5.0029997643884667e-03 0
6.9553885408008082e-02 -1.3247066444474094e-03 0
9.5579830527571005e-02 5.0047631847633363e-03 0
-1.0343909899214056e-02 1.6606314429218485e-04 0
-1.4284263477767694e-02 -7.1874104383384894e-04 0
2.4313136900404905e-01 -3.3427060168477892e-03 0
3.5261360084677051e-01 1.8974048215415609e-02 0
-1.0164577546403876e-02 4.4964831266749715e-05 0
-1.5661977893056143e-02 -8.2104986678345981e-04 0
6.8326071217101048e-02 -4.9402357475036428e-04 0
1.0525083779928160e-01 5.7482502551712616e-03 0
6.8324984596063981e-02 -4.9498716054463153e-04 0
1.0526081863793697e-01 5.7506296777330192e-03 0
-1.0158323409164522e-02 3.3676078482831264e-05 0
-1.5744529360548241e-02 -8.2197027014233850e-04 0
2.3825133612795629e-01 -5.2928182447344746e-04 0
3.9266596994603692e-01 2.2163565161983770e-02 0
-1.0047768388861570e-02 -1.0151332498796266e-04 0
-1.7724103624424389e-02 -9.5352380778067846e-04 0
6.7594302224519953e-02 4.1275686643971822e-04 0
1.1914500833629202e-01 6.7189349227028683e-03 0
6.7592662354081151e-02 4.1157360362363842e-04 0
1.1915729505913139e-01 6.7218482454566384e-03 0
-1.0040627481083676e-02 -1.3116989058991314e-04 0
-1.7843815797711039e-02 -9.4359718448329703e-04 0
2.3735665566238245e-01 9.3576684306680407e-03 0
4.5190564003920641e-01 2.1447096571509058e-02 0
-9.7822820044721846e-03 -7.8646009047077508e-04 0
-2.0540237734214765e-02 -7.6447972686621314e-04 0
6.5811785535533351e-02 4.9034953692233575e-03 0
1.3799169993665558e-01 5.5587914576810784e-03 0
6.5808484982079293e-02 4.8934799004990894e-03 0
1.3800131012878583e-01 5.5666173663382222e-03 0
-9.8384404697109806e-03 -8.3609058870939411e-04 0
-2.0781621442474318e-02 -7.5127686382951882e-04 0
2.3455850344117574e-01 1.1813617997428201e-02 0
5.3454149794203776e-01 2.8431953189546159e-02 0
-1.1448720989809565e-02 -7.8862066884951014e-04 0
-2.6149114221980217e-02 -1.2086901758745715e-03 0
7.6743951738338159e-02 4.0633256588300795e-03 0
1.7489378767151767e-01 8.9724959049387997e-03 0
7.6729568961130312e-02 4.0222342557883249e-03 0
1.7486285644271207e-01 8.9933365514917735e-03 0
-1.1603788379508194e-02 -1.1384760550650133e-03 0
-2.6751900185973915e-02 -9.9825204988310333e-04 0
3.1503214150332631e-01 8.4403193447784075e-02 0
7.2877405740193735e-01 -8.4508390414476543e-03 0
-1.4355758265891359e-02 -8.1293908340609230e-03 0
-3.7589022432473342e-02 3.6267480442613268e-03 0
1.0843120386277925e-01 5.1595069393075621e-02 0
2.5891271219288570e-01 -1.7330463015102150e-02 0
6.7287416179199241e-02 2.5868428082294889e-02 0
2.0027116770368261e-01 -1.2927995064932526e-02 0
4.0049812111315880e-01 2.3896248197853989e-01 0
5.3778557118898751e-01 -2.7205726007410690e-02 0
2.5224417997854298e-02 3.0402453166199290e-02 0
2.8463372286379757e-01 1.8650503296096238e-01 0
1.9177662361618208e-01 1.5607397826761082e-01 0
1.7855889858343582e-01 1.6867965097153864e-01 0
3.3775105647764625e-01 6.5713409346103147e-02 0
5.8176817742478473e-02 -2.1221976331920526e-02 0

VECTORS Forces2 float
-5.4325195979856959e-03 3.5956839856559580e-03 0
-5.0137378037122910e-03 -2.7940576720997634e-03 0
8.1926153510541749e-02 -4.5842191658082898e-02 0
7.2216132536079128e-02 4.0228583493014523e-02 0
8.9562506994875224e-02 -1.3995731340370004e-02 0
7.8866466100491486e-02 1.2497849428433004e-02 0
5.6779616179393977e-02 2.4172806037163672e-03 0
4.9995113269203875e-02 -2.0136790860548967e-03 0
-8.5613245407844020e-03 -3.4746931170195617e-04 0
-7.5675285190363187e-03 2.8182716550130484e-04 0
2.1489403484635253e-01 -4.7925581318623633e-04 0
1.9009771467120212e-01 2.0918478734545860e-03 0
-9.0268708992904591e-03 3.5998814074446847e-05 0
-8.1092206335002231e-03 -1.5659271593006973e-04 0
6.0638198736039241e-02 -4.6215877028199173e-04 0
5.4340427025774983e-02 1.2701237137342340e-03 0
6.0642823900762567e-02 -4.6387395670792757e-04 0
5.4346888328654988e-02 1.2725100818785687e-03 0
-9.0269564846229052e-03 4.7473580847621890e-05 0
-8.1203209476948465e-03 -1.7184987702956040e-04 0
2.1281870493437363e-01 -2.8760393344102585e-03 0
1.9499110168120914e-01 7.1370441514476335e-03 0
-8.9747878535272746e-03 1.4941648280775502e-04 0
-8.4875195345215145e-03 -3.9158160347192201e-04 0
6.0294158291088827e-02 -1.1762902158828196e-03 0
5.6939507689420188e-02 2.8177772728555589e-03 0
6.0294079924114369e-02 -1.1770667746545918e-03 0
5.6943313761665462e-02 2.8194800184695393e-03 0
-8.9729531956389309e-03 1.5232924878110077e-04 0
-8.5124239906946338e-03 -4.0072300382290078e-04 0
2.1218700864647383e-01 -4.9159460009402019e-03 0
2.0838436007384653e-01 1.2491638313426923e-02 0
-8.9608174219428516e-03 2.0644199201906422e-04 0
-9.2272075340718140e-03 -6.0483641438628254e-04 0
6.0226844890308946e-02 -1.5603739064713154e-03 0
6.1969745434457185e-02 4.2612785495719976e-03 0
6.0226728213490462e-02 -1.5611569520559169e-03 0
6.1975598346061866e-02 4.2631380771321163e-03 0
-8.9611734265867219e-03 2.0563716332456706e-04 0
-9.2705341841242805e-03 -6.1216583288704266e-04 0
2.1216942496683366e-01 -5.5515989120314344e-03 0
2.3065925501858633e-01 1.7313778431598117e-02 0
-8.9703034529827700e-03 1.9589580272218811e-04 0
-1.0371091900671653e-02 -7.9062122680122388e-04 0
6.0315583963588548e-02 -1.5033358750914797e-03 0
6.9709061608309725e-02 5.5321539534303977e-03 0
6.0315346787326675e-02 -1.5039806868222970e-03 0
6.9717304684294351e-02 5.5341338957401280e-03 0
-8.9711809331210583e-03 1.8929874020077965e-04 0
-1.0435144353893012e-02 -7.9470230178774312e-04 0
2.1261446887246599e-01 -3.8497418091487617e-03 0
2.6338510275018145e-01 2.1018466354933249e-02 0
-8.9626152899965009e-03 5.6519325074491690e-05 0
-1.1982647296865316e-02 -9.1090478251012997e-04 0
6.0289101746629409e-02 -5.9369068335998960e-04 0
8.0584894193984929e-02 6.3781352592094474e-03 0
6.0289084507786216e-02 -5.9479118300686748e-04 0
8.0596211584769067e-02 6.3808146503450749e-03 0
-8.9666478502520557e-03 4.4028820086748407e-05 0
-1.2075883808807456e-02 -9.1204409496121607e-04 0
2.1256492306061936e-01 -7.7004067809862558e-04 0
3.0867036061046010e-01 2.4636882815939575e-02 0
-9.0876391019719741e-03 -1.0377086295925735e-04 0
-1.4323272522918561e-02 -1.0623109721328444e-03 0
6.1187165387217420e-02 3.9668159668011506e-04 0
9.6367125065843995e-02 7.4858208971970864e-03 0
6.1186752188012526e-02 3.9532433887936799e-04 0
9.6381503663099860e-02 7.4891486647131727e-03 0
-9.0942593994819340e-03 -1.3656430926295895e-04 0
-1.4459634997813619e-02 -1.0515630551268772e-03 0
2.1838912528154347e-01 1.0100257734361091e-02 0
3.7634773870799254e-01 2.4059660184302119e-02 0
-9.1244903056368360e-03 -8.5860503329806236e-04 0
-1.7571048327748896e-02 -8.6488137329414306e-04 0
6.1431340382729578e-02 5.3441126572217985e-03 0
1.1813620148674399e-01 6.2848849726548353e-03 0
6.1429181695328301e-02 5.3330624129999341e-03 0
1.1814904500653965e-01 6.2938467966896844e-03 0
-9.2050364376428540e-03 -9.1338415191324386e-04 0
-1.7843212436088784e-02 -8.5001366378959972e-04 0
2.2397346399043710e-01 1.2821353081324051e-02 0
4.7226033636589493e-01 3.2001169795540900e-02 0
-1.1355784750719583e-02 -8.6303045894191223e-04 0
-2.4000635000991446e-02 -1.3638124709688753e-03 0
7.6113399493258405e-02 4.4355348208761254e-03 0
1.6056763283456646e-01 1.0129360667508644e-02 0
7.6097926742609998e-02 4.3901666627223709e-03 0
1.6054325195456218e-01 1.0154343675995214e-02 0
-1.1569663135451002e-02 -1.2478962975669414e-03 0
-2.4673914855080789e-02 -1.1300708637993085e-03 0
3.2510688593764042e-01 9.2327152050572264e-02 0
6.9737634374760771e-01 -7.1254711299792300e-03 0
-1.5504450704713247e-02 -8.9100447995145091e-03 0
-3.7479357379429756e-02 3.8614868720668119e-03 0
1.1668522576242243e-01 5.6335251377591530e-02 0
2.5928673699610522e-01 -1.8181056288310966e-02 0
7.1520479806027187e-02 2.8328037656652073e-02 0
1.9778847927888848e-01 -1.2546742112932328e-02 0
4.3894806608914277e-01 2.5973233820112807e-01 0
5.6667351720226888e-01 -3.8076745123286654e-02 0
2.8852415954942635e-02 3.3605318263876936e-02 0
3.1110389271655225e-01 2.0014456504708883e-01 0
2.0771033478867459e-01 1.5971782258784992e-01 0
1.9421495768010072e-01 1.7182343801889613e-01 0
3.5741026965789102e-01 5.9653198491296314e-02 0
5.9872417108098923e-02 -2.3613808985214649e-02 0

VECTORS Forces3 float
-6.9959929584106741e-03 4.5902594626787722e-03 0
-7.5560625082240086e-03 -4.2449310418524490e-03 0
1.0351626804237329e-01 -5.7840580960048307e-02 0
1.0530989556557425e-01 5.8546806580363937e-02 0
1.1329218178061679e-01 -1.7682975953411669e-02 0
1.1508347133437311e-01 1.8148462019815407e-02 0
7.1897925425794970e-02 3.0188948895552344e-03 0
7.3057416632732089e-02 -2.9345753833793630e-03 0
-1.0841711758585339e-02 -4.3069548091866073e-04 0
-1.1045692556949985e-02 4.0398956970807959e-04 0
2.7293015714424584e-01 -5.4051168871628596e-04 0
2.7871899002580935e-01 2.3436573393790633e-03 0
-1.1478365749065297e-02 3.5816907282802785e-05 0
-1.1875034050887138e-02 -1.7147833173510792e-04 0
7.7102537497495058e-02 -4.9221468839755721e-04 0
7.9626832223982466e-02 1.4030723988163241e-03 0
7.7108546877548284e-02 -4.9417129606798508e-04 0
7.9635422743811551e-02 1.4061643430886754e-03 0
-1.1478880151414562e-02 4.9727280855473691e-05 0
-1.1890876049249910e-02 -1.9011258356793027e-04 0
2.7044058523068704e-01 -3.0733566278328393e-03 0
2.8451555932976835e-01 7.8868645640239252e-03 0
-1.1393227358640731e-02 1.5921318202294951e-04 0
-1.2300190720587837e-02 -4.3291195465948505e-04 0
7.6527638635365630e-02 -1.2586036553446905e-03 0
8.2525773032773447e-02 3.1136137732334008e-03 0
7.6527318371747644e-02 -1.2594197976714026e-03 0
8.2530003256932369e-02 3.1154810323609388e-03 0
-1.1389230212762853e-02 1.6233328617895376e-04 0
-1.2327646815001109e-02 -4.4304854953611733e-04 0
2.6877150975415209e-01 -5.2435973667672936e-03 0
2.9933758818215739e-01 1.3800137050207254e-02 0
-1.1324112440979186e-02 2.1867434287319238e-04 0
-1.3114306539893801e-02 -6.6841363068802034e-04 0
7.6090012547412211e-02 -1.6583689298793165e-03 0
8.8061021360104352e-02 4.7072381829660085e-03 0
7.6089504170537142e-02 -1.6591940850490753e-03 0
8.8067459080221483e-02 4.7092777435406817e-03 0
-1.1321308429112734e-02 2.1767841318027581e-04 0
-1.3161681948357812e-02 -6.7655785989763188e-04 0
2.6714878204892595e-01 -5.8620301628399454e-03 0
3.2374074513611417e-01 1.9127912182816325e-02 0
-1.1253724651424013e-02 2.0367087469043551e-04 0
-1.4363545454694603e-02 -8.7396237200777630e-04 0
7.5642244484887697e-02 -1.5721471579685240e-03 0
9.6511273484595733e-02 6.1127930115490239e-03 0
7.5641456966691778e-02 -1.5728163070042693e-03 0
9.6520264116275817e-02 6.1149630652478290e-03 0
-1.1250143899426029e-02 1.9629075546672889e-04 0
-1.4433173174102497e-02 -8.7856039240293536e-04 0
2.6538635617402678e-01 -3.9003284438890525e-03 0
3.5936655023426739e-01 2.3234441139785764e-02 0
-1.1135530352415653e-02 4.6325642462735472e-05 0
-1.6112830641621039e-02 -1.0078648465742571e-03 0
7.4874108560486555e-02 -5.4364228200026754e-04 0
1.0831346064632391e-01 7.0535152498578339e-03 0
7.4873424300546609e-02 -5.4480222802949800e-04 0
1.0832569475449222e-01 7.0564446550980446e-03 0
-1.1133894706628469e-02 3.2457192758098489e-05 0
-1.6213721840919657e-02 -1.0092642952767537e-03 0
2.6235511432401071e-01 -4.1027277965887294e-04 0
4.0836134527969237e-01 2.7246713509056834e-02 0
-1.1131371084073123e-02 -1.3448865122162081e-04 0
-1.8639884864016153e-02 -1.1759100092303494e-03 0
7.4909622520092756e-02 5.7707175575155874e-04 0
1.2534685597290013e-01 8.2808732094747182e-03 0
7.4908365228698925e-02 5.7565417789903360e-04 0
1.2536216604193420e-01 8.2844885934633648e-03 0
-1.1130539027878224e-02 -1.7073978921985743e-04 0
-1.8786805158913737e-02 -1.1643782010436327e-03 0
2.6495037069300709e-01 1.1695516261552259e-02 0
4.8118580367207936e-01 2.6671194585108526e-02 0
-1.0985178284825202e-02 -9.7252613123354078e-04 0
-2.2119009414833846e-02 -9.6247008933731163e-04 0
7.3924889057447499e-02 6.0731517408447134e-03 0
1.4864957107004520e-01 6.9822271926336804e-03 0
7.3921641794895840e-02 6.0610601772294456e-03 0
1.4866243019453465e-01 6.9918638032022296e-03 0
-1.1063183041367247e-02 -1.0330794273403705e-03 0
-2.2413687771992558e-02 -9.4692415101138984e-04 0
2.6608292232357983e-01 1.4848177016669824e-02 0
5.8362488030516468e-01 3.5424557887413485e-02 0
-1.3212453997951854e-02 -9.8425579570156157e-04 0
-2.9024907574141223e-02 -1.5132151216808653e-03 0
8.8557961943395908e-02 5.1175791641990664e-03 0
1.9415673023632057e-01 1.1207291293521118e-02 0
8.8540441508105763e-02 5.0678207556034971e-03 0
1.9412485921110514e-01 1.1233468983930133e-02 0
-1.3423225591547188e-02 -1.4081038506199791e-03 0
-2.9757042744757885e-02 -1.2601327380988940e-03 0
3.7011295856918836e-01 1.0294126621183675e-01 0
8.2406488382619514e-01 -7.5989863879935742e-03 0
-1.7209705245309605e-02 -9.8678470452579804e-03 0
-4.3314394296869618e-02 4.2190957791809775e-03 0
1.2969506286116533e-01 6.2583298831532741e-02 0
2.9898597840163499e-01 -1.9804610074770995e-02 0
7.9993533584314602e-02 3.1500508167314055e-02 0
2.2989417481248159e-01 -1.4272504660461335e-02 0
4.8335966743612174e-01 2.8855360065932328e-01 0
6.3502244760829574e-01 -3.5237112644486757e-02 0
3.1177718854809838e-02 3.6911361019455059e-02 0
3.4300318777776539e-01 2.2387869569242300e-01 0
2.2951284933772378e-01 1.8347648926789004e-01 0
2.1394393467764780e-01 1.9783053259776207e-01 0
3.9924828167278059e-01 7.4331776714383901e-02 0
6.7915940522684362e-02 -2.5615721724019797e-02 0

