# vtk DataFile Version 2.0

ASCII

DATASET UNSTRUCTURED_GRID

POINTS 106 float 

-5.0000000000000003e-02  0.0000000000000000e+00  0.0000000000000000e+00
5.0000000000000003e-02  0.0000000000000000e+00  0.0000000000000000e+00
-5.0000000000000003e-02  2.0000000000000000e-02  0.0000000000000000e+00
5.0000000000000003e-02  2.0000000000000000e-02  0.0000000000000000e+00
-5.0000000000000003e-02  4.0000000000000001e-02  0.0000000000000000e+00
5.0000000000000003e-02  4.0000000000000001e-02  0.0000000000000000e+00
-5.0000000000000003e-02  5.9999999999999998e-02  0.0000000000000000e+00
5.0000000000000003e-02  5.9999999999999998e-02  0.0000000000000000e+00
-5.0000000000000003e-02  8.0000000000000002e-02  0.0000000000000000e+00
5.0000000000000003e-02  8.0000000000000002e-02  0.0000000000000000e+00
-5.0000000000000003e-02  1.0000000000000001e-01  0.0000000000000000e+00
5.0000000000000003e-02  1.0000000000000001e-01  0.0000000000000000e+00
-5.0000000000000003e-02  1.2000000000000000e-01  0.0000000000000000e+00
5.0000000000000003e-02  1.2000000000000000e-01  0.0000000000000000e+00
-5.0000000000000003e-02  1.4000000000000001e-01  0.0000000000000000e+00
5.0000000000000003e-02  1.4000000000000001e-01  0.0000000000000000e+00
-5.0000000000000003e-02  1.6000000000000000e-01  0.0000000000000000e+00
5.0000000000000003e-02  1.6000000000000000e-01  0.0000000000000000e+00
-5.0000000000000003e-02  1.7999999999999999e-01  0.0000000000000000e+00
5.0000000000000003e-02  1.7999999999999999e-01  0.0000000000000000e+00
-5.0000000000000003e-02  2.0000000000000001e-01  0.0000000000000000e+00
5.0000000000000003e-02  2.0000000000000001e-01  0.0000000000000000e+00
-5.0000000000000003e-02  2.2000000000000000e-01  0.0000000000000000e+00
5.0000000000000003e-02  2.2000000000000000e-01  0.0000000000000000e+00
-5.0000000000000003e-02  2.3999999999999999e-01  0.0000000000000000e+00
5.0000000000000003e-02  2.3999999999999999e-01  0.0000000000000000e+00
-5.0000000000000003e-02  2.6000000000000001e-01  0.0000000000000000e+00
5.0000000000000003e-02  2.6000000000000001e-01  0.0000000000000000e+00
-5.0000000000000003e-02  2.8000000000000003e-01  0.0000000000000000e+00
5.0000000000000003e-02  2.8000000000000003e-01  0.0000000000000000e+00
-5.0000000000000003e-02  2.9999999999999999e-01  0.0000000000000000e+00
5.0000000000000003e-02  2.9999999999999999e-01  0.0000000000000000e+00
-5.0000000000000003e-02  3.2000000000000001e-01  0.0000000000000000e+00
5.0000000000000003e-02  3.2000000000000001e-01  0.0000000000000000e+00
-5.0000000000000003e-02  3.4000000000000002e-01  0.0000000000000000e+00
5.0000000000000003e-02  3.4000000000000002e-01  0.0000000000000000e+00
-5.0000000000000003e-02  3.5999999999999999e-01  0.0000000000000000e+00
5.0000000000000003e-02  3.5999999999999999e-01  0.0000000000000000e+00
-5.0000000000000003e-02  3.8000000000000000e-01  0.0000000000000000e+00
5.0000000000000003e-02  3.8000000000000000e-01  0.0000000000000000e+00
-5.0000000000000003e-02  4.0000000000000002e-01  0.0000000000000000e+00
5.0000000000000003e-02  4.0000000000000002e-01  0.0000000000000000e+00
-5.0000000000000003e-02  4.1999999999999998e-01  0.0000000000000000e+00
5.0000000000000003e-02  4.1999999999999998e-01  0.0000000000000000e+00
-5.0000000000000003e-02  4.4000000000000000e-01  0.0000000000000000e+00
5.0000000000000003e-02  4.4000000000000000e-01  0.0000000000000000e+00
-5.0000000000000003e-02  4.6000000000000002e-01  0.0000000000000000e+00
5.0000000000000003e-02  4.6000000000000002e-01  0.0000000000000000e+00
-5.0000000000000003e-02  4.7999999999999998e-01  0.0000000000000000e+00
5.0000000000000003e-02  4.7999999999999998e-01  0.0000000000000000e+00
-5.0000000000000003e-02  5.0000000000000000e-01  0.0000000000000000e+00
5.0000000000000003e-02  5.0000000000000000e-01  0.0000000000000000e+00
-5.0000000000000003e-02  5.2000000000000002e-01  0.0000000000000000e+00
5.0000000000000003e-02  5.2000000000000002e-01  0.0000000000000000e+00
-5.0000000000000003e-02  5.4000000000000004e-01  0.0000000000000000e+00
5.0000000000000003e-02  5.4000000000000004e-01  0.0000000000000000e+00
-5.0000000000000003e-02  5.6000000000000005e-01  0.0000000000000000e+00
5.0000000000000003e-02  5.6000000000000005e-01  0.0000000000000000e+00
-5.0000000000000003e-02  5.7999999999999996e-01  0.0000000000000000e+00
5.0000000000000003e-02  5.7999999999999996e-01  0.0000000000000000e+00
-5.0000000000000003e-02  5.9999999999999998e-01  0.0000000000000000e+00
5.0000000000000003e-02  5.9999999999999998e-01  0.0000000000000000e+00
-5.0000000000000003e-02  6.2000000000000000e-01  0.0000000000000000e+00
5.0000000000000003e-02  6.2000000000000000e-01  0.0000000000000000e+00
-5.0000000000000003e-02  6.4000000000000001e-01  0.0000000000000000e+00
5.0000000000000003e-02  6.4000000000000001e-01  0.0000000000000000e+00
-5.0000000000000003e-02  6.6000000000000003e-01  0.0000000000000000e+00
5.0000000000000003e-02  6.6000000000000003e-01  0.0000000000000000e+00
-5.0000000000000003e-02  6.8000000000000005e-01  0.0000000000000000e+00
5.0000000000000003e-02  6.8000000000000005e-01  0.0000000000000000e+00
-5.0000000000000003e-02  6.9999999999999996e-01  0.0000000000000000e+00
5.0000000000000003e-02  6.9999999999999996e-01  0.0000000000000000e+00
-5.0000000000000003e-02  7.1999999999999997e-01  0.0000000000000000e+00
5.0000000000000003e-02  7.1999999999999997e-01  0.0000000000000000e+00
-5.0000000000000003e-02  7.3999999999999999e-01  0.0000000000000000e+00
5.0000000000000003e-02  7.3999999999999999e-01  0.0000000000000000e+00
-5.0000000000000003e-02  7.6000000000000001e-01  0.0000000000000000e+00
5.0000000000000003e-02  7.6000000000000001e-01  0.0000000000000000e+00
-5.0000000000000003e-02  7.8000000000000003e-01  0.0000000000000000e+00
5.0000000000000003e-02  7.8000000000000003e-01  0.0000000000000000e+00
-5.0000000000000003e-02  8.0000000000000004e-01  0.0000000000000000e+00
5.0000000000000003e-02  8.0000000000000004e-01  0.0000000000000000e+00
-5.0000000000000003e-02  8.1999999999999995e-01  0.0000000000000000e+00
5.0000000000000003e-02  8.1999999999999995e-01  0.0000000000000000e+00
-5.0000000000000003e-02  8.3999999999999997e-01  0.0000000000000000e+00
5.0000000000000003e-02  8.3999999999999997e-01  0.0000000000000000e+00
-5.0000000000000003e-02  8.5999999999999999e-01  0.0000000000000000e+00
5.0000000000000003e-02  8.5999999999999999e-01  0.0000000000000000e+00
-5.0000000000000003e-02  8.8000000000000000e-01  0.0000000000000000e+00
5.0000000000000003e-02  8.8000000000000000e-01  0.0000000000000000e+00
-5.0000000000000003e-02  9.0000000000000002e-01  0.0000000000000000e+00
5.0000000000000003e-02  9.0000000000000002e-01  0.0000000000000000e+00
-5.0000000000000003e-02  9.2000000000000004e-01  0.0000000000000000e+00
5.0000000000000003e-02  9.2000000000000004e-01  0.0000000000000000e+00
-5.0000000000000003e-02  9.3999999999999995e-01  0.0000000000000000e+00
5.0000000000000003e-02  9.3999999999999995e-01  0.0000000000000000e+00
-5.0000000000000003e-02  9.5999999999999996e-01  0.0000000000000000e+00
5.0000000000000003e-02  9.5999999999999996e-01  0.0000000000000000e+00
-5.0000000000000003e-02  9.7999999999999998e-01  0.0000000000000000e+00
5.0000000000000003e-02  9.7999999999999998e-01  0.0000000000000000e+00
-5.0000000000000003e-02  1.0000000000000000e+00  0.0000000000000000e+00
-3.0000000000000002e-02  1.0000000000000000e+00  0.0000000000000000e+00
-1.0000000000000002e-02  1.0000000000000000e+00  0.0000000000000000e+00
1.0000000000000009e-02  1.0000000000000000e+00  0.0000000000000000e+00
2.9999999999999999e-02  1.0000000000000000e+00  0.0000000000000000e+00
5.0000000000000003e-02  1.0000000000000000e+00  0.0000000000000000e+00

CELLS 0 0


CELL_TYPES 0


POINT_DATA 106

VECTORS VertexNormals float

0.0000000000000000e+00 0.0000000000000000e+00 0
0.0000000000000000e+00 0.0000000000000000e+00 0
0.0000000000000000e+00 0.0000000000000000e+00 0
0.0000000000000000e+00 0.0000000000000000e+00 0
0.0000000000000000e+00 0.0000000000000000e+00 0
0.0000000000000000e+00 0.0000000000000000e+00 0
0.0000000000000000e+00 0.0000000000000000e+00 0
0.0000000000000000e+00 0.0000000000000000e+00 0
0.0000000000000000e+00 0.0000000000000000e+00 0
0.0000000000000000e+00 0.0000000000000000e+00 0
0.0000000000000000e+00 0.0000000000000000e+00 0
0.0000000000000000e+00 0.0000000000000000e+00 0
0.0000000000000000e+00 0.0000000000000000e+00 0
0.0000000000000000e+00 0.0000000000000000e+00 0
0.0000000000000000e+00 0.0000000000000000e+00 0
0.0000000000000000e+00 0.0000000000000000e+00 0
0.0000000000000000e+00 0.0000000000000000e+00 0
0.0000000000000000e+00 0.0000000000000000e+00 0
0.0000000000000000e+00 0.0000000000000000e+00 0
0.0000000000000000e+00 0.0000000000000000e+00 0
0.0000000000000000e+00 0.0000000000000000e+00 0
0.0000000000000000e+00 0.0000000000000000e+00 0
0.0000000000000000e+00 0.0000000000000000e+00 0
0.0000000000000000e+00 0.0000000000000000e+00 0
0.0000000000000000e+00 0.0000000000000000e+00 0
0.0000000000000000e+00 0.0000000000000000e+00 0
0.0000000000000000e+00 0.0000000000000000e+00 0
0.0000000000000000e+00 0.0000000000000000e+00 0
0.0000000000000000e+00 0.0000000000000000e+00 0
0.0000000000000000e+00 0.0000000000000000e+00 0
0.0000000000000000e+00 0.0000000000000000e+00 0
0.0000000000000000e+00 0.0000000000000000e+00 0
0.0000000000000000e+00 0.0000000000000000e+00 0
0.0000000000000000e+00 0.0000000000000000e+00 0
0.0000000000000000e+00 0.0000000000000000e+00 0
0.0000000000000000e+00 0.0000000000000000e+00 0
0.0000000000000000e+00 0.0000000000000000e+00 0
0.0000000000000000e+00 0.0000000000000000e+00 0
0.0000000000000000e+00 0.0000000000000000e+00 0
0.0000000000000000e+00 0.0000000000000000e+00 0
0.0000000000000000e+00 0.0000000000000000e+00 0
0.0000000000000000e+00 0.0000000000000000e+00 0
0.0000000000000000e+00 0.0000000000000000e+00 0
0.0000000000000000e+00 0.0000000000000000e+00 0
0.0000000000000000e+00 0.0000000000000000e+00 0
0.0000000000000000e+00 0.0000000000000000e+00 0
0.0000000000000000e+00 0.0000000000000000e+00 0
0.0000000000000000e+00 0.0000000000000000e+00 0
0.0000000000000000e+00 0.0000000000000000e+00 0
0.0000000000000000e+00 0.0000000000000000e+00 0
0.0000000000000000e+00 0.0000000000000000e+00 0
0.0000000000000000e+00 0.0000000000000000e+00 0
0.0000000000000000e+00 0.0000000000000000e+00 0
0.0000000000000000e+00 0.0000000000000000e+00 0
0.0000000000000000e+00 0.0000000000000000e+00 0
0.0000000000000000e+00 0.0000000000000000e+00 0
0.0000000000000000e+00 0.0000000000000000e+00 0
0.0000000000000000e+00 0.0000000000000000e+00 0
0.0000000000000000e+00 0.0000000000000000e+00 0
0.0000000000000000e+00 0.0000000000000000e+00 0
0.0000000000000000e+00 0.0000000000000000e+00 0
0.0000000000000000e+00 0.0000000000000000e+00 0
0.0000000000000000e+00 0.0000000000000000e+00 0
0.0000000000000000e+00 0.0000000000000000e+00 0
0.0000000000000000e+00 0.0000000000000000e+00 0
0.0000000000000000e+00 0.0000000000000000e+00 0
0.0000000000000000e+00 0.0000000000000000e+00 0
0.0000000000000000e+00 0.0000000000000000e+00 0
0.0000000000000000e+00 0.0000000000000000e+00 0
0.0000000000000000e+00 0.0000000000000000e+00 0
0.0000000000000000e+00 0.0000000000000000e+00 0
0.0000000000000000e+00 0.0000000000000000e+00 0
0.0000000000000000e+00 0.0000000000000000e+00 0
0.0000000000000000e+00 0.0000000000000000e+00 0
0.0000000000000000e+00 0.0000000000000000e+00 0
0.0000000000000000e+00 0.0000000000000000e+00 0
0.0000000000000000e+00 0.0000000000000000e+00 0
0.0000000000000000e+00 0.0000000000000000e+00 0
0.0000000000000000e+00 0.0000000000000000e+00 0
0.0000000000000000e+00 0.0000000000000000e+00 0
0.0000000000000000e+00 0.0000000000000000e+00 0
0.0000000000000000e+00 0.0000000000000000e+00 0
0.0000000000000000e+00 0.0000000000000000e+00 0
0.0000000000000000e+00 0.0000000000000000e+00 0
0.0000000000000000e+00 0.0000000000000000e+00 0
0.0000000000000000e+00 0.0000000000000000e+00 0
0.0000000000000000e+00 0.0000000000000000e+00 0
0.0000000000000000e+00 0.0000000000000000e+00 0
0.0000000000000000e+00 0.0000000000000000e+00 0
0.0000000000000000e+00 0.0000000000000000e+00 0
0.0000000000000000e+00 0.0000000000000000e+00 0
0.0000000000000000e+00 0.0000000000000000e+00 0
0.0000000000000000e+00 0.0000000000000000e+00 0
0.0000000000000000e+00 0.0000000000000000e+00 0
0.0000000000000000e+00 0.0000000000000000e+00 0
0.0000000000000000e+00 0.0000000000000000e+00 0
0.0000000000000000e+00 0.0000000000000000e+00 0
0.0000000000000000e+00 0.0000000000000000e+00 0
0.0000000000000000e+00 0.0000000000000000e+00 0
0.0000000000000000e+00 0.0000000000000000e+00 0
0.0000000000000000e+00 0.0000000000000000e+00 0
0.0000000000000000e+00 0.0000000000000000e+00 0
0.0000000000000000e+00 0.0000000000000000e+00 0
0.0000000000000000e+00 0.0000000000000000e+00 0
0.0000000000000000e+00 0.0000000000000000e+00 0
0.0000000000000000e+00 0.0000000000000000e+00 0

VECTORS Displacements1 float
-5.4426269404238086e-17 3.0406475512012917e-17 0
-9.4032424142885993e-23 1.8537760870261546e-23 0
1.2495857497570246e-06 3.2128148212328692e-07 0
1.2135971663528858e-06 -2.8058195993846470e-07 0
2.0042681431178326e-06 4.2418124865788086e-07 0
1.9253613724999861e-06 -3.6769627243846038e-07 0
2.2877406440079348e-06 3.6287490969500280e-07 0
2.2109319714551272e-06 -3.0633335315009948e-07 0
2.2808622195314839e-06 2.5210492750716338e-07 0
2.2360350201596088e-06 -2.1786154927234346e-07 0
3.4516770067047261e-06 1.2747273053560688e-07 0
3.2402246097268734e-06 4.9790206312118370e-08 0
2.3025712213095917e-06 -7.6406498140736770e-08 0
2.2582516580429359e-06 1.0598546562664900e-07 0
2.5313943175227240e-06 1.8372314458219736e-08 0
2.4546719437364731e-06 8.2762926651085925e-08 0
2.5462991059931869e-06 2.5642864186877352e-08 0
2.4678712505134708e-06 8.8729988522909554e-08 0
2.3242044984042589e-06 8.1125905942194102e-08 0
2.2829822531523494e-06 9.0455413537860476e-09 0
3.4609151255415496e-06 8.8241538437656784e-08 0
3.2637798544163243e-06 1.6977143720287804e-07 0
2.3390481887339056e-06 -5.1867315100867014e-08 0
2.2910035691204374e-06 1.4594609638749360e-07 0
2.5849280261648019e-06 5.4625761409533663e-08 0
2.5179769812424857e-06 1.1678127932617034e-07 0
2.5976165378629797e-06 5.7454636272707820e-08 0
2.5257198919436312e-06 1.2915567662345739e-07 0
2.3703877991140158e-06 1.1268401270689563e-07 0
2.3323629877430474e-06 4.5081998516063445e-08 0
3.5147808547335191e-06 1.2034220156214691e-07 0
3.3625661852549479e-06 2.3753404206626448e-07 0
2.3951120611125353e-06 -2.2382622103682442e-08 0
2.3468007613363287e-06 1.9344988629369209e-07 0
2.6476359699027683e-06 8.6140989957016989e-08 0
2.5982958979913869e-06 1.6814412384319178e-07 0
2.6690506037801941e-06 9.0502491298660647e-08 0
2.6145311823969556e-06 1.8315341590802151e-07 0
2.4488536890303640e-06 1.4794416872818445e-07 0
2.4179132536097293e-06 8.9942979428862062e-08 0
3.6039254459335474e-06 1.6463525995952480e-07 0
3.5311942844118437e-06 3.1364742346723971e-07 0
2.4879145823162149e-06 1.8484882679944732e-08 0
2.4416999307959592e-06 2.4729068143484360e-07 0
2.7474416837046271e-06 1.3410628540224239e-07 0
2.7265148434092489e-06 2.2152138235693902e-07 0
2.7779152926213000e-06 1.4361632217749304e-07 0
2.7512663691200293e-06 2.3742617775689152e-07 0
2.5653308898424115e-06 2.0489842696131968e-07 0
2.5449498700659227e-06 1.3135588087792809e-07 0
3.7340556784883322e-06 2.4088524981509494e-07 0
3.7798433332480085e-06 3.8921800750612538e-07 0
2.6231215223548101e-06 8.3875848386455203e-08 0
2.5812819039363698e-06 3.0193362391466098e-07 0
2.8892131395489414e-06 2.1094836242243654e-07 0
2.9101863121462648e-06 2.7369511396778313e-07 0
2.9312340406624503e-06 2.2788467732517386e-07 0
2.9453980165827402e-06 2.9119936259576738e-07 0
2.7285923954711278e-06 2.9261798188654631e-07 0
2.7228525878518524e-06 1.6929803461358469e-07 0
3.9094517972647494e-06 3.5836305306207423e-07 0
4.1257470287719325e-06 4.6729065484082381e-07 0
2.8135220245411995e-06 1.9035363567540614e-07 0
2.7772688616598820e-06 3.5533798905181101e-07 0
3.0967255485460612e-06 3.3475213650103891e-07 0
3.1722289426561516e-06 3.2234080991048565e-07 0
3.1596887045853342e-06 3.6601703725645896e-07 0
3.2268636070889124e-06 3.4067102875479621e-07 0
2.9755778653406686e-06 4.4629739711064056e-07 0
2.9873965203789668e-06 1.9338033746103445e-07 0
4.2075816212367918e-06 5.7800097518063174e-07 0
4.6456871080442859e-06 5.3551084960917971e-07 0
3.1163681034623711e-06 3.7160765359986110e-07 0
3.0845878154152990e-06 4.0420675654546288e-07 0
3.4201656644875965e-06 5.6243494109011585e-07 0
3.5731741060047085e-06 3.6045968044229508e-07 0
3.5300110238445566e-06 6.4279451653869890e-07 0
3.6568538576550342e-06 3.8397952588986343e-07 0
3.3987873908977628e-06 7.9317288550116005e-07 0
3.3888809807426276e-06 2.1311688323483905e-07 0
4.7066550447927163e-06 1.1212633386841610e-06 0
5.3982050022828671e-06 6.2356470458427170e-07 0
3.7283705634373644e-06 1.1614023195167200e-06 0
3.5293995800391213e-06 4.1131914656367272e-07 0
4.2335180023948665e-06 1.7574236790582127e-06 0
4.1829129380326662e-06 2.8624841375917400e-07 0
4.4501778867314382e-06 2.4348108877789063e-06 0
4.2856799674054825e-06 1.1579722389511696e-07 0
4.3866572601682811e-06 3.5513055677353616e-06 0
3.9505238030148897e-06 -5.8334473406608991e-07 0
6.4412489098363727e-06 5.4987465097006686e-06 0
6.9862964112066643e-06 -9.7209174953528587e-07 0
6.0218848513801663e-06 6.9266149469235155e-06 0
5.3135610314153680e-06 -2.4048495489492656e-06 0
8.5789747590193199e-06 9.7117177962733023e-06 0
8.3068825782916184e-06 -4.0754880399078191e-06 0
1.2013206987837591e-05 1.2261868734645535e-05 0
1.1654211166998749e-05 -5.5936611911412790e-06 0
1.8284295646124667e-05 1.5053005012510816e-05 0
1.7261986108244421e-05 -6.4693940827645664e-06 0
2.2580993096315260e-05 1.5153576956052272e-05 0
2.2583699077280012e-05 1.0375556548131443e-05 0
2.1246680296149765e-05 5.8054991403375388e-06 0
2.0716361133498044e-05 2.1326789036870358e-06 0
2.1268832885644574e-05 -2.1898568044982540e-06 0
2.0866614245948667e-05 -7.1662508550872669e-06 0

VECTORS Displacements2 float
-5.4537010930795671e-17 3.0468501005447237e-17 0
-9.5764976142221622e-23 1.9779655269046215e-23 0
1.2727996693704732e-06 3.3863994110309933e-07 0
1.2361574295911635e-06 -2.9814749979313030e-07 0
2.0494350282663692e-06 4.4791624934755504e-07 0
1.9697030076161228e-06 -3.9119918031535423e-07 0
2.3503117581609522e-06 3.8597411136812168e-07 0
2.2731237242540213e-06 -3.2942358655148058e-07 0
2.3564999624097521e-06 2.7181095636540723e-07 0
2.3116350919333832e-06 -2.3658360560793333e-07 0
3.5387713849211846e-06 1.4043459124009038e-07 0
3.3245586521065528e-06 3.8284853701024079e-08 0
2.3887142974143331e-06 -6.9221309444462226e-08 0
2.3446963981325755e-06 1.0023152199674241e-07 0
2.6204702780199952e-06 2.2590610262468814e-08 0
2.5424047535597005e-06 8.0623674409271527e-08 0
2.6347051125701898e-06 2.5392863452241264e-08 0
2.5550576742261174e-06 9.1003157568696595e-08 0
2.4089731321246452e-06 8.1876725961308142e-08 0
2.3676714300934444e-06 1.1325772006956179e-08 0
3.5487832989964911e-06 9.0362287551287590e-08 0
3.3488153873024204e-06 1.7121421192490956e-07 0
2.4250283108122437e-06 -4.8166187602874429e-08 0
2.3769704608057361e-06 1.4607413478453221e-07 0
2.6764478356074093e-06 5.9168867146092384e-08 0
2.6078349614930459e-06 1.1687725844506571e-07 0
2.6893098835869347e-06 5.8616768545152602e-08 0
2.6161338121535193e-06 1.3280987247812627e-07 0
2.4576623399111390e-06 1.1509990268477707e-07 0
2.4189835999348986e-06 4.8315041665438006e-08 0
3.6051053026244128e-06 1.2479850629067379e-07 0
3.4495457509570345e-06 2.3962131211158099e-07 0
2.4835382500990856e-06 -1.6359256542105864e-08 0
2.4348107849722521e-06 1.9412470896087865e-07 0
2.7419227808939539e-06 9.3068187049264932e-08 0
2.6906070345352054e-06 1.6883335218169788e-07 0
2.7637178196417501e-06 9.4010769962880667e-08 0
2.7071673308262679e-06 1.8766666702058096e-07 0
2.5392802082638399e-06 1.5255821935396700e-07 0
2.5070022349507260e-06 9.4176585850271697e-08 0
3.6977389872819623e-06 1.7155430132675591e-07 0
3.6209230415786827e-06 3.1678632746192278e-07 0
2.5801334331369925e-06 2.6994831726636210e-08 0
2.5328566602675924e-06 2.4891498598190902e-07 0
2.8460381608736741e-06 1.4358895974080248e-07 0
2.8224600163443361e-06 2.2329948977646938e-07 0
2.8772504924792965e-06 1.4969853499080398e-07 0
2.8475696472357282e-06 2.4328338915188593e-07 0
2.6604900106504618e-06 2.1220797795652504e-07 0
2.6378139316439939e-06 1.3685411935530472e-07 0
3.8330312765676933e-06 2.5084944096854182e-07 0
3.8736834380956496e-06 3.9368482282619036e-07 0
2.7208690619983553e-06 9.5584479999777665e-08 0
2.6769919232048528e-06 3.0469553859741481e-07 0
2.9940066292362102e-06 2.2381531921529406e-07 0
3.0113147007611381e-06 2.7676580646406335e-07 0
3.0372192147714589e-06 2.3745683948254525e-07 0
3.0469082588978813e-06 2.9867894444511937e-07 0
2.8304449583488250e-06 3.0369748804964512e-07 0
2.8209757137701919e-06 1.7627855367155769e-07 0
4.0156530832791614e-06 3.7265219382851941e-07 0
4.2252964914944319e-06 4.7326911575921106e-07 0
2.9191247003109953e-06 2.0664776005261524e-07 0
2.8793745395157727e-06 3.5933332195067013e-07 0
3.2104152894542969e-06 3.5242578720605903e-07 0
3.2807709591458220e-06 3.2683210499884431e-07 0
3.2754807165108614e-06 3.8071445687734687e-07 0
3.3361225622005554e-06 3.4996182030620413e-07 0
3.0875314738244187e-06 4.6303379099752521e-07 0
3.0936432352032953e-06 2.0195483680937902e-07 0
4.3251153185554810e-06 5.9926692948338595e-07 0
4.7543688032363283e-06 5.4296350672813811e-07 0
3.2342549332452982e-06 3.9581084917472120e-07 0
3.1967009259120742e-06 4.0928340651861142e-07 0
3.5492546878985399e-06 5.9121644330042097e-07 0
3.6930486318038643e-06 3.6650453555678381e-07 0
3.6630319919921399e-06 6.7368149848741401e-07 0
3.7766921237862597e-06 3.9587549344435373e-07 0
3.5304956580034123e-06 8.3469208061558129e-07 0
3.5046600327138044e-06 2.2471257092531445e-07 0
4.8462611991469001e-06 1.1794994835439400e-06 0
5.5167300434397311e-06 6.3274371978949197e-07 0
3.8736833299368505e-06 1.2370829005246431e-06 0
3.6504622903611573e-06 4.1749794299015655e-07 0
4.3881521089711793e-06 1.8542948239687871e-06 0
4.3096961812346298e-06 2.8726344838648621e-07 0
4.6011331972453608e-06 2.5570558067409688e-06 0
4.4055352630426753e-06 1.0978937164155185e-07 0
4.5373882034730353e-06 3.7189417475588563e-06 0
4.0671793024433602e-06 -6.2106380505070240e-07 0
6.6261887391054159e-06 5.7265719406359877e-06 0
7.1362466138479138e-06 -1.0557713120845667e-06 0
6.2713959567008562e-06 7.2058855406539598e-06 0
5.5360383020234165e-06 -2.5333858495048210e-06 0
8.9263335669141522e-06 1.0025247301673687e-05 0
8.6339807474634054e-06 -4.2304799660731065e-06 0
1.2457491924579863e-05 1.2585248914477647e-05 0
1.2090985211548700e-05 -5.7535385274931440e-06 0
1.8821672730440824e-05 1.5380911885686520e-05 0
1.7798314477056776e-05 -6.6311033964717685e-06 0
2.3205110588722549e-05 1.5480758784800130e-05 0
2.3208826772911562e-05 1.0617915864197563e-05 0
2.1876041620408619e-05 5.9549210406016988e-06 0
2.1353112866106588e-05 2.1810194653145755e-06 0
2.1909860953534173e-05 -2.2501175123766021e-06 0
2.1509254930153051e-05 -7.3319854437573382e-06 0

VECTORS Forces1 float
-4.1956556983383830e-01 2.4887823974947521e-01 0
-2.6523471177798053e-01 -1.5806660188478022e-01 0
5.4790545472101959e+00 -3.0338350667277347e+00 0
3.5505094378806419e+00 1.9640853004790448e+00 0
6.0041402358350195e+00 -9.3066954034432170e-01 0
3.9061226462411462e+00 6.0502761618770551e-01 0
3.8260435767484249e+00 1.5520482400808450e-01 0
2.4915790881974038e+00 -9.8699776075147932e-02 0
-5.7666438093424677e-01 -2.0754401532051225e-02 0
-3.7617032580855558e-01 1.3332873688231092e-02 0
1.4737520908512565e+01 4.6330971341554143e-03 0
9.6322271021887413e+00 2.1793283277222419e-02 0
-6.2578960584954701e-01 -7.2580950820815471e-04 0
-4.1057518343147936e-01 -1.5961854252709827e-03 0
4.2043869211391076e+00 3.4334041757093679e-04 0
2.7566015559737975e+00 1.5031174496458665e-02 0
4.2047130668658523e+00 2.5237250609088063e-04 0
2.7568774668590210e+00 1.5085502657720960e-02 0
-6.2649026743124980e-01 -3.0569146646761104e-04 0
-4.1100223212780662e-01 -2.0571703996765467e-03 0
1.4831081262126785e+01 -3.4938915829796570e-03 0
9.7491144256470612e+00 9.3838633435552057e-02 0
-6.2707660199313375e-01 -2.7807100236155422e-04 0
-4.1418373980646622e-01 -5.1304423770713531e-03 0
4.2092044929058909e+00 1.5300009227634521e-04 0
2.7796199198435412e+00 3.6631856463095240e-02 0
4.2092010778249129e+00 1.5542559255435088e-04 0
2.7796493205890567e+00 3.6650327246608154e-02 0
-6.2701604983196113e-01 -3.0356255858781343e-04 0
-4.1430971592122495e-01 -5.2657332922278711e-03 0
1.4806365402429490e+01 1.2587423021154221e-02 0
9.8289213235112847e+00 1.6041678615733443e-01 0
-6.2429549448552368e-01 -1.3003916703765738e-03 0
-4.1748696226621246e-01 -7.8748599183619469e-03 0
4.1901930488306309e+00 7.1746283780386591e-03 0
2.8020683140019362e+00 5.5049270746850329e-02 0
4.1901660741822768e+00 7.1779365333851410e-03 0
2.8020995168553471e+00 5.5069927872511366e-02 0
-6.2408942185931615e-01 -1.3795205729518934e-03 0
-4.1762371547299959e-01 -7.9891293374898635e-03 0
1.4697591680603205e+01 4.3371977075297261e-02 0
9.9101573920981743e+00 2.2708033394284857e-01 0
-6.1823693788555678e-01 -3.0477463306962890e-03 0
-4.2129739399547406e-01 -1.0614829335141929e-02 0
4.1491153788038968e+00 1.8833248733496462e-02 0
2.8279503115761151e+00 7.3670798203728877e-02 0
4.1490641951852023e+00 1.8839193238763378e-02 0
2.8279883252996094e+00 7.3694506349129704e-02 0
-6.1787581481076403e-01 -3.1986159936645930e-03 0
-4.2146362602294779e-01 -1.0709633709897869e-02 0
1.4514505764319990e+01 1.0552315648383612e-01 0
1.0014904908836368e+01 2.8761304627612611e-01 0
-6.0837150539754448e-01 -6.5889491418901691e-03 0
-4.2613372232041691e-01 -1.2991751196701285e-02 0
4.0823150787196418e+00 4.2478743292892460e-02 0
2.8607897671524181e+00 9.0012458985408800e-02 0
4.0822390972343463e+00 4.2483096309756288e-02 0
2.8608409471816687e+00 9.0043603513992362e-02 0
-6.0787886306948302e-01 -6.8210549432058988e-03 0
-4.2638310336236335e-01 -1.3067427460030137e-02 0
1.4230284177305695e+01 1.9118649899212634e-01 0
1.0150407300687110e+01 3.5281683093489452e-01 0
-5.9589415172026705e-01 -1.0799248141533834e-02 0
-4.3371692617597296e-01 -1.5757793138154383e-02 0
3.9979595754280735e+00 7.0011476544847920e-02 0
2.9122833488770592e+00 1.0943359624397743e-01 0
3.9978318468485097e+00 7.0022171315772652e-02 0
2.9123409324682026e+00 1.0947327054473388e-01 0
-5.9521346549046250e-01 -1.1305276596924856e-02 0
-4.3408445566169568e-01 -1.5759969854908719e-02 0
1.3898274276439484e+01 3.9164613492034417e-01 0
1.0374509396922042e+01 3.9016368477818258e-01 0
-5.7549843129685863e-01 -2.3496220511051331e-02 0
-4.4286212834384869e-01 -1.6551418748979418e-02 0
3.8582961945576413e+00 1.5449435650868748e-01 0
2.9731086547172407e+00 1.1606038056791425e-01 0
3.8580449201302534e+00 1.5441804755042554e-01 0
2.9731224480055634e+00 1.1614146422371607e-01 0
-5.7567511980148178e-01 -2.4357741445564868e-02 0
-4.4438282625242492e-01 -1.6557771844178799e-02 0
1.3382817961906337e+01 5.3951047241864702e-01 0
1.0723876401635787e+01 5.3075016573378653e-01 0
-5.7809432495180657e-01 -3.1270387811919202e-02 0
-4.8203061541873327e-01 -2.2897991016190351e-02 0
3.8647817827188784e+00 1.9713864737927500e-01 0
3.2283764993088662e+00 1.6214483766230800e-01 0
3.8637144103624137e+00 1.9680495973825063e-01 0
3.2279871355475356e+00 1.6230417269965614e-01 0
-5.7943466014904355e-01 -3.6133995574833482e-02 0
-4.8584169352629047e-01 -2.0883206736095936e-02 0
1.3585001220085305e+01 1.9008222734919951e+00 0
1.2130021604772772e+01 1.3758943290942008e-01 0
-5.3729878113008711e-01 -1.4742710478973545e-01 0
-5.4303349017911473e-01 2.7736273137608531e-02 0
3.7174177507954131e+00 9.7309040816997161e-01 0
3.7938181122810288e+00 -1.0427326993095105e-01 0
2.9079117844153965e+00 6.5083867198941470e-01 0
3.0414800157929145e+00 -1.0827468001796912e-01 0
7.4806771190539916e+00 2.9438195294818841e+00 0
6.9278055367128895e+00 2.1080771695871217e-01 0
7.0437084076057443e-01 3.9818429949818479e-01 0
5.0785765915224319e+00 1.8347568304707853e+00 0
2.7183480428101250e+00 1.5193497695583902e+00 0
2.5826791144837578e+00 1.8634791287383405e+00 0
4.3962367999709224e+00 1.1607646157985014e+00 0
6.4099837755529132e-01 -1.9399160330766330e-01 0

VECTORS Forces2 float
3.3454426889180366e-01 -1.8933824410290123e-01 0
1.7204047316537852e-01 1.0901596129020501e-01 0
-4.1570084523245843e+00 2.2912614142067547e+00 0
-2.1813588932413488e+00 -1.2041357224288469e+00 0
-4.5536185278690207e+00 7.0462328755692849e-01 0
-2.4109409524207064e+00 -3.6895066490072859e-01 0
-2.9056648837837504e+00 -1.1603167971570325e-01 0
-1.5441334614919842e+00 5.9674669737061044e-02 0
4.3770539387184410e-01 1.4882528907512283e-02 0
2.3287267175154974e-01 -7.9156273704654116e-03 0
-1.1232775330218885e+01 -1.5533747143859199e-04 0
-6.0381643554977744e+00 2.2729094500089787e-02 0
4.7794203813653358e-01 2.0462881063988385e-04 0
2.5824458111885062e-01 -2.2717554965313073e-03 0
-3.2115692355293133e+00 -1.2458705307375024e-03 0
-1.7354222421005108e+00 1.5457674940833355e-02 0
-3.2118062609769766e+00 -1.1714855293570069e-03 0
-1.7355871541047287e+00 1.5461084078168401e-02 0
4.7860474111398221e-01 -7.3833427544270491e-05 0
2.5850782917343157e-01 -2.1597144424899402e-03 0
-1.1336632086912752e+01 -4.0061075171971515e-03 0
-6.1052285523701793e+00 8.8940402385248724e-02 0
4.7899616400582923e-01 8.0575907047467443e-05 0
2.5594115654351451e-01 -5.1901777959586452e-03 0
-3.2146035393961907e+00 -2.2228563993974518e-03 0
-1.7176872617774233e+00 3.6891713924922770e-02 0
-3.2145921594079465e+00 -2.2279939102898129e-03 0
-1.7176478090205085e+00 3.6918438487475530e-02 0
4.7890069317477652e-01 6.3339787184486389e-05 0
2.5561911323519271e-01 -5.3190742647767283e-03 0
-1.1285712178195979e+01 -6.9686694833135466e-03 0
-5.9401804600062427e+00 1.7008692674276757e-01 0
4.7466867905616833e-01 -1.5377995080840021e-04 0
2.4505278861969290e-01 -8.4966880856702943e-03 0
-3.1846308135118662e+00 -7.4826400522713860e-04 0
-1.6433724415191018e+00 5.9393157280658339e-02 0
-3.1845955723168951e+00 -7.5306448633166798e-04 0
-1.6432883353017009e+00 5.9421628003547292e-02 0
4.7435844498886370e-01 -2.1120543902191651e-04 0
2.4434184308802814e-01 -8.6184039916003870e-03 0
-1.1130700104826159e+01 8.7453563169604190e-03 0
-5.5841977400237992e+00 2.4621063753268757e-01 0
4.6622771453551903e-01 -1.2987092469429211e-03 0
2.2618014310624956e-01 -1.1581156019397300e-02 0
-3.1270899768451765e+00 6.7635901568172665e-03 0
-1.5156303391071138e+00 8.0459577409032562e-02 0
-3.1270326601127412e+00 6.7611039139404087e-03 0
-1.5155014737744943e+00 8.0490592147641371e-02 0
4.6572987257417209e-01 -1.4286444327002155e-03 0
2.2507136141151807e-01 -1.1679903655941209e-02 0
-1.0881113597258532e+01 5.3297275751149141e-02 0
-5.0351413013297455e+00 3.1727911878908649e-01 0
4.5395254446313221e-01 -4.0348127695682100e-03 0
1.9863162494509795e-01 -1.4380607234536437e-02 0
-3.0437152406357781e+00 2.4814446258377112e-02 0
-1.3297081761775318e+00 9.9828309246742325e-02 0
-3.0436286187949766e+00 2.4807105261466379e-02 0
-1.3295281407024100e+00 9.9869314777070534e-02 0
4.5322690162848744e-01 -4.2427569806896773e-03 0
1.9702985586444935e-01 -1.4462482796545309e-02 0
-1.0534319766869789e+01 1.1811270548588371e-01 0
-4.2582114304618335e+00 3.9353830513008675e-01 0
4.3571690031075638e-01 -7.2582398874212421e-03 0
1.5957317261585152e-01 -1.7780649082717787e-02 0
-2.9197346683422745e+00 4.5437319992579155e-02 0
-1.0664458924468516e+00 1.2379268464794289e-01 0
-2.9196108627201371e+00 4.5425960737425129e-02 0
-1.0662031043598899e+00 1.2384777838319043e-01 0
4.3472469066501407e-01 -7.7269081614932842e-03 0
1.5724324267120340e-01 -1.7785242429967735e-02 0
-9.9981263101752731e+00 2.8073337694806183e-01 0
-3.1419081296678213e+00 4.5645127219275888e-01 0
4.1173408494791175e-01 -1.7830037107929717e-02 0
1.0342953703645548e-01 -1.9366899853074590e-02 0
-2.7567982331738108e+00 1.1487812408694133e-01 0
-6.8888639856758371e-01 1.3619802733938205e-01 0
-2.7566043371391058e+00 1.1473578497373280e-01 0
-6.8862642997208690e-01 1.3630371278875464e-01 0
4.1003478483525241e-01 -1.8623417858321594e-02 0
9.9754705064545326e-02 -1.9363382315820587e-02 0
-9.3328261827797636e+00 3.6623919518473197e-01 0
-1.5656365317989505e+00 5.8424536527089355e-01 0
3.6536945069926774e-01 -1.9750822722961064e-02 0
2.0601384044997863e-02 -2.6739405372373702e-02 0
-2.4425291165007050e+00 1.1498132948676966e-01 0
-1.3866428089831409e-01 1.8974032123533593e-01 0
-2.4419394622766473e+00 1.1429343376603594e-01 0
-1.3858765353506838e-01 1.9006046710900371e-01 0
3.6156434704553114e-01 -2.4456124477469816e-02 0
1.1759998768395277e-02 -2.4959048292208855e-02 0
-7.3257042480874786e+00 1.2009398726260812e+00 0
1.2677922644686948e+00 5.3430800424279512e-01 0
2.3415417753070156e-01 -1.0602701430800703e-01 0
-1.8499903719480482e-01 2.0837429847170644e-03 0
-1.4536495793654436e+00 6.8126231488557254e-01 0
1.2706600555727783e+00 9.8725132527727535e-02 0
-1.6057671359158552e+00 2.6355079877900645e-01 0
8.5523350881817506e-01 8.5064037115300847e-02 0
1.8533582033286988e+00 3.9573214565087946e+00 0
3.8435252531681825e+00 2.9715217178287401e-01 0
-4.6439779442099274e-02 4.2013671635453592e-01 0
1.6297147633700335e+00 3.5993646221764770e+00 0
1.5432079249787152e+00 2.8865946422708419e+00 0
1.3047592510003247e+00 2.7390941281804992e+00 0
2.3138600937068867e+00 1.0764965519170735e+00 0
4.6511205804338795e-01 -2.0472598070613560e-01 0

VECTORS Forces3 float
-5.1399765284913440e-02 3.5035261176924216e-02 0
-5.2712510857352193e-02 -2.8574676786020981e-02 0
7.6162628316516146e-01 -4.2970545475222865e-01 0
7.5118134791348201e-01 4.1969208499142757e-01 0
8.2813566190197840e-01 -1.3240212906143342e-01 0
8.1363416331915384e-01 1.3145304541780237e-01 0
5.2375943986812257e-01 2.1130070329004248e-02 0
5.1390540057215472e-01 -2.0219631085343210e-02 0
-7.9002836946428401e-02 -3.0718175438485206e-03 0
-7.7655384885641013e-02 2.7498992362101995e-03 0
1.9663135123448701e+00 -9.1947862597315539e-03 0
1.9220010492524555e+00 3.2368309497784235e-02 0
-8.2722276790909488e-02 8.3282577034181647e-05 0
-8.1207633451635106e-02 -2.1777702036771345e-03 0
5.5530635406616347e-01 -2.5827002000711249e-03 0
5.4424280595579999e-01 1.6698936909583760e-02 0
5.5535118094678582e-01 -2.5926544811380862e-03 0
5.4429757730366746e-01 1.6727700839099479e-02 0
-8.2718038324297263e-02 1.5939636388284081e-04 0
-8.1260928457937934e-02 -2.3529450629213404e-03 0
1.9579294814763202e+00 -5.6456360790861542e-03 0
1.9435568893037722e+00 8.9700875736345498e-02 0
-8.2866630932197344e-02 6.4634101865982031e-05 0
-8.4185186368452347e-02 -5.1191927973990295e-03 0
5.5655566731536110e-01 -1.8640604400275919e-03 0
5.6497032249761547e-01 3.6205229360258689e-02 0
5.5655825385118673e-01 -1.8651279483319079e-03 0
5.6500348711099102e-01 3.6226768023643920e-02 0
-8.2877015083037756e-02 4.5759290223427146e-05 0
-8.4402260137081409e-02 -5.2486679428180669e-03 0
1.9643079914294703e+00 -3.7967683895169602e-03 0
2.0594944500990353e+00 1.6555311075763660e-01 0
-8.3247769312086939e-02 -3.2560224840484544e-04 0
-9.0905871550698680e-02 -8.2569399754020036e-03 0
5.5931718348210013e-01 7.4131275071285185e-04 0
6.1075265218772534e-01 5.7454679413043871e-02 0
5.5931826871387758e-01 7.4018906551011614e-04 0
6.1080757772410577e-01 5.7478769504638205e-02 0
-8.3277461627745908e-02 -3.8199677611788812e-04 0
-9.1308123154079240e-02 -8.3804612840734701e-03 0
1.9767913502357681e+00 1.5651189130079846e-02 0
2.2680793206323626e+00 2.3744808016522695e-01 0
-8.3863230153673696e-02 -1.6038196237218385e-03 0
-1.0170729126929530e-01 -1.1186354243168975e-02 0
5.6364405218593128e-01 9.2520287851983844e-03 0
6.8390781185414473e-01 7.7354354225528929e-02 0
5.6364269165892034e-01 9.2541699503945665e-03 0
6.8398739041369216e-01 7.7380213859755034e-02 0
-8.3897221762978133e-02 -1.7300132617802703e-03 0
-1.0231193628814095e-01 -1.1288648907089459e-02 0
1.9922565591470256e+00 6.3966713500413150e-02 0
2.5783578621150456e+00 3.0411839413158764e-01 0
-8.4168564031714757e-02 -4.4912300211615939e-03 0
-1.1706160928970390e-01 -1.3805400557544308e-02 0
5.6583020187689648e-01 2.8475465729877799e-02 0
7.8761390943237863e-01 9.5341544812630269e-02 0
5.6582901400837371e-01 2.8475195648539606e-02 0
7.8772399342895549e-01 9.5375147324521597e-02 0
-8.4231844200872152e-02 -4.6886373956714997e-03 0
-1.1793648639113735e-01 -1.3896054306684761e-02 0
1.9975569060912401e+00 1.3279949794315427e-01 0
3.0105762572841943e+00 3.7535695069594077e-01 0
-8.5693303465057685e-02 -7.8463627937747360e-03 0
-1.3913251836842128e-01 -1.7019704110829006e-02 0
5.7647539137452308e-01 5.0252376975424264e-02 0
9.3655098007752280e-01 1.1778931172499769e-01 0
5.7646431284069100e-01 5.0254906756910321e-02 0
9.3669466336637430e-01 1.1783106567865075e-01 0
-8.5764233817528138e-02 -8.2870373439877954e-03 0
-1.4040550364236021e-01 -1.7041844444795118e-02 0
2.0592539431666714e+00 3.0109430666985543e-01 0
3.6450208120702703e+00 4.2990165440622152e-01 0
-8.5360709993409459e-02 -1.8615824404033317e-02 0
-1.7006028753177480e-01 -1.8186860011429676e-02 0
5.7378926784500017e-01 1.2165738671166337e-01 0
1.1442553987500157e+00 1.2682720323220312e-01 0
5.7375528845273716e-01 1.2155166667348156e-01 0
1.1443932200833615e+00 1.2691097234926774e-01 0
-8.6123041709760165e-02 -1.9275234990796211e-02 0
-1.7250202387730237e-01 -1.8258828301317417e-02 0
2.0676571670379800e+00 3.7994312635913591e-01 0
4.5572276349538097e+00 5.6045606729633013e-01 0
-1.0601064279256724e-01 -1.9378815683791906e-02 0
-2.2798504235476846e-01 -2.6453523255933312e-02 0
7.0920666846421143e-01 1.1628085361967677e-01 0
1.5272971360452265e+00 1.8546122233894916e-01 0
7.0897618075710123e-01 1.1582197476680886e-01 0
1.5271596654178212e+00 1.8565523745401541e-01 0
-1.0799421928515671e-01 -2.3508409770540889e-02 0
-2.3368117577257735e-01 -2.5032330003473192e-02 0
3.0051881637988700e+00 1.2779543850371615e+00 0
6.5180114739013719e+00 4.6164830715322686e-01 0
-1.3626948432733393e-01 -1.0884663281753708e-01 0
-3.4528451082058342e-01 4.2570916930879136e-03 0
1.0163304839182419e+00 7.1475642280723173e-01 0
2.3948248347563088e+00 5.7691436947065168e-02 0
5.9299145995286995e-01 3.8120496922910663e-01 0
1.8718357819701839e+00 3.0459587740824752e-02 0
4.1073897517633648e+00 3.1225424144107232e+00 0
4.7980927790962244e+00 4.0875141958359967e-01 0
2.8948966703736140e-01 3.5997016620869093e-01 0
2.9075752371223591e+00 2.4691215505955029e+00 0
1.7668493360730140e+00 2.1163561868681260e+00 0
1.5824438378746080e+00 2.2349286662190773e+00 0
2.8982949583509128e+00 1.2136805077672734e+00 0
5.0723686335375384e-01 -1.6232384997418531e-01 0

