# vtk DataFile Version 2.0

ASCII

DATASET UNSTRUCTURED_GRID

POINTS 106 float 

-5.0000000000000003e-02  0.0000000000000000e+00  0.0000000000000000e+00
5.0000000000000003e-02  0.0000000000000000e+00  0.0000000000000000e+00
-5.0000000000000003e-02  2.0000000000000000e-02  0.0000000000000000e+00
5.0000000000000003e-02  2.0000000000000000e-02  0.0000000000000000e+00
-5.0000000000000003e-02  4.0000000000000001e-02  0.0000000000000000e+00
5.0000000000000003e-02  4.0000000000000001e-02  0.0000000000000000e+00
-5.0000000000000003e-02  5.9999999999999998e-02  0.0000000000000000e+00
5.0000000000000003e-02  5.9999999999999998e-02  0.0000000000000000e+00
-5.0000000000000003e-02  8.0000000000000002e-02  0.0000000000000000e+00
5.0000000000000003e-02  8.0000000000000002e-02  0.0000000000000000e+00
-5.0000000000000003e-02  1.0000000000000001e-01  0.0000000000000000e+00
5.0000000000000003e-02  1.0000000000000001e-01  0.0000000000000000e+00
-5.0000000000000003e-02  1.2000000000000000e-01  0.0000000000000000e+00
5.0000000000000003e-02  1.2000000000000000e-01  0.0000000000000000e+00
-5.0000000000000003e-02  1.4000000000000001e-01  0.0000000000000000e+00
5.0000000000000003e-02  1.4000000000000001e-01  0.0000000000000000e+00
-5.0000000000000003e-02  1.6000000000000000e-01  0.0000000000000000e+00
5.0000000000000003e-02  1.6000000000000000e-01  0.0000000000000000e+00
-5.0000000000000003e-02  1.7999999999999999e-01  0.0000000000000000e+00
5.0000000000000003e-02  1.7999999999999999e-01  0.0000000000000000e+00
-5.0000000000000003e-02  2.0000000000000001e-01  0.0000000000000000e+00
5.0000000000000003e-02  2.0000000000000001e-01  0.0000000000000000e+00
-5.0000000000000003e-02  2.2000000000000000e-01  0.0000000000000000e+00
5.0000000000000003e-02  2.2000000000000000e-01  0.0000000000000000e+00
-5.0000000000000003e-02  2.3999999999999999e-01  0.0000000000000000e+00
5.0000000000000003e-02  2.3999999999999999e-01  0.0000000000000000e+00
-5.0000000000000003e-02  2.6000000000000001e-01  0.0000000000000000e+00
5.0000000000000003e-02  2.6000000000000001e-01  0.0000000000000000e+00
-5.0000000000000003e-02  2.8000000000000003e-01  0.0000000000000000e+00
5.0000000000000003e-02  2.8000000000000003e-01  0.0000000000000000e+00
-5.0000000000000003e-02  2.9999999999999999e-01  0.0000000000000000e+00
5.0000000000000003e-02  2.9999999999999999e-01  0.0000000000000000e+00
-5.0000000000000003e-02  3.2000000000000001e-01  0.0000000000000000e+00
5.0000000000000003e-02  3.2000000000000001e-01  0.0000000000000000e+00
-5.0000000000000003e-02  3.4000000000000002e-01  0.0000000000000000e+00
5.0000000000000003e-02  3.4000000000000002e-01  0.0000000000000000e+00
-5.0000000000000003e-02  3.5999999999999999e-01  0.0000000000000000e+00
5.0000000000000003e-02  3.5999999999999999e-01  0.0000000000000000e+00
-5.0000000000000003e-02  3.8000000000000000e-01  0.0000000000000000e+00
5.0000000000000003e-02  3.8000000000000000e-01  0.0000000000000000e+00
-5.0000000000000003e-02  4.0000000000000002e-01  0.0000000000000000e+00
5.0000000000000003e-02  4.0000000000000002e-01  0.0000000000000000e+00
-5.0000000000000003e-02  4.1999999999999998e-01  0.0000000000000000e+00
5.0000000000000003e-02  4.1999999999999998e-01  0.0000000000000000e+00
-5.0000000000000003e-02  4.4000000000000000e-01  0.0000000000000000e+00
5.0000000000000003e-02  4.4000000000000000e-01  0.0000000000000000e+00
-5.0000000000000003e-02  4.6000000000000002e-01  0.0000000000000000e+00
5.0000000000000003e-02  4.6000000000000002e-01  0.0000000000000000e+00
-5.0000000000000003e-02  4.7999999999999998e-01  0.0000000000000000e+00
5.0000000000000003e-02  4.7999999999999998e-01  0.0000000000000000e+00
-5.0000000000000003e-02  5.0000000000000000e-01  0.0000000000000000e+00
5.0000000000000003e-02  5.0000000000000000e-01  0.0000000000000000e+00
-5.0000000000000003e-02  5.2000000000000002e-01  0.0000000000000000e+00
5.0000000000000003e-02  5.2000000000000002e-01  0.0000000000000000e+00
-5.0000000000000003e-02  5.4000000000000004e-01  0.0000000000000000e+00
5.0000000000000003e-02  5.4000000000000004e-01  0.0000000000000000e+00
-5.0000000000000003e-02  5.6000000000000005e-01  0.0000000000000000e+00
5.0000000000000003e-02  5.6000000000000005e-01  0.0000000000000000e+00
-5.0000000000000003e-02  5.7999999999999996e-01  0.0000000000000000e+00
5.0000000000000003e-02  5.7999999999999996e-01  0.0000000000000000e+00
-5.0000000000000003e-02  5.9999999999999998e-01  0.0000000000000000e+00
5.0000000000000003e-02  5.9999999999999998e-01  0.0000000000000000e+00
-5.0000000000000003e-02  6.2000000000000000e-01  0.0000000000000000e+00
5.0000000000000003e-02  6.2000000000000000e-01  0.0000000000000000e+00
-5.0000000000000003e-02  6.4000000000000001e-01  0.0000000000000000e+00
5.0000000000000003e-02  6.4000000000000001e-01  0.0000000000000000e+00
-5.0000000000000003e-02  6.6000000000000003e-01  0.0000000000000000e+00
5.0000000000000003e-02  6.6000000000000003e-01  0.0000000000000000e+00
-5.0000000000000003e-02  6.8000000000000005e-01  0.0000000000000000e+00
5.0000000000000003e-02  6.8000000000000005e-01  0.0000000000000000e+00
-5.0000000000000003e-02  6.9999999999999996e-01  0.0000000000000000e+00
5.0000000000000003e-02  6.9999999999999996e-01  0.0000000000000000e+00
-5.0000000000000003e-02  7.1999999999999997e-01  0.0000000000000000e+00
5.0000000000000003e-02  7.1999999999999997e-01  0.0000000000000000e+00
-5.0000000000000003e-02  7.3999999999999999e-01  0.0000000000000000e+00
5.0000000000000003e-02  7.3999999999999999e-01  0.0000000000000000e+00
-5.0000000000000003e-02  7.6000000000000001e-01  0.0000000000000000e+00
5.0000000000000003e-02  7.6000000000000001e-01  0.0000000000000000e+00
-5.0000000000000003e-02  7.8000000000000003e-01  0.0000000000000000e+00
5.0000000000000003e-02  7.8000000000000003e-01  0.0000000000000000e+00
-5.0000000000000003e-02  8.0000000000000004e-01  0.0000000000000000e+00
5.0000000000000003e-02  8.0000000000000004e-01  0.0000000000000000e+00
-5.0000000000000003e-02  8.1999999999999995e-01  0.0000000000000000e+00
5.0000000000000003e-02  8.1999999999999995e-01  0.0000000000000000e+00
-5.0000000000000003e-02  8.3999999999999997e-01  0.0000000000000000e+00
5.0000000000000003e-02  8.3999999999999997e-01  0.0000000000000000e+00
-5.0000000000000003e-02  8.5999999999999999e-01  0.0000000000000000e+00
5.0000000000000003e-02  8.5999999999999999e-01  0.0000000000000000e+00
-5.0000000000000003e-02  8.8000000000000000e-01  0.0000000000000000e+00
5.0000000000000003e-02  8.8000000000000000e-01  0.0000000000000000e+00
-5.0000000000000003e-02  9.0000000000000002e-01  0.0000000000000000e+00
5.0000000000000003e-02  9.0000000000000002e-01  0.0000000000000000e+00
-5.0000000000000003e-02  9.2000000000000004e-01  0.0000000000000000e+00
5.0000000000000003e-02  9.2000000000000004e-01  0.0000000000000000e+00
-5.0000000000000003e-02  9.3999999999999995e-01  0.0000000000000000e+00
5.0000000000000003e-02  9.3999999999999995e-01  0.0000000000000000e+00
-5.0000000000000003e-02  9.5999999999999996e-01  0.0000000000000000e+00
5.0000000000000003e-02  9.5999999999999996e-01  0.0000000000000000e+00
-5.0000000000000003e-02  9.7999999999999998e-01  0.0000000000000000e+00
5.0000000000000003e-02  9.7999999999999998e-01  0.0000000000000000e+00
-5.0000000000000003e-02  1.0000000000000000e+00  0.0000000000000000e+00
-3.0000000000000002e-02  1.0000000000000000e+00  0.0000000000000000e+00
-1.0000000000000002e-02  1.0000000000000000e+00  0.0000000000000000e+00
1.0000000000000009e-02  1.0000000000000000e+00  0.0000000000000000e+00
2.9999999999999999e-02  1.0000000000000000e+00  0.0000000000000000e+00
5.0000000000000003e-02  1.0000000000000000e+00  0.0000000000000000e+00

CELLS 0 0


CELL_TYPES 0


POINT_DATA 106

VECTORS VertexNormals float

0.0000000000000000e+00 0.0000000000000000e+00 0
0.0000000000000000e+00 0.0000000000000000e+00 0
0.0000000000000000e+00 0.0000000000000000e+00 0
0.0000000000000000e+00 0.0000000000000000e+00 0
0.0000000000000000e+00 0.0000000000000000e+00 0
0.0000000000000000e+00 0.0000000000000000e+00 0
0.0000000000000000e+00 0.0000000000000000e+00 0
0.0000000000000000e+00 0.0000000000000000e+00 0
0.0000000000000000e+00 0.0000000000000000e+00 0
0.0000000000000000e+00 0.0000000000000000e+00 0
0.0000000000000000e+00 0.0000000000000000e+00 0
0.0000000000000000e+00 0.0000000000000000e+00 0
0.0000000000000000e+00 0.0000000000000000e+00 0
0.0000000000000000e+00 0.0000000000000000e+00 0
0.0000000000000000e+00 0.0000000000000000e+00 0
0.0000000000000000e+00 0.0000000000000000e+00 0
0.0000000000000000e+00 0.0000000000000000e+00 0
0.0000000000000000e+00 0.0000000000000000e+00 0
0.0000000000000000e+00 0.0000000000000000e+00 0
0.0000000000000000e+00 0.0000000000000000e+00 0
0.0000000000000000e+00 0.0000000000000000e+00 0
0.0000000000000000e+00 0.0000000000000000e+00 0
0.0000000000000000e+00 0.0000000000000000e+00 0
0.0000000000000000e+00 0.0000000000000000e+00 0
0.0000000000000000e+00 0.0000000000000000e+00 0
0.0000000000000000e+00 0.0000000000000000e+00 0
0.0000000000000000e+00 0.0000000000000000e+00 0
0.0000000000000000e+00 0.0000000000000000e+00 0
0.0000000000000000e+00 0.0000000000000000e+00 0
0.0000000000000000e+00 0.0000000000000000e+00 0
0.0000000000000000e+00 0.0000000000000000e+00 0
0.0000000000000000e+00 0.0000000000000000e+00 0
0.0000000000000000e+00 0.0000000000000000e+00 0
0.0000000000000000e+00 0.0000000000000000e+00 0
0.0000000000000000e+00 0.0000000000000000e+00 0
0.0000000000000000e+00 0.0000000000000000e+00 0
0.0000000000000000e+00 0.0000000000000000e+00 0
0.0000000000000000e+00 0.0000000000000000e+00 0
0.0000000000000000e+00 0.0000000000000000e+00 0
0.0000000000000000e+00 0.0000000000000000e+00 0
0.0000000000000000e+00 0.0000000000000000e+00 0
0.0000000000000000e+00 0.0000000000000000e+00 0
0.0000000000000000e+00 0.0000000000000000e+00 0
0.0000000000000000e+00 0.0000000000000000e+00 0
0.0000000000000000e+00 0.0000000000000000e+00 0
0.0000000000000000e+00 0.0000000000000000e+00 0
0.0000000000000000e+00 0.0000000000000000e+00 0
0.0000000000000000e+00 0.0000000000000000e+00 0
0.0000000000000000e+00 0.0000000000000000e+00 0
0.0000000000000000e+00 0.0000000000000000e+00 0
0.0000000000000000e+00 0.0000000000000000e+00 0
0.0000000000000000e+00 0.0000000000000000e+00 0
0.0000000000000000e+00 0.0000000000000000e+00 0
0.0000000000000000e+00 0.0000000000000000e+00 0
0.0000000000000000e+00 0.0000000000000000e+00 0
0.0000000000000000e+00 0.0000000000000000e+00 0
0.0000000000000000e+00 0.0000000000000000e+00 0
0.0000000000000000e+00 0.0000000000000000e+00 0
0.0000000000000000e+00 0.0000000000000000e+00 0
0.0000000000000000e+00 0.0000000000000000e+00 0
0.0000000000000000e+00 0.0000000000000000e+00 0
0.0000000000000000e+00 0.0000000000000000e+00 0
0.0000000000000000e+00 0.0000000000000000e+00 0
0.0000000000000000e+00 0.0000000000000000e+00 0
0.0000000000000000e+00 0.0000000000000000e+00 0
0.0000000000000000e+00 0.0000000000000000e+00 0
0.0000000000000000e+00 0.0000000000000000e+00 0
0.0000000000000000e+00 0.0000000000000000e+00 0
0.0000000000000000e+00 0.0000000000000000e+00 0
0.0000000000000000e+00 0.0000000000000000e+00 0
0.0000000000000000e+00 0.0000000000000000e+00 0
0.0000000000000000e+00 0.0000000000000000e+00 0
0.0000000000000000e+00 0.0000000000000000e+00 0
0.0000000000000000e+00 0.0000000000000000e+00 0
0.0000000000000000e+00 0.0000000000000000e+00 0
0.0000000000000000e+00 0.0000000000000000e+00 0
0.0000000000000000e+00 0.0000000000000000e+00 0
0.0000000000000000e+00 0.0000000000000000e+00 0
0.0000000000000000e+00 0.0000000000000000e+00 0
0.0000000000000000e+00 0.0000000000000000e+00 0
0.0000000000000000e+00 0.0000000000000000e+00 0
0.0000000000000000e+00 0.0000000000000000e+00 0
0.0000000000000000e+00 0.0000000000000000e+00 0
0.0000000000000000e+00 0.0000000000000000e+00 0
0.0000000000000000e+00 0.0000000000000000e+00 0
0.0000000000000000e+00 0.0000000000000000e+00 0
0.0000000000000000e+00 0.0000000000000000e+00 0
0.0000000000000000e+00 0.0000000000000000e+00 0
0.0000000000000000e+00 0.0000000000000000e+00 0
0.0000000000000000e+00 0.0000000000000000e+00 0
0.0000000000000000e+00 0.0000000000000000e+00 0
0.0000000000000000e+00 0.0000000000000000e+00 0
0.0000000000000000e+00 0.0000000000000000e+00 0
0.0000000000000000e+00 0.0000000000000000e+00 0
0.0000000000000000e+00 0.0000000000000000e+00 0
0.0000000000000000e+00 0.0000000000000000e+00 0
0.0000000000000000e+00 0.0000000000000000e+00 0
0.0000000000000000e+00 0.0000000000000000e+00 0
0.0000000000000000e+00 0.0000000000000000e+00 0
0.0000000000000000e+00 0.0000000000000000e+00 0
0.0000000000000000e+00 0.0000000000000000e+00 0
0.0000000000000000e+00 0.0000000000000000e+00 0
0.0000000000000000e+00 0.0000000000000000e+00 0
0.0000000000000000e+00 0.0000000000000000e+00 0
0.0000000000000000e+00 0.0000000000000000e+00 0
0.0000000000000000e+00 0.0000000000000000e+00 0

VECTORS Displacements1 float
-2.2970888735236637e-19 1.2839628305678536e-19 0
-2.2114453303773050e-26 -1.3557749420162625e-26 0
3.2762615106821205e-10 -1.5287190949623702e-10 0
3.9768622819605583e-10 2.3465900158955006e-10 0
3.7339078690397980e-10 -2.6607997359366878e-11 0
4.3830766946802471e-10 1.0533341596409998e-10 0
2.4170341525197019e-10 2.7375923909127175e-11 0
2.7560967467351423e-10 1.7766843681950555e-11 0
1.7615772562732847e-11 1.5908693569122829e-11 0
1.9820477038200403e-11 1.4066126163322830e-11 0
8.5072217977169394e-10 5.4091176454522826e-11 0
9.7720185713154289e-10 7.5177140973771760e-11 0
1.6185110157864294e-11 1.1027175989357819e-11 0
1.7630611659859926e-11 2.0070127321614909e-11 0
2.5154753108256589e-10 1.8583646182055244e-11 0
2.9333328495294657e-10 2.6801199938090273e-11 0
2.5152334027406796e-10 1.6290085976325965e-11 0
2.9336302933440122e-10 2.9637080360467095e-11 0
1.5540567161221563e-11 1.6915896282337133e-11 0
1.8934673771074327e-11 1.2946667744736752e-11 0
8.3813307860932570e-10 4.1482205756513734e-11 0
1.0000809225137250e-09 9.2319877995454932e-11 0
1.5698023929374474e-11 1.1179440466680637e-11 0
1.7829203052571648e-11 2.0129163403291353e-11 0
2.4815952417496199e-10 1.4688593443886021e-11 0
3.0464592296542120e-10 3.2600614013493314e-11 0
2.4808533122564794e-10 1.2430058090955928e-11 0
3.0466436188188417e-10 3.5554567718304905e-11 0
1.5279821423497812e-11 1.6997296538671514e-11 0
2.0660185512052862e-11 1.3228338437592959e-11 0
8.2810534573895311e-10 2.9847708789062625e-11 0
1.0534998935907779e-09 1.1267333075153477e-10 0
1.5322556527116513e-11 1.1197040916922208e-11 0
1.8582998978909474e-11 2.0928735898834900e-11 0
2.4526072579348666e-10 1.1946840348480104e-11 0
3.2527542042029146e-10 3.8630275896282852e-11 0
2.4516443275234536e-10 9.7188122410855545e-12 0
3.2530941825647789e-10 4.1795438355494042e-11 0
1.5022892827326296e-11 1.6990290235369898e-11 0
2.2939197399343731e-11 1.3957479408325424e-11 0
8.1799105949900199e-10 2.2873706775459805e-11 0
1.1390344205432961e-09 1.3285636265849114e-10 0
1.5052913152937660e-11 1.1087116125788800e-11 0
1.9824904095277852e-11 2.2464865725702172e-11 0
2.4223298549614005e-10 1.0657952859852690e-11 0
3.5616641149679516e-10 4.4652446924100892e-11 0
2.4212890696058918e-10 8.4658115645003048e-12 0
3.5623222740035200e-10 4.8128334480985481e-11 0
1.4836312063680542e-11 1.6878147946456584e-11 0
2.5900135014612061e-11 1.5204270582629420e-11 0
8.0719658905397108e-10 2.3480963952577726e-11 0
1.2622975913836495e-09 1.5072579438436234e-10 0
1.5015097724506322e-11 1.0707774015339714e-11 0
2.1640615201713591e-11 2.4962265584664817e-11 0
2.3813973018690374e-10 1.2073282935916126e-11 0
3.9876973947890950e-10 4.9659065087770936e-11 0
2.3805056912898137e-10 9.9253481686818609e-12 0
3.9890408107507001e-10 5.3565182034459452e-11 0
1.4619287834247148e-11 1.6356430823910845e-11 0
2.9777748623374540e-11 1.7256615389005802e-11 0
7.9187095178699299e-10 2.7741384590706668e-11 0
1.4306097027200527e-09 1.7044785545029394e-10 0
1.4632664110633838e-11 1.0339677832332432e-11 0
2.3776858910787321e-11 2.8309012793723976e-11 0
2.3642835600835311e-10 1.3703509990096193e-11 0
4.6016473098237186e-10 5.6804016712348775e-11 0
2.3639356660901622e-10 1.1603470548214245e-11 0
4.6040029395064163e-10 6.1330305846112940e-11 0
1.5249998505854779e-11 1.6522622668162946e-11 0
3.5253440678088949e-11 1.9966516251059047e-11 0
7.9536818442182908e-10 5.8234542005796430e-11 0
1.6792113307157176e-09 1.7693874582832869e-10 0
1.5854954659277979e-11 8.8173149071730511e-12 0
2.7286785993729185e-11 3.4366878022572144e-11 0
2.3256762658407855e-10 2.8110183592454597e-11 0
5.4245711786518229e-10 5.5355081548488705e-11 0
2.3266448201897360e-10 2.6024360883837280e-11 0
5.4294848123271937e-10 6.0747372555499711e-11 0
1.5679230167183450e-11 1.4388292857343616e-11 0
4.3413519531241295e-11 2.5685343602865135e-11 0
7.9466269047182745e-10 5.8314199231955200e-11 0
2.0268564610638710e-09 2.2162628189872492e-10 0
1.1147233909137988e-11 9.6278083463575003e-12 0
2.7811476776829803e-11 4.0595466307281100e-11 0
2.7990796074762417e-10 2.5869531415235098e-11 0
7.0611442829670323e-10 7.9563593698366445e-11 0
2.8051130974384056e-10 2.3551472812482946e-11 0
7.0688840819266317e-10 8.6712777935230716e-11 0
2.8451508607746295e-11 2.4571428102254390e-11 0
6.0916685023698247e-11 3.2017528233801764e-11 0
1.1415994277589405e-09 3.3638715495888820e-10 0
2.8404200791931357e-09 9.9477888723944851e-11 0
2.5919743311270927e-11 -4.9063013356826165e-12 0
3.1788603540414060e-11 7.4409097065125319e-11 0
4.3393298521522069e-10 2.1150140771484704e-10 0
1.0608282411455028e-09 -1.7568911272991515e-11 0
3.8215141790668699e-10 1.6107597662505707e-10 0
9.3373303765908790e-10 2.4175038802293868e-11 0
1.7919430947446741e-09 1.0640530907312241e-09 0
2.2481838481705734e-09 -2.2956470072785324e-11 0
6.6549642368647764e-10 6.4495189062565364e-10 0
1.3550926511600697e-09 8.8946234470398933e-10 0
8.7456108869612846e-10 7.1836973556586684e-10 0
8.1810075968231867e-10 7.3018049667991892e-10 0
1.4453968622311442e-09 3.3046731339575582e-10 0
6.0090441513176045e-10 -7.4955780924757809e-11 0

VECTORS Displacements2 float
-4.1040282731789470e-19 2.2936742755973179e-19 0
-5.7035052790625250e-26 -3.5826620244554427e-26 0
8.4465485135942829e-10 -3.8007581827058199e-10 0
1.0139700497350389e-09 6.0934877223407739e-10 0
9.6454173160301907e-10 -4.7160563324915624e-11 0
1.1036736479093911e-09 2.8203946337000440e-10 0
6.2710316471380871e-10 8.3196122387005398e-11 0
6.9167087228402258e-10 5.8350434893326591e-11 0
3.2729242909732380e-11 5.1341005682179023e-11 0
3.4788739189810401e-11 3.8143264357356591e-11 0
2.2248865726931408e-09 1.7717045139290648e-10 0
2.4711950536202279e-09 2.2801088853794548e-10 0
2.8718975660441398e-11 3.1878032482201893e-11 0
2.8892549602416409e-11 6.0660071303447352e-11 0
6.5509459262234983e-10 6.2286456480141208e-11 0
7.3839653675529228e-10 7.8967865662339325e-11 0
6.5501757148685995e-10 5.3374111838053120e-11 0
7.3840930799871722e-10 8.9511899504189913e-11 0
2.7281097304980618e-11 5.4283564177009098e-11 0
3.2152074055918594e-11 3.4734173894976488e-11 0
2.1934690582127127e-09 1.4511937696811439e-10 0
2.5296209207871535e-09 2.7346026163552976e-10 0
2.7556912966873250e-11 3.2626561457449361e-11 0
2.9046842034170891e-11 6.0488791411772327e-11 0
6.4677277365111460e-10 5.2480210420254068e-11 0
7.6722827120553953e-10 9.4314320056673912e-11 0
6.4652636286808908e-10 4.3690342705154583e-11 0
7.6714532817126079e-10 1.0529327540308902e-10 0
2.6784436716453439e-11 5.4794144424386622e-11 0
3.5961976569378926e-11 3.5016080130809099e-11 0
2.1692198736362935e-09 1.1583171545675438e-10 0
2.6660434321013723e-09 3.2836997631693126e-10 0
2.6662078869121331e-11 3.2998503595728715e-11 0
3.0124291876383762e-11 6.2518775601844573e-11 0
6.3993530223393712e-10 4.5687616185128010e-11 0
8.1970948030633229e-10 1.1063118771005276e-10 0
6.3960911288491604e-10 3.6996584130499639e-11 0
8.1960303535324585e-10 1.2239528748742818e-10 0
2.6325571051253882e-11 5.4949756045106401e-11 0
4.0643160446469375e-11 3.6601658805241000e-11 0
2.1456265167057151e-09 9.8693717515839553e-11 0
2.8843341581388217e-09 3.8415809903918759e-10 0
2.6110481978187536e-11 3.2902318467997314e-11 0
3.1915141006013749e-11 6.6847939068396191e-11 0
6.3305586932505142e-10 4.2650808543310221e-11 0
8.9820769320510835e-10 1.2736361966216236e-10 0
6.3270679587175156e-10 3.4069923555132282e-11 0
8.9812616679755514e-10 1.4028939107095279e-10 0
2.6103288008296777e-11 5.4623797672914817e-11 0
4.6410854486770361e-11 3.9751127006351645e-11 0
2.1214269269204640e-09 1.0128953560801304e-10 0
3.1986761913917530e-09 4.3561722046301757e-10 0
2.6284193509663404e-11 3.1859726367240149e-11 0
3.4536478494816826e-11 7.4200391329001368e-11 0
6.2382715496020987e-10 4.6548989194710498e-11 0
1.0063427736635263e-09 1.4204152812726614e-10 0
6.2354834306463027e-10 3.8112222246271664e-11 0
1.0064038236239383e-09 1.5657006855301335e-10 0
2.5923481197271066e-11 5.3051073289124187e-11 0
5.3809387350353985e-11 4.5152205400211494e-11 0
2.0867103830397892e-09 1.1344448100216714e-10 0
3.6278991600629636e-09 4.9376351120818712e-10 0
2.5664030215160636e-11 3.0776984508492809e-11 0
3.7194255866166549e-11 8.4187218360582264e-11 0
6.2105924729518722e-10 5.1234931152670280e-11 0
1.1622567258068325e-09 1.6295405603104593e-10 0
6.2095720805407361e-10 4.2914624583602887e-11 0
1.1625177846323767e-09 1.7981369842681868e-10 0
2.7743723127618966e-11 5.2882859419300546e-11 0
6.3829693999375355e-11 5.2875936585763281e-11 0
2.1027609120043529e-09 1.9460162456596115e-10 0
4.2614366600825718e-09 5.2169814749217222e-10 0
2.9289144141735627e-11 2.5791138995268214e-11 0
4.1995437851104272e-11 1.0268622235787514e-10 0
6.1363246177118992e-10 8.8718924207303886e-11 0
1.3708219421745271e-09 1.6316785955633935e-10 0
6.1405184904659228e-10 8.0491487830490909e-11 0
1.3718299701854331e-09 1.8320286752753617e-10 0
2.9188125512688910e-11 4.7199855119620472e-11 0
7.9677442244188499e-11 6.7972344242611319e-11 0
2.1082515241024711e-09 1.9769296928051868e-10 0
5.1493962761163767e-09 6.5145922151555389e-10 0
1.6701017958543941e-11 2.8459590720725111e-11 0
3.7188817717749831e-11 1.2116151811631541e-10 0
7.3747615032192591e-10 8.6468804678605333e-11 0
1.7873938801170606e-09 2.3159683275699836e-10 0
7.3915862617894179e-10 7.7028171434538554e-11 0
1.7887903474698428e-09 2.5832682521482159e-10 0
5.7886188802909741e-11 7.1570075165271387e-11 0
1.1008600032681999e-10 9.0063026426596014e-11 0
3.0236676906965291e-09 9.3586033443391632e-10 0
7.2203815315204116e-09 3.7699159458869181e-10 0
5.0733995469746397e-11 -1.8226213375267093e-11 0
3.1938288587590859e-11 2.2340011274957999e-10 0
1.1412592003708914e-09 5.7044949766117926e-10 0
2.6859344380112113e-09 2.4861411349897803e-12 0
9.6746346621935285e-10 4.1509311259424459e-10 0
2.3281018625716713e-09 1.1790940512282050e-10 0
4.6058821384932399e-09 2.7439564217731906e-09 0
5.6962146167470655e-09 3.6948086755575903e-11 0
1.6593980600545117e-09 1.6465879802547238e-09 0
3.4525207577318195e-09 2.2641178561672005e-09 0
2.2018777199213918e-09 1.8450298066441413e-09 0
2.0735127451508231e-09 1.8979392127624898e-09 0
3.6523942986823134e-09 8.8813428499756723e-10 0
1.4725800055392517e-09 -1.7336211789740172e-10 0

VECTORS Forces1 float
-7.8689579873903761e-04 5.1707590164575218e-04 0
-9.2749415236717081e-04 -5.2346393965594013e-04 0
1.1735010882700812e-02 -6.5566444859529015e-03 0
1.2812586919373283e-02 7.1198554403790011e-03 0
1.2849266270043364e-02 -2.0091270924472537e-03 0
1.4011560989369811e-02 2.2049869891109671e-03 0
8.1548726168555151e-03 3.3864529042926603e-04 0
8.9002406791566270e-03 -3.5710529376887498e-04 0
-1.2296211859676057e-03 -4.8228878015329434e-05 0
-1.3455486701584251e-03 4.9150548893703576e-05 0
3.0951758166363905e-02 -1.0589772052978634e-04 0
3.4024838132190011e-02 2.4095574325325365e-04 0
-1.3001717570385327e-03 7.4478380899044174e-06 0
-1.4505853425134819e-03 -1.7001321119859380e-05 0
8.7340960201984751e-03 -7.9254395204759337e-05 0
9.7275001400081301e-03 1.4301154719026916e-04 0
8.7347698500137676e-03 -7.9491898877877528e-05 0
9.7285405632753959e-03 1.4336424430748041e-04 0
-1.3000619881305513e-03 9.1926048501615498e-06 0
-1.4526464479223983e-03 -1.9056100916226874e-05 0
3.0583018572959097e-02 -4.7426980899392375e-04 0
3.4753120647857384e-02 8.0649420541036737e-04 0
-1.2864077073974818e-03 2.5161802842095598e-05 0
-1.5017652558813480e-03 -4.4085257431308809e-05 0
8.6412890415468683e-03 -1.9120669094391444e-04 0
1.0075266602819724e-02 3.1931299899154593e-04 0
8.6412286731515596e-03 -1.9132272447034370e-04 0
1.0075767322704036e-02 3.1950880576041041e-04 0
-1.2857589466050646e-03 2.5694096262827463e-05 0
-1.5050241957235908e-03 -4.5103210576188348e-05 0
3.0299261777799125e-02 -8.1241357774878100e-04 0
3.6514468733152124e-02 1.4120989569808803e-03 0
-1.2743169661164520e-03 3.5942325822050793e-05 0
-1.5977569623471838e-03 -6.7826015385136223e-05 0
8.5632577848576523e-03 -2.6375123397841732e-04 0
1.0727649333113060e-02 4.8003407755102594e-04 0
8.5631757096837416e-03 -2.6387050667151668e-04 0
1.0728401515119838e-02 4.8024767834857203e-04 0
-1.2737747316346629e-03 3.6026712560423220e-05 0
-1.6033178797916828e-03 -6.8591865609503910e-05 0
3.0005221422095045e-02 -9.8329964514334042e-04 0
3.9373760633918863e-02 1.9389851178147378e-03 0
-1.2612659441492416e-03 3.8751216342889962e-05 0
-1.7437129368356118e-03 -8.7533674679217920e-05 0
8.4786161044880879e-03 -2.8438905466886109e-04 0
1.1714573314894131e-02 6.1514719406901284e-04 0
8.4785022176487208e-03 -2.8449535350478442e-04 0
1.1715614288916544e-02 6.1537079369773499e-04 0
-1.2605896170421102e-03 3.8149065721894408e-05 0
-1.7518394841420468e-03 -8.7847086090214778e-05 0
2.9676872880305953e-02 -8.8020284541459192e-04 0
4.3525209921140770e-02 2.3036897044437046e-03 0
-1.2421306182563091e-03 2.6536982200561445e-05 0
-1.9470527527130979e-03 -9.7745721113308518e-05 0
8.3534296569266059e-03 -2.0580305221774392e-04 0
1.3085949502260805e-02 6.8826602901205251e-04 0
8.3533297885986773e-03 -2.0597109624947302e-04 0
1.3087357268945034e-02 6.8857135172399326e-04 0
-1.2416092979420528e-03 2.5246997828933055e-05 0
-1.9588098637187217e-03 -9.7638071757947934e-05 0
2.9190940622807405e-02 -6.2682932165694129e-04 0
4.9207998232906829e-02 2.6344371775475256e-03 0
-1.2346969789121340e-03 1.2598030196291416e-05 0
-2.2405262071752419e-03 -1.1095618385129156e-04 0
8.3114511426774142e-03 -1.2301576858423423e-04 0
1.5063265211186021e-02 7.8821292758707014e-04 0
8.3113045036202760e-03 -1.2322903188246207e-04 0
1.5065002913425815e-02 7.8858116775667726e-04 0
-1.2342063219648294e-03 8.9297749164237406e-06 0
-2.2576097774106799e-03 -1.0918041050312012e-04 0
2.9309476671098046e-02 5.2477488949491597e-04 0
5.7657567780762378e-02 2.3473170468914376e-03 0
-1.2120205865768486e-03 -7.0406129969110903e-05 0
-2.6417870235267114e-03 -7.4164680332802928e-05 0
8.1608268057853685e-03 4.1867556674944834e-04 0
1.7748713478996828e-02 5.5594139264327240e-04 0
8.1605025138436413e-03 4.1727176609570416e-04 0
1.7750109489156608e-02 5.5703608788056417e-04 0
-1.2203715092071112e-03 -7.6614689232378482e-05 0
-2.6761411885844011e-03 -7.1710863318769002e-05 0
2.9358031047764199e-02 6.4178615206214845e-04 0
6.9413693907906873e-02 3.1403549875671745e-03 0
-1.4586369817439662e-03 -6.0205883978048886e-05 0
-3.4422384011530889e-03 -1.2762805186004625e-04 0
9.7846014289394399e-03 2.3625984820611112e-04 0
2.3018489990579566e-02 9.8008219588008099e-04 0
9.7830485253132989e-03 2.3062841652713576e-04 0
2.3014286713175656e-02 9.8314231082090460e-04 0
-1.4808610705974224e-03 -1.0648644830981987e-04 0
-3.5284709681592552e-03 -9.6293154909213855e-05 0
4.0931509581463126e-02 9.8563905095918562e-03 0
9.7394196602152580e-02 -2.6743344616149364e-03 0
-1.9074052529805044e-03 -1.0200472862269649e-03 0
-5.0945907730678697e-03 5.9152489373248565e-04 0
1.4501101196179133e-02 6.3801299285257199e-03 0
3.5086504609190890e-02 -3.0437824300190799e-03 0
8.9197796724329870e-03 3.0527730260159428e-03 0
2.6949104083383260e-02 -2.1756963606743701e-03 0
5.4421970077812444e-02 3.0838555566833847e-02 0
7.4722776369312946e-02 -6.2612741285362214e-03 0
3.3539917870695417e-03 4.0540231831449258e-03 0
3.8588095542808731e-02 2.3896874506756077e-02 0
2.6466862859522169e-02 1.9487332599796556e-02 0
2.4826570467904797e-02 2.1160339394997976e-02 0
4.7178957313627527e-02 6.8419236919025411e-03 0
8.0873550477590962e-03 -3.1157954542456985e-03 0

VECTORS Forces2 float
-9.9079488092029822e-04 6.5184209265109884e-04 0
-1.1109465056331873e-03 -6.2604421629171801e-04 0
1.4824858438725538e-02 -8.2859360151053742e-03 0
1.5465194862321221e-02 8.5982681168668557e-03 0
1.6225609681518878e-02 -2.5375995451530887e-03 0
1.6908164621038130e-02 2.6636713328155957e-03 0
1.0294665449468238e-02 4.2956634430338868e-04 0
1.0736069555053572e-02 -4.3165031507202332e-04 0
-1.5522219149629911e-03 -6.1275508028860705e-05 0
-1.6235246196198362e-03 5.9645600929660690e-05 0
3.9040415669645764e-02 -1.3187827137105983e-04 0
4.1003525121307283e-02 3.1427023360139844e-04 0
-1.6396828599449479e-03 9.4493465724233685e-06 0
-1.7486141652032659e-03 -2.2522057376001440e-05 0
1.1014905817880109e-02 -1.0115301681888389e-04 0
1.1724241224180870e-02 1.8837579942048100e-04 0
1.1015750188814864e-02 -1.0146002668586530e-04 0
1.1725525917082256e-02 1.8881485192479792e-04 0
-1.6395565641202827e-03 1.1653306175728566e-05 0
-1.7511020706966233e-03 -2.5134784463231672e-05 0
3.8584450255935744e-02 -6.0622838732830766e-04 0
4.1930178549797116e-02 1.0628307855207995e-03 0
-1.6236355341435807e-03 3.2104667169193226e-05 0
-1.8147526721575746e-03 -5.8128683325323235e-05 0
1.0907030889600268e-02 -2.4453652999795834e-04 0
1.2174831903446013e-02 4.2076322572425759e-04 0
1.0906965586430109e-02 -2.4468630078823561e-04 0
1.2175481101278200e-02 4.2102132219980470e-04 0
-1.6229029319660482e-03 3.2777758906860485e-05 0
-1.8189858445781513e-03 -5.9473237973945560e-05 0
3.8268649943605113e-02 -1.0377648165183953e-03 0
4.4213994685269556e-02 1.8615765373488334e-03 0
-1.6106857267161347e-03 4.5747867780342085e-05 0
-1.9394780305999676e-03 -8.9503575971199595e-05 0
1.0824249622502254e-02 -3.3637166037262515e-04 0
1.3022557448769415e-02 6.3317079260161364e-04 0
1.0824161444584379e-02 -3.3652524670609279e-04 0
1.3023536168443569e-02 6.3345236540488686e-04 0
-1.6101420190867096e-03 4.5834885764900414e-05 0
-1.9467199051164681e-03 -9.0522670552120596e-05 0
3.7966876687322605e-02 -1.2500143023498355e-03 0
4.7936923886849045e-02 2.5595372279059452e-03 0
-1.5976938947829865e-03 4.8919443000556333e-05 0
-2.1297403042906007e-03 -1.1570123032789370e-04 0
1.0740994296942783e-02 -3.5999402412304344e-04 0
1.4309212783074544e-02 8.1273969579576816e-04 0
1.0740870310928539e-02 -3.6013012939606614e-04 0
1.4310571900868631e-02 8.1303508064129923e-04 0
-1.5970360719805964e-03 4.8105489540637317e-05 0
-2.1403474853347879e-03 -1.1613588768247890e-04 0
3.7648360549006700e-02 -1.1023406177751069e-03 0
5.3354804387888859e-02 3.0488324050439801e-03 0
-1.5779921106257124e-03 3.2348537029442701e-05 0
-2.3953959738117264e-03 -1.2967744898799210e-04 0
1.0613020617322111e-02 -2.5319858460661474e-04 0
1.6101083071748738e-02 9.1256573838429636e-04 0
1.0612919651262888e-02 -2.5341478397638298e-04 0
1.6102927140470444e-02 9.1296888368167959e-04 0
-1.5776063723713849e-03 3.0630021093376011e-05 0
-2.4107640502858134e-03 -1.2956985343850466e-04 0
3.7154736281042627e-02 -7.5549518810593915e-04 0
6.0787910933924980e-02 3.4973833303179793e-03 0
-1.5749750183485995e-03 1.3401594287295303e-05 0
-2.7794446701100610e-03 -1.4772368540941469e-04 0
1.0603018573675644e-02 -1.4009430263985434e-04 0
1.8689054944399881e-02 1.0484625749715114e-03 0
1.0602858300528111e-02 -1.4036819399007241e-04 0
1.8691345601674698e-02 1.0489510891393686e-03 0
-1.5747184879523692e-03 8.5587941280295250e-06 0
-2.8018105177829763e-03 -1.4546148810621758e-04 0
3.7486083352307104e-02 7.7257547003885610e-04 0
7.1858311315927390e-02 3.1521300713524833e-03 0
-1.5536449074361118e-03 -9.6312534012577724e-05 0
-3.3062586893060110e-03 -1.0134440487302365e-04 0
1.0461556932847010e-02 5.7620068038399699e-04 0
2.2215896070550262e-02 7.5649537129410217e-04 0
1.0461158437742625e-02 5.7437132128489794e-04 0
2.2217782669397286e-02 7.5793353193476817e-04 0
-1.5650440308357632e-03 -1.0449438463179139e-04 0
-3.3511500532914440e-03 -9.8205816220488671e-05 0
3.7759807380498646e-02 9.5214934308789979e-04 0
8.7311113729690110e-02 4.2148890874451452e-03 0
-1.8853585309621050e-03 -8.4357510307830422e-05 0
-4.3552642158838839e-03 -1.7234269537720802e-04 0
1.2645784705367506e-02 3.4691909027194661e-04 0
2.9125706157573757e-02 1.3182324098708178e-03 0
1.2643700353529819e-02 3.3956536386485069e-04 0
2.9120530691368631e-02 1.3222715997858281e-03 0
-1.9156494445928345e-03 -1.4497518120387806e-04 0
-4.4676804697008545e-03 -1.3165897661046591e-04 0
5.3183326240132715e-02 1.3065220336512331e-02 0
1.2402934637819082e-01 -3.2323766786256452e-03 0
-2.4950644433398444e-03 -1.3422422585479407e-03 0
-6.5304757787049894e-03 7.5660733814370972e-04 0
1.8936802338754798e-02 8.4005587620725602e-03 0
4.5014310735475335e-02 -3.8642165277858890e-03 0
1.1641019757527470e-02 4.0443743425387039e-03 0
3.4500852972748436e-02 -2.7353158922304214e-03 0
7.1097472397705863e-02 4.0366880417291195e-02 0
9.6621865640664814e-02 -8.1518846074350136e-03 0
4.4344592910569199e-03 5.3104414148642514e-03 0
5.0390775972977281e-02 3.1210126778852456e-02 0
3.4436068942593615e-02 2.5257727190520201e-02 0
3.2310226795320772e-02 2.7393652884332990e-02 0
6.1031930322546162e-02 8.7661810149531564e-03 0
1.0407577530226928e-02 -4.0523915841764796e-03 0

VECTORS Forces3 float
-1.2825648603093215e-03 8.4302210108496897e-04 0
-1.4644719177003718e-03 -8.2553192164000466e-04 0
1.9131097127249280e-02 -1.0690487795488922e-02 0
2.0315889188815307e-02 1.1292596599269008e-02 0
2.0942383056307152e-02 -3.2737652323449645e-03 0
2.2212209806029903e-02 3.4981436974608929e-03 0
1.3289467554928535e-02 5.5406103941824190e-04 0
1.4105910061671790e-02 -5.6653850458566590e-04 0
-2.0038274356733504e-03 -7.8981047819097838e-05 0
-2.1327906243616621e-03 7.8097471337396272e-05 0
5.0422220720496305e-02 -1.6010324143340428e-04 0
5.3888567239954922e-02 4.0421438492116202e-04 0
-2.1182573663439189e-03 1.1316613847333962e-05 0
-2.2975154635013263e-03 -2.8866910194003983e-05 0
1.4229604026621117e-02 -1.2388879218148472e-04 0
1.5405836802471996e-02 2.4116247690857481e-04 0
1.4230700423767050e-02 -1.2427578420666949e-04 0
1.5407502384763969e-02 2.4173388574488331e-04 0
-2.1181210817976205e-03 1.4121010019892003e-05 0
-2.3007544777824845e-03 -3.2240646147996297e-05 0
4.9845990313982694e-02 -7.4590566984079421e-04 0
5.5064201618039210e-02 1.3592541155535984e-03 0
-2.0974578647744721e-03 3.9452049094374082e-05 0
-2.3810794892379031e-03 -7.4356646518759377e-05 0
1.4089524199549650e-02 -3.0144542198027447e-04 0
1.5974537087609937e-02 5.3782073546395357e-04 0
1.4089436856409988e-02 -3.0163065281857730e-04 0
1.5975357285635785e-02 5.3814932204362237e-04 0
-2.0964893872451574e-03 4.0277690366715090e-05 0
-2.3864197737882929e-03 -7.6078039754857459e-05 0
4.9426447926042873e-02 -1.2775993995951043e-03 0
5.7947457175884856e-02 2.3795090697506104e-03 0
-2.0798886957636743e-03 5.6080223869222861e-05 0
-2.5385059544135351e-03 -1.1448676463008530e-04 0
1.3976749659242824e-02 -4.1334467846127550e-04 0
1.7044530086768383e-02 8.0947847554683745e-04 0
1.3976629227817365e-02 -4.1353450493316349e-04 0
1.7045765965985775e-02 8.0983701736492763e-04 0
-2.0791274543543394e-03 5.6160600533595573e-05 0
-2.5476399363955149e-03 -1.1579990874752553e-04 0
4.9007532839696478e-02 -1.5302641297607136e-03 0
6.2644883503610083e-02 3.2737996061095289e-03 0
-2.0615408808107153e-03 5.9385748075504044e-05 0
-2.7784976147531980e-03 -1.4815592245187882e-04 0
1.3858490472988863e-02 -4.3844714488694008e-04 0
1.8667460869353360e-02 1.0401900172177301e-03 0
1.3858320442921832e-02 -4.3861412936477078e-04 0
1.8669175752144558e-02 1.0405666046189293e-03 0
-2.0605999755703092e-03 5.8320567459604592e-05 0
-2.7918684836788807e-03 -1.4873674688532286e-04 0
4.8550331326624778e-02 -1.3247358340766626e-03 0
6.9476564227362064e-02 3.9073121470431082e-03 0
-2.0339262854147527e-03 3.7544868670071589e-05 0
-3.1133699885554141e-03 -1.6654741905005704e-04 0
1.3678429291553502e-02 -2.9739655431789747e-04 0
2.0926158539997054e-02 1.1712580533766992e-03 0
1.3678284258968479e-02 -2.9766377053419497e-04 0
2.0928482750752899e-02 1.1717713219513224e-03 0
-2.0332921674724208e-03 3.5328020293506863e-05 0
-3.1327297052364334e-03 -1.6645096324830708e-04 0
4.7851910479055675e-02 -8.6348663417878523e-04 0
7.8842511993750308e-02 4.4926010528745534e-03 0
-2.0266401595730498e-03 1.2540480338829438e-05 0
-3.5970751143161663e-03 -1.9021290990455905e-04 0
1.3642388166441529e-02 -1.4730397562846777e-04 0
2.4185573610780844e-02 1.3487620612956147e-03 0
1.3642161999732096e-02 -1.4764145633569948e-04 0
2.4188456069828574e-02 1.3493844806051489e-03 0
-2.0261133437157390e-03 6.3471086103203642e-06 0
-3.6252365217296890e-03 -1.8742039192847732e-04 0
4.8176149538493564e-02 1.1041282691814991e-03 0
9.2779551450982253e-02 4.0864219576914277e-03 0
-1.9946515098285080e-03 -1.2812394382440861e-04 0
-4.2601283251068800e-03 -1.3327954618393907e-04 0
1.3429627129181842e-02 7.7155011631274836e-04 0
2.8624173657675410e-02 9.9107411260066663e-04 0
1.3429093500585403e-02 7.6924034160147326e-04 0
2.8626527681639948e-02 9.9288699674696373e-04 0
-2.0088158162613941e-03 -1.3857491048817916e-04 0
-4.3166893283326253e-03 -1.2942343990291223e-04 0
4.8382012648788011e-02 1.3667023997053940e-03 0
1.1222434401664892e-01 5.4576427556654941e-03 0
-2.4085525278307700e-03 -1.1467141267192669e-04 0
-5.5804762923280559e-03 -2.2437553398376860e-04 0
1.6154126763099245e-02 4.9207280394168609e-04 0
3.7319638792796948e-02 1.7090911005562209e-03 0
1.6151433864627904e-02 4.8276593861281011e-04 0
3.7312990239515433e-02 1.7141486117534398e-03 0
-2.4463372369057561e-03 -1.9165485951918570e-04 0
-5.7221008473200439e-03 -1.7335646077465993e-04 0
6.7722396171104468e-02 1.6823525278314346e-02 0
1.5837658712099878e-01 -3.8420058045218991e-03 0
-3.1641203468818907e-03 -1.7141864292543978e-03 0
-8.3117943498086707e-03 9.4192512122438983e-04 0
2.4008761475314253e-02 1.0747649011805848e-02 0
5.7281361454182986e-02 -4.7799849336987296e-03 0
1.4770323888817386e-02 5.1980724369080997e-03 0
4.3964521788111222e-02 -3.4047075777117034e-03 0
9.0026704376978628e-02 5.1443401676620301e-02 0
1.2234067218097046e-01 -9.8003632488027487e-03 0
5.6118422543223589e-03 6.7369877255476964e-03 0
6.3833675895365038e-02 3.9842768034873452e-02 0
4.3566927610545793e-02 3.2428679628072277e-02 0
4.0833586891129203e-02 3.5157907189947671e-02 0
7.7209802599737268e-02 1.1600690434626897e-02 0
1.3194088864828118e-02 -5.0905448748982014e-03 0

