# vtk DataFile Version 2.0

ASCII

DATASET UNSTRUCTURED_GRID

POINTS 106 float 

-5.0000000000000003e-02  0.0000000000000000e+00  0.0000000000000000e+00
5.0000000000000003e-02  0.0000000000000000e+00  0.0000000000000000e+00
-5.0000000000000003e-02  2.0000000000000000e-02  0.0000000000000000e+00
5.0000000000000003e-02  2.0000000000000000e-02  0.0000000000000000e+00
-5.0000000000000003e-02  4.0000000000000001e-02  0.0000000000000000e+00
5.0000000000000003e-02  4.0000000000000001e-02  0.0000000000000000e+00
-5.0000000000000003e-02  5.9999999999999998e-02  0.0000000000000000e+00
5.0000000000000003e-02  5.9999999999999998e-02  0.0000000000000000e+00
-5.0000000000000003e-02  8.0000000000000002e-02  0.0000000000000000e+00
5.0000000000000003e-02  8.0000000000000002e-02  0.0000000000000000e+00
-5.0000000000000003e-02  1.0000000000000001e-01  0.0000000000000000e+00
5.0000000000000003e-02  1.0000000000000001e-01  0.0000000000000000e+00
-5.0000000000000003e-02  1.2000000000000000e-01  0.0000000000000000e+00
5.0000000000000003e-02  1.2000000000000000e-01  0.0000000000000000e+00
-5.0000000000000003e-02  1.4000000000000001e-01  0.0000000000000000e+00
5.0000000000000003e-02  1.4000000000000001e-01  0.0000000000000000e+00
-5.0000000000000003e-02  1.6000000000000000e-01  0.0000000000000000e+00
5.0000000000000003e-02  1.6000000000000000e-01  0.0000000000000000e+00
-5.0000000000000003e-02  1.7999999999999999e-01  0.0000000000000000e+00
5.0000000000000003e-02  1.7999999999999999e-01  0.0000000000000000e+00
-5.0000000000000003e-02  2.0000000000000001e-01  0.0000000000000000e+00
5.0000000000000003e-02  2.0000000000000001e-01  0.0000000000000000e+00
-5.0000000000000003e-02  2.2000000000000000e-01  0.0000000000000000e+00
5.0000000000000003e-02  2.2000000000000000e-01  0.0000000000000000e+00
-5.0000000000000003e-02  2.3999999999999999e-01  0.0000000000000000e+00
5.0000000000000003e-02  2.3999999999999999e-01  0.0000000000000000e+00
-5.0000000000000003e-02  2.6000000000000001e-01  0.0000000000000000e+00
5.0000000000000003e-02  2.6000000000000001e-01  0.0000000000000000e+00
-5.0000000000000003e-02  2.8000000000000003e-01  0.0000000000000000e+00
5.0000000000000003e-02  2.8000000000000003e-01  0.0000000000000000e+00
-5.0000000000000003e-02  2.9999999999999999e-01  0.0000000000000000e+00
5.0000000000000003e-02  2.9999999999999999e-01  0.0000000000000000e+00
-5.0000000000000003e-02  3.2000000000000001e-01  0.0000000000000000e+00
5.0000000000000003e-02  3.2000000000000001e-01  0.0000000000000000e+00
-5.0000000000000003e-02  3.4000000000000002e-01  0.0000000000000000e+00
5.0000000000000003e-02  3.4000000000000002e-01  0.0000000000000000e+00
-5.0000000000000003e-02  3.5999999999999999e-01  0.0000000000000000e+00
5.0000000000000003e-02  3.5999999999999999e-01  0.0000000000000000e+00
-5.0000000000000003e-02  3.8000000000000000e-01  0.0000000000000000e+00
5.0000000000000003e-02  3.8000000000000000e-01  0.0000000000000000e+00
-5.0000000000000003e-02  4.0000000000000002e-01  0.0000000000000000e+00
5.0000000000000003e-02  4.0000000000000002e-01  0.0000000000000000e+00
-5.0000000000000003e-02  4.1999999999999998e-01  0.0000000000000000e+00
5.0000000000000003e-02  4.1999999999999998e-01  0.0000000000000000e+00
-5.0000000000000003e-02  4.4000000000000000e-01  0.0000000000000000e+00
5.0000000000000003e-02  4.4000000000000000e-01  0.0000000000000000e+00
-5.0000000000000003e-02  4.6000000000000002e-01  0.0000000000000000e+00
5.0000000000000003e-02  4.6000000000000002e-01  0.0000000000000000e+00
-5.0000000000000003e-02  4.7999999999999998e-01  0.0000000000000000e+00
5.0000000000000003e-02  4.7999999999999998e-01  0.0000000000000000e+00
-5.0000000000000003e-02  5.0000000000000000e-01  0.0000000000000000e+00
5.0000000000000003e-02  5.0000000000000000e-01  0.0000000000000000e+00
-5.0000000000000003e-02  5.2000000000000002e-01  0.0000000000000000e+00
5.0000000000000003e-02  5.2000000000000002e-01  0.0000000000000000e+00
-5.0000000000000003e-02  5.4000000000000004e-01  0.0000000000000000e+00
5.0000000000000003e-02  5.4000000000000004e-01  0.0000000000000000e+00
-5.0000000000000003e-02  5.6000000000000005e-01  0.0000000000000000e+00
5.0000000000000003e-02  5.6000000000000005e-01  0.0000000000000000e+00
-5.0000000000000003e-02  5.7999999999999996e-01  0.0000000000000000e+00
5.0000000000000003e-02  5.7999999999999996e-01  0.0000000000000000e+00
-5.0000000000000003e-02  5.9999999999999998e-01  0.0000000000000000e+00
5.0000000000000003e-02  5.9999999999999998e-01  0.0000000000000000e+00
-5.0000000000000003e-02  6.2000000000000000e-01  0.0000000000000000e+00
5.0000000000000003e-02  6.2000000000000000e-01  0.0000000000000000e+00
-5.0000000000000003e-02  6.4000000000000001e-01  0.0000000000000000e+00
5.0000000000000003e-02  6.4000000000000001e-01  0.0000000000000000e+00
-5.0000000000000003e-02  6.6000000000000003e-01  0.0000000000000000e+00
5.0000000000000003e-02  6.6000000000000003e-01  0.0000000000000000e+00
-5.0000000000000003e-02  6.8000000000000005e-01  0.0000000000000000e+00
5.0000000000000003e-02  6.8000000000000005e-01  0.0000000000000000e+00
-5.0000000000000003e-02  6.9999999999999996e-01  0.0000000000000000e+00
5.0000000000000003e-02  6.9999999999999996e-01  0.0000000000000000e+00
-5.0000000000000003e-02  7.1999999999999997e-01  0.0000000000000000e+00
5.0000000000000003e-02  7.1999999999999997e-01  0.0000000000000000e+00
-5.0000000000000003e-02  7.3999999999999999e-01  0.0000000000000000e+00
5.0000000000000003e-02  7.3999999999999999e-01  0.0000000000000000e+00
-5.0000000000000003e-02  7.6000000000000001e-01  0.0000000000000000e+00
5.0000000000000003e-02  7.6000000000000001e-01  0.0000000000000000e+00
-5.0000000000000003e-02  7.8000000000000003e-01  0.0000000000000000e+00
5.0000000000000003e-02  7.8000000000000003e-01  0.0000000000000000e+00
-5.0000000000000003e-02  8.0000000000000004e-01  0.0000000000000000e+00
5.0000000000000003e-02  8.0000000000000004e-01  0.0000000000000000e+00
-5.0000000000000003e-02  8.1999999999999995e-01  0.0000000000000000e+00
5.0000000000000003e-02  8.1999999999999995e-01  0.0000000000000000e+00
-5.0000000000000003e-02  8.3999999999999997e-01  0.0000000000000000e+00
5.0000000000000003e-02  8.3999999999999997e-01  0.0000000000000000e+00
-5.0000000000000003e-02  8.5999999999999999e-01  0.0000000000000000e+00
5.0000000000000003e-02  8.5999999999999999e-01  0.0000000000000000e+00
-5.0000000000000003e-02  8.8000000000000000e-01  0.0000000000000000e+00
5.0000000000000003e-02  8.8000000000000000e-01  0.0000000000000000e+00
-5.0000000000000003e-02  9.0000000000000002e-01  0.0000000000000000e+00
5.0000000000000003e-02  9.0000000000000002e-01  0.0000000000000000e+00
-5.0000000000000003e-02  9.2000000000000004e-01  0.0000000000000000e+00
5.0000000000000003e-02  9.2000000000000004e-01  0.0000000000000000e+00
-5.0000000000000003e-02  9.3999999999999995e-01  0.0000000000000000e+00
5.0000000000000003e-02  9.3999999999999995e-01  0.0000000000000000e+00
-5.0000000000000003e-02  9.5999999999999996e-01  0.0000000000000000e+00
5.0000000000000003e-02  9.5999999999999996e-01  0.0000000000000000e+00
-5.0000000000000003e-02  9.7999999999999998e-01  0.0000000000000000e+00
5.0000000000000003e-02  9.7999999999999998e-01  0.0000000000000000e+00
-5.0000000000000003e-02  1.0000000000000000e+00  0.0000000000000000e+00
-3.0000000000000002e-02  1.0000000000000000e+00  0.0000000000000000e+00
-1.0000000000000002e-02  1.0000000000000000e+00  0.0000000000000000e+00
1.0000000000000009e-02  1.0000000000000000e+00  0.0000000000000000e+00
2.9999999999999999e-02  1.0000000000000000e+00  0.0000000000000000e+00
5.0000000000000003e-02  1.0000000000000000e+00  0.0000000000000000e+00

CELLS 0 0


CELL_TYPES 0


POINT_DATA 106

VECTORS VertexNormals float

0.0000000000000000e+00 0.0000000000000000e+00 0
0.0000000000000000e+00 0.0000000000000000e+00 0
0.0000000000000000e+00 0.0000000000000000e+00 0
0.0000000000000000e+00 0.0000000000000000e+00 0
0.0000000000000000e+00 0.0000000000000000e+00 0
0.0000000000000000e+00 0.0000000000000000e+00 0
0.0000000000000000e+00 0.0000000000000000e+00 0
0.0000000000000000e+00 0.0000000000000000e+00 0
0.0000000000000000e+00 0.0000000000000000e+00 0
0.0000000000000000e+00 0.0000000000000000e+00 0
0.0000000000000000e+00 0.0000000000000000e+00 0
0.0000000000000000e+00 0.0000000000000000e+00 0
0.0000000000000000e+00 0.0000000000000000e+00 0
0.0000000000000000e+00 0.0000000000000000e+00 0
0.0000000000000000e+00 0.0000000000000000e+00 0
0.0000000000000000e+00 0.0000000000000000e+00 0
0.0000000000000000e+00 0.0000000000000000e+00 0
0.0000000000000000e+00 0.0000000000000000e+00 0
0.0000000000000000e+00 0.0000000000000000e+00 0
0.0000000000000000e+00 0.0000000000000000e+00 0
0.0000000000000000e+00 0.0000000000000000e+00 0
0.0000000000000000e+00 0.0000000000000000e+00 0
0.0000000000000000e+00 0.0000000000000000e+00 0
0.0000000000000000e+00 0.0000000000000000e+00 0
0.0000000000000000e+00 0.0000000000000000e+00 0
0.0000000000000000e+00 0.0000000000000000e+00 0
0.0000000000000000e+00 0.0000000000000000e+00 0
0.0000000000000000e+00 0.0000000000000000e+00 0
0.0000000000000000e+00 0.0000000000000000e+00 0
0.0000000000000000e+00 0.0000000000000000e+00 0
0.0000000000000000e+00 0.0000000000000000e+00 0
0.0000000000000000e+00 0.0000000000000000e+00 0
0.0000000000000000e+00 0.0000000000000000e+00 0
0.0000000000000000e+00 0.0000000000000000e+00 0
0.0000000000000000e+00 0.0000000000000000e+00 0
0.0000000000000000e+00 0.0000000000000000e+00 0
0.0000000000000000e+00 0.0000000000000000e+00 0
0.0000000000000000e+00 0.0000000000000000e+00 0
0.0000000000000000e+00 0.0000000000000000e+00 0
0.0000000000000000e+00 0.0000000000000000e+00 0
0.0000000000000000e+00 0.0000000000000000e+00 0
0.0000000000000000e+00 0.0000000000000000e+00 0
0.0000000000000000e+00 0.0000000000000000e+00 0
0.0000000000000000e+00 0.0000000000000000e+00 0
0.0000000000000000e+00 0.0000000000000000e+00 0
0.0000000000000000e+00 0.0000000000000000e+00 0
0.0000000000000000e+00 0.0000000000000000e+00 0
0.0000000000000000e+00 0.0000000000000000e+00 0
0.0000000000000000e+00 0.0000000000000000e+00 0
0.0000000000000000e+00 0.0000000000000000e+00 0
0.0000000000000000e+00 0.0000000000000000e+00 0
0.0000000000000000e+00 0.0000000000000000e+00 0
0.0000000000000000e+00 0.0000000000000000e+00 0
0.0000000000000000e+00 0.0000000000000000e+00 0
0.0000000000000000e+00 0.0000000000000000e+00 0
0.0000000000000000e+00 0.0000000000000000e+00 0
0.0000000000000000e+00 0.0000000000000000e+00 0
0.0000000000000000e+00 0.0000000000000000e+00 0
0.0000000000000000e+00 0.0000000000000000e+00 0
0.0000000000000000e+00 0.0000000000000000e+00 0
0.0000000000000000e+00 0.0000000000000000e+00 0
0.0000000000000000e+00 0.0000000000000000e+00 0
0.0000000000000000e+00 0.0000000000000000e+00 0
0.0000000000000000e+00 0.0000000000000000e+00 0
0.0000000000000000e+00 0.0000000000000000e+00 0
0.0000000000000000e+00 0.0000000000000000e+00 0
0.0000000000000000e+00 0.0000000000000000e+00 0
0.0000000000000000e+00 0.0000000000000000e+00 0
0.0000000000000000e+00 0.0000000000000000e+00 0
0.0000000000000000e+00 0.0000000000000000e+00 0
0.0000000000000000e+00 0.0000000000000000e+00 0
0.0000000000000000e+00 0.0000000000000000e+00 0
0.0000000000000000e+00 0.0000000000000000e+00 0
0.0000000000000000e+00 0.0000000000000000e+00 0
0.0000000000000000e+00 0.0000000000000000e+00 0
0.0000000000000000e+00 0.0000000000000000e+00 0
0.0000000000000000e+00 0.0000000000000000e+00 0
0.0000000000000000e+00 0.0000000000000000e+00 0
0.0000000000000000e+00 0.0000000000000000e+00 0
0.0000000000000000e+00 0.0000000000000000e+00 0
0.0000000000000000e+00 0.0000000000000000e+00 0
0.0000000000000000e+00 0.0000000000000000e+00 0
0.0000000000000000e+00 0.0000000000000000e+00 0
0.0000000000000000e+00 0.0000000000000000e+00 0
0.0000000000000000e+00 0.0000000000000000e+00 0
0.0000000000000000e+00 0.0000000000000000e+00 0
0.0000000000000000e+00 0.0000000000000000e+00 0
0.0000000000000000e+00 0.0000000000000000e+00 0
0.0000000000000000e+00 0.0000000000000000e+00 0
0.0000000000000000e+00 0.0000000000000000e+00 0
0.0000000000000000e+00 0.0000000000000000e+00 0
0.0000000000000000e+00 0.0000000000000000e+00 0
0.0000000000000000e+00 0.0000000000000000e+00 0
0.0000000000000000e+00 0.0000000000000000e+00 0
0.0000000000000000e+00 0.0000000000000000e+00 0
0.0000000000000000e+00 0.0000000000000000e+00 0
0.0000000000000000e+00 0.0000000000000000e+00 0
0.0000000000000000e+00 0.0000000000000000e+00 0
0.0000000000000000e+00 0.0000000000000000e+00 0
0.0000000000000000e+00 0.0000000000000000e+00 0
0.0000000000000000e+00 0.0000000000000000e+00 0
0.0000000000000000e+00 0.0000000000000000e+00 0
0.0000000000000000e+00 0.0000000000000000e+00 0
0.0000000000000000e+00 0.0000000000000000e+00 0
0.0000000000000000e+00 0.0000000000000000e+00 0
0.0000000000000000e+00 0.0000000000000000e+00 0

VECTORS Displacements1 float
-5.9291861869699134e-17 3.3123593188102145e-17 0
-1.5679832512325350e-22 7.2282716382933126e-23 0
2.1127188396898549e-06 1.0798286375747460e-06 0
2.0285681926046576e-06 -1.0251385996867189e-06 0
3.7081216647851262e-06 1.5809201556185627e-06 0
3.5736669322562038e-06 -1.5012015823483319e-06 0
4.8491865723958584e-06 1.7323603707005987e-06 0
4.7370822109691577e-06 -1.6308458770312525e-06 0
5.7283420188143650e-06 1.6402478041935459e-06 0
5.6608241511099348e-06 -1.5370874959829298e-06 0
7.7696442986925787e-06 1.3104066953255000e-06 0
7.4561707907317196e-06 -1.0452510828683102e-06 0
6.9973638143526430e-06 7.8276841917137874e-07 0
6.9197661139703385e-06 -6.6008686502471445e-07 0
7.4355385742926674e-06 5.8877582247606708e-07 0
7.3046575045272405e-06 -3.6745055703013731e-07 0
7.4666736788139779e-06 4.0784213024697027e-07 0
7.3332133319468335e-06 -1.5169399211523630e-07 0
7.2181323721944801e-06 3.7753647097905165e-07 0
7.1394227465695000e-06 -1.1492708048378673e-07 0
8.4643253521516080e-06 3.2461473057886623e-07 0
8.1394445910870013e-06 1.3706603158442891e-07 0
7.2151435288550180e-06 1.4251865686930065e-07 0
7.1222435814367308e-06 1.6458801603350380e-07 0
7.4627724548891332e-06 2.7351174226049290e-07 0
7.3364128329654318e-06 1.5011347927532042e-07 0
7.5025082011307643e-06 3.2378245846014162e-07 0
7.3742614563571351e-06 1.4766438875231108e-07 0
7.3327593375096967e-06 4.1882764495137727e-07 0
7.2611414221399167e-06 6.6148671107049906e-08 0
8.6562344066946160e-06 4.2025662429764363e-07 0
8.3703755522514906e-06 3.0630275297425196e-07 0
7.4216936161996602e-06 2.5552284028544929e-07 0
7.3277768080921293e-06 2.9623534102446231e-07 0
7.6747945200742808e-06 4.1527075107939490e-07 0
7.5635780850979237e-06 2.6635865634001512e-07 0
7.7281909629809523e-06 4.9035334515029928e-07 0
7.6185959420844942e-06 2.4784299620207759e-07 0
7.5746921688424031e-06 5.9965744507620401e-07 0
7.5162313862508245e-06 1.5211827909303147e-07 0
8.9255756536043371e-06 6.2149069320320184e-07 0
8.7190337939582229e-06 4.2857814267171944e-07 0
7.7049104866471525e-06 4.5485532790773188e-07 0
7.6147081911436567e-06 3.9720282300800981e-07 0
7.9797034041202432e-06 6.2756496239347866e-07 0
7.8960698226673405e-06 3.6978284088088552e-07 0
8.0569182129172167e-06 7.1506562775731784e-07 0
7.9761142877430245e-06 3.5346116856409127e-07 0
7.9271624850656081e-06 8.3587458829578258e-07 0
7.8870160766438911e-06 2.5037828872496034e-07 0
9.3151257104360130e-06 8.8700652474232728e-07 0
9.2278896935047156e-06 5.7240072776818774e-07 0
8.1135749083432793e-06 7.1268435232259627e-07 0
8.0287617286841690e-06 5.2330938029762447e-07 0
8.4126521397050491e-06 9.0834758793008885e-07 0
8.3678463030181296e-06 4.9668820035401850e-07 0
8.5214589668626794e-06 1.0187950396894867e-06 0
8.4808186491899247e-06 4.8062061084915298e-07 0
8.4267971029612310e-06 1.1610570803676616e-06 0
8.4089392750082826e-06 3.6434091917172740e-07 0
9.8630610107400733e-06 1.2667238522340818e-06 0
9.9450760141145014e-06 7.3907567874950877e-07 0
8.7089136329360452e-06 1.1058128346303236e-06 0
8.6187982057558775e-06 6.7195578626733006e-07 0
9.0665173903735992e-06 1.3723305993060200e-06 0
9.0403382198280716e-06 6.5710725736936734e-07 0
9.2446429151215936e-06 1.5832448213776543e-06 0
9.1926408074730732e-06 6.6603711482091152e-07 0
9.2325381714535978e-06 1.8623667413995189e-06 0
9.1262371713846913e-06 5.7621159747829835e-07 0
1.0792496709931526e-05 2.2053298486084938e-06 0
1.0906787502606133e-05 1.0822344031305517e-06 0
9.7002595590435854e-06 2.2140284455831022e-06 0
9.3237944510211232e-06 1.0917595749084077e-06 0
1.0110406397601599e-05 2.7995496500640090e-06 0
9.7706290844116107e-06 1.1613268585062443e-06 0
1.0344239307220876e-05 3.3563734706865874e-06 0
9.8670446129506498e-06 1.2586620511696918e-06 0
1.0300172551123439e-05 4.0068571828677357e-06 0
9.6414452513068644e-06 1.2080599113746440e-06 0
1.1678002023161343e-05 4.9159030148426088e-06 0
1.1523868428515178e-05 1.7486369367875622e-06 0
1.0289185085948757e-05 5.7149388002121354e-06 0
9.3016773763102634e-06 1.3332814739868690e-06 0
1.0638401365438798e-05 7.6535386876187422e-06 0
9.8150024760681651e-06 4.7006469423171041e-07 0
1.1406810972937694e-05 1.0165654173304488e-05 0
1.0607561050098245e-05 -1.0015283851361841e-06 0
1.3089422430968751e-05 1.3292727031384849e-05 0
1.2252260550912618e-05 -3.2135511249184482e-06 0
1.8248821532180899e-05 1.7040627745252616e-05 0
1.8419870240877469e-05 -4.8698048452208334e-06 0
2.1448132505012918e-05 1.9632892568973126e-05 0
2.0613397484886921e-05 -7.2521894784839836e-06 0
2.8115996457615773e-05 2.3230228570930703e-05 0
2.7818581943204072e-05 -9.5026022913338481e-06 0
3.5780332085267684e-05 2.6225363765184679e-05 0
3.5581183506493987e-05 -1.1371114775727298e-05 0
4.6369005520140032e-05 2.9266961336993911e-05 0
4.5626227026134898e-05 -1.2353134740924354e-05 0
5.4828248580702284e-05 2.9358507266469145e-05 0
5.4769542976792912e-05 2.0497707141571499e-05 0
5.3390781601798198e-05 1.2018050243940801e-05 0
5.3033403895867196e-05 4.4814131737651480e-06 0
5.3848432271738387e-05 -3.8589259563428749e-06 0
5.3616293835305991e-05 -1.3138493916160643e-05 0

VECTORS Displacements2 float
-5.9453501733310248e-17 3.3213714019216082e-17 0
-1.5839818881935981e-22 7.4215492900077008e-23 0
2.1351680939956966e-06 1.1077061065532844e-06 0
2.0504008796847196e-06 -1.0517565857300130e-06 0
3.7607279956657453e-06 1.6277693513001351e-06 0
3.6241299184199666e-06 -1.5460765553347674e-06 0
4.9358931531071442e-06 1.7901634425612417e-06 0
4.8209198723380881e-06 -1.6859612359199690e-06 0
5.8496974279802367e-06 1.7004115383588120e-06 0
5.7803423690757860e-06 -1.5934587280830970e-06 0
7.9263285342373532e-06 1.3676052884258835e-06 0
7.6081341791917264e-06 -1.0981228054771031e-06 0
7.1783111269723450e-06 8.3337567511399708e-07 0
7.1001028575039199e-06 -7.0568248653091546e-07 0
7.6401406592127282e-06 6.2931037255887031e-07 0
7.5071217267928871e-06 -4.0151818157458869e-07 0
7.6842012952902132e-06 4.3665660798436999e-07 0
7.5478911032459045e-06 -1.7340137910443054e-07 0
7.4377593595870953e-06 3.9472598250775048e-07 0
7.3564537906459787e-06 -1.2440995532752332e-07 0
8.6815707177372977e-06 3.3657310924512001e-07 0
8.3516396924139774e-06 1.3389388152756186e-07 0
7.4256241430481832e-06 1.5378292145152785e-07 0
7.3299224969282306e-06 1.6295447582784066e-07 0
7.6728323674549183e-06 2.8584261969933612e-07 0
7.5433134363558033e-06 1.4939058699176295e-07 0
7.7143758907590396e-06 3.3807693182117230e-07 0
7.5828528693043422e-06 1.4615593685910143e-07 0
7.5467181653290230e-06 4.3150013331201128e-07 0
7.4719147189997155e-06 6.7465548792010830e-08 0
8.8737584945444567e-06 4.3370041762936438e-07 0
8.5814039570714976e-06 3.0877167077076991e-07 0
7.6380476119004303e-06 2.6883655426076726e-07 0
7.5409785331366233e-06 2.9926975230426959e-07 0
7.8917800441822735e-06 4.2960465619307781e-07 0
7.7767733906403544e-06 2.7110043143092951e-07 0
7.9472058696057157e-06 5.0861455709044328e-07 0
7.8336155104070717e-06 2.5085133042007075e-07 0
7.7967221546664285e-06 6.1761672110534264e-07 0
7.7344051667192507e-06 1.5677614888335553e-07 0
9.1517116245053447e-06 6.4076505988203273e-07 0
8.9372179542266434e-06 4.3357376096014040e-07 0
7.9299050114697871e-06 4.7474174000669044e-07 0
7.8358056383768610e-06 4.0264941219813075e-07 0
8.2057623906101615e-06 6.4913358945505843e-07 0
8.1175476001545476e-06 3.7705691372825758e-07 0
8.2857975767854232e-06 7.4107292695041843e-07 0
8.2001270524043057e-06 3.5890493829147217e-07 0
8.1600679967245871e-06 8.6179980386552058e-07 0
8.1147427952683044e-06 2.5803359988314643e-07 0
9.5528823992730358e-06 9.1431433000495638e-07 0
9.4557720220236531e-06 5.8058029608038924e-07 0
8.3505405878276400e-06 7.4083061786586404e-07 0
8.2606563585113773e-06 5.3185562086922986e-07 0
8.6515335495401670e-06 9.3908034431510080e-07 0
8.6010771782743435e-06 5.0730559537323953e-07 0
8.7644177713084594e-06 1.0550943583883154e-06 0
8.7176517839274279e-06 4.8957359208909851e-07 0
8.6755523214204525e-06 1.1982221329472594e-06 0
8.6503408203018006e-06 3.7617284013991348e-07 0
1.0118136728712899e-05 1.3068882035627581e-06 0
1.0186585664426675e-05 7.5199359961597361e-07 0
8.9647703941500266e-06 1.1501222967421175e-06 0
8.8652066363270430e-06 6.8685471409496932e-07 0
9.3264395289238347e-06 1.4252540740606960e-06 0
9.2876979369602950e-06 6.7720692761677528e-07 0
9.5122583163629083e-06 1.6485476796274789e-06 0
9.4427512122096983e-06 6.8883526512300866e-07 0
9.5086167211527394e-06 1.9364089233492169e-06 0
9.3785795914574449e-06 6.0875775058192746e-07 0
1.1075887789164987e-05 2.2913917457899431e-06 0
1.1154831533212318e-05 1.1230384982883404e-06 0
9.9815317026184281e-06 2.3111790241949388e-06 0
9.5733335551387179e-06 1.1399089480000109e-06 0
1.0392973443631080e-05 2.9102999287414084e-06 0
1.0016679423834661e-05 1.2206650457434916e-06 0
1.0624530716828891e-05 3.4789123533991860e-06 0
1.0109314558742419e-05 1.3279947623967645e-06 0
1.0568280975796770e-05 4.1391358142864314e-06 0
9.8706792092979460e-06 1.2910030976583719e-06 0
1.1923785526642245e-05 5.0685976787969118e-06 0
1.1730483914331667e-05 1.8288160705505708e-06 0
1.0516667594233994e-05 5.9115164418898055e-06 0
9.5046543307280680e-06 1.3833770762556917e-06 0
1.0886155088332398e-05 7.9179203513954812e-06 0
1.0049032148971497e-05 4.7287832087439283e-07 0
1.1731145688891699e-05 1.0502791384110811e-05 0
1.0923434911921743e-05 -1.0536364685413018e-06 0
1.3531988602197507e-05 1.3682729612027047e-05 0
1.2688192627186589e-05 -3.3059006323842710e-06 0
1.8829867128915196e-05 1.7468215657363423e-05 0
1.8988543865774301e-05 -4.9883778751947454e-06 0
2.2162555393159664e-05 2.0082616845895365e-05 0
2.1325634584605021e-05 -7.3913039250555116e-06 0
2.8970748225352487e-05 2.3700602892292242e-05 0
2.8670675766760131e-05 -9.6506701879889425e-06 0
3.6785724694187873e-05 2.6715988408297941e-05 0
3.6575226268836066e-05 -1.1523765806429507e-05 0
4.7534961034133684e-05 2.9772182501735291e-05 0
4.6752810475857497e-05 -1.2499376720368320e-05 0
5.6143615963440079e-05 2.9863297439426857e-05 0
5.6078586987037102e-05 2.0855762003851517e-05 0
5.4676106222277532e-05 1.2233408541863154e-05 0
5.4292962245969890e-05 4.5670226207967319e-06 0
5.5093316118484256e-05 -3.8890031463761255e-06 0
5.4855622257032972e-05 -1.3278869564106393e-05 0

VECTORS Displacements3 float
-5.9606684078189397e-17 3.3299138561049572e-17 0
-1.6000610389304694e-22 7.6113505320561881e-23 0
2.1575998861689658e-06 1.1351763967043181e-06 0
2.0721216222938250e-06 -1.0779512164512578e-06 0
3.8127648294539922e-06 1.6753892252680398e-06 0
3.6740475111021653e-06 -1.5915004804771209e-06 0
5.0225845160528728e-06 1.8484148120015432e-06 0
4.9050328885861971e-06 -1.7417446563146869e-06 0
5.9707707833552440e-06 1.7608443519534762e-06 0
5.8994944941842734e-06 -1.6501300348430540e-06 0
8.0827130569966677e-06 1.4261200379259249e-06 0
7.7593697854898076e-06 -1.1521275299949268e-06 0
7.3598185617184899e-06 8.8531246017333619e-07 0
7.2811656477223847e-06 -7.5219343701133689e-07 0
7.8464460781107094e-06 6.7158240995650358e-07 0
7.7112139978011685e-06 -4.3716863583113865e-07 0
7.9046817349888728e-06 4.6656711076883892e-07 0
7.7658742384296087e-06 -1.9607448062759650e-07 0
7.6610249760046680e-06 4.1229621685654687e-07 0
7.5766789667602213e-06 -1.3393870835132750e-07 0
8.9019901325162071e-06 3.4902220099710535e-07 0
8.5667886856958539e-06 1.3032386885331038e-07 0
7.6389768505553154e-06 1.6532954075236959e-07 0
7.5409424277594082e-06 1.6161571458347661e-07 0
7.8864917133705690e-06 2.9866515464205861e-07 0
7.7531488653762284e-06 1.4836066554182465e-07 0
7.9292846941017755e-06 3.5243683159733811e-07 0
7.7950733272981222e-06 1.4494413863299193e-07 0
7.7637555053515898e-06 4.4405238006202014e-07 0
7.6850181836648231e-06 6.9136671154419589e-08 0
9.0934853834282263e-06 4.4745762494461752e-07 0
8.7944965388481114e-06 3.1124324343989040e-07 0
7.8570029532006633e-06 2.8273021682669456e-07 0
7.7571543607304546e-06 3.0248276872502264e-07 0
8.1125031436262258e-06 4.4448476561877572e-07 0
7.9929949370856428e-06 2.7560437526604230e-07 0
8.1693786823130520e-06 5.2666605515399067e-07 0
8.0522008060697501e-06 2.5451430045107051e-07 0
8.0220664950720172e-06 6.3549893446275458e-07 0
7.9549529833395724e-06 1.6212858639533695e-07 0
9.3802173342569212e-06 6.6028879765532374e-07 0
9.1574879168713434e-06 4.3877778865254485e-07 0
8.1577288483621755e-06 4.9525680718856718e-07 0
8.0599659533781794e-06 4.0839094380288808e-07 0
8.4357849707458016e-06 6.7137277032610085e-07 0
8.3420332296036771e-06 3.8423603731723515e-07 0
8.5180205397365312e-06 7.6694474485013660e-07 0
8.4278276576672543e-06 3.6526906702878117e-07 0
8.3965675737115816e-06 8.8769865770282568e-07 0
8.3448799459260644e-06 2.6647733297143043e-07 0
9.7931930622061239e-06 9.4204289571326580e-07 0
9.6857273334536067e-06 5.8907934813066070e-07 0
8.5906085186992250e-06 7.6978965046210810e-07 0
8.4957051058086954e-06 5.4080780079597475e-07 0
8.8947128211499252e-06 9.7075334737561099e-07 0
8.8373809485977200e-06 5.1797431653997076e-07 0
9.0110480464743332e-06 1.0914669445152499e-06 0
8.9582903504507911e-06 4.9961831194476613e-07 0
8.9283228969237188e-06 1.2356819473766300e-06 0
8.8941124811633638e-06 3.8907534877336861e-07 0
1.0376285979952224e-05 1.3480614764511777e-06 0
1.0430022517661596e-05 7.6556402787833323e-07 0
9.2243006022538890e-06 1.1964048009461760e-06 0
9.1145547424613224e-06 7.0293459521736305e-07 0
9.5911661389729914e-06 1.4803324723042984e-06 0
9.5378854097241087e-06 6.9834916269313382e-07 0
9.7841398271867045e-06 1.7152356311308872e-06 0
9.6962840696733763e-06 7.1426972995475603e-07 0
9.7891806601665317e-06 2.0122989155531788e-06 0
9.6323402492610207e-06 6.4409226596250938e-07 0
1.1362666903366169e-05 2.3797012630086227e-06 0
1.1403595194008055e-05 1.1666285428546702e-06 0
1.0265782767707770e-05 2.4107603601214481e-06 0
9.8249561693536444e-06 1.1909548534575265e-06 0
1.0679943055496642e-05 3.0224327984193383e-06 0
1.0264389333134175e-05 1.2835016487994008e-06 0
1.0906911406192419e-05 3.6012471397820870e-06 0
1.0353166889990279e-05 1.4030169526689854e-06 0
1.0836465478849105e-05 4.2711243362849866e-06 0
1.0099078407046664e-05 1.3791401642991128e-06 0
1.2168037415834085e-05 5.2224273726200086e-06 0
1.1935572475919510e-05 1.9120556780946913e-06 0
1.0745186773902283e-05 6.1131780792918799e-06 0
9.7096360583978915e-06 1.4336100666793755e-06 0
1.1140257917367249e-05 8.1876449261745065e-06 0
1.0289605266874082e-05 4.7469083765274168e-07 0
1.2066338692502451e-05 1.0843599445504579e-05 0
1.1249732620747093e-05 -1.1058671660448322e-06 0
1.3987833923305856e-05 1.4075407346772803e-05 0
1.3135262374768357e-05 -3.3978951633651326e-06 0
1.9422602360052301e-05 1.7897477986726691e-05 0
1.9568120199139941e-05 -5.1061764160263448e-06 0
2.2889690303058588e-05 2.0534506872873616e-05 0
2.2049850747927619e-05 -7.5301889719382053e-06 0
2.9839325050606223e-05 2.4172968227193531e-05 0
2.9535144875367444e-05 -9.7986474075867162e-06 0
3.7805316642034873e-05 2.7208260714400756e-05 0
3.7581560485114515e-05 -1.1674800207055515e-05 0
4.8714676679648541e-05 3.0278388082551721e-05 0
4.7888778764086685e-05 -1.2642759260633413e-05 0
5.7470751265313133e-05 3.0368305495935814e-05 0
5.7399974500640519e-05 2.1216105636880653e-05 0
5.5973358514263355e-05 1.2450050665314096e-05 0
5.5563858692125743e-05 4.6541986430582154e-06 0
5.6347113997593701e-05 -3.9179175497399708e-06 0
5.6100741338590289e-05 -1.3414091476520058e-05 0

VECTORS Forces1 float
-8.7125418928756596e-02 5.5856505291217877e-02 0
-6.9630422182396554e-02 -3.8512405596191672e-02 0
1.2223773461196641e+00 -6.8288500820118303e-01 0
9.8618639280340659e-01 5.4728020370496433e-01 0
1.3374180625715106e+00 -2.0974344870543254e-01 0
1.0772986711032571e+00 1.7010911934564549e-01 0
8.4976499582965226e-01 3.4367589454691434e-02 0
6.8354581543228976e-01 -2.7319827256023572e-02 0
-1.2817639791857283e-01 -4.8565933787336844e-03 0
-1.0327847769936091e-01 3.7322667169481009e-03 0
3.2450281077490759e+00 -3.2077543460584976e-03 0
2.5975992710404729e+00 2.6758216473958703e-02 0
-1.3736175777068155e-01 -2.0417905224123111e-04 0
-1.1003525265231169e-01 -2.0586645035611858e-03 0
9.2250084391397413e-01 -1.0373315063310420e-03 0
7.3802426385240982e-01 1.6243120604091582e-02 0
9.2257757081736369e-01 -1.0540749879332733e-03 0
7.3809946502850454e-01 1.6275193548459056e-02 0
-1.3745895610354916e-01 -1.0192933706358862e-04 0
-1.1012414583125404e-01 -2.2692468751163422e-03 0
3.2556041246914500e+00 -7.4951205412074134e-04 0
2.6212482596182585e+00 9.5461465263781450e-02 0
-1.3798147986616324e-01 -3.5376002010839157e-04 0
-1.1275561571400221e-01 -5.4780935980358004e-03 0
9.2642805349946822e-01 7.8932207049504910e-04 0
7.5674829620695083e-01 3.8863250251278354e-02 0
9.2643310754484776e-01 7.9031896440940556e-04 0
7.5678023318002963e-01 3.8886960818419691e-02 0
-1.3800616005190122e-01 -3.8937433832699587e-04 0
-1.1295632864510161e-01 -5.6240562658420043e-03 0
3.2722263315550273e+00 1.2473547405401174e-02 0
2.7320631857046918e+00 1.7720877184204609e-01 0
-1.3864984283315701e-01 -1.2866660399115512e-03 0
-1.1915121589463630e-01 -8.8742755121396406e-03 0
9.3110484423571294e-01 7.0937830127261944e-03 0
8.0038097862608992e-01 6.1829546200411242e-02 0
9.3110682742448869e-01 7.0954736766629710e-03 0
8.0043418296483748e-01 6.1855795335818572e-02 0
-1.3868696397592406e-01 -1.3702019552090554e-03 0
-1.1953029665107516e-01 -9.0113878866448904e-03 0
3.2872894909052555e+00 4.4301925572800459e-02 0
2.9293504654386404e+00 2.5722226986893221e-01 0
-1.3930361389567397e-01 -3.1282114085446995e-03 0
-1.2938894987860119e-01 -1.2170645892487274e-02 0
9.3563068630930246e-01 1.9368835985866532e-02 0
8.6975899328319317e-01 8.4236966532344762e-02 0
9.3562840013219706e-01 1.9373847606150983e-02 0
8.6983623255560372e-01 8.4266048779484987e-02 0
-1.3933679959999223e-01 -3.2884880635837511e-03 0
-1.2995945002614434e-01 -1.2289836200336661e-02 0
3.3020977672382612e+00 1.0844793095272980e-01 0
3.2246636344019879e+00 3.3327196369377099e-01 0
-1.3947493597675889e-01 -6.7895066389514246e-03 0
-1.4401635809795998e-01 -1.5240145895868282e-02 0
9.3684361362512647e-01 4.3776133226482550e-02 0
9.6862699085182613e-01 1.0531120278053514e-01 0
9.3683946801161888e-01 4.3779003897939865e-02 0
9.6873442949096533e-01 1.0534890390761210e-01 0
-1.3953375651012251e-01 -7.0337123226234611e-03 0
-1.4484469198694339e-01 -1.5346744368284190e-02 0
3.3014625999374219e+00 1.9737535194586306e-01 0
3.6373091614601503e+00 4.1572633306035822e-01 0
-1.4073968190237476e-01 -1.1134268736393661e-02 0
-1.6510003132013290e-01 -1.8870346735818333e-02 0
9.4561437251727953e-01 7.2134376844831136e-02 0
1.1110020754904102e+00 1.3063343751944639e-01 0
9.4559529336596049e-01 7.2141098723894986e-02 0
1.1111427627377839e+00 1.3068194086912358e-01 0
-1.4080423486735541e-01 -1.1658539580870833e-02 0
-1.6630797399505065e-01 -1.8915064218760758e-02 0
3.3546529181463165e+00 4.0034798542308747e-01 0
4.2435934054149778e+00 4.8339863800400368e-01 0
-1.3976886769855726e-01 -2.3925510414159894e-02 0
-1.9468097338412108e-01 -2.0921600679360854e-02 0
9.3825676773359723e-01 1.5703173689401295e-01 0
1.3097539818329229e+00 1.4584732815324250e-01 0
9.3819711377679083e-01 1.5692818913049811e-01 0
1.3098827880641273e+00 1.4593631339240992e-01 0
-1.4060306190376765e-01 -2.4777322273482016e-02 0
-1.9705746619884573e-01 -2.0995600737624364e-02 0
3.3465422253416892e+00 5.3546576225450582e-01 0
5.1245873078997253e+00 6.3050082056718115e-01 0
-1.6099689150523364e-01 -2.8900191805388182e-02 0
-2.5102576967853857e-01 -2.8817525909833767e-02 0
1.0758751066263930e+00 1.7913343624411504e-01 0
1.6817894726287899e+00 2.0197334226889876e-01 0
1.0755065599862117e+00 1.7864515233179237e-01 0
1.6816528073977959e+00 2.0218472754351269e-01 0
-1.6334542123902232e-01 -3.3714849332622969e-02 0
-2.5666098555741501e-01 -2.7243811932212716e-02 0
4.3030714639776830e+00 1.6693080552772765e+00 0
7.0587541753431049e+00 5.0005049845759175e-01 0
-1.9089621258581857e-01 -1.3333121024119812e-01 0
-3.6937487023100712e-01 4.1035708596897829e-03 0
1.3853624019722248e+00 8.7876870688413045e-01 0
2.5752061003710311e+00 6.9842878280920118e-02 0
8.7798008064802702e-01 5.0097555890511591e-01 0
2.0092904646092191e+00 3.4106418810307404e-02 0
4.8755756123029377e+00 3.5255625581269294e+00 0
5.2142104729724092e+00 5.0575717525296271e-01 0
3.7375102264940191e-01 4.1138447566287362e-01 0
3.4623178604929739e+00 2.7310172046364074e+00 0
2.0677484441584455e+00 2.2642095406378848e+00 0
1.8727474965097675e+00 2.3919699790944828e+00 0
3.2094438630604207e+00 1.3159183482847574e+00 0
5.2496267411162056e-01 -1.7210958282246863e-01 0

VECTORS Forces2 float
-8.7516198475528398e-02 5.6087165595231053e-02 0
-6.9642362935600527e-02 -3.8513614433680662e-02 0
1.2271731590876576e+00 -6.8555935793158385e-01 0
9.8661342945745634e-01 5.4750134390491434e-01 0
1.3426526494191038e+00 -2.1058270887314540e-01 0
1.0777747195376770e+00 1.7017930940588449e-01 0
8.5309953135588790e-01 3.4483179110287608e-02 0
6.8384678669592358e-01 -2.7333184139097678e-02 0
-1.2867938526880815e-01 -4.8720093747379092e-03 0
-1.0332332769794819e-01 3.7341633014453292e-03 0
3.2579050477748712e+00 -3.2790843295077989e-03 0
2.5986351952781139e+00 2.6771490643706406e-02 0
-1.3791165741577360e-01 -2.0447073150937526e-04 0
-1.1006809226502026e-01 -2.0604378778267545e-03 0
9.2619194890747181e-01 -1.0392926258156444e-03 0
7.3824540282015139e-01 1.6257571058536414e-02 0
9.2626899748322200e-01 -1.0560764949109789e-03 0
7.3832056948250258e-01 1.6289671192677824e-02 0
-1.3801000457891585e-01 -1.0224143831467194e-04 0
-1.1015603814976289e-01 -2.2714538167819655e-03 0
3.2687676601543023e+00 -6.1575705287050450e-04 0
2.6217372679250284e+00 9.5635765203977791e-02 0
-1.3854801749933013e-01 -3.6654473929260332e-04 0
-1.1276872168301959e-01 -5.4916395181701123e-03 0
9.3022817014405790e-01 8.7527809279962395e-04 0
7.5683782575472369e-01 3.8957683784902261e-02 0
9.3023333207449754e-01 8.7636492079832520e-04 0
7.5686966510189113e-01 3.8981477624508647e-02 0
-1.3857348344597892e-01 -4.0286351390232103e-04 0
-1.1296868049064868e-01 -5.6382451737015090e-03 0
3.2858509632380306e+00 1.2977554941178852e-02 0
2.7322205536963975e+00 1.7772342456577042e-01 0
-1.3923481547254077e-01 -1.3166929092871189e-03 0
-1.1915106274463413e-01 -8.9036961182528147e-03 0
9.3502866948622521e-01 7.2963080968953776e-03 0
8.0038311816306829e-01 6.2031491620508819e-02 0
9.3503074788579033e-01 7.2981049362614266e-03 0
8.0043625792966888e-01 6.2057842385884264e-02 0
-1.3927280362336841e-01 -1.4011423093506670e-03 0
-1.1952950606679758e-01 -9.0415945880013386e-03 0
3.3013228361147213e+00 4.5252222740329806e-02 0
2.9291968758902787e+00 2.5814019484726619e-01 0
-1.3990628024948407e-01 -3.1793291531330968e-03 0
-1.2937575398164522e-01 -1.2218087041968159e-02 0
9.3967211760173419e-01 1.9713443268359748e-02 0
8.6967473824618313e-01 8.4560616774298367e-02 0
9.3966990081317825e-01 1.9718584131287176e-02 0
8.6975193475780865e-01 8.4589820694546139e-02 0
-1.3994035871986277e-01 -3.3407780733904018e-03 0
-1.2994556607631436e-01 -1.2338203766249910e-02 0
3.3165545484991603e+00 1.0998114262361842e-01 0
3.2242031218594644e+00 3.3466754132559068e-01 0
-1.4009467646789331e-01 -6.8681316375375319e-03 0
-1.4399033992373800e-01 -1.5309699487089679e-02 0
9.4099759817923123e-01 4.4306034604441581e-02 0
9.6845874401256837e-01 1.0578453413846529e-01 0
9.4099348442561159e-01 4.4309064989066983e-02 0
9.6856616784611904e-01 1.0582236878478676e-01 0
-1.4015450416493788e-01 -7.1138775672819881e-03 0
-1.4481780389526316e-01 -1.5417297667142603e-02 0
3.3162917894188322e+00 1.9961422780332042e-01 0
3.6365442225816573e+00 4.1764894109942124e-01 0
-1.4137744959062942e-01 -1.1248344175206792e-02 0
-1.6505768509667801e-01 -1.8961342466246613e-02 0
9.4988568350963110e-01 7.2902408818725201e-02 0
1.1107275201721618e+00 1.3125140354163620e-01 0
9.4986649538463930e-01 7.2909376722063254e-02 0
1.1108682641010952e+00 1.3130008013322325e-01 0
-1.4144291610804380e-01 -1.1775281743463973e-02 0
-1.6626434412319172e-01 -1.9007479517634564e-02 0
3.3698473861422502e+00 4.0385516438150088e-01 0
4.2423628259257269e+00 4.8599514212310668e-01 0
-1.4040863391193503e-01 -2.4109980620638644e-02 0
-1.9461900173584515e-01 -2.1051205650354642e-02 0
9.4253020873133353e-01 1.5827424398243431e-01 0
1.3093552712318812e+00 1.4672781773533988e-01 0
9.4247008063385196e-01 1.5817072927287501e-01 0
1.3094842397882371e+00 1.4681687199508725e-01 0
-1.4124438927947744e-01 -2.4965794357326886e-02 0
-1.9699235880622221e-01 -2.1127322618086503e-02 0
3.3614420723667351e+00 5.4032964475754364e-01 0
5.1228225698743302e+00 6.3384522466249915e-01 0
-1.6164257354441203e-01 -2.9143319110848807e-02 0
-2.5089870800726827e-01 -2.8980803228438778e-02 0
1.0801576502502772e+00 1.8074190765772799e-01 0
1.6809696842792101e+00 2.0306607480247574e-01 0
1.0797861998468732e+00 1.8025294485245322e-01 0
1.6808348858149682e+00 2.0327743571006374e-01 0
-1.6399768242198959e-01 -3.3971514696601667e-02 0
-2.5652358894251970e-01 -2.7413346207691633e-02 0
4.3179442795610594e+00 1.6784830355099358e+00 0
7.0546872918048429e+00 5.0603984387023127e-01 0
-1.9148387727254196e-01 -1.3389715135581401e-01 0
-3.6916487830352024e-01 3.7595387270582090e-03 0
1.3890446964350265e+00 8.8272308712666137e-01 0
2.5741149396841281e+00 7.2428079291947001e-02 0
8.8068052249088158e-01 5.0369374855634186e-01 0
2.0086990993149736e+00 3.5815225659865786e-02 0
4.8842809906473752e+00 3.5371873662090776e+00 0
5.2098934994338446e+00 5.1426805419021948e-01 0
3.7513198895050404e-01 4.1248669637954588e-01 0
3.4683125183169210e+00 2.7396156531231175e+00 0
2.0684822243846424e+00 2.2709451113726695e+00 0
1.8728718457850619e+00 2.3987206771393783e+00 0
3.2060046593120837e+00 1.3226888687766194e+00 0
5.2402470768917309e-01 -1.7160570458519922e-01 0

