# vtk DataFile Version 2.0

ASCII

DATASET UNSTRUCTURED_GRID

POINTS 106 float 

-5.0000000000000003e-02  0.0000000000000000e+00  0.0000000000000000e+00
5.0000000000000003e-02  0.0000000000000000e+00  0.0000000000000000e+00
-5.0000000000000003e-02  2.0000000000000000e-02  0.0000000000000000e+00
5.0000000000000003e-02  2.0000000000000000e-02  0.0000000000000000e+00
-5.0000000000000003e-02  4.0000000000000001e-02  0.0000000000000000e+00
5.0000000000000003e-02  4.0000000000000001e-02  0.0000000000000000e+00
-5.0000000000000003e-02  5.9999999999999998e-02  0.0000000000000000e+00
5.0000000000000003e-02  5.9999999999999998e-02  0.0000000000000000e+00
-5.0000000000000003e-02  8.0000000000000002e-02  0.0000000000000000e+00
5.0000000000000003e-02  8.0000000000000002e-02  0.0000000000000000e+00
-5.0000000000000003e-02  1.0000000000000001e-01  0.0000000000000000e+00
5.0000000000000003e-02  1.0000000000000001e-01  0.0000000000000000e+00
-5.0000000000000003e-02  1.2000000000000000e-01  0.0000000000000000e+00
5.0000000000000003e-02  1.2000000000000000e-01  0.0000000000000000e+00
-5.0000000000000003e-02  1.4000000000000001e-01  0.0000000000000000e+00
5.0000000000000003e-02  1.4000000000000001e-01  0.0000000000000000e+00
-5.0000000000000003e-02  1.6000000000000000e-01  0.0000000000000000e+00
5.0000000000000003e-02  1.6000000000000000e-01  0.0000000000000000e+00
-5.0000000000000003e-02  1.7999999999999999e-01  0.0000000000000000e+00
5.0000000000000003e-02  1.7999999999999999e-01  0.0000000000000000e+00
-5.0000000000000003e-02  2.0000000000000001e-01  0.0000000000000000e+00
5.0000000000000003e-02  2.0000000000000001e-01  0.0000000000000000e+00
-5.0000000000000003e-02  2.2000000000000000e-01  0.0000000000000000e+00
5.0000000000000003e-02  2.2000000000000000e-01  0.0000000000000000e+00
-5.0000000000000003e-02  2.3999999999999999e-01  0.0000000000000000e+00
5.0000000000000003e-02  2.3999999999999999e-01  0.0000000000000000e+00
-5.0000000000000003e-02  2.6000000000000001e-01  0.0000000000000000e+00
5.0000000000000003e-02  2.6000000000000001e-01  0.0000000000000000e+00
-5.0000000000000003e-02  2.8000000000000003e-01  0.0000000000000000e+00
5.0000000000000003e-02  2.8000000000000003e-01  0.0000000000000000e+00
-5.0000000000000003e-02  2.9999999999999999e-01  0.0000000000000000e+00
5.0000000000000003e-02  2.9999999999999999e-01  0.0000000000000000e+00
-5.0000000000000003e-02  3.2000000000000001e-01  0.0000000000000000e+00
5.0000000000000003e-02  3.2000000000000001e-01  0.0000000000000000e+00
-5.0000000000000003e-02  3.4000000000000002e-01  0.0000000000000000e+00
5.0000000000000003e-02  3.4000000000000002e-01  0.0000000000000000e+00
-5.0000000000000003e-02  3.5999999999999999e-01  0.0000000000000000e+00
5.0000000000000003e-02  3.5999999999999999e-01  0.0000000000000000e+00
-5.0000000000000003e-02  3.8000000000000000e-01  0.0000000000000000e+00
5.0000000000000003e-02  3.8000000000000000e-01  0.0000000000000000e+00
-5.0000000000000003e-02  4.0000000000000002e-01  0.0000000000000000e+00
5.0000000000000003e-02  4.0000000000000002e-01  0.0000000000000000e+00
-5.0000000000000003e-02  4.1999999999999998e-01  0.0000000000000000e+00
5.0000000000000003e-02  4.1999999999999998e-01  0.0000000000000000e+00
-5.0000000000000003e-02  4.4000000000000000e-01  0.0000000000000000e+00
5.0000000000000003e-02  4.4000000000000000e-01  0.0000000000000000e+00
-5.0000000000000003e-02  4.6000000000000002e-01  0.0000000000000000e+00
5.0000000000000003e-02  4.6000000000000002e-01  0.0000000000000000e+00
-5.0000000000000003e-02  4.7999999999999998e-01  0.0000000000000000e+00
5.0000000000000003e-02  4.7999999999999998e-01  0.0000000000000000e+00
-5.0000000000000003e-02  5.0000000000000000e-01  0.0000000000000000e+00
5.0000000000000003e-02  5.0000000000000000e-01  0.0000000000000000e+00
-5.0000000000000003e-02  5.2000000000000002e-01  0.0000000000000000e+00
5.0000000000000003e-02  5.2000000000000002e-01  0.0000000000000000e+00
-5.0000000000000003e-02  5.4000000000000004e-01  0.0000000000000000e+00
5.0000000000000003e-02  5.4000000000000004e-01  0.0000000000000000e+00
-5.0000000000000003e-02  5.6000000000000005e-01  0.0000000000000000e+00
5.0000000000000003e-02  5.6000000000000005e-01  0.0000000000000000e+00
-5.0000000000000003e-02  5.7999999999999996e-01  0.0000000000000000e+00
5.0000000000000003e-02  5.7999999999999996e-01  0.0000000000000000e+00
-5.0000000000000003e-02  5.9999999999999998e-01  0.0000000000000000e+00
5.0000000000000003e-02  5.9999999999999998e-01  0.0000000000000000e+00
-5.0000000000000003e-02  6.2000000000000000e-01  0.0000000000000000e+00
5.0000000000000003e-02  6.2000000000000000e-01  0.0000000000000000e+00
-5.0000000000000003e-02  6.4000000000000001e-01  0.0000000000000000e+00
5.0000000000000003e-02  6.4000000000000001e-01  0.0000000000000000e+00
-5.0000000000000003e-02  6.6000000000000003e-01  0.0000000000000000e+00
5.0000000000000003e-02  6.6000000000000003e-01  0.0000000000000000e+00
-5.0000000000000003e-02  6.8000000000000005e-01  0.0000000000000000e+00
5.0000000000000003e-02  6.8000000000000005e-01  0.0000000000000000e+00
-5.0000000000000003e-02  6.9999999999999996e-01  0.0000000000000000e+00
5.0000000000000003e-02  6.9999999999999996e-01  0.0000000000000000e+00
-5.0000000000000003e-02  7.1999999999999997e-01  0.0000000000000000e+00
5.0000000000000003e-02  7.1999999999999997e-01  0.0000000000000000e+00
-5.0000000000000003e-02  7.3999999999999999e-01  0.0000000000000000e+00
5.0000000000000003e-02  7.3999999999999999e-01  0.0000000000000000e+00
-5.0000000000000003e-02  7.6000000000000001e-01  0.0000000000000000e+00
5.0000000000000003e-02  7.6000000000000001e-01  0.0000000000000000e+00
-5.0000000000000003e-02  7.8000000000000003e-01  0.0000000000000000e+00
5.0000000000000003e-02  7.8000000000000003e-01  0.0000000000000000e+00
-5.0000000000000003e-02  8.0000000000000004e-01  0.0000000000000000e+00
5.0000000000000003e-02  8.0000000000000004e-01  0.0000000000000000e+00
-5.0000000000000003e-02  8.1999999999999995e-01  0.0000000000000000e+00
5.0000000000000003e-02  8.1999999999999995e-01  0.0000000000000000e+00
-5.0000000000000003e-02  8.3999999999999997e-01  0.0000000000000000e+00
5.0000000000000003e-02  8.3999999999999997e-01  0.0000000000000000e+00
-5.0000000000000003e-02  8.5999999999999999e-01  0.0000000000000000e+00
5.0000000000000003e-02  8.5999999999999999e-01  0.0000000000000000e+00
-5.0000000000000003e-02  8.8000000000000000e-01  0.0000000000000000e+00
5.0000000000000003e-02  8.8000000000000000e-01  0.0000000000000000e+00
-5.0000000000000003e-02  9.0000000000000002e-01  0.0000000000000000e+00
5.0000000000000003e-02  9.0000000000000002e-01  0.0000000000000000e+00
-5.0000000000000003e-02  9.2000000000000004e-01  0.0000000000000000e+00
5.0000000000000003e-02  9.2000000000000004e-01  0.0000000000000000e+00
-5.0000000000000003e-02  9.3999999999999995e-01  0.0000000000000000e+00
5.0000000000000003e-02  9.3999999999999995e-01  0.0000000000000000e+00
-5.0000000000000003e-02  9.5999999999999996e-01  0.0000000000000000e+00
5.0000000000000003e-02  9.5999999999999996e-01  0.0000000000000000e+00
-5.0000000000000003e-02  9.7999999999999998e-01  0.0000000000000000e+00
5.0000000000000003e-02  9.7999999999999998e-01  0.0000000000000000e+00
-5.0000000000000003e-02  1.0000000000000000e+00  0.0000000000000000e+00
-3.0000000000000002e-02  1.0000000000000000e+00  0.0000000000000000e+00
-1.0000000000000002e-02  1.0000000000000000e+00  0.0000000000000000e+00
1.0000000000000009e-02  1.0000000000000000e+00  0.0000000000000000e+00
2.9999999999999999e-02  1.0000000000000000e+00  0.0000000000000000e+00
5.0000000000000003e-02  1.0000000000000000e+00  0.0000000000000000e+00

CELLS 0 0


CELL_TYPES 0


POINT_DATA 106

VECTORS VertexNormals float

0.0000000000000000e+00 0.0000000000000000e+00 0
0.0000000000000000e+00 0.0000000000000000e+00 0
0.0000000000000000e+00 0.0000000000000000e+00 0
0.0000000000000000e+00 0.0000000000000000e+00 0
0.0000000000000000e+00 0.0000000000000000e+00 0
0.0000000000000000e+00 0.0000000000000000e+00 0
0.0000000000000000e+00 0.0000000000000000e+00 0
0.0000000000000000e+00 0.0000000000000000e+00 0
0.0000000000000000e+00 0.0000000000000000e+00 0
0.0000000000000000e+00 0.0000000000000000e+00 0
0.0000000000000000e+00 0.0000000000000000e+00 0
0.0000000000000000e+00 0.0000000000000000e+00 0
0.0000000000000000e+00 0.0000000000000000e+00 0
0.0000000000000000e+00 0.0000000000000000e+00 0
0.0000000000000000e+00 0.0000000000000000e+00 0
0.0000000000000000e+00 0.0000000000000000e+00 0
0.0000000000000000e+00 0.0000000000000000e+00 0
0.0000000000000000e+00 0.0000000000000000e+00 0
0.0000000000000000e+00 0.0000000000000000e+00 0
0.0000000000000000e+00 0.0000000000000000e+00 0
0.0000000000000000e+00 0.0000000000000000e+00 0
0.0000000000000000e+00 0.0000000000000000e+00 0
0.0000000000000000e+00 0.0000000000000000e+00 0
0.0000000000000000e+00 0.0000000000000000e+00 0
0.0000000000000000e+00 0.0000000000000000e+00 0
0.0000000000000000e+00 0.0000000000000000e+00 0
0.0000000000000000e+00 0.0000000000000000e+00 0
0.0000000000000000e+00 0.0000000000000000e+00 0
0.0000000000000000e+00 0.0000000000000000e+00 0
0.0000000000000000e+00 0.0000000000000000e+00 0
0.0000000000000000e+00 0.0000000000000000e+00 0
0.0000000000000000e+00 0.0000000000000000e+00 0
0.0000000000000000e+00 0.0000000000000000e+00 0
0.0000000000000000e+00 0.0000000000000000e+00 0
0.0000000000000000e+00 0.0000000000000000e+00 0
0.0000000000000000e+00 0.0000000000000000e+00 0
0.0000000000000000e+00 0.0000000000000000e+00 0
0.0000000000000000e+00 0.0000000000000000e+00 0
0.0000000000000000e+00 0.0000000000000000e+00 0
0.0000000000000000e+00 0.0000000000000000e+00 0
0.0000000000000000e+00 0.0000000000000000e+00 0
0.0000000000000000e+00 0.0000000000000000e+00 0
0.0000000000000000e+00 0.0000000000000000e+00 0
0.0000000000000000e+00 0.0000000000000000e+00 0
0.0000000000000000e+00 0.0000000000000000e+00 0
0.0000000000000000e+00 0.0000000000000000e+00 0
0.0000000000000000e+00 0.0000000000000000e+00 0
0.0000000000000000e+00 0.0000000000000000e+00 0
0.0000000000000000e+00 0.0000000000000000e+00 0
0.0000000000000000e+00 0.0000000000000000e+00 0
0.0000000000000000e+00 0.0000000000000000e+00 0
0.0000000000000000e+00 0.0000000000000000e+00 0
0.0000000000000000e+00 0.0000000000000000e+00 0
0.0000000000000000e+00 0.0000000000000000e+00 0
0.0000000000000000e+00 0.0000000000000000e+00 0
0.0000000000000000e+00 0.0000000000000000e+00 0
0.0000000000000000e+00 0.0000000000000000e+00 0
0.0000000000000000e+00 0.0000000000000000e+00 0
0.0000000000000000e+00 0.0000000000000000e+00 0
0.0000000000000000e+00 0.0000000000000000e+00 0
0.0000000000000000e+00 0.0000000000000000e+00 0
0.0000000000000000e+00 0.0000000000000000e+00 0
0.0000000000000000e+00 0.0000000000000000e+00 0
0.0000000000000000e+00 0.0000000000000000e+00 0
0.0000000000000000e+00 0.0000000000000000e+00 0
0.0000000000000000e+00 0.0000000000000000e+00 0
0.0000000000000000e+00 0.0000000000000000e+00 0
0.0000000000000000e+00 0.0000000000000000e+00 0
0.0000000000000000e+00 0.0000000000000000e+00 0
0.0000000000000000e+00 0.0000000000000000e+00 0
0.0000000000000000e+00 0.0000000000000000e+00 0
0.0000000000000000e+00 0.0000000000000000e+00 0
0.0000000000000000e+00 0.0000000000000000e+00 0
0.0000000000000000e+00 0.0000000000000000e+00 0
0.0000000000000000e+00 0.0000000000000000e+00 0
0.0000000000000000e+00 0.0000000000000000e+00 0
0.0000000000000000e+00 0.0000000000000000e+00 0
0.0000000000000000e+00 0.0000000000000000e+00 0
0.0000000000000000e+00 0.0000000000000000e+00 0
0.0000000000000000e+00 0.0000000000000000e+00 0
0.0000000000000000e+00 0.0000000000000000e+00 0
0.0000000000000000e+00 0.0000000000000000e+00 0
0.0000000000000000e+00 0.0000000000000000e+00 0
0.0000000000000000e+00 0.0000000000000000e+00 0
0.0000000000000000e+00 0.0000000000000000e+00 0
0.0000000000000000e+00 0.0000000000000000e+00 0
0.0000000000000000e+00 0.0000000000000000e+00 0
0.0000000000000000e+00 0.0000000000000000e+00 0
0.0000000000000000e+00 0.0000000000000000e+00 0
0.0000000000000000e+00 0.0000000000000000e+00 0
0.0000000000000000e+00 0.0000000000000000e+00 0
0.0000000000000000e+00 0.0000000000000000e+00 0
0.0000000000000000e+00 0.0000000000000000e+00 0
0.0000000000000000e+00 0.0000000000000000e+00 0
0.0000000000000000e+00 0.0000000000000000e+00 0
0.0000000000000000e+00 0.0000000000000000e+00 0
0.0000000000000000e+00 0.0000000000000000e+00 0
0.0000000000000000e+00 0.0000000000000000e+00 0
0.0000000000000000e+00 0.0000000000000000e+00 0
0.0000000000000000e+00 0.0000000000000000e+00 0
0.0000000000000000e+00 0.0000000000000000e+00 0
0.0000000000000000e+00 0.0000000000000000e+00 0
0.0000000000000000e+00 0.0000000000000000e+00 0
0.0000000000000000e+00 0.0000000000000000e+00 0
0.0000000000000000e+00 0.0000000000000000e+00 0
0.0000000000000000e+00 0.0000000000000000e+00 0

VECTORS Displacements1 float
-5.1060122738473373e-17 2.8524605724600052e-17 0
-5.7257208740552328e-23 -5.7801175135020087e-24 0
7.6380327551645358e-07 -1.9658269776045858e-08 0
7.4736148694925085e-07 6.1784587869625345e-08 0
1.0584585091992220e-06 -1.4936033598287709e-08 0
1.0100647799694886e-06 6.6863427889402563e-08 0
9.6751970369319975e-07 2.9012566633523959e-09 0
9.2283071567404363e-07 4.2935354738822153e-08 0
7.9448447497243944e-07 4.9926910444658428e-08 0
7.7256837755769388e-07 -3.0346641729224536e-08 0
1.8754666675914746e-06 3.3070061614515958e-08 0
1.7478920747777923e-06 1.2286456095673123e-07 0
7.7628901936844923e-07 -1.1680529099040189e-07 0
7.5073698967284157e-07 1.2580651315039654e-07 0
9.5408993562498952e-07 -2.9056999811386790e-09 0
9.1405794963287643e-07 6.9945657922361211e-08 0
9.5518444741991192e-07 3.2600692038104462e-08 0
9.1493636700662773e-07 3.9433421357312774e-08 0
7.7940914709580297e-07 9.5631591318411561e-08 0
7.6580426157438060e-07 -5.7126073108940711e-08 0
1.8800386159643983e-06 6.5533758127773205e-08 0
1.7741939574372235e-06 1.3003654754239790e-07 0
7.8352524554888919e-07 -1.0111230898823021e-07 0
7.5967816467910993e-07 1.3399133895617225e-07 0
9.5680987178590979e-07 4.1171200509787920e-09 0
9.3162447142981252e-07 8.8988414637683787e-08 0
9.6134466471929936e-07 3.5105014222124273e-08 0
9.3645307730393563e-07 6.3316113939173319e-08 0
7.8936764130843694e-07 9.5571099559574242e-08 0
7.9056085469476203e-07 -3.5271505899469664e-08 0
1.8918110878435122e-06 6.4266409700325917e-08 0
1.8470423366213157e-06 1.8104657400561113e-07 0
7.9613463510329752e-07 -1.0149952947283090e-07 0
7.8250368984863909e-07 1.6454435031317391e-07 0
9.7061287910595333e-07 6.1161249968436791e-09 0
9.7280816667790101e-07 1.1911352155136475e-07 0
9.7739073273073215e-07 3.9137234006002330e-08 0
9.8188474978590038e-07 9.1861921762593897e-08 0
8.0726787435775243e-07 1.0097147014352324e-07 0
8.3222922739952033e-07 -1.6475026753759828e-08 0
1.9128257162207396e-06 7.4563124578641827e-08 0
1.9706111750875174e-06 2.3186505390869459e-07 0
8.1797342350436353e-07 -9.4740678308405448e-08 0
8.2271860131138859e-07 1.9616511076874279e-07 0
9.9291336734134935e-07 1.6997799178272837e-08 0
1.0375369225255894e-06 1.4801102923303228e-07 0
1.0019188410126735e-06 5.3364045273126388e-08 0
1.0512090227729890e-06 1.1811776674905164e-07 0
8.3320923307990237e-07 1.1730676953838553e-07 0
8.9261651478357495e-07 -3.7844282213988541e-09 0
1.9437768778825272e-06 1.0450699262999402e-07 0
2.1517944035731766e-06 2.8022208373326810e-07 0
8.5022717201376960e-07 -7.6793213660666134e-08 0
8.8268859779622269e-07 2.2813255689617211e-07 0
1.0234826291200474e-06 4.1207416325656845e-08 0
1.1294593188640235e-06 1.7493795455085900e-07 0
1.0351061359794576e-06 8.1192639639271626e-08 0
1.1487128293904680e-06 1.4200811848722663e-07 0
8.6852161845780023e-07 1.4448654623799393e-07 0
9.7637607606183586e-07 3.8708176971596960e-09 0
1.9812903699584662e-06 1.5148264370904938e-07 0
2.4032861566493436e-06 3.3152008823381132e-07 0
8.9578065388786732e-07 -4.5139984819374861e-08 0
9.6769592062294116e-07 2.6176964373946720e-07 0
1.0725641774396305e-06 8.2160970477822827e-08 0
1.2615994982998374e-06 2.0087779243673354e-07 0
1.0892989530885179e-06 1.3141748203421917e-07 0
1.2896429809452510e-06 1.6178222720179111e-07 0
9.2531154010558212e-07 2.0460482011496271e-07 0
1.0983483330940270e-06 -3.3833898173121658e-09 0
2.0690704072560768e-06 2.6147404918070987e-07 0
2.7741317432966808e-06 3.7271549282333225e-07 0
9.7124410065575915e-07 1.6092863540367633e-08 0
1.0961312877477044e-06 2.9540276818813851e-07 0
1.1415402243514939e-06 1.6299794172676556e-07 0
1.4520395262558224e-06 2.2095787048506654e-07 0
1.1682347851664657e-06 2.1663851363126059e-07 0
1.4955841337170234e-06 1.7830509109016774e-07 0
1.0172255379879673e-06 2.7316809026373722e-07 0
1.2865122717034545e-06 -9.0285065911714526e-09 0
2.1826199574536331e-06 3.6401452280213912e-07 0
3.3220555215298960e-06 4.5522895885432591e-07 0
1.1030572721240925e-06 1.2349599174746216e-07 0
1.2992208700435461e-06 3.3277308679831352e-07 0
1.3740081222023379e-06 3.5277177820008273e-07 0
1.8075960951946035e-06 2.2837147082582619e-07 0
1.4698231599718286e-06 5.6706224925433403e-07 0
1.9042852786747730e-06 1.3581539128845222e-07 0
1.3944927101201537e-06 9.4086809361210534e-07 0
1.6686239464361574e-06 -2.0953896564041359e-07 0
3.0829792953497373e-06 1.7171190904265328e-06 0
4.5231020872989658e-06 1.5546505909531135e-07 0
1.7771651504927077e-06 1.8477865249374994e-06 0
1.7943711061743407e-06 -2.3172693027114023e-07 0
2.6013657310551881e-06 3.4129390305369311e-06 0
2.9523718975826900e-06 -1.0745290000714343e-06 0
3.8636439847324294e-06 5.1585196482637694e-06 0
4.0654184709150890e-06 -2.1299161046422531e-06 0
7.8271517142038708e-06 7.5092119825175656e-06 0
7.4455508479804944e-06 -2.8970383159197081e-06 0
9.9040304916398598e-06 7.5356638736792427e-06 0
9.9478594628689446e-06 4.9719437876524054e-06 0
8.7569374870813873e-06 2.6933099620704219e-06 0
8.4233277019923634e-06 1.2926623523386477e-06 0
9.1819654309213343e-06 -7.9318832670137757e-07 0
8.8565218178724978e-06 -3.5643235996502910e-06 0

VECTORS Displacements2 float
-5.1410748924660695e-17 2.8720529355108643e-17 0
-5.9222851853653838e-23 -4.8481458825742515e-24 0
7.8942320886987248e-07 -5.7750661843527852e-09 0
7.7227910131932411e-07 4.8183941957328960e-08 0
1.1072450314570790e-06 -1.7309317064402352e-10 0
1.0561831888512689e-06 5.2656533899295667e-08 0
1.0282152003262818e-06 1.1782295815708674e-08 0
9.8100582244732250e-07 3.4053885476811695e-08 0
8.5890041906963826e-07 5.2628459847877622e-08 0
8.3531221747493606e-07 -3.2121906956522892e-08 0
1.9474047226448392e-06 3.1781624072921926e-08 0
1.8132750661465084e-06 1.2557121909533473e-07 0
8.3843521768795968e-07 -1.1957961438139529e-07 0
8.1147642199504147e-07 1.2907379300774908e-07 0
1.0176490109777538e-06 -4.0445712850383424e-09 0
9.7504139497889946e-07 7.2616783379520181e-08 0
1.0190847138014309e-06 3.2579131001682203e-08 0
9.7647005913605595e-07 4.1238039097805469e-08 0
8.4356687243842686e-07 9.6438292624614437e-08 0
8.2804802503553503e-07 -5.5266400810150534e-08 0
1.9524873413073989e-06 6.6243069264739253e-08 0
1.8400119373530139e-06 1.3222700062802438e-07 0
8.4765771604752012e-07 -1.0184799855195404e-07 0
8.2197431985528267e-07 1.3681067904621930e-07 0
1.0216463425038112e-06 4.2623622969938553e-09 0
9.9349588388480711e-07 9.2103143800214435e-08 0
1.0262650016961057e-06 3.6402554052291336e-08 0
9.9918403131873055e-07 6.5663215370371942e-08 0
8.5465457786399904e-07 9.7340048968288955e-08 0
8.5356709198867265e-07 -3.2675744582480893e-08 0
1.9659399020689673e-06 6.5542858970263411e-08 0
1.9141511236576157e-06 1.8488053788050688e-07 0
8.6191576396772377e-07 -1.0180977463684955e-07 0
8.4624031471796436e-07 1.6868884934330279e-07 0
1.0372822163685170e-06 6.8486926655481983e-09 0
1.0364115279733573e-06 1.2362096460700429e-07 0
1.0443594135180874e-06 4.1155700864285293e-08 0
1.0465563182649117e-06 9.5561410546886951e-08 0
8.7487948713298481e-07 1.0356187913174206e-07 0
8.9742996035962798e-07 -1.2465583603242368e-08 0
1.9897378129053098e-06 7.6801994873299101e-08 0
2.0401286232789215e-06 2.3726563218968418e-07 0
8.8644130318600156e-07 -9.4221039974565632e-08 0
8.8889619257842379e-07 2.0161914732344581e-07 0
1.0624454958092309e-06 1.8798946040219051e-08 0
1.1039026953967211e-06 1.5383636734530824e-07 0
1.0719726802537915e-06 5.6665921509462747e-08 0
1.1188925833257285e-06 1.2310205068550806e-07 0
9.0424956148945975e-07 1.2133030020884451e-07 0
9.6108621706313368e-07 1.5697474568945164e-09 0
2.0246745782734914e-06 1.0837914728024426e-07 0
2.2249029006960764e-06 2.8713670721300913e-07 0
9.2257741318235971e-07 -7.4838331088531905e-08 0
9.5246105315690243e-07 2.3481351561656414e-07 0
1.0970979359960001e-06 4.4754773280408024e-08 0
1.1998351835065392e-06 1.8201574949253658e-07 0
1.1094998055874154e-06 8.6549411099591432e-08 0
1.2207169121332541e-06 1.4819356251175209e-07 0
9.4438847990893575e-07 1.5079492325020292e-07 0
1.0494896648044184e-06 1.0492384112964523e-08 0
2.0676716614219606e-06 1.5799981650901580e-07 0
2.4814740167991740e-06 3.3984073397068135e-07 0
9.7355623354203823e-07 -4.0625715223769278e-08 0
1.0425368790064697e-06 2.6944772505136802e-07 0
1.1520244654183443e-06 8.8826088732029291e-08 0
1.3376643305186966e-06 2.0892277237422095e-07 0
1.1700294558798758e-06 1.4039661886149784e-07 0
1.3678771206804327e-06 1.6886240496942273e-07 0
1.0083283923025530e-06 2.1484873547666015e-07 0
1.1782819540114347e-06 4.3288500366786330e-09 0
2.1637787526423423e-06 2.7248170383613301e-07 0
2.8599878139854181e-06 3.8239417526380802e-07 0
1.0574823957002563e-06 2.4597276865922666e-08 0
1.1789379689363860e-06 3.0397600934182139e-07 0
1.2302674219066636e-06 1.7455828334772742e-07 0
1.5372656459343854e-06 2.2991904859926321e-07 0
1.2589332589319508e-06 2.3139211893835733e-07 0
1.5839937389134498e-06 1.8599202457596101e-07 0
1.1121583428307161e-06 2.9064430956427257e-07 0
1.3778740510272181e-06 -8.4153378123830765e-10 0
2.2902316667250310e-06 3.8372532690991624e-07 0
3.4203478396079932e-06 4.6527228205048650e-07 0
1.2057990974803072e-06 1.4685637916391808e-07 0
1.3951956353053903e-06 3.4007840802989778e-07 0
1.4839591542140579e-06 3.9068255085076830e-07 0
1.9081874647687714e-06 2.3357986827074493e-07 0
1.5912336766717332e-06 6.2669970712366762e-07 0
2.0103244345895209e-06 1.3721226572855351e-07 0
1.5259657705597075e-06 1.0277279631611976e-06 0
1.7782177971818883e-06 -2.1654510251776735e-07 0
3.2333029375083650e-06 1.8499982352378730e-06 0
4.6440117321356563e-06 1.3239931712148520e-07 0
1.9380841698872549e-06 2.0399815400695595e-06 0
1.9262819500564201e-06 -2.9661091564375403e-07 0
2.8219599610766812e-06 3.6847512964209654e-06 0
3.1429446461332666e-06 -1.1899592756730350e-06 0
4.1884840327569310e-06 5.5047224134078318e-06 0
4.3588460577503181e-06 -2.2891650810892801e-06 0
8.2988363283148876e-06 7.9092829880750932e-06 0
7.8657999639805255e-06 -3.0752648150974782e-06 0
1.0510849922615308e-05 7.9446283252930644e-06 0
1.0545292471981922e-05 5.2490274585112932e-06 0
9.3247694770577340e-06 2.8426807841958443e-06 0
8.9663935782761916e-06 1.3283869564696575e-06 0
9.7171456306701109e-06 -8.6442627258977924e-07 0
9.3895499744129462e-06 -3.7461343855411707e-06 0

VECTORS Displacements3 float
-5.1647645698703296e-17 2.8852956708744835e-17 0
-6.1174978987621406e-23 -3.8499056891050660e-24 0
8.1455415339048264e-07 9.0536010643647959e-09 0
7.9691173064978071e-07 3.3703163281747752e-08 0
1.1562504930241258e-06 1.6259598480704110e-08 0
1.1024913066483074e-06 3.6742739606746091e-08 0
1.0905515386887612e-06 2.1929044248958403e-08 0
1.0412365130084859e-06 2.3923095490763153e-08 0
9.2588517488638473e-07 5.5676989725099626e-08 0
9.0052034986986664e-07 -3.4475458520941736e-08 0
2.0196782185273368e-06 3.0790541801535152e-08 0
1.8788800480123986e-06 1.2765697704557658e-07 0
9.0300965767330804e-07 -1.2199076213367944e-07 0
8.7487210566105957e-07 1.3214025002766965e-07 0
1.0837719703179623e-06 -5.0739403331999821e-09 0
1.0384164269241106e-06 7.5012931050174446e-08 0
1.0854104973457140e-06 3.2442978739935340e-08 0
1.0407538521116399e-06 4.3111723433819091e-08 0
9.1064559979994473e-07 9.6832022917694544e-08 0
8.9283807917211361e-07 -5.2928079548374528e-08 0
2.0251971974635392e-06 6.6857501084230391e-08 0
1.9061064826201036e-06 1.3422126841974822e-07 0
9.1431775006323301e-07 -1.0211417100093572e-07 0
8.8708592822439325e-07 1.3929622696482432e-07 0
1.0893430448876585e-06 4.5567822775360327e-09 0
1.0578867876102026e-06 9.4998116499663450e-08 0
1.0936973649725192e-06 3.7689654879570505e-08 0
1.0646644371870012e-06 6.8102657859089585e-08 0
9.2287151294842383e-07 9.8848042876095673e-08 0
9.1905268787305562e-07 -2.9692782278411461e-08 0
2.0404181602720947e-06 6.6841856995000502e-08 0
1.9814544530354778e-06 1.8839945324318392e-07 0
9.3032653434611960e-07 -1.0155726156712865e-07 0
9.1286611054390078e-07 1.7250691528264421e-07 0
1.1069543277099358e-06 7.8139382380591986e-09 0
1.1025327401492214e-06 1.2789817486434841e-07 0
1.1139646385263457e-06 4.3239844229582370e-08 0
1.1140039235327511e-06 9.9370337420812388e-08 0
9.4559393147938762e-07 1.0596987388824857e-07 0
9.6512669144406404e-07 -8.0279466745182003e-09 0
2.0671594174031453e-06 7.9138960969151519e-08 0
2.1096811951530914e-06 2.4229336865931348e-07 0
9.5769435283930357e-07 -9.3042754122954511e-08 0
9.5802122112504470e-07 2.0673445688059545e-07 0
1.1351945819602782e-06 2.0927614784560237e-08 0
1.1728154814027914e-06 1.5944655419691124e-07 0
1.1448519767521114e-06 6.0112675453477633e-08 0
1.1893918046267821e-06 1.2821746172220564e-07 0
9.7864902218972436e-07 1.2525698944802395e-07 0
1.0320818029192231e-06 7.4153259807320389e-09 0
2.1063186896557056e-06 1.1241209964521036e-07 0
2.2978165231874769e-06 2.9363341131738674e-07 0
9.9793737691245106e-07 -7.2114227953493854e-08 0
1.0252622209317035e-06 2.4114103870895960e-07 0
1.1742425192614641e-06 4.8745248356509918e-08 0
1.2728045323175582e-06 1.8890384507640304e-07 0
1.1869979446724410e-06 9.2151165458099670e-08 0
1.2956020575009964e-06 1.5453867864623529e-07 0
1.0239824786587111e-06 1.5713225989551568e-07 0
1.1251777900601340e-06 1.7685591020836755e-08 0
2.1551415552318994e-06 1.6477528875877034e-07 0
2.5591439438298852e-06 3.4768793203634356e-07 0
1.0546519025052724e-06 -3.5176350216230183e-08 0
1.1205112880763037e-06 2.7674283546941480e-07 0
1.2354452609082981e-06 9.6107506772000635e-08 0
1.4163813316033183e-06 2.1680379424210360e-07 0
1.2542441338853475e-06 1.4975018372088473e-07 0
1.4490797364637065e-06 1.7614477141305894e-07 0
1.0955930061884733e-06 2.2525855987871347e-07 0
1.2608714690364701e-06 1.2740765282411787e-08 0
2.2600404635637312e-06 2.8379975273027664e-07 0
2.9448989578008958e-06 3.9155340025731271e-07 0
1.1475098007948011e-06 3.4255498078886215e-08 0
1.2650851249399497e-06 3.1211388540615184e-07 0
1.3236568448855391e-06 1.8701658736904990e-07 0
1.6253067966991520e-06 2.3873077368896026e-07 0
1.3538476139088353e-06 2.4683252887459853e-07 0
1.6756307955630053e-06 1.9386285656084804e-07 0
1.2122093836269853e-06 3.0882920413589708e-07 0
1.4720175773089635e-06 8.1025955613996498e-09 0
2.4001871835039847e-06 4.0453260949061903e-07 0
3.5169534123804181e-06 4.7459071401316915e-07 0
1.3138073986370642e-06 1.7367519168480155e-07 0
1.4948814504905967e-06 3.4673778573897347e-07 0
1.5997143598188409e-06 4.3252857254780938e-07 0
2.0119395192483184e-06 2.3838831214499203e-07 0
1.7186347268366192e-06 6.9073413271517474e-07 0
2.1189390427979683e-06 1.3837908892712883e-07 0
1.6636108469724523e-06 1.1208449921622310e-06 0
1.8900870786169844e-06 -2.2417069567481408e-07 0
3.3857917813034745e-06 1.9909852395405413e-06 0
4.7610114636419413e-06 1.0518687133346058e-07 0
2.1076110102500804e-06 2.2442281703548843e-06 0
2.0643853105330323e-06 -3.6852408556307443e-07 0
3.0550023875001372e-06 3.9679892734073808e-06 0
3.3434977170602117e-06 -1.3128246598054688e-06 0
4.5295341644474361e-06 5.8602525104576726e-06 0
4.6666777394837765e-06 -2.4549188694988555e-06 0
8.7842440078439368e-06 8.3141098778072113e-06 0
8.2988663557352978e-06 -3.2577845183179003e-06 0
1.1132093842662221e-05 8.3582604712635106e-06 0
1.1157584272418792e-05 5.5311947699770936e-06 0
9.9099171552676169e-06 2.9950075554788583e-06 0
9.5277286546806641e-06 1.3644481275935700e-06 0
1.0267854767664240e-05 -9.3835497421464696e-07 0
9.9378950023461998e-06 -3.9304074912467355e-06 0

VECTORS Forces1 float
-1.3748373390057786e-01 8.4824976625103882e-02 0
-1.0218167840504597e-01 -5.8721110762162611e-02 0
1.8734722329004065e+00 -1.0418512817691981e+00 0
1.4083041052386061e+00 7.8111847892849129e-01 0
2.0525142141458335e+00 -3.1969862937152382e-01 0
1.5441085350810138e+00 2.4218932211155281e-01 0
1.3061289524059063e+00 5.3079673595250433e-02 0
9.8233129926998686e-01 -3.8680659473176872e-02 0
-1.9692103181985735e-01 -7.3090193110726814e-03 0
-1.4839871351573822e-01 5.2680872432871112e-03 0
5.0078906609985987e+00 -1.8072246735949772e-03 0
3.7668959350684736e+00 2.6243347189162353e-02 0
-2.1191760963725398e-01 -2.2291149836391010e-04 0
-1.6009619401684935e-01 -1.8734505390413300e-03 0
1.4235450497747040e+00 -1.2343118182942476e-03 0
1.0741946179368445e+00 1.5298204653237968e-02 0
1.4236563291996172e+00 -1.2640563144184951e-03 0
1.0743043035520317e+00 1.5332162529549715e-02 0
-2.1207798018222776e-01 -6.0840211038324328e-05 0
-1.6025234358935456e-01 -2.1117313284408439e-03 0
5.0107411144263256e+00 -7.0820341055118207e-03 0
3.8087553514818340e+00 8.7786897505135367e-02 0
-2.1172123397323539e-01 1.2738745272075543e-04 0
-1.6305413069963584e-01 -4.8931596961941026e-03 0
1.4213597613414990e+00 -2.5208494335552225e-03 0
1.0941726852965092e+00 3.4891691614050480e-02 0
1.4213586795112216e+00 -2.5224923130220153e-03 0
1.0942053969219385e+00 3.4911805910427147e-02 0
-2.1169468316605211e-01 1.1547694315854762e-04 0
-1.6324836005070070e-01 -5.0159002945791425e-03 0
5.0024423909110585e+00 -5.0653893844468910e-03 0
3.9184716448889918e+00 1.5598823113894009e-01 0
-2.1113963239401989e-01 -2.7951568996651598e-04 0
-1.6914883232544226e-01 -7.6825251059835465e-03 0
1.4176103442301158e+00 2.4340025228820948e-04 0
1.1357260141659051e+00 5.3736583292172881e-02 0
1.4176039409713976e+00 2.4194420372196908e-04 0
1.1357768470561749e+00 5.3758879853145140e-02 0
-2.1110490232281146e-01 -3.3496852517058133e-04 0
-1.6949882916839834e-01 -7.7907033005100660e-03 0
4.9816493005787095e+00 1.2810455283292230e-02 0
4.1018984138604146e+00 2.2115863265246416e-01 0
-2.1002642404446964e-01 -1.4771948823443495e-03 0
-1.7857419096109506e-01 -1.0319651270332762e-02 0
1.4102141937740142e+00 8.1798307667120176e-03 0
1.1995730458648106e+00 7.1695112693456881e-02 0
1.4102008911485737e+00 8.1807511777707044e-03 0
1.1996448066050900e+00 7.1719749040182620e-02 0
-2.0996285797772998e-01 -1.6012734577633310e-03 0
-1.7909235850872593e-01 -1.0404278533456039e-02 0
4.9483188026006797e+00 5.9333591517090403e-02 0
4.3723381797989296e+00 2.7954833470599016e-01 0
-2.0792450906891763e-01 -4.2736192472069582e-03 0
-1.9188551128966258e-01 -1.2559040484860317e-02 0
1.3961175748414014e+00 2.6750290190170101e-02 0
1.2895166900995250e+00 8.7156414029920040e-02 0
1.3960994589415541e+00 2.6748130982486774e-02 0
1.2896155657092891e+00 8.7189008953290681e-02 0
-2.0785801479988422e-01 -4.4717574150640723e-03 0
-1.9264044626815696e-01 -1.2624076130722153e-02 0
4.8871285618642215e+00 1.2587354816795893e-01 0
4.7470348243738352e+00 3.4138430989262764e-01 0
-2.0625223251171665e-01 -7.5780654680069164e-03 0
-2.1121098339796901e-01 -1.5249826712589318e-02 0
1.3851122819912909e+00 4.8114487505344083e-02 0
1.4199797313800961e+00 1.0614854073222761e-01 0
1.3850766280293330e+00 4.8113525049740417e-02 0
1.4201060249063362e+00 1.0619045805349182e-01 0
-2.0616440797131755e-01 -8.0238321247885699e-03 0
-2.1231706724720564e-01 -1.5231961662643175e-02 0
4.8619853945281095e+00 2.9258026115818281e-01 0
5.3053282036746134e+00 3.7790859827392859e-01 0
-2.0191120722143180e-01 -1.8256318885199393e-02 0
-2.3806096075453329e-01 -1.5684181629213593e-02 0
1.3550951446379287e+00 1.1874008514103594e-01 0
1.6000933357694820e+00 1.1043437143658036e-01 0
1.3550129947163179e+00 1.1863634359313506e-01 0
1.6001983364146606e+00 1.1052335686749880e-01 0
-2.0260226386208671e-01 -1.8993784768599416e-02 0
-2.4038600914714825e-01 -1.5668076546440327e-02 0
4.7792287340833957e+00 3.8335981544929004e-01 0
6.1143941491645393e+00 5.0071609957668994e-01 0
-2.1991547116329016e-01 -2.1729084827257449e-02 0
-2.9333255127682278e-01 -2.2369530803646998e-02 0
1.4706683741269004e+00 1.3168231320063425e-01 0
1.9641311114256945e+00 1.5918421213267905e-01 0
1.4702516755291004e+00 1.3123223011172208e-01 0
1.9639016619991403e+00 1.5940106338252405e-01 0
-2.2201141502744526e-01 -2.6253369045845753e-02 0
-2.9898190256279594e-01 -2.0426038407891974e-02 0
5.6181828976282020e+00 1.4463642783693507e+00 0
8.0298091063686652e+00 2.3085614573778662e-01 0
-2.4172394113358639e-01 -1.2120763354243529e-01 0
-4.0571693118609736e-01 2.1166324701039550e-02 0
1.7359844947683469e+00 7.9064767356644083e-01 0
2.8218731204389540e+00 -5.3963753976675445e-02 0
1.1933278433847412e+00 4.5521295199181117e-01 0
2.2036537961537115e+00 -5.1043318430806527e-02 0
5.1777660625928519e+00 3.1128413727487776e+00 0
5.6928835579401316e+00 1.3698101226624565e-01 0
4.0324630694121205e-01 3.8479330984707050e-01 0
3.6349037394400892e+00 2.3306133243064693e+00 0
2.1926846854976101e+00 1.9096557421160385e+00 0
2.0273491263554901e+00 2.0733499949668519e+00 0
3.5555443392418433e+00 1.0372531151934770e+00 0
5.7397900489663733e-01 -2.0040869498338512e-01 0

VECTORS Forces2 float
2.7611621030210573e-02 -1.0948831248760893e-02 0
-1.0727233899848813e-02 -2.7391961160338624e-03 0
-2.3666296076802296e-01 1.2462627340776369e-01 0
2.0466568390668868e-01 1.1527558456460174e-01 0
-2.6089040637221006e-01 3.9520893246557998e-02 0
2.1582850566582346e-01 3.6465865739054186e-02 0
-1.6935252743084289e-01 -5.4204544400599675e-03 0
1.3330695337989093e-01 -6.3591289107989271e-03 0
2.5401677527025213e-02 3.7270120581488843e-04 0
-2.0265566455510343e-02 9.2528307035405120e-04 0
-6.8711960135042727e-01 3.6562644926948785e-04 0
4.6696921723858048e-01 2.3171616557456472e-02 0
2.9621970143558211e-02 -3.1738577830288006e-05 0
-1.9671490561899402e-02 -2.0060467212269120e-03 0
-1.9929937142415216e-01 -1.4430319557983380e-03 0
1.3112518695258554e-01 1.5243808007428748e-02 0
-1.9930705455394826e-01 -1.4367828103036293e-03 0
1.3114400983105254e-01 1.5268326391061569e-02 0
2.9728918986216362e-02 -1.8305376227586491e-05 0
-1.9714497486512588e-02 -2.1256218238859485e-03 0
-6.9981423997687953e-01 -7.9044119313745054e-03 0
4.9417831972781828e-01 8.7636812542900788e-02 0
2.9324299545870666e-02 2.3363615432187064e-04 0
-2.3215619675164240e-02 -4.9545012678165216e-03 0
-1.9633005122344796e-01 -3.1522651675138917e-03 0
1.5582710850484813e-01 3.5200671885404017e-02 0
-1.9632408857998201e-01 -3.1554386424410214e-03 0
1.5586441188375624e-01 3.5222590649688197e-02 0
2.9285208373957494e-02 2.2393254874504984e-04 0
-2.3476698080708618e-02 -5.0774154804452479e-03 0
-6.7900458279527565e-01 -9.2115170106064816e-03 0
6.3106218888807919e-01 1.5876619447952928e-01 0
2.8015060121557491e-02 -3.4998869350318586e-05 0
-3.1087898776100971e-02 -7.8589811064350024e-03 0
-1.8721998597385811e-01 -1.3549007487369906e-03 0
2.0939192303637555e-01 5.4869022285445324e-02 0
-1.8721110187753298e-01 -1.3576948866666030e-03 0
2.0945376890773049e-01 5.4892726304873046e-02 0
2.7925703988050218e-02 -8.5704389352075542e-05 0
-3.1563142591422483e-02 -7.9700588274729776e-03 0
-6.3614343881525692e-01 5.7468239530736572e-03 0
8.7381027051618398e-01 2.2626906090375754e-01 0
2.5767732920472412e-02 -1.1041636714772432e-03 0
-4.3653069873265983e-02 -1.0594261067718767e-02 0
-1.7179234642417340e-01 5.7057155699093889e-03 0
2.9443110657249749e-01 7.3505554476741980e-02 0
-1.7178082807469683e-01 5.7053863856637499e-03 0
2.9452057641744012e-01 7.3531405240945091e-02 0
2.5639706765304381e-02 -1.2224166891934406e-03 0
-4.4365123598156982e-02 -1.0682940331591770e-02 0
-5.7209571968828254e-01 4.8567676268843861e-02 0
1.2345350181947385e+00 2.8762477244076690e-01 0
2.2993459776427982e-02 -3.7338361060548415e-03 0
-6.1515770901103814e-02 -1.2970654159937001e-02 0
-1.5283128596153689e-01 2.3141789119627821e-02 0
4.1500918530116654e-01 8.9905918246132671e-02 0
-1.5281289794072453e-01 2.3137997688548493e-02 0
4.1513258870265785e-01 8.9939912360986793e-02 0
2.2794865587735112e-02 -3.9230840305394758e-03 0
-6.2544299246257151e-02 -1.3042141649725463e-02 0
-4.9568242032828996e-01 1.1060647995344700e-01 0
1.7368012721344037e+00 3.5301846335406906e-01 0
1.7937322270523071e-02 -6.7797017868465514e-03 0
-8.7120080332713568e-02 -1.5851776166888584e-02 0
-1.1817655514051553e-01 4.2747310678230739e-02 0
5.8767777478919403e-01 1.1019132466318846e-01 0
-1.1815685051089343e-01 4.2744119710609145e-02 0
5.8783758982302559e-01 1.1023499070151251e-01 0
1.7675374902787221e-02 -7.2146767733980294e-03 0
-8.8609699973398667e-02 -1.5844898467293426e-02 0
-3.3282314963848297e-01 2.6907979615456901e-01 0
2.4699273111411344e+00 3.9663280830595232e-01 0
1.3052326837474501e-02 -1.7176293482263020e-02 0
-1.2280339431141576e-01 -1.6597076223216354e-02 0
-8.5255441816641755e-02 1.1145535457062962e-01 0
8.2719381290429561e-01 1.1657672351324641e-01 0
-8.5240621268890177e-02 1.1134450321150959e-01 0
8.2734780236312055e-01 1.1666615808502634e-01 0
1.2083413455340818e-02 -1.7890856176960145e-02 0
-1.2556242237851400e-01 -1.6600113321663810e-02 0
-1.8017812195855523e-01 3.5682509254745270e-01 0
3.5109451767751145e+00 5.2010883066961255e-01 0
-1.3249332391810245e-02 -1.9576794660568608e-02 0
-1.8745425635531621e-01 -2.3610732539310033e-02 0
8.9277704686848466e-02 1.1685345772788154e-01 0
1.2548299104418912e+00 1.6734700097335803e-01 0
8.9227520103621824e-02 1.1634416998300028e-01 0
1.2546915238972292e+00 1.6757931053352812e-01 0
-1.5664365152566955e-02 -2.3870037337498675e-02 0
-1.9413954123049151e-01 -2.1864902777502439e-02 0
1.0003949730892596e+00 1.2707362281233663e+00 0
5.7429819151185919e+00 3.4010270876096704e-01 0
-6.7305147011425107e-02 -1.0787301098300542e-01 0
-3.2844854368691123e-01 1.2538457373292206e-02 0
5.6593757293069302e-01 7.0076167916627574e-01 0
2.2733988887258714e+00 7.1801695429671956e-03 0
1.8040220803674323e-01 3.5511517886302207e-01 0
1.7343551293630499e+00 3.7051283318145859e-04 0
3.8225692349822040e+00 3.2383382309750499e+00 0
4.9602646862954627e+00 2.2300672349755757e-01 0
2.2522262440884500e-01 3.7416737761504065e-01 0
2.7944280815012070e+00 2.6482864085202236e+00 0
1.8856072374681454e+00 2.1945895363401364e+00 0
1.6999495257798616e+00 2.2581005891879085e+00 0
3.0608821420358221e+00 1.0666398705008384e+00 0
5.3449425484777890e-01 -1.8978554250606305e-01 0

