{
  "Finalized": "2019-11-13T19:41:16.831",
  "Initialized": "2019-11-13T19:36:59.872",
  "Name": "",
  "Ranks": [
    {
      "Finalized": "2019-11-13T19:41:16.831",
      "Initialized": "2019-11-13T19:36:59.872",
      "StateChanges": [
        {
          "Name": "_GLOBAL",
          "State": 1,
          "Timestamp": 0
        },
        {
          "Name": "_GLOBAL",
          "State": 0,
          "Timestamp": 256959
        },
        {
          "Name": "advance",
          "State": 1,
          "Timestamp": 12835
        },
        {
          "Name": "advance",
          "State": 0,
          "Timestamp": 16874
        },
        {
          "Name": "advance",
          "State": 1,
          "Timestamp": 25537
        },
        {
          "Name": "advance",
          "State": 0,
          "Timestamp": 29596
        },
        {
          "Name": "advance",
          "State": 1,
          "Timestamp": 38312
        },
        {
          "Name": "advance",
          "State": 0,
          "Timestamp": 42396
        },
        {
          "Name": "advance",
          "State": 1,
          "Timestamp": 51179
        },
        {
          "Name": "advance",
          "State": 0,
          "Timestamp": 55239
        },
        {
          "Name": "advance",
          "State": 1,
          "Timestamp": 64054
        },
        {
          "Name": "advance",
          "State": 0,
          "Timestamp": 68121
        },
        {
          "Name": "advance",
          "State": 1,
          "Timestamp": 76878
        },
        {
          "Name": "advance",
          "State": 0,
          "Timestamp": 80957
        },
        {
          "Name": "advance",
          "State": 1,
          "Timestamp": 89752
        },
        {
          "Name": "advance",
          "State": 0,
          "Timestamp": 93840
        },
        {
          "Name": "advance",
          "State": 1,
          "Timestamp": 102624
        },
        {
          "Name": "advance",
          "State": 0,
          "Timestamp": 106699
        },
        {
          "Name": "advance",
          "State": 1,
          "Timestamp": 115463
        },
        {
          "Name": "advance",
          "State": 0,
          "Timestamp": 119536
        },
        {
          "Name": "advance",
          "State": 1,
          "Timestamp": 128321
        },
        {
          "Name": "advance",
          "State": 0,
          "Timestamp": 132407
        },
        {
          "Name": "advance",
          "State": 1,
          "Timestamp": 141170
        },
        {
          "Name": "advance",
          "State": 0,
          "Timestamp": 145252
        },
        {
          "Name": "advance",
          "State": 1,
          "Timestamp": 153996
        },
        {
          "Name": "advance",
          "State": 0,
          "Timestamp": 158077
        },
        {
          "Name": "advance",
          "State": 1,
          "Timestamp": 166856
        },
        {
          "Name": "advance",
          "State": 0,
          "Timestamp": 170944
        },
        {
          "Name": "advance",
          "State": 1,
          "Timestamp": 179740
        },
        {
          "Name": "advance",
          "State": 0,
          "Timestamp": 183838
        },
        {
          "Name": "advance",
          "State": 1,
          "Timestamp": 192598
        },
        {
          "Name": "advance",
          "State": 0,
          "Timestamp": 196691
        },
        {
          "Name": "advance",
          "State": 1,
          "Timestamp": 205478
        },
        {
          "Name": "advance",
          "State": 0,
          "Timestamp": 209541
        },
        {
          "Name": "advance",
          "State": 1,
          "Timestamp": 218337
        },
        {
          "Name": "advance",
          "State": 0,
          "Timestamp": 222406
        },
        {
          "Name": "advance",
          "State": 1,
          "Timestamp": 231171
        },
        {
          "Name": "advance",
          "State": 0,
          "Timestamp": 235253
        },
        {
          "Name": "advance",
          "State": 1,
          "Timestamp": 244048
        },
        {
          "Name": "advance",
          "State": 0,
          "Timestamp": 248126
        },
        {
          "Name": "advance",
          "State": 1,
          "Timestamp": 256924
        },
        {
          "Name": "advance",
          "State": 0,
          "Timestamp": 256924
        },
        {
          "Name": "advance/cpl.computeQuasiNewtonUpdate",
          "State": 1,
          "Timestamp": 12835
        },
        {
          "Name": "advance/cpl.computeQuasiNewtonUpdate",
          "State": 0,
          "Timestamp": 12835
        },
        {
          "Name": "advance/cpl.computeQuasiNewtonUpdate",
          "State": 1,
          "Timestamp": 25537
        },
        {
          "Name": "advance/cpl.computeQuasiNewtonUpdate",
          "State": 0,
          "Timestamp": 25537
        },
        {
          "Name": "advance/cpl.computeQuasiNewtonUpdate",
          "State": 1,
          "Timestamp": 38312
        },
        {
          "Name": "advance/cpl.computeQuasiNewtonUpdate",
          "State": 0,
          "Timestamp": 38312
        },
        {
          "Name": "advance/cpl.computeQuasiNewtonUpdate",
          "State": 1,
          "Timestamp": 51179
        },
        {
          "Name": "advance/cpl.computeQuasiNewtonUpdate",
          "State": 0,
          "Timestamp": 51179
        },
        {
          "Name": "advance/cpl.computeQuasiNewtonUpdate",
          "State": 1,
          "Timestamp": 64054
        },
        {
          "Name": "advance/cpl.computeQuasiNewtonUpdate",
          "State": 0,
          "Timestamp": 64054
        },
        {
          "Name": "advance/cpl.computeQuasiNewtonUpdate",
          "State": 1,
          "Timestamp": 76878
        },
        {
          "Name": "advance/cpl.computeQuasiNewtonUpdate",
          "State": 0,
          "Timestamp": 76878
        },
        {
          "Name": "advance/cpl.computeQuasiNewtonUpdate",
          "State": 1,
          "Timestamp": 89752
        },
        {
          "Name": "advance/cpl.computeQuasiNewtonUpdate",
          "State": 0,
          "Timestamp": 89752
        },
        {
          "Name": "advance/cpl.computeQuasiNewtonUpdate",
          "State": 1,
          "Timestamp": 102624
        },
        {
          "Name": "advance/cpl.computeQuasiNewtonUpdate",
          "State": 0,
          "Timestamp": 102624
        },
        {
          "Name": "advance/cpl.computeQuasiNewtonUpdate",
          "State": 1,
          "Timestamp": 115463
        },
        {
          "Name": "advance/cpl.computeQuasiNewtonUpdate",
          "State": 0,
          "Timestamp": 115463
        },
        {
          "Name": "advance/cpl.computeQuasiNewtonUpdate",
          "State": 1,
          "Timestamp": 128322
        },
        {
          "Name": "advance/cpl.computeQuasiNewtonUpdate",
          "State": 0,
          "Timestamp": 128322
        },
        {
          "Name": "advance/cpl.computeQuasiNewtonUpdate",
          "State": 1,
          "Timestamp": 141170
        },
        {
          "Name": "advance/cpl.computeQuasiNewtonUpdate",
          "State": 0,
          "Timestamp": 141170
        },
        {
          "Name": "advance/cpl.computeQuasiNewtonUpdate",
          "State": 1,
          "Timestamp": 153996
        },
        {
          "Name": "advance/cpl.computeQuasiNewtonUpdate",
          "State": 0,
          "Timestamp": 153996
        },
        {
          "Name": "advance/cpl.computeQuasiNewtonUpdate",
          "State": 1,
          "Timestamp": 166856
        },
        {
          "Name": "advance/cpl.computeQuasiNewtonUpdate",
          "State": 0,
          "Timestamp": 166856
        },
        {
          "Name": "advance/cpl.computeQuasiNewtonUpdate",
          "State": 1,
          "Timestamp": 179740
        },
        {
          "Name": "advance/cpl.computeQuasiNewtonUpdate",
          "State": 0,
          "Timestamp": 179740
        },
        {
          "Name": "advance/cpl.computeQuasiNewtonUpdate",
          "State": 1,
          "Timestamp": 192598
        },
        {
          "Name": "advance/cpl.computeQuasiNewtonUpdate",
          "State": 0,
          "Timestamp": 192598
        },
        {
          "Name": "advance/cpl.computeQuasiNewtonUpdate",
          "State": 1,
          "Timestamp": 205478
        },
        {
          "Name": "advance/cpl.computeQuasiNewtonUpdate",
          "State": 0,
          "Timestamp": 205478
        },
        {
          "Name": "advance/cpl.computeQuasiNewtonUpdate",
          "State": 1,
          "Timestamp": 218337
        },
        {
          "Name": "advance/cpl.computeQuasiNewtonUpdate",
          "State": 0,
          "Timestamp": 218337
        },
        {
          "Name": "advance/cpl.computeQuasiNewtonUpdate",
          "State": 1,
          "Timestamp": 231171
        },
        {
          "Name": "advance/cpl.computeQuasiNewtonUpdate",
          "State": 0,
          "Timestamp": 231171
        },
        {
          "Name": "advance/cpl.computeQuasiNewtonUpdate",
          "State": 1,
          "Timestamp": 244048
        },
        {
          "Name": "advance/cpl.computeQuasiNewtonUpdate",
          "State": 0,
          "Timestamp": 244048
        },
        {
          "Name": "configure",
          "State": 1,
          "Timestamp": 0
        },
        {
          "Name": "configure",
          "State": 0,
          "Timestamp": 0
        },
        {
          "Name": "finalize",
          "State": 1,
          "Timestamp": 256955
        },
        {
          "Name": "finalize",
          "State": 0,
          "Timestamp": 256959
        },
        {
          "Name": "initialize",
          "State": 1,
          "Timestamp": 4
        },
        {
          "Name": "initialize",
          "State": 0,
          "Timestamp": 7
        },
        {
          "Name": "initialize/m2n.acceptMasterConnection",
          "State": 1,
          "Timestamp": 4
        },
        {
          "Name": "initialize/m2n.acceptMasterConnection",
          "State": 0,
          "Timestamp": 6
        },
        {
          "Name": "initialize/m2n.acceptSlavesConnection",
          "State": 1,
          "Timestamp": 6
        },
        {
          "Name": "initialize/m2n.acceptSlavesConnection",
          "State": 0,
          "Timestamp": 6
        },
        {
          "Name": "initialize/partition.feedbackMesh.NeumannNodes",
          "State": 1,
          "Timestamp": 6
        },
        {
          "Name": "initialize/partition.feedbackMesh.NeumannNodes",
          "State": 0,
          "Timestamp": 6
        },
        {
          "Name": "initialize/partition.gatherMesh.NeumannNodes",
          "State": 1,
          "Timestamp": 6
        },
        {
          "Name": "initialize/partition.gatherMesh.NeumannNodes",
          "State": 0,
          "Timestamp": 6
        },
        {
          "Name": "initialize/partition.sendGlobalMesh.NeumannNodes",
          "State": 1,
          "Timestamp": 6
        },
        {
          "Name": "initialize/partition.sendGlobalMesh.NeumannNodes",
          "State": 0,
          "Timestamp": 6
        },
        {
          "Name": "initializeData",
          "State": 1,
          "Timestamp": 17
        },
        {
          "Name": "initializeData",
          "State": 0,
          "Timestamp": 4161
        },
        {
          "Name": "solver.advance",
          "State": 1,
          "Timestamp": 16874
        },
        {
          "Name": "solver.advance",
          "State": 0,
          "Timestamp": 25537
        },
        {
          "Name": "solver.advance",
          "State": 1,
          "Timestamp": 29596
        },
        {
          "Name": "solver.advance",
          "State": 0,
          "Timestamp": 38312
        },
        {
          "Name": "solver.advance",
          "State": 1,
          "Timestamp": 42396
        },
        {
          "Name": "solver.advance",
          "State": 0,
          "Timestamp": 51179
        },
        {
          "Name": "solver.advance",
          "State": 1,
          "Timestamp": 55239
        },
        {
          "Name": "solver.advance",
          "State": 0,
          "Timestamp": 64054
        },
        {
          "Name": "solver.advance",
          "State": 1,
          "Timestamp": 68121
        },
        {
          "Name": "solver.advance",
          "State": 0,
          "Timestamp": 76878
        },
        {
          "Name": "solver.advance",
          "State": 1,
          "Timestamp": 80957
        },
        {
          "Name": "solver.advance",
          "State": 0,
          "Timestamp": 89752
        },
        {
          "Name": "solver.advance",
          "State": 1,
          "Timestamp": 93840
        },
        {
          "Name": "solver.advance",
          "State": 0,
          "Timestamp": 102624
        },
        {
          "Name": "solver.advance",
          "State": 1,
          "Timestamp": 106699
        },
        {
          "Name": "solver.advance",
          "State": 0,
          "Timestamp": 115463
        },
        {
          "Name": "solver.advance",
          "State": 1,
          "Timestamp": 119536
        },
        {
          "Name": "solver.advance",
          "State": 0,
          "Timestamp": 128321
        },
        {
          "Name": "solver.advance",
          "State": 1,
          "Timestamp": 132407
        },
        {
          "Name": "solver.advance",
          "State": 0,
          "Timestamp": 141170
        },
        {
          "Name": "solver.advance",
          "State": 1,
          "Timestamp": 145252
        },
        {
          "Name": "solver.advance",
          "State": 0,
          "Timestamp": 153996
        },
        {
          "Name": "solver.advance",
          "State": 1,
          "Timestamp": 158077
        },
        {
          "Name": "solver.advance",
          "State": 0,
          "Timestamp": 166856
        },
        {
          "Name": "solver.advance",
          "State": 1,
          "Timestamp": 170944
        },
        {
          "Name": "solver.advance",
          "State": 0,
          "Timestamp": 179740
        },
        {
          "Name": "solver.advance",
          "State": 1,
          "Timestamp": 183838
        },
        {
          "Name": "solver.advance",
          "State": 0,
          "Timestamp": 192598
        },
        {
          "Name": "solver.advance",
          "State": 1,
          "Timestamp": 196691
        },
        {
          "Name": "solver.advance",
          "State": 0,
          "Timestamp": 205478
        },
        {
          "Name": "solver.advance",
          "State": 1,
          "Timestamp": 209541
        },
        {
          "Name": "solver.advance",
          "State": 0,
          "Timestamp": 218337
        },
        {
          "Name": "solver.advance",
          "State": 1,
          "Timestamp": 222406
        },
        {
          "Name": "solver.advance",
          "State": 0,
          "Timestamp": 231171
        },
        {
          "Name": "solver.advance",
          "State": 1,
          "Timestamp": 235253
        },
        {
          "Name": "solver.advance",
          "State": 0,
          "Timestamp": 244048
        },
        {
          "Name": "solver.advance",
          "State": 1,
          "Timestamp": 248126
        },
        {
          "Name": "solver.advance",
          "State": 0,
          "Timestamp": 256924
        },
        {
          "Name": "solver.advance",
          "State": 1,
          "Timestamp": 256924
        },
        {
          "Name": "solver.advance",
          "State": 0,
          "Timestamp": 256955
        },
        {
          "Name": "solver.initialize",
          "State": 1,
          "Timestamp": 0
        },
        {
          "Name": "solver.initialize",
          "State": 2,
          "Timestamp": 4
        },
        {
          "Name": "solver.initialize",
          "State": 1,
          "Timestamp": 7
        },
        {
          "Name": "solver.initialize",
          "State": 2,
          "Timestamp": 17
        },
        {
          "Name": "solver.initialize",
          "State": 1,
          "Timestamp": 4161
        },
        {
          "Name": "solver.initialize",
          "State": 0,
          "Timestamp": 12835
        }
      ],
      "Timings": {
        "_GLOBAL": {
          "Count": 1,
          "Data": {},
          "Max": 256959,
          "Min": 256959,
          "TimeRatio": 1.0,
          "Total": 256959
        },
        "advance": {
          "Count": 20,
          "Data": {},
          "Max": 4098,
          "Min": 0,
          "TimeRatio": 0.30138271086048746,
          "Total": 77443
        },
        "advance/cpl.computeQuasiNewtonUpdate": {
          "Count": 19,
          "Data": {},
          "Max": 0,
          "Min": 0,
          "TimeRatio": 0.0,
          "Total": 0
        },
        "configure": {
          "Count": 1,
          "Data": {},
          "Max": 0,
          "Min": 0,
          "TimeRatio": 0.0,
          "Total": 0
        },
        "finalize": {
          "Count": 1,
          "Data": {},
          "Max": 3,
          "Min": 3,
          "TimeRatio": 1.167501430189252e-05,
          "Total": 3
        },
        "initialize": {
          "Count": 1,
          "Data": {},
          "Max": 2,
          "Min": 2,
          "TimeRatio": 7.783342867928346e-06,
          "Total": 2
        },
        "initialize/m2n.acceptMasterConnection": {
          "Count": 1,
          "Data": {},
          "Max": 2,
          "Min": 2,
          "TimeRatio": 7.783342867928346e-06,
          "Total": 2
        },
        "initialize/m2n.acceptSlavesConnection": {
          "Count": 1,
          "Data": {},
          "Max": 0,
          "Min": 0,
          "TimeRatio": 0.0,
          "Total": 0
        },
        "initialize/partition.feedbackMesh.NeumannNodes": {
          "Count": 1,
          "Data": {},
          "Max": 0,
          "Min": 0,
          "TimeRatio": 0.0,
          "Total": 0
        },
        "initialize/partition.gatherMesh.NeumannNodes": {
          "Count": 1,
          "Data": {},
          "Max": 0,
          "Min": 0,
          "TimeRatio": 0.0,
          "Total": 0
        },
        "initialize/partition.sendGlobalMesh.NeumannNodes": {
          "Count": 1,
          "Data": {},
          "Max": 0,
          "Min": 0,
          "TimeRatio": 0.0,
          "Total": 0
        },
        "initializeData": {
          "Count": 1,
          "Data": {},
          "Max": 4143,
          "Min": 4143,
          "TimeRatio": 0.01612319475091357,
          "Total": 4143
        },
        "solver.advance": {
          "Count": 20,
          "Data": {},
          "Max": 8814,
          "Min": 30,
          "TimeRatio": 0.6486482279274125,
          "Total": 166676
        },
        "solver.initialize": {
          "Count": 1,
          "Data": {},
          "Max": 8689,
          "Min": 8689,
          "TimeRatio": 0.0338147330897147,
          "Total": 8689
        }
      }
    }
  ]
}
