Timestep  Iteration  resNorm(0)  resNorm(1)  resNorm(2)  resNorm(3)  resNorm(4)  resNorm(5)  resNorm(6)  resNorm(7)  
1  1  0.0039961596212579  0.0065417556714192  0.0102727903237150  0.0129393225901334  0.0166426843475844  1.0000000000000000  1.0000000000000000  1.0000000000000000  
1  2  0.0035828024034034  0.0065775213056862  0.0102532848905231  0.0128158714874400  0.0167857908871072  0.1837786522164284  0.2371681516476310  0.3276617234134119  
1  3  0.0005595709954306  0.0000733932805870  0.0002054834809358  0.0001717802343823  0.0001558044340573  0.0936869512414248  0.1141631688865141  0.1627565173301068  
1  4  0.0000182814919176  0.0001329550308096  0.0000761012163168  0.0000780288337703  0.0001176884484107  0.0048678608339298  0.0038543265966310  0.0056368327014007  
1  5  0.0000251571184991  0.0000457577209151  0.0000422861513062  0.0000481680503675  0.0000772444438311  0.0023926007468492  0.0021763352784210  0.0037281304385992  
1  6  0.0000028568781100  0.0000057088522260  0.0000047089328215  0.0000072056698750  0.0000092617399169  0.0006991680577603  0.0007822896517870  0.0015228480175210  
1  7  0.0000002172125569  0.0000004455003207  0.0000005344039007  0.0000008017567905  0.0000010719751322  0.0001017118410620  0.0001514763934124  0.0002308015052052  
1  8  0.0000000189850492  0.0000000434290214  0.0000000640467797  0.0000000902231322  0.0000001220841162  0.0000097020044009  0.0000172650080008  0.0000283789277281  
1  9  0.0000000026236040  0.0000000060188581  0.0000000090693710  0.0000000127127662  0.0000000175808713  0.0000010913320360  0.0000020566839226  0.0000034323820618  
1  10  0.0000000004091685  0.0000000009254061  0.0000000013107901  0.0000000018689023  0.0000000025184195  0.0000001549039930  0.0000002896580590  0.0000004944227767  
1  11  0.0000000000598758  0.0000000001329851  0.0000000001898563  0.0000000002713613  0.0000000003663028  0.0000000232210517  0.0000000427000983  0.0000000725550222  
1  12  0.0000000000094252  0.0000000000200325  0.0000000000278824  0.0000000000398321  0.0000000000540067  0.0000000033829861  0.0000000062103350  0.0000000105386033  
1  13  0.0000000000015746  0.0000000000031539  0.0000000000041854  0.0000000000059636  0.0000000000080658  0.0000000005212842  0.0000000009124478  0.0000000015561400  
1  14  0.0000000000008615  0.0000000000018353  0.0000000000025425  0.0000000000036192  0.0000000000048868  0.0000000001290249  0.0000000002064602  0.0000000003483927  
1  15  0.0000000000001375  0.0000000000002803  0.0000000000003790  0.0000000000005415  0.0000000000007285  0.0000000000470667  0.0000000000829404  0.0000000001404802  
1  16  0.0000000000000230  0.0000000000000432  0.0000000000000561  0.0000000000000799  0.0000000000001072  0.0000000000074903  0.0000000000126450  0.0000000000213738  
1  17  0.0000000000000044  0.0000000000000082  0.0000000000000098  0.0000000000000137  0.0000000000000186  0.0000000000011501  0.0000000000018648  0.0000000000030742  
1  18  0.0000000000000007  0.0000000000000012  0.0000000000000012  0.0000000000000019  0.0000000000000026  0.0000000000002231  0.0000000000003400  0.0000000000005795  
2  1  0.0119628624870420  0.0166103784381710  0.0165704461705930  0.0155761137778707  0.0165399064100756  0.4647370353131249  0.2159170246267626  0.2694676261248271  
2  2  0.0006317705008199  0.0026644297712917  0.0017522082745241  0.0025545451167697  0.0042155236835076  0.3512215747031789  0.1961542976080790  0.2192051181767296  
2  3  0.0007041979666426  0.0014791495587082  0.0014906537502629  0.0024635744824373  0.0040070292404365  0.0687379565702032  0.0877469295317729  0.1473145061793565  
2  4  0.0000506134755218  0.0001061650163785  0.0001253408139998  0.0001720141606570  0.0002468278356966  0.0272988723661532  0.0396179680857026  0.0729141452158140  
2  5  0.0000195669745756  0.0000427532821913  0.0000521946265537  0.0000699933949031  0.0000958751957898  0.0036145964183352  0.0049563342548425  0.0088632140405066  
2  6  0.0000037905124323  0.0000081939279828  0.0000103822765114  0.0000144126250435  0.0000189612905393  0.0010343930380137  0.0014482580741406  0.0025449429177354  
2  7  0.0000004141341011  0.0000009263016772  0.0000014051657700  0.0000020447228129  0.0000026639079960  0.0001996480231000  0.0003202247790075  0.0005276951253088  
2  8  0.0000000630709964  0.0000001359362454  0.0000001902336114  0.0000002706828215  0.0000003614521838  0.0000237734512624  0.0000451338520762  0.0000736872051464  
2  9  0.0000000114754638  0.0000000238738735  0.0000000301117735  0.0000000418613374  0.0000000573385766  0.0000034325838569  0.0000061734160627  0.0000102882775658  
2  10  0.0000000023956601  0.0000000054572454  0.0000000072070373  0.0000000098017034  0.0000000131957244  0.0000006350174853  0.0000009713655877  0.0000016979958226  
2  11  0.0000000006336612  0.0000000013121513  0.0000000016438274  0.0000000023431751  0.0000000032815686  0.0000001344951664  0.0000002208193700  0.0000003761590819  
2  12  0.0000000001385406  0.0000000002531986  0.0000000002730489  0.0000000003901962  0.0000000005639457  0.0000000328716340  0.0000000520177933  0.0000000921909700  
2  13  0.0000000000249841  0.0000000000427353  0.0000000000443077  0.0000000000620197  0.0000000000882607  0.0000000068639298  0.0000000089079534  0.0000000164886813  
2  14  0.0000000000038079  0.0000000000068256  0.0000000000090040  0.0000000000125374  0.0000000000161889  0.0000000012342940  0.0000000014395128  0.0000000025962763  
2  15  0.0000000000005104  0.0000000000009796  0.0000000000015445  0.0000000000021653  0.0000000000026815  0.0000000002040511  0.0000000003087041  0.0000000004912050  
2  16  0.0000000000000937  0.0000000000001911  0.0000000000002992  0.0000000000004229  0.0000000000005361  0.0000000000260657  0.0000000000517474  0.0000000000746125  
2  17  0.0000000000000128  0.0000000000000238  0.0000000000000402  0.0000000000000566  0.0000000000000677  0.0000000000051731  0.0000000000103140  0.0000000000155380  
2  18  0.0000000000000028  0.0000000000000058  0.0000000000000088  0.0000000000000122  0.0000000000000156  0.0000000000006373  0.0000000000013534  0.0000000000018372  
2  19  0.0000000000000005  0.0000000000000008  0.0000000000000008  0.0000000000000010  0.0000000000000022  0.0000000000001535  0.0000000000002970  0.0000000000004146  
3  1  0.0118656174381630  0.0164760604822230  0.0164366413304131  0.0154504218591047  0.0164067401833860  0.4567538749597777  0.2131062934307072  0.2656727500694330  
3  2  0.0000000000000010  0.0000000000000019  0.0000000000000015  0.0000000000000012  0.0000000000000016  0.3301841144459445  0.2004429390314237  0.2322289542488833  
3  3  0.0000000000000008  0.0000000000000018  0.0000000000000015  0.0000000000000008  0.0000000000000016  0.0000000000000732  0.0000000000000458  0.0000000000000802  
4  1  0.0117698694458388  0.0163438010375467  0.0163048846237210  0.0153266527396255  0.0162756070584977  0.4490369672947858  0.2103665108264079  0.2619814869775982  
4  2  0.0000000000000006  0.0000000000000013  0.0000000000000013  0.0000000000000020  0.0000000000000034  0.3262219050725861  0.1980472066924103  0.2294643238411329  
4  3  0.0000000000000005  0.0000000000000010  0.0000000000000011  0.0000000000000019  0.0000000000000035  0.0000000000000469  0.0000000000000601  0.0000000000001450  
5  1  0.0116755859651435  0.0162135555119752  0.0161751317267332  0.0152047648293719  0.0161464631307398  0.4415733759845968  0.2076950727179736  0.2583897233149738  
5  2  0.0000000000000008  0.0000000000000019  0.0000000000000016  0.0000000000000014  0.0000000000000023  0.3223536611389064  0.1957080664558796  0.2267647435606668  
5  3  0.0000000000000006  0.0000000000000012  0.0000000000000013  0.0000000000000013  0.0000000000000021  0.0000000000000544  0.0000000000000610  0.0000000000001109  
6  1  0.0115827353284964  0.0160852805128580  0.0160473395072250  0.0150847176559144  0.0160192656739762  0.4343509787205841  0.2050894984583009  0.2548935565146583  
6  2  0.0000000000000008  0.0000000000000018  0.0000000000000013  0.0000000000000020  0.0000000000000036  0.3185760791724498  0.1934235364972506  0.2241279442169187  
6  3  0.0000000000000008  0.0000000000000015  0.0000000000000011  0.0000000000000019  0.0000000000000036  0.0000000000000627  0.0000000000000608  0.0000000000001455  
7  1  0.0114912867188267  0.0159589338103964  0.0159214659881057  0.0149664718302983  0.0158939731046171  0.4273584050366898  0.2025474237723706  0.2514892818907069  
7  2  0.0000000000000009  0.0000000000000019  0.0000000000000017  0.0000000000000014  0.0000000000000022  0.3148860087572950  0.1911917264607372  0.2215517609500668  
7  3  0.0000000000000006  0.0000000000000015  0.0000000000000015  0.0000000000000014  0.0000000000000024  0.0000000000000543  0.0000000000000587  0.0000000000000905  
8  1  0.0114012101436296  0.0158344743021418  0.0157974703121441  0.0148499890139599  0.0157705449467156  0.4205849796573957  0.2000665941523511  0.2481733804894517  
8  2  0.0000000000000009  0.0000000000000019  0.0000000000000013  0.0000000000000025  0.0000000000000048  0.3112804437715448  0.1890108322425586  0.2190341273029187  
8  3  0.0000000000000007  0.0000000000000015  0.0000000000000013  0.0000000000000025  0.0000000000000046  0.0000000000000603  0.0000000000000633  0.0000000000001804  
9  1  0.0113124764097906  0.0157118619785921  0.0156753127078125  0.0147352318866993  0.0156489417982269  0.4140206708239985  0.1976448586853980  0.2449425078082789  
9  2  0.0000000000000008  0.0000000000000015  0.0000000000000012  0.0000000000000018  0.0000000000000032  0.3077565142193980  0.1868791311270375  0.2165730696927399  
9  3  0.0000000000000005  0.0000000000000012  0.0000000000000014  0.0000000000000019  0.0000000000000032  0.0000000000000495  0.0000000000000553  0.0000000000001329  
10  1  0.0112250570992526  0.0155910578899181  0.0155549544562180  0.0146221641156704  0.0155291252982922  0.4076560431005580  0.1952801642854945  0.2417934833084956  
10  2  0.0000000000000008  0.0000000000000015  0.0000000000000017  0.0000000000000030  0.0000000000000051  0.3043114786124781  0.1847949772483018  0.2141667022517268  
10  3  0.0000000000000007  0.0000000000000013  0.0000000000000016  0.0000000000000028  0.0000000000000049  0.0000000000000452  0.0000000000000710  0.0000000000001750  
11  1  0.0111389245454179  0.0154720241137183  0.0154363578590949  0.0145107503253602  0.0154110580956261  0.4014822142222474  0.1929705502969189  0.2387232806619722  
11  2  0.0000000000000005  0.0000000000000013  0.0000000000000015  0.0000000000000022  0.0000000000000038  0.3009427168566082  0.1827567973521772  0.2118132220071910  
11  3  0.0000000000000005  0.0000000000000012  0.0000000000000015  0.0000000000000022  0.0000000000000036  0.0000000000000454  0.0000000000000598  0.0000000000001331  
12  1  0.0110540518103406  0.0153547237238376  0.0153194862078221  0.0144009560685398  0.0152947038178601  0.3954908155901085  0.1907141434449169  0.2357290186717341  
12  2  0.0000000000000007  0.0000000000000012  0.0000000000000018  0.0000000000000032  0.0000000000000058  0.2976477236063660  0.1807630868356206  0.2095109043767113  
12  3  0.0000000000000004  0.0000000000000010  0.0000000000000018  0.0000000000000034  0.0000000000000054  0.0000000000000357  0.0000000000000939  0.0000000000002100  
13  1  0.0109704126626084  0.0152391207601648  0.0152043037534395  0.0142927477981428  0.0151800270419415  0.3896739560661066  0.1885091531059437  0.2328079528155809  
13  2  0.0000000000000009  0.0000000000000019  0.0000000000000023  0.0000000000000030  0.0000000000000049  0.2944241020510313  0.1788124060424114  0.2072580989532600  
13  3  0.0000000000000007  0.0000000000000016  0.0000000000000021  0.0000000000000032  0.0000000000000049  0.0000000000000563  0.0000000000000781  0.0000000000001458  
14  1  0.0108879815559876  0.0151251801994318  0.0150907756776330  0.0141860928400601  0.0150669932654195  0.3840241887515760  0.1863538668769123  0.2299574673632264  
14  2  0.0000000000000010  0.0000000000000018  0.0000000000000015  0.0000000000000028  0.0000000000000046  0.2912695581005205  0.1769033767964190  0.2050532255601827  
14  3  0.0000000000000006  0.0000000000000013  0.0000000000000014  0.0000000000000027  0.0000000000000041  0.0000000000000541  0.0000000000000809  0.0000000000001682  
15  1  0.0108067336086963  0.0150128679269251  0.0149788680646611  0.0140809593668130  0.0149555688787313  0.3785344804728135  0.1842466464203818  0.2271750680235817  
15  2  0.0000000000000010  0.0000000000000023  0.0000000000000024  0.0000000000000036  0.0000000000000055  0.2881818949403964  0.1750346791541946  0.2028947705542451  
15  3  0.0000000000000008  0.0000000000000018  0.0000000000000025  0.0000000000000034  0.0000000000000053  0.0000000000000658  0.0000000000000793  0.0000000000001594  
16  1  0.0107266445834164  0.0149021507091527  0.0148685478741905  0.0139773163720744  0.0148457211383251  0.3731981837205442  0.1821859235673706  0.2244583750820799  
16  2  0.0000000000000009  0.0000000000000015  0.0000000000000012  0.0000000000000021  0.0000000000000032  0.2851590079305742  0.1732050483616631  0.2007812833609884  
16  3  0.0000000000000006  0.0000000000000011  0.0000000000000012  0.0000000000000017  0.0000000000000034  0.0000000000000506  0.0000000000000627  0.0000000000001289  
17  1  0.0106476908678785  0.0147929961673561  0.0147597829150076  0.0138751336460276  0.0147374181407095  0.3680090108198357  0.1801701966591522  0.2218051169901522  
17  2  0.0000000000000009  0.0000000000000017  0.0000000000000026  0.0000000000000036  0.0000000000000051  0.2821988798205445  0.1714132719992821  0.1987113732232492  
17  3  0.0000000000000007  0.0000000000000015  0.0000000000000023  0.0000000000000036  0.0000000000000048  0.0000000000000544  0.0000000000000855  0.0000000000001357  
18  1  0.0105698494561536  0.0146853727519268  0.0146525418196035  0.0137743817515219  0.0146306287973000  0.3629610101283821  0.1781980271117923  0.2192131243741599  
18  2  0.0000000000000010  0.0000000000000018  0.0000000000000018  0.0000000000000023  0.0000000000000034  0.2792995762607582  0.1696581873030496  0.1966837061495250  
18  3  0.0000000000000008  0.0000000000000016  0.0000000000000017  0.0000000000000021  0.0000000000000032  0.0000000000000548  0.0000000000000704  0.0000000000001436  
19  1  0.0104930979304771  0.0145792497176157  0.0145467940195614  0.0136750320009995  0.0145253228101347  0.3580485440815624  0.1762680361877509  0.2166803244321555  
19  2  0.0000000000000008  0.0000000000000013  0.0000000000000014  0.0000000000000030  0.0000000000000050  0.2764592415869023  0.1679386786479441  0.1946970020470482  
19  3  0.0000000000000005  0.0000000000000010  0.0000000000000013  0.0000000000000027  0.0000000000000049  0.0000000000000403  0.0000000000000644  0.0000000000001688  
20  1  0.0104174144437340  0.0144745970995827  0.0144425097217685  0.0135770564341849  0.0144214706483228  0.3532662689204165  0.1743789019607043  0.2142047356893823  
20  2  0.0000000000000010  0.0000000000000020  0.0000000000000018  0.0000000000000025  0.0000000000000040  0.2736760948595371  0.1662536751832494  0.1927500320265331  
20  3  0.0000000000000009  0.0000000000000020  0.0000000000000018  0.0000000000000023  0.0000000000000038  0.0000000000000634  0.0000000000000611  0.0000000000001609  
21  1  0.0103427777024500  0.0143713856901962  0.0143396598853856  0.0134804277964879  0.0143190435253300  0.3486091159567134  0.1725293564602782  0.2117844630882464  
21  2  0.0000000000000008  0.0000000000000013  0.0000000000000014  0.0000000000000032  0.0000000000000052  0.2709484261399805  0.1646021486085889  0.1908416158678868  
21  3  0.0000000000000005  0.0000000000000010  0.0000000000000013  0.0000000000000030  0.0000000000000050  0.0000000000000416  0.0000000000000706  0.0000000000001755  
22  1  0.0102691669503964  0.0142695870166207  0.0142382161995772  0.0133851195181214  0.0142180133769164  0.3440722742401999  0.1707181829846309  0.2094176933858106  
22  2  0.0000000000000011  0.0000000000000020  0.0000000000000023  0.0000000000000030  0.0000000000000048  0.2682745929873068  0.1629831110812806  0.1889706196338735  
22  3  0.0000000000000010  0.0000000000000022  0.0000000000000020  0.0000000000000026  0.0000000000000039  0.0000000000000686  0.0000000000000745  0.0000000000001519  
23  1  0.0101965619526628  0.0141691733190965  0.0141381510619626  0.0132911056938941  0.0141183528399029  0.3396511745103766  0.1689442135697750  0.2071026908400141  
23  2  0.0000000000000007  0.0000000000000016  0.0000000000000015  0.0000000000000033  0.0000000000000052  0.2656530171600398  0.1613956132460762  0.1871359534238326  
23  3  0.0000000000000006  0.0000000000000014  0.0000000000000018  0.0000000000000031  0.0000000000000050  0.0000000000000493  0.0000000000000758  0.0000000000001555  
24  1  0.0101249429803283  0.0140701175299691  0.0140394375577716  0.0131983610636558  0.0140200352314982  0.3353414743218061  0.1672063266051435  0.2048377931609149  
24  2  0.0000000000000008  0.0000000000000019  0.0000000000000014  0.0000000000000022  0.0000000000000036  0.2630821815101297  0.1598387423787654  0.1853365692562832  
24  3  0.0000000000000007  0.0000000000000015  0.0000000000000012  0.0000000000000019  0.0000000000000032  0.0000000000000562  0.0000000000000703  0.0000000000001168  
25  1  0.0100542907955307  0.0139723932533554  0.0139420494396673  0.0131068609933899  0.0139230345294386  0.3311390442473783  0.1655034445856175  0.2026214077115482  
25  2  0.0000000000000006  0.0000000000000015  0.0000000000000020  0.0000000000000038  0.0000000000000052  0.2605606270547577  0.1583116206362632  0.1835714590729243  
25  3  0.0000000000000005  0.0000000000000012  0.0000000000000018  0.0000000000000032  0.0000000000000048  0.0000000000000501  0.0000000000000738  0.0000000000001375  
26  1  0.0099845866371379  0.0138759747455125  0.0138459611082495  0.0130165814569136  0.0138273253526353  0.3270399550669291  0.1638345319919792  0.2004520079373180  
26  2  0.0000000000000007  0.0000000000000011  0.0000000000000013  0.0000000000000019  0.0000000000000029  0.2580869502156293  0.1568134034063006  0.1818396528552071  
26  3  0.0000000000000005  0.0000000000000012  0.0000000000000010  0.0000000000000015  0.0000000000000027  0.0000000000000429  0.0000000000000621  0.0000000000001049  
27  1  0.0099158122067611  0.0137808368958120  0.0137511475931555  0.0129274990181681  0.0137328829425761  0.3230404658654220  0.1621985932896890  0.1983281300125657  
27  2  0.0000000000000006  0.0000000000000014  0.0000000000000022  0.0000000000000037  0.0000000000000058  0.2556598002135912  0.1553432777493440  0.1801402168472667  
27  3  0.0000000000000007  0.0000000000000013  0.0000000000000021  0.0000000000000035  0.0000000000000052  0.0000000000000520  0.0000000000000912  0.0000000000001558  
28  1  0.0098479496553394  0.0136869552083525  0.0136575845348097  0.0128395908140944  0.0136396831452166  0.3191370129608153  0.1605946710409704  0.1962483696842419  
28  2  0.0000000000000009  0.0000000000000019  0.0000000000000015  0.0000000000000018  0.0000000000000038  0.2532778766091385  0.1539004609281448  0.1784722518764053  
28  3  0.0000000000000007  0.0000000000000015  0.0000000000000014  0.0000000000000020  0.0000000000000038  0.0000000000000563  0.0000000000000467  0.0000000000001316  
29  1  0.0097809815700518  0.0135943057841515  0.0135652481667344  0.0127528345380510  0.0135477023935600  0.3153261996018768  0.1590218441200612  0.1942113793049522  
29  2  0.0000000000000010  0.0000000000000016  0.0000000000000017  0.0000000000000027  0.0000000000000046  0.2509399269788766  0.1524841990177608  0.1768348917674971  
29  3  0.0000000000000007  0.0000000000000013  0.0000000000000015  0.0000000000000026  0.0000000000000046  0.0000000000000546  0.0000000000000706  0.0000000000001598  
30  1  0.0097148909617544  0.0135028653039298  0.0134741152984594  0.0126672084237760  0.0134569176907050  0.3116047863685901  0.1574792260279231  0.1922158650366723  
30  2  0.0000000000000009  0.0000000000000019  0.0000000000000023  0.0000000000000029  0.0000000000000038  0.2486447447199345  0.1510937655920883  0.1752273018422787  
30  3  0.0000000000000008  0.0000000000000016  0.0000000000000020  0.0000000000000024  0.0000000000000036  0.0000000000000566  0.0000000000000734  0.0000000000001396  
31  1  0.0096496612527182  0.0134126110114356  0.0133841632989528  0.0125826912298654  0.0133673065935313  0.3079696822258083  0.1559659632977665  0.1902605842199626  
31  2  0.0000000000000006  0.0000000000000010  0.0000000000000014  0.0000000000000033  0.0000000000000063  0.2463911669732150  0.1497284604812997  0.1736486775014311  
31  3  0.0000000000000006  0.0000000000000011  0.0000000000000017  0.0000000000000031  0.0000000000000058  0.0000000000000391  0.0000000000000656  0.0000000000001933  
32  1  0.0095852762648719  0.0133235206973172  0.0132953700806214  0.0124992622247476  0.0132788471968185  0.3044179361738094  0.1544812339877287  0.1883443428909323  
32  2  0.0000000000000011  0.0000000000000018  0.0000000000000015  0.0000000000000021  0.0000000000000040  0.2441780726590937  0.1483876085963945  0.1720982428808000  
32  3  0.0000000000000007  0.0000000000000016  0.0000000000000012  0.0000000000000018  0.0000000000000038  0.0000000000000580  0.0000000000000395  0.0000000000001371  
33  1  0.0095217202083135  0.0132355726835071  0.0132077140837865  0.0124169011721449  0.0131915181179733  0.3009467294556137  0.1530242462535405  0.1864659934437397  
33  2  0.0000000000000006  0.0000000000000013  0.0000000000000012  0.0000000000000032  0.0000000000000059  0.2420043806176143  0.1470705588159513  0.1705752495810497  
33  3  0.0000000000000006  0.0000000000000012  0.0000000000000013  0.0000000000000028  0.0000000000000058  0.0000000000000438  0.0000000000000565  0.0000000000001882  
34  1  0.0094589776703003  0.0131487458081151  0.0131211742616985  0.0123355883170009  0.0131052984821423  0.2975533682730230  0.1515942369980915  0.1846244324210656  
34  2  0.0000000000000012  0.0000000000000027  0.0000000000000024  0.0000000000000024  0.0000000000000051  0.2398690478474649  0.1457766829319531  0.1690789754618476  
34  3  0.0000000000000011  0.0000000000000025  0.0000000000000027  0.0000000000000030  0.0000000000000048  0.0000000000000830  0.0000000000000585  0.0000000000001679  
35  1  0.0093970336044808  0.0130630194107985  0.0130357300659927  0.0122553043718559  0.0130201679079058  0.2942352769788780  0.1501904705912578  0.1828185984325691  
35  2  0.0000000000000008  0.0000000000000011  0.0000000000000017  0.0000000000000031  0.0000000000000060  0.2377710678371380  0.1445053746505450  0.1676087235013780  
35  3  0.0000000000000004  0.0000000000000009  0.0000000000000014  0.0000000000000032  0.0000000000000059  0.0000000000000364  0.0000000000000748  0.0000000000001747  
36  1  0.0093358733205800  0.0129783733186011  0.0129513614326433  0.0121760305036616  0.0129361064933279  0.2909899917038593  0.1488122376579438  0.1810474701850772  
36  2  0.0000000000000012  0.0000000000000023  0.0000000000000020  0.0000000000000032  0.0000000000000052  0.2357094689830611  0.1432560486449400  0.1661638207124876  
36  3  0.0000000000000008  0.0000000000000021  0.0000000000000020  0.0000000000000026  0.0000000000000051  0.0000000000000658  0.0000000000000717  0.0000000000001807  
37  1  0.0092754824743139  0.0128947878322504  0.0128680487683369  0.0120977483210109  0.0128530948025517  0.2878151543924519  0.1474588539278216  0.1793100646251020  
37  2  0.0000000000000007  0.0000000000000014  0.0000000000000025  0.0000000000000040  0.0000000000000062  0.2336833130892123  0.1420281396565575  0.1647436171167490  
37  3  0.0000000000000006  0.0000000000000013  0.0000000000000024  0.0000000000000040  0.0000000000000062  0.0000000000000499  0.0000000000000943  0.0000000000001714  
38  1  0.0092158470577204  0.0128122437128799  0.0127857729373068  0.0120204398617810  0.0127711138527112  0.2847085072111242  0.1461296591455738  0.1776054351788068  
38  2  0.0000000000000013  0.0000000000000023  0.0000000000000023  0.0000000000000037  0.0000000000000052  0.2316916939435895  0.1408211016424599  0.1633474847682189  
38  3  0.0000000000000009  0.0000000000000020  0.0000000000000023  0.0000000000000031  0.0000000000000047  0.0000000000000658  0.0000000000000929  0.0000000000001606  
39  1  0.0091569533896943  0.0127307221691822  0.0127045152485557  0.0119440875811608  0.0126901451013773  0.2816678873090273  0.1448240160359821  0.1759326700916911  
39  2  0.0000000000000008  0.0000000000000015  0.0000000000000018  0.0000000000000039  0.0000000000000067  0.2297337359665653  0.1396344069657226  0.1619748168290530  
39  3  0.0000000000000006  0.0000000000000013  0.0000000000000019  0.0000000000000037  0.0000000000000064  0.0000000000000469  0.0000000000000925  0.0000000000001949  
40  1  0.0090987881069393  0.0126502048449638  0.0126242574435099  0.0118686743400591  0.0126101704342770  0.2786912218988266  0.1435413093219704  0.1742908908530510  
40  2  0.0000000000000010  0.0000000000000021  0.0000000000000019  0.0000000000000031  0.0000000000000046  0.2278085929277732  0.1384675456261443  0.1606250266887834  
40  3  0.0000000000000008  0.0000000000000018  0.0000000000000017  0.0000000000000027  0.0000000000000043  0.0000000000000610  0.0000000000000740  0.0000000000001429  
41  1  0.0090413381550834  0.0125706738070923  0.0125449816840439  0.0117941833938856  0.0125311721535161  0.2757765236416332  0.1422809447920573  0.1726792507084274  
41  2  0.0000000000000006  0.0000000000000012  0.0000000000000023  0.0000000000000042  0.0000000000000065  0.2259154467261319  0.1373200245298244  0.1592975471293701  
41  3  0.0000000000000005  0.0000000000000012  0.0000000000000021  0.0000000000000039  0.0000000000000063  0.0000000000000431  0.0000000000000929  0.0000000000001739  
42  1  0.0089845907801865  0.0124921115338309  0.0124666705408941  0.0117205983816732  0.0124531329660796  0.2729218863089700  0.1410423484142967  0.1710969332473931  
42  2  0.0000000000000012  0.0000000000000022  0.0000000000000021  0.0000000000000031  0.0000000000000045  0.2240535062311320  0.1361913667939475  0.1579918295299615  
42  3  0.0000000000000009  0.0000000000000017  0.0000000000000020  0.0000000000000028  0.0000000000000046  0.0000000000000597  0.0000000000000834  0.0000000000001614  
43  1  0.0089285335204287  0.0124145009035263  0.0123893069824251  0.0116479033155492  0.0123760359727507  0.2701254807067547  0.1398249654941768  0.1695431510675342  
43  2  0.0000000000000012  0.0000000000000018  0.0000000000000017  0.0000000000000033  0.0000000000000060  0.2222220061802076  0.1350811110863972  0.1567073431110108  
43  3  0.0000000000000007  0.0000000000000015  0.0000000000000017  0.0000000000000032  0.0000000000000057  0.0000000000000556  0.0000000000000801  0.0000000000001752  
44  1  0.0088731541981158  0.0123378251836597  0.0123128743637593  0.0115760825705358  0.0122998646573479  0.2673855508401748  0.1386282598740425  0.1680171445066760  
44  2  0.0000000000000014  0.0000000000000022  0.0000000000000021  0.0000000000000035  0.0000000000000056  0.2204202061300959  0.1339888109967362  0.1554435742149588  
44  3  0.0000000000000008  0.0000000000000016  0.0000000000000019  0.0000000000000033  0.0000000000000055  0.0000000000000603  0.0000000000001028  0.0000000000001771  
45  1  0.0088184409118994  0.0122620680202417  0.0122373564162380  0.0115051208746673  0.0122246028763091  0.2647004103056579  0.1374517131716103  0.1665181804412178  
45  2  0.0000000000000010  0.0000000000000016  0.0000000000000026  0.0000000000000042  0.0000000000000064  0.2186473894588052  0.1329140344379575  0.1542000256212211  
45  3  0.0000000000000007  0.0000000000000015  0.0000000000000024  0.0000000000000041  0.0000000000000059  0.0000000000000537  0.0000000000001061  0.0000000000001782  
46  1  0.0087643820292626  0.0121872134275267  0.0121627372372089  0.0114350032994101  0.0121502348485988  0.2620684388918491  0.1362948240551889  0.1650455511453326  
46  2  0.0000000000000017  0.0000000000000028  0.0000000000000026  0.0000000000000030  0.0000000000000055  0.2169028624152430  0.1318563630763686  0.1529762158941064  
46  3  0.0000000000000012  0.0000000000000024  0.0000000000000025  0.0000000000000031  0.0000000000000057  0.0000000000000840  0.0000000000000870  0.0000000000001759  
47  1  0.0087109661792287  0.0121132457780613  0.0120890012801425  0.0113657152503907  0.0120767451459146  0.2594880793780718  0.1351571075541190  0.1635985732084316  
47  2  0.0000000000000009  0.0000000000000014  0.0000000000000019  0.0000000000000037  0.0000000000000064  0.2151859532140783  0.1308153917889263  0.1517716787610324  
47  3  0.0000000000000006  0.0000000000000011  0.0000000000000018  0.0000000000000033  0.0000000000000060  0.0000000000000466  0.0000000000000834  0.0000000000001884  
48  1  0.0086581822452896  0.0120401497930213  0.0120161333450333  0.0112972424583980  0.0120041186832263  0.2569578345153440  0.1340380944018368  0.1621765865072586  
48  2  0.0000000000000014  0.0000000000000025  0.0000000000000024  0.0000000000000040  0.0000000000000067  0.2134960111731364  0.1297907281456647  0.1505859625207688  
48  3  0.0000000000000009  0.0000000000000019  0.0000000000000021  0.0000000000000037  0.0000000000000065  0.0000000000000728  0.0000000000000884  0.0000000000001978  
49  1  0.0086060193585781  0.0119679105328696  0.0119441185691234  0.0112295709706739  0.0119323407095610  0.2544762641788529  0.1329373304101748  0.1607789532285551  
49  2  0.0000000000000010  0.0000000000000015  0.0000000000000022  0.0000000000000034  0.0000000000000056  0.2118324058912680  0.1287819919165622  0.1494186294779049  
49  3  0.0000000000000006  0.0000000000000011  0.0000000000000019  0.0000000000000030  0.0000000000000058  0.0000000000000490  0.0000000000000786  0.0000000000001833  
50  1  0.0085544668912068  0.0118965133882818  0.0118729424178827  0.0111626871424636  0.0118613967991304  0.2520419826807753  0.1318543758731813  0.1594050569416505  
50  2  0.0000000000000012  0.0000000000000020  0.0000000000000026  0.0000000000000044  0.0000000000000070  0.2101945264642632  0.1277888146010087  0.1482692554050717  
50  3  0.0000000000000008  0.0000000000000018  0.0000000000000025  0.0000000000000046  0.0000000000000070  0.0000000000000720  0.0000000000001107  0.0000000000001948  
51  1  0.0085035144498722  0.0118259440713621  0.0118025906762936  0.0110965776288282  0.0117912728426547  0.2496536562318371  0.1307888049987896  0.1580543017143431  
51  2  0.0000000000000011  0.0000000000000020  0.0000000000000022  0.0000000000000033  0.0000000000000070  0.2085817807369268  0.1268108389790613  0.1471374290278565  
51  3  0.0000000000000008  0.0000000000000016  0.0000000000000022  0.0000000000000029  0.0000000000000063  0.0000000000000612  0.0000000000000722  0.0000000000002204  
52  1  0.0084531518695792  0.0117561886071188  0.0117330494403731  0.0110312293767044  0.0117219550390422  0.2473100005445088  0.1297402053664914  0.1567261112750657  
52  2  0.0000000000000011  0.0000000000000022  0.0000000000000026  0.0000000000000040  0.0000000000000089  0.2069935945891928  0.1258477186830139  0.1460227515352929  
52  3  0.0000000000000010  0.0000000000000020  0.0000000000000025  0.0000000000000048  0.0000000000000087  0.0000000000000828  0.0000000000001088  0.0000000000002611  
53  1  0.0084033692076430  0.0116872333252086  0.0116643051089846  0.0109666296172130  0.0116534298872196  0.2450097785653296  0.1287081774106555  0.1554199282119818  
53  2  0.0000000000000009  0.0000000000000017  0.0000000000000020  0.0000000000000033  0.0000000000000071  0.2054294112547448  0.1248991177884188  0.1449248361101468  
53  3  0.0000000000000008  0.0000000000000017  0.0000000000000020  0.0000000000000032  0.0000000000000069  0.0000000000000583  0.0000000000000725  0.0000000000002173  
54  1  0.0083541567377823  0.0116190648519261  0.0115963443758652  0.0109027658581907  0.0115856841783145  0.2427517983326613  0.1276923339266523  0.1541352132143314  
54  2  0.0000000000000012  0.0000000000000022  0.0000000000000030  0.0000000000000060  0.0000000000000096  0.2038886906703430  0.1239647104234292  0.1438433074825242  
54  3  0.0000000000000008  0.0000000000000020  0.0000000000000030  0.0000000000000059  0.0000000000000092  0.0000000000000650  0.0000000000001452  0.0000000000002772  
55  1  0.0083055049444834  0.0115516701024320  0.0115291542219220  0.0108396258769535  0.0115187049879717  0.2405349109468061  0.1266922996002401  0.1528714443461984  
55  2  0.0000000000000012  0.0000000000000028  0.0000000000000021  0.0000000000000037  0.0000000000000071  0.2023709088539539  0.1230441803955255  0.1427778015011315  
55  3  0.0000000000000011  0.0000000000000023  0.0000000000000022  0.0000000000000033  0.0000000000000068  0.0000000000000867  0.0000000000000836  0.0000000000002052  
56  1  0.0082574045174443  0.0114850362732243  0.0114627219077417  0.0107771977132815  0.0114524796690003  0.2383580086512307  0.1257077105572176  0.1516281163584045  
56  2  0.0000000000000012  0.0000000000000022  0.0000000000000038  0.0000000000000059  0.0000000000000088  0.2008755573106631  0.1221372208348749  0.1417279647254128  
56  3  0.0000000000000008  0.0000000000000021  0.0000000000000034  0.0000000000000059  0.0000000000000085  0.0000000000000683  0.0000000000001535  0.0000000000002575  
57  1  0.0082098463462743  0.0114191508348330  0.0113970349663384  0.0107154696626033  0.0113869958441476  0.2362200230125974  0.1247382139342436  0.1504047400292157  
57  2  0.0000000000000015  0.0000000000000033  0.0000000000000026  0.0000000000000038  0.0000000000000075  0.1994021424649014  0.1212435338531424  0.1406934540339597  
57  3  0.0000000000000011  0.0000000000000026  0.0000000000000024  0.0000000000000037  0.0000000000000075  0.0000000000000914  0.0000000000000809  0.0000000000002258  
58  1  0.0081628215152693  0.0113540015247244  0.0113320811961035  0.0106544302693948  0.0113222413991689  0.2341199231980230  0.1237834674677853  0.1492008415388031  
58  2  0.0000000000000014  0.0000000000000021  0.0000000000000033  0.0000000000000062  0.0000000000000091  0.1979501851168355  0.1203628302174199  0.1396739362511178  
58  3  0.0000000000000009  0.0000000000000018  0.0000000000000033  0.0000000000000058  0.0000000000000088  0.0000000000000642  0.0000000000001597  0.0000000000002650  
59  1  0.0081163212984147  0.0112895763404348  0.0112678486539850  0.0105940683207719  0.0112582044760435  0.2320567143407325  0.1228431391018467  0.1480159618703059  
59  2  0.0000000000000013  0.0000000000000022  0.0000000000000025  0.0000000000000044  0.0000000000000080  0.1965192199232239  0.1194948290379580  0.1386690877888774  
59  3  0.0000000000000009  0.0000000000000018  0.0000000000000023  0.0000000000000045  0.0000000000000078  0.0000000000000664  0.0000000000001107  0.0000000000002305  
60  1  0.0080703371544842  0.0112258635328896  0.0112043256488507  0.0105343728402694  0.0111948734664336  0.2300294359905359  0.1219169066126000  0.1468496562401398  
60  2  0.0000000000000015  0.0000000000000030  0.0000000000000031  0.0000000000000056  0.0000000000000079  0.1951087948998683  0.1186392574696678  0.1376785943046999  
60  3  0.0000000000000012  0.0000000000000024  0.0000000000000030  0.0000000000000049  0.0000000000000074  0.0000000000000856  0.0000000000001379  0.0000000000002536  
61  1  0.0080248607223194  0.0111628515999349  0.0111415007350616  0.0104753330818105  0.0111322370053087  0.2280371606429330  0.1210044572494407  0.1457014935529921  
61  2  0.0000000000000014  0.0000000000000027  0.0000000000000022  0.0000000000000040  0.0000000000000082  0.1937184709457016  0.1177958504260546  0.1367021503734299  
61  3  0.0000000000000012  0.0000000000000022  0.0000000000000020  0.0000000000000039  0.0000000000000075  0.0000000000000874  0.0000000000001033  0.0000000000002362  
62  1  0.0079798838162277  0.0111005292800521  0.0110793627062309  0.0104169385238520  0.0110702839647807  0.2260789923434015  0.1201054873914084  0.1445710558827396  
62  2  0.0000000000000014  0.0000000000000025  0.0000000000000036  0.0000000000000042  0.0000000000000072  0.1923478213871196  0.1169643503053946  0.1357394591736239  
62  3  0.0000000000000009  0.0000000000000020  0.0000000000000026  0.0000000000000041  0.0000000000000072  0.0000000000000671  0.0000000000001191  0.0000000000002380  
63  1  0.0079353984215272  0.0110388855462627  0.0110179005891577  0.0103591788636951  0.0110090034480952  0.2241540653611620  0.1192197022186495  0.1434579379753996  
63  2  0.0000000000000013  0.0000000000000023  0.0000000000000019  0.0000000000000043  0.0000000000000082  0.1909964315413016  0.1161445067284832  0.1347902321864070  
63  3  0.0000000000000010  0.0000000000000021  0.0000000000000019  0.0000000000000040  0.0000000000000080  0.0000000000000696  0.0000000000000963  0.0000000000002449  
64  1  0.0078913966902177  0.0109779096002045  0.0109571036379580  0.0103020440119769  0.0109483847838250  0.2222615429295557  0.1183468153975455  0.1423617467754349  
64  2  0.0000000000000010  0.0000000000000021  0.0000000000000028  0.0000000000000045  0.0000000000000071  0.1896638982979904  0.1153360762872229  0.1338541889073041  
64  3  0.0000000000000008  0.0000000000000017  0.0000000000000025  0.0000000000000039  0.0000000000000065  0.0000000000000560  0.0000000000001117  0.0000000000002215  
65  1  0.0078478709367806  0.0109175908663909  0.0108969613283453  0.0102455240873080  0.0108884175202125  0.2204006160484404  0.1174865487793874  0.1412821009723838  
65  2  0.0000000000000010  0.0000000000000017  0.0000000000000024  0.0000000000000051  0.0000000000000092  0.1883498297185701  0.1145388223036691  0.1329310565700622  
65  3  0.0000000000000007  0.0000000000000015  0.0000000000000025  0.0000000000000049  0.0000000000000089  0.0000000000000539  0.0000000000001134  0.0000000000002644  
66  1  0.0078048136341019  0.0108579189866267  0.0108374633520960  0.0101896094110745  0.0108290914196840  0.2185705023453254  0.1166386321117236  0.1402186305673526  
66  2  0.0000000000000013  0.0000000000000027  0.0000000000000027  0.0000000000000041  0.0000000000000064  0.1870538446516985  0.1137525145990558  0.1320205698811717  
66  3  0.0000000000000010  0.0000000000000022  0.0000000000000022  0.0000000000000037  0.0000000000000061  0.0000000000000753  0.0000000000001004  0.0000000000002110  
67  1  0.0077622174095057  0.0107988838145966  0.0107785996116609  0.0101342905023927  0.0107703964535335  0.2167704449923327  0.1158028027616295  0.1391709764594758  
67  2  0.0000000000000010  0.0000000000000018  0.0000000000000026  0.0000000000000062  0.0000000000000096  0.1857755723647569  0.1129769292722640  0.1311224707663955  
67  3  0.0000000000000008  0.0000000000000015  0.0000000000000027  0.0000000000000055  0.0000000000000094  0.0000000000000526  0.0000000000001398  0.0000000000002741  
68  1  0.0077200750409240  0.0107404754106024  0.0107203602149443  0.0100795580732006  0.0107123227967317  0.2149997116746625  0.1149788054505484  0.1381387900485075  
68  2  0.0000000000000014  0.0000000000000028  0.0000000000000025  0.0000000000000038  0.0000000000000070  0.1845146521903664  0.1122118484870946  0.1302365081260367  
68  3  0.0000000000000011  0.0000000000000023  0.0000000000000023  0.0000000000000035  0.0000000000000064  0.0000000000000810  0.0000000000000879  0.0000000000002375  
69  1  0.0076783794531461  0.0106826840364534  0.0106627354702247  0.0100254030234974  0.0106548608229218  0.2132575936094042  0.1141663920001707  0.1371217328567368  
69  2  0.0000000000000010  0.0000000000000021  0.0000000000000027  0.0000000000000060  0.0000000000000105  0.1832707331868212  0.1114570602686101  0.1293624376017343  
69  3  0.0000000000000008  0.0000000000000015  0.0000000000000028  0.0000000000000058  0.0000000000000102  0.0000000000000604  0.0000000000001359  0.0000000000002972  
70  1  0.0076371237142041  0.0106255001505076  0.0106057158812246  0.0099718164367195  0.0105980010995202  0.2115434046102058  0.1133653210884523  0.1361194761649960  
70  2  0.0000000000000012  0.0000000000000032  0.0000000000000023  0.0000000000000031  0.0000000000000069  0.1820434738128226  0.1107123583068798  0.1285000213510070  
70  3  0.0000000000000012  0.0000000000000025  0.0000000000000021  0.0000000000000030  0.0000000000000068  0.0000000000000928  0.0000000000000765  0.0000000000002273  
71  1  0.0075963010318428  0.0105689144028451  0.0105492921423219  0.0099187895752461  0.0105417343829954  0.2098564801965038  0.1125753580159396  0.1351317006659494  
71  2  0.0000000000000009  0.0000000000000017  0.0000000000000029  0.0000000000000062  0.0000000000000104  0.1808325416144872  0.1099775417694603  0.1276490278321904  
71  3  0.0000000000000006  0.0000000000000014  0.0000000000000027  0.0000000000000060  0.0000000000000103  0.0000000000000520  0.0000000000001312  0.0000000000003143  
72  1  0.0075559047501073  0.0105129176305978  0.0104934551338987  0.0098663138760335  0.0104860516142395  0.2081961767444291  0.1117962744810295  0.1341580961303502  
72  2  0.0000000000000011  0.0000000000000025  0.0000000000000020  0.0000000000000031  0.0000000000000070  0.1796376129254259  0.1092524151204208  0.1268092315963660  
72  3  0.0000000000000010  0.0000000000000021  0.0000000000000019  0.0000000000000030  0.0000000000000064  0.0000000000000680  0.0000000000000705  0.0000000000002157  
73  1  0.0075159283460055  0.0104575008533837  0.0104381959178152  0.0098143809463728  0.0104309439141171  0.2065618706768557  0.1110278483649183  0.1331983610891682  
73  2  0.0000000000000011  0.0000000000000022  0.0000000000000026  0.0000000000000064  0.0000000000000107  0.1784583725779747  0.1085367879471456  0.1259804130892846  
73  3  0.0000000000000009  0.0000000000000019  0.0000000000000028  0.0000000000000062  0.0000000000000105  0.0000000000000663  0.0000000000001447  0.0000000000003091  
74  1  0.0074763654262949  0.0104026552689007  0.0103835057330252  0.0097629825597712  0.0103764025790918  0.2049529576911560  0.1102698635244749  0.1322522025266631  
74  2  0.0000000000000012  0.0000000000000031  0.0000000000000028  0.0000000000000030  0.0000000000000066  0.1772945136263865  0.1078304747934877  0.1251623584587708  
74  3  0.0000000000000012  0.0000000000000026  0.0000000000000026  0.0000000000000030  0.0000000000000064  0.0000000000000792  0.0000000000000832  0.0000000000002166  
75  1  0.0074372097243227  0.0103483722486226  0.0103293759912968  0.0097121106519445  0.0103224190770247  0.2033688520222177  0.1095221095937655  0.1313193355888619  
75  2  0.0000000000000009  0.0000000000000020  0.0000000000000034  0.0000000000000068  0.0000000000000114  0.1761457370802200  0.1071332949995416  0.1243548593720004  
75  3  0.0000000000000008  0.0000000000000018  0.0000000000000035  0.0000000000000068  0.0000000000000109  0.0000000000000573  0.0000000000001535  0.0000000000003071  
76  1  0.0073984550970005  0.0102946433336211  0.0102757982730711  0.0096617573169232  0.0102689850430371  0.2018089857383495  0.1087843817933241  0.1303994833011610  
76  2  0.0000000000000016  0.0000000000000038  0.0000000000000030  0.0000000000000032  0.0000000000000074  0.1750117516483582  0.1064450725477501  0.1235577128375042  
76  3  0.0000000000000015  0.0000000000000030  0.0000000000000025  0.0000000000000032  0.0000000000000069  0.0000000000000963  0.0000000000001010  0.0000000000002298  
77  1  0.0073600955218129  0.0102414602305169  0.0102227643234242  0.0096119148032681  0.0102160922755486  0.2002728080702932  0.1080564807466600  0.1294923763001754  
77  2  0.0000000000000009  0.0000000000000020  0.0000000000000037  0.0000000000000070  0.0000000000000106  0.1738922734928350  0.1057656359144445  0.1227707210360403  
77  3  0.0000000000000007  0.0000000000000017  0.0000000000000034  0.0000000000000066  0.0000000000000103  0.0000000000000608  0.0000000000001564  0.0000000000002852  
78  1  0.0073221250939618  0.0101888148075239  0.0101702660481491  0.0095625755103935  0.0101637327323645  0.1987597847685250  0.1073382123042719  0.1285977525741639  
78  2  0.0000000000000015  0.0000000000000031  0.0000000000000026  0.0000000000000029  0.0000000000000064  0.1727870259918230  0.1050948179276891  0.1219936911560178  
78  3  0.0000000000000013  0.0000000000000027  0.0000000000000024  0.0000000000000029  0.0000000000000060  0.0000000000000910  0.0000000000000869  0.0000000000002151  
79  1  0.0072845380235381  0.0101366990906181  0.0101182955099388  0.0095137319849890  0.0101118985269270  0.1972693974906409  0.1066293873740996  0.1277153572157851  
79  2  0.0000000000000011  0.0000000000000023  0.0000000000000035  0.0000000000000061  0.0000000000000105  0.1716957395118557  0.1044324556298141  0.1212264352368525  
79  3  0.0000000000000010  0.0000000000000024  0.0000000000000039  0.0000000000000062  0.0000000000000104  0.0000000000000699  0.0000000000001283  0.0000000000002924  
80  1  0.0072473286328259  0.0100851052598104  0.0100668449246885  0.0094653769175424  0.0100605819246222  0.1958011432146968  0.1059298217589098  0.1268449421830631  
80  2  0.0000000000000013  0.0000000000000031  0.0000000000000028  0.0000000000000031  0.0000000000000066  0.1706181511885761  0.1037783901457075  0.1204687700165745  
80  3  0.0000000000000010  0.0000000000000024  0.0000000000000023  0.0000000000000031  0.0000000000000062  0.0000000000000748  0.0000000000000921  0.0000000000002200  