{
  "Finalized": "2019-11-13T17:27:47.928",
  "Initialized": "2019-11-13T17:27:30.234",
  "Name": "",
  "Ranks": [
    {
      "Finalized": "2019-11-13T17:27:47.928",
      "Initialized": "2019-11-13T17:27:30.234",
      "StateChanges": [
        {
          "Name": "_GLOBAL",
          "State": 1,
          "Timestamp": 0
        },
        {
          "Name": "_GLOBAL",
          "State": 0,
          "Timestamp": 17694
        },
        {
          "Name": "advance",
          "State": 1,
          "Timestamp": 680
        },
        {
          "Name": "advance",
          "State": 0,
          "Timestamp": 840
        },
        {
          "Name": "advance",
          "State": 1,
          "Timestamp": 1137
        },
        {
          "Name": "advance",
          "State": 0,
          "Timestamp": 1298
        },
        {
          "Name": "advance",
          "State": 1,
          "Timestamp": 1592
        },
        {
          "Name": "advance",
          "State": 0,
          "Timestamp": 1752
        },
        {
          "Name": "advance",
          "State": 1,
          "Timestamp": 2049
        },
        {
          "Name": "advance",
          "State": 0,
          "Timestamp": 2209
        },
        {
          "Name": "advance",
          "State": 1,
          "Timestamp": 2501
        },
        {
          "Name": "advance",
          "State": 0,
          "Timestamp": 2662
        },
        {
          "Name": "advance",
          "State": 1,
          "Timestamp": 2956
        },
        {
          "Name": "advance",
          "State": 0,
          "Timestamp": 3117
        },
        {
          "Name": "advance",
          "State": 1,
          "Timestamp": 3413
        },
        {
          "Name": "advance",
          "State": 0,
          "Timestamp": 3573
        },
        {
          "Name": "advance",
          "State": 1,
          "Timestamp": 3868
        },
        {
          "Name": "advance",
          "State": 0,
          "Timestamp": 4028
        },
        {
          "Name": "advance",
          "State": 1,
          "Timestamp": 4324
        },
        {
          "Name": "advance",
          "State": 0,
          "Timestamp": 4484
        },
        {
          "Name": "advance",
          "State": 1,
          "Timestamp": 4777
        },
        {
          "Name": "advance",
          "State": 0,
          "Timestamp": 4938
        },
        {
          "Name": "advance",
          "State": 1,
          "Timestamp": 5234
        },
        {
          "Name": "advance",
          "State": 0,
          "Timestamp": 5395
        },
        {
          "Name": "advance",
          "State": 1,
          "Timestamp": 5690
        },
        {
          "Name": "advance",
          "State": 0,
          "Timestamp": 5851
        },
        {
          "Name": "advance",
          "State": 1,
          "Timestamp": 6148
        },
        {
          "Name": "advance",
          "State": 0,
          "Timestamp": 6308
        },
        {
          "Name": "advance",
          "State": 1,
          "Timestamp": 6603
        },
        {
          "Name": "advance",
          "State": 0,
          "Timestamp": 6764
        },
        {
          "Name": "advance",
          "State": 1,
          "Timestamp": 7063
        },
        {
          "Name": "advance",
          "State": 0,
          "Timestamp": 7224
        },
        {
          "Name": "advance",
          "State": 1,
          "Timestamp": 7523
        },
        {
          "Name": "advance",
          "State": 0,
          "Timestamp": 7683
        },
        {
          "Name": "advance",
          "State": 1,
          "Timestamp": 7981
        },
        {
          "Name": "advance",
          "State": 0,
          "Timestamp": 8141
        },
        {
          "Name": "advance",
          "State": 1,
          "Timestamp": 8436
        },
        {
          "Name": "advance",
          "State": 0,
          "Timestamp": 8596
        },
        {
          "Name": "advance",
          "State": 1,
          "Timestamp": 8891
        },
        {
          "Name": "advance",
          "State": 0,
          "Timestamp": 9066
        },
        {
          "Name": "advance",
          "State": 1,
          "Timestamp": 9378
        },
        {
          "Name": "advance",
          "State": 0,
          "Timestamp": 9539
        },
        {
          "Name": "advance",
          "State": 1,
          "Timestamp": 9837
        },
        {
          "Name": "advance",
          "State": 0,
          "Timestamp": 10000
        },
        {
          "Name": "advance",
          "State": 1,
          "Timestamp": 10299
        },
        {
          "Name": "advance",
          "State": 0,
          "Timestamp": 10459
        },
        {
          "Name": "advance",
          "State": 1,
          "Timestamp": 10758
        },
        {
          "Name": "advance",
          "State": 0,
          "Timestamp": 10919
        },
        {
          "Name": "advance",
          "State": 1,
          "Timestamp": 11216
        },
        {
          "Name": "advance",
          "State": 0,
          "Timestamp": 11379
        },
        {
          "Name": "advance",
          "State": 1,
          "Timestamp": 11675
        },
        {
          "Name": "advance",
          "State": 0,
          "Timestamp": 11837
        },
        {
          "Name": "advance",
          "State": 1,
          "Timestamp": 12136
        },
        {
          "Name": "advance",
          "State": 0,
          "Timestamp": 12300
        },
        {
          "Name": "advance",
          "State": 1,
          "Timestamp": 12598
        },
        {
          "Name": "advance",
          "State": 0,
          "Timestamp": 12759
        },
        {
          "Name": "advance",
          "State": 1,
          "Timestamp": 13058
        },
        {
          "Name": "advance",
          "State": 0,
          "Timestamp": 13219
        },
        {
          "Name": "advance",
          "State": 1,
          "Timestamp": 13520
        },
        {
          "Name": "advance",
          "State": 0,
          "Timestamp": 13681
        },
        {
          "Name": "advance",
          "State": 1,
          "Timestamp": 13979
        },
        {
          "Name": "advance",
          "State": 0,
          "Timestamp": 14140
        },
        {
          "Name": "advance",
          "State": 1,
          "Timestamp": 14438
        },
        {
          "Name": "advance",
          "State": 0,
          "Timestamp": 14601
        },
        {
          "Name": "advance",
          "State": 1,
          "Timestamp": 14897
        },
        {
          "Name": "advance",
          "State": 0,
          "Timestamp": 15062
        },
        {
          "Name": "advance",
          "State": 1,
          "Timestamp": 15360
        },
        {
          "Name": "advance",
          "State": 0,
          "Timestamp": 15522
        },
        {
          "Name": "advance",
          "State": 1,
          "Timestamp": 15820
        },
        {
          "Name": "advance",
          "State": 0,
          "Timestamp": 15982
        },
        {
          "Name": "advance",
          "State": 1,
          "Timestamp": 16282
        },
        {
          "Name": "advance",
          "State": 0,
          "Timestamp": 16443
        },
        {
          "Name": "advance",
          "State": 1,
          "Timestamp": 16743
        },
        {
          "Name": "advance",
          "State": 0,
          "Timestamp": 16904
        },
        {
          "Name": "advance",
          "State": 1,
          "Timestamp": 17204
        },
        {
          "Name": "advance",
          "State": 0,
          "Timestamp": 17367
        },
        {
          "Name": "advance",
          "State": 1,
          "Timestamp": 17663
        },
        {
          "Name": "advance",
          "State": 0,
          "Timestamp": 17663
        },
        {
          "Name": "advance/cpl.computeQuasiNewtonUpdate",
          "State": 1,
          "Timestamp": 681
        },
        {
          "Name": "advance/cpl.computeQuasiNewtonUpdate",
          "State": 0,
          "Timestamp": 681
        },
        {
          "Name": "advance/cpl.computeQuasiNewtonUpdate",
          "State": 1,
          "Timestamp": 1137
        },
        {
          "Name": "advance/cpl.computeQuasiNewtonUpdate",
          "State": 0,
          "Timestamp": 1137
        },
        {
          "Name": "advance/cpl.computeQuasiNewtonUpdate",
          "State": 1,
          "Timestamp": 1593
        },
        {
          "Name": "advance/cpl.computeQuasiNewtonUpdate",
          "State": 0,
          "Timestamp": 1593
        },
        {
          "Name": "advance/cpl.computeQuasiNewtonUpdate",
          "State": 1,
          "Timestamp": 2049
        },
        {
          "Name": "advance/cpl.computeQuasiNewtonUpdate",
          "State": 0,
          "Timestamp": 2049
        },
        {
          "Name": "advance/cpl.computeQuasiNewtonUpdate",
          "State": 1,
          "Timestamp": 2501
        },
        {
          "Name": "advance/cpl.computeQuasiNewtonUpdate",
          "State": 0,
          "Timestamp": 2501
        },
        {
          "Name": "advance/cpl.computeQuasiNewtonUpdate",
          "State": 1,
          "Timestamp": 2956
        },
        {
          "Name": "advance/cpl.computeQuasiNewtonUpdate",
          "State": 0,
          "Timestamp": 2956
        },
        {
          "Name": "advance/cpl.computeQuasiNewtonUpdate",
          "State": 1,
          "Timestamp": 3413
        },
        {
          "Name": "advance/cpl.computeQuasiNewtonUpdate",
          "State": 0,
          "Timestamp": 3413
        },
        {
          "Name": "advance/cpl.computeQuasiNewtonUpdate",
          "State": 1,
          "Timestamp": 3868
        },
        {
          "Name": "advance/cpl.computeQuasiNewtonUpdate",
          "State": 0,
          "Timestamp": 3868
        },
        {
          "Name": "advance/cpl.computeQuasiNewtonUpdate",
          "State": 1,
          "Timestamp": 4325
        },
        {
          "Name": "advance/cpl.computeQuasiNewtonUpdate",
          "State": 0,
          "Timestamp": 4325
        },
        {
          "Name": "advance/cpl.computeQuasiNewtonUpdate",
          "State": 1,
          "Timestamp": 4777
        },
        {
          "Name": "advance/cpl.computeQuasiNewtonUpdate",
          "State": 0,
          "Timestamp": 4777
        },
        {
          "Name": "advance/cpl.computeQuasiNewtonUpdate",
          "State": 1,
          "Timestamp": 5234
        },
        {
          "Name": "advance/cpl.computeQuasiNewtonUpdate",
          "State": 0,
          "Timestamp": 5234
        },
        {
          "Name": "advance/cpl.computeQuasiNewtonUpdate",
          "State": 1,
          "Timestamp": 5691
        },
        {
          "Name": "advance/cpl.computeQuasiNewtonUpdate",
          "State": 0,
          "Timestamp": 5691
        },
        {
          "Name": "advance/cpl.computeQuasiNewtonUpdate",
          "State": 1,
          "Timestamp": 6148
        },
        {
          "Name": "advance/cpl.computeQuasiNewtonUpdate",
          "State": 0,
          "Timestamp": 6148
        },
        {
          "Name": "advance/cpl.computeQuasiNewtonUpdate",
          "State": 1,
          "Timestamp": 6604
        },
        {
          "Name": "advance/cpl.computeQuasiNewtonUpdate",
          "State": 0,
          "Timestamp": 6604
        },
        {
          "Name": "advance/cpl.computeQuasiNewtonUpdate",
          "State": 1,
          "Timestamp": 7064
        },
        {
          "Name": "advance/cpl.computeQuasiNewtonUpdate",
          "State": 0,
          "Timestamp": 7064
        },
        {
          "Name": "advance/cpl.computeQuasiNewtonUpdate",
          "State": 1,
          "Timestamp": 7523
        },
        {
          "Name": "advance/cpl.computeQuasiNewtonUpdate",
          "State": 0,
          "Timestamp": 7523
        },
        {
          "Name": "advance/cpl.computeQuasiNewtonUpdate",
          "State": 1,
          "Timestamp": 7981
        },
        {
          "Name": "advance/cpl.computeQuasiNewtonUpdate",
          "State": 0,
          "Timestamp": 7981
        },
        {
          "Name": "advance/cpl.computeQuasiNewtonUpdate",
          "State": 1,
          "Timestamp": 8436
        },
        {
          "Name": "advance/cpl.computeQuasiNewtonUpdate",
          "State": 0,
          "Timestamp": 8437
        },
        {
          "Name": "advance/cpl.computeQuasiNewtonUpdate",
          "State": 1,
          "Timestamp": 9378
        },
        {
          "Name": "advance/cpl.computeQuasiNewtonUpdate",
          "State": 0,
          "Timestamp": 9378
        },
        {
          "Name": "advance/cpl.computeQuasiNewtonUpdate",
          "State": 1,
          "Timestamp": 9838
        },
        {
          "Name": "advance/cpl.computeQuasiNewtonUpdate",
          "State": 0,
          "Timestamp": 9838
        },
        {
          "Name": "advance/cpl.computeQuasiNewtonUpdate",
          "State": 1,
          "Timestamp": 10299
        },
        {
          "Name": "advance/cpl.computeQuasiNewtonUpdate",
          "State": 0,
          "Timestamp": 10299
        },
        {
          "Name": "advance/cpl.computeQuasiNewtonUpdate",
          "State": 1,
          "Timestamp": 10759
        },
        {
          "Name": "advance/cpl.computeQuasiNewtonUpdate",
          "State": 0,
          "Timestamp": 10759
        },
        {
          "Name": "advance/cpl.computeQuasiNewtonUpdate",
          "State": 1,
          "Timestamp": 11216
        },
        {
          "Name": "advance/cpl.computeQuasiNewtonUpdate",
          "State": 0,
          "Timestamp": 11216
        },
        {
          "Name": "advance/cpl.computeQuasiNewtonUpdate",
          "State": 1,
          "Timestamp": 11676
        },
        {
          "Name": "advance/cpl.computeQuasiNewtonUpdate",
          "State": 0,
          "Timestamp": 11676
        },
        {
          "Name": "advance/cpl.computeQuasiNewtonUpdate",
          "State": 1,
          "Timestamp": 12136
        },
        {
          "Name": "advance/cpl.computeQuasiNewtonUpdate",
          "State": 0,
          "Timestamp": 12136
        },
        {
          "Name": "advance/cpl.computeQuasiNewtonUpdate",
          "State": 1,
          "Timestamp": 12599
        },
        {
          "Name": "advance/cpl.computeQuasiNewtonUpdate",
          "State": 0,
          "Timestamp": 12599
        },
        {
          "Name": "advance/cpl.computeQuasiNewtonUpdate",
          "State": 1,
          "Timestamp": 13058
        },
        {
          "Name": "advance/cpl.computeQuasiNewtonUpdate",
          "State": 0,
          "Timestamp": 13058
        },
        {
          "Name": "advance/cpl.computeQuasiNewtonUpdate",
          "State": 1,
          "Timestamp": 13520
        },
        {
          "Name": "advance/cpl.computeQuasiNewtonUpdate",
          "State": 0,
          "Timestamp": 13520
        },
        {
          "Name": "advance/cpl.computeQuasiNewtonUpdate",
          "State": 1,
          "Timestamp": 13979
        },
        {
          "Name": "advance/cpl.computeQuasiNewtonUpdate",
          "State": 0,
          "Timestamp": 13979
        },
        {
          "Name": "advance/cpl.computeQuasiNewtonUpdate",
          "State": 1,
          "Timestamp": 14438
        },
        {
          "Name": "advance/cpl.computeQuasiNewtonUpdate",
          "State": 0,
          "Timestamp": 14438
        },
        {
          "Name": "advance/cpl.computeQuasiNewtonUpdate",
          "State": 1,
          "Timestamp": 14898
        },
        {
          "Name": "advance/cpl.computeQuasiNewtonUpdate",
          "State": 0,
          "Timestamp": 14898
        },
        {
          "Name": "advance/cpl.computeQuasiNewtonUpdate",
          "State": 1,
          "Timestamp": 15360
        },
        {
          "Name": "advance/cpl.computeQuasiNewtonUpdate",
          "State": 0,
          "Timestamp": 15360
        },
        {
          "Name": "advance/cpl.computeQuasiNewtonUpdate",
          "State": 1,
          "Timestamp": 15820
        },
        {
          "Name": "advance/cpl.computeQuasiNewtonUpdate",
          "State": 0,
          "Timestamp": 15820
        },
        {
          "Name": "advance/cpl.computeQuasiNewtonUpdate",
          "State": 1,
          "Timestamp": 16283
        },
        {
          "Name": "advance/cpl.computeQuasiNewtonUpdate",
          "State": 0,
          "Timestamp": 16283
        },
        {
          "Name": "advance/cpl.computeQuasiNewtonUpdate",
          "State": 1,
          "Timestamp": 16744
        },
        {
          "Name": "advance/cpl.computeQuasiNewtonUpdate",
          "State": 0,
          "Timestamp": 16744
        },
        {
          "Name": "advance/cpl.computeQuasiNewtonUpdate",
          "State": 1,
          "Timestamp": 17204
        },
        {
          "Name": "advance/cpl.computeQuasiNewtonUpdate",
          "State": 0,
          "Timestamp": 17204
        },
        {
          "Name": "configure",
          "State": 1,
          "Timestamp": 0
        },
        {
          "Name": "configure",
          "State": 0,
          "Timestamp": 0
        },
        {
          "Name": "finalize",
          "State": 1,
          "Timestamp": 17694
        },
        {
          "Name": "finalize",
          "State": 0,
          "Timestamp": 17694
        },
        {
          "Name": "initialize",
          "State": 1,
          "Timestamp": 4
        },
        {
          "Name": "initialize",
          "State": 0,
          "Timestamp": 6
        },
        {
          "Name": "initialize/m2n.acceptMasterConnection",
          "State": 1,
          "Timestamp": 4
        },
        {
          "Name": "initialize/m2n.acceptMasterConnection",
          "State": 0,
          "Timestamp": 6
        },
        {
          "Name": "initialize/m2n.acceptSlavesConnection",
          "State": 1,
          "Timestamp": 6
        },
        {
          "Name": "initialize/m2n.acceptSlavesConnection",
          "State": 0,
          "Timestamp": 6
        },
        {
          "Name": "initialize/partition.feedbackMesh.NeumannNodes",
          "State": 1,
          "Timestamp": 6
        },
        {
          "Name": "initialize/partition.feedbackMesh.NeumannNodes",
          "State": 0,
          "Timestamp": 6
        },
        {
          "Name": "initialize/partition.gatherMesh.NeumannNodes",
          "State": 1,
          "Timestamp": 6
        },
        {
          "Name": "initialize/partition.gatherMesh.NeumannNodes",
          "State": 0,
          "Timestamp": 6
        },
        {
          "Name": "initialize/partition.sendGlobalMesh.NeumannNodes",
          "State": 1,
          "Timestamp": 6
        },
        {
          "Name": "initialize/partition.sendGlobalMesh.NeumannNodes",
          "State": 0,
          "Timestamp": 6
        },
        {
          "Name": "initializeData",
          "State": 1,
          "Timestamp": 17
        },
        {
          "Name": "initializeData",
          "State": 0,
          "Timestamp": 311
        },
        {
          "Name": "solver.advance",
          "State": 1,
          "Timestamp": 840
        },
        {
          "Name": "solver.advance",
          "State": 0,
          "Timestamp": 1137
        },
        {
          "Name": "solver.advance",
          "State": 1,
          "Timestamp": 1298
        },
        {
          "Name": "solver.advance",
          "State": 0,
          "Timestamp": 1592
        },
        {
          "Name": "solver.advance",
          "State": 1,
          "Timestamp": 1752
        },
        {
          "Name": "solver.advance",
          "State": 0,
          "Timestamp": 2049
        },
        {
          "Name": "solver.advance",
          "State": 1,
          "Timestamp": 2209
        },
        {
          "Name": "solver.advance",
          "State": 0,
          "Timestamp": 2501
        },
        {
          "Name": "solver.advance",
          "State": 1,
          "Timestamp": 2662
        },
        {
          "Name": "solver.advance",
          "State": 0,
          "Timestamp": 2956
        },
        {
          "Name": "solver.advance",
          "State": 1,
          "Timestamp": 3117
        },
        {
          "Name": "solver.advance",
          "State": 0,
          "Timestamp": 3413
        },
        {
          "Name": "solver.advance",
          "State": 1,
          "Timestamp": 3573
        },
        {
          "Name": "solver.advance",
          "State": 0,
          "Timestamp": 3868
        },
        {
          "Name": "solver.advance",
          "State": 1,
          "Timestamp": 4028
        },
        {
          "Name": "solver.advance",
          "State": 0,
          "Timestamp": 4324
        },
        {
          "Name": "solver.advance",
          "State": 1,
          "Timestamp": 4484
        },
        {
          "Name": "solver.advance",
          "State": 0,
          "Timestamp": 4777
        },
        {
          "Name": "solver.advance",
          "State": 1,
          "Timestamp": 4938
        },
        {
          "Name": "solver.advance",
          "State": 0,
          "Timestamp": 5234
        },
        {
          "Name": "solver.advance",
          "State": 1,
          "Timestamp": 5395
        },
        {
          "Name": "solver.advance",
          "State": 0,
          "Timestamp": 5690
        },
        {
          "Name": "solver.advance",
          "State": 1,
          "Timestamp": 5851
        },
        {
          "Name": "solver.advance",
          "State": 0,
          "Timestamp": 6148
        },
        {
          "Name": "solver.advance",
          "State": 1,
          "Timestamp": 6308
        },
        {
          "Name": "solver.advance",
          "State": 0,
          "Timestamp": 6603
        },
        {
          "Name": "solver.advance",
          "State": 1,
          "Timestamp": 6764
        },
        {
          "Name": "solver.advance",
          "State": 0,
          "Timestamp": 7063
        },
        {
          "Name": "solver.advance",
          "State": 1,
          "Timestamp": 7224
        },
        {
          "Name": "solver.advance",
          "State": 0,
          "Timestamp": 7523
        },
        {
          "Name": "solver.advance",
          "State": 1,
          "Timestamp": 7683
        },
        {
          "Name": "solver.advance",
          "State": 0,
          "Timestamp": 7981
        },
        {
          "Name": "solver.advance",
          "State": 1,
          "Timestamp": 8141
        },
        {
          "Name": "solver.advance",
          "State": 0,
          "Timestamp": 8436
        },
        {
          "Name": "solver.advance",
          "State": 1,
          "Timestamp": 8596
        },
        {
          "Name": "solver.advance",
          "State": 0,
          "Timestamp": 8891
        },
        {
          "Name": "solver.advance",
          "State": 1,
          "Timestamp": 9066
        },
        {
          "Name": "solver.advance",
          "State": 0,
          "Timestamp": 9378
        },
        {
          "Name": "solver.advance",
          "State": 1,
          "Timestamp": 9539
        },
        {
          "Name": "solver.advance",
          "State": 0,
          "Timestamp": 9837
        },
        {
          "Name": "solver.advance",
          "State": 1,
          "Timestamp": 10000
        },
        {
          "Name": "solver.advance",
          "State": 0,
          "Timestamp": 10299
        },
        {
          "Name": "solver.advance",
          "State": 1,
          "Timestamp": 10459
        },
        {
          "Name": "solver.advance",
          "State": 0,
          "Timestamp": 10758
        },
        {
          "Name": "solver.advance",
          "State": 1,
          "Timestamp": 10919
        },
        {
          "Name": "solver.advance",
          "State": 0,
          "Timestamp": 11216
        },
        {
          "Name": "solver.advance",
          "State": 1,
          "Timestamp": 11379
        },
        {
          "Name": "solver.advance",
          "State": 0,
          "Timestamp": 11675
        },
        {
          "Name": "solver.advance",
          "State": 1,
          "Timestamp": 11837
        },
        {
          "Name": "solver.advance",
          "State": 0,
          "Timestamp": 12136
        },
        {
          "Name": "solver.advance",
          "State": 1,
          "Timestamp": 12300
        },
        {
          "Name": "solver.advance",
          "State": 0,
          "Timestamp": 12598
        },
        {
          "Name": "solver.advance",
          "State": 1,
          "Timestamp": 12759
        },
        {
          "Name": "solver.advance",
          "State": 0,
          "Timestamp": 13058
        },
        {
          "Name": "solver.advance",
          "State": 1,
          "Timestamp": 13219
        },
        {
          "Name": "solver.advance",
          "State": 0,
          "Timestamp": 13520
        },
        {
          "Name": "solver.advance",
          "State": 1,
          "Timestamp": 13681
        },
        {
          "Name": "solver.advance",
          "State": 0,
          "Timestamp": 13979
        },
        {
          "Name": "solver.advance",
          "State": 1,
          "Timestamp": 14140
        },
        {
          "Name": "solver.advance",
          "State": 0,
          "Timestamp": 14438
        },
        {
          "Name": "solver.advance",
          "State": 1,
          "Timestamp": 14601
        },
        {
          "Name": "solver.advance",
          "State": 0,
          "Timestamp": 14897
        },
        {
          "Name": "solver.advance",
          "State": 1,
          "Timestamp": 15062
        },
        {
          "Name": "solver.advance",
          "State": 0,
          "Timestamp": 15360
        },
        {
          "Name": "solver.advance",
          "State": 1,
          "Timestamp": 15522
        },
        {
          "Name": "solver.advance",
          "State": 0,
          "Timestamp": 15820
        },
        {
          "Name": "solver.advance",
          "State": 1,
          "Timestamp": 15982
        },
        {
          "Name": "solver.advance",
          "State": 0,
          "Timestamp": 16282
        },
        {
          "Name": "solver.advance",
          "State": 1,
          "Timestamp": 16443
        },
        {
          "Name": "solver.advance",
          "State": 0,
          "Timestamp": 16743
        },
        {
          "Name": "solver.advance",
          "State": 1,
          "Timestamp": 16904
        },
        {
          "Name": "solver.advance",
          "State": 0,
          "Timestamp": 17204
        },
        {
          "Name": "solver.advance",
          "State": 1,
          "Timestamp": 17367
        },
        {
          "Name": "solver.advance",
          "State": 0,
          "Timestamp": 17663
        },
        {
          "Name": "solver.advance",
          "State": 1,
          "Timestamp": 17663
        },
        {
          "Name": "solver.advance",
          "State": 0,
          "Timestamp": 17694
        },
        {
          "Name": "solver.initialize",
          "State": 1,
          "Timestamp": 0
        },
        {
          "Name": "solver.initialize",
          "State": 2,
          "Timestamp": 4
        },
        {
          "Name": "solver.initialize",
          "State": 1,
          "Timestamp": 6
        },
        {
          "Name": "solver.initialize",
          "State": 2,
          "Timestamp": 17
        },
        {
          "Name": "solver.initialize",
          "State": 1,
          "Timestamp": 311
        },
        {
          "Name": "solver.initialize",
          "State": 0,
          "Timestamp": 680
        }
      ],
      "Timings": {
        "_GLOBAL": {
          "Count": 1,
          "Data": {},
          "Max": 17694,
          "Min": 17694,
          "TimeRatio": 1.0,
          "Total": 17694
        },
        "advance": {
          "Count": 38,
          "Data": {},
          "Max": 175,
          "Min": 0,
          "TimeRatio": 0.3376850909912965,
          "Total": 5975
        },
        "advance/cpl.computeQuasiNewtonUpdate": {
          "Count": 36,
          "Data": {},
          "Max": 0,
          "Min": 0,
          "TimeRatio": 5.651633322030067e-05,
          "Total": 1
        },
        "configure": {
          "Count": 1,
          "Data": {},
          "Max": 0,
          "Min": 0,
          "TimeRatio": 0.0,
          "Total": 0
        },
        "finalize": {
          "Count": 1,
          "Data": {},
          "Max": 0,
          "Min": 0,
          "TimeRatio": 0.0,
          "Total": 0
        },
        "initialize": {
          "Count": 1,
          "Data": {},
          "Max": 2,
          "Min": 2,
          "TimeRatio": 0.00011303266644060134,
          "Total": 2
        },
        "initialize/m2n.acceptMasterConnection": {
          "Count": 1,
          "Data": {},
          "Max": 2,
          "Min": 2,
          "TimeRatio": 0.00011303266644060134,
          "Total": 2
        },
        "initialize/m2n.acceptSlavesConnection": {
          "Count": 1,
          "Data": {},
          "Max": 0,
          "Min": 0,
          "TimeRatio": 0.0,
          "Total": 0
        },
        "initialize/partition.feedbackMesh.NeumannNodes": {
          "Count": 1,
          "Data": {},
          "Max": 0,
          "Min": 0,
          "TimeRatio": 0.0,
          "Total": 0
        },
        "initialize/partition.gatherMesh.NeumannNodes": {
          "Count": 1,
          "Data": {},
          "Max": 0,
          "Min": 0,
          "TimeRatio": 0.0,
          "Total": 0
        },
        "initialize/partition.sendGlobalMesh.NeumannNodes": {
          "Count": 1,
          "Data": {},
          "Max": 0,
          "Min": 0,
          "TimeRatio": 0.0,
          "Total": 0
        },
        "initializeData": {
          "Count": 1,
          "Data": {},
          "Max": 293,
          "Min": 293,
          "TimeRatio": 0.016559285633548096,
          "Total": 293
        },
        "solver.advance": {
          "Count": 38,
          "Data": {},
          "Max": 311,
          "Min": 30,
          "TimeRatio": 0.6238272860856787,
          "Total": 11038
        },
        "solver.initialize": {
          "Count": 1,
          "Data": {},
          "Max": 384,
          "Min": 384,
          "TimeRatio": 0.021702271956595458,
          "Total": 384
        }
      }
    }
  ]
}
