# vtk DataFile Version 2.0

ASCII

DATASET UNSTRUCTURED_GRID

POINTS 106 float 

-5.0000000000000003e-02  0.0000000000000000e+00  0.0000000000000000e+00
5.0000000000000003e-02  0.0000000000000000e+00  0.0000000000000000e+00
-5.0000000000000003e-02  2.0000000000000000e-02  0.0000000000000000e+00
5.0000000000000003e-02  2.0000000000000000e-02  0.0000000000000000e+00
-5.0000000000000003e-02  4.0000000000000001e-02  0.0000000000000000e+00
5.0000000000000003e-02  4.0000000000000001e-02  0.0000000000000000e+00
-5.0000000000000003e-02  5.9999999999999998e-02  0.0000000000000000e+00
5.0000000000000003e-02  5.9999999999999998e-02  0.0000000000000000e+00
-5.0000000000000003e-02  8.0000000000000002e-02  0.0000000000000000e+00
5.0000000000000003e-02  8.0000000000000002e-02  0.0000000000000000e+00
-5.0000000000000003e-02  1.0000000000000001e-01  0.0000000000000000e+00
5.0000000000000003e-02  1.0000000000000001e-01  0.0000000000000000e+00
-5.0000000000000003e-02  1.2000000000000000e-01  0.0000000000000000e+00
5.0000000000000003e-02  1.2000000000000000e-01  0.0000000000000000e+00
-5.0000000000000003e-02  1.4000000000000001e-01  0.0000000000000000e+00
5.0000000000000003e-02  1.4000000000000001e-01  0.0000000000000000e+00
-5.0000000000000003e-02  1.6000000000000000e-01  0.0000000000000000e+00
5.0000000000000003e-02  1.6000000000000000e-01  0.0000000000000000e+00
-5.0000000000000003e-02  1.7999999999999999e-01  0.0000000000000000e+00
5.0000000000000003e-02  1.7999999999999999e-01  0.0000000000000000e+00
-5.0000000000000003e-02  2.0000000000000001e-01  0.0000000000000000e+00
5.0000000000000003e-02  2.0000000000000001e-01  0.0000000000000000e+00
-5.0000000000000003e-02  2.2000000000000000e-01  0.0000000000000000e+00
5.0000000000000003e-02  2.2000000000000000e-01  0.0000000000000000e+00
-5.0000000000000003e-02  2.3999999999999999e-01  0.0000000000000000e+00
5.0000000000000003e-02  2.3999999999999999e-01  0.0000000000000000e+00
-5.0000000000000003e-02  2.6000000000000001e-01  0.0000000000000000e+00
5.0000000000000003e-02  2.6000000000000001e-01  0.0000000000000000e+00
-5.0000000000000003e-02  2.8000000000000003e-01  0.0000000000000000e+00
5.0000000000000003e-02  2.8000000000000003e-01  0.0000000000000000e+00
-5.0000000000000003e-02  2.9999999999999999e-01  0.0000000000000000e+00
5.0000000000000003e-02  2.9999999999999999e-01  0.0000000000000000e+00
-5.0000000000000003e-02  3.2000000000000001e-01  0.0000000000000000e+00
5.0000000000000003e-02  3.2000000000000001e-01  0.0000000000000000e+00
-5.0000000000000003e-02  3.4000000000000002e-01  0.0000000000000000e+00
5.0000000000000003e-02  3.4000000000000002e-01  0.0000000000000000e+00
-5.0000000000000003e-02  3.5999999999999999e-01  0.0000000000000000e+00
5.0000000000000003e-02  3.5999999999999999e-01  0.0000000000000000e+00
-5.0000000000000003e-02  3.8000000000000000e-01  0.0000000000000000e+00
5.0000000000000003e-02  3.8000000000000000e-01  0.0000000000000000e+00
-5.0000000000000003e-02  4.0000000000000002e-01  0.0000000000000000e+00
5.0000000000000003e-02  4.0000000000000002e-01  0.0000000000000000e+00
-5.0000000000000003e-02  4.1999999999999998e-01  0.0000000000000000e+00
5.0000000000000003e-02  4.1999999999999998e-01  0.0000000000000000e+00
-5.0000000000000003e-02  4.4000000000000000e-01  0.0000000000000000e+00
5.0000000000000003e-02  4.4000000000000000e-01  0.0000000000000000e+00
-5.0000000000000003e-02  4.6000000000000002e-01  0.0000000000000000e+00
5.0000000000000003e-02  4.6000000000000002e-01  0.0000000000000000e+00
-5.0000000000000003e-02  4.7999999999999998e-01  0.0000000000000000e+00
5.0000000000000003e-02  4.7999999999999998e-01  0.0000000000000000e+00
-5.0000000000000003e-02  5.0000000000000000e-01  0.0000000000000000e+00
5.0000000000000003e-02  5.0000000000000000e-01  0.0000000000000000e+00
-5.0000000000000003e-02  5.2000000000000002e-01  0.0000000000000000e+00
5.0000000000000003e-02  5.2000000000000002e-01  0.0000000000000000e+00
-5.0000000000000003e-02  5.4000000000000004e-01  0.0000000000000000e+00
5.0000000000000003e-02  5.4000000000000004e-01  0.0000000000000000e+00
-5.0000000000000003e-02  5.6000000000000005e-01  0.0000000000000000e+00
5.0000000000000003e-02  5.6000000000000005e-01  0.0000000000000000e+00
-5.0000000000000003e-02  5.7999999999999996e-01  0.0000000000000000e+00
5.0000000000000003e-02  5.7999999999999996e-01  0.0000000000000000e+00
-5.0000000000000003e-02  5.9999999999999998e-01  0.0000000000000000e+00
5.0000000000000003e-02  5.9999999999999998e-01  0.0000000000000000e+00
-5.0000000000000003e-02  6.2000000000000000e-01  0.0000000000000000e+00
5.0000000000000003e-02  6.2000000000000000e-01  0.0000000000000000e+00
-5.0000000000000003e-02  6.4000000000000001e-01  0.0000000000000000e+00
5.0000000000000003e-02  6.4000000000000001e-01  0.0000000000000000e+00
-5.0000000000000003e-02  6.6000000000000003e-01  0.0000000000000000e+00
5.0000000000000003e-02  6.6000000000000003e-01  0.0000000000000000e+00
-5.0000000000000003e-02  6.8000000000000005e-01  0.0000000000000000e+00
5.0000000000000003e-02  6.8000000000000005e-01  0.0000000000000000e+00
-5.0000000000000003e-02  6.9999999999999996e-01  0.0000000000000000e+00
5.0000000000000003e-02  6.9999999999999996e-01  0.0000000000000000e+00
-5.0000000000000003e-02  7.1999999999999997e-01  0.0000000000000000e+00
5.0000000000000003e-02  7.1999999999999997e-01  0.0000000000000000e+00
-5.0000000000000003e-02  7.3999999999999999e-01  0.0000000000000000e+00
5.0000000000000003e-02  7.3999999999999999e-01  0.0000000000000000e+00
-5.0000000000000003e-02  7.6000000000000001e-01  0.0000000000000000e+00
5.0000000000000003e-02  7.6000000000000001e-01  0.0000000000000000e+00
-5.0000000000000003e-02  7.8000000000000003e-01  0.0000000000000000e+00
5.0000000000000003e-02  7.8000000000000003e-01  0.0000000000000000e+00
-5.0000000000000003e-02  8.0000000000000004e-01  0.0000000000000000e+00
5.0000000000000003e-02  8.0000000000000004e-01  0.0000000000000000e+00
-5.0000000000000003e-02  8.1999999999999995e-01  0.0000000000000000e+00
5.0000000000000003e-02  8.1999999999999995e-01  0.0000000000000000e+00
-5.0000000000000003e-02  8.3999999999999997e-01  0.0000000000000000e+00
5.0000000000000003e-02  8.3999999999999997e-01  0.0000000000000000e+00
-5.0000000000000003e-02  8.5999999999999999e-01  0.0000000000000000e+00
5.0000000000000003e-02  8.5999999999999999e-01  0.0000000000000000e+00
-5.0000000000000003e-02  8.8000000000000000e-01  0.0000000000000000e+00
5.0000000000000003e-02  8.8000000000000000e-01  0.0000000000000000e+00
-5.0000000000000003e-02  9.0000000000000002e-01  0.0000000000000000e+00
5.0000000000000003e-02  9.0000000000000002e-01  0.0000000000000000e+00
-5.0000000000000003e-02  9.2000000000000004e-01  0.0000000000000000e+00
5.0000000000000003e-02  9.2000000000000004e-01  0.0000000000000000e+00
-5.0000000000000003e-02  9.3999999999999995e-01  0.0000000000000000e+00
5.0000000000000003e-02  9.3999999999999995e-01  0.0000000000000000e+00
-5.0000000000000003e-02  9.5999999999999996e-01  0.0000000000000000e+00
5.0000000000000003e-02  9.5999999999999996e-01  0.0000000000000000e+00
-5.0000000000000003e-02  9.7999999999999998e-01  0.0000000000000000e+00
5.0000000000000003e-02  9.7999999999999998e-01  0.0000000000000000e+00
-5.0000000000000003e-02  1.0000000000000000e+00  0.0000000000000000e+00
-3.0000000000000002e-02  1.0000000000000000e+00  0.0000000000000000e+00
-1.0000000000000002e-02  1.0000000000000000e+00  0.0000000000000000e+00
1.0000000000000009e-02  1.0000000000000000e+00  0.0000000000000000e+00
2.9999999999999999e-02  1.0000000000000000e+00  0.0000000000000000e+00
5.0000000000000003e-02  1.0000000000000000e+00  0.0000000000000000e+00

CELLS 0 0


CELL_TYPES 0


POINT_DATA 106

VECTORS VertexNormals float

0.0000000000000000e+00 0.0000000000000000e+00 0
0.0000000000000000e+00 0.0000000000000000e+00 0
0.0000000000000000e+00 0.0000000000000000e+00 0
0.0000000000000000e+00 0.0000000000000000e+00 0
0.0000000000000000e+00 0.0000000000000000e+00 0
0.0000000000000000e+00 0.0000000000000000e+00 0
0.0000000000000000e+00 0.0000000000000000e+00 0
0.0000000000000000e+00 0.0000000000000000e+00 0
0.0000000000000000e+00 0.0000000000000000e+00 0
0.0000000000000000e+00 0.0000000000000000e+00 0
0.0000000000000000e+00 0.0000000000000000e+00 0
0.0000000000000000e+00 0.0000000000000000e+00 0
0.0000000000000000e+00 0.0000000000000000e+00 0
0.0000000000000000e+00 0.0000000000000000e+00 0
0.0000000000000000e+00 0.0000000000000000e+00 0
0.0000000000000000e+00 0.0000000000000000e+00 0
0.0000000000000000e+00 0.0000000000000000e+00 0
0.0000000000000000e+00 0.0000000000000000e+00 0
0.0000000000000000e+00 0.0000000000000000e+00 0
0.0000000000000000e+00 0.0000000000000000e+00 0
0.0000000000000000e+00 0.0000000000000000e+00 0
0.0000000000000000e+00 0.0000000000000000e+00 0
0.0000000000000000e+00 0.0000000000000000e+00 0
0.0000000000000000e+00 0.0000000000000000e+00 0
0.0000000000000000e+00 0.0000000000000000e+00 0
0.0000000000000000e+00 0.0000000000000000e+00 0
0.0000000000000000e+00 0.0000000000000000e+00 0
0.0000000000000000e+00 0.0000000000000000e+00 0
0.0000000000000000e+00 0.0000000000000000e+00 0
0.0000000000000000e+00 0.0000000000000000e+00 0
0.0000000000000000e+00 0.0000000000000000e+00 0
0.0000000000000000e+00 0.0000000000000000e+00 0
0.0000000000000000e+00 0.0000000000000000e+00 0
0.0000000000000000e+00 0.0000000000000000e+00 0
0.0000000000000000e+00 0.0000000000000000e+00 0
0.0000000000000000e+00 0.0000000000000000e+00 0
0.0000000000000000e+00 0.0000000000000000e+00 0
0.0000000000000000e+00 0.0000000000000000e+00 0
0.0000000000000000e+00 0.0000000000000000e+00 0
0.0000000000000000e+00 0.0000000000000000e+00 0
0.0000000000000000e+00 0.0000000000000000e+00 0
0.0000000000000000e+00 0.0000000000000000e+00 0
0.0000000000000000e+00 0.0000000000000000e+00 0
0.0000000000000000e+00 0.0000000000000000e+00 0
0.0000000000000000e+00 0.0000000000000000e+00 0
0.0000000000000000e+00 0.0000000000000000e+00 0
0.0000000000000000e+00 0.0000000000000000e+00 0
0.0000000000000000e+00 0.0000000000000000e+00 0
0.0000000000000000e+00 0.0000000000000000e+00 0
0.0000000000000000e+00 0.0000000000000000e+00 0
0.0000000000000000e+00 0.0000000000000000e+00 0
0.0000000000000000e+00 0.0000000000000000e+00 0
0.0000000000000000e+00 0.0000000000000000e+00 0
0.0000000000000000e+00 0.0000000000000000e+00 0
0.0000000000000000e+00 0.0000000000000000e+00 0
0.0000000000000000e+00 0.0000000000000000e+00 0
0.0000000000000000e+00 0.0000000000000000e+00 0
0.0000000000000000e+00 0.0000000000000000e+00 0
0.0000000000000000e+00 0.0000000000000000e+00 0
0.0000000000000000e+00 0.0000000000000000e+00 0
0.0000000000000000e+00 0.0000000000000000e+00 0
0.0000000000000000e+00 0.0000000000000000e+00 0
0.0000000000000000e+00 0.0000000000000000e+00 0
0.0000000000000000e+00 0.0000000000000000e+00 0
0.0000000000000000e+00 0.0000000000000000e+00 0
0.0000000000000000e+00 0.0000000000000000e+00 0
0.0000000000000000e+00 0.0000000000000000e+00 0
0.0000000000000000e+00 0.0000000000000000e+00 0
0.0000000000000000e+00 0.0000000000000000e+00 0
0.0000000000000000e+00 0.0000000000000000e+00 0
0.0000000000000000e+00 0.0000000000000000e+00 0
0.0000000000000000e+00 0.0000000000000000e+00 0
0.0000000000000000e+00 0.0000000000000000e+00 0
0.0000000000000000e+00 0.0000000000000000e+00 0
0.0000000000000000e+00 0.0000000000000000e+00 0
0.0000000000000000e+00 0.0000000000000000e+00 0
0.0000000000000000e+00 0.0000000000000000e+00 0
0.0000000000000000e+00 0.0000000000000000e+00 0
0.0000000000000000e+00 0.0000000000000000e+00 0
0.0000000000000000e+00 0.0000000000000000e+00 0
0.0000000000000000e+00 0.0000000000000000e+00 0
0.0000000000000000e+00 0.0000000000000000e+00 0
0.0000000000000000e+00 0.0000000000000000e+00 0
0.0000000000000000e+00 0.0000000000000000e+00 0
0.0000000000000000e+00 0.0000000000000000e+00 0
0.0000000000000000e+00 0.0000000000000000e+00 0
0.0000000000000000e+00 0.0000000000000000e+00 0
0.0000000000000000e+00 0.0000000000000000e+00 0
0.0000000000000000e+00 0.0000000000000000e+00 0
0.0000000000000000e+00 0.0000000000000000e+00 0
0.0000000000000000e+00 0.0000000000000000e+00 0
0.0000000000000000e+00 0.0000000000000000e+00 0
0.0000000000000000e+00 0.0000000000000000e+00 0
0.0000000000000000e+00 0.0000000000000000e+00 0
0.0000000000000000e+00 0.0000000000000000e+00 0
0.0000000000000000e+00 0.0000000000000000e+00 0
0.0000000000000000e+00 0.0000000000000000e+00 0
0.0000000000000000e+00 0.0000000000000000e+00 0
0.0000000000000000e+00 0.0000000000000000e+00 0
0.0000000000000000e+00 0.0000000000000000e+00 0
0.0000000000000000e+00 0.0000000000000000e+00 0
0.0000000000000000e+00 0.0000000000000000e+00 0
0.0000000000000000e+00 0.0000000000000000e+00 0
0.0000000000000000e+00 0.0000000000000000e+00 0
0.0000000000000000e+00 0.0000000000000000e+00 0
0.0000000000000000e+00 0.0000000000000000e+00 0

VECTORS Displacements1 float
-1.2145162584792326e-17 6.7839937704607730e-18 0
-6.5697503276334432e-24 -3.7878706581910557e-24 0
8.5339600384467487e-08 -3.8701542187865652e-08 0
9.3481553101904479e-08 5.1734893835792630e-08 0
9.6525453701500287e-08 -1.6923525722628488e-08 0
9.9462666962520491e-08 3.2279623070638714e-08 0
5.9903889495490080e-08 -1.4394344873415304e-09 0
6.0128393717813654e-08 1.3143051096328501e-08 0
-3.2476487606795660e-09 8.3689191771048808e-09 0
-2.3916866870960960e-09 -7.0288043111775999e-09 0
2.3125639627920172e-07 1.6547514706717090e-08 0
2.3308183772167812e-07 1.9059233812564808e-08 0
-3.5425282186556463e-09 -7.3500858003926466e-09 0
-3.0669157655972679e-09 8.8966253255836804e-09 0
6.4855204411455803e-08 1.0078567310512737e-08 0
6.6263901600475502e-08 2.1352318712970772e-09 0
6.4842792576298434e-08 2.9767158152408992e-10 0
6.6031137757595676e-08 1.2381171211210703e-08 0
-3.5323189946534976e-09 7.5826432566353438e-09 0
-2.5993112556124136e-09 -6.3959770121478495e-09 0
2.2925696474673273e-07 1.4607513854565212e-08 0
2.3798261269560629e-07 2.4191905764133550e-08 0
-3.6360575967875688e-09 -7.6967328240616883e-09 0
-3.3598513103532909e-09 9.8936604337784465e-09 0
6.4436167251454058e-08 9.2652505204657464e-09 0
6.8856415320705627e-08 3.9915539732445887e-09 0
6.4314400448617128e-08 -4.2942257415915069e-10 0
6.8339101118387475e-08 1.4633607381532117e-08 0
-3.4725116033969964e-09 7.1492642613298820e-09 0
-2.4172737694067671e-09 -5.8754356423770199e-09 0
2.2795454450257090e-07 1.2963868113673920e-08 0
2.5045518108927931e-07 3.0246668567839770e-08 0
-3.7234890984530458e-09 -8.0141277886195094e-09 0
-3.7899092143645848e-09 1.1237986278993515e-08 0
6.4134644420550790e-08 8.8393357033968073e-09 0
7.3613755270706553e-08 5.7761544374067124e-09 0
6.3961024390221402e-08 -7.6349673868327555e-10 0
7.2825976894220199e-08 1.7124522020697938e-08 0
-3.4707072516760386e-09 6.9556586927323762e-09 0
-2.3547372414106972e-09 -5.7012198377110151e-09 0
2.2675761000757370e-07 1.2649474165142518e-08 0
2.7079221374447561e-07 3.6415616830960706e-08 0
-3.7632865998224588e-09 -8.0830639750527481e-09 0
-4.3294922559169619e-09 1.2763206772759987e-08 0
6.3823196396963299e-08 8.9269260031922743e-09 0
8.0734135587796410e-08 7.3998089428180941e-09 0
6.3666990227466913e-08 -5.6237655292761016e-10 0
7.9689122951454122e-08 1.9809665128656052e-08 0
-3.5432927578527574e-09 7.1567620308944161e-09 0
-2.4254603441439324e-09 -6.0220645002824433e-09 0
2.2560373518804333e-07 1.4550972620254985e-08 0
3.0030122289154627e-07 4.2299157048849556e-08 0
-3.6997476683235670e-09 -7.7338417687434842e-09 0
-4.9770114417874705e-09 1.4408218292135895e-08 0
6.3244503288926543e-08 9.9675278934672406e-09 0
9.0543445361010490e-08 8.6017626736733693e-09 0
6.3216000062960318e-08 5.9965560114795404e-10 0
8.9276773487014202e-08 2.2528072207831245e-08 0
-3.6297767373476650e-09 7.5823499157386550e-09 0
-2.5859301176547565e-09 -6.7489706833547210e-09 0
2.2342542456268090e-07 1.7707982488207460e-08 0
3.4080259385762167e-07 4.8986006715140138e-08 0
-3.6881387026932823e-09 -7.1037933856087677e-09 0
-5.9097722940189695e-09 1.6406204522288420e-08 0
6.3362028357048479e-08 1.1228456480300447e-08 0
1.0468572688653875e-07 1.0143374597329057e-08 0
6.3488391536120473e-08 2.0477458092880500e-09 0
1.0310750070538316e-07 2.6163652715864724e-08 0
-3.9788556783959903e-09 9.4556357652182267e-09 0
-3.0197297908501249e-09 -8.8111331394376751e-09 0
2.2657183251491035e-07 2.8682479528739207e-08 0
4.0060406602224701e-07 5.3493291303051506e-08 0
-3.2629285391164848e-09 -5.2289198683001734e-09 0
-6.9550710389570896e-09 1.8295687427066332e-08 0
6.2580208088796153e-08 1.6922536704802741e-08 0
1.2364091461297288e-07 9.3245012602460031e-09 0
6.3239074660996803e-08 7.5855181020405134e-09 0
1.2193199342953002e-07 2.8607451913273578e-08 0
-3.8357449574668346e-09 1.0148312227647368e-08 0
-3.1859226573914822e-09 -1.0476453315836401e-08 0
2.2727539959465042e-07 3.1946209664308172e-08 0
4.8527474741963020e-07 6.7815681142185039e-08 0
-4.7403424612021379e-09 -4.6791563440833618e-09 0
-1.0111747165106367e-08 2.2318011811222947e-08 0
7.5045699433603064e-08 1.7857592781173977e-08 0
1.6170833084573674e-07 1.4288929923994318e-08 0
7.5538905711521650e-08 8.5354537628523832e-09 0
1.5858796921358082e-07 3.8579119210779767e-08 0
-6.6006024822023841e-09 2.6297011699240330e-08 0
-5.3884544540479044e-09 -2.3478465051432115e-08 0
3.1993820652395472e-07 1.1391416085394582e-07 0
6.8003671984538394e-07 4.9012016266534369e-08 0
-3.8008438375945352e-09 8.5680417131580177e-09 0
-1.4474499375409419e-08 2.1121717849505630e-08 0
1.0834433672183201e-07 8.0923990923123684e-08 0
2.3816135166038938e-07 -7.1330680128404192e-09 0
8.2103908000059175e-08 1.1595469132125388e-07 0
2.0829774000222980e-07 -2.2262991079313418e-08 0
4.7228002333764742e-07 3.7399723118065815e-07 0
5.6012814445634204e-07 -6.0334401422594017e-08 0
3.2956875775783317e-07 2.9637490613909547e-07 0
4.3885940291974242e-07 2.7324482642039157e-07 0
3.2257410672419679e-07 1.8197679238841834e-07 0
3.2263315531903621e-07 1.8738888590572044e-07 0
4.8551455977322560e-07 2.7085298661703938e-08 0
3.3250555410349511e-07 -1.6253751362800966e-07 0

VECTORS Displacements2 float
-1.4282383386210064e-17 7.9777147445159688e-18 0
-8.1125976225611403e-24 -4.4713130068517549e-24 0
1.0527710982581595e-07 -4.5626516562303133e-08 0
1.1441717960249788e-07 6.0575467860505057e-08 0
1.1996677951123579e-07 -2.2173432737129329e-08 0
1.2264583176430172e-07 4.0097290557016057e-08 0
7.3183018998666509e-08 -3.7573754245010905e-09 0
7.3038305073380466e-08 1.7355635375619533e-08 0
9.4452273224784380e-10 1.1225382775985697e-08 0
2.2525432212670881e-09 -9.5220506044084181e-09 0
2.8133478888684217e-07 1.9451728235362630e-08 0
2.8171871772361179e-07 2.2372289551796443e-08 0
7.1000791929865688e-10 -1.0145833413297890e-08 0
1.5715235684632913e-09 1.2032508197077433e-08 0
7.9231859739835113e-08 1.2249405486576850e-08 0
8.0415556772514206e-08 2.2505421506346719e-09 0
7.9190854909023990e-08 -9.8853396795136252e-11 0
8.0145825332786284e-08 1.5042511261889562e-08 0
7.1899030427422690e-10 1.0341332811646458e-08 0
2.2525931060258488e-09 -8.7384170144983991e-09 0
2.7897820111252140e-07 1.7168908159778505e-08 0
2.8751192470226268e-07 2.8673573819145630e-08 0
5.4167763457147624e-10 -1.0606363076553813e-08 0
1.3181264859916256e-09 1.3440168288810497e-08 0
7.8752049609170130e-08 1.1259100785354434e-08 0
8.3560793337925865e-08 4.6111981954138048e-09 0
7.8579276440947565e-08 -9.8820730090648698e-10 0
8.2901875600521048e-08 1.7893792490887454e-08 0
7.5734227352871131e-10 9.7702447101741588e-09 0
2.7667967489095383e-09 -7.9892416987699846e-09 0
2.7750327665951538e-07 1.5274534811470213e-08 0
3.0251388273693484e-07 3.6092241112514487e-08 0
3.9189092373573143e-10 -1.1019486203427446e-08 0
1.0633404532175784e-09 1.5302826426738106e-08 0
7.8412010766483645e-08 1.0754185245670955e-08 0
8.9338969212307627e-08 6.8798465950205002e-09 0
7.8181201215331238e-08 -1.3766323183491806e-09 0
8.8303754802427228e-08 2.1028076667990715e-08 0
7.1960925136307963e-10 9.5333668046075494e-09 0
3.3122557658773544e-09 -7.7131455072548448e-09 0
2.7615369058524782e-07 1.5011248906260165e-08 0
3.2702218387528108e-07 4.3631185963309731e-08 0
3.0496593017159655e-10 -1.1083623467759214e-08 0
8.5937996991549611e-10 1.7408199889533954e-08 0
7.8059767270378476e-08 1.0906900388383660e-08 0
9.7988042322021092e-08 8.9316463635569451e-09 0
7.7856302012280511e-08 -1.0736695041595277e-09 0
9.6585803206397076e-08 2.4382140910666729e-08 0
5.7462007210735793e-10 9.8460487638151743e-09 0
3.8985287127868956e-09 -8.1102835578499090e-09 0
2.7485971358870169e-07 1.7476285525929211e-08 0
3.6261166406289171e-07 5.0811048688255953e-08 0
3.4568771460167565e-10 -1.0557847776302786e-08 0
7.4043697056348342e-10 1.9671602604613760e-08 0
7.7372244558470261e-08 1.2271851879474338e-08 0
1.0990225788365184e-07 1.0448007557098548e-08 0
7.7342654880170473e-08 4.4602843584430203e-10 0
1.0817070295806478e-07 2.7771948352053547e-08 0
3.8471143310066080e-10 1.0488595105799860e-08 0
4.6250124063950382e-09 -9.0662423741626623e-09 0
2.7230860829929000e-07 2.1501289323545418e-08 0
4.1147739131784661e-07 5.8952446285527912e-08 0
3.1999096915296765e-10 -9.6372108802782936e-09 0
5.4488326970748213e-10 2.2419018512423814e-08 0
7.7558033805194059e-08 1.3949512502317485e-08 0
1.2709230076440596e-07 1.2352421453950370e-08 0
7.7698016417167529e-08 2.4027429938120550e-09 0
1.2487254628775742e-07 3.2231669989987324e-08 0
-8.6021638558211365e-11 1.3114551245174983e-08 0
5.4256435497174920e-09 -1.1814214777187057e-08 0
2.7623736204909419e-07 3.5145384995306751e-08 0
4.8364026737665054e-07 6.4458036239075505e-08 0
8.9559447858888272e-10 -6.9322135928119716e-09 0
6.6221282865748465e-10 2.4996593844180936e-08 0
7.6551225010028715e-08 2.1184682435521384e-08 0
1.5010798609913047e-07 1.1365953494785590e-08 0
7.7417310371805784e-08 9.3941698448044273e-09 0
1.4763080944329999e-07 3.5331513595564504e-08 0
9.3407189373332605e-11 1.4246904420892492e-08 0
7.1564203183269182e-09 -1.4085175313547269e-08 0
2.7698938567793054e-07 3.9395322415432318e-08 0
5.8580772050023354e-07 8.1843651928594841e-08 0
-7.0005179504868466e-10 -6.0536935189694343e-09 0
-1.0764629134007849e-09 3.0530296054676173e-08 0
9.2013651865494610e-08 2.2603554352145122e-08 0
1.9650115238898791e-07 1.7353383553525836e-08 0
9.2165621327971681e-08 1.1404150316522541e-08 0
1.9170554932766685e-07 4.7096815680180300e-08 0
-2.0473907704248729e-09 3.6223487076627205e-08 0
8.5145640182580852e-09 -3.1500481011561942e-08 0
3.8909341320567865e-07 1.4014868462195783e-07 0
8.2079815998015416e-07 5.9027523968781533e-08 0
3.5114633835252866e-09 1.3273920410692997e-08 0
-1.2297921671410923e-09 2.9038659034016092e-08 0
1.3067230589076623e-07 1.0539733070938068e-07 0
2.8602315534420949e-07 -1.1478786018143885e-08 0
1.1029892814469991e-07 1.6259833176132102e-07 0
2.6569893970050447e-07 -3.6588150519480699e-08 0
5.9287818059297115e-07 4.8785567314972075e-07 0
6.9396043502579892e-07 -9.2856913345801159e-08 0
4.5572467215554877e-07 4.0359980954583294e-07 0
5.7388248004624302e-07 3.5148561520096064e-07 0
4.2127989266402571e-07 2.3059822283695052e-07 0
4.2236686069441882e-07 2.2751310264497785e-07 0
6.2609610815955241e-07 2.3711795074327497e-08 0
4.5446760264793251e-07 -2.2083871206858799e-07 0

VECTORS Forces1 float
-2.6361026865289284e-02 1.7062413682750625e-02 0
-2.9771623973052878e-02 -1.6787020890738101e-02 0
3.7988067110748147e-01 -2.1185830422197671e-01 0
4.0746872644107218e-01 2.2618049541850230e-01 0
4.1651590476119088e-01 -6.4894320061944108e-02 0
4.4583900017016215e-01 7.0210456607095822e-02 0
2.6474905388944081e-01 1.0897460513746279e-02 0
2.8338644944930608e-01 -1.1173325383230280e-02 0
-3.9927073167758835e-02 -1.5417962209807660e-03 0
-4.2812212746342324e-02 1.5181831162253280e-03 0
1.0103313812677839e+00 -1.0815471851979661e-03 0
1.0845592452172117e+00 8.3371811652656665e-03 0
-4.2578654070554542e-02 2.5381520814568484e-05 0
-4.6138993882064876e-02 -5.7609039915791551e-04 0
2.8600158361378270e-01 -9.6863774239955194e-04 0
3.0953011964430488e-01 4.6799261381954204e-03 0
2.8602444118296000e-01 -9.7470628554538182e-04 0
3.0956119894729178e-01 4.6910247295399417e-03 0
-4.2588061664817649e-02 6.9683396315734086e-05 0
-4.6196962066542384e-02 -6.4125926335859397e-04 0
1.0030551238029839e+00 -6.3589655493298180e-03 0
1.1014711987825783e+00 2.5996120696114074e-02 0
-4.2257418699627999e-02 3.1422386351216073e-04 0
-4.7367656057483089e-02 -1.4301678527808097e-03 0
2.8376768640409356e-01 -2.6747212982712845e-03 0
3.1783330818876487e-01 1.0239999794797705e-02 0
2.8376617710660124e-01 -2.6765626469361014e-03 0
3.1784585085875033e-01 1.0245974965278260e-02 0
-4.2240461634476464e-02 3.1958413928218852e-04 0
-4.7447538962528138e-02 -1.4639044522781815e-03 0
9.9595529574204245e-01 -1.0775915894639875e-02 0
1.1452395891178484e+00 4.5452096660183593e-02 0
-4.1921557304119561e-02 3.9939365474251032e-04 0
-4.9777340837343455e-02 -2.2119330552290051e-03 0
2.8158615495970019e-01 -3.2442210312278404e-03 0
3.3422638729094295e-01 1.5528246662232459e-02 0
2.8158358289383817e-01 -3.2460802954328597e-03 0
3.3424558900200857e-01 1.5534806549736850e-02 0
-4.1904874031343936e-02 3.9176621847815141e-04 0
-4.9916749298046577e-02 -2.2401341372238152e-03 0
9.8678207636500137e-01 -1.0243500656478964e-02 0
1.2172992674688927e+00 6.3282726466708503e-02 0
-4.1485412776586461e-02 2.4577736574943473e-04 0
-5.3461504246646280e-02 -2.9120289035396165e-03 0
2.7871784293487861e-01 -2.2526172450489353e-03 0
3.5914785333362209e-01 2.0307205668269462e-02 0
2.7871381578021776e-01 -2.2539022208924379e-03 0
3.5917457184459278e-01 2.0314257145262502e-02 0
-4.1461897228579042e-02 2.1778641711324927e-04 0
-5.3665791871577564e-02 -2.9303734075133451e-03 0
9.7505221166851253e-01 -1.4099199088048161e-03 0
1.3222360262799229e+00 7.7870471102322883e-02 0
-4.0805176520447489e-02 -3.6700985139602390e-04 0
-5.8605973609557716e-02 -3.4224100754653795e-03 0
2.7421073458903311e-01 1.7831638584009969e-03 0
3.9385734774761572e-01 2.3864185052861454e-02 0
2.7420639194799762e-01 1.7805207231483496e-03 0
3.9389349515499977e-01 2.3873615351620438e-02 0
-4.0782950871673801e-02 -4.1591970601780937e-04 0
-5.8900857420240434e-02 -3.4320795758926710e-03 0
9.5681948823317686e-01 1.2580144692280731e-02 0
1.4660285700944840e+00 9.2571932187587636e-02 0
-4.0367455604234451e-02 -1.0743882668957469e-03 0
-6.5996318265076709e-02 -4.0480807646065360e-03 0
2.7144329297809588e-01 6.2538888272139275e-03 0
4.4366735769029014e-01 2.8364808075038318e-02 0
2.7143624400676558e-01 6.2508290982716090e-03 0
4.4371213691143496e-01 2.8376545628587112e-02 0
-4.0341322611542045e-02 -1.1953611063748419e-03 0
-6.6423825948916562e-02 -4.0223209257532434e-03 0
9.5319521736277935e-01 5.4728421925997098e-02 0
1.6780619756767190e+00 9.5094773395071150e-02 0
-3.9316186280458632e-02 -3.9142896431697341e-03 0
-7.6105435677101999e-02 -3.6432572080557614e-03 0
2.6433154979767332e-01 2.4940523184527309e-02 0
5.1135249701565477e-01 2.6061772938508230e-02 0
2.6431685346622913e-01 2.4904173085544903e-02 0
5.1138806843109719e-01 2.6090585215135235e-02 0
-3.9525440950643163e-02 -4.1147686735362203e-03 0
-7.6968462617846733e-02 -3.6111995451158373e-03 0
9.3905553970214839e-01 7.0209472740671797e-02 0
1.9761338605791736e+00 1.2579724086225436e-01 0
-4.5382042069528679e-02 -4.2083389236948513e-03 0
-9.6220676401417321e-02 -5.5073639751987199e-03 0
3.0398366618575290e-01 2.3658366700298646e-02 0
6.4373190676902670e-01 4.0037650210557517e-02 0
3.0391670743949406e-01 2.3506034988956558e-02 0
6.4362691473469635e-01 4.0111448360870348e-02 0
-4.5974325905603443e-02 -5.5532971824365533e-03 0
-9.8360388377303792e-02 -4.7890487853179354e-03 0
1.2331887070755818e+00 3.5834805241997225e-01 0
2.6697753486522013e+00 9.4324857261812549e-03 0
-5.5544794086550851e-02 -3.2748027392732304e-02 0
-1.3719037681894602e-01 1.0909089679908165e-02 0
4.1557715070610091e-01 2.1018561135388725e-01 0
9.4644134894162502e-01 -4.6256121614155384e-02 0
2.6073087955105018e-01 1.0964666865039778e-01 0
7.3489610187743581e-01 -3.6229823052389490e-02 0
1.5029079133438523e+00 9.3508485628663218e-01 0
1.9401563192462514e+00 -4.1092138545938149e-02 0
9.8628002194683498e-02 1.1622484968167482e-01 0
1.0685195339374505e+00 7.2949518457485130e-01 0
7.0285383610600516e-01 6.1405332679831115e-01 0
6.5057604580157757e-01 6.6083049634263924e-01 0
1.2136476886290417e+00 2.8770291298679757e-01 0
2.0797765959549316e-01 -7.3378589897433330e-02 0

VECTORS Forces2 float
-1.9114313187197064e-02 1.2699505200545615e-02 0
-1.6092719960184281e-02 -8.8586893876180500e-03 0
2.8763638679889936e-01 -1.6105436460209951e-01 0
2.3601702125392338e-01 1.3153263163943824e-01 0
3.1432476472157828e-01 -4.9087829002363095e-02 0
2.5752335435668799e-01 4.0927969901734425e-02 0
1.9923800921524992e-01 8.5475729924506891e-03 0
1.6309268138408833e-01 -6.5857524351375200e-03 0
-3.0045861424667482e-02 -1.2347046389316839e-03 0
-2.4692521248914533e-02 9.2411449218888846e-04 0
7.5418424495654746e-01 -8.1739950484279963e-04 0
6.1824950465961026e-01 8.1529058404978053e-03 0
-3.1729074647822361e-02 5.4993627043030455e-05 0
-2.6356968843808608e-02 -6.2924099888741678e-04 0
2.1312678919984304e-01 -1.1514916079306806e-03 0
1.7659037889918941e-01 5.0098414151087773e-03 0
2.1314346252541660e-01 -1.1571173219421642e-03 0
1.7661186041043042e-01 5.0184698933487528e-03 0
-3.1734014193997837e-02 9.1670757009465308e-05 0
-2.6390906199735213e-02 -6.8578412596265940e-04 0
7.4963296764139375e-01 -7.4117931417479414e-03 0
6.3431461104000619e-01 2.8206194811801977e-02 0
-3.1677175936526351e-02 3.6438711683603757e-04 0
-2.7662185610086983e-02 -1.5553995449914596e-03 0
2.1280664864216442e-01 -3.0575387123293672e-03 0
1.8559060378002090e-01 1.1136125610011229e-02 0
2.1280718846669799e-01 -3.0597261249833952e-03 0
1.8560390934330268e-01 1.1142777387410393e-02 0
-3.1677160369257835e-02 3.7006713348156111e-04 0
-2.7749367063463547e-02 -1.5922945293053181e-03 0
7.5056440100195398e-01 -1.2293469277736930e-02 0
6.8109763456492678e-01 4.9507622565889302e-02 0
-3.1772892931344651e-02 4.6167724818505683e-04 0
-3.0263605162039811e-02 -2.4136978444814043e-03 0
2.1354212744158813e-01 -3.7128173943786714e-03 0
2.0328793320819724e-01 1.6944128565346866e-02 0
2.1354258288995481e-01 -3.7149770710151269e-03 0
2.0330865142746207e-01 1.6951396267155909e-02 0
-3.1781932107508369e-02 4.5334071720233159e-04 0
-3.0416652827762351e-02 -2.4446670580319917e-03 0
7.5432420014228752e-01 -1.1869712398785934e-02 0
7.5986183963105169e-01 6.9179540572070236e-02 0
-3.1985692538043883e-02 3.0049728069221193e-04 0
-3.4318086222190576e-02 -3.1881360250606136e-03 0
2.1505897071597765e-01 -2.6776205230200798e-03 0
2.3072905568835197e-01 2.2232268525705173e-02 0
2.1505905944902620e-01 -2.6791500981801753e-03 0
2.3075848095145049e-01 2.2240108447774319e-02 0
-3.1998343882595655e-02 2.7000016609749329e-04 0
-3.4545422153247289e-02 -3.2086205509723516e-03 0
7.6054680545733000e-01 -2.3938084968798995e-03 0
8.7611791714845477e-01 8.5427534338898520e-02 0
-3.2165095632821550e-02 -3.6207798072317111e-04 0
-4.0056444995731570e-02 -3.7619680935798592e-03 0
2.1634585649687393e-01 1.6823427549167182e-03 0
2.6946918796527847e-01 2.6230382507018410e-02 0
2.1634674335334042e-01 1.6793147852497972e-03 0
2.6950982417582847e-01 2.6240888727840205e-02 0
-3.2191396965334317e-02 -4.1542426194178517e-04 0
-4.0387735060914164e-02 -3.7732220922829891e-03 0
7.6551690195538669e-01 1.2715603223345091e-02 0
1.0377239500472493e+00 1.0194813902396618e-01 0
-3.2867554103989866e-02 -1.1267234912525190e-03 0
-4.8396688379022203e-02 -4.4689534270054782e-03 0
2.2125716109251192e-01 6.5084644720781364e-03 0
3.2572716649045158e-01 3.1309245341800365e-02 0
2.2125623138472869e-01 6.5049270872839099e-03 0
3.2577939568006586e-01 3.1322523332774507e-02 0
-3.2905534500172896e-02 -1.2586081352686379e-03 0
-4.8881714908885827e-02 -4.4422335945146938e-03 0
7.9318764217631832e-01 5.8444809615085032e-02 0
1.2788269639069465e+00 1.0574079510633642e-01 0
-3.3249077939529657e-02 -4.2117593388909733e-03 0
-6.0027061358417781e-02 -4.0879799734801735e-03 0
2.2375835467146180e-01 2.6802160881446484e-02 0
4.0373896317576119e-01 2.9220788852375442e-02 0
2.2374991215549225e-01 2.6762732832244385e-02 0
4.0378709729679335e-01 2.9253400931256394e-02 0
-3.3558145336116944e-02 -4.4306522176312630e-03 0
-6.0989949675023282e-02 -4.0520037167909584e-03 0
8.1735722342538619e-01 7.5530071170558835e-02 0
1.6235499538946185e+00 1.4021984207566474e-01 0
-4.1583759334919229e-02 -4.5730247949142292e-03 0
-8.2870426143343279e-02 -6.1362952148962804e-03 0
2.7851788529593724e-01 2.5709617074462558e-02 0
5.5461146015829388e-01 4.4630844890493654e-02 0
2.7845044596264279e-01 2.5543237747253904e-02 0
5.5453875183321266e-01 4.4719621521757430e-02 0
-4.2404288286929548e-02 -6.0275108891502472e-03 0
-8.5232252528305477e-02 -5.3532659391688237e-03 0
1.1910708833373918e+00 3.8610542940653780e-01 0
2.4217575888688483e+00 2.1211632632654145e-02 0
-5.6698770108022843e-02 -3.5205074060545793e-02 0
-1.3109119666324504e-01 1.1076392102762699e-02 0
4.2397607289679745e-01 2.2504525047509991e-01 0
9.0910900350580970e-01 -4.4980533908304081e-02 0
2.5871086223504336e-01 1.1718283189133097e-01 0
6.9391209883082072e-01 -3.1041716261189491e-02 0
1.6032238833347427e+00 1.0018812884517228e+00 0
1.9849937681327217e+00 -7.6560974322135211e-02 0
1.0925524737572022e-01 1.2646844763272033e-01 0
1.1376593872893312e+00 7.7346645603097341e-01 0
7.4332824578490420e-01 6.1841468373618202e-01 0
6.9086162773025306e-01 6.6032490698761337e-01 0
1.2472120226670804e+00 2.5933722162100065e-01 0
2.0710055075622899e-01 -8.0323998825799839e-02 0

VECTORS Forces3 float
-2.6198839706533167e-02 1.7136870112844378e-02 0
-2.6600730863164650e-02 -1.4882724560253465e-02 0
3.8344297100479829e-01 -2.1421482385741134e-01 0
3.7225450674314881e-01 2.0689420259809560e-01 0
4.1959052771344985e-01 -6.5406293552394884e-02 0
4.0662801886088396e-01 6.4126177479720797e-02 0
2.6633203919565257e-01 1.1228569082403229e-02 0
2.5805701017816729e-01 -1.0409629031429722e-02 0
-4.0164396115114832e-02 -1.6015020040508925e-03 0
-3.9011836407323496e-02 1.4301889400136218e-03 0
1.0120693254636060e+00 -9.3913310538003649e-04 0
9.8314015987369296e-01 8.9587879432715348e-03 0
-4.2630881842044360e-02 4.3967433309931224e-05 0
-4.1847956943057436e-02 -6.7811541291314071e-04 0
2.8634439599796313e-01 -1.1892760507475027e-03 0
2.8061547735500192e-01 5.4567160574500112e-03 0
2.8636710021071182e-01 -1.1959601335734943e-03 0
2.8064551461620946e-01 5.4681224499511958e-03 0
-4.2639123385116440e-02 9.0351232811105032e-05 0
-4.1899793507254694e-02 -7.4825086637721986e-04 0
1.0059907524540961e+00 -7.7067302087603868e-03 0
1.0020030514895129e+00 3.0803931608027624e-02 0
-4.2440147186717944e-02 3.7595795889735589e-04 0
-4.3290739986308058e-02 -1.7010169123383523e-03 0
2.8504254994974432e-01 -3.1829361963856329e-03 0
2.9047188099586957e-01 1.2170236399272555e-02 0
2.8504202748823487e-01 -3.1851430440788626e-03 0
2.9048648838028507e-01 1.2177444639766890e-02 0
-4.2430780857751475e-02 3.8179152267483758e-04 0
-4.3385180180764135e-02 -1.7416020017789894e-03 0
1.0024136524673071e+00 -1.2690682021831512e-02 0
1.0530030180482046e+00 5.4103869370460536e-02 0
-4.2293672973584384e-02 4.6712161038109335e-04 0
-4.6112565625340753e-02 -2.6394867747695861e-03 0
2.8414788152558623e-01 -3.7933327186345268e-03 0
3.0966607639560489e-01 1.8518039387172783e-02 0
2.8414659508856416e-01 -3.7955096257167118e-03 0
3.0968858563575496e-01 1.8525910533571020e-02 0
-4.2288682577560716e-02 4.5758914898779205e-04 0
-4.6277314617439010e-02 -2.6736219933336191e-03 0
9.9905200942544781e-01 -1.1869703913061502e-02 0
1.1380398665969333e+00 7.5630000238142786e-02 0
-4.2149743234136117e-02 2.7671067589220689e-04 0
-5.0475264439795241e-02 -3.4884268976204287e-03 0
2.8326397723877567e-01 -2.5627020154500631e-03 0
3.3918652191016346e-01 2.4312019136442257e-02 0
2.8326159465600370e-01 -2.5641680645780269e-03 0
3.3921819026781008e-01 2.4320499790145941e-02 0
-4.2142466861291673e-02 2.4304213812783074e-04 0
-5.0718461156676956e-02 -3.5113242590121170e-03 0
9.9535427823420275e-01 -1.1622617317113078e-03 0
1.2626952063431880e+00 9.3478441782356828e-02 0
-4.1834753010849643e-02 -4.6195181143302293e-04 0
-5.6607809678290294e-02 -4.1215349842350195e-03 0
2.8122687029277932e-01 2.3049302826988849e-03 0
3.8057584389509230e-01 2.8717637981958945e-02 0
2.8122467770145448e-01 2.3019004292631645e-03 0
3.8061913563050659e-01 2.8728960770602548e-02 0
-4.1835317622212521e-02 -5.2047725962292395e-04 0
-5.6960440978899088e-02 -4.1346215737114870e-03 0
9.8691029841157007e-01 1.5743737771457652e-02 0
1.4347664175692605e+00 1.1163615315584390e-01 0
-4.1940274830791650e-02 -1.3146319377420577e-03 0
-6.5467358571030365e-02 -4.8993487576531516e-03 0
2.8213970610558309e-01 7.7019293023860604e-03 0
4.4031389306175550e-01 3.4294426704269895e-02 0
2.8213481882621072e-01 7.6984884035047087e-03 0
4.4036857699159115e-01 3.4308623001433475e-02 0
-4.1944227001855405e-02 -1.4586505278547104e-03 0
-6.5981052337747370e-02 -4.8719865668770028e-03 0
9.9928730943690214e-01 6.6136357070888843e-02 0
1.6898883393573971e+00 1.1612285620992784e-01 0
-4.1485939774030173e-02 -4.7026801147109255e-03 0
-7.7707736064859950e-02 -4.5083395626598771e-03 0
2.7901886358527228e-01 3.0005858941502123e-02 0
5.2234835760596943e-01 3.2165091636282145e-02 0
2.7900534821120349e-01 2.9963508214441451e-02 0
5.2239545641059892e-01 3.2199416873770599e-02 0
-4.1775018075427786e-02 -4.9416679476547588e-03 0
-7.8735104265970038e-02 -4.4734369955605037e-03 0
1.0024522637092053e+00 8.5540533542099464e-02 0
2.0516861562549318e+00 1.5379512563124723e-01 0
-4.9540085882122650e-02 -5.1368724457110746e-03 0
-1.0187063689608224e-01 -6.7440074116287803e-03 0
3.3181178410038797e-01 2.9100033842767013e-02 0
6.8166169704101487e-01 4.8893490199262195e-02 0
3.3173424938686402e-01 2.8920714592175580e-02 0
6.8156137296489960e-01 4.8983639362935393e-02 0
-5.0325564577664537e-02 -6.7160818557400297e-03 0
-1.0440053007507630e-01 -5.9151031447570029e-03 0
1.3765247475830569e+00 4.2581490120015530e-01 0
2.8899062958793231e+00 2.5099182788610921e-02 0
-6.3353952064674202e-02 -3.8518680802723179e-02 0
-1.5195020480899235e-01 1.1815957357857140e-02 0
4.7369303461653728e-01 2.4713471447520899e-01 0
1.0508190092397123e+00 -4.7486165677595969e-02 0
2.9313775856215601e-01 1.2900847418096886e-01 0
8.1036776997972637e-01 -3.5492401315776238e-02 0
1.7518430808898042e+00 1.0984390448094903e+00 0
2.2107884859730791e+00 -5.1950734048548559e-02 0
1.1737895062162540e-01 1.3688470729671096e-01 0
1.2437962824011861e+00 8.5330598556639725e-01 0
8.1315107510686913e-01 7.0464055999147590e-01 0
7.5310648889381226e-01 7.5568473850937035e-01 0
1.3833993379731975e+00 3.2195337773906718e-01 0
2.3410784993523967e-01 -8.5355812404890624e-02 0

