# vtk DataFile Version 2.0

ASCII

DATASET UNSTRUCTURED_GRID

POINTS 106 float 

-5.0000000000000003e-02  0.0000000000000000e+00  0.0000000000000000e+00
5.0000000000000003e-02  0.0000000000000000e+00  0.0000000000000000e+00
-5.0000000000000003e-02  2.0000000000000000e-02  0.0000000000000000e+00
5.0000000000000003e-02  2.0000000000000000e-02  0.0000000000000000e+00
-5.0000000000000003e-02  4.0000000000000001e-02  0.0000000000000000e+00
5.0000000000000003e-02  4.0000000000000001e-02  0.0000000000000000e+00
-5.0000000000000003e-02  5.9999999999999998e-02  0.0000000000000000e+00
5.0000000000000003e-02  5.9999999999999998e-02  0.0000000000000000e+00
-5.0000000000000003e-02  8.0000000000000002e-02  0.0000000000000000e+00
5.0000000000000003e-02  8.0000000000000002e-02  0.0000000000000000e+00
-5.0000000000000003e-02  1.0000000000000001e-01  0.0000000000000000e+00
5.0000000000000003e-02  1.0000000000000001e-01  0.0000000000000000e+00
-5.0000000000000003e-02  1.2000000000000000e-01  0.0000000000000000e+00
5.0000000000000003e-02  1.2000000000000000e-01  0.0000000000000000e+00
-5.0000000000000003e-02  1.4000000000000001e-01  0.0000000000000000e+00
5.0000000000000003e-02  1.4000000000000001e-01  0.0000000000000000e+00
-5.0000000000000003e-02  1.6000000000000000e-01  0.0000000000000000e+00
5.0000000000000003e-02  1.6000000000000000e-01  0.0000000000000000e+00
-5.0000000000000003e-02  1.7999999999999999e-01  0.0000000000000000e+00
5.0000000000000003e-02  1.7999999999999999e-01  0.0000000000000000e+00
-5.0000000000000003e-02  2.0000000000000001e-01  0.0000000000000000e+00
5.0000000000000003e-02  2.0000000000000001e-01  0.0000000000000000e+00
-5.0000000000000003e-02  2.2000000000000000e-01  0.0000000000000000e+00
5.0000000000000003e-02  2.2000000000000000e-01  0.0000000000000000e+00
-5.0000000000000003e-02  2.3999999999999999e-01  0.0000000000000000e+00
5.0000000000000003e-02  2.3999999999999999e-01  0.0000000000000000e+00
-5.0000000000000003e-02  2.6000000000000001e-01  0.0000000000000000e+00
5.0000000000000003e-02  2.6000000000000001e-01  0.0000000000000000e+00
-5.0000000000000003e-02  2.8000000000000003e-01  0.0000000000000000e+00
5.0000000000000003e-02  2.8000000000000003e-01  0.0000000000000000e+00
-5.0000000000000003e-02  2.9999999999999999e-01  0.0000000000000000e+00
5.0000000000000003e-02  2.9999999999999999e-01  0.0000000000000000e+00
-5.0000000000000003e-02  3.2000000000000001e-01  0.0000000000000000e+00
5.0000000000000003e-02  3.2000000000000001e-01  0.0000000000000000e+00
-5.0000000000000003e-02  3.4000000000000002e-01  0.0000000000000000e+00
5.0000000000000003e-02  3.4000000000000002e-01  0.0000000000000000e+00
-5.0000000000000003e-02  3.5999999999999999e-01  0.0000000000000000e+00
5.0000000000000003e-02  3.5999999999999999e-01  0.0000000000000000e+00
-5.0000000000000003e-02  3.8000000000000000e-01  0.0000000000000000e+00
5.0000000000000003e-02  3.8000000000000000e-01  0.0000000000000000e+00
-5.0000000000000003e-02  4.0000000000000002e-01  0.0000000000000000e+00
5.0000000000000003e-02  4.0000000000000002e-01  0.0000000000000000e+00
-5.0000000000000003e-02  4.1999999999999998e-01  0.0000000000000000e+00
5.0000000000000003e-02  4.1999999999999998e-01  0.0000000000000000e+00
-5.0000000000000003e-02  4.4000000000000000e-01  0.0000000000000000e+00
5.0000000000000003e-02  4.4000000000000000e-01  0.0000000000000000e+00
-5.0000000000000003e-02  4.6000000000000002e-01  0.0000000000000000e+00
5.0000000000000003e-02  4.6000000000000002e-01  0.0000000000000000e+00
-5.0000000000000003e-02  4.7999999999999998e-01  0.0000000000000000e+00
5.0000000000000003e-02  4.7999999999999998e-01  0.0000000000000000e+00
-5.0000000000000003e-02  5.0000000000000000e-01  0.0000000000000000e+00
5.0000000000000003e-02  5.0000000000000000e-01  0.0000000000000000e+00
-5.0000000000000003e-02  5.2000000000000002e-01  0.0000000000000000e+00
5.0000000000000003e-02  5.2000000000000002e-01  0.0000000000000000e+00
-5.0000000000000003e-02  5.4000000000000004e-01  0.0000000000000000e+00
5.0000000000000003e-02  5.4000000000000004e-01  0.0000000000000000e+00
-5.0000000000000003e-02  5.6000000000000005e-01  0.0000000000000000e+00
5.0000000000000003e-02  5.6000000000000005e-01  0.0000000000000000e+00
-5.0000000000000003e-02  5.7999999999999996e-01  0.0000000000000000e+00
5.0000000000000003e-02  5.7999999999999996e-01  0.0000000000000000e+00
-5.0000000000000003e-02  5.9999999999999998e-01  0.0000000000000000e+00
5.0000000000000003e-02  5.9999999999999998e-01  0.0000000000000000e+00
-5.0000000000000003e-02  6.2000000000000000e-01  0.0000000000000000e+00
5.0000000000000003e-02  6.2000000000000000e-01  0.0000000000000000e+00
-5.0000000000000003e-02  6.4000000000000001e-01  0.0000000000000000e+00
5.0000000000000003e-02  6.4000000000000001e-01  0.0000000000000000e+00
-5.0000000000000003e-02  6.6000000000000003e-01  0.0000000000000000e+00
5.0000000000000003e-02  6.6000000000000003e-01  0.0000000000000000e+00
-5.0000000000000003e-02  6.8000000000000005e-01  0.0000000000000000e+00
5.0000000000000003e-02  6.8000000000000005e-01  0.0000000000000000e+00
-5.0000000000000003e-02  6.9999999999999996e-01  0.0000000000000000e+00
5.0000000000000003e-02  6.9999999999999996e-01  0.0000000000000000e+00
-5.0000000000000003e-02  7.1999999999999997e-01  0.0000000000000000e+00
5.0000000000000003e-02  7.1999999999999997e-01  0.0000000000000000e+00
-5.0000000000000003e-02  7.3999999999999999e-01  0.0000000000000000e+00
5.0000000000000003e-02  7.3999999999999999e-01  0.0000000000000000e+00
-5.0000000000000003e-02  7.6000000000000001e-01  0.0000000000000000e+00
5.0000000000000003e-02  7.6000000000000001e-01  0.0000000000000000e+00
-5.0000000000000003e-02  7.8000000000000003e-01  0.0000000000000000e+00
5.0000000000000003e-02  7.8000000000000003e-01  0.0000000000000000e+00
-5.0000000000000003e-02  8.0000000000000004e-01  0.0000000000000000e+00
5.0000000000000003e-02  8.0000000000000004e-01  0.0000000000000000e+00
-5.0000000000000003e-02  8.1999999999999995e-01  0.0000000000000000e+00
5.0000000000000003e-02  8.1999999999999995e-01  0.0000000000000000e+00
-5.0000000000000003e-02  8.3999999999999997e-01  0.0000000000000000e+00
5.0000000000000003e-02  8.3999999999999997e-01  0.0000000000000000e+00
-5.0000000000000003e-02  8.5999999999999999e-01  0.0000000000000000e+00
5.0000000000000003e-02  8.5999999999999999e-01  0.0000000000000000e+00
-5.0000000000000003e-02  8.8000000000000000e-01  0.0000000000000000e+00
5.0000000000000003e-02  8.8000000000000000e-01  0.0000000000000000e+00
-5.0000000000000003e-02  9.0000000000000002e-01  0.0000000000000000e+00
5.0000000000000003e-02  9.0000000000000002e-01  0.0000000000000000e+00
-5.0000000000000003e-02  9.2000000000000004e-01  0.0000000000000000e+00
5.0000000000000003e-02  9.2000000000000004e-01  0.0000000000000000e+00
-5.0000000000000003e-02  9.3999999999999995e-01  0.0000000000000000e+00
5.0000000000000003e-02  9.3999999999999995e-01  0.0000000000000000e+00
-5.0000000000000003e-02  9.5999999999999996e-01  0.0000000000000000e+00
5.0000000000000003e-02  9.5999999999999996e-01  0.0000000000000000e+00
-5.0000000000000003e-02  9.7999999999999998e-01  0.0000000000000000e+00
5.0000000000000003e-02  9.7999999999999998e-01  0.0000000000000000e+00
-5.0000000000000003e-02  1.0000000000000000e+00  0.0000000000000000e+00
-3.0000000000000002e-02  1.0000000000000000e+00  0.0000000000000000e+00
-1.0000000000000002e-02  1.0000000000000000e+00  0.0000000000000000e+00
1.0000000000000009e-02  1.0000000000000000e+00  0.0000000000000000e+00
2.9999999999999999e-02  1.0000000000000000e+00  0.0000000000000000e+00
5.0000000000000003e-02  1.0000000000000000e+00  0.0000000000000000e+00

CELLS 0 0


CELL_TYPES 0


POINT_DATA 106

VECTORS VertexNormals float

0.0000000000000000e+00 0.0000000000000000e+00 0
0.0000000000000000e+00 0.0000000000000000e+00 0
0.0000000000000000e+00 0.0000000000000000e+00 0
0.0000000000000000e+00 0.0000000000000000e+00 0
0.0000000000000000e+00 0.0000000000000000e+00 0
0.0000000000000000e+00 0.0000000000000000e+00 0
0.0000000000000000e+00 0.0000000000000000e+00 0
0.0000000000000000e+00 0.0000000000000000e+00 0
0.0000000000000000e+00 0.0000000000000000e+00 0
0.0000000000000000e+00 0.0000000000000000e+00 0
0.0000000000000000e+00 0.0000000000000000e+00 0
0.0000000000000000e+00 0.0000000000000000e+00 0
0.0000000000000000e+00 0.0000000000000000e+00 0
0.0000000000000000e+00 0.0000000000000000e+00 0
0.0000000000000000e+00 0.0000000000000000e+00 0
0.0000000000000000e+00 0.0000000000000000e+00 0
0.0000000000000000e+00 0.0000000000000000e+00 0
0.0000000000000000e+00 0.0000000000000000e+00 0
0.0000000000000000e+00 0.0000000000000000e+00 0
0.0000000000000000e+00 0.0000000000000000e+00 0
0.0000000000000000e+00 0.0000000000000000e+00 0
0.0000000000000000e+00 0.0000000000000000e+00 0
0.0000000000000000e+00 0.0000000000000000e+00 0
0.0000000000000000e+00 0.0000000000000000e+00 0
0.0000000000000000e+00 0.0000000000000000e+00 0
0.0000000000000000e+00 0.0000000000000000e+00 0
0.0000000000000000e+00 0.0000000000000000e+00 0
0.0000000000000000e+00 0.0000000000000000e+00 0
0.0000000000000000e+00 0.0000000000000000e+00 0
0.0000000000000000e+00 0.0000000000000000e+00 0
0.0000000000000000e+00 0.0000000000000000e+00 0
0.0000000000000000e+00 0.0000000000000000e+00 0
0.0000000000000000e+00 0.0000000000000000e+00 0
0.0000000000000000e+00 0.0000000000000000e+00 0
0.0000000000000000e+00 0.0000000000000000e+00 0
0.0000000000000000e+00 0.0000000000000000e+00 0
0.0000000000000000e+00 0.0000000000000000e+00 0
0.0000000000000000e+00 0.0000000000000000e+00 0
0.0000000000000000e+00 0.0000000000000000e+00 0
0.0000000000000000e+00 0.0000000000000000e+00 0
0.0000000000000000e+00 0.0000000000000000e+00 0
0.0000000000000000e+00 0.0000000000000000e+00 0
0.0000000000000000e+00 0.0000000000000000e+00 0
0.0000000000000000e+00 0.0000000000000000e+00 0
0.0000000000000000e+00 0.0000000000000000e+00 0
0.0000000000000000e+00 0.0000000000000000e+00 0
0.0000000000000000e+00 0.0000000000000000e+00 0
0.0000000000000000e+00 0.0000000000000000e+00 0
0.0000000000000000e+00 0.0000000000000000e+00 0
0.0000000000000000e+00 0.0000000000000000e+00 0
0.0000000000000000e+00 0.0000000000000000e+00 0
0.0000000000000000e+00 0.0000000000000000e+00 0
0.0000000000000000e+00 0.0000000000000000e+00 0
0.0000000000000000e+00 0.0000000000000000e+00 0
0.0000000000000000e+00 0.0000000000000000e+00 0
0.0000000000000000e+00 0.0000000000000000e+00 0
0.0000000000000000e+00 0.0000000000000000e+00 0
0.0000000000000000e+00 0.0000000000000000e+00 0
0.0000000000000000e+00 0.0000000000000000e+00 0
0.0000000000000000e+00 0.0000000000000000e+00 0
0.0000000000000000e+00 0.0000000000000000e+00 0
0.0000000000000000e+00 0.0000000000000000e+00 0
0.0000000000000000e+00 0.0000000000000000e+00 0
0.0000000000000000e+00 0.0000000000000000e+00 0
0.0000000000000000e+00 0.0000000000000000e+00 0
0.0000000000000000e+00 0.0000000000000000e+00 0
0.0000000000000000e+00 0.0000000000000000e+00 0
0.0000000000000000e+00 0.0000000000000000e+00 0
0.0000000000000000e+00 0.0000000000000000e+00 0
0.0000000000000000e+00 0.0000000000000000e+00 0
0.0000000000000000e+00 0.0000000000000000e+00 0
0.0000000000000000e+00 0.0000000000000000e+00 0
0.0000000000000000e+00 0.0000000000000000e+00 0
0.0000000000000000e+00 0.0000000000000000e+00 0
0.0000000000000000e+00 0.0000000000000000e+00 0
0.0000000000000000e+00 0.0000000000000000e+00 0
0.0000000000000000e+00 0.0000000000000000e+00 0
0.0000000000000000e+00 0.0000000000000000e+00 0
0.0000000000000000e+00 0.0000000000000000e+00 0
0.0000000000000000e+00 0.0000000000000000e+00 0
0.0000000000000000e+00 0.0000000000000000e+00 0
0.0000000000000000e+00 0.0000000000000000e+00 0
0.0000000000000000e+00 0.0000000000000000e+00 0
0.0000000000000000e+00 0.0000000000000000e+00 0
0.0000000000000000e+00 0.0000000000000000e+00 0
0.0000000000000000e+00 0.0000000000000000e+00 0
0.0000000000000000e+00 0.0000000000000000e+00 0
0.0000000000000000e+00 0.0000000000000000e+00 0
0.0000000000000000e+00 0.0000000000000000e+00 0
0.0000000000000000e+00 0.0000000000000000e+00 0
0.0000000000000000e+00 0.0000000000000000e+00 0
0.0000000000000000e+00 0.0000000000000000e+00 0
0.0000000000000000e+00 0.0000000000000000e+00 0
0.0000000000000000e+00 0.0000000000000000e+00 0
0.0000000000000000e+00 0.0000000000000000e+00 0
0.0000000000000000e+00 0.0000000000000000e+00 0
0.0000000000000000e+00 0.0000000000000000e+00 0
0.0000000000000000e+00 0.0000000000000000e+00 0
0.0000000000000000e+00 0.0000000000000000e+00 0
0.0000000000000000e+00 0.0000000000000000e+00 0
0.0000000000000000e+00 0.0000000000000000e+00 0
0.0000000000000000e+00 0.0000000000000000e+00 0
0.0000000000000000e+00 0.0000000000000000e+00 0
0.0000000000000000e+00 0.0000000000000000e+00 0
0.0000000000000000e+00 0.0000000000000000e+00 0
0.0000000000000000e+00 0.0000000000000000e+00 0

VECTORS Displacements1 float
-5.1856755737260064e-17 2.8970059436744643e-17 0
-6.4035270894916629e-23 -2.1790185711636329e-24 0
8.5253454125027106e-07 3.3706102629648304e-08 0
8.3271245224762833e-07 9.9028412546055970e-09 0
1.2298645566014974e-06 4.3320850800356462e-08 0
1.1724413915854528e-06 9.9287171833888649e-09 0
1.1879866790073281e-06 4.0039540220085992e-08 0
1.1350998375189399e-06 6.2264299412350978e-09 0
1.0325115682797450e-06 6.1948334080033510e-08 0
1.0040443516823260e-06 -3.9829892983184042e-08 0
2.1293135730009352e-06 3.0018432722896269e-08 0
1.9794940022032641e-06 1.2959391042316282e-07 0
1.0068697364239997e-06 -1.2425641550251240e-07 0
9.7607033796137089e-07 1.3561208438697253e-07 0
1.1883904244059754e-06 -6.3027415674835870e-09 0
1.1395331698496242e-06 7.8312264502666724e-08 0
1.1912405175711853e-06 3.2305023814341024e-08 0
1.1427172605647317e-06 4.6148318433314540e-08 0
1.0173396528792804e-06 9.6840509229260670e-08 0
9.9620507120922197e-07 -4.9058050370736452e-08 0
2.1354669590351856e-06 6.7579248700165877e-08 0
2.0069310941965351e-06 1.3745715941633827e-07 0
1.0212368579231887e-06 -1.0139715672072314e-07 0
9.9089902788675866e-07 1.4214071873777677e-07 0
1.1966574391332137e-06 5.4465917924963184e-09 0
1.1609557387595435e-06 9.9004801026615732e-08 0
1.2012879159311632e-06 3.9732697434020888e-08 0
1.1681672918950594e-06 7.2000032119111143e-08 0
1.0316880885584603e-06 1.0065116788446732e-07 0
1.0241976686255352e-06 -2.4503456816035625e-08 0
2.1535410964634992e-06 6.9059869405717121e-08 0
2.0838971894465684e-06 1.9340823498359174e-07 0
1.0401279743661499e-06 -9.9800228653794305e-08 0
1.0189980209813003e-06 1.7733054349625492e-07 0
1.2174576554424919e-06 9.9180523891923129e-09 0
1.2082418807472883e-06 1.3394122201689077e-07 0
1.2251177411200148e-06 4.6679632834171454e-08 0
1.2205864703854979e-06 1.0536981008131859e-07 0
1.0584428830325793e-06 1.0930101553356486e-07 0
1.0736611430014266e-06 -6.4234549566495711e-10 0
2.1850062019984115e-06 8.3099067544127798e-08 0
2.2153222326066818e-06 2.4949212388017488e-07 0
1.0721648351613978e-06 -8.9639806592414405e-08 0
1.0680850063742651e-06 2.1348080239269265e-07 0
1.2506700104287744e-06 2.4999788073213982e-08 0
1.2828339097265206e-06 1.6749909476938674e-07 0
1.2613843315588856e-06 6.5803821706773010e-08 0
1.3007118009088072e-06 1.3624264948282168e-07 0
1.0974627486213212e-06 1.3104302390698694e-07 0
1.1457035212305309e-06 1.6994041801532160e-08 0
2.2309553908210740e-06 1.1908848803759628e-07 0
2.4082492523668479e-06 3.0299526956826958e-07 0
1.1191547358531994e-06 -6.6095194769975924e-08 0
1.1410939890436576e-06 2.4969503229565801e-07 0
1.2968172432520821e-06 5.5874113150301471e-08 0
1.3890856943972129e-06 1.9890077597229718e-07 0
1.3111359204068161e-06 1.0133404223737600e-07 0
1.4137289535319992e-06 1.6450791432665673e-07 0
1.1512106044734726e-06 1.6677399200079460e-07 0
1.2460353105654464e-06 2.9402156377225783e-08 0
2.2891608211514661e-06 1.7580159574413971e-07 0
2.6763516511364100e-06 3.5905187496094506e-07 0
1.1853202880175410e-06 -2.4640943569268530e-08 0
1.2444285384707319e-06 2.8671235679478798e-07 0
1.3681367495335451e-06 1.0853903449069249e-07 0
1.5415301018575334e-06 2.2833369645661190e-07 0
1.3894291698110824e-06 1.6487138309673681e-07 0
1.5770168921597074e-06 1.8769022396077666e-07 0
1.2352390491170372e-06 2.4130597264147455e-07 0
1.3924164583350318e-06 2.6454241634827008e-08 0
2.4081501724778267e-06 3.0181408516849854e-07 0
3.0725346026443750e-06 4.0488383807490329e-07 0
1.2929326911527163e-06 5.1841045617871934e-08 0
1.4018534790794246e-06 3.2328382170747274e-07 0
1.4722434719793468e-06 2.0774475839750145e-07 0
1.7648785622952700e-06 2.5161705144527413e-07 0
1.5067785618266298e-06 2.7221461271939046e-07 0
1.8198256882536757e-06 2.0632863903160109e-07 0
1.3723378150191176e-06 3.3708743678038334e-07 0
1.6211697848028228e-06 2.2843592219231461e-08 0
2.5719371759434238e-06 4.4099400657414218e-07 0
3.6611776307203373e-06 4.8773176869350552e-07 0
1.4883268934374007e-06 2.2154541600568694e-07 0
1.6515861720698667e-06 3.5484710287420227e-07 0
1.7860832549437272e-06 5.0495565131247934e-07 0
2.1748604367972013e-06 2.4529686080325426e-07 0
1.9215435050861110e-06 7.9684740819175202e-07 0
2.2884573767715112e-06 1.3931310093625171e-07 0
1.8798991839280329e-06 1.2736842700358215e-06 0
2.0644706224025234e-06 -2.3705601728443950e-07 0
3.6213872256932341e-06 2.2212366065206928e-06 0
4.9331403651161266e-06 5.3552280827184588e-08 0
2.3825220638413114e-06 2.5738906936777111e-06 0
2.2872838619040716e-06 -4.9108812320522651e-07 0
3.4328942264966635e-06 4.4154980005819462e-06 0
3.6701152332939212e-06 -1.5119718408478751e-06 0
5.0757036189267021e-06 6.4106145549196331e-06 0
5.1598424342288426e-06 -2.7147951361101409e-06 0
9.5402743019580178e-06 8.9282517245827539e-06 0
8.9781725820955713e-06 -3.5389891600290829e-06 0
1.2093755541898919e-05 8.9878831806239968e-06 0
1.2104179639766724e-05 5.9616494985915623e-06 0
1.0822941638437382e-05 3.2298915153901133e-06 0
1.0408458002399821e-05 1.4192454130538245e-06 0
1.1127945599851625e-05 -1.0531632666407479e-06 0
1.0795124838845671e-05 -4.2142166616554311e-06 0

VECTORS Displacements2 float
-5.2153700317709644e-17 2.9136114016571681e-17 0
-6.6900038214124471e-23 -3.7028051138738279e-25 0
8.8953610843796466e-07 5.9808648909706976e-08 0
8.6859966004196738e-07 -1.5798316700000811e-08 0
1.3043284054539162e-06 7.4104027096440701e-08 0
1.2429170058570950e-06 -2.0150026246853833e-08 0
1.2887358441306646e-06 6.0798683976500519e-08 0
1.2332636117482631e-06 -1.4449717599833030e-08 0
1.1438967479972110e-06 6.9311089569087605e-08 0
1.1124752737348042e-06 -4.6523032525257964e-08 0
2.2408564597821538e-06 3.0220049215585735e-08 0
2.0819787677788115e-06 1.3020892174862400e-07 0
1.1154913578426975e-06 -1.2574808058910532e-07 0
1.0828765588199433e-06 1.3863610619744175e-07 0
1.2985276795395179e-06 -7.0761198174314419e-09 0
1.2455515989816684e-06 8.1098578748742842e-08 0
1.3020987170481658e-06 3.1608729143659440e-08 0
1.2507633025335740e-06 4.9233263159752885e-08 0
1.1299421965095047e-06 9.6020654310797523e-08 0
1.1047823920056163e-06 -4.3994992818041996e-08 0
2.2475931685458895e-06 6.8252849768026218e-08 0
2.1098377413687326e-06 1.4022824223580652e-07 0
1.1328896518485742e-06 -9.9672134782032556e-08 0
1.1005935959790657e-06 1.4445984061786727e-07 0
1.3104016564665490e-06 6.9231255072838949e-09 0
1.2693558272138138e-06 1.0250563663996330e-07 0
1.3143028636901522e-06 4.1387131828341277e-08 0
1.2782212292318426e-06 7.6124910521044396e-08 0
1.1464250009586278e-06 1.0207850341486076e-07 0
1.1340049162276180e-06 -1.8610932726981249e-08 0
2.2686550723385684e-06 7.1425096990846592e-08 0
2.1883104409898275e-06 1.9791224948626548e-07 0
1.1548269096511528e-06 -9.6831528581335148e-08 0
1.1311163021628968e-06 1.8154581120353548e-07 0
1.3346876075044616e-06 1.2811042664927109e-08 0
1.3193573240029466e-06 1.3949335691372198e-07 0
1.3419367664482458e-06 4.9892570420183204e-08 0
1.3337618201664537e-06 1.1159972882968790e-07 0
1.1775657530115990e-06 1.1243593904586225e-07 0
1.1868534660627518e-06 7.5210044732947152e-09 0
2.3051617779223500e-06 8.7383131989828972e-08 0
2.3227088242380532e-06 2.5609175029561032e-07 0
1.1918095568313147e-06 -8.4818088045283004e-08 0
1.1842278426319192e-06 2.1959439126271430e-07 0
1.3733354819666551e-06 3.0077160177561594e-08 0
1.3983480874389647e-06 1.7507691869868092e-07 0
1.3839562583399700e-06 7.1429999058421869e-08 0
1.4187134513500394e-06 1.4455616656651502e-07 0
1.2230800404685193e-06 1.3682072528560274e-07 0
1.2639941184100530e-06 2.7472961870418635e-08 0
2.3583841814081367e-06 1.2624682542483317e-07 0
2.5201029367347226e-06 3.1168949532737858e-07 0
1.2459519307472003e-06 -5.8423432735934602e-08 0
1.2631313442839579e-06 2.5759722854504181e-07 0
1.4272640523309461e-06 6.4264897202606440e-08 0
1.5110009008964208e-06 2.0845697315772839e-07 0
1.4418744419993789e-06 1.1065741623878510e-07 0
1.5386872360635902e-06 1.7485038174628114e-07 0
1.2859988942075786e-06 1.7667871548233673e-07 0
1.3715823991073141e-06 4.2177589658945754e-08 0
2.4266726810496432e-06 1.8755895068372052e-07 0
2.7945223875329511e-06 3.6965568154438637e-07 0
1.3221130411766106e-06 -1.2112173984710348e-08 0
1.3747141533548267e-06 2.9600531883755822e-07 0
1.5096523129618573e-06 1.2260477783804520e-07 0
1.6724830302553365e-06 2.3945414487508852e-07 0
1.5319725205458263e-06 1.8038953251515635e-07 0
1.7119953102247543e-06 1.9974147744679558e-07 0
1.3835291922689681e-06 2.5787669916543058e-07 0
1.5287134110614454e-06 4.1495294292238738e-08 0
2.5607586828294561e-06 3.2076399173464009e-07 0
3.2005754036133270e-06 4.1739158346799590e-07 0
1.4453365844274803e-06 7.1825157150917988e-08 0
1.5453501501464387e-06 3.3371850272874868e-07 0
1.6313447246879642e-06 2.3082849464878367e-07 0
1.9107099029929584e-06 2.6407843198154638e-07 0
1.6684789406839595e-06 2.9858142324583161e-07 0
1.9716609686084098e-06 2.1934425869012824e-07 0
1.5430285808510261e-06 3.6754879066241866e-07 0
1.7751301484376048e-06 3.9000703308976100e-08 0
2.7493407552243966e-06 4.7973381994011806e-07 0
3.8048505842596458e-06 4.9983723165907678e-07 0
1.6734215926553599e-06 2.7745616230355675e-07 0
1.8158464039499258e-06 3.6200995777517755e-07 0
1.9852493990358848e-06 5.8602283773388896e-07 0
2.3445223184140331e-06 2.5107413501582861e-07 0
2.1375275355997136e-06 9.1300579687045102e-07 0
2.4629296330390402e-06 1.3973517066962447e-07 0
2.1091137978423898e-06 1.4404666022595961e-06 0
2.2428066222625718e-06 -2.5187525445805842e-07 0
3.8625282984646431e-06 2.4694713469145197e-06 0
5.1007454145641298e-06 -5.8510925142569644e-09 0
2.6736172121509450e-06 2.9291628187524023e-06 0
2.5221163576655539e-06 -6.2899412824293785e-07 0
3.8370084959297430e-06 4.8859220667582820e-06 0
4.0178219225165160e-06 -1.7264716297886233e-06 0
5.6555567464801340e-06 6.9780633977394202e-06 0
5.6842938693664710e-06 -2.9870640044678646e-06 0
1.0326162596416419e-05 9.5522098917450224e-06 0
9.6854177106856915e-06 -3.8280348385446828e-06 0
1.3082201836643244e-05 9.6241351945638210e-06 0
1.3081169250701300e-05 6.4028474035939082e-06 0
1.1769772774596201e-05 3.4708122936198641e-06 0
1.1324405326186908e-05 1.4755494041821161e-06 0
1.2019979990695267e-05 -1.1719686448739941e-06 0
1.1682679044206673e-05 -4.5010197057747798e-06 0

VECTORS Forces1 float
-1.9003699015793735e-01 1.1524423050623657e-01 0
-1.2805884914413970e-01 -7.4689230070790744e-02 0
2.5438762277796800e+00 -1.4123181034223404e+00 0
1.7513395169691690e+00 9.7067144784228532e-01 0
2.7871623823392282e+00 -4.3360518552541299e-01 0
1.9230301093101696e+00 3.0057423555720575e-01 0
1.7746068371124875e+00 7.1830990519906643e-02 0
1.2245944230683397e+00 -4.8042864225150549e-02 0
-2.6751073424757538e-01 -9.7717509913670814e-03 0
-1.8496917347837630e-01 6.5324259596552421e-03 0
6.8159552753074850e+00 -1.6616392621491684e-03 0
4.7093802841942587e+00 2.6288611253062127e-02 0
-2.8869918250820531e-01 -2.9825393798781178e-04 0
-2.0025981607980956e-01 -1.8301637483952148e-03 0
1.9394344416856806e+00 -1.0621429776889576e-03 0
1.3439278820309326e+00 1.5294211238673517e-02 0
1.9395840406950773e+00 -1.1035864155865833e-03 0
1.3440646562253136e+00 1.5330598065758476e-02 0
-2.8895413634607120e-01 -9.0132592506649400e-05 0
-2.0044817679889718e-01 -2.1056497888379219e-03 0
6.8294906049841275e+00 -6.5200429521714330e-03 0
4.7575604954124424e+00 8.8640952052033123e-02 0
-2.8859868614012829e-01 6.1514625104040248e-05 0
-2.0307477660802614e-01 -4.9251878875582050e-03 0
1.9373204846662402e+00 -2.0996451613267317e-03 0
1.3627366537373520e+00 3.5145794038264094e-02 0
1.9373185402432784e+00 -2.1006195699506073e-03 0
1.3627678020411136e+00 3.5165603116627094e-02 0
-2.8856225153155923e-01 4.7208279148272720e-05 0
-2.0324809287646503e-01 -5.0499148216746293e-03 0
6.8170736593232792e+00 -2.3008579634300804e-03 0
4.8582628973777133e+00 1.5666527342181463e-01 0
-2.8763457103741030e-01 -4.4145138075732903e-04 0
-2.0855790238186064e-01 -7.7115712232368938e-03 0
1.9309410543072376e+00 1.3269009828295901e-03 0
1.4001463769012135e+00 5.3951973151186779e-02 0
1.9309311707500680e+00 1.3261579176009214e-03 0
1.4001932727887505e+00 5.3974052777462027e-02 0
-2.8757156331997147e-01 -5.0081039509784872e-04 0
-2.0886528760890277e-01 -7.8207978796071571e-03 0
6.7816581074285160e+00 1.7626675968357052e-02 0
5.0212962790366218e+00 2.2214740579603967e-01 0
-2.8571362298477504e-01 -1.7291005793972150e-03 0
-2.1690603171488992e-01 -1.0367157218946474e-02 0
1.9180394837267118e+00 9.8711018493629118e-03 0
1.4567258955589635e+00 7.2031106584522012e-02 0
1.9180198669299122e+00 9.8727537362680792e-03 0
1.4567915030599246e+00 7.2055673667687836e-02 0
-2.8560259074596295e-01 -1.8578362317509670e-03 0
-2.1735840400389780e-01 -1.0453231586439019e-02 0
6.7241280186584733e+00 6.6728058786535260e-02 0
5.2608825434435351e+00 2.8090876150444344e-01 0
-2.8236833986014281e-01 -4.6480538346696859e-03 0
-2.2867059852954874e-01 -1.2627837680865761e-02 0
1.8954904310754839e+00 2.9272397104488992e-02 0
1.5362666372630269e+00 8.7631598079430079e-02 0
1.8954624440348184e+00 2.9271193505087282e-02 0
1.5363572695649055e+00 8.7664110309441351e-02 0
-2.8223400290670614e-01 -4.8526495328239131e-03 0
-2.2933342176231472e-01 -1.2694133179094421e-02 0
6.6270179947247767e+00 1.3650268316338315e-01 0
5.5926036934651755e+00 3.4326810668746299e-01 0
-2.7892672829801701e-01 -8.1188238539631856e-03 0
-2.4589568399279871e-01 -1.5330342175099045e-02 0
1.8724424626530363e+00 5.1762684612906618e-02 0
1.6526296621405252e+00 1.0669784786287240e-01 0
1.8723908157524636e+00 5.1763154098174974e-02 0
1.6527452180443820e+00 1.0673977318851705e-01 0
-2.7874759605339700e-01 -8.5743217508416954e-03 0
-2.4687314881865724e-01 -1.5314640608074382e-02 0
6.5516384045698697e+00 3.0877609814884871e-01 0
6.0927796337302098e+00 3.8003313349615431e-01 0
-2.7205893491242134e-01 -1.9064820465172463e-02 0
-2.6981992013318068e-01 -1.5821612740309673e-02 0
1.8251089654268853e+00 1.2420745733531566e-01 0
1.8131085529684192e+00 1.1137159525540416e-01 0
1.8249964203228093e+00 1.2410729664501868e-01 0
1.8131998145799586e+00 1.1146039642116801e-01 0
-2.7268731322621548e-01 -1.9823442906422524e-02 0
-2.7199912829082351e-01 -1.5805569933140091e-02 0
6.4031926385021931e+00 4.0633645714221928e-01 0
6.8265383395350527e+00 5.0537860851592220e-01 0
-2.8787462497452276e-01 -2.3251775652095887e-02 0
-3.2213541424752645e-01 -2.2437773615617634e-02 0
1.9248386121398011e+00 1.4205390649679295e-01 0
2.1572594437550925e+00 1.5966185516427550e-01 0
1.9242946476708873e+00 1.4162336589519009e-01 0
2.1570145228328883e+00 1.5987394106867339e-01 0
-2.8991497424356100e-01 -2.7871781346665524e-02 0
-3.2742744992969042e-01 -2.0455215069132244e-02 0
7.1421897634957032e+00 1.5304116708970965e+00 0
8.6469359583702659e+00 2.1353150150521133e-01 0
-2.9944148519913483e-01 -1.2671442100822583e-01 0
-4.2573181550587352e-01 2.2691808680833443e-02 0
2.1217081736329417e+00 8.2813676004525072e-01 0
2.9670667343311008e+00 -6.4838569819109015e-02 0
1.5259919417509831e+00 4.9416747451405907e-01 0
2.3277469897505645e+00 -6.0780910676329833e-02 0
5.6350336862972066e+00 3.0892943835904370e+00 0
5.8924941233012058e+00 1.2749379987347795e-01 0
4.6510028102571987e-01 3.8982833373304759e-01 0
3.9226050745347889e+00 2.2378601308118400e+00 0
2.2964912277194722e+00 1.8189288526696721e+00 0
2.1376383583830658e+00 2.0131916876616893e+00 0
3.6961393636821458e+00 1.0334124023085338e+00 0
5.7964056676525644e-01 -2.0160477828001927e-01 0

VECTORS Forces2 float
6.0388005642243392e-02 -2.9862285292679917e-02 0
4.2693612633316726e-03 6.7015424877377794e-03 0
-6.5286970601537753e-01 3.5459778635647765e-01 0
7.8261724221201021e-03 6.3787537896691686e-03 0
-7.1577874116497209e-01 1.1006634832606747e-01 0
-8.3583072752642883e-04 3.0662079140211947e-03 0
-4.5910148968381875e-01 -1.7224908595795691e-02 0
-5.0122583280105852e-03 -9.0642467315924023e-04 0
6.9047988027165663e-02 1.9120537396679015e-03 0
6.1568122522030690e-04 1.9156070576910241e-04 0
-1.8004184257792317e+00 4.5880385666421372e-04 0
-6.8070150595905765e-02 2.3205420515947556e-02 0
7.6897584625241461e-02 -2.4518561300885154e-05 0
3.1829177210995130e-03 -2.0372468226293630e-03 0
-5.1694055110384141e-01 -1.3425903749420594e-03 0
-2.2322503604081098e-02 1.5335322184206447e-02 0
-5.1697122807669071e-01 -1.3285124045007378e-03 0
-2.2319577430707067e-02 1.5358873305572037e-02 0
7.7061585622432413e-02 -4.1367654334679165e-05 0
3.1577004429119335e-03 -2.1357767505088060e-03 0
-1.8215898828017090e+00 -7.0982236329307086e-03 0
-4.7826261001512688e-02 8.8236666471209799e-02 0
7.6749605465076615e-02 1.8118652019784838e-04 0
-3.4037071308279837e-04 -4.9939015048938249e-03 0
-5.1466010695508879e-01 -2.8381682091548357e-03 0
2.3207150378837774e-03 3.5506810459728269e-02 0
-5.1465373607165410e-01 -2.8413880316955631e-03 0
2.3589283523843580e-03 3.5529298013586917e-02 0
7.6706203871941089e-02 1.6946301920502441e-04 0
-6.1274411031245093e-04 -5.1174750610538788e-03 0
-1.7981662328912924e+00 -7.7836417996466302e-03 0
9.4837218639112528e-02 1.6034528526672168e-01 0
7.5178920918661699e-02 -1.1689605816279148e-04 0
-8.6463523100530071e-03 -7.9389473205124066e-03 0
-5.0373453178541339e-01 -8.5167740887459121e-04 0
5.8851733049303107e-02 5.5462892716794901e-02 0
-5.0372334354885118e-01 -8.5456114567615722e-04 0
5.8916612846719799e-02 5.5487198015101977e-02 0
7.5070453972521295e-02 -1.7005951931986567e-04 0
-9.1515994832711833e-03 -8.0508890850603063e-03 0
-1.7457062388001985e+00 7.9823287024603905e-03 0
3.5206179762001272e-01 2.2881649338193236e-01 0
7.2395292344420881e-02 -1.2273427688815201e-03 0
-2.1986285416914102e-02 -1.0713293057717659e-02 0
-4.8465393884452113e-01 6.4761475798612543e-03 0
1.4912579402867676e-01 7.4376528701836336e-02 0
-4.8463830645931011e-01 6.4756482252974574e-03 0
1.4922005602779234e-01 7.4403113082682826e-02 0
7.2234891098271498e-02 -1.3491055121957719e-03 0
-2.2745449192453072e-02 -1.0802597269313581e-02 0
-1.6652958155645594e+00 5.1904831208433470e-02 0
7.3534877343254412e-01 2.9122458109240568e-01 0
6.8775480052681928e-02 -3.9126703468491805e-03 0
-4.0986181637095109e-02 -1.3134434814085633e-02 0
-4.5994746186639135e-01 2.4268941024878421e-02 0
2.7736640940744600e-01 9.1099481608565722e-02 0
-4.5992264443086622e-01 2.4264725986795427e-02 0
2.7749627120858400e-01 9.1134533439422141e-02 0
6.8529561247209200e-02 -4.1071620867117221e-03 0
-4.2080761895326689e-02 -1.3206025390885768e-02 0
-1.5644483814727641e+00 1.1530429388715023e-01 0
1.2692239743099074e+00 3.5780773120136333e-01 0
6.2504026646857100e-02 -7.0327834993920701e-03 0
-6.8116143677161442e-02 -1.6066223839126877e-02 0
-4.1703348160620907e-01 4.4339633945372367e-02 0
4.6029029182544551e-01 1.1176100269090750e-01 0
-4.1700358755503725e-01 4.4335333648549448e-02 0
4.6045860868650251e-01 1.1180643839045094e-01 0
6.2175995427288085e-02 -7.4776124403177638e-03 0
-6.9698919647245727e-02 -1.6058317971124642e-02 0
-1.3666041557792261e+00 2.7635489882448561e-01 0
2.0445680859742192e+00 4.0306119139879920e-01 0
5.5848204068526280e-02 -1.7570123211773838e-02 0
-1.0597610837306320e-01 -1.6882267247820999e-02 0
-3.7202382582515092e-01 1.1391529339605372e-01 0
7.1443639375063772e-01 1.1869019269775834e-01 0
-3.7199111538670687e-01 1.1379947594805366e-01 0
7.1459919363737578e-01 1.1878253550829615e-01 0
5.4812019027797212e-02 -1.8308354539936497e-02 0
-1.0884539381561266e-01 -1.6881077906094694e-02 0
-1.1661211004599203e+00 3.6568657875561761e-01 0
3.1424303440612467e+00 5.2813862360986730e-01 0
2.7593913719317954e-02 -2.0135032334645170e-02 0
-1.7274336849372851e-01 -2.3941253314772769e-02 0
-1.8385876260831874e-01 1.2004024821641342e-01 0
1.1561483630614398e+00 1.6986309004771552e-01 0
-1.8383792255938902e-01 1.1950421805181198e-01 0
1.1560188779231901e+00 1.7010737217374161e-01 0
2.5027947538312442e-02 -2.4559093764817373e-02 0
-1.7972173835767885e-01 -2.2146039993546928e-02 0
1.0583800948200198e-01 1.2936194860630301e+00 0
5.4467288909710012e+00 3.5089531857558465e-01 0
-3.5347755502444560e-02 -1.1005973464036255e-01 0
-3.2129152182430498e-01 1.2545794482132867e-02 0
3.5412217776150651e-01 7.1424517525744613e-01 0
2.2213615818307608e+00 1.0982558938670069e-02 0
-1.0911327010248714e-02 3.5478097738032138e-01 0
1.6858079407019857e+00 3.5352661543734585e-03 0
3.6579409584137808e+00 3.3720082994381921e+00 0
4.9273313129227763e+00 2.3370376992122802e-01 0
1.9713791568011974e-01 3.8572284536005508e-01 0
2.7060732096295754e+00 2.7982995307865375e+00 0
1.8789465852524745e+00 2.3066099482542111e+00 0
1.6846110477097560e+00 2.3480001736616103e+00 0
3.0358281503759184e+00 1.0849804152705487e+00 0
5.3788026608630379e-01 -1.9507185800404228e-01 0

VECTORS Forces3 float
-6.6421119217684454e-02 4.3674514957527014e-02 0
-6.3288842859412137e-02 -3.4966799797700981e-02 0
9.6075628370355759e-01 -5.3764724940997610e-01 0
8.9181872080670799e-01 4.9568269141832916e-01 0
1.0495169252578120e+00 -1.6412963368444616e-01 0
9.7169656129939685e-01 1.5362799829585658e-01 0
6.6577719601203722e-01 2.8035213548393230e-02 0
6.1578825959391870e-01 -2.5137560756089930e-02 0
-1.0041841251362278e-01 -4.0084271756678693e-03 0
-9.3061428710532884e-02 3.4355763615360087e-03 0
2.5265510965941913e+00 -1.5814921036537623e-03 0
2.3319035276146116e+00 2.5486410317215279e-02 0
-1.0665801223652904e-01 -1.0428690642754302e-04 0
-9.8964801769625660e-02 -1.9726352843815759e-03 0
7.1627181600100220e-01 -1.4747637108755390e-03 0
6.6358486481038770e-01 1.5467732521763269e-02 0
7.1633044278079538e-01 -1.4890185357131927e-03 0
6.6365367617678073e-01 1.5498019648515606e-02 0
-1.0669526790104988e-01 -6.5544761304741336e-06 0
-9.9062050397256685e-02 -2.1616330646659844e-03 0
2.5246745983237671e+00 -6.8237457741663161e-03 0
2.3672083311623964e+00 8.7983788706550908e-02 0
-1.0678326521821423e-01 1.5655859202826631e-04 0
-1.0220576261939250e-01 -4.9737677514347690e-03 0
7.1712446800315610e-01 -2.5727293456216257e-03 0
6.8588102648959148e-01 3.5290017032999277e-02 0
7.1712639426405755e-01 -2.5747416705176446e-03 0
6.8591528351518094e-01 3.5311004832859358e-02 0
-1.0678610614363113e-01 1.4482411669742011e-04 0
-1.0242730046835900e-01 -5.0991919885158814e-03 0
2.5278518850161511e+00 -6.3159198687906390e-03 0
2.4862771883001717e+00 1.5924769682441275e-01 0
-1.0693208489755519e-01 -1.8731558324680900e-04 0
-1.0894156719796717e-01 -7.8920854852202529e-03 0
7.1831141159024603e-01 -2.4869663582574841e-04 0
7.3173903687757158e-01 5.5024303954903625e-02 0
7.1831092183615641e-01 -2.5035477181060967e-04 0
7.3179373566047135e-01 5.5047264094989383e-02 0
-1.0694600683441249e-01 -2.4003732898269543e-04 0
-1.0933930307330389e-01 -8.0059813717218032e-03 0
2.5323980467980700e+00 1.0684040702788306e-02 0
2.6924416106485265e+00 2.2690665167538629e-01 0
-1.0714426365737102e-01 -1.3446604887438322e-03 0
-1.1957307752042710e-01 -1.0639034131981017e-02 0
7.1991750445854941e-01 7.4313975572037000e-03 0
8.0372597061776163e-01 7.3709075962808401e-02 0
7.1991382917686753e-01 7.4325212011212491e-03 0
8.0380424011678997e-01 7.3734015689399912e-02 0
-1.0715495828675778e-01 -1.4650823220942368e-03 0
-1.2016593716633529e-01 -1.0731123067970257e-02 0
2.5368020247450400e+00 5.5892772632408258e-02 0
2.9971999686862461e+00 2.8853484147066999e-01 0
-1.0691078332078915e-01 -4.0818158938151997e-03 0
-1.3461348117870339e-01 -1.3033452918383611e-02 0
7.1848275485842472e-01 2.5628242939030862e-02 0
9.0529599286196694e-01 9.0192736382209177e-02 0
7.1847874866057937e-01 2.5626592249507744e-02 0
9.0540386553857199e-01 9.0225327588762949e-02 0
-1.0694487259138571e-01 -4.2726796098005101e-03 0
-1.3547255934276636e-01 -1.3110001235251226e-02 0
2.5279844134873750e+00 1.2083640599005911e-01 0
3.4202697477366386e+00 3.5417654628783340e-01 0
-1.0779754637076085e-01 -7.2586406745156120e-03 0
-1.5630398896126180e-01 -1.5935428373566349e-02 0
7.2485248914360856e-01 4.6179817183088445e-02 0
1.0516454690513448e+00 1.1055556942217250e-01 0
7.2483819297883212e-01 4.6180546723916575e-02 0
1.0517842764029544e+00 1.1059664031776673e-01 0
-1.0783529038024799e-01 -7.6933449019975812e-03 0
-1.5755295988820250e-01 -1.5937797572946083e-02 0
2.5733753208078363e+00 2.8365891921004138e-01 0
4.0437081155174273e+00 3.9850642577947432e-01 0
-1.0676075943722574e-01 -1.7858874238343717e-02 0
-1.8642489832497500e-01 -1.6726703479814465e-02 0
7.1742854181290272e-01 1.1640933021162271e-01 0
1.2537658131993294e+00 1.1712975008678997e-01 0
7.1738680661253917e-01 1.1630752395619863e-01 0
1.2538921054150960e+00 1.1721363707989946e-01 0
-1.0750831463675141e-01 -1.8551495872283729e-02 0
-1.8888140022626493e-01 -1.6750401861496029e-02 0
2.5675275052516469e+00 3.7334126135686518e-01 0
4.9351311791088266e+00 5.2283887344790292e-01 0
-1.2692009607292590e-01 -2.0169558057863714e-02 0
-2.4455974795942167e-01 -2.3864892143592990e-02 0
8.4914665702204895e-01 1.2169660762777035e-01 0
1.6376014847104685e+00 1.6844485098710194e-01 0
8.4889318317251594e-01 1.2123974330766561e-01 0
1.6374194024845112e+00 1.6864746987130338e-01 0
-1.2894183920791311e-01 -2.4350412708440523e-02 0
-2.5044980350866536e-01 -2.2228333245410476e-02 0
3.4961256510154390e+00 1.3080519476371437e+00 0
6.9313675515692816e+00 3.4174535090736563e-01 0
-1.5748627644037419e-01 -1.0967286623763889e-01 0
-3.6434016654008416e-01 1.1828200993955904e-02 0
1.1663357286995168e+00 7.1670889387327052e-01 0
2.5269488934737399e+00 6.3231698140913438e-03 0
7.1313705257885485e-01 3.8829716925942337e-01 0
1.9649845844452793e+00 -6.0026929015082825e-03 0
4.3858146582988304e+00 3.0662126843714170e+00 0
5.1646648257254828e+00 2.7126368000834855e-01 0
3.1050375923088946e-01 3.6216067233371607e-01 0
3.1103298623876499e+00 2.3995869066513218e+00 0
1.9349049663770019e+00 2.0311018236551512e+00 0
1.7610442923681633e+00 2.1576430839089724e+00 0
3.1786364284681450e+00 1.1161056163695797e+00 0
5.4038921609927393e-01 -1.7811529213693125e-01 0

