{
  "Finalized": "2019-11-13T14:01:02.696",
  "Initialized": "2019-11-13T14:00:58.515",
  "Name": "",
  "Ranks": [
    {
      "Finalized": "2019-11-13T14:01:02.696",
      "Initialized": "2019-11-13T14:00:58.515",
      "StateChanges": [
        {
          "Name": "_GLOBAL",
          "State": 1,
          "Timestamp": 0
        },
        {
          "Name": "_GLOBAL",
          "State": 0,
          "Timestamp": 4180
        },
        {
          "Name": "advance",
          "State": 1,
          "Timestamp": 353
        },
        {
          "Name": "advance",
          "State": 0,
          "Timestamp": 458
        },
        {
          "Name": "advance",
          "State": 1,
          "Timestamp": 504
        },
        {
          "Name": "advance",
          "State": 0,
          "Timestamp": 593
        },
        {
          "Name": "advance",
          "State": 1,
          "Timestamp": 637
        },
        {
          "Name": "advance",
          "State": 0,
          "Timestamp": 727
        },
        {
          "Name": "advance",
          "State": 1,
          "Timestamp": 786
        },
        {
          "Name": "advance",
          "State": 0,
          "Timestamp": 874
        },
        {
          "Name": "advance",
          "State": 1,
          "Timestamp": 918
        },
        {
          "Name": "advance",
          "State": 0,
          "Timestamp": 1006
        },
        {
          "Name": "advance",
          "State": 1,
          "Timestamp": 1050
        },
        {
          "Name": "advance",
          "State": 0,
          "Timestamp": 1138
        },
        {
          "Name": "advance",
          "State": 1,
          "Timestamp": 1182
        },
        {
          "Name": "advance",
          "State": 0,
          "Timestamp": 1270
        },
        {
          "Name": "advance",
          "State": 1,
          "Timestamp": 1314
        },
        {
          "Name": "advance",
          "State": 0,
          "Timestamp": 1403
        },
        {
          "Name": "advance",
          "State": 1,
          "Timestamp": 1447
        },
        {
          "Name": "advance",
          "State": 0,
          "Timestamp": 1540
        },
        {
          "Name": "advance",
          "State": 1,
          "Timestamp": 1584
        },
        {
          "Name": "advance",
          "State": 0,
          "Timestamp": 1672
        },
        {
          "Name": "advance",
          "State": 1,
          "Timestamp": 1716
        },
        {
          "Name": "advance",
          "State": 0,
          "Timestamp": 1805
        },
        {
          "Name": "advance",
          "State": 1,
          "Timestamp": 1850
        },
        {
          "Name": "advance",
          "State": 0,
          "Timestamp": 1938
        },
        {
          "Name": "advance",
          "State": 1,
          "Timestamp": 1983
        },
        {
          "Name": "advance",
          "State": 0,
          "Timestamp": 2073
        },
        {
          "Name": "advance",
          "State": 1,
          "Timestamp": 2128
        },
        {
          "Name": "advance",
          "State": 0,
          "Timestamp": 2217
        },
        {
          "Name": "advance",
          "State": 1,
          "Timestamp": 2263
        },
        {
          "Name": "advance",
          "State": 0,
          "Timestamp": 2352
        },
        {
          "Name": "advance",
          "State": 1,
          "Timestamp": 2397
        },
        {
          "Name": "advance",
          "State": 0,
          "Timestamp": 2486
        },
        {
          "Name": "advance",
          "State": 1,
          "Timestamp": 2531
        },
        {
          "Name": "advance",
          "State": 0,
          "Timestamp": 2619
        },
        {
          "Name": "advance",
          "State": 1,
          "Timestamp": 2663
        },
        {
          "Name": "advance",
          "State": 0,
          "Timestamp": 2753
        },
        {
          "Name": "advance",
          "State": 1,
          "Timestamp": 2797
        },
        {
          "Name": "advance",
          "State": 0,
          "Timestamp": 2897
        },
        {
          "Name": "advance",
          "State": 1,
          "Timestamp": 2951
        },
        {
          "Name": "advance",
          "State": 0,
          "Timestamp": 3040
        },
        {
          "Name": "advance",
          "State": 1,
          "Timestamp": 3085
        },
        {
          "Name": "advance",
          "State": 0,
          "Timestamp": 3173
        },
        {
          "Name": "advance",
          "State": 1,
          "Timestamp": 3217
        },
        {
          "Name": "advance",
          "State": 0,
          "Timestamp": 3307
        },
        {
          "Name": "advance",
          "State": 1,
          "Timestamp": 3351
        },
        {
          "Name": "advance",
          "State": 0,
          "Timestamp": 3439
        },
        {
          "Name": "advance",
          "State": 1,
          "Timestamp": 3484
        },
        {
          "Name": "advance",
          "State": 0,
          "Timestamp": 3573
        },
        {
          "Name": "advance",
          "State": 1,
          "Timestamp": 3619
        },
        {
          "Name": "advance",
          "State": 0,
          "Timestamp": 3708
        },
        {
          "Name": "advance",
          "State": 1,
          "Timestamp": 3752
        },
        {
          "Name": "advance",
          "State": 0,
          "Timestamp": 3841
        },
        {
          "Name": "advance",
          "State": 1,
          "Timestamp": 3886
        },
        {
          "Name": "advance",
          "State": 0,
          "Timestamp": 3975
        },
        {
          "Name": "advance",
          "State": 1,
          "Timestamp": 4020
        },
        {
          "Name": "advance",
          "State": 0,
          "Timestamp": 4109
        },
        {
          "Name": "advance",
          "State": 1,
          "Timestamp": 4153
        },
        {
          "Name": "advance",
          "State": 0,
          "Timestamp": 4153
        },
        {
          "Name": "advance/cpl.computeQuasiNewtonUpdate",
          "State": 1,
          "Timestamp": 353
        },
        {
          "Name": "advance/cpl.computeQuasiNewtonUpdate",
          "State": 0,
          "Timestamp": 353
        },
        {
          "Name": "advance/cpl.computeQuasiNewtonUpdate",
          "State": 1,
          "Timestamp": 504
        },
        {
          "Name": "advance/cpl.computeQuasiNewtonUpdate",
          "State": 0,
          "Timestamp": 504
        },
        {
          "Name": "advance/cpl.computeQuasiNewtonUpdate",
          "State": 1,
          "Timestamp": 638
        },
        {
          "Name": "advance/cpl.computeQuasiNewtonUpdate",
          "State": 0,
          "Timestamp": 638
        },
        {
          "Name": "advance/cpl.computeQuasiNewtonUpdate",
          "State": 1,
          "Timestamp": 786
        },
        {
          "Name": "advance/cpl.computeQuasiNewtonUpdate",
          "State": 0,
          "Timestamp": 786
        },
        {
          "Name": "advance/cpl.computeQuasiNewtonUpdate",
          "State": 1,
          "Timestamp": 918
        },
        {
          "Name": "advance/cpl.computeQuasiNewtonUpdate",
          "State": 0,
          "Timestamp": 918
        },
        {
          "Name": "advance/cpl.computeQuasiNewtonUpdate",
          "State": 1,
          "Timestamp": 1050
        },
        {
          "Name": "advance/cpl.computeQuasiNewtonUpdate",
          "State": 0,
          "Timestamp": 1050
        },
        {
          "Name": "advance/cpl.computeQuasiNewtonUpdate",
          "State": 1,
          "Timestamp": 1182
        },
        {
          "Name": "advance/cpl.computeQuasiNewtonUpdate",
          "State": 0,
          "Timestamp": 1182
        },
        {
          "Name": "advance/cpl.computeQuasiNewtonUpdate",
          "State": 1,
          "Timestamp": 1314
        },
        {
          "Name": "advance/cpl.computeQuasiNewtonUpdate",
          "State": 0,
          "Timestamp": 1314
        },
        {
          "Name": "advance/cpl.computeQuasiNewtonUpdate",
          "State": 1,
          "Timestamp": 1447
        },
        {
          "Name": "advance/cpl.computeQuasiNewtonUpdate",
          "State": 0,
          "Timestamp": 1447
        },
        {
          "Name": "advance/cpl.computeQuasiNewtonUpdate",
          "State": 1,
          "Timestamp": 1584
        },
        {
          "Name": "advance/cpl.computeQuasiNewtonUpdate",
          "State": 0,
          "Timestamp": 1584
        },
        {
          "Name": "advance/cpl.computeQuasiNewtonUpdate",
          "State": 1,
          "Timestamp": 1717
        },
        {
          "Name": "advance/cpl.computeQuasiNewtonUpdate",
          "State": 0,
          "Timestamp": 1717
        },
        {
          "Name": "advance/cpl.computeQuasiNewtonUpdate",
          "State": 1,
          "Timestamp": 1850
        },
        {
          "Name": "advance/cpl.computeQuasiNewtonUpdate",
          "State": 0,
          "Timestamp": 1850
        },
        {
          "Name": "advance/cpl.computeQuasiNewtonUpdate",
          "State": 1,
          "Timestamp": 1983
        },
        {
          "Name": "advance/cpl.computeQuasiNewtonUpdate",
          "State": 0,
          "Timestamp": 1983
        },
        {
          "Name": "advance/cpl.computeQuasiNewtonUpdate",
          "State": 1,
          "Timestamp": 2128
        },
        {
          "Name": "advance/cpl.computeQuasiNewtonUpdate",
          "State": 0,
          "Timestamp": 2128
        },
        {
          "Name": "advance/cpl.computeQuasiNewtonUpdate",
          "State": 1,
          "Timestamp": 2263
        },
        {
          "Name": "advance/cpl.computeQuasiNewtonUpdate",
          "State": 0,
          "Timestamp": 2263
        },
        {
          "Name": "advance/cpl.computeQuasiNewtonUpdate",
          "State": 1,
          "Timestamp": 2397
        },
        {
          "Name": "advance/cpl.computeQuasiNewtonUpdate",
          "State": 0,
          "Timestamp": 2397
        },
        {
          "Name": "advance/cpl.computeQuasiNewtonUpdate",
          "State": 1,
          "Timestamp": 2531
        },
        {
          "Name": "advance/cpl.computeQuasiNewtonUpdate",
          "State": 0,
          "Timestamp": 2531
        },
        {
          "Name": "advance/cpl.computeQuasiNewtonUpdate",
          "State": 1,
          "Timestamp": 2663
        },
        {
          "Name": "advance/cpl.computeQuasiNewtonUpdate",
          "State": 0,
          "Timestamp": 2663
        },
        {
          "Name": "advance/cpl.computeQuasiNewtonUpdate",
          "State": 1,
          "Timestamp": 2951
        },
        {
          "Name": "advance/cpl.computeQuasiNewtonUpdate",
          "State": 0,
          "Timestamp": 2951
        },
        {
          "Name": "advance/cpl.computeQuasiNewtonUpdate",
          "State": 1,
          "Timestamp": 3085
        },
        {
          "Name": "advance/cpl.computeQuasiNewtonUpdate",
          "State": 0,
          "Timestamp": 3085
        },
        {
          "Name": "advance/cpl.computeQuasiNewtonUpdate",
          "State": 1,
          "Timestamp": 3217
        },
        {
          "Name": "advance/cpl.computeQuasiNewtonUpdate",
          "State": 0,
          "Timestamp": 3217
        },
        {
          "Name": "advance/cpl.computeQuasiNewtonUpdate",
          "State": 1,
          "Timestamp": 3351
        },
        {
          "Name": "advance/cpl.computeQuasiNewtonUpdate",
          "State": 0,
          "Timestamp": 3351
        },
        {
          "Name": "advance/cpl.computeQuasiNewtonUpdate",
          "State": 1,
          "Timestamp": 3484
        },
        {
          "Name": "advance/cpl.computeQuasiNewtonUpdate",
          "State": 0,
          "Timestamp": 3484
        },
        {
          "Name": "advance/cpl.computeQuasiNewtonUpdate",
          "State": 1,
          "Timestamp": 3619
        },
        {
          "Name": "advance/cpl.computeQuasiNewtonUpdate",
          "State": 0,
          "Timestamp": 3619
        },
        {
          "Name": "advance/cpl.computeQuasiNewtonUpdate",
          "State": 1,
          "Timestamp": 3752
        },
        {
          "Name": "advance/cpl.computeQuasiNewtonUpdate",
          "State": 0,
          "Timestamp": 3752
        },
        {
          "Name": "advance/cpl.computeQuasiNewtonUpdate",
          "State": 1,
          "Timestamp": 3886
        },
        {
          "Name": "advance/cpl.computeQuasiNewtonUpdate",
          "State": 0,
          "Timestamp": 3886
        },
        {
          "Name": "advance/cpl.computeQuasiNewtonUpdate",
          "State": 1,
          "Timestamp": 4020
        },
        {
          "Name": "advance/cpl.computeQuasiNewtonUpdate",
          "State": 0,
          "Timestamp": 4020
        },
        {
          "Name": "configure",
          "State": 1,
          "Timestamp": 0
        },
        {
          "Name": "configure",
          "State": 0,
          "Timestamp": 0
        },
        {
          "Name": "finalize",
          "State": 1,
          "Timestamp": 4180
        },
        {
          "Name": "finalize",
          "State": 0,
          "Timestamp": 4180
        },
        {
          "Name": "initialize",
          "State": 1,
          "Timestamp": 4
        },
        {
          "Name": "initialize",
          "State": 0,
          "Timestamp": 32
        },
        {
          "Name": "initialize/m2n.acceptMasterConnection",
          "State": 1,
          "Timestamp": 4
        },
        {
          "Name": "initialize/m2n.acceptMasterConnection",
          "State": 0,
          "Timestamp": 31
        },
        {
          "Name": "initialize/m2n.acceptSlavesConnection",
          "State": 1,
          "Timestamp": 31
        },
        {
          "Name": "initialize/m2n.acceptSlavesConnection",
          "State": 0,
          "Timestamp": 31
        },
        {
          "Name": "initialize/partition.feedbackMesh.NeumannNodes",
          "State": 1,
          "Timestamp": 31
        },
        {
          "Name": "initialize/partition.feedbackMesh.NeumannNodes",
          "State": 0,
          "Timestamp": 31
        },
        {
          "Name": "initialize/partition.gatherMesh.NeumannNodes",
          "State": 1,
          "Timestamp": 31
        },
        {
          "Name": "initialize/partition.gatherMesh.NeumannNodes",
          "State": 0,
          "Timestamp": 31
        },
        {
          "Name": "initialize/partition.sendGlobalMesh.NeumannNodes",
          "State": 1,
          "Timestamp": 31
        },
        {
          "Name": "initialize/partition.sendGlobalMesh.NeumannNodes",
          "State": 0,
          "Timestamp": 31
        },
        {
          "Name": "initializeData",
          "State": 1,
          "Timestamp": 34
        },
        {
          "Name": "initializeData",
          "State": 0,
          "Timestamp": 250
        },
        {
          "Name": "solver.advance",
          "State": 1,
          "Timestamp": 458
        },
        {
          "Name": "solver.advance",
          "State": 0,
          "Timestamp": 504
        },
        {
          "Name": "solver.advance",
          "State": 1,
          "Timestamp": 593
        },
        {
          "Name": "solver.advance",
          "State": 0,
          "Timestamp": 637
        },
        {
          "Name": "solver.advance",
          "State": 1,
          "Timestamp": 727
        },
        {
          "Name": "solver.advance",
          "State": 0,
          "Timestamp": 786
        },
        {
          "Name": "solver.advance",
          "State": 1,
          "Timestamp": 874
        },
        {
          "Name": "solver.advance",
          "State": 0,
          "Timestamp": 918
        },
        {
          "Name": "solver.advance",
          "State": 1,
          "Timestamp": 1006
        },
        {
          "Name": "solver.advance",
          "State": 0,
          "Timestamp": 1050
        },
        {
          "Name": "solver.advance",
          "State": 1,
          "Timestamp": 1138
        },
        {
          "Name": "solver.advance",
          "State": 0,
          "Timestamp": 1182
        },
        {
          "Name": "solver.advance",
          "State": 1,
          "Timestamp": 1270
        },
        {
          "Name": "solver.advance",
          "State": 0,
          "Timestamp": 1314
        },
        {
          "Name": "solver.advance",
          "State": 1,
          "Timestamp": 1403
        },
        {
          "Name": "solver.advance",
          "State": 0,
          "Timestamp": 1447
        },
        {
          "Name": "solver.advance",
          "State": 1,
          "Timestamp": 1540
        },
        {
          "Name": "solver.advance",
          "State": 0,
          "Timestamp": 1584
        },
        {
          "Name": "solver.advance",
          "State": 1,
          "Timestamp": 1672
        },
        {
          "Name": "solver.advance",
          "State": 0,
          "Timestamp": 1716
        },
        {
          "Name": "solver.advance",
          "State": 1,
          "Timestamp": 1805
        },
        {
          "Name": "solver.advance",
          "State": 0,
          "Timestamp": 1850
        },
        {
          "Name": "solver.advance",
          "State": 1,
          "Timestamp": 1938
        },
        {
          "Name": "solver.advance",
          "State": 0,
          "Timestamp": 1983
        },
        {
          "Name": "solver.advance",
          "State": 1,
          "Timestamp": 2073
        },
        {
          "Name": "solver.advance",
          "State": 0,
          "Timestamp": 2128
        },
        {
          "Name": "solver.advance",
          "State": 1,
          "Timestamp": 2217
        },
        {
          "Name": "solver.advance",
          "State": 0,
          "Timestamp": 2263
        },
        {
          "Name": "solver.advance",
          "State": 1,
          "Timestamp": 2352
        },
        {
          "Name": "solver.advance",
          "State": 0,
          "Timestamp": 2397
        },
        {
          "Name": "solver.advance",
          "State": 1,
          "Timestamp": 2486
        },
        {
          "Name": "solver.advance",
          "State": 0,
          "Timestamp": 2531
        },
        {
          "Name": "solver.advance",
          "State": 1,
          "Timestamp": 2619
        },
        {
          "Name": "solver.advance",
          "State": 0,
          "Timestamp": 2663
        },
        {
          "Name": "solver.advance",
          "State": 1,
          "Timestamp": 2753
        },
        {
          "Name": "solver.advance",
          "State": 0,
          "Timestamp": 2797
        },
        {
          "Name": "solver.advance",
          "State": 1,
          "Timestamp": 2896
        },
        {
          "Name": "solver.advance",
          "State": 0,
          "Timestamp": 2951
        },
        {
          "Name": "solver.advance",
          "State": 1,
          "Timestamp": 3040
        },
        {
          "Name": "solver.advance",
          "State": 0,
          "Timestamp": 3085
        },
        {
          "Name": "solver.advance",
          "State": 1,
          "Timestamp": 3173
        },
        {
          "Name": "solver.advance",
          "State": 0,
          "Timestamp": 3217
        },
        {
          "Name": "solver.advance",
          "State": 1,
          "Timestamp": 3307
        },
        {
          "Name": "solver.advance",
          "State": 0,
          "Timestamp": 3351
        },
        {
          "Name": "solver.advance",
          "State": 1,
          "Timestamp": 3439
        },
        {
          "Name": "solver.advance",
          "State": 0,
          "Timestamp": 3484
        },
        {
          "Name": "solver.advance",
          "State": 1,
          "Timestamp": 3573
        },
        {
          "Name": "solver.advance",
          "State": 0,
          "Timestamp": 3619
        },
        {
          "Name": "solver.advance",
          "State": 1,
          "Timestamp": 3708
        },
        {
          "Name": "solver.advance",
          "State": 0,
          "Timestamp": 3752
        },
        {
          "Name": "solver.advance",
          "State": 1,
          "Timestamp": 3841
        },
        {
          "Name": "solver.advance",
          "State": 0,
          "Timestamp": 3886
        },
        {
          "Name": "solver.advance",
          "State": 1,
          "Timestamp": 3975
        },
        {
          "Name": "solver.advance",
          "State": 0,
          "Timestamp": 4020
        },
        {
          "Name": "solver.advance",
          "State": 1,
          "Timestamp": 4109
        },
        {
          "Name": "solver.advance",
          "State": 0,
          "Timestamp": 4153
        },
        {
          "Name": "solver.advance",
          "State": 1,
          "Timestamp": 4153
        },
        {
          "Name": "solver.advance",
          "State": 0,
          "Timestamp": 4180
        },
        {
          "Name": "solver.initialize",
          "State": 1,
          "Timestamp": 0
        },
        {
          "Name": "solver.initialize",
          "State": 2,
          "Timestamp": 4
        },
        {
          "Name": "solver.initialize",
          "State": 1,
          "Timestamp": 32
        },
        {
          "Name": "solver.initialize",
          "State": 2,
          "Timestamp": 34
        },
        {
          "Name": "solver.initialize",
          "State": 1,
          "Timestamp": 250
        },
        {
          "Name": "solver.initialize",
          "State": 0,
          "Timestamp": 353
        }
      ],
      "Timings": {
        "_GLOBAL": {
          "Count": 1,
          "Data": {},
          "Max": 4180,
          "Min": 4180,
          "TimeRatio": 1.0,
          "Total": 4180
        },
        "advance": {
          "Count": 29,
          "Data": {},
          "Max": 105,
          "Min": 0,
          "TimeRatio": 0.6026315789473684,
          "Total": 2519
        },
        "advance/cpl.computeQuasiNewtonUpdate": {
          "Count": 27,
          "Data": {},
          "Max": 0,
          "Min": 0,
          "TimeRatio": 0.0,
          "Total": 0
        },
        "configure": {
          "Count": 1,
          "Data": {},
          "Max": 0,
          "Min": 0,
          "TimeRatio": 0.0,
          "Total": 0
        },
        "finalize": {
          "Count": 1,
          "Data": {},
          "Max": 0,
          "Min": 0,
          "TimeRatio": 0.0,
          "Total": 0
        },
        "initialize": {
          "Count": 1,
          "Data": {},
          "Max": 27,
          "Min": 27,
          "TimeRatio": 0.00645933014354067,
          "Total": 27
        },
        "initialize/m2n.acceptMasterConnection": {
          "Count": 1,
          "Data": {},
          "Max": 27,
          "Min": 27,
          "TimeRatio": 0.00645933014354067,
          "Total": 27
        },
        "initialize/m2n.acceptSlavesConnection": {
          "Count": 1,
          "Data": {},
          "Max": 0,
          "Min": 0,
          "TimeRatio": 0.0,
          "Total": 0
        },
        "initialize/partition.feedbackMesh.NeumannNodes": {
          "Count": 1,
          "Data": {},
          "Max": 0,
          "Min": 0,
          "TimeRatio": 0.0,
          "Total": 0
        },
        "initialize/partition.gatherMesh.NeumannNodes": {
          "Count": 1,
          "Data": {},
          "Max": 0,
          "Min": 0,
          "TimeRatio": 0.0,
          "Total": 0
        },
        "initialize/partition.sendGlobalMesh.NeumannNodes": {
          "Count": 1,
          "Data": {},
          "Max": 0,
          "Min": 0,
          "TimeRatio": 0.0,
          "Total": 0
        },
        "initializeData": {
          "Count": 1,
          "Data": {},
          "Max": 215,
          "Min": 215,
          "TimeRatio": 0.05143540669856459,
          "Total": 215
        },
        "solver.advance": {
          "Count": 29,
          "Data": {},
          "Max": 59,
          "Min": 27,
          "TimeRatio": 0.31267942583732056,
          "Total": 1307
        },
        "solver.initialize": {
          "Count": 1,
          "Data": {},
          "Max": 110,
          "Min": 110,
          "TimeRatio": 0.02631578947368421,
          "Total": 110
        }
      }
    }
  ]
}
