# vtk DataFile Version 2.0

ASCII

DATASET UNSTRUCTURED_GRID

POINTS 106 float 

-5.0000000000000003e-02  0.0000000000000000e+00  0.0000000000000000e+00
5.0000000000000003e-02  0.0000000000000000e+00  0.0000000000000000e+00
-5.0000000000000003e-02  2.0000000000000000e-02  0.0000000000000000e+00
5.0000000000000003e-02  2.0000000000000000e-02  0.0000000000000000e+00
-5.0000000000000003e-02  4.0000000000000001e-02  0.0000000000000000e+00
5.0000000000000003e-02  4.0000000000000001e-02  0.0000000000000000e+00
-5.0000000000000003e-02  5.9999999999999998e-02  0.0000000000000000e+00
5.0000000000000003e-02  5.9999999999999998e-02  0.0000000000000000e+00
-5.0000000000000003e-02  8.0000000000000002e-02  0.0000000000000000e+00
5.0000000000000003e-02  8.0000000000000002e-02  0.0000000000000000e+00
-5.0000000000000003e-02  1.0000000000000001e-01  0.0000000000000000e+00
5.0000000000000003e-02  1.0000000000000001e-01  0.0000000000000000e+00
-5.0000000000000003e-02  1.2000000000000000e-01  0.0000000000000000e+00
5.0000000000000003e-02  1.2000000000000000e-01  0.0000000000000000e+00
-5.0000000000000003e-02  1.4000000000000001e-01  0.0000000000000000e+00
5.0000000000000003e-02  1.4000000000000001e-01  0.0000000000000000e+00
-5.0000000000000003e-02  1.6000000000000000e-01  0.0000000000000000e+00
5.0000000000000003e-02  1.6000000000000000e-01  0.0000000000000000e+00
-5.0000000000000003e-02  1.7999999999999999e-01  0.0000000000000000e+00
5.0000000000000003e-02  1.7999999999999999e-01  0.0000000000000000e+00
-5.0000000000000003e-02  2.0000000000000001e-01  0.0000000000000000e+00
5.0000000000000003e-02  2.0000000000000001e-01  0.0000000000000000e+00
-5.0000000000000003e-02  2.2000000000000000e-01  0.0000000000000000e+00
5.0000000000000003e-02  2.2000000000000000e-01  0.0000000000000000e+00
-5.0000000000000003e-02  2.3999999999999999e-01  0.0000000000000000e+00
5.0000000000000003e-02  2.3999999999999999e-01  0.0000000000000000e+00
-5.0000000000000003e-02  2.6000000000000001e-01  0.0000000000000000e+00
5.0000000000000003e-02  2.6000000000000001e-01  0.0000000000000000e+00
-5.0000000000000003e-02  2.8000000000000003e-01  0.0000000000000000e+00
5.0000000000000003e-02  2.8000000000000003e-01  0.0000000000000000e+00
-5.0000000000000003e-02  2.9999999999999999e-01  0.0000000000000000e+00
5.0000000000000003e-02  2.9999999999999999e-01  0.0000000000000000e+00
-5.0000000000000003e-02  3.2000000000000001e-01  0.0000000000000000e+00
5.0000000000000003e-02  3.2000000000000001e-01  0.0000000000000000e+00
-5.0000000000000003e-02  3.4000000000000002e-01  0.0000000000000000e+00
5.0000000000000003e-02  3.4000000000000002e-01  0.0000000000000000e+00
-5.0000000000000003e-02  3.5999999999999999e-01  0.0000000000000000e+00
5.0000000000000003e-02  3.5999999999999999e-01  0.0000000000000000e+00
-5.0000000000000003e-02  3.8000000000000000e-01  0.0000000000000000e+00
5.0000000000000003e-02  3.8000000000000000e-01  0.0000000000000000e+00
-5.0000000000000003e-02  4.0000000000000002e-01  0.0000000000000000e+00
5.0000000000000003e-02  4.0000000000000002e-01  0.0000000000000000e+00
-5.0000000000000003e-02  4.1999999999999998e-01  0.0000000000000000e+00
5.0000000000000003e-02  4.1999999999999998e-01  0.0000000000000000e+00
-5.0000000000000003e-02  4.4000000000000000e-01  0.0000000000000000e+00
5.0000000000000003e-02  4.4000000000000000e-01  0.0000000000000000e+00
-5.0000000000000003e-02  4.6000000000000002e-01  0.0000000000000000e+00
5.0000000000000003e-02  4.6000000000000002e-01  0.0000000000000000e+00
-5.0000000000000003e-02  4.7999999999999998e-01  0.0000000000000000e+00
5.0000000000000003e-02  4.7999999999999998e-01  0.0000000000000000e+00
-5.0000000000000003e-02  5.0000000000000000e-01  0.0000000000000000e+00
5.0000000000000003e-02  5.0000000000000000e-01  0.0000000000000000e+00
-5.0000000000000003e-02  5.2000000000000002e-01  0.0000000000000000e+00
5.0000000000000003e-02  5.2000000000000002e-01  0.0000000000000000e+00
-5.0000000000000003e-02  5.4000000000000004e-01  0.0000000000000000e+00
5.0000000000000003e-02  5.4000000000000004e-01  0.0000000000000000e+00
-5.0000000000000003e-02  5.6000000000000005e-01  0.0000000000000000e+00
5.0000000000000003e-02  5.6000000000000005e-01  0.0000000000000000e+00
-5.0000000000000003e-02  5.7999999999999996e-01  0.0000000000000000e+00
5.0000000000000003e-02  5.7999999999999996e-01  0.0000000000000000e+00
-5.0000000000000003e-02  5.9999999999999998e-01  0.0000000000000000e+00
5.0000000000000003e-02  5.9999999999999998e-01  0.0000000000000000e+00
-5.0000000000000003e-02  6.2000000000000000e-01  0.0000000000000000e+00
5.0000000000000003e-02  6.2000000000000000e-01  0.0000000000000000e+00
-5.0000000000000003e-02  6.4000000000000001e-01  0.0000000000000000e+00
5.0000000000000003e-02  6.4000000000000001e-01  0.0000000000000000e+00
-5.0000000000000003e-02  6.6000000000000003e-01  0.0000000000000000e+00
5.0000000000000003e-02  6.6000000000000003e-01  0.0000000000000000e+00
-5.0000000000000003e-02  6.8000000000000005e-01  0.0000000000000000e+00
5.0000000000000003e-02  6.8000000000000005e-01  0.0000000000000000e+00
-5.0000000000000003e-02  6.9999999999999996e-01  0.0000000000000000e+00
5.0000000000000003e-02  6.9999999999999996e-01  0.0000000000000000e+00
-5.0000000000000003e-02  7.1999999999999997e-01  0.0000000000000000e+00
5.0000000000000003e-02  7.1999999999999997e-01  0.0000000000000000e+00
-5.0000000000000003e-02  7.3999999999999999e-01  0.0000000000000000e+00
5.0000000000000003e-02  7.3999999999999999e-01  0.0000000000000000e+00
-5.0000000000000003e-02  7.6000000000000001e-01  0.0000000000000000e+00
5.0000000000000003e-02  7.6000000000000001e-01  0.0000000000000000e+00
-5.0000000000000003e-02  7.8000000000000003e-01  0.0000000000000000e+00
5.0000000000000003e-02  7.8000000000000003e-01  0.0000000000000000e+00
-5.0000000000000003e-02  8.0000000000000004e-01  0.0000000000000000e+00
5.0000000000000003e-02  8.0000000000000004e-01  0.0000000000000000e+00
-5.0000000000000003e-02  8.1999999999999995e-01  0.0000000000000000e+00
5.0000000000000003e-02  8.1999999999999995e-01  0.0000000000000000e+00
-5.0000000000000003e-02  8.3999999999999997e-01  0.0000000000000000e+00
5.0000000000000003e-02  8.3999999999999997e-01  0.0000000000000000e+00
-5.0000000000000003e-02  8.5999999999999999e-01  0.0000000000000000e+00
5.0000000000000003e-02  8.5999999999999999e-01  0.0000000000000000e+00
-5.0000000000000003e-02  8.8000000000000000e-01  0.0000000000000000e+00
5.0000000000000003e-02  8.8000000000000000e-01  0.0000000000000000e+00
-5.0000000000000003e-02  9.0000000000000002e-01  0.0000000000000000e+00
5.0000000000000003e-02  9.0000000000000002e-01  0.0000000000000000e+00
-5.0000000000000003e-02  9.2000000000000004e-01  0.0000000000000000e+00
5.0000000000000003e-02  9.2000000000000004e-01  0.0000000000000000e+00
-5.0000000000000003e-02  9.3999999999999995e-01  0.0000000000000000e+00
5.0000000000000003e-02  9.3999999999999995e-01  0.0000000000000000e+00
-5.0000000000000003e-02  9.5999999999999996e-01  0.0000000000000000e+00
5.0000000000000003e-02  9.5999999999999996e-01  0.0000000000000000e+00
-5.0000000000000003e-02  9.7999999999999998e-01  0.0000000000000000e+00
5.0000000000000003e-02  9.7999999999999998e-01  0.0000000000000000e+00
-5.0000000000000003e-02  1.0000000000000000e+00  0.0000000000000000e+00
-3.0000000000000002e-02  1.0000000000000000e+00  0.0000000000000000e+00
-1.0000000000000002e-02  1.0000000000000000e+00  0.0000000000000000e+00
1.0000000000000009e-02  1.0000000000000000e+00  0.0000000000000000e+00
2.9999999999999999e-02  1.0000000000000000e+00  0.0000000000000000e+00
5.0000000000000003e-02  1.0000000000000000e+00  0.0000000000000000e+00

CELLS 0 0


CELL_TYPES 0


POINT_DATA 106

VECTORS VertexNormals float

0.0000000000000000e+00 0.0000000000000000e+00 0
0.0000000000000000e+00 0.0000000000000000e+00 0
0.0000000000000000e+00 0.0000000000000000e+00 0
0.0000000000000000e+00 0.0000000000000000e+00 0
0.0000000000000000e+00 0.0000000000000000e+00 0
0.0000000000000000e+00 0.0000000000000000e+00 0
0.0000000000000000e+00 0.0000000000000000e+00 0
0.0000000000000000e+00 0.0000000000000000e+00 0
0.0000000000000000e+00 0.0000000000000000e+00 0
0.0000000000000000e+00 0.0000000000000000e+00 0
0.0000000000000000e+00 0.0000000000000000e+00 0
0.0000000000000000e+00 0.0000000000000000e+00 0
0.0000000000000000e+00 0.0000000000000000e+00 0
0.0000000000000000e+00 0.0000000000000000e+00 0
0.0000000000000000e+00 0.0000000000000000e+00 0
0.0000000000000000e+00 0.0000000000000000e+00 0
0.0000000000000000e+00 0.0000000000000000e+00 0
0.0000000000000000e+00 0.0000000000000000e+00 0
0.0000000000000000e+00 0.0000000000000000e+00 0
0.0000000000000000e+00 0.0000000000000000e+00 0
0.0000000000000000e+00 0.0000000000000000e+00 0
0.0000000000000000e+00 0.0000000000000000e+00 0
0.0000000000000000e+00 0.0000000000000000e+00 0
0.0000000000000000e+00 0.0000000000000000e+00 0
0.0000000000000000e+00 0.0000000000000000e+00 0
0.0000000000000000e+00 0.0000000000000000e+00 0
0.0000000000000000e+00 0.0000000000000000e+00 0
0.0000000000000000e+00 0.0000000000000000e+00 0
0.0000000000000000e+00 0.0000000000000000e+00 0
0.0000000000000000e+00 0.0000000000000000e+00 0
0.0000000000000000e+00 0.0000000000000000e+00 0
0.0000000000000000e+00 0.0000000000000000e+00 0
0.0000000000000000e+00 0.0000000000000000e+00 0
0.0000000000000000e+00 0.0000000000000000e+00 0
0.0000000000000000e+00 0.0000000000000000e+00 0
0.0000000000000000e+00 0.0000000000000000e+00 0
0.0000000000000000e+00 0.0000000000000000e+00 0
0.0000000000000000e+00 0.0000000000000000e+00 0
0.0000000000000000e+00 0.0000000000000000e+00 0
0.0000000000000000e+00 0.0000000000000000e+00 0
0.0000000000000000e+00 0.0000000000000000e+00 0
0.0000000000000000e+00 0.0000000000000000e+00 0
0.0000000000000000e+00 0.0000000000000000e+00 0
0.0000000000000000e+00 0.0000000000000000e+00 0
0.0000000000000000e+00 0.0000000000000000e+00 0
0.0000000000000000e+00 0.0000000000000000e+00 0
0.0000000000000000e+00 0.0000000000000000e+00 0
0.0000000000000000e+00 0.0000000000000000e+00 0
0.0000000000000000e+00 0.0000000000000000e+00 0
0.0000000000000000e+00 0.0000000000000000e+00 0
0.0000000000000000e+00 0.0000000000000000e+00 0
0.0000000000000000e+00 0.0000000000000000e+00 0
0.0000000000000000e+00 0.0000000000000000e+00 0
0.0000000000000000e+00 0.0000000000000000e+00 0
0.0000000000000000e+00 0.0000000000000000e+00 0
0.0000000000000000e+00 0.0000000000000000e+00 0
0.0000000000000000e+00 0.0000000000000000e+00 0
0.0000000000000000e+00 0.0000000000000000e+00 0
0.0000000000000000e+00 0.0000000000000000e+00 0
0.0000000000000000e+00 0.0000000000000000e+00 0
0.0000000000000000e+00 0.0000000000000000e+00 0
0.0000000000000000e+00 0.0000000000000000e+00 0
0.0000000000000000e+00 0.0000000000000000e+00 0
0.0000000000000000e+00 0.0000000000000000e+00 0
0.0000000000000000e+00 0.0000000000000000e+00 0
0.0000000000000000e+00 0.0000000000000000e+00 0
0.0000000000000000e+00 0.0000000000000000e+00 0
0.0000000000000000e+00 0.0000000000000000e+00 0
0.0000000000000000e+00 0.0000000000000000e+00 0
0.0000000000000000e+00 0.0000000000000000e+00 0
0.0000000000000000e+00 0.0000000000000000e+00 0
0.0000000000000000e+00 0.0000000000000000e+00 0
0.0000000000000000e+00 0.0000000000000000e+00 0
0.0000000000000000e+00 0.0000000000000000e+00 0
0.0000000000000000e+00 0.0000000000000000e+00 0
0.0000000000000000e+00 0.0000000000000000e+00 0
0.0000000000000000e+00 0.0000000000000000e+00 0
0.0000000000000000e+00 0.0000000000000000e+00 0
0.0000000000000000e+00 0.0000000000000000e+00 0
0.0000000000000000e+00 0.0000000000000000e+00 0
0.0000000000000000e+00 0.0000000000000000e+00 0
0.0000000000000000e+00 0.0000000000000000e+00 0
0.0000000000000000e+00 0.0000000000000000e+00 0
0.0000000000000000e+00 0.0000000000000000e+00 0
0.0000000000000000e+00 0.0000000000000000e+00 0
0.0000000000000000e+00 0.0000000000000000e+00 0
0.0000000000000000e+00 0.0000000000000000e+00 0
0.0000000000000000e+00 0.0000000000000000e+00 0
0.0000000000000000e+00 0.0000000000000000e+00 0
0.0000000000000000e+00 0.0000000000000000e+00 0
0.0000000000000000e+00 0.0000000000000000e+00 0
0.0000000000000000e+00 0.0000000000000000e+00 0
0.0000000000000000e+00 0.0000000000000000e+00 0
0.0000000000000000e+00 0.0000000000000000e+00 0
0.0000000000000000e+00 0.0000000000000000e+00 0
0.0000000000000000e+00 0.0000000000000000e+00 0
0.0000000000000000e+00 0.0000000000000000e+00 0
0.0000000000000000e+00 0.0000000000000000e+00 0
0.0000000000000000e+00 0.0000000000000000e+00 0
0.0000000000000000e+00 0.0000000000000000e+00 0
0.0000000000000000e+00 0.0000000000000000e+00 0
0.0000000000000000e+00 0.0000000000000000e+00 0
0.0000000000000000e+00 0.0000000000000000e+00 0
0.0000000000000000e+00 0.0000000000000000e+00 0
0.0000000000000000e+00 0.0000000000000000e+00 0
0.0000000000000000e+00 0.0000000000000000e+00 0

VECTORS Displacements1 float
-5.1556348328876711e-17 2.8802497232219509e-17 0
-6.1582222659542395e-23 -3.9208772474529619e-24 0
8.1806603063992446e-07 7.8293129296233186e-09 0
7.9954927225630078e-07 3.5359336678743423e-08 0
1.1560120719100639e-06 2.2681673116847536e-08 0
1.0976944114214462e-06 3.5644854662617330e-08 0
1.0991150222565024e-06 3.1475807707927808e-08 0
1.0425971369415197e-06 1.5899353772695538e-08 0
9.3913300917113298e-07 6.7119339267955861e-08 0
9.0769894408727646e-07 -4.5775455665055390e-08 0
2.0371954166588922e-06 4.0608814357108134e-08 0
1.8925769499865429e-06 1.1790424747602533e-07 0
9.2437200932043404e-07 -1.1843215855569071e-07 0
8.9014623928279855e-07 1.2894044445714795e-07 0
1.1006025841207796e-06 9.9819899974789426e-11 0
1.0502041262218708e-06 7.3787175024738190e-08 0
1.1018550489352419e-06 3.3440928775854577e-08 0
1.0539277117950349e-06 4.0592585251107300e-08 0
9.3000137754280805e-07 1.0074763193656018e-07 0
9.0460579318229677e-07 -5.2706983878681957e-08 0
2.0436906966569513e-06 6.8102226219272765e-08 0
1.9190714256382622e-06 1.3498898229305422e-07 0
9.3294701912327240e-07 -1.0216428300260359e-07 0
9.0090606887997016e-07 1.3917914741500891e-07 0
1.1087471025384481e-06 8.1874843459306143e-09 0
1.0714694151120097e-06 9.5285364743434312e-08 0
1.1119653401673449e-06 3.7500319283939371e-08 0
1.0790608726695682e-06 6.6832119728137785e-08 0
9.4307660837077870e-07 1.0339521118470509e-07 0
9.3169841188318491e-07 -2.9694750646653631e-08 0
2.0591368710316307e-06 6.9634539097987944e-08 0
1.9949249978039305e-06 1.8807294546221011e-07 0
9.4921866532605771e-07 -1.0019864388200110e-07 0
9.2710159960250593e-07 1.7219745495211792e-07 0
1.1268590421775760e-06 1.2756325676060228e-08 0
1.1163252088155193e-06 1.2808737806917633e-07 0
1.1326400365905305e-06 4.4023620982316976e-08 0
1.1288129182737904e-06 9.8021835342027298e-08 0
9.6626999772407349e-07 1.1154978367540050e-07 0
9.7810916923850639e-07 -8.1607731512776937e-09 0
2.0861114602940834e-06 8.3069976101814678e-08 0
2.1239710286717237e-06 2.4193033282971132e-07 0
9.7698959792496441e-07 -9.0378839814299640e-08 0
9.7294440479119650e-07 2.0678147113252624e-07 0
1.1558765992075109e-06 2.7195031892125222e-08 0
1.1870545699311764e-06 1.5995932061283260e-07 0
1.1641899710134851e-06 6.1772549833918441e-08 0
1.2048282010588051e-06 1.2703294555387057e-07 0
1.0000604669169228e-06 1.3187270716603876e-07 0
1.0456506849577398e-06 7.3216132658442287e-09 0
2.1257030426563269e-06 1.1755282371426170e-07 0
2.3133563646106077e-06 2.9345019765223660e-07 0
1.0178563459502032e-06 -6.7951558856351180e-08 0
1.0411769178096361e-06 2.4186142314009226e-07 0
1.1960547021915651e-06 5.6618910138965526e-08 0
1.2876873340099431e-06 1.9001174618166699e-07 0
1.2073200472277513e-06 9.4798540349638101e-08 0
1.3118924016338701e-06 1.5374162295296816e-07 0
1.0463302043524702e-06 1.6498329021042261e-07 0
1.1394294770962150e-06 1.7788613119849875e-08 0
2.1750645024307763e-06 1.7140524869102199e-07 0
2.5763403184178292e-06 3.4793487222030650e-07 0
1.0755362467781195e-06 -2.9276428568057042e-08 0
1.1377978530001750e-06 2.7865115929095756e-07 0
1.2589237276752846e-06 1.0576709830330947e-07 0
1.4322082436918035e-06 2.1897825577149798e-07 0
1.2761535058145028e-06 1.5345250920805274e-07 0
1.4667989970359027e-06 1.7604603641413769e-07 0
1.1197339758888587e-06 2.3480817885655408e-07 0
1.2765518779952584e-06 1.3083306863570445e-08 0
2.2814934998719145e-06 2.9279923713639095e-07 0
2.9650050701522351e-06 3.9227636337967437e-07 0
1.1702654324119867e-06 4.3825836731860976e-08 0
1.2845233777600727e-06 3.1551266115827289e-07 0
1.3500232249699586e-06 2.0167088304372443e-07 0
1.6422335451064210e-06 2.4217899208723895e-07 0
1.3792528109959651e-06 2.5627526418647932e-07 0
1.6945391780309083e-06 1.9542416191749594e-07 0
1.2396091689476081e-06 3.2806845842197748e-07 0
1.4861922684005119e-06 1.0658459903933267e-08 0
2.4278988942335512e-06 4.3415909653166397e-07 0
3.5374278448472087e-06 4.7848205067793304e-07 0
1.3453679460107150e-06 2.1400438231554277e-07 0
1.5123517047318035e-06 3.5565847930574897e-07 0
1.6318305986318625e-06 4.8308555046543325e-07 0
2.0224663555297905e-06 2.4719625308778989e-07 0
1.7379665474116044e-06 7.3234618177028677e-07 0
2.1229162259658945e-06 1.3788346775729041e-07 0
1.6721121509613281e-06 1.1788923914808037e-06 0
1.8974967155190809e-06 -2.3575935323545655e-07 0
3.4077409237438579e-06 2.0552088213532716e-06 0
4.7877139960039144e-06 7.8410444675728403e-08 0
2.1700423325405627e-06 2.2991239696270604e-06 0
2.1321072122343674e-06 -4.0006936206515258e-07 0
3.1368048103888598e-06 4.0050192153947103e-06 0
3.4366248089163453e-06 -1.3273404836844909e-06 0
4.6095545923205566e-06 5.8811952094580318e-06 0
4.7564285068893081e-06 -2.4609283111237624e-06 0
8.8533402176056388e-06 8.3315846451069448e-06 0
8.3889125326717052e-06 -3.2599002455669990e-06 0
1.1199050464060745e-05 8.3739404850479647e-06 0
1.1234207782869445e-05 5.5422093299031348e-06 0
9.9954516360713843e-06 3.0028072176559606e-06 0
9.6329894649774699e-06 1.4005774786323830e-06 0
1.0381308400189264e-05 -9.1735134653062210e-07 0
1.0042926783560860e-05 -3.9338765390484548e-06 0

VECTORS Forces1 float
-8.4549945877095398e-02 5.4154575676923319e-02 0
-7.2649430917179403e-02 -4.0616664567559149e-02 0
1.1956753901907520e+00 -6.6729982525810083e-01 0
1.0195227586803823e+00 5.6606056756918022e-01 0
1.3090010428591072e+00 -2.0429264825221938e-01 0
1.1146115839112463e+00 1.7564578068890291e-01 0
8.3180884797776511e-01 3.4334287254134253e-02 0
7.0766458520780084e-01 -2.8344221772879707e-02 0
-1.2545167444242589e-01 -4.8478554386816508e-03 0
-1.0694102961798144e-01 3.8770532335998475e-03 0
3.1758224554115655e+00 -1.1176665904470405e-03 0
2.6971849381240105e+00 2.5339328273389090e-02 0
-1.3423857236214551e-01 -1.6909765338965106e-04 0
-1.1454340497577641e-01 -1.9375594919819840e-03 0
9.0162023856672480e-01 -1.2401692359286043e-03 0
7.6826638499275612e-01 1.5415597151877675e-02 0
9.0169340417808308e-01 -1.2581702106485649e-03 0
7.6834621525001701e-01 1.5446759514281766e-02 0
-1.3431405289040729e-01 -5.6065771803747797e-05 0
-1.1465952630471325e-01 -2.1392446282128409e-03 0
3.1753352958223791e+00 -6.4346761047765922e-03 0
2.7333499906616576e+00 8.8629908813895569e-02 0
-1.3427657444907223e-01 9.9197655098673745e-05 0
-1.1766341892848900e-01 -4.9774663895866189e-03 0
9.0161499945593049e-01 -2.2855329383523592e-03 0
7.8960353007740280e-01 3.5419261310160176e-02 0
9.0161651561945777e-01 -2.2873202085740381e-03 0
7.8963748696150005e-01 3.5440245295487477e-02 0
-1.3427392044357428e-01 8.5498603740307843e-05 0
-1.1787781011654830e-01 -5.1027406554890343e-03 0
3.1775233516739365e+00 -4.2552560137887278e-03 0
2.8508471807058449e+00 1.5912167019393883e-01 0
-1.3434450651112773e-01 -3.1765442457517965e-04 0
-1.2429060521259595e-01 -7.8644765455408872e-03 0
9.0227150554789726e-01 5.3468515639890817e-04 0
8.3475440004883150e-01 5.4938414103885939e-02 0
9.0227021175046218e-01 5.3319065913661596e-04 0
8.3480856338093501e-01 5.4961479228255186e-02 0
-1.3435169192331614e-01 -3.7429744932224624e-04 0
-1.2467910564720917e-01 -7.9766504607413115e-03 0
3.1782180679895498e+00 1.4139127066756933e-02 0
3.0525629821206675e+00 2.2648176988056398e-01 0
-1.3435293743687154e-01 -1.5405536429097891e-03 0
-1.3468971360394835e-01 -1.0597711772477727e-02 0
9.0248671619922061e-01 8.6406232321375662e-03 0
9.0517778987483344e-01 7.3547400485560022e-02 0
9.0248149216052309e-01 8.6416619708967329e-03 0
9.0525507771192915e-01 7.3572762175946521e-02 0
-1.3435276344561495e-01 -1.6661728715428111e-03 0
-1.3526813700919824e-01 -1.0687378231826940e-02 0
3.1770168130151850e+00 6.1272164113774778e-02 0
3.3510449960816149e+00 2.8757691849219463e-01 0
-1.3384419815446000e-01 -4.3708122525224291e-03 0
-1.4941888405467649e-01 -1.2964911850917575e-02 0
8.9918117743185211e-01 2.7440676835351587e-02 0
1.0046685619152989e+00 8.9872747026695773e-02 0
8.9917474882151893e-01 2.7438666945700230e-02 0
1.0047751559158951e+00 8.9906139562447002e-02 0
-1.3386440452975334e-01 -4.5701833427468797e-03 0
-1.5025849012081610e-01 -1.3036782661289324e-02 0
3.1604134084448345e+00 1.2861027749761661e-01 0
3.7655308510020769e+00 3.5262084607895999e-01 0
-1.3435339646002720e-01 -7.6937789094713178e-03 0
-1.7068925447702310e-01 -1.5815062906635993e-02 0
9.0296771237641316e-01 4.8930361540383716e-02 0
1.1482112593295257e+00 1.0993465166357883e-01 0
9.0294936528444225e-01 4.8929805859033108e-02 0
1.1483483558553205e+00 1.0997752084446034e-01 0
-1.3437777879580612e-01 -8.1428998243647938e-03 0
-1.7191342777299606e-01 -1.5808540762106658e-02 0
3.1958412705616723e+00 2.9626057080158874e-01 0
4.3777886204369461e+00 3.9485423052755175e-01 0
-1.3291181984092146e-01 -1.8493533155532180e-02 0
-2.0028964007504910e-01 -1.6532405178200822e-02 0
8.9270792292103562e-01 1.2039033524847970e-01 0
1.3468459727510995e+00 1.1611783152170196e-01 0
8.9265585311528139e-01 1.2028523753618611e-01 0
1.3469673626091487e+00 1.1620623760126572e-01 0
-1.3368731319578644e-01 -1.9230959430730842e-02 0
-2.0273810141898974e-01 -1.6534487253787273e-02 0
3.1846077129745445e+00 3.9048203278925836e-01 0
5.2584483304493475e+00 5.2048495355858149e-01 0
-1.5340537436708929e-01 -2.1722220467217102e-02 0
-2.5821906045187620e-01 -2.3455671919076281e-02 0
1.0260151694924757e+00 1.3154687456009059e-01 0
1.7290192447579311e+00 1.6628474336389976e-01 0
1.0257109621099936e+00 1.3107833412890649e-01 0
1.7288258816194342e+00 1.6650275639802214e-01 0
-1.5558953373485437e-01 -2.6174853079865522e-02 0
-2.6414386410206486e-01 -2.1633355741735107e-02 0
4.1260602377162012e+00 1.4086053072451736e+00 0
7.2603695891019617e+00 2.9616774913896038e-01 0
-1.8476034282173187e-01 -1.1771875267004547e-01 0
-3.7891196174396286e-01 1.6321567628780082e-02 0
1.3524042688379307e+00 7.6823428595970222e-01 0
2.6323988729319905e+00 -2.0116661390964543e-02 0
8.6180944909822854e-01 4.2728392779186092e-01 0
2.0449574894946534e+00 -2.5153950454811589e-02 0
4.7263088987529365e+00 3.1755431636631362e+00 0
5.4073862607153949e+00 2.0988846920849807e-01 0
3.4637127084436736e-01 3.8186933573606680e-01 0
3.3508916141826255e+00 2.4524407949019253e+00 0
2.0731103039838330e+00 2.0266108660904969e+00 0
1.8993106709780538e+00 2.1586454624147646e+00 0
3.3575790573709101e+00 1.0814774873316826e+00 0
5.5591650242488866e-01 -1.9234365560341105e-01 0

