{
  "Finalized": "2019-11-13T13:23:53.221",
  "Initialized": "2019-11-13T13:23:50.968",
  "Name": "",
  "Ranks": [
    {
      "Finalized": "2019-11-13T13:23:53.221",
      "Initialized": "2019-11-13T13:23:50.968",
      "StateChanges": [
        {
          "Name": "_GLOBAL",
          "State": 1,
          "Timestamp": 0
        },
        {
          "Name": "_GLOBAL",
          "State": 0,
          "Timestamp": 2253
        },
        {
          "Name": "advance",
          "State": 1,
          "Timestamp": 228
        },
        {
          "Name": "advance",
          "State": 0,
          "Timestamp": 292
        },
        {
          "Name": "advance",
          "State": 1,
          "Timestamp": 324
        },
        {
          "Name": "advance",
          "State": 0,
          "Timestamp": 404
        },
        {
          "Name": "advance",
          "State": 1,
          "Timestamp": 436
        },
        {
          "Name": "advance",
          "State": 0,
          "Timestamp": 501
        },
        {
          "Name": "advance",
          "State": 1,
          "Timestamp": 533
        },
        {
          "Name": "advance",
          "State": 0,
          "Timestamp": 596
        },
        {
          "Name": "advance",
          "State": 1,
          "Timestamp": 628
        },
        {
          "Name": "advance",
          "State": 0,
          "Timestamp": 692
        },
        {
          "Name": "advance",
          "State": 1,
          "Timestamp": 724
        },
        {
          "Name": "advance",
          "State": 0,
          "Timestamp": 788
        },
        {
          "Name": "advance",
          "State": 1,
          "Timestamp": 819
        },
        {
          "Name": "advance",
          "State": 0,
          "Timestamp": 883
        },
        {
          "Name": "advance",
          "State": 1,
          "Timestamp": 915
        },
        {
          "Name": "advance",
          "State": 0,
          "Timestamp": 979
        },
        {
          "Name": "advance",
          "State": 1,
          "Timestamp": 1026
        },
        {
          "Name": "advance",
          "State": 0,
          "Timestamp": 1090
        },
        {
          "Name": "advance",
          "State": 1,
          "Timestamp": 1121
        },
        {
          "Name": "advance",
          "State": 0,
          "Timestamp": 1185
        },
        {
          "Name": "advance",
          "State": 1,
          "Timestamp": 1216
        },
        {
          "Name": "advance",
          "State": 0,
          "Timestamp": 1291
        },
        {
          "Name": "advance",
          "State": 1,
          "Timestamp": 1332
        },
        {
          "Name": "advance",
          "State": 0,
          "Timestamp": 1396
        },
        {
          "Name": "advance",
          "State": 1,
          "Timestamp": 1429
        },
        {
          "Name": "advance",
          "State": 0,
          "Timestamp": 1494
        },
        {
          "Name": "advance",
          "State": 1,
          "Timestamp": 1527
        },
        {
          "Name": "advance",
          "State": 0,
          "Timestamp": 1591
        },
        {
          "Name": "advance",
          "State": 1,
          "Timestamp": 1623
        },
        {
          "Name": "advance",
          "State": 0,
          "Timestamp": 1686
        },
        {
          "Name": "advance",
          "State": 1,
          "Timestamp": 1718
        },
        {
          "Name": "advance",
          "State": 0,
          "Timestamp": 1782
        },
        {
          "Name": "advance",
          "State": 1,
          "Timestamp": 1814
        },
        {
          "Name": "advance",
          "State": 0,
          "Timestamp": 1878
        },
        {
          "Name": "advance",
          "State": 1,
          "Timestamp": 1909
        },
        {
          "Name": "advance",
          "State": 0,
          "Timestamp": 1974
        },
        {
          "Name": "advance",
          "State": 1,
          "Timestamp": 2006
        },
        {
          "Name": "advance",
          "State": 0,
          "Timestamp": 2070
        },
        {
          "Name": "advance",
          "State": 1,
          "Timestamp": 2102
        },
        {
          "Name": "advance",
          "State": 0,
          "Timestamp": 2167
        },
        {
          "Name": "advance",
          "State": 1,
          "Timestamp": 2198
        },
        {
          "Name": "advance",
          "State": 0,
          "Timestamp": 2198
        },
        {
          "Name": "advance/cpl.computeQuasiNewtonUpdate",
          "State": 1,
          "Timestamp": 229
        },
        {
          "Name": "advance/cpl.computeQuasiNewtonUpdate",
          "State": 0,
          "Timestamp": 229
        },
        {
          "Name": "advance/cpl.computeQuasiNewtonUpdate",
          "State": 1,
          "Timestamp": 324
        },
        {
          "Name": "advance/cpl.computeQuasiNewtonUpdate",
          "State": 0,
          "Timestamp": 324
        },
        {
          "Name": "advance/cpl.computeQuasiNewtonUpdate",
          "State": 1,
          "Timestamp": 436
        },
        {
          "Name": "advance/cpl.computeQuasiNewtonUpdate",
          "State": 0,
          "Timestamp": 436
        },
        {
          "Name": "advance/cpl.computeQuasiNewtonUpdate",
          "State": 1,
          "Timestamp": 533
        },
        {
          "Name": "advance/cpl.computeQuasiNewtonUpdate",
          "State": 0,
          "Timestamp": 533
        },
        {
          "Name": "advance/cpl.computeQuasiNewtonUpdate",
          "State": 1,
          "Timestamp": 628
        },
        {
          "Name": "advance/cpl.computeQuasiNewtonUpdate",
          "State": 0,
          "Timestamp": 628
        },
        {
          "Name": "advance/cpl.computeQuasiNewtonUpdate",
          "State": 1,
          "Timestamp": 724
        },
        {
          "Name": "advance/cpl.computeQuasiNewtonUpdate",
          "State": 0,
          "Timestamp": 724
        },
        {
          "Name": "advance/cpl.computeQuasiNewtonUpdate",
          "State": 1,
          "Timestamp": 819
        },
        {
          "Name": "advance/cpl.computeQuasiNewtonUpdate",
          "State": 0,
          "Timestamp": 819
        },
        {
          "Name": "advance/cpl.computeQuasiNewtonUpdate",
          "State": 1,
          "Timestamp": 915
        },
        {
          "Name": "advance/cpl.computeQuasiNewtonUpdate",
          "State": 0,
          "Timestamp": 915
        },
        {
          "Name": "advance/cpl.computeQuasiNewtonUpdate",
          "State": 1,
          "Timestamp": 1026
        },
        {
          "Name": "advance/cpl.computeQuasiNewtonUpdate",
          "State": 0,
          "Timestamp": 1026
        },
        {
          "Name": "advance/cpl.computeQuasiNewtonUpdate",
          "State": 1,
          "Timestamp": 1121
        },
        {
          "Name": "advance/cpl.computeQuasiNewtonUpdate",
          "State": 0,
          "Timestamp": 1121
        },
        {
          "Name": "advance/cpl.computeQuasiNewtonUpdate",
          "State": 1,
          "Timestamp": 1332
        },
        {
          "Name": "advance/cpl.computeQuasiNewtonUpdate",
          "State": 0,
          "Timestamp": 1332
        },
        {
          "Name": "advance/cpl.computeQuasiNewtonUpdate",
          "State": 1,
          "Timestamp": 1429
        },
        {
          "Name": "advance/cpl.computeQuasiNewtonUpdate",
          "State": 0,
          "Timestamp": 1429
        },
        {
          "Name": "advance/cpl.computeQuasiNewtonUpdate",
          "State": 1,
          "Timestamp": 1527
        },
        {
          "Name": "advance/cpl.computeQuasiNewtonUpdate",
          "State": 0,
          "Timestamp": 1527
        },
        {
          "Name": "advance/cpl.computeQuasiNewtonUpdate",
          "State": 1,
          "Timestamp": 1623
        },
        {
          "Name": "advance/cpl.computeQuasiNewtonUpdate",
          "State": 0,
          "Timestamp": 1623
        },
        {
          "Name": "advance/cpl.computeQuasiNewtonUpdate",
          "State": 1,
          "Timestamp": 1718
        },
        {
          "Name": "advance/cpl.computeQuasiNewtonUpdate",
          "State": 0,
          "Timestamp": 1718
        },
        {
          "Name": "advance/cpl.computeQuasiNewtonUpdate",
          "State": 1,
          "Timestamp": 1814
        },
        {
          "Name": "advance/cpl.computeQuasiNewtonUpdate",
          "State": 0,
          "Timestamp": 1814
        },
        {
          "Name": "advance/cpl.computeQuasiNewtonUpdate",
          "State": 1,
          "Timestamp": 1910
        },
        {
          "Name": "advance/cpl.computeQuasiNewtonUpdate",
          "State": 0,
          "Timestamp": 1910
        },
        {
          "Name": "advance/cpl.computeQuasiNewtonUpdate",
          "State": 1,
          "Timestamp": 2006
        },
        {
          "Name": "advance/cpl.computeQuasiNewtonUpdate",
          "State": 0,
          "Timestamp": 2006
        },
        {
          "Name": "advance/cpl.computeQuasiNewtonUpdate",
          "State": 1,
          "Timestamp": 2102
        },
        {
          "Name": "advance/cpl.computeQuasiNewtonUpdate",
          "State": 0,
          "Timestamp": 2102
        },
        {
          "Name": "configure",
          "State": 1,
          "Timestamp": 0
        },
        {
          "Name": "configure",
          "State": 0,
          "Timestamp": 0
        },
        {
          "Name": "finalize",
          "State": 1,
          "Timestamp": 2210
        },
        {
          "Name": "finalize",
          "State": 0,
          "Timestamp": 2253
        },
        {
          "Name": "initialize",
          "State": 1,
          "Timestamp": 4
        },
        {
          "Name": "initialize",
          "State": 0,
          "Timestamp": 6
        },
        {
          "Name": "initialize/m2n.acceptMasterConnection",
          "State": 1,
          "Timestamp": 4
        },
        {
          "Name": "initialize/m2n.acceptMasterConnection",
          "State": 0,
          "Timestamp": 6
        },
        {
          "Name": "initialize/m2n.acceptSlavesConnection",
          "State": 1,
          "Timestamp": 6
        },
        {
          "Name": "initialize/m2n.acceptSlavesConnection",
          "State": 0,
          "Timestamp": 6
        },
        {
          "Name": "initialize/partition.feedbackMesh.NeumannNodes",
          "State": 1,
          "Timestamp": 6
        },
        {
          "Name": "initialize/partition.feedbackMesh.NeumannNodes",
          "State": 0,
          "Timestamp": 6
        },
        {
          "Name": "initialize/partition.gatherMesh.NeumannNodes",
          "State": 1,
          "Timestamp": 6
        },
        {
          "Name": "initialize/partition.gatherMesh.NeumannNodes",
          "State": 0,
          "Timestamp": 6
        },
        {
          "Name": "initialize/partition.sendGlobalMesh.NeumannNodes",
          "State": 1,
          "Timestamp": 6
        },
        {
          "Name": "initialize/partition.sendGlobalMesh.NeumannNodes",
          "State": 0,
          "Timestamp": 6
        },
        {
          "Name": "initializeData",
          "State": 1,
          "Timestamp": 6
        },
        {
          "Name": "initializeData",
          "State": 0,
          "Timestamp": 156
        },
        {
          "Name": "solver.advance",
          "State": 1,
          "Timestamp": 292
        },
        {
          "Name": "solver.advance",
          "State": 0,
          "Timestamp": 324
        },
        {
          "Name": "solver.advance",
          "State": 1,
          "Timestamp": 404
        },
        {
          "Name": "solver.advance",
          "State": 0,
          "Timestamp": 436
        },
        {
          "Name": "solver.advance",
          "State": 1,
          "Timestamp": 501
        },
        {
          "Name": "solver.advance",
          "State": 0,
          "Timestamp": 533
        },
        {
          "Name": "solver.advance",
          "State": 1,
          "Timestamp": 596
        },
        {
          "Name": "solver.advance",
          "State": 0,
          "Timestamp": 628
        },
        {
          "Name": "solver.advance",
          "State": 1,
          "Timestamp": 692
        },
        {
          "Name": "solver.advance",
          "State": 0,
          "Timestamp": 724
        },
        {
          "Name": "solver.advance",
          "State": 1,
          "Timestamp": 788
        },
        {
          "Name": "solver.advance",
          "State": 0,
          "Timestamp": 819
        },
        {
          "Name": "solver.advance",
          "State": 1,
          "Timestamp": 883
        },
        {
          "Name": "solver.advance",
          "State": 0,
          "Timestamp": 915
        },
        {
          "Name": "solver.advance",
          "State": 1,
          "Timestamp": 979
        },
        {
          "Name": "solver.advance",
          "State": 0,
          "Timestamp": 1026
        },
        {
          "Name": "solver.advance",
          "State": 1,
          "Timestamp": 1090
        },
        {
          "Name": "solver.advance",
          "State": 0,
          "Timestamp": 1121
        },
        {
          "Name": "solver.advance",
          "State": 1,
          "Timestamp": 1185
        },
        {
          "Name": "solver.advance",
          "State": 0,
          "Timestamp": 1216
        },
        {
          "Name": "solver.advance",
          "State": 1,
          "Timestamp": 1291
        },
        {
          "Name": "solver.advance",
          "State": 0,
          "Timestamp": 1332
        },
        {
          "Name": "solver.advance",
          "State": 1,
          "Timestamp": 1396
        },
        {
          "Name": "solver.advance",
          "State": 0,
          "Timestamp": 1429
        },
        {
          "Name": "solver.advance",
          "State": 1,
          "Timestamp": 1494
        },
        {
          "Name": "solver.advance",
          "State": 0,
          "Timestamp": 1527
        },
        {
          "Name": "solver.advance",
          "State": 1,
          "Timestamp": 1591
        },
        {
          "Name": "solver.advance",
          "State": 0,
          "Timestamp": 1623
        },
        {
          "Name": "solver.advance",
          "State": 1,
          "Timestamp": 1686
        },
        {
          "Name": "solver.advance",
          "State": 0,
          "Timestamp": 1718
        },
        {
          "Name": "solver.advance",
          "State": 1,
          "Timestamp": 1782
        },
        {
          "Name": "solver.advance",
          "State": 0,
          "Timestamp": 1814
        },
        {
          "Name": "solver.advance",
          "State": 1,
          "Timestamp": 1878
        },
        {
          "Name": "solver.advance",
          "State": 0,
          "Timestamp": 1909
        },
        {
          "Name": "solver.advance",
          "State": 1,
          "Timestamp": 1974
        },
        {
          "Name": "solver.advance",
          "State": 0,
          "Timestamp": 2006
        },
        {
          "Name": "solver.advance",
          "State": 1,
          "Timestamp": 2070
        },
        {
          "Name": "solver.advance",
          "State": 0,
          "Timestamp": 2102
        },
        {
          "Name": "solver.advance",
          "State": 1,
          "Timestamp": 2167
        },
        {
          "Name": "solver.advance",
          "State": 0,
          "Timestamp": 2198
        },
        {
          "Name": "solver.advance",
          "State": 1,
          "Timestamp": 2198
        },
        {
          "Name": "solver.advance",
          "State": 0,
          "Timestamp": 2210
        },
        {
          "Name": "solver.initialize",
          "State": 1,
          "Timestamp": 0
        },
        {
          "Name": "solver.initialize",
          "State": 2,
          "Timestamp": 4
        },
        {
          "Name": "solver.initialize",
          "State": 1,
          "Timestamp": 6
        },
        {
          "Name": "solver.initialize",
          "State": 2,
          "Timestamp": 6
        },
        {
          "Name": "solver.initialize",
          "State": 1,
          "Timestamp": 156
        },
        {
          "Name": "solver.initialize",
          "State": 0,
          "Timestamp": 228
        }
      ],
      "Timings": {
        "_GLOBAL": {
          "Count": 1,
          "Data": {},
          "Max": 2253,
          "Min": 2253,
          "TimeRatio": 1.0,
          "Total": 2253
        },
        "advance": {
          "Count": 21,
          "Data": {},
          "Max": 79,
          "Min": 0,
          "TimeRatio": 0.5810031069684864,
          "Total": 1309
        },
        "advance/cpl.computeQuasiNewtonUpdate": {
          "Count": 19,
          "Data": {},
          "Max": 0,
          "Min": 0,
          "TimeRatio": 0.0,
          "Total": 0
        },
        "configure": {
          "Count": 1,
          "Data": {},
          "Max": 0,
          "Min": 0,
          "TimeRatio": 0.0,
          "Total": 0
        },
        "finalize": {
          "Count": 1,
          "Data": {},
          "Max": 43,
          "Min": 43,
          "TimeRatio": 0.01908566355969818,
          "Total": 43
        },
        "initialize": {
          "Count": 1,
          "Data": {},
          "Max": 2,
          "Min": 2,
          "TimeRatio": 0.000887705281846427,
          "Total": 2
        },
        "initialize/m2n.acceptMasterConnection": {
          "Count": 1,
          "Data": {},
          "Max": 2,
          "Min": 2,
          "TimeRatio": 0.000887705281846427,
          "Total": 2
        },
        "initialize/m2n.acceptSlavesConnection": {
          "Count": 1,
          "Data": {},
          "Max": 0,
          "Min": 0,
          "TimeRatio": 0.0,
          "Total": 0
        },
        "initialize/partition.feedbackMesh.NeumannNodes": {
          "Count": 1,
          "Data": {},
          "Max": 0,
          "Min": 0,
          "TimeRatio": 0.0,
          "Total": 0
        },
        "initialize/partition.gatherMesh.NeumannNodes": {
          "Count": 1,
          "Data": {},
          "Max": 0,
          "Min": 0,
          "TimeRatio": 0.0,
          "Total": 0
        },
        "initialize/partition.sendGlobalMesh.NeumannNodes": {
          "Count": 1,
          "Data": {},
          "Max": 0,
          "Min": 0,
          "TimeRatio": 0.0,
          "Total": 0
        },
        "initializeData": {
          "Count": 1,
          "Data": {},
          "Max": 149,
          "Min": 149,
          "TimeRatio": 0.06613404349755882,
          "Total": 149
        },
        "solver.advance": {
          "Count": 21,
          "Data": {},
          "Max": 46,
          "Min": 11,
          "TimeRatio": 0.29782512205947625,
          "Total": 671
        },
        "solver.initialize": {
          "Count": 1,
          "Data": {},
          "Max": 76,
          "Min": 76,
          "TimeRatio": 0.033732800710164226,
          "Total": 76
        }
      }
    }
  ]
}
