Timesteps  Total_Iterations  Iterations  Convergence  avgConvRate(0)  avgConvRate(1)  avgConvRate(2)  avgConvRate(3)  avgConvRate(4)  avgConvRate(5)  avgConvRate(6)  avgConvRate(7)  avgConvRate(8)  avgConvRate(9)  deleted_Columns  
1  19  19  1  0.1759521997123511  0.1746200450529492  0.1696173834156068  0.1764652553212330  0.1712884002843464  0.1950834394948154  0.2004786362162274  0.1965394617332430  0.2072560157423780  0.2017867699041226  1  
2  38  19  1  0.1707464983710839  0.1703552458346152  0.1725982721470963  0.1759392245346627  0.1743559492607782  0.2113862722533472  0.2178883777683895  0.2126727640154602  0.2142687806686603  0.2240522064697348  1  
3  55  17  1  0.1406813651538614  0.1399072629553423  0.1441908899857258  0.1436930880309263  0.1440217279367939  0.1753995305333608  0.1693868303247978  0.1703915893780052  0.1706088477248608  0.1738770243793757  1  
4  72  17  1  0.1445262711638026  0.1432369915867296  0.1405679780985429  0.1416443664865106  0.1450610137829894  0.1738701517098730  0.1723593797710379  0.1661908449464730  0.1707664737888416  0.1743652599024806  1  