{
  "Finalized": "2019-11-13T14:02:43.218",
  "Initialized": "2019-11-13T14:02:31.368",
  "Name": "",
  "Ranks": [
    {
      "Finalized": "2019-11-13T14:02:43.218",
      "Initialized": "2019-11-13T14:02:31.368",
      "StateChanges": [
        {
          "Name": "_GLOBAL",
          "State": 1,
          "Timestamp": 0
        },
        {
          "Name": "_GLOBAL",
          "State": 0,
          "Timestamp": 11850
        },
        {
          "Name": "advance",
          "State": 1,
          "Timestamp": 291
        },
        {
          "Name": "advance",
          "State": 0,
          "Timestamp": 326
        },
        {
          "Name": "advance",
          "State": 1,
          "Timestamp": 462
        },
        {
          "Name": "advance",
          "State": 0,
          "Timestamp": 564
        },
        {
          "Name": "advance",
          "State": 1,
          "Timestamp": 685
        },
        {
          "Name": "advance",
          "State": 0,
          "Timestamp": 734
        },
        {
          "Name": "advance",
          "State": 1,
          "Timestamp": 855
        },
        {
          "Name": "advance",
          "State": 0,
          "Timestamp": 889
        },
        {
          "Name": "advance",
          "State": 1,
          "Timestamp": 1010
        },
        {
          "Name": "advance",
          "State": 0,
          "Timestamp": 1094
        },
        {
          "Name": "advance",
          "State": 1,
          "Timestamp": 1217
        },
        {
          "Name": "advance",
          "State": 0,
          "Timestamp": 1251
        },
        {
          "Name": "advance",
          "State": 1,
          "Timestamp": 1374
        },
        {
          "Name": "advance",
          "State": 0,
          "Timestamp": 1456
        },
        {
          "Name": "advance",
          "State": 1,
          "Timestamp": 1578
        },
        {
          "Name": "advance",
          "State": 0,
          "Timestamp": 1659
        },
        {
          "Name": "advance",
          "State": 1,
          "Timestamp": 1779
        },
        {
          "Name": "advance",
          "State": 0,
          "Timestamp": 1858
        },
        {
          "Name": "advance",
          "State": 1,
          "Timestamp": 1980
        },
        {
          "Name": "advance",
          "State": 0,
          "Timestamp": 2079
        },
        {
          "Name": "advance",
          "State": 1,
          "Timestamp": 2199
        },
        {
          "Name": "advance",
          "State": 0,
          "Timestamp": 2234
        },
        {
          "Name": "advance",
          "State": 1,
          "Timestamp": 2354
        },
        {
          "Name": "advance",
          "State": 0,
          "Timestamp": 2434
        },
        {
          "Name": "advance",
          "State": 1,
          "Timestamp": 2556
        },
        {
          "Name": "advance",
          "State": 0,
          "Timestamp": 2654
        },
        {
          "Name": "advance",
          "State": 1,
          "Timestamp": 2776
        },
        {
          "Name": "advance",
          "State": 0,
          "Timestamp": 2811
        },
        {
          "Name": "advance",
          "State": 1,
          "Timestamp": 2932
        },
        {
          "Name": "advance",
          "State": 0,
          "Timestamp": 3010
        },
        {
          "Name": "advance",
          "State": 1,
          "Timestamp": 3133
        },
        {
          "Name": "advance",
          "State": 0,
          "Timestamp": 3215
        },
        {
          "Name": "advance",
          "State": 1,
          "Timestamp": 3334
        },
        {
          "Name": "advance",
          "State": 0,
          "Timestamp": 3434
        },
        {
          "Name": "advance",
          "State": 1,
          "Timestamp": 3556
        },
        {
          "Name": "advance",
          "State": 0,
          "Timestamp": 3590
        },
        {
          "Name": "advance",
          "State": 1,
          "Timestamp": 3711
        },
        {
          "Name": "advance",
          "State": 0,
          "Timestamp": 3801
        },
        {
          "Name": "advance",
          "State": 1,
          "Timestamp": 3933
        },
        {
          "Name": "advance",
          "State": 0,
          "Timestamp": 3968
        },
        {
          "Name": "advance",
          "State": 1,
          "Timestamp": 4089
        },
        {
          "Name": "advance",
          "State": 0,
          "Timestamp": 4171
        },
        {
          "Name": "advance",
          "State": 1,
          "Timestamp": 4292
        },
        {
          "Name": "advance",
          "State": 0,
          "Timestamp": 4370
        },
        {
          "Name": "advance",
          "State": 1,
          "Timestamp": 4492
        },
        {
          "Name": "advance",
          "State": 0,
          "Timestamp": 4570
        },
        {
          "Name": "advance",
          "State": 1,
          "Timestamp": 4691
        },
        {
          "Name": "advance",
          "State": 0,
          "Timestamp": 4769
        },
        {
          "Name": "advance",
          "State": 1,
          "Timestamp": 4892
        },
        {
          "Name": "advance",
          "State": 0,
          "Timestamp": 4969
        },
        {
          "Name": "advance",
          "State": 1,
          "Timestamp": 5090
        },
        {
          "Name": "advance",
          "State": 0,
          "Timestamp": 5173
        },
        {
          "Name": "advance",
          "State": 1,
          "Timestamp": 5293
        },
        {
          "Name": "advance",
          "State": 0,
          "Timestamp": 5327
        },
        {
          "Name": "advance",
          "State": 1,
          "Timestamp": 5448
        },
        {
          "Name": "advance",
          "State": 0,
          "Timestamp": 5545
        },
        {
          "Name": "advance",
          "State": 1,
          "Timestamp": 5667
        },
        {
          "Name": "advance",
          "State": 0,
          "Timestamp": 5703
        },
        {
          "Name": "advance",
          "State": 1,
          "Timestamp": 5823
        },
        {
          "Name": "advance",
          "State": 0,
          "Timestamp": 5903
        },
        {
          "Name": "advance",
          "State": 1,
          "Timestamp": 6023
        },
        {
          "Name": "advance",
          "State": 0,
          "Timestamp": 6124
        },
        {
          "Name": "advance",
          "State": 1,
          "Timestamp": 6244
        },
        {
          "Name": "advance",
          "State": 0,
          "Timestamp": 6279
        },
        {
          "Name": "advance",
          "State": 1,
          "Timestamp": 6399
        },
        {
          "Name": "advance",
          "State": 0,
          "Timestamp": 6479
        },
        {
          "Name": "advance",
          "State": 1,
          "Timestamp": 6600
        },
        {
          "Name": "advance",
          "State": 0,
          "Timestamp": 6679
        },
        {
          "Name": "advance",
          "State": 1,
          "Timestamp": 6799
        },
        {
          "Name": "advance",
          "State": 0,
          "Timestamp": 6878
        },
        {
          "Name": "advance",
          "State": 1,
          "Timestamp": 6999
        },
        {
          "Name": "advance",
          "State": 0,
          "Timestamp": 7099
        },
        {
          "Name": "advance",
          "State": 1,
          "Timestamp": 7221
        },
        {
          "Name": "advance",
          "State": 0,
          "Timestamp": 7266
        },
        {
          "Name": "advance",
          "State": 1,
          "Timestamp": 7397
        },
        {
          "Name": "advance",
          "State": 0,
          "Timestamp": 7432
        },
        {
          "Name": "advance",
          "State": 1,
          "Timestamp": 7555
        },
        {
          "Name": "advance",
          "State": 0,
          "Timestamp": 7654
        },
        {
          "Name": "advance",
          "State": 1,
          "Timestamp": 7776
        },
        {
          "Name": "advance",
          "State": 0,
          "Timestamp": 7811
        },
        {
          "Name": "advance",
          "State": 1,
          "Timestamp": 7932
        },
        {
          "Name": "advance",
          "State": 0,
          "Timestamp": 8010
        },
        {
          "Name": "advance",
          "State": 1,
          "Timestamp": 8131
        },
        {
          "Name": "advance",
          "State": 0,
          "Timestamp": 8211
        },
        {
          "Name": "advance",
          "State": 1,
          "Timestamp": 8333
        },
        {
          "Name": "advance",
          "State": 0,
          "Timestamp": 8415
        },
        {
          "Name": "advance",
          "State": 1,
          "Timestamp": 8537
        },
        {
          "Name": "advance",
          "State": 0,
          "Timestamp": 8639
        },
        {
          "Name": "advance",
          "State": 1,
          "Timestamp": 8760
        },
        {
          "Name": "advance",
          "State": 0,
          "Timestamp": 8794
        },
        {
          "Name": "advance",
          "State": 1,
          "Timestamp": 8915
        },
        {
          "Name": "advance",
          "State": 0,
          "Timestamp": 8994
        },
        {
          "Name": "advance",
          "State": 1,
          "Timestamp": 9115
        },
        {
          "Name": "advance",
          "State": 0,
          "Timestamp": 9194
        },
        {
          "Name": "advance",
          "State": 1,
          "Timestamp": 9317
        },
        {
          "Name": "advance",
          "State": 0,
          "Timestamp": 9420
        },
        {
          "Name": "advance",
          "State": 1,
          "Timestamp": 9543
        },
        {
          "Name": "advance",
          "State": 0,
          "Timestamp": 9578
        },
        {
          "Name": "advance",
          "State": 1,
          "Timestamp": 9700
        },
        {
          "Name": "advance",
          "State": 0,
          "Timestamp": 9780
        },
        {
          "Name": "advance",
          "State": 1,
          "Timestamp": 9901
        },
        {
          "Name": "advance",
          "State": 0,
          "Timestamp": 9996
        },
        {
          "Name": "advance",
          "State": 1,
          "Timestamp": 10129
        },
        {
          "Name": "advance",
          "State": 0,
          "Timestamp": 10163
        },
        {
          "Name": "advance",
          "State": 1,
          "Timestamp": 10286
        },
        {
          "Name": "advance",
          "State": 0,
          "Timestamp": 10369
        },
        {
          "Name": "advance",
          "State": 1,
          "Timestamp": 10489
        },
        {
          "Name": "advance",
          "State": 0,
          "Timestamp": 10525
        },
        {
          "Name": "advance",
          "State": 1,
          "Timestamp": 10646
        },
        {
          "Name": "advance",
          "State": 0,
          "Timestamp": 10733
        },
        {
          "Name": "advance",
          "State": 1,
          "Timestamp": 10854
        },
        {
          "Name": "advance",
          "State": 0,
          "Timestamp": 10889
        },
        {
          "Name": "advance",
          "State": 1,
          "Timestamp": 11010
        },
        {
          "Name": "advance",
          "State": 0,
          "Timestamp": 11091
        },
        {
          "Name": "advance",
          "State": 1,
          "Timestamp": 11211
        },
        {
          "Name": "advance",
          "State": 0,
          "Timestamp": 11290
        },
        {
          "Name": "advance",
          "State": 1,
          "Timestamp": 11413
        },
        {
          "Name": "advance",
          "State": 0,
          "Timestamp": 11495
        },
        {
          "Name": "advance",
          "State": 1,
          "Timestamp": 11617
        },
        {
          "Name": "advance",
          "State": 0,
          "Timestamp": 11702
        },
        {
          "Name": "advance",
          "State": 1,
          "Timestamp": 11822
        },
        {
          "Name": "advance",
          "State": 0,
          "Timestamp": 11823
        },
        {
          "Name": "advance/cpl.computeQuasiNewtonUpdate",
          "State": 1,
          "Timestamp": 292
        },
        {
          "Name": "advance/cpl.computeQuasiNewtonUpdate",
          "State": 0,
          "Timestamp": 292
        },
        {
          "Name": "advance/cpl.computeQuasiNewtonUpdate",
          "State": 1,
          "Timestamp": 462
        },
        {
          "Name": "advance/cpl.computeQuasiNewtonUpdate",
          "State": 0,
          "Timestamp": 462
        },
        {
          "Name": "advance/cpl.computeQuasiNewtonUpdate",
          "State": 1,
          "Timestamp": 685
        },
        {
          "Name": "advance/cpl.computeQuasiNewtonUpdate",
          "State": 0,
          "Timestamp": 685
        },
        {
          "Name": "advance/cpl.computeQuasiNewtonUpdate",
          "State": 1,
          "Timestamp": 855
        },
        {
          "Name": "advance/cpl.computeQuasiNewtonUpdate",
          "State": 0,
          "Timestamp": 855
        },
        {
          "Name": "advance/cpl.computeQuasiNewtonUpdate",
          "State": 1,
          "Timestamp": 1010
        },
        {
          "Name": "advance/cpl.computeQuasiNewtonUpdate",
          "State": 0,
          "Timestamp": 1010
        },
        {
          "Name": "advance/cpl.computeQuasiNewtonUpdate",
          "State": 1,
          "Timestamp": 1217
        },
        {
          "Name": "advance/cpl.computeQuasiNewtonUpdate",
          "State": 0,
          "Timestamp": 1217
        },
        {
          "Name": "advance/cpl.computeQuasiNewtonUpdate",
          "State": 1,
          "Timestamp": 1374
        },
        {
          "Name": "advance/cpl.computeQuasiNewtonUpdate",
          "State": 0,
          "Timestamp": 1374
        },
        {
          "Name": "advance/cpl.computeQuasiNewtonUpdate",
          "State": 1,
          "Timestamp": 1578
        },
        {
          "Name": "advance/cpl.computeQuasiNewtonUpdate",
          "State": 0,
          "Timestamp": 1578
        },
        {
          "Name": "advance/cpl.computeQuasiNewtonUpdate",
          "State": 1,
          "Timestamp": 1780
        },
        {
          "Name": "advance/cpl.computeQuasiNewtonUpdate",
          "State": 0,
          "Timestamp": 1780
        },
        {
          "Name": "advance/cpl.computeQuasiNewtonUpdate",
          "State": 1,
          "Timestamp": 1980
        },
        {
          "Name": "advance/cpl.computeQuasiNewtonUpdate",
          "State": 0,
          "Timestamp": 1980
        },
        {
          "Name": "advance/cpl.computeQuasiNewtonUpdate",
          "State": 1,
          "Timestamp": 2199
        },
        {
          "Name": "advance/cpl.computeQuasiNewtonUpdate",
          "State": 0,
          "Timestamp": 2199
        },
        {
          "Name": "advance/cpl.computeQuasiNewtonUpdate",
          "State": 1,
          "Timestamp": 2354
        },
        {
          "Name": "advance/cpl.computeQuasiNewtonUpdate",
          "State": 0,
          "Timestamp": 2354
        },
        {
          "Name": "advance/cpl.computeQuasiNewtonUpdate",
          "State": 1,
          "Timestamp": 2556
        },
        {
          "Name": "advance/cpl.computeQuasiNewtonUpdate",
          "State": 0,
          "Timestamp": 2556
        },
        {
          "Name": "advance/cpl.computeQuasiNewtonUpdate",
          "State": 1,
          "Timestamp": 2776
        },
        {
          "Name": "advance/cpl.computeQuasiNewtonUpdate",
          "State": 0,
          "Timestamp": 2776
        },
        {
          "Name": "advance/cpl.computeQuasiNewtonUpdate",
          "State": 1,
          "Timestamp": 2932
        },
        {
          "Name": "advance/cpl.computeQuasiNewtonUpdate",
          "State": 0,
          "Timestamp": 2932
        },
        {
          "Name": "advance/cpl.computeQuasiNewtonUpdate",
          "State": 1,
          "Timestamp": 3133
        },
        {
          "Name": "advance/cpl.computeQuasiNewtonUpdate",
          "State": 0,
          "Timestamp": 3133
        },
        {
          "Name": "advance/cpl.computeQuasiNewtonUpdate",
          "State": 1,
          "Timestamp": 3334
        },
        {
          "Name": "advance/cpl.computeQuasiNewtonUpdate",
          "State": 0,
          "Timestamp": 3334
        },
        {
          "Name": "advance/cpl.computeQuasiNewtonUpdate",
          "State": 1,
          "Timestamp": 3556
        },
        {
          "Name": "advance/cpl.computeQuasiNewtonUpdate",
          "State": 0,
          "Timestamp": 3556
        },
        {
          "Name": "advance/cpl.computeQuasiNewtonUpdate",
          "State": 1,
          "Timestamp": 3934
        },
        {
          "Name": "advance/cpl.computeQuasiNewtonUpdate",
          "State": 0,
          "Timestamp": 3934
        },
        {
          "Name": "advance/cpl.computeQuasiNewtonUpdate",
          "State": 1,
          "Timestamp": 4089
        },
        {
          "Name": "advance/cpl.computeQuasiNewtonUpdate",
          "State": 0,
          "Timestamp": 4089
        },
        {
          "Name": "advance/cpl.computeQuasiNewtonUpdate",
          "State": 1,
          "Timestamp": 4292
        },
        {
          "Name": "advance/cpl.computeQuasiNewtonUpdate",
          "State": 0,
          "Timestamp": 4292
        },
        {
          "Name": "advance/cpl.computeQuasiNewtonUpdate",
          "State": 1,
          "Timestamp": 4492
        },
        {
          "Name": "advance/cpl.computeQuasiNewtonUpdate",
          "State": 0,
          "Timestamp": 4492
        },
        {
          "Name": "advance/cpl.computeQuasiNewtonUpdate",
          "State": 1,
          "Timestamp": 4692
        },
        {
          "Name": "advance/cpl.computeQuasiNewtonUpdate",
          "State": 0,
          "Timestamp": 4692
        },
        {
          "Name": "advance/cpl.computeQuasiNewtonUpdate",
          "State": 1,
          "Timestamp": 4892
        },
        {
          "Name": "advance/cpl.computeQuasiNewtonUpdate",
          "State": 0,
          "Timestamp": 4892
        },
        {
          "Name": "advance/cpl.computeQuasiNewtonUpdate",
          "State": 1,
          "Timestamp": 5090
        },
        {
          "Name": "advance/cpl.computeQuasiNewtonUpdate",
          "State": 0,
          "Timestamp": 5090
        },
        {
          "Name": "advance/cpl.computeQuasiNewtonUpdate",
          "State": 1,
          "Timestamp": 5293
        },
        {
          "Name": "advance/cpl.computeQuasiNewtonUpdate",
          "State": 0,
          "Timestamp": 5293
        },
        {
          "Name": "advance/cpl.computeQuasiNewtonUpdate",
          "State": 1,
          "Timestamp": 5448
        },
        {
          "Name": "advance/cpl.computeQuasiNewtonUpdate",
          "State": 0,
          "Timestamp": 5448
        },
        {
          "Name": "advance/cpl.computeQuasiNewtonUpdate",
          "State": 1,
          "Timestamp": 5668
        },
        {
          "Name": "advance/cpl.computeQuasiNewtonUpdate",
          "State": 0,
          "Timestamp": 5668
        },
        {
          "Name": "advance/cpl.computeQuasiNewtonUpdate",
          "State": 1,
          "Timestamp": 5823
        },
        {
          "Name": "advance/cpl.computeQuasiNewtonUpdate",
          "State": 0,
          "Timestamp": 5823
        },
        {
          "Name": "advance/cpl.computeQuasiNewtonUpdate",
          "State": 1,
          "Timestamp": 6023
        },
        {
          "Name": "advance/cpl.computeQuasiNewtonUpdate",
          "State": 0,
          "Timestamp": 6023
        },
        {
          "Name": "advance/cpl.computeQuasiNewtonUpdate",
          "State": 1,
          "Timestamp": 6244
        },
        {
          "Name": "advance/cpl.computeQuasiNewtonUpdate",
          "State": 0,
          "Timestamp": 6244
        },
        {
          "Name": "advance/cpl.computeQuasiNewtonUpdate",
          "State": 1,
          "Timestamp": 6399
        },
        {
          "Name": "advance/cpl.computeQuasiNewtonUpdate",
          "State": 0,
          "Timestamp": 6399
        },
        {
          "Name": "advance/cpl.computeQuasiNewtonUpdate",
          "State": 1,
          "Timestamp": 6600
        },
        {
          "Name": "advance/cpl.computeQuasiNewtonUpdate",
          "State": 0,
          "Timestamp": 6600
        },
        {
          "Name": "advance/cpl.computeQuasiNewtonUpdate",
          "State": 1,
          "Timestamp": 6799
        },
        {
          "Name": "advance/cpl.computeQuasiNewtonUpdate",
          "State": 0,
          "Timestamp": 6799
        },
        {
          "Name": "advance/cpl.computeQuasiNewtonUpdate",
          "State": 1,
          "Timestamp": 6999
        },
        {
          "Name": "advance/cpl.computeQuasiNewtonUpdate",
          "State": 0,
          "Timestamp": 6999
        },
        {
          "Name": "advance/cpl.computeQuasiNewtonUpdate",
          "State": 1,
          "Timestamp": 7397
        },
        {
          "Name": "advance/cpl.computeQuasiNewtonUpdate",
          "State": 0,
          "Timestamp": 7397
        },
        {
          "Name": "advance/cpl.computeQuasiNewtonUpdate",
          "State": 1,
          "Timestamp": 7555
        },
        {
          "Name": "advance/cpl.computeQuasiNewtonUpdate",
          "State": 0,
          "Timestamp": 7555
        },
        {
          "Name": "advance/cpl.computeQuasiNewtonUpdate",
          "State": 1,
          "Timestamp": 7776
        },
        {
          "Name": "advance/cpl.computeQuasiNewtonUpdate",
          "State": 0,
          "Timestamp": 7776
        },
        {
          "Name": "advance/cpl.computeQuasiNewtonUpdate",
          "State": 1,
          "Timestamp": 7932
        },
        {
          "Name": "advance/cpl.computeQuasiNewtonUpdate",
          "State": 0,
          "Timestamp": 7932
        },
        {
          "Name": "advance/cpl.computeQuasiNewtonUpdate",
          "State": 1,
          "Timestamp": 8131
        },
        {
          "Name": "advance/cpl.computeQuasiNewtonUpdate",
          "State": 0,
          "Timestamp": 8131
        },
        {
          "Name": "advance/cpl.computeQuasiNewtonUpdate",
          "State": 1,
          "Timestamp": 8333
        },
        {
          "Name": "advance/cpl.computeQuasiNewtonUpdate",
          "State": 0,
          "Timestamp": 8333
        },
        {
          "Name": "advance/cpl.computeQuasiNewtonUpdate",
          "State": 1,
          "Timestamp": 8537
        },
        {
          "Name": "advance/cpl.computeQuasiNewtonUpdate",
          "State": 0,
          "Timestamp": 8537
        },
        {
          "Name": "advance/cpl.computeQuasiNewtonUpdate",
          "State": 1,
          "Timestamp": 8760
        },
        {
          "Name": "advance/cpl.computeQuasiNewtonUpdate",
          "State": 0,
          "Timestamp": 8760
        },
        {
          "Name": "advance/cpl.computeQuasiNewtonUpdate",
          "State": 1,
          "Timestamp": 8915
        },
        {
          "Name": "advance/cpl.computeQuasiNewtonUpdate",
          "State": 0,
          "Timestamp": 8915
        },
        {
          "Name": "advance/cpl.computeQuasiNewtonUpdate",
          "State": 1,
          "Timestamp": 9115
        },
        {
          "Name": "advance/cpl.computeQuasiNewtonUpdate",
          "State": 0,
          "Timestamp": 9116
        },
        {
          "Name": "advance/cpl.computeQuasiNewtonUpdate",
          "State": 1,
          "Timestamp": 9317
        },
        {
          "Name": "advance/cpl.computeQuasiNewtonUpdate",
          "State": 0,
          "Timestamp": 9317
        },
        {
          "Name": "advance/cpl.computeQuasiNewtonUpdate",
          "State": 1,
          "Timestamp": 9543
        },
        {
          "Name": "advance/cpl.computeQuasiNewtonUpdate",
          "State": 0,
          "Timestamp": 9543
        },
        {
          "Name": "advance/cpl.computeQuasiNewtonUpdate",
          "State": 1,
          "Timestamp": 9700
        },
        {
          "Name": "advance/cpl.computeQuasiNewtonUpdate",
          "State": 0,
          "Timestamp": 9700
        },
        {
          "Name": "advance/cpl.computeQuasiNewtonUpdate",
          "State": 1,
          "Timestamp": 10129
        },
        {
          "Name": "advance/cpl.computeQuasiNewtonUpdate",
          "State": 0,
          "Timestamp": 10129
        },
        {
          "Name": "advance/cpl.computeQuasiNewtonUpdate",
          "State": 1,
          "Timestamp": 10286
        },
        {
          "Name": "advance/cpl.computeQuasiNewtonUpdate",
          "State": 0,
          "Timestamp": 10286
        },
        {
          "Name": "advance/cpl.computeQuasiNewtonUpdate",
          "State": 1,
          "Timestamp": 10490
        },
        {
          "Name": "advance/cpl.computeQuasiNewtonUpdate",
          "State": 0,
          "Timestamp": 10490
        },
        {
          "Name": "advance/cpl.computeQuasiNewtonUpdate",
          "State": 1,
          "Timestamp": 10646
        },
        {
          "Name": "advance/cpl.computeQuasiNewtonUpdate",
          "State": 0,
          "Timestamp": 10646
        },
        {
          "Name": "advance/cpl.computeQuasiNewtonUpdate",
          "State": 1,
          "Timestamp": 10854
        },
        {
          "Name": "advance/cpl.computeQuasiNewtonUpdate",
          "State": 0,
          "Timestamp": 10854
        },
        {
          "Name": "advance/cpl.computeQuasiNewtonUpdate",
          "State": 1,
          "Timestamp": 11010
        },
        {
          "Name": "advance/cpl.computeQuasiNewtonUpdate",
          "State": 0,
          "Timestamp": 11010
        },
        {
          "Name": "advance/cpl.computeQuasiNewtonUpdate",
          "State": 1,
          "Timestamp": 11211
        },
        {
          "Name": "advance/cpl.computeQuasiNewtonUpdate",
          "State": 0,
          "Timestamp": 11211
        },
        {
          "Name": "advance/cpl.computeQuasiNewtonUpdate",
          "State": 1,
          "Timestamp": 11413
        },
        {
          "Name": "advance/cpl.computeQuasiNewtonUpdate",
          "State": 0,
          "Timestamp": 11413
        },
        {
          "Name": "advance/cpl.computeQuasiNewtonUpdate",
          "State": 1,
          "Timestamp": 11617
        },
        {
          "Name": "advance/cpl.computeQuasiNewtonUpdate",
          "State": 0,
          "Timestamp": 11617
        },
        {
          "Name": "configure",
          "State": 1,
          "Timestamp": 0
        },
        {
          "Name": "configure",
          "State": 0,
          "Timestamp": 0
        },
        {
          "Name": "finalize",
          "State": 1,
          "Timestamp": 11848
        },
        {
          "Name": "finalize",
          "State": 0,
          "Timestamp": 11850
        },
        {
          "Name": "initialize",
          "State": 1,
          "Timestamp": 4
        },
        {
          "Name": "initialize",
          "State": 0,
          "Timestamp": 16
        },
        {
          "Name": "initialize/m2n.acceptMasterConnection",
          "State": 1,
          "Timestamp": 4
        },
        {
          "Name": "initialize/m2n.acceptMasterConnection",
          "State": 0,
          "Timestamp": 15
        },
        {
          "Name": "initialize/m2n.acceptSlavesConnection",
          "State": 1,
          "Timestamp": 16
        },
        {
          "Name": "initialize/m2n.acceptSlavesConnection",
          "State": 0,
          "Timestamp": 16
        },
        {
          "Name": "initialize/partition.feedbackMesh.NeumannNodes",
          "State": 1,
          "Timestamp": 16
        },
        {
          "Name": "initialize/partition.feedbackMesh.NeumannNodes",
          "State": 0,
          "Timestamp": 16
        },
        {
          "Name": "initialize/partition.gatherMesh.NeumannNodes",
          "State": 1,
          "Timestamp": 16
        },
        {
          "Name": "initialize/partition.gatherMesh.NeumannNodes",
          "State": 0,
          "Timestamp": 16
        },
        {
          "Name": "initialize/partition.sendGlobalMesh.NeumannNodes",
          "State": 1,
          "Timestamp": 16
        },
        {
          "Name": "initialize/partition.sendGlobalMesh.NeumannNodes",
          "State": 0,
          "Timestamp": 16
        },
        {
          "Name": "initializeData",
          "State": 1,
          "Timestamp": 23
        },
        {
          "Name": "initializeData",
          "State": 0,
          "Timestamp": 132
        },
        {
          "Name": "solver.advance",
          "State": 1,
          "Timestamp": 326
        },
        {
          "Name": "solver.advance",
          "State": 0,
          "Timestamp": 462
        },
        {
          "Name": "solver.advance",
          "State": 1,
          "Timestamp": 564
        },
        {
          "Name": "solver.advance",
          "State": 0,
          "Timestamp": 685
        },
        {
          "Name": "solver.advance",
          "State": 1,
          "Timestamp": 734
        },
        {
          "Name": "solver.advance",
          "State": 0,
          "Timestamp": 855
        },
        {
          "Name": "solver.advance",
          "State": 1,
          "Timestamp": 889
        },
        {
          "Name": "solver.advance",
          "State": 0,
          "Timestamp": 1010
        },
        {
          "Name": "solver.advance",
          "State": 1,
          "Timestamp": 1094
        },
        {
          "Name": "solver.advance",
          "State": 0,
          "Timestamp": 1217
        },
        {
          "Name": "solver.advance",
          "State": 1,
          "Timestamp": 1251
        },
        {
          "Name": "solver.advance",
          "State": 0,
          "Timestamp": 1374
        },
        {
          "Name": "solver.advance",
          "State": 1,
          "Timestamp": 1456
        },
        {
          "Name": "solver.advance",
          "State": 0,
          "Timestamp": 1578
        },
        {
          "Name": "solver.advance",
          "State": 1,
          "Timestamp": 1659
        },
        {
          "Name": "solver.advance",
          "State": 0,
          "Timestamp": 1779
        },
        {
          "Name": "solver.advance",
          "State": 1,
          "Timestamp": 1858
        },
        {
          "Name": "solver.advance",
          "State": 0,
          "Timestamp": 1980
        },
        {
          "Name": "solver.advance",
          "State": 1,
          "Timestamp": 2079
        },
        {
          "Name": "solver.advance",
          "State": 0,
          "Timestamp": 2199
        },
        {
          "Name": "solver.advance",
          "State": 1,
          "Timestamp": 2234
        },
        {
          "Name": "solver.advance",
          "State": 0,
          "Timestamp": 2354
        },
        {
          "Name": "solver.advance",
          "State": 1,
          "Timestamp": 2434
        },
        {
          "Name": "solver.advance",
          "State": 0,
          "Timestamp": 2556
        },
        {
          "Name": "solver.advance",
          "State": 1,
          "Timestamp": 2654
        },
        {
          "Name": "solver.advance",
          "State": 0,
          "Timestamp": 2776
        },
        {
          "Name": "solver.advance",
          "State": 1,
          "Timestamp": 2811
        },
        {
          "Name": "solver.advance",
          "State": 0,
          "Timestamp": 2932
        },
        {
          "Name": "solver.advance",
          "State": 1,
          "Timestamp": 3010
        },
        {
          "Name": "solver.advance",
          "State": 0,
          "Timestamp": 3133
        },
        {
          "Name": "solver.advance",
          "State": 1,
          "Timestamp": 3215
        },
        {
          "Name": "solver.advance",
          "State": 0,
          "Timestamp": 3334
        },
        {
          "Name": "solver.advance",
          "State": 1,
          "Timestamp": 3434
        },
        {
          "Name": "solver.advance",
          "State": 0,
          "Timestamp": 3556
        },
        {
          "Name": "solver.advance",
          "State": 1,
          "Timestamp": 3590
        },
        {
          "Name": "solver.advance",
          "State": 0,
          "Timestamp": 3711
        },
        {
          "Name": "solver.advance",
          "State": 1,
          "Timestamp": 3801
        },
        {
          "Name": "solver.advance",
          "State": 0,
          "Timestamp": 3933
        },
        {
          "Name": "solver.advance",
          "State": 1,
          "Timestamp": 3968
        },
        {
          "Name": "solver.advance",
          "State": 0,
          "Timestamp": 4089
        },
        {
          "Name": "solver.advance",
          "State": 1,
          "Timestamp": 4171
        },
        {
          "Name": "solver.advance",
          "State": 0,
          "Timestamp": 4292
        },
        {
          "Name": "solver.advance",
          "State": 1,
          "Timestamp": 4370
        },
        {
          "Name": "solver.advance",
          "State": 0,
          "Timestamp": 4492
        },
        {
          "Name": "solver.advance",
          "State": 1,
          "Timestamp": 4570
        },
        {
          "Name": "solver.advance",
          "State": 0,
          "Timestamp": 4691
        },
        {
          "Name": "solver.advance",
          "State": 1,
          "Timestamp": 4769
        },
        {
          "Name": "solver.advance",
          "State": 0,
          "Timestamp": 4892
        },
        {
          "Name": "solver.advance",
          "State": 1,
          "Timestamp": 4969
        },
        {
          "Name": "solver.advance",
          "State": 0,
          "Timestamp": 5090
        },
        {
          "Name": "solver.advance",
          "State": 1,
          "Timestamp": 5173
        },
        {
          "Name": "solver.advance",
          "State": 0,
          "Timestamp": 5293
        },
        {
          "Name": "solver.advance",
          "State": 1,
          "Timestamp": 5327
        },
        {
          "Name": "solver.advance",
          "State": 0,
          "Timestamp": 5448
        },
        {
          "Name": "solver.advance",
          "State": 1,
          "Timestamp": 5545
        },
        {
          "Name": "solver.advance",
          "State": 0,
          "Timestamp": 5667
        },
        {
          "Name": "solver.advance",
          "State": 1,
          "Timestamp": 5703
        },
        {
          "Name": "solver.advance",
          "State": 0,
          "Timestamp": 5823
        },
        {
          "Name": "solver.advance",
          "State": 1,
          "Timestamp": 5903
        },
        {
          "Name": "solver.advance",
          "State": 0,
          "Timestamp": 6023
        },
        {
          "Name": "solver.advance",
          "State": 1,
          "Timestamp": 6124
        },
        {
          "Name": "solver.advance",
          "State": 0,
          "Timestamp": 6244
        },
        {
          "Name": "solver.advance",
          "State": 1,
          "Timestamp": 6279
        },
        {
          "Name": "solver.advance",
          "State": 0,
          "Timestamp": 6399
        },
        {
          "Name": "solver.advance",
          "State": 1,
          "Timestamp": 6479
        },
        {
          "Name": "solver.advance",
          "State": 0,
          "Timestamp": 6599
        },
        {
          "Name": "solver.advance",
          "State": 1,
          "Timestamp": 6679
        },
        {
          "Name": "solver.advance",
          "State": 0,
          "Timestamp": 6799
        },
        {
          "Name": "solver.advance",
          "State": 1,
          "Timestamp": 6878
        },
        {
          "Name": "solver.advance",
          "State": 0,
          "Timestamp": 6999
        },
        {
          "Name": "solver.advance",
          "State": 1,
          "Timestamp": 7099
        },
        {
          "Name": "solver.advance",
          "State": 0,
          "Timestamp": 7221
        },
        {
          "Name": "solver.advance",
          "State": 1,
          "Timestamp": 7266
        },
        {
          "Name": "solver.advance",
          "State": 0,
          "Timestamp": 7397
        },
        {
          "Name": "solver.advance",
          "State": 1,
          "Timestamp": 7432
        },
        {
          "Name": "solver.advance",
          "State": 0,
          "Timestamp": 7555
        },
        {
          "Name": "solver.advance",
          "State": 1,
          "Timestamp": 7654
        },
        {
          "Name": "solver.advance",
          "State": 0,
          "Timestamp": 7776
        },
        {
          "Name": "solver.advance",
          "State": 1,
          "Timestamp": 7811
        },
        {
          "Name": "solver.advance",
          "State": 0,
          "Timestamp": 7932
        },
        {
          "Name": "solver.advance",
          "State": 1,
          "Timestamp": 8010
        },
        {
          "Name": "solver.advance",
          "State": 0,
          "Timestamp": 8131
        },
        {
          "Name": "solver.advance",
          "State": 1,
          "Timestamp": 8211
        },
        {
          "Name": "solver.advance",
          "State": 0,
          "Timestamp": 8333
        },
        {
          "Name": "solver.advance",
          "State": 1,
          "Timestamp": 8415
        },
        {
          "Name": "solver.advance",
          "State": 0,
          "Timestamp": 8537
        },
        {
          "Name": "solver.advance",
          "State": 1,
          "Timestamp": 8639
        },
        {
          "Name": "solver.advance",
          "State": 0,
          "Timestamp": 8760
        },
        {
          "Name": "solver.advance",
          "State": 1,
          "Timestamp": 8794
        },
        {
          "Name": "solver.advance",
          "State": 0,
          "Timestamp": 8915
        },
        {
          "Name": "solver.advance",
          "State": 1,
          "Timestamp": 8994
        },
        {
          "Name": "solver.advance",
          "State": 0,
          "Timestamp": 9115
        },
        {
          "Name": "solver.advance",
          "State": 1,
          "Timestamp": 9194
        },
        {
          "Name": "solver.advance",
          "State": 0,
          "Timestamp": 9317
        },
        {
          "Name": "solver.advance",
          "State": 1,
          "Timestamp": 9420
        },
        {
          "Name": "solver.advance",
          "State": 0,
          "Timestamp": 9543
        },
        {
          "Name": "solver.advance",
          "State": 1,
          "Timestamp": 9578
        },
        {
          "Name": "solver.advance",
          "State": 0,
          "Timestamp": 9700
        },
        {
          "Name": "solver.advance",
          "State": 1,
          "Timestamp": 9780
        },
        {
          "Name": "solver.advance",
          "State": 0,
          "Timestamp": 9901
        },
        {
          "Name": "solver.advance",
          "State": 1,
          "Timestamp": 9996
        },
        {
          "Name": "solver.advance",
          "State": 0,
          "Timestamp": 10129
        },
        {
          "Name": "solver.advance",
          "State": 1,
          "Timestamp": 10163
        },
        {
          "Name": "solver.advance",
          "State": 0,
          "Timestamp": 10286
        },
        {
          "Name": "solver.advance",
          "State": 1,
          "Timestamp": 10369
        },
        {
          "Name": "solver.advance",
          "State": 0,
          "Timestamp": 10489
        },
        {
          "Name": "solver.advance",
          "State": 1,
          "Timestamp": 10525
        },
        {
          "Name": "solver.advance",
          "State": 0,
          "Timestamp": 10646
        },
        {
          "Name": "solver.advance",
          "State": 1,
          "Timestamp": 10733
        },
        {
          "Name": "solver.advance",
          "State": 0,
          "Timestamp": 10854
        },
        {
          "Name": "solver.advance",
          "State": 1,
          "Timestamp": 10889
        },
        {
          "Name": "solver.advance",
          "State": 0,
          "Timestamp": 11010
        },
        {
          "Name": "solver.advance",
          "State": 1,
          "Timestamp": 11091
        },
        {
          "Name": "solver.advance",
          "State": 0,
          "Timestamp": 11211
        },
        {
          "Name": "solver.advance",
          "State": 1,
          "Timestamp": 11290
        },
        {
          "Name": "solver.advance",
          "State": 0,
          "Timestamp": 11413
        },
        {
          "Name": "solver.advance",
          "State": 1,
          "Timestamp": 11495
        },
        {
          "Name": "solver.advance",
          "State": 0,
          "Timestamp": 11617
        },
        {
          "Name": "solver.advance",
          "State": 1,
          "Timestamp": 11702
        },
        {
          "Name": "solver.advance",
          "State": 0,
          "Timestamp": 11822
        },
        {
          "Name": "solver.advance",
          "State": 1,
          "Timestamp": 11823
        },
        {
          "Name": "solver.advance",
          "State": 0,
          "Timestamp": 11848
        },
        {
          "Name": "solver.initialize",
          "State": 1,
          "Timestamp": 0
        },
        {
          "Name": "solver.initialize",
          "State": 2,
          "Timestamp": 4
        },
        {
          "Name": "solver.initialize",
          "State": 1,
          "Timestamp": 16
        },
        {
          "Name": "solver.initialize",
          "State": 2,
          "Timestamp": 23
        },
        {
          "Name": "solver.initialize",
          "State": 1,
          "Timestamp": 132
        },
        {
          "Name": "solver.initialize",
          "State": 0,
          "Timestamp": 291
        }
      ],
      "Timings": {
        "_GLOBAL": {
          "Count": 1,
          "Data": {},
          "Max": 11850,
          "Min": 11850,
          "TimeRatio": 1.0,
          "Total": 11850
        },
        "advance": {
          "Count": 61,
          "Data": {},
          "Max": 103,
          "Min": 0,
          "TimeRatio": 0.35535864978902953,
          "Total": 4211
        },
        "advance/cpl.computeQuasiNewtonUpdate": {
          "Count": 57,
          "Data": {},
          "Max": 0,
          "Min": 0,
          "TimeRatio": 8.438818565400843e-05,
          "Total": 1
        },
        "configure": {
          "Count": 1,
          "Data": {},
          "Max": 0,
          "Min": 0,
          "TimeRatio": 0.0,
          "Total": 0
        },
        "finalize": {
          "Count": 1,
          "Data": {},
          "Max": 2,
          "Min": 2,
          "TimeRatio": 0.00016877637130801687,
          "Total": 2
        },
        "initialize": {
          "Count": 1,
          "Data": {},
          "Max": 12,
          "Min": 12,
          "TimeRatio": 0.0010126582278481013,
          "Total": 12
        },
        "initialize/m2n.acceptMasterConnection": {
          "Count": 1,
          "Data": {},
          "Max": 11,
          "Min": 11,
          "TimeRatio": 0.0009282700421940929,
          "Total": 11
        },
        "initialize/m2n.acceptSlavesConnection": {
          "Count": 1,
          "Data": {},
          "Max": 0,
          "Min": 0,
          "TimeRatio": 0.0,
          "Total": 0
        },
        "initialize/partition.feedbackMesh.NeumannNodes": {
          "Count": 1,
          "Data": {},
          "Max": 0,
          "Min": 0,
          "TimeRatio": 0.0,
          "Total": 0
        },
        "initialize/partition.gatherMesh.NeumannNodes": {
          "Count": 1,
          "Data": {},
          "Max": 0,
          "Min": 0,
          "TimeRatio": 0.0,
          "Total": 0
        },
        "initialize/partition.sendGlobalMesh.NeumannNodes": {
          "Count": 1,
          "Data": {},
          "Max": 0,
          "Min": 0,
          "TimeRatio": 0.0,
          "Total": 0
        },
        "initializeData": {
          "Count": 1,
          "Data": {},
          "Max": 109,
          "Min": 109,
          "TimeRatio": 0.009198312236286919,
          "Total": 109
        },
        "solver.advance": {
          "Count": 61,
          "Data": {},
          "Max": 135,
          "Min": 25,
          "TimeRatio": 0.619831223628692,
          "Total": 7345
        },
        "solver.initialize": {
          "Count": 1,
          "Data": {},
          "Max": 170,
          "Min": 170,
          "TimeRatio": 0.014345991561181435,
          "Total": 170
        }
      }
    }
  ]
}
