{
  "solver_name": "HeatDirichlet",
  "config_file_name": "precice-config.xml",
  "interface": {
      "coupling_mesh_name": "DirichletNodes",
      "write_data_name": "Flux",
      "read_data_name": "Temperature"
    },
  "waveform": {
      "n_substeps": 1
    }
}