# vtk DataFile Version 2.0

ASCII

DATASET UNSTRUCTURED_GRID

POINTS 106 float 

-5.0000000000000003e-02  0.0000000000000000e+00  0.0000000000000000e+00
5.0000000000000003e-02  0.0000000000000000e+00  0.0000000000000000e+00
-5.0000000000000003e-02  2.0000000000000000e-02  0.0000000000000000e+00
5.0000000000000003e-02  2.0000000000000000e-02  0.0000000000000000e+00
-5.0000000000000003e-02  4.0000000000000001e-02  0.0000000000000000e+00
5.0000000000000003e-02  4.0000000000000001e-02  0.0000000000000000e+00
-5.0000000000000003e-02  5.9999999999999998e-02  0.0000000000000000e+00
5.0000000000000003e-02  5.9999999999999998e-02  0.0000000000000000e+00
-5.0000000000000003e-02  8.0000000000000002e-02  0.0000000000000000e+00
5.0000000000000003e-02  8.0000000000000002e-02  0.0000000000000000e+00
-5.0000000000000003e-02  1.0000000000000001e-01  0.0000000000000000e+00
5.0000000000000003e-02  1.0000000000000001e-01  0.0000000000000000e+00
-5.0000000000000003e-02  1.2000000000000000e-01  0.0000000000000000e+00
5.0000000000000003e-02  1.2000000000000000e-01  0.0000000000000000e+00
-5.0000000000000003e-02  1.4000000000000001e-01  0.0000000000000000e+00
5.0000000000000003e-02  1.4000000000000001e-01  0.0000000000000000e+00
-5.0000000000000003e-02  1.6000000000000000e-01  0.0000000000000000e+00
5.0000000000000003e-02  1.6000000000000000e-01  0.0000000000000000e+00
-5.0000000000000003e-02  1.7999999999999999e-01  0.0000000000000000e+00
5.0000000000000003e-02  1.7999999999999999e-01  0.0000000000000000e+00
-5.0000000000000003e-02  2.0000000000000001e-01  0.0000000000000000e+00
5.0000000000000003e-02  2.0000000000000001e-01  0.0000000000000000e+00
-5.0000000000000003e-02  2.2000000000000000e-01  0.0000000000000000e+00
5.0000000000000003e-02  2.2000000000000000e-01  0.0000000000000000e+00
-5.0000000000000003e-02  2.3999999999999999e-01  0.0000000000000000e+00
5.0000000000000003e-02  2.3999999999999999e-01  0.0000000000000000e+00
-5.0000000000000003e-02  2.6000000000000001e-01  0.0000000000000000e+00
5.0000000000000003e-02  2.6000000000000001e-01  0.0000000000000000e+00
-5.0000000000000003e-02  2.8000000000000003e-01  0.0000000000000000e+00
5.0000000000000003e-02  2.8000000000000003e-01  0.0000000000000000e+00
-5.0000000000000003e-02  2.9999999999999999e-01  0.0000000000000000e+00
5.0000000000000003e-02  2.9999999999999999e-01  0.0000000000000000e+00
-5.0000000000000003e-02  3.2000000000000001e-01  0.0000000000000000e+00
5.0000000000000003e-02  3.2000000000000001e-01  0.0000000000000000e+00
-5.0000000000000003e-02  3.4000000000000002e-01  0.0000000000000000e+00
5.0000000000000003e-02  3.4000000000000002e-01  0.0000000000000000e+00
-5.0000000000000003e-02  3.5999999999999999e-01  0.0000000000000000e+00
5.0000000000000003e-02  3.5999999999999999e-01  0.0000000000000000e+00
-5.0000000000000003e-02  3.8000000000000000e-01  0.0000000000000000e+00
5.0000000000000003e-02  3.8000000000000000e-01  0.0000000000000000e+00
-5.0000000000000003e-02  4.0000000000000002e-01  0.0000000000000000e+00
5.0000000000000003e-02  4.0000000000000002e-01  0.0000000000000000e+00
-5.0000000000000003e-02  4.1999999999999998e-01  0.0000000000000000e+00
5.0000000000000003e-02  4.1999999999999998e-01  0.0000000000000000e+00
-5.0000000000000003e-02  4.4000000000000000e-01  0.0000000000000000e+00
5.0000000000000003e-02  4.4000000000000000e-01  0.0000000000000000e+00
-5.0000000000000003e-02  4.6000000000000002e-01  0.0000000000000000e+00
5.0000000000000003e-02  4.6000000000000002e-01  0.0000000000000000e+00
-5.0000000000000003e-02  4.7999999999999998e-01  0.0000000000000000e+00
5.0000000000000003e-02  4.7999999999999998e-01  0.0000000000000000e+00
-5.0000000000000003e-02  5.0000000000000000e-01  0.0000000000000000e+00
5.0000000000000003e-02  5.0000000000000000e-01  0.0000000000000000e+00
-5.0000000000000003e-02  5.2000000000000002e-01  0.0000000000000000e+00
5.0000000000000003e-02  5.2000000000000002e-01  0.0000000000000000e+00
-5.0000000000000003e-02  5.4000000000000004e-01  0.0000000000000000e+00
5.0000000000000003e-02  5.4000000000000004e-01  0.0000000000000000e+00
-5.0000000000000003e-02  5.6000000000000005e-01  0.0000000000000000e+00
5.0000000000000003e-02  5.6000000000000005e-01  0.0000000000000000e+00
-5.0000000000000003e-02  5.7999999999999996e-01  0.0000000000000000e+00
5.0000000000000003e-02  5.7999999999999996e-01  0.0000000000000000e+00
-5.0000000000000003e-02  5.9999999999999998e-01  0.0000000000000000e+00
5.0000000000000003e-02  5.9999999999999998e-01  0.0000000000000000e+00
-5.0000000000000003e-02  6.2000000000000000e-01  0.0000000000000000e+00
5.0000000000000003e-02  6.2000000000000000e-01  0.0000000000000000e+00
-5.0000000000000003e-02  6.4000000000000001e-01  0.0000000000000000e+00
5.0000000000000003e-02  6.4000000000000001e-01  0.0000000000000000e+00
-5.0000000000000003e-02  6.6000000000000003e-01  0.0000000000000000e+00
5.0000000000000003e-02  6.6000000000000003e-01  0.0000000000000000e+00
-5.0000000000000003e-02  6.8000000000000005e-01  0.0000000000000000e+00
5.0000000000000003e-02  6.8000000000000005e-01  0.0000000000000000e+00
-5.0000000000000003e-02  6.9999999999999996e-01  0.0000000000000000e+00
5.0000000000000003e-02  6.9999999999999996e-01  0.0000000000000000e+00
-5.0000000000000003e-02  7.1999999999999997e-01  0.0000000000000000e+00
5.0000000000000003e-02  7.1999999999999997e-01  0.0000000000000000e+00
-5.0000000000000003e-02  7.3999999999999999e-01  0.0000000000000000e+00
5.0000000000000003e-02  7.3999999999999999e-01  0.0000000000000000e+00
-5.0000000000000003e-02  7.6000000000000001e-01  0.0000000000000000e+00
5.0000000000000003e-02  7.6000000000000001e-01  0.0000000000000000e+00
-5.0000000000000003e-02  7.8000000000000003e-01  0.0000000000000000e+00
5.0000000000000003e-02  7.8000000000000003e-01  0.0000000000000000e+00
-5.0000000000000003e-02  8.0000000000000004e-01  0.0000000000000000e+00
5.0000000000000003e-02  8.0000000000000004e-01  0.0000000000000000e+00
-5.0000000000000003e-02  8.1999999999999995e-01  0.0000000000000000e+00
5.0000000000000003e-02  8.1999999999999995e-01  0.0000000000000000e+00
-5.0000000000000003e-02  8.3999999999999997e-01  0.0000000000000000e+00
5.0000000000000003e-02  8.3999999999999997e-01  0.0000000000000000e+00
-5.0000000000000003e-02  8.5999999999999999e-01  0.0000000000000000e+00
5.0000000000000003e-02  8.5999999999999999e-01  0.0000000000000000e+00
-5.0000000000000003e-02  8.8000000000000000e-01  0.0000000000000000e+00
5.0000000000000003e-02  8.8000000000000000e-01  0.0000000000000000e+00
-5.0000000000000003e-02  9.0000000000000002e-01  0.0000000000000000e+00
5.0000000000000003e-02  9.0000000000000002e-01  0.0000000000000000e+00
-5.0000000000000003e-02  9.2000000000000004e-01  0.0000000000000000e+00
5.0000000000000003e-02  9.2000000000000004e-01  0.0000000000000000e+00
-5.0000000000000003e-02  9.3999999999999995e-01  0.0000000000000000e+00
5.0000000000000003e-02  9.3999999999999995e-01  0.0000000000000000e+00
-5.0000000000000003e-02  9.5999999999999996e-01  0.0000000000000000e+00
5.0000000000000003e-02  9.5999999999999996e-01  0.0000000000000000e+00
-5.0000000000000003e-02  9.7999999999999998e-01  0.0000000000000000e+00
5.0000000000000003e-02  9.7999999999999998e-01  0.0000000000000000e+00
-5.0000000000000003e-02  1.0000000000000000e+00  0.0000000000000000e+00
-3.0000000000000002e-02  1.0000000000000000e+00  0.0000000000000000e+00
-1.0000000000000002e-02  1.0000000000000000e+00  0.0000000000000000e+00
1.0000000000000009e-02  1.0000000000000000e+00  0.0000000000000000e+00
2.9999999999999999e-02  1.0000000000000000e+00  0.0000000000000000e+00
5.0000000000000003e-02  1.0000000000000000e+00  0.0000000000000000e+00

CELLS 0 0


CELL_TYPES 0


POINT_DATA 106

VECTORS VertexNormals float

0.0000000000000000e+00 0.0000000000000000e+00 0
0.0000000000000000e+00 0.0000000000000000e+00 0
0.0000000000000000e+00 0.0000000000000000e+00 0
0.0000000000000000e+00 0.0000000000000000e+00 0
0.0000000000000000e+00 0.0000000000000000e+00 0
0.0000000000000000e+00 0.0000000000000000e+00 0
0.0000000000000000e+00 0.0000000000000000e+00 0
0.0000000000000000e+00 0.0000000000000000e+00 0
0.0000000000000000e+00 0.0000000000000000e+00 0
0.0000000000000000e+00 0.0000000000000000e+00 0
0.0000000000000000e+00 0.0000000000000000e+00 0
0.0000000000000000e+00 0.0000000000000000e+00 0
0.0000000000000000e+00 0.0000000000000000e+00 0
0.0000000000000000e+00 0.0000000000000000e+00 0
0.0000000000000000e+00 0.0000000000000000e+00 0
0.0000000000000000e+00 0.0000000000000000e+00 0
0.0000000000000000e+00 0.0000000000000000e+00 0
0.0000000000000000e+00 0.0000000000000000e+00 0
0.0000000000000000e+00 0.0000000000000000e+00 0
0.0000000000000000e+00 0.0000000000000000e+00 0
0.0000000000000000e+00 0.0000000000000000e+00 0
0.0000000000000000e+00 0.0000000000000000e+00 0
0.0000000000000000e+00 0.0000000000000000e+00 0
0.0000000000000000e+00 0.0000000000000000e+00 0
0.0000000000000000e+00 0.0000000000000000e+00 0
0.0000000000000000e+00 0.0000000000000000e+00 0
0.0000000000000000e+00 0.0000000000000000e+00 0
0.0000000000000000e+00 0.0000000000000000e+00 0
0.0000000000000000e+00 0.0000000000000000e+00 0
0.0000000000000000e+00 0.0000000000000000e+00 0
0.0000000000000000e+00 0.0000000000000000e+00 0
0.0000000000000000e+00 0.0000000000000000e+00 0
0.0000000000000000e+00 0.0000000000000000e+00 0
0.0000000000000000e+00 0.0000000000000000e+00 0
0.0000000000000000e+00 0.0000000000000000e+00 0
0.0000000000000000e+00 0.0000000000000000e+00 0
0.0000000000000000e+00 0.0000000000000000e+00 0
0.0000000000000000e+00 0.0000000000000000e+00 0
0.0000000000000000e+00 0.0000000000000000e+00 0
0.0000000000000000e+00 0.0000000000000000e+00 0
0.0000000000000000e+00 0.0000000000000000e+00 0
0.0000000000000000e+00 0.0000000000000000e+00 0
0.0000000000000000e+00 0.0000000000000000e+00 0
0.0000000000000000e+00 0.0000000000000000e+00 0
0.0000000000000000e+00 0.0000000000000000e+00 0
0.0000000000000000e+00 0.0000000000000000e+00 0
0.0000000000000000e+00 0.0000000000000000e+00 0
0.0000000000000000e+00 0.0000000000000000e+00 0
0.0000000000000000e+00 0.0000000000000000e+00 0
0.0000000000000000e+00 0.0000000000000000e+00 0
0.0000000000000000e+00 0.0000000000000000e+00 0
0.0000000000000000e+00 0.0000000000000000e+00 0
0.0000000000000000e+00 0.0000000000000000e+00 0
0.0000000000000000e+00 0.0000000000000000e+00 0
0.0000000000000000e+00 0.0000000000000000e+00 0
0.0000000000000000e+00 0.0000000000000000e+00 0
0.0000000000000000e+00 0.0000000000000000e+00 0
0.0000000000000000e+00 0.0000000000000000e+00 0
0.0000000000000000e+00 0.0000000000000000e+00 0
0.0000000000000000e+00 0.0000000000000000e+00 0
0.0000000000000000e+00 0.0000000000000000e+00 0
0.0000000000000000e+00 0.0000000000000000e+00 0
0.0000000000000000e+00 0.0000000000000000e+00 0
0.0000000000000000e+00 0.0000000000000000e+00 0
0.0000000000000000e+00 0.0000000000000000e+00 0
0.0000000000000000e+00 0.0000000000000000e+00 0
0.0000000000000000e+00 0.0000000000000000e+00 0
0.0000000000000000e+00 0.0000000000000000e+00 0
0.0000000000000000e+00 0.0000000000000000e+00 0
0.0000000000000000e+00 0.0000000000000000e+00 0
0.0000000000000000e+00 0.0000000000000000e+00 0
0.0000000000000000e+00 0.0000000000000000e+00 0
0.0000000000000000e+00 0.0000000000000000e+00 0
0.0000000000000000e+00 0.0000000000000000e+00 0
0.0000000000000000e+00 0.0000000000000000e+00 0
0.0000000000000000e+00 0.0000000000000000e+00 0
0.0000000000000000e+00 0.0000000000000000e+00 0
0.0000000000000000e+00 0.0000000000000000e+00 0
0.0000000000000000e+00 0.0000000000000000e+00 0
0.0000000000000000e+00 0.0000000000000000e+00 0
0.0000000000000000e+00 0.0000000000000000e+00 0
0.0000000000000000e+00 0.0000000000000000e+00 0
0.0000000000000000e+00 0.0000000000000000e+00 0
0.0000000000000000e+00 0.0000000000000000e+00 0
0.0000000000000000e+00 0.0000000000000000e+00 0
0.0000000000000000e+00 0.0000000000000000e+00 0
0.0000000000000000e+00 0.0000000000000000e+00 0
0.0000000000000000e+00 0.0000000000000000e+00 0
0.0000000000000000e+00 0.0000000000000000e+00 0
0.0000000000000000e+00 0.0000000000000000e+00 0
0.0000000000000000e+00 0.0000000000000000e+00 0
0.0000000000000000e+00 0.0000000000000000e+00 0
0.0000000000000000e+00 0.0000000000000000e+00 0
0.0000000000000000e+00 0.0000000000000000e+00 0
0.0000000000000000e+00 0.0000000000000000e+00 0
0.0000000000000000e+00 0.0000000000000000e+00 0
0.0000000000000000e+00 0.0000000000000000e+00 0
0.0000000000000000e+00 0.0000000000000000e+00 0
0.0000000000000000e+00 0.0000000000000000e+00 0
0.0000000000000000e+00 0.0000000000000000e+00 0
0.0000000000000000e+00 0.0000000000000000e+00 0
0.0000000000000000e+00 0.0000000000000000e+00 0
0.0000000000000000e+00 0.0000000000000000e+00 0
0.0000000000000000e+00 0.0000000000000000e+00 0
0.0000000000000000e+00 0.0000000000000000e+00 0
0.0000000000000000e+00 0.0000000000000000e+00 0

VECTORS Displacements1 float
-1.9268747091678552e-17 1.0762815889185617e-17 0
-1.1979378027290020e-23 -5.9528766771773281e-24 0
1.5565198940758297e-07 -6.0233421116536301e-08 0
1.6643137851647295e-07 7.9635028646537688e-08 0
1.8069023851443911e-07 -3.6677765913923232e-08 0
1.8248071012419399e-07 6.0642976519748801e-08 0
1.0909600779718934e-07 -9.8505434312694273e-09 0
1.0754685091594701e-07 2.7827931458062107e-08 0
1.7725635563413433e-08 1.7732634997463570e-08 0
2.0142333122099157e-08 -1.5038365368367858e-08 0
4.0616427939201510e-07 2.6515112306052637e-08 0
4.0107631974076253e-07 3.0448969168931222e-08 0
1.7277929270683379e-08 -1.6908766370979564e-08 0
1.9047539952431495e-08 1.9512441445031046e-08 0
1.1696508941088230e-07 1.4867709398753794e-08 0
1.1713657508543749e-07 5.5320782339406479e-09 0
1.1699091417904863e-07 1.5903082306098114e-09 0
1.1680782098049070e-07 1.8785494005417429e-08 0
1.7261013774891402e-08 1.6956820136246265e-08 0
2.0280366706416628e-08 -1.3998696147872655e-08 0
4.0294803037663939e-07 2.3362009951239494e-08 0
4.0913687867512388e-07 3.9589404617030025e-08 0
1.6939966117373786e-08 -1.7684685732813385e-08 0
1.8938639382941996e-08 2.2070295322708700e-08 0
1.1631928151311486e-07 1.3454931984650663e-08 0
1.2166967297259548e-07 9.4482802316364751e-09 0
1.1623103680028554e-07 2.6076727136848922e-10 0
1.2079818514957888e-07 2.3147182393517462e-08 0
1.7206774359179766e-08 1.6043246194849907e-08 0
2.1887583008847954e-08 -1.2504522967614898e-08 0
4.0114109003522687e-07 2.0915554275351284e-08 0
4.3029412227030060e-07 5.0475337772794730e-08 0
1.6625164045442455e-08 -1.8342466471577834e-08 0
1.9440034800173657e-08 2.5353441273756877e-08 0
1.1587805202080799e-07 1.2781295570325409e-08 0
1.3000365332470358e-07 1.3264618379810282e-08 0
1.1577538518754914e-07 -2.7095071432633347e-10 0
1.2862899939577842e-07 2.7814061369701347e-08 0
1.7034652779467645e-08 1.5733596024273301e-08 0
2.4106228220486125e-08 -1.1796063474978939e-08 0
3.9951855757554086e-07 2.0863825064697513e-08 0
4.6498780236003686e-07 6.1491727673397038e-08 0
1.6409697072556676e-08 -1.8353894366885531e-08 0
2.0590709993455098e-08 2.9008884182120711e-08 0
1.1544496039295042e-07 1.3169906990458569e-08 0
1.4253007612354482e-07 1.6812843742309813e-08 0
1.1541606561384708e-07 3.2893301042223195e-10 0
1.4063640375909816e-07 3.2641522682380498e-08 0
1.6670047130641403e-08 1.6423551321975674e-08 0
2.7028667494636549e-08 -1.2214778249797920e-08 0
3.9799716672056482e-07 2.4846047653165722e-08 0
5.1544020651649615e-07 7.1966300479576926e-08 0
1.6372617420144803e-08 -1.7273016958159273e-08 0
2.2536374473367404e-08 3.2882190347060094e-08 0
1.1452741507143622e-07 1.5476606189183681e-08 0
1.5982112501161908e-07 1.9659897889608852e-08 0
1.1477738841341828e-07 2.8390207028343027e-09 0
1.5743962448639565e-07 3.7375234939067409e-08 0
1.6152521036762575e-08 1.7750027512540770e-08 0
3.0934395735760070e-08 -1.3560333663179811e-08 0
3.9465681513631593e-07 3.1179462863611254e-08 0
5.8476970254939107e-07 8.3794710356502930e-08 0
1.6223532490400865e-08 -1.5444065245145513e-08 0
2.5224529102510602e-08 3.7545459825046877e-08 0
1.1498636522119517e-07 1.8412071205011983e-08 0
1.8482211317960238e-07 2.3152919805652955e-08 0
1.1535739066053562e-07 6.3053495412372760e-09 0
1.8161029216372120e-07 4.3325171735780401e-08 0
1.5405412455679731e-08 2.2606087628298384e-08 0
3.6250887679674078e-08 -1.7877216691466087e-08 0
4.0067147082132257e-07 5.1716884371838016e-08 0
6.8715601398285104e-07 9.1880427864290621e-08 0
1.7204282015404896e-08 -1.0250680040306217e-08 0
2.9741079101598154e-08 4.1784488748353247e-08 0
1.1350603273081478e-07 2.9743782938175156e-08 0
2.1828571760269373e-07 2.2797133188581280e-08 0
1.1506577561278543e-07 1.7289535452344789e-08 0
2.1463250775568092e-07 4.7271868167431658e-08 0
1.5608098939561868e-08 2.4999103610524389e-08 0
4.4718528974077890e-08 -2.1315682774046962e-08 0
4.0167560924116228e-07 5.8729688818924652e-08 0
8.3217164856176698e-07 1.1693492929522179e-07 0
1.5544420805677406e-08 -8.0900009029836258e-09 0
3.3904494528815880e-08 5.1096700329790559e-08 0
1.3712117837048113e-07 3.2855595937111923e-08 0
2.8603483751797028e-07 3.2699703048393801e-08 0
1.3572960799098949e-07 2.3597643421632083e-08 0
2.7792683674986663e-07 6.1374111934289659e-08 0
1.7627802414910236e-08 6.3475932046806627e-08 0
5.9452932702915097e-08 -4.9910614055481067e-08 0
5.6043050378400731e-07 2.0785244978329699e-07 0
1.1652979119061599e-06 8.3994043744060993e-08 0
3.0615478457822804e-08 2.8710413131492210e-08 0
5.0124117471364657e-08 5.1042010099728393e-08 0
1.9194898772929015e-07 1.7866921547837597e-07 0
4.1284125588373799e-07 -2.2688599244770456e-08 0
1.9728609382586306e-07 3.1221176606217996e-07 0
4.1978731977399805e-07 -9.0350052020761759e-08 0
9.2062138560897824e-07 8.1216505037177154e-07 0
1.0456133733675535e-06 -1.9521461819940213e-07 0
8.2903635815736833e-07 7.1897013202444303e-07 0
9.6006383643727401e-07 5.6884268029410719e-07 0
7.1145508211647412e-07 3.6435703993531429e-07 0
7.1312086387741843e-07 3.2239511292701152e-07 0
1.0145332502910768e-06 9.9542777120952121e-09 0
8.1424064528358507e-07 -3.9143548870547961e-07 0

VECTORS Displacements2 float
-1.9667843816249973e-17 1.0985736611029738e-17 0
-1.2303752635812271e-23 -6.0649269637477981e-24 0
1.5993548377836969e-07 -6.1325795550334485e-08 0
1.7076809025001307e-07 8.1068132089155311e-08 0
1.8583991098283792e-07 -3.7912885038538950e-08 0
1.8749142103282712e-07 6.2291202287082339e-08 0
1.1227060093530106e-07 -1.0348547729919919e-08 0
1.1057324367643953e-07 2.8686477677916880e-08 0
1.9438350471400111e-08 1.8191876577034633e-08 0
2.1896312354377939e-08 -1.5458095432706314e-08 0
4.1653148471071419e-07 2.7084695332814481e-08 0
4.1094316237127480e-07 3.1071512731565785e-08 0
1.8965978430916460e-08 -1.7525111589733890e-08 0
2.0783072459902873e-08 2.0167321991570028e-08 0
1.2020295599390431e-07 1.4965240430589817e-08 0
1.2022333514879574e-07 5.9098004549083944e-09 0
1.2019416870390780e-07 1.8232982036671666e-09 0
1.1994045204949505e-07 1.8976250841889728e-08 0
1.8960700979754051e-08 1.7511367607905744e-08 0
2.2081394243538431e-08 -1.4464011134924239e-08 0
4.1326954618545859e-07 2.3866302327785224e-08 0
4.1916795553974242e-07 4.0481230163411261e-08 0
1.8613962661403336e-08 -1.8326247599850473e-08 0
2.0720121552286692e-08 2.2805279574941352e-08 0
1.1954302737090630e-07 1.3519403917849507e-08 0
1.2486731266210254e-07 9.9671979509962417e-09 0
1.1942230399432926e-07 4.5697194356143438e-10 0
1.2403428584944531e-07 2.3472442229899613e-08 0
1.8898564128861914e-08 1.6568364533576563e-08 0
2.3793898479363588e-08 -1.2897384397043385e-08 0
4.1143554137938781e-07 2.1380658324204549e-08 0
4.4083055503767085e-07 5.1658214787518017e-08 0
1.8285494510451961e-08 -1.9005381388260020e-08 0
2.1300365628872563e-08 2.6219416251261096e-08 0
1.1909423531637758e-07 1.2833840917676133e-08 0
1.3341086224214229e-07 1.3928348125526502e-08 0
1.1896059492882188e-07 -8.4937503230505722e-11 0
1.3207557133854107e-07 2.8267420986873580e-08 0
1.8715612555198789e-08 1.6253846833791531e-08 0
2.6176216914951740e-08 -1.2142878199393871e-08 0
4.0978818838354770e-07 2.1355232927254706e-08 0
4.7636241667693014e-07 6.2965872012830175e-08 0
1.8059291526329723e-08 -1.9010206937911333e-08 0
2.2590546727221756e-08 3.0015558103644030e-08 0
1.1865622519006457e-07 1.3247081367224401e-08 0
1.4625834164384137e-07 1.7619593697211961e-08 0
1.1859473759194042e-07 5.4536395878869452e-10 0
1.4440338208034828e-07 3.3212536015015160e-08 0
1.8332976908055575e-08 1.6980561521658870e-08 0
2.9329463221938156e-08 -1.2555789896439069e-08 0
4.0824286058159644e-07 2.5475461649921600e-08 0
5.2803931931394607e-07 7.3715317147112848e-08 0
1.8015091450525292e-08 -1.7876090108110355e-08 0
2.4747024946182635e-08 3.4033994670714123e-08 0
1.1772249861779249e-07 1.5641413848124842e-08 0
1.6399731058240712e-07 2.0599377762842193e-08 0
1.1793906110893872e-07 3.1473968110835356e-09 0
1.6165433683540263e-07 3.8048096546464194e-08 0
1.7787334839447271e-08 1.8372576540578868e-08 0
3.3549842508390097e-08 -1.3927752812337718e-08 0
4.0482701782525116e-07 3.2017831660718050e-08 0
5.9905639405035305e-07 8.5849529316874685e-08 0
1.7855876541017670e-08 -1.5959493715586794e-08 0
2.7730664162390037e-08 3.8867446238883444e-08 0
1.1820719780558285e-07 1.8696501612692198e-08 0
1.8964773361873673e-07 2.4249339340900685e-08 0
1.1852862216087406e-07 6.7616282677786270e-09 0
1.8646512609994333e-07 4.4099470140845910e-08 0
1.7021906754147289e-08 2.3435007648302898e-08 0
3.9316084051652353e-08 -1.8374591201360993e-08 0
4.1099809114026476e-07 5.3153638205190149e-08 0
7.0393402435595100e-07 9.4147196779307765e-08 0
1.8872930602021710e-08 -1.0535392247801777e-08 0
3.2691379430294891e-08 4.3257144131011851e-08 0
1.1669228969397157e-07 3.0391760723725095e-08 0
2.2398526923687343e-07 2.3983262055658457e-08 0
1.1822275844310714e-07 1.8103244209810556e-08 0
2.2037154614129465e-07 4.8093226395493539e-08 0
1.7232119571842894e-08 2.5943140817073009e-08 0
4.8443935733918337e-08 -2.1903530999749846e-08 0
4.1197804429292264e-07 6.0446144075994873e-08 0
8.5248732860913874e-07 1.1982881769943161e-07 0
1.7239260196693567e-08 -8.2367546583783254e-09 0
3.7476411335084374e-08 5.2893764500882869e-08 0
1.4097413060918162e-07 3.3677470689814165e-08 0
2.9348018322672164e-07 3.4239113370543423e-08 0
1.3940033074682461e-07 2.4881651149714902e-08 0
2.8532439556148244e-07 6.2274922728506583e-08 0
1.9598423886640652e-08 6.5986647186053087e-08 0
6.4512020806782784e-08 -5.1506104570932571e-08 0
5.7478648479265765e-07 2.1365111143539578e-07 0
1.1935981667328042e-06 8.6079278592402881e-08 0
3.3164056353242276e-08 3.0506417907653400e-08 0
5.5117787990589361e-08 5.2809367227518603e-08 0
1.9741659920707685e-07 1.8594250634215647e-07 0
4.2391856714951962e-07 -2.3729821197627895e-08 0
2.0540799043828357e-07 3.2714385316887466e-07 0
4.3321676261058954e-07 -9.6063568180424331e-08 0
9.4995059940380777e-07 8.4214571784604137e-07 0
1.0765983874511270e-06 -2.0536530346277873e-07 0
8.6417004402679514e-07 7.4852046142959172e-07 0
9.9596862562499902e-07 5.8861915354596227e-07 0
7.3935612942328244e-07 3.7603789994832774e-07 0
7.4089205803527285e-07 3.3027648042706348e-07 0
1.0500874188631488e-06 8.3339764130399228e-09 0
8.4766201232215479e-07 -4.0717327719994693e-07 0

VECTORS Displacements3 float
-2.0068400016960544e-17 1.1209476354218372e-17 0
-1.2631552158211805e-23 -6.1767976341779256e-24 0
1.6427219448621665e-07 -6.2417883008746498e-08 0
1.7514413773837272e-07 8.2498954116284715e-08 0
1.9104308908777461e-07 -3.9156469609819449e-08 0
1.9254637882546215e-07 6.3941513314582463e-08 0
1.1550202549499223e-07 -1.0850330398158999e-08 0
1.1365283990169188e-07 2.9550587812681849e-08 0
2.1213352905386462e-08 1.8643334609851917e-08 0
2.3703182402597465e-08 -1.5869713028125104e-08 0
4.2699657833551025e-07 2.7657501678753684e-08 0
4.2089444563662381e-07 3.1693972551783993e-08 0
2.0721537123929731e-08 -1.8153123097110971e-08 0
2.2580236660428972e-08 2.0835007536369787e-08 0
1.2348438075894784e-07 1.5050441203185334e-08 0
1.2334995199342598e-07 6.3016744385872265e-09 0
1.2344181305763364e-07 2.0680640123905986e-09 0
1.2311191521116971e-07 1.9156072381010156e-08 0
2.0727671188412596e-08 1.8074997493908118e-08 0
2.3947308537848489e-08 -1.4934844317764802e-08 0
4.2369296272435013e-07 2.4374292169630167e-08 0
4.2928107367000133e-07 4.1378975986529240e-08 0
2.0353756499527920e-08 -1.8978718495906040e-08 0
2.2567953094253911e-08 2.3553437812335509e-08 0
1.2280952531014950e-07 1.3571290177930195e-08 0
1.2810390726923175e-07 1.0502514669077630e-08 0
1.2265760005717561e-07 6.6449064477504412e-10 0
1.2731094980981524e-07 2.3789578002558457e-08 0
2.0657531652630338e-08 1.7102034430786661e-08 0
2.5768639510074808e-08 -1.3293390374598024e-08 0
4.2183163775939476e-07 2.1849923037841060e-08 0
4.5145333953451127e-07 5.2850659367104769e-08 0
2.0011458073012976e-08 -1.9679530164026472e-08 0
2.3230707408969729e-08 2.7102185652460482e-08 0
1.2235263820050940e-07 1.2873907211298184e-08 0
1.3685919863413696e-07 1.4611816566259385e-08 0
1.2218942024386962e-07 1.1255364421802351e-10 0
1.3556659944354723e-07 2.8714412408363683e-08 0
2.0463689349593186e-08 1.6782797638559564e-08 0
2.8320283675328409e-08 -1.2490555843691625e-08 0
4.2015896016024276e-07 2.1852072651431668e-08 0
4.8783081395249414e-07 6.4453012889432259e-08 0
1.9774453898070813e-08 -1.9677348831185298e-08 0
2.4666433846205465e-08 3.1042784121305553e-08 0
1.2190905811449896e-07 1.3312640253897766e-08 0
1.5003147533735142e-07 1.8449686502108683e-08 0
1.2181631624728366e-07 7.7431913930904462e-10 0
1.4822039689069392e-07 3.3778287859940719e-08 0
2.0062921464639070e-08 1.7547512717675206e-08 0
3.1712596065282687e-08 -1.2895958557515961e-08 0
4.1858888336772333e-07 2.6112967506338981e-08 0
5.4074321415266426e-07 7.5480649335221690e-08 0
1.9723062684059924e-08 -1.8488421282940601e-08 0
2.7042520512373878e-08 3.5210251519586017e-08 0
1.2095825512042166e-07 1.5796622443397724e-08 0
1.6822394286201988e-07 2.1566103062640921e-08 0
1.2114243170645895e-07 3.4703544657439291e-09 0
1.6592676493965300e-07 3.8716212895692054e-08 0
1.9488866809350857e-08 1.9007276987147650e-08 0
3.6258996147180252e-08 -1.4292954002022231e-08 0
4.1509573537150949e-07 3.2868095326654008e-08 0
6.1346333739325720e-07 8.7924295071941021e-08 0
1.9553969992461345e-08 -1.6481596235097762e-08 0
3.0334119461055274e-08 4.0218217913375211e-08 0
1.2146757107417678e-07 1.8974601687015465e-08 0
1.9453163568841384e-07 2.5377396741833477e-08 0
1.2174038101505846e-07 7.2368187154249479e-09 0
1.9138854726345058e-07 4.4868100469322573e-08 0
1.8705869577138756e-08 2.4281404975865782e-08 0
4.2491412074445903e-08 -1.8869759224240305e-08 0
4.2142263503782304e-07 5.4610945996207656e-08 0
7.2085477841042751e-07 9.6436874135056913e-08 0
2.0608446658298288e-08 -1.0820984561760860e-08 0
3.5756806577486031e-08 4.4763479083729477e-08 0
1.1991651782972724e-07 3.1039819951207846e-08 0
2.2975455977827610e-07 2.5206216131983430e-08 0
1.2141827711301456e-07 1.8941858302297244e-08 0
2.2619505304270036e-07 4.8908100848353851e-08 0
1.8925368694050939e-08 2.6909730992856013e-08 0
5.2302764287500624e-08 -2.2487367871429322e-08 0
4.2237336945109733e-07 6.2189835048175886e-08 0
8.7297976465923972e-07 1.2275182251803124e-07 0
1.9009066216398888e-08 -8.3779783342835315e-09 0
4.1192651444112326e-08 5.4731836946708069e-08 0
1.4486185968047547e-07 3.4509461898649288e-08 0
3.0101262300896866e-07 3.5821022242403367e-08 0
1.4312505477485514e-07 2.6208091041075726e-08 0
2.9283603120470978e-07 6.3158976378650259e-08 0
2.1631774957797403e-08 6.8555359772044048e-08 0
6.9759360589242856e-08 -5.3117937636223675e-08 0
5.8931363264669803e-07 2.1952762686917976e-07 0
1.2221354119631990e-06 8.8201014748552339e-08 0
3.5803195445746614e-08 3.2408389450771694e-08 0
6.0273915268388104e-08 5.4574067341630531e-08 0
2.0301427442390141e-07 1.9346303166587660e-07 0
4.3517777431930377e-07 -2.4807362524009281e-08 0
2.1377089438843001e-07 3.4259117090335043e-07 0
4.4686545265537289e-07 -1.0199441932632044e-07 0
9.7990149878333783e-07 8.7287488863073843e-07 0
1.1081512556217571e-06 -2.1584575047085146e-07 0
9.0024074843561145e-07 7.7883118327127627e-07 0
1.0327827068413113e-06 6.0884068448911037e-07 0
7.6807456290011761e-07 3.8790824949550431e-07 0
7.6943611428427201e-07 3.3826140814800094e-07 0
1.0864505271119704e-06 6.6688308536607390e-09 0
8.8189906142027568e-07 -4.2325255945317576e-07 0

VECTORS Forces1 float
-4.6879773475864230e-02 2.9853958575189372e-02 0
-5.7023891341468451e-02 -3.2399890646807004e-02 0
6.5841166213082658e-01 -3.6630847752061152e-01 0
7.6391797215938961e-01 4.2335304492090292e-01 0
7.2318167072877171e-01 -1.1252024467182671e-01 0
8.3682163635359841e-01 1.3133065687787066e-01 0
4.6039131362449714e-01 1.8501453092620017e-02 0
5.3260210516064166e-01 -2.0800310194077212e-02 0
-6.9433016304910528e-02 -2.5840842031189205e-03 0
-8.0402645819430060e-02 2.7937554171458237e-03 0
1.7651079882871725e+00 -1.6466238867405977e-03 0
2.0450729746691949e+00 1.2093274770533111e-02 0
-7.4481483438648674e-02 -2.4414303032428347e-05 0
-8.6920417893002699e-02 -7.6685832862463188e-04 0
5.0029349439154425e-01 -9.8212402540908674e-04 0
5.8337690610274906e-01 6.3266815530164354e-03 0
5.0033384344864884e-01 -9.9135925150819993e-04 0
5.8343135408217583e-01 6.3450345209565707e-03 0
-7.4504650390014832e-02 4.6031054117262091e-05 0
-8.7026348591451821e-02 -8.6961021365306382e-04 0
1.7527287353085583e+00 -6.6475104668135311e-03 0
2.0686504460398214e+00 3.4849414452599897e-02 0
-7.3756274924937512e-02 3.1860833409134564e-04 0
-8.8509875371950361e-02 -1.9188838627732575e-03 0
4.9517285567098246e-01 -2.8774771686014915e-03 0
5.9392165009531106e-01 1.3724576449671426e-02 0
4.9516859482485720e-01 -2.8794183619240020e-03 0
5.9393816906246544e-01 1.3732406877153540e-02 0
-7.3714650951062929e-02 3.2383292809009238e-04 0
-8.8611711711268804e-02 -1.9643498550529427e-03 0
1.7344346580566274e+00 -1.1345165975624799e-02 0
2.1257676119127997e+00 6.0926885483855830e-02 0
-7.2828433936575385e-02 3.8110972461252431e-04 0
-9.1638307970262012e-02 -2.9668824889840738e-03 0
4.8902379805874979e-01 -3.2879537125534435e-03 0
6.1521198158610013e-01 2.0810479551119438e-02 0
4.8901688917100178e-01 -3.2899602943905226e-03 0
6.1523705639996995e-01 2.0819123738629604e-02 0
-7.2777429825822582e-02 3.6900965345304293e-04 0
-9.1816553264104331e-02 -3.0052232695381444e-03 0
1.7076016134320451e+00 -9.3763427388727349e-03 0
2.2184096669845732e+00 8.4818799925922561e-02 0
-7.1509898610750230e-02 1.2428053099029885e-04 0
-9.6348920457171361e-02 -3.9091567464397880e-03 0
4.8021918375137729e-01 -1.6103145874536997e-03 0
6.4706578287125960e-01 2.7237471237933554e-02 0
4.8020891015794231e-01 -1.6115319400688383e-03 0
6.4710010992305345e-01 2.7246780661258640e-02 0
-7.1437520530572521e-02 8.5086346593154409e-05 0
-9.6607226896829865e-02 -3.9348626674553756e-03 0
1.6714645138740702e+00 3.6398032603864898e-03 0
2.3518721937169524e+00 1.0462609167762056e-01 0
-6.9607682698692483e-02 -7.4405346815893897e-04 0
-1.0285398445122493e-01 -4.6122208560046563e-03 0
4.6749944233115365e-01 4.1227264970959262e-03 0
6.9093662488397678e-01 3.2126946868192674e-02 0
4.6748733809284920e-01 4.1198101750531940e-03 0
6.9098224740782399e-01 3.2139348027223881e-02 0
-6.9523507109163302e-02 -8.1113208567824488e-04 0
-1.0322361130086229e-01 -4.6269632108661201e-03 0
1.6201315720271725e+00 2.3643590501189336e-02 0
2.5325023711226535e+00 1.2466755286661825e-01 0
-6.7731803754070161e-02 -1.7486356179276566e-03 0
-1.1209456025148987e-01 -5.4675551756248435e-03 0
4.5510602564711894e-01 1.0509185141289476e-02 0
7.5317763300061902e-01 3.8256818523911849e-02 0
4.5508874605089578e-01 1.0505936647245580e-02 0
7.5323228838853018e-01 3.8272133210739474e-02 0
-6.7625134469458018e-02 -1.9118236948196109e-03 0
-1.1262547367288450e-01 -5.4373687917678186e-03 0
1.5803807775510330e+00 8.1395411795344930e-02 0
2.7955983630604861e+00 1.2924832453384866e-01 0
-6.4647860771179094e-02 -5.6064889111170852e-03 0
-1.2451094576204018e-01 -5.0084708744894861e-03 0
4.3429993872834294e-01 3.5924516036558156e-02 0
8.3617823699951543e-01 3.5705418818031173e-02 0
4.3427086032497947e-01 3.5876957839162470e-02 0
8.3621469653187885e-01 3.5741875570325578e-02 0
-6.4837118993874010e-02 -5.8759505723077017e-03 0
-1.2560163196420465e-01 -4.9753092059807869e-03 0
1.5172740106588092e+00 1.0427327976242044e-01 0
3.1604567956966840e+00 1.7059829089703848e-01 0
-7.0727291686765309e-02 -6.0723439785851019e-03 0
-1.4953114740846610e-01 -7.5404148247889607e-03 0
4.7365557563323235e-01 3.4712059415332522e-02 0
1.0002680958572066e+00 5.4489180551247539e-02 0
4.7355278428663561e-01 3.4513180813243102e-02 0
1.0000904936721806e+00 5.4575543110610997e-02 0
-7.1333116104263142e-02 -7.8718246113794032e-03 0
-1.5225547932163544e-01 -6.6256374988936922e-03 0
1.8448830952114346e+00 4.9439087179760249e-01 0
4.0114745430219374e+00 1.9146110641928876e-02 0
-7.9457712800535985e-02 -4.4710736062380012e-02 0
-1.9869324279704387e-01 1.4061444486738253e-02 0
5.9183868066100820e-01 2.8893361306627108e-01 0
1.3666865543165425e+00 -5.8572189519987584e-02 0
3.8249386545822245e-01 1.5300038857194265e-01 0
1.0751210294451683e+00 -5.1407419186970477e-02 0
2.0293408677197093e+00 1.2660064697354636e+00 0
2.6626826643858599e+00 6.2694116684540915e-03 0
1.3140995066296207e-01 1.5432132995496115e-01 0
1.4466477723312257e+00 9.9421138836086520e-01 0
9.5016297305751540e-01 8.7128334980004796e-01 0
8.7560349719258879e-01 9.4259952717975737e-01 0
1.6605643698630079e+00 4.5315928684151785e-01 0
2.8982517141344294e-01 -9.3425347736826619e-02 0

VECTORS Forces2 float
7.1051627797199439e-04 8.4163250765228710e-04 0
1.7610847063687447e-02 1.0743925698681199e-02 0
3.5707470233796598e-02 -2.2339030817223660e-02 0
-1.8680514735719753e-01 -1.0181116821154439e-01 0
3.5632898349208943e-02 -5.9778725610328013e-03 0
-2.0692174468710808e-01 -3.1179862157294388e-02 0
2.0691332371821042e-02 2.0696504721562673e-03 0
-1.3358933169170506e-01 4.7907500640232987e-03 0
-3.1209909458867094e-03 -3.9051558932943565e-04 0
1.9998373591250541e-02 -5.5168407585507232e-04 0
5.7628110798672860e-02 -1.1211617016099876e-04 0
-5.3140734095292030e-01 8.2053198878992151e-03 0
-2.2371737147876178e-03 1.2148656165087606e-04 0
2.2405436899075325e-02 -7.8385424166974081e-04 0
1.5029362296025481e-02 -1.5575376812296206e-03 0
-1.5108964132667463e-01 5.9857794997660819e-03 0
1.5029763101325018e-02 -1.5614790829696443e-03 0
-1.5109199575459326e-01 5.9885639644810026e-03 0
-2.2286818117711036e-03 1.3759536504922076e-04 0
2.2428396912864357e-02 -8.1894707595455264e-04 0
6.0083137029566157e-02 -9.7055644849737832e-03 0
-5.1687902320749246e-01 3.4259768421063548e-02 0
-2.8662247084036935e-03 4.6928714617123173e-04 0
2.0884558599209076e-02 -1.8932127221841888e-03 0
1.9562336260765156e-02 -3.8819556965907116e-03 0
-1.4019906319417377e-01 1.3549063465767777e-02 0
1.9568087840332413e-02 -3.8849535557863302e-03 0
-1.4018373529553363e-01 1.3557468040479480e-02 0
-2.9091626332568721e-03 4.7525620056145819e-04 0
2.0777872924257448e-02 -1.9382570389734745e-03 0
8.1449967950410845e-02 -1.5519534141186734e-02 0
-4.6191845175838758e-01 6.0387535578693100e-02 0
-4.0573334302034664e-03 5.8770604227841310e-04 0
1.7775744177427409e-02 -2.9531366833625383e-03 0
2.7702723376744280e-02 -4.6908605571042549e-03 0
-1.1905307785814284e-01 2.0727732372170536e-02 0
2.7710885005200039e-02 -4.6937318613423330e-03 0
-1.1902844837056119e-01 2.0736854974040892e-02 0
-4.1314662351090515e-03 5.7700652990575862e-04 0
1.7587095689161936e-02 -2.9913724750326403e-03 0
1.1796345797140080e-01 -1.5107417337876941e-02 0
-3.6572532970230487e-01 8.4877620628532852e-02 0
-5.9130066178620152e-03 3.9449107554579186e-04 0
1.2765069911154617e-02 -3.9215491293919779e-03 0
4.0322600698487941e-02 -3.4590165589002508e-03 0
-8.5110396454105078e-02 2.7344467138474569e-02 0
4.0333173885664507e-02 -3.4611115490665264e-03 0
-8.5074098747808899e-02 2.7354371681743424e-02 0
-6.0169908468518012e-03 3.5686339147890503e-04 0
1.2478381057514896e-02 -3.9476317793051630e-03 0
1.6964147889714937e-01 -3.6543730044402613e-03 0
-2.2040380547793759e-01 1.0547059224677054e-01 0
-8.2671066135731781e-03 -4.1095802224853977e-04 0
5.5078071524204851e-03 -4.6620227374326705e-03 0
5.6270317005808528e-02 1.8337067753079622e-03 0
-3.6066953529288730e-02 3.2501555204666015e-02 0
5.6284545500942293e-02 1.8297556768672044e-03 0
-3.6015036561429258e-02 3.2514866941840720e-02 0
-8.4155896898813094e-03 -4.7664009901791406e-04 0
5.0835012745068693e-03 -4.6773194853377839e-03 0
2.3324092772572028e-01 1.4727387559942061e-02 0
-1.3447923293373274e-02 1.2671960346997199e-01 0
-1.1845409029116015e-02 -1.3433764827173371e-03 0
-5.2420804331816855e-03 -5.5770319623060123e-03 0
8.0554914960295931e-02 7.7102808873607829e-03 0
3.6539209719502086e-02 3.9061286452599028e-02 0
8.0569697554692551e-02 7.7055652380988897e-03 0
3.6609996549645904e-02 3.9078588327076842e-02 0
-1.2044180522723751e-02 -1.5047719156428086e-03 0
-5.8733781565025057e-03 -5.5477503389313020e-03 0
3.3982015224315315e-01 7.0258637615478473e-02 0
3.0114887568729926e-01 1.3379233294268431e-01 0
-1.5836124451676755e-02 -5.0886894819354702e-03 0
-2.0713803961240368e-02 -5.2608573144085624e-03 0
1.0728491900045962e-01 3.2333234450624908e-02 0
1.4061184092885956e-01 3.7551550899241733e-02 0
1.0729250913920108e-01 3.2285745853087494e-02 0
1.4069074879377827e-01 3.7593859787938326e-02 0
-1.6389941788710168e-02 -5.3582306410541996e-03 0
-2.1928455773212025e-02 -5.2141531777607575e-03 0
4.5940523383444098e-01 9.2432732078054539e-02 0
7.6304821454061134e-01 1.7774715868279925e-01 0
-2.9702462614919677e-02 -5.6834308698579337e-03 0
-5.0352217900944893e-02 -7.7517365404612465e-03 0
1.9888759263638867e-01 3.2109336802482950e-02 0
3.3749744058761599e-01 5.6432008647975082e-02 0
1.9882270289087328e-01 3.1904763752984920e-02 0
3.3750192299955362e-01 5.6559124792576798e-02 0
-3.1079534423080604e-02 -7.4290380506625061e-03 0
-5.3280914812166395e-02 -6.7998311021764783e-03 0
1.0281080843358528e+00 4.6231734007372999e-01 0
1.8207370425397462e+00 5.0940968335353602e-02 0
-5.7235560506253003e-02 -4.1762074690143251e-02 0
-1.1676562422654231e-01 1.1551335252365387e-02 0
4.2963002933971972e-01 2.6486856375352519e-01 0
8.2152130988278749e-01 -4.1708028109267346e-02 0
2.3957329587267262e-01 1.3693034946528992e-01 0
5.9617960252111735e-01 -1.8207177184504233e-02 0
1.8446321239392336e+00 1.1857872680238737e+00 0
2.1053698853660721e+00 -1.6237046908648398e-01 0
1.3371518771149740e-01 1.5364124077690833e-01 0
1.3033736991823843e+00 9.0082038260789266e-01 0
8.4101918298607414e-01 6.4468750386944063e-01 0
7.8720193717148346e-01 6.7317734670011653e-01 0
1.3332443604425326e+00 1.9422318924008991e-01 0
2.0694226762849791e-01 -9.8386229318160087e-02 0

