# vtk DataFile Version 2.0

ASCII

DATASET UNSTRUCTURED_GRID

POINTS 106 float 

-5.0000000000000003e-02  0.0000000000000000e+00  0.0000000000000000e+00
5.0000000000000003e-02  0.0000000000000000e+00  0.0000000000000000e+00
-5.0000000000000003e-02  2.0000000000000000e-02  0.0000000000000000e+00
5.0000000000000003e-02  2.0000000000000000e-02  0.0000000000000000e+00
-5.0000000000000003e-02  4.0000000000000001e-02  0.0000000000000000e+00
5.0000000000000003e-02  4.0000000000000001e-02  0.0000000000000000e+00
-5.0000000000000003e-02  5.9999999999999998e-02  0.0000000000000000e+00
5.0000000000000003e-02  5.9999999999999998e-02  0.0000000000000000e+00
-5.0000000000000003e-02  8.0000000000000002e-02  0.0000000000000000e+00
5.0000000000000003e-02  8.0000000000000002e-02  0.0000000000000000e+00
-5.0000000000000003e-02  1.0000000000000001e-01  0.0000000000000000e+00
5.0000000000000003e-02  1.0000000000000001e-01  0.0000000000000000e+00
-5.0000000000000003e-02  1.2000000000000000e-01  0.0000000000000000e+00
5.0000000000000003e-02  1.2000000000000000e-01  0.0000000000000000e+00
-5.0000000000000003e-02  1.4000000000000001e-01  0.0000000000000000e+00
5.0000000000000003e-02  1.4000000000000001e-01  0.0000000000000000e+00
-5.0000000000000003e-02  1.6000000000000000e-01  0.0000000000000000e+00
5.0000000000000003e-02  1.6000000000000000e-01  0.0000000000000000e+00
-5.0000000000000003e-02  1.7999999999999999e-01  0.0000000000000000e+00
5.0000000000000003e-02  1.7999999999999999e-01  0.0000000000000000e+00
-5.0000000000000003e-02  2.0000000000000001e-01  0.0000000000000000e+00
5.0000000000000003e-02  2.0000000000000001e-01  0.0000000000000000e+00
-5.0000000000000003e-02  2.2000000000000000e-01  0.0000000000000000e+00
5.0000000000000003e-02  2.2000000000000000e-01  0.0000000000000000e+00
-5.0000000000000003e-02  2.3999999999999999e-01  0.0000000000000000e+00
5.0000000000000003e-02  2.3999999999999999e-01  0.0000000000000000e+00
-5.0000000000000003e-02  2.6000000000000001e-01  0.0000000000000000e+00
5.0000000000000003e-02  2.6000000000000001e-01  0.0000000000000000e+00
-5.0000000000000003e-02  2.8000000000000003e-01  0.0000000000000000e+00
5.0000000000000003e-02  2.8000000000000003e-01  0.0000000000000000e+00
-5.0000000000000003e-02  2.9999999999999999e-01  0.0000000000000000e+00
5.0000000000000003e-02  2.9999999999999999e-01  0.0000000000000000e+00
-5.0000000000000003e-02  3.2000000000000001e-01  0.0000000000000000e+00
5.0000000000000003e-02  3.2000000000000001e-01  0.0000000000000000e+00
-5.0000000000000003e-02  3.4000000000000002e-01  0.0000000000000000e+00
5.0000000000000003e-02  3.4000000000000002e-01  0.0000000000000000e+00
-5.0000000000000003e-02  3.5999999999999999e-01  0.0000000000000000e+00
5.0000000000000003e-02  3.5999999999999999e-01  0.0000000000000000e+00
-5.0000000000000003e-02  3.8000000000000000e-01  0.0000000000000000e+00
5.0000000000000003e-02  3.8000000000000000e-01  0.0000000000000000e+00
-5.0000000000000003e-02  4.0000000000000002e-01  0.0000000000000000e+00
5.0000000000000003e-02  4.0000000000000002e-01  0.0000000000000000e+00
-5.0000000000000003e-02  4.1999999999999998e-01  0.0000000000000000e+00
5.0000000000000003e-02  4.1999999999999998e-01  0.0000000000000000e+00
-5.0000000000000003e-02  4.4000000000000000e-01  0.0000000000000000e+00
5.0000000000000003e-02  4.4000000000000000e-01  0.0000000000000000e+00
-5.0000000000000003e-02  4.6000000000000002e-01  0.0000000000000000e+00
5.0000000000000003e-02  4.6000000000000002e-01  0.0000000000000000e+00
-5.0000000000000003e-02  4.7999999999999998e-01  0.0000000000000000e+00
5.0000000000000003e-02  4.7999999999999998e-01  0.0000000000000000e+00
-5.0000000000000003e-02  5.0000000000000000e-01  0.0000000000000000e+00
5.0000000000000003e-02  5.0000000000000000e-01  0.0000000000000000e+00
-5.0000000000000003e-02  5.2000000000000002e-01  0.0000000000000000e+00
5.0000000000000003e-02  5.2000000000000002e-01  0.0000000000000000e+00
-5.0000000000000003e-02  5.4000000000000004e-01  0.0000000000000000e+00
5.0000000000000003e-02  5.4000000000000004e-01  0.0000000000000000e+00
-5.0000000000000003e-02  5.6000000000000005e-01  0.0000000000000000e+00
5.0000000000000003e-02  5.6000000000000005e-01  0.0000000000000000e+00
-5.0000000000000003e-02  5.7999999999999996e-01  0.0000000000000000e+00
5.0000000000000003e-02  5.7999999999999996e-01  0.0000000000000000e+00
-5.0000000000000003e-02  5.9999999999999998e-01  0.0000000000000000e+00
5.0000000000000003e-02  5.9999999999999998e-01  0.0000000000000000e+00
-5.0000000000000003e-02  6.2000000000000000e-01  0.0000000000000000e+00
5.0000000000000003e-02  6.2000000000000000e-01  0.0000000000000000e+00
-5.0000000000000003e-02  6.4000000000000001e-01  0.0000000000000000e+00
5.0000000000000003e-02  6.4000000000000001e-01  0.0000000000000000e+00
-5.0000000000000003e-02  6.6000000000000003e-01  0.0000000000000000e+00
5.0000000000000003e-02  6.6000000000000003e-01  0.0000000000000000e+00
-5.0000000000000003e-02  6.8000000000000005e-01  0.0000000000000000e+00
5.0000000000000003e-02  6.8000000000000005e-01  0.0000000000000000e+00
-5.0000000000000003e-02  6.9999999999999996e-01  0.0000000000000000e+00
5.0000000000000003e-02  6.9999999999999996e-01  0.0000000000000000e+00
-5.0000000000000003e-02  7.1999999999999997e-01  0.0000000000000000e+00
5.0000000000000003e-02  7.1999999999999997e-01  0.0000000000000000e+00
-5.0000000000000003e-02  7.3999999999999999e-01  0.0000000000000000e+00
5.0000000000000003e-02  7.3999999999999999e-01  0.0000000000000000e+00
-5.0000000000000003e-02  7.6000000000000001e-01  0.0000000000000000e+00
5.0000000000000003e-02  7.6000000000000001e-01  0.0000000000000000e+00
-5.0000000000000003e-02  7.8000000000000003e-01  0.0000000000000000e+00
5.0000000000000003e-02  7.8000000000000003e-01  0.0000000000000000e+00
-5.0000000000000003e-02  8.0000000000000004e-01  0.0000000000000000e+00
5.0000000000000003e-02  8.0000000000000004e-01  0.0000000000000000e+00
-5.0000000000000003e-02  8.1999999999999995e-01  0.0000000000000000e+00
5.0000000000000003e-02  8.1999999999999995e-01  0.0000000000000000e+00
-5.0000000000000003e-02  8.3999999999999997e-01  0.0000000000000000e+00
5.0000000000000003e-02  8.3999999999999997e-01  0.0000000000000000e+00
-5.0000000000000003e-02  8.5999999999999999e-01  0.0000000000000000e+00
5.0000000000000003e-02  8.5999999999999999e-01  0.0000000000000000e+00
-5.0000000000000003e-02  8.8000000000000000e-01  0.0000000000000000e+00
5.0000000000000003e-02  8.8000000000000000e-01  0.0000000000000000e+00
-5.0000000000000003e-02  9.0000000000000002e-01  0.0000000000000000e+00
5.0000000000000003e-02  9.0000000000000002e-01  0.0000000000000000e+00
-5.0000000000000003e-02  9.2000000000000004e-01  0.0000000000000000e+00
5.0000000000000003e-02  9.2000000000000004e-01  0.0000000000000000e+00
-5.0000000000000003e-02  9.3999999999999995e-01  0.0000000000000000e+00
5.0000000000000003e-02  9.3999999999999995e-01  0.0000000000000000e+00
-5.0000000000000003e-02  9.5999999999999996e-01  0.0000000000000000e+00
5.0000000000000003e-02  9.5999999999999996e-01  0.0000000000000000e+00
-5.0000000000000003e-02  9.7999999999999998e-01  0.0000000000000000e+00
5.0000000000000003e-02  9.7999999999999998e-01  0.0000000000000000e+00
-5.0000000000000003e-02  1.0000000000000000e+00  0.0000000000000000e+00
-3.0000000000000002e-02  1.0000000000000000e+00  0.0000000000000000e+00
-1.0000000000000002e-02  1.0000000000000000e+00  0.0000000000000000e+00
1.0000000000000009e-02  1.0000000000000000e+00  0.0000000000000000e+00
2.9999999999999999e-02  1.0000000000000000e+00  0.0000000000000000e+00
5.0000000000000003e-02  1.0000000000000000e+00  0.0000000000000000e+00

CELLS 0 0


CELL_TYPES 0


POINT_DATA 106

VECTORS VertexNormals float

0.0000000000000000e+00 0.0000000000000000e+00 0
0.0000000000000000e+00 0.0000000000000000e+00 0
0.0000000000000000e+00 0.0000000000000000e+00 0
0.0000000000000000e+00 0.0000000000000000e+00 0
0.0000000000000000e+00 0.0000000000000000e+00 0
0.0000000000000000e+00 0.0000000000000000e+00 0
0.0000000000000000e+00 0.0000000000000000e+00 0
0.0000000000000000e+00 0.0000000000000000e+00 0
0.0000000000000000e+00 0.0000000000000000e+00 0
0.0000000000000000e+00 0.0000000000000000e+00 0
0.0000000000000000e+00 0.0000000000000000e+00 0
0.0000000000000000e+00 0.0000000000000000e+00 0
0.0000000000000000e+00 0.0000000000000000e+00 0
0.0000000000000000e+00 0.0000000000000000e+00 0
0.0000000000000000e+00 0.0000000000000000e+00 0
0.0000000000000000e+00 0.0000000000000000e+00 0
0.0000000000000000e+00 0.0000000000000000e+00 0
0.0000000000000000e+00 0.0000000000000000e+00 0
0.0000000000000000e+00 0.0000000000000000e+00 0
0.0000000000000000e+00 0.0000000000000000e+00 0
0.0000000000000000e+00 0.0000000000000000e+00 0
0.0000000000000000e+00 0.0000000000000000e+00 0
0.0000000000000000e+00 0.0000000000000000e+00 0
0.0000000000000000e+00 0.0000000000000000e+00 0
0.0000000000000000e+00 0.0000000000000000e+00 0
0.0000000000000000e+00 0.0000000000000000e+00 0
0.0000000000000000e+00 0.0000000000000000e+00 0
0.0000000000000000e+00 0.0000000000000000e+00 0
0.0000000000000000e+00 0.0000000000000000e+00 0
0.0000000000000000e+00 0.0000000000000000e+00 0
0.0000000000000000e+00 0.0000000000000000e+00 0
0.0000000000000000e+00 0.0000000000000000e+00 0
0.0000000000000000e+00 0.0000000000000000e+00 0
0.0000000000000000e+00 0.0000000000000000e+00 0
0.0000000000000000e+00 0.0000000000000000e+00 0
0.0000000000000000e+00 0.0000000000000000e+00 0
0.0000000000000000e+00 0.0000000000000000e+00 0
0.0000000000000000e+00 0.0000000000000000e+00 0
0.0000000000000000e+00 0.0000000000000000e+00 0
0.0000000000000000e+00 0.0000000000000000e+00 0
0.0000000000000000e+00 0.0000000000000000e+00 0
0.0000000000000000e+00 0.0000000000000000e+00 0
0.0000000000000000e+00 0.0000000000000000e+00 0
0.0000000000000000e+00 0.0000000000000000e+00 0
0.0000000000000000e+00 0.0000000000000000e+00 0
0.0000000000000000e+00 0.0000000000000000e+00 0
0.0000000000000000e+00 0.0000000000000000e+00 0
0.0000000000000000e+00 0.0000000000000000e+00 0
0.0000000000000000e+00 0.0000000000000000e+00 0
0.0000000000000000e+00 0.0000000000000000e+00 0
0.0000000000000000e+00 0.0000000000000000e+00 0
0.0000000000000000e+00 0.0000000000000000e+00 0
0.0000000000000000e+00 0.0000000000000000e+00 0
0.0000000000000000e+00 0.0000000000000000e+00 0
0.0000000000000000e+00 0.0000000000000000e+00 0
0.0000000000000000e+00 0.0000000000000000e+00 0
0.0000000000000000e+00 0.0000000000000000e+00 0
0.0000000000000000e+00 0.0000000000000000e+00 0
0.0000000000000000e+00 0.0000000000000000e+00 0
0.0000000000000000e+00 0.0000000000000000e+00 0
0.0000000000000000e+00 0.0000000000000000e+00 0
0.0000000000000000e+00 0.0000000000000000e+00 0
0.0000000000000000e+00 0.0000000000000000e+00 0
0.0000000000000000e+00 0.0000000000000000e+00 0
0.0000000000000000e+00 0.0000000000000000e+00 0
0.0000000000000000e+00 0.0000000000000000e+00 0
0.0000000000000000e+00 0.0000000000000000e+00 0
0.0000000000000000e+00 0.0000000000000000e+00 0
0.0000000000000000e+00 0.0000000000000000e+00 0
0.0000000000000000e+00 0.0000000000000000e+00 0
0.0000000000000000e+00 0.0000000000000000e+00 0
0.0000000000000000e+00 0.0000000000000000e+00 0
0.0000000000000000e+00 0.0000000000000000e+00 0
0.0000000000000000e+00 0.0000000000000000e+00 0
0.0000000000000000e+00 0.0000000000000000e+00 0
0.0000000000000000e+00 0.0000000000000000e+00 0
0.0000000000000000e+00 0.0000000000000000e+00 0
0.0000000000000000e+00 0.0000000000000000e+00 0
0.0000000000000000e+00 0.0000000000000000e+00 0
0.0000000000000000e+00 0.0000000000000000e+00 0
0.0000000000000000e+00 0.0000000000000000e+00 0
0.0000000000000000e+00 0.0000000000000000e+00 0
0.0000000000000000e+00 0.0000000000000000e+00 0
0.0000000000000000e+00 0.0000000000000000e+00 0
0.0000000000000000e+00 0.0000000000000000e+00 0
0.0000000000000000e+00 0.0000000000000000e+00 0
0.0000000000000000e+00 0.0000000000000000e+00 0
0.0000000000000000e+00 0.0000000000000000e+00 0
0.0000000000000000e+00 0.0000000000000000e+00 0
0.0000000000000000e+00 0.0000000000000000e+00 0
0.0000000000000000e+00 0.0000000000000000e+00 0
0.0000000000000000e+00 0.0000000000000000e+00 0
0.0000000000000000e+00 0.0000000000000000e+00 0
0.0000000000000000e+00 0.0000000000000000e+00 0
0.0000000000000000e+00 0.0000000000000000e+00 0
0.0000000000000000e+00 0.0000000000000000e+00 0
0.0000000000000000e+00 0.0000000000000000e+00 0
0.0000000000000000e+00 0.0000000000000000e+00 0
0.0000000000000000e+00 0.0000000000000000e+00 0
0.0000000000000000e+00 0.0000000000000000e+00 0
0.0000000000000000e+00 0.0000000000000000e+00 0
0.0000000000000000e+00 0.0000000000000000e+00 0
0.0000000000000000e+00 0.0000000000000000e+00 0
0.0000000000000000e+00 0.0000000000000000e+00 0
0.0000000000000000e+00 0.0000000000000000e+00 0
0.0000000000000000e+00 0.0000000000000000e+00 0

VECTORS Displacements1 float
-5.6840431752996226e-17 3.1755622014315218e-17 0
-1.2895565244497012e-22 4.4604755493464157e-23 0
1.7182658086736275e-06 6.8861433068785138e-07 0
1.6607923211671163e-06 -6.4410265098667107e-07 0
2.8916915750647394e-06 9.4578994340098344e-07 0
2.7902367069208272e-06 -8.8514524749922303e-07 0
3.5585377079383333e-06 9.4835959641284785e-07 0
3.4785620961194500e-06 -8.8177783283355858e-07 0
3.9271261254387756e-06 8.1953836088923761e-07 0
3.8816820075776274e-06 -7.6087821255139128e-07 0
5.4575463357991619e-06 5.7519292272617084e-07 0
5.1983936816631009e-06 -3.6421094981275083e-07 0
4.4138503071579501e-06 2.0191396644960625e-07 0
4.3565144982182258e-06 -1.3613420872447909e-07 0
4.6514784634984338e-06 1.6637953555002332e-07 0
4.5539028788966634e-06 -1.6508858842248922e-08 0
4.6224523494235335e-06 1.1509965829411240e-07 0
4.5255586167505450e-06 5.6836859847776125e-08 0
4.3813420954854683e-06 1.6005777963368002e-07 0
4.3292659496854981e-06 8.8781945405263841e-10 0
5.5850625435852569e-06 1.6935517686643334e-07 0
5.3365214433597269e-06 1.7444722278837423e-07 0
4.4392888730957721e-06 2.5086540136109599e-08 0
4.3812679902458954e-06 1.6326863766427387e-07 0
4.7025362353068967e-06 1.3627315020500488e-07 0
4.6121796068882864e-06 1.4625885493075936e-07 0
4.7254554498299140e-06 1.5113042574888339e-07 0
4.6326279919537124e-06 1.5783117220623446e-07 0
4.5003377886931798e-06 2.1765688847833186e-07 0
4.4541144971089579e-06 7.8607324737049260e-08 0
5.7037954375062299e-06 2.4330668936592626e-07 0
5.4987704520728022e-06 2.7197870659484778e-07 0
4.5543339081006448e-06 1.0864467401027325e-07 0
4.4969733120290287e-06 2.2873906330772343e-07 0
4.8288733888976043e-06 2.2844520561797841e-07 0
4.7529629196294538e-06 2.1389757330288454e-07 0
4.8610164742100828e-06 2.4695295752478027e-07 0
4.7831351465048911e-06 2.2620146247317305e-07 0
4.6458532026232538e-06 3.1666414261469861e-07 0
4.6086178734711851e-06 1.3902897821652205e-07 0
5.8683747312641832e-06 3.5513488215236339e-07 0
5.7430354493788813e-06 3.6682078746549187e-07 0
4.7299317506962581e-06 2.1692345573809270e-07 0
4.6757268706527679e-06 3.0395166753431699e-07 0
5.0210230757362519e-06 3.4458327889786325e-07 0
4.9692118958771961e-06 2.9194818444554065e-07 0
5.0678113153434469e-06 3.6966720855050443e-07 0
5.0143507748506415e-06 3.0505754347593446e-07 0
4.8641867826223529e-06 4.4671433846923070e-07 0
4.8397767975363212e-06 2.0586612887324855e-07 0
6.1100314174674071e-06 5.1186073145597116e-07 0
6.1040428121557874e-06 4.7086407334023432e-07 0
4.9860804648435939e-06 3.6577294056700830e-07 0
4.9369259015760518e-06 3.8878940726427570e-07 0
5.2947124797720472e-06 5.0846378540707165e-07 0
5.2774331546404402e-06 3.7791867312200323e-07 0
5.3594113922768312e-06 5.4464685725994645e-07 0
5.3402799810784959e-06 3.9137403728326595e-07 0
5.1711844870500587e-06 6.3152307159241024e-07 0
5.1626568895009619e-06 2.7661989259354323e-07 0
6.4432495920377056e-06 7.3764019379888944e-07 0
6.6084820463983238e-06 5.8459413919613450e-07 0
5.3509404177687428e-06 5.8743014333246123e-07 0
5.3069641218622820e-06 4.7922235649448798e-07 0
5.6962097084054000e-06 7.5652892925577207e-07 0
5.7218517220970380e-06 4.6613101155495584e-07 0
5.7968242709759855e-06 8.2044829619099098e-07 0
5.8195824961502613e-06 4.7661193512488766e-07 0
5.6442887114435239e-06 9.4788724593183562e-07 0
5.6460055101728613e-06 3.3759090825764456e-07 0
6.9994604267921332e-06 1.1736140308847938e-06 0
7.3611538147460873e-06 7.0112238564728939e-07 0
5.9559709809143361e-06 1.0585205213591624e-06 0
5.8553698039776985e-06 5.9703454479192680e-07 0
6.3681639552647589e-06 1.3901530858427773e-06 0
6.3493348753728248e-06 6.0431902136216190e-07 0
6.5507865054207294e-06 1.6685944077740184e-06 0
6.4468897394954662e-06 6.3993652309420408e-07 0
6.4894993585342388e-06 2.0859939915394701e-06 0
6.2347385161118526e-06 4.9493133117588169e-07 0
7.9447087508135490e-06 2.7521374027775693e-06 0
8.2627208416241822e-06 9.3241401406171532e-07 0
6.9398237256725632e-06 3.1360422895337914e-06 0
6.3402999300238207e-06 6.8221872751971937e-07 0
7.3652462980661976e-06 4.2397105715923595e-06 0
6.8221265642157288e-06 3.8014775461719477e-07 0
7.5517410809533661e-06 5.6900720759708069e-06 0
6.8814590213501850e-06 -2.9609338537248761e-07 0
7.8713100791177233e-06 7.8278359449694400e-06 0
7.0431669066784825e-06 -1.7604195350550867e-06 0
1.1064667206180378e-05 1.0871623285785581e-05 0
1.1266565658918774e-05 -2.9556017731447974e-06 0
1.2308223792681653e-05 1.3077424595126025e-05 0
1.1422658573652828e-05 -5.0460564920725501e-06 0
1.6909055242382205e-05 1.6338583234908955e-05 0
1.6544285185210733e-05 -7.0866283500175452e-06 0
2.2429418948324401e-05 1.9080928289103294e-05 0
2.2154151457429773e-05 -8.8058000599719584e-06 0
3.0734080536040396e-05 2.1933619233340455e-05 0
3.0041490471351500e-05 -9.7343718036605576e-06 0
3.6899393998347633e-05 2.2005022644431987e-05 0
3.6927342318139093e-05 1.5375702500425843e-05 0
3.5716969722226348e-05 8.9302835421853474e-06 0
3.5436002167487670e-05 3.2431850586788223e-06 0
3.6203337997226472e-05 -3.2560310395117196e-06 0
3.5895758672899224e-05 -1.0488153104121431e-05 0

VECTORS Displacements2 float
-5.6879169158561997e-17 3.1777254102874132e-17 0
-1.2951644109360589e-22 4.5030595699054339e-23 0
1.7256874412608306e-06 6.9479592867767670e-07 0
1.6679069840643524e-06 -6.4996978747936200e-07 0
2.9051937759916542e-06 9.5518236751529680e-07 0
2.8034278197215327e-06 -8.9441354439089519e-07 0
3.5797954392521207e-06 9.5999933655914704e-07 0
3.4994173376933541e-06 -8.9317619086587340e-07 0
3.9558103467243457e-06 8.3141858276828647e-07 0
3.9103526230634907e-06 -7.7227537030494575e-07 0
5.4941225522541684e-06 5.8545993466917294e-07 0
5.2342201230102576e-06 -3.7370950772354458e-07 0
4.4539616366898569e-06 2.0890651920608805e-07 0
4.3961370667227983e-06 -1.4225780177726392e-07 0
4.6920713249751620e-06 1.7059190987273249e-07 0
4.5940621852796167e-06 -1.9914982759954431e-08 0
4.6627221904861762e-06 1.1826552418878144e-07 0
4.5653494394467036e-06 5.4835807571037198e-08 0
4.4213124012412002e-06 1.6278784206780996e-07 0
4.3688461374631622e-06 -3.9761116403255438e-10 0
5.6264822915825720e-06 1.7139640195670093e-07 0
5.3770316717324367e-06 1.7395440926803238e-07 0
4.4798829520321136e-06 2.6417128685425224e-08 0
4.4213223285416056e-06 1.6383419814973752e-07 0
4.7421880348489867e-06 1.3771726131949885e-07 0
4.6515233028984083e-06 1.4685537940591730e-07 0
4.7654795657845810e-06 1.5362216777223162e-07 0
4.6722020198817339e-06 1.5770307101198161e-07 0
4.5415139057853270e-06 2.2057090708669295e-07 0
4.4950352258747194e-06 7.8401583068028868e-08 0
5.7467537176810106e-06 2.4581447807954385e-07 0
5.5409005224315766e-06 2.7245898569185039e-07 0
4.5961645157005346e-06 1.1075631896145375e-07 0
4.5383292606939250e-06 2.2995833360803772e-07 0
4.8696857680877647e-06 2.3094498808772510e-07 0
4.7935402349648340e-06 2.1481392877849934e-07 0
4.9022230354438530e-06 2.5071238067668218e-07 0
4.8239843596697553e-06 2.2631891700249122e-07 0
4.6882885004520215e-06 3.2086530765457421e-07 0
4.6510157681182844e-06 1.3908829726096672e-07 0
5.9127174853895369e-06 3.5902744153648990e-07 0
5.7867172767579619e-06 3.6758167124556405e-07 0
4.7732523847975694e-06 2.2041716218254676e-07 0
4.7187065630165481e-06 3.0554129882970114e-07 0
5.0634184400596214e-06 3.4846562867039240e-07 0
5.0115112639172284e-06 2.9326786604927320e-07 0
5.1107527133580054e-06 3.7486806224335223e-07 0
5.0570965014281033e-06 3.0554245932032599e-07 0
4.9084484483415557e-06 4.5243162053455083e-07 0
4.8842975906526117e-06 2.0633414436052236e-07 0
6.1564214115198816e-06 5.1736621270463152e-07 0
6.1500459787501062e-06 4.7215094388384297e-07 0
5.0315796764214122e-06 3.7091584240884432e-07 0
4.9822720955294810e-06 3.9101922109802564e-07 0
5.3393608716519800e-06 5.1404194531918380e-07 0
5.3221315484561162e-06 3.7985961409030757e-07 0
5.4047623712744881e-06 5.5166751234156396e-07 0
5.3856518483706724e-06 3.9242168382105178e-07 0
5.2180425203103409e-06 6.3917544984678386e-07 0
5.2101722754302013e-06 2.7763709979739004e-07 0
6.4925468796678724e-06 7.4527655013785699e-07 0
6.6578053894390028e-06 5.8658994209461555e-07 0
5.3996949802196002e-06 5.9487276673610520e-07 0
5.3557740219537126e-06 4.8224275664199031e-07 0
5.7442748270473352e-06 7.6460723966768807e-07 0
5.7700850538178932e-06 4.6880923952344076e-07 0
5.8459401528786808e-06 8.3049032705545386e-07 0
5.8688627707957418e-06 4.7833615781262405e-07 0
5.6953672592696178e-06 9.5948046564444898e-07 0
5.6977876505607170e-06 3.3956951821332246e-07 0
7.0539180233816554e-06 1.1869374418164777e-06 0
7.4149336855346710e-06 7.0471116324061998e-07 0
6.0104917979791329e-06 1.0734822028538084e-06 0
5.9080662232153050e-06 6.0260592763429370e-07 0
6.4225336849659883e-06 1.4085501503106777e-06 0
6.4006182258884280e-06 6.1028333210558382e-07 0
6.6064246116738465e-06 1.6924601990001097e-06 0
6.4989443474968583e-06 6.4546299911132515e-07 0
6.5475968939918657e-06 2.1148821657878993e-06 0
6.2882987186809266e-06 5.0142667607115550e-07 0
8.0041096693557771e-06 2.7851888203473946e-06 0
8.3167357113283760e-06 9.4045982339332842e-07 0
6.9949071257199654e-06 3.1745475372756341e-06 0
6.3891507966532280e-06 6.9016414015970977e-07 0
7.4158809386330154e-06 4.2888938968058786e-06 0
6.8663463547526667e-06 3.8193163433920576e-07 0
7.6048852595749217e-06 5.7555298829990533e-06 0
6.9298273492589804e-06 -3.0662960631219770e-07 0
7.9393031187312072e-06 7.9106627961555505e-06 0
7.1099685497696047e-06 -1.7845052144803717e-06 0
1.1160202610256458e-05 1.0969481020233835e-05 0
1.1361770364297805e-05 -2.9897058936733590e-06 0
1.2434846829055438e-05 1.3183918244417029e-05 0
1.1551069082822453e-05 -5.0866597924258710e-06 0
1.7069938895301141e-05 1.6450540185965722e-05 0
1.6706819505061744e-05 -7.1316362488800052e-06 0
2.2625202467286505e-05 1.9196359171943388e-05 0
2.2353525211741378e-05 -8.8544636905234544e-06 0
3.0965458878951234e-05 2.2050897785039623e-05 0
3.0279574140933570e-05 -9.7844265671742205e-06 0
3.7164889877601970e-05 2.2121314255099720e-05 0
3.7194009007589450e-05 1.5458829124305684e-05 0
3.5984671389746709e-05 8.9807132530810873e-06 0
3.5706921725330196e-05 3.2634509628782558e-06 0
3.6477916950665120e-05 -3.2696340960330352e-06 0
3.6172043827489732e-05 -1.0539003940292454e-05 0

VECTORS Displacements3 float
-5.6917270486287987e-17 3.1798533607534937e-17 0
-1.3007373476968162e-22 4.5456814807627389e-23 0
1.7330859136640978e-06 7.0099868729172645e-07 0
1.6749716335044242e-06 -6.5583876600936188e-07 0
2.9186913917879354e-06 9.6460873198566859e-07 0
2.8166041917052709e-06 -9.0373237908352810e-07 0
3.6010631879964010e-06 9.7169744536549228e-07 0
3.5202344990385896e-06 -9.0462711453957649e-07 0
3.9845509677510714e-06 8.4335575537552735e-07 0
3.9390645300193674e-06 -7.8373996184654592e-07 0
5.5307979459503457e-06 5.9582177683334424e-07 0
5.2701257416898895e-06 -3.8328931783025698e-07 0
4.4941930478705135e-06 2.1598555739545890e-07 0
4.4358636929033879e-06 -1.4845903248181209e-07 0
4.7328774260972064e-06 1.7487733248069540e-07 0
4.6344194684034604e-06 -2.3402717352055040e-08 0
4.7032349239763917e-06 1.2148454758541327e-07 0
4.6053560921206602e-06 5.2776700601779858e-08 0
4.4615019119898057e-06 1.6555301240413868e-07 0
4.4086349658643481e-06 -1.7099122429702112e-09 0
5.6681422260427130e-06 1.7347205329151432e-07 0
5.4177493126159344e-06 1.7345212560618886e-07 0
4.5206496351257794e-06 2.7764207351563373e-08 0
4.4615375929663134e-06 1.6438235894184987e-07 0
4.7820464351283502e-06 1.3917328457574703e-07 0
4.6910543630423428e-06 1.4743689384944515e-07 0
4.8056909361892828e-06 1.5613004715942798e-07 0
4.7119518918078348e-06 1.5755410944421040e-07 0
4.5828939542014622e-06 2.2350813217512467e-07 0
4.5361422306867478e-06 7.8184228449594077e-08 0
5.7899539289332272e-06 2.4835052848901227e-07 0
5.5832386387975289e-06 2.7294433677637030e-07 0
4.6381828343146568e-06 1.1287729154599284e-07 0
4.5798547281102262e-06 2.3118279862777425e-07 0
4.9107030405696477e-06 2.3344996444255372e-07 0
4.8343108253598444e-06 2.1571483000428778e-07 0
4.9436304683864702e-06 2.5448856190944002e-07 0
4.8650233943592165e-06 2.2642640789587005e-07 0
4.7309330569695981e-06 3.2509896335399711e-07 0
4.6936071193689078e-06 1.3913699477180916e-07 0
5.9573082702881219e-06 3.6295282532448877e-07 0
5.8306163270457569e-06 3.6835398688400487e-07 0
4.8167710197111293e-06 2.2392694199859974e-07 0
4.7618691020610161e-06 3.0713461771962404e-07 0
5.1060232843569440e-06 3.5236310978572588e-07 0
5.0540156890676414e-06 2.9457201048901701e-07 0
5.1539028615138365e-06 3.8009433675451256e-07 0
5.1000416775560574e-06 3.0601603897459056e-07 0
4.9529307266705480e-06 4.5819164935979170e-07 0
4.9290249599596165e-06 2.0679369208889011e-07 0
6.2030703651219549e-06 5.2291236097742832e-07 0
6.1962777212892586e-06 4.7345271152227017e-07 0
5.0772862575581965e-06 3.7608409994650369e-07 0
5.0278100216997841e-06 3.9325739051223965e-07 0
5.3842263470911128e-06 5.1964131365540234e-07 0
5.3670516824104583e-06 3.8178472861054280e-07 0
5.4503325843731686e-06 5.5872571307671211e-07 0
5.4312366976595839e-06 3.9346217110512612e-07 0
5.2651378462605965e-06 6.4688208641111054e-07 0
5.2579163309686989e-06 2.7864718836190932e-07 0
6.5421173547213482e-06 7.5296961278204627e-07 0
6.7073734003214215e-06 5.8860773836055437e-07 0
5.4486695290009579e-06 6.0235086462707226e-07 0
5.4047910142726134e-06 4.8527655885233635e-07 0
5.7925745345267372e-06 7.7273065705982028e-07 0
5.8185609801062145e-06 4.7147302385138975e-07 0
5.8953099047074754e-06 8.4059956487926928e-07 0
5.9183659194300070e-06 4.8006206274570874e-07 0
5.7467180132407611e-06 9.7120355261532950e-07 0
5.7498016982207991e-06 3.4157596587144713e-07 0
7.1086808373700230e-06 1.2004022536699279e-06 0
7.4689648585833670e-06 7.0837540927783805e-07 0
6.0652551984973672e-06 1.0885809519761416e-06 0
5.9609738248572457e-06 6.0825520082625732e-07 0
6.4771441394744260e-06 1.4271145155694006e-06 0
6.4520765041887036e-06 6.1630174976114447e-07 0
6.6622975709624810e-06 1.7165281632430531e-06 0
6.5512288099913740e-06 6.5109060036322435e-07 0
6.6059249753011408e-06 2.1439541276316743e-06 0
6.3420107456028172e-06 5.0803639905944726e-07 0
8.0637041977799042e-06 2.8184061151995006e-06 0
8.3708729424102275e-06 9.4864919089171969e-07 0
7.0500159105403568e-06 3.2132008527412094e-06 0
6.4380081400116851e-06 6.9821348291779030e-07 0
7.4665710397743366e-06 4.3383414040933306e-06 0
6.9106588424649526e-06 3.8371394330316029e-07 0
7.6582375652695687e-06 5.8213027470604921e-06 0
6.9785707865686997e-06 -3.1722314112582202e-07 0
8.0077583083273467e-06 7.9938406920392272e-06 0
7.1774064445635608e-06 -1.8086558234046121e-06 0
1.1256539000839274e-05 1.1067559757911082e-05 0
1.1457837013942783e-05 -3.0237664711956500e-06 0
1.2562321095990096e-05 1.3290530833002141e-05 0
1.1680383809832703e-05 -5.1271379862357809e-06 0
1.7231705344563140e-05 1.6562576395965623e-05 0
1.6870238719454509e-05 -7.1764284175916056e-06 0
2.2821877874115673e-05 1.9311921669491248e-05 0
2.2553800784163235e-05 -8.9028609363698693e-06 0
3.1197774219206947e-05 2.2168370708557948e-05 0
3.0518465589481873e-05 -9.8342618494029539e-06 0
3.7431566131132426e-05 2.2237829215480294e-05 0
3.7461770803907572e-05 1.5541977795694255e-05 0
3.6253363133844324e-05 9.0311178778569239e-06 0
3.5978752538742198e-05 3.2837273656101166e-06 0
3.6753388749706632e-05 -3.2830694586461048e-06 0
3.6449097098592529e-05 -1.0589601313646955e-05 0

VECTORS Forces1 float
-6.1564989559331251e-01 3.6394156739503858e-01 0
-4.0370609004749086e-01 -2.4148208857979758e-01 0
7.9946842040607278e+00 -4.4238653026139749e+00 0
5.3564749716802913e+00 2.9613780582795122e+00 0
8.7605523889855093e+00 -1.3549921142582879e+00 0
5.8915910265890528e+00 9.0878996003957557e-01 0
5.5833596996618953e+00 2.2823829617607377e-01 0
3.7587328212240836e+00 -1.5145983822259085e-01 0
-8.4158405095371980e-01 -3.0409296617588327e-02 0
-5.6739599010889852e-01 2.0391777345064359e-02 0
2.1533328631079158e+01 1.5202726358102011e-02 0
1.4555029035571151e+01 1.2865046166640673e-02 0
-9.1686995406318983e-01 -1.1158740247294366e-03 0
-6.2259990881562932e-01 -1.4020381034087984e-03 0
6.1604418241718166e+00 1.6827752375113694e-03 0
4.1811749578285529e+00 1.4914500366396096e-02 0
6.1609362815197732e+00 1.5509184998359225e-03 0
4.1815987183554144e+00 1.4990953834219320e-02 0
-9.1805951914460637e-01 -5.0476710621039740e-04 0
-6.2340469718932467e-01 -2.0433119873683649e-03 0
2.1788422261064625e+01 3.9982044817794051e-04 0
1.4835442181746787e+01 9.8693874308680873e-02 0
-9.2197428145614557e-01 -6.8106168074376263e-04 0
-6.3032515626338992e-01 -5.3178589674889006e-03 0
6.1889973987378806e+00 2.9137082495468421e-03 0
4.2308098418247253e+00 3.7910589175837464e-02 0
6.1889992093034643e+00 2.9196569024097863e-03 0
4.2308511394931188e+00 3.7928039921326456e-02 0
-9.2195337765451046e-01 -7.1795724159371180e-04 0
-6.3052022816816033e-01 -5.4647382860506868e-03 0
2.1766684406943646e+01 2.7750471724337124e-02 0
1.4937050903274919e+01 1.6560445525417231e-01 0
-9.1754924271440264e-01 -2.1602388610887369e-03 0
-6.3307359762358462e-01 -8.1323591815418619e-03 0
6.1581533630204968e+00 1.3094078366801392e-02 0
4.2488999456890220e+00 5.6719177942237041e-02 0
6.1581089670601887e+00 1.3101704256404874e-02 0
4.2489253530292777e+00 5.6738613917536720e-02 0
-9.1720281587776775e-01 -2.2590065528347390e-03 0
-6.3312235855755505e-01 -8.2543697352732721e-03 0
2.1588216825724484e+01 7.0434521856160962e-02 0
1.4981217265638284e+01 2.3363482650269318e-01 0
-9.0729289002163360e-01 -4.4488396304647321e-03 0
-6.3427279194412511e-01 -1.0947278986697609e-02 0
6.0884985829414875e+00 2.8447196608483605e-02 0
4.2570344537288491e+00 7.5795182583594842e-02 0
6.0884137655831010e+00 2.8458166247474263e-02 0
4.2570549742350687e+00 7.5817543051705086e-02 0
-9.0666598001300824e-01 -4.6226540338067034e-03 0
-6.3423988015642097e-01 -1.1051174056521703e-02 0
2.1270702509102275e+01 1.4692420282708629e-01 0
1.4994385535398091e+01 2.9613153815888182e-01 0
-8.9029458784057802e-01 -8.6195027765070941e-03 0
-6.3392708652880414e-01 -1.3421216227093956e-02 0
5.9732999123302246e+00 5.6392467642168945e-02 0
4.2548034363844423e+00 9.2730302162841630e-02 0
5.9731748185497304e+00 5.6403564981119952e-02 0
4.2548235562135366e+00 9.2759579421528737e-02 0
-8.8942271991776556e-01 -8.8802534298176063e-03 0
-6.3384778640801953e-01 -1.3510920343977929e-02 0
2.0785180777207039e+01 2.4856074581026086e-01 0
1.4973450367024380e+01 3.6370012360615278e-01 0
-8.6862332926314989e-01 -1.3701195306364423e-02 0
-6.3358136816399824e-01 -1.6371463459447264e-02 0
5.8267590348761731e+00 8.9907768700154128e-02 0
4.2528242468713859e+00 1.1330241354385642e-01 0
5.8265476569360155e+00 8.9933876292157697e-02 0
4.2528210614295316e+00 1.1333761635855424e-01 0
-8.6733333233662968e-01 -1.4281117247661677e-02 0
-6.3335402807528807e-01 -1.6397376477594958e-02 0
2.0178669383743383e+01 4.9196348027284043e-01 0
1.4942959179052270e+01 4.0403398099827825e-01 0
-8.3082212465424676e-01 -2.9197195165140799e-02 0
-6.2655222511237629e-01 -1.7338129604112663e-02 0
5.5683722011416528e+00 1.9367237326331668e-01 0
4.2038815681159214e+00 1.2089050308594852e-01 0
5.5679909421181017e+00 1.9361741764991017e-01 0
4.2038267060195160e+00 1.2096356793277951e-01 0
-8.3047994367540612e-01 -3.0122326273165322e-02 0
-6.2759586168668458e-01 -1.7423320589792859e-02 0
1.9190720637954705e+01 6.8663637284603507e-01 0
1.4891519867248192e+01 5.7411687629428332e-01 0
-8.2264052347343208e-01 -3.8085365723253481e-02 0
-6.6040218796819961e-01 -2.5274193800189134e-02 0
5.4999591947567961e+00 2.4407257119919393e-01 0
4.4236857521843840e+00 1.7713036869340471e-01 0
5.4984853357880628e+00 2.4382906945342395e-01 0
4.4231247349707372e+00 1.7721331441555538e-01 0
-8.2337310742435399e-01 -4.3017288093612265e-02 0
-6.6323036922818457e-01 -2.3387042418113613e-02 0
1.9105860508242092e+01 2.2014996042082520e+00 0
1.6194865169181398e+01 1.1021126455044650e-01 0
-7.4014428392293807e-01 -1.6354481501322427e-01 0
-6.8386250013666372e-01 2.9707999548438956e-02 0
5.0864592672269495e+00 1.0907719274368910e+00 0
4.7699701063430453e+00 -1.2433570598671435e-01 0
4.0922484767432072e+00 7.7932015968953716e-01 0
3.8918821405535158e+00 -1.5119200900894342e-01 0
9.0873504245696033e+00 2.8189416606425355e+00 0
8.0511069049028627e+00 4.3622411246645026e-01 0
8.9902213968908407e-01 3.9708875359294532e-01 0
6.0940688216341670e+00 1.5049391487011590e+00 0
3.1109170963443229e+00 1.3582818945875283e+00 0
2.9834339085056687e+00 1.8555716670233198e+00 0
5.1295358500383994e+00 1.4429805385794068e+00 0
7.3352794248415842e-01 -1.7363930363879984e-01 0

VECTORS Forces2 float
8.2541375537215389e-01 -4.7628671243637588e-01 0
5.0501256205368172e-01 3.1059796175790233e-01 0
-1.0449805009552072e+01 5.7691118944496962e+00 0
-6.5201740542748521e+00 -3.6024561664040982e+00 0
-1.1448508657513067e+01 1.7698188241159596e+00 0
-7.1838287710660360e+00 -1.1031868395321043e+00 0
-7.3015027126142744e+00 -2.9566559917373114e-01 0
-4.5911613001593885e+00 1.8270603860913637e-01 0
1.1002596219725906e+00 3.8543974392300069e-02 0
6.9270091828613456e-01 -2.4365239100369029e-02 0
-2.8213489518294139e+01 -1.0822891097440911e-02 0
-1.7873549658152601e+01 3.0103149416645780e-02 0
1.2029886375710741e+00 7.3529390519181401e-04 0
7.6659746273741203e-01 -2.6245956611337501e-03 0
-8.0836609110751958e+00 -1.6851194015828023e-03 0
-5.1505192619565818e+00 1.4958519148124899e-02 0
-8.0842977908363842e+00 -1.5056220493044545e-03 0
-5.1510322314500065e+00 1.4914775499090894e-02 0
1.2047312609461223e+00 -2.3589543231162904e-05 0
7.6766207622101235e-01 -2.0974522574551376e-03 0
-2.8610359147370499e+01 -1.4363688252094127e-03 0
-1.8258170091158675e+01 8.4473793719539558e-02 0
1.2102173420451512e+00 2.5285085825417860e-04 0
7.7175308087060512e-01 -5.3400481795449223e-03 0
-8.1232928833229394e+00 -3.4652419141907179e-03 0
-5.1803444030723549e+00 3.7954731094552739e-02 0
-8.1232830948971184e+00 -3.4756331280130864e-03 0
-5.1803244693479069e+00 3.7988369064489595e-02 0
1.2101246052833063e+00 2.3719553914001843e-04 0
7.7151678999441997e-01 -5.4731077422806758e-03 0
-2.8535321720819368e+01 -1.6710118283726084e-02 0
-1.8120242773366130e+01 1.8076293287111078e-01 0
1.2010127376037110e+00 4.0311838549237760e-04 0
7.5857607139986372e-01 -9.1654602342493702e-03 0
-8.0590048672790608e+00 -4.7342019870654072e-03 0
-5.0893859782298865e+00 6.4142480384086445e-02 0
-8.0589232073209498e+00 -4.7444791686374116e-03 0
-5.0892814095144630e+00 6.4177819060604949e-02 0
1.2003221984792509e+00 3.5344266318112567e-04 0
7.5760124020315756e-01 -9.3001686523428734e-03 0
-2.8189231253020690e+01 -9.1594721065554417e-03 0
-1.7645230235539952e+01 2.6872627805151711e-01 0
1.1815860397600195e+00 -4.0601614586107624e-04 0
7.3210522338527595e-01 -1.2737659921253903e-02 0
-7.9267630771538027e+00 4.1906059281186998e-04 0
-4.9100394927254358e+00 8.8610100696223076e-02 0
-7.9266219818688270e+00 4.1069774503987660e-04 0
-4.9098609329774723e+00 8.8648538721002340e-02 0
1.1804153664205201e+00 -5.3133368482409537e-04 0
7.3046064071540517e-01 -1.2850090651878280e-02 0
-2.7600504755223611e+01 2.6517386155764214e-02 0
-1.6846580500742935e+01 3.5322892166718473e-01 0
1.1517096654334336e+00 -2.8141132666502922e-03 0
6.9092815500892513e-01 -1.6134350434177436e-02 0
-7.7240800084604730e+00 1.6124654943707361e-02 0
-4.6319571895020282e+00 1.1216284045780206e-01 0
-7.7238717325937714e+00 1.6109081249397271e-02 0
-4.6316948644472635e+00 1.1221353405507360e-01 0
1.1500298157062541e+00 -3.0207889939049279e-03 0
6.8848134446840648e-01 -1.6228967941608746e-02 0
-2.6757773952334809e+01 8.3883074007785968e-02 0
-1.5665740087674157e+01 4.4475812237388579e-01 0
1.1101585197935089e+00 -5.6037747969247794e-03 0
6.3155281510206995e-01 -2.0190586347792795e-02 0
-7.4423708714369905e+00 3.3576079487318382e-02 0
-4.2316596205509862e+00 1.4078204374222916e-01 0
-7.4420524765961309e+00 3.3544140532352815e-02 0
-4.2312709007669334e+00 1.4085411845538159e-01 0
1.1077330232772213e+00 -6.0402870757499064e-03 0
6.2781186239138431e-01 -2.0211132978979921e-02 0
-2.5543517211625591e+01 2.1327083738967395e-01 0
-1.3926416437177378e+01 5.3621038704399115e-01 0
1.0470506772888857e+00 -1.3810313854497068e-02 0
5.3833193932166612e-01 -2.3111575530919522e-02 0
-7.0130122498587566e+00 8.6287948383439075e-02 0
-3.6028050408031436e+00 1.6268877819958968e-01 0
-7.0125132431483062e+00 8.6099648798920375e-02 0
-3.6023682230990506e+00 1.6281453746697366e-01 0
1.0440654630320059e+00 -1.4626567272320538e-02 0
5.3342530940507626e-01 -2.3046601766496037e-02 0
-2.3836857317251791e+01 2.6502906867077447e-01 0
-1.1417546388762737e+01 6.3817705131677771e-01 0
9.7155604993819988e-01 -1.4725378816641689e-02 0
4.3727199476825274e-01 -2.8989152887528648e-02 0
-6.4966311019175143e+00 7.7570773322483244e-02 0
-2.9296652390580511e+00 2.0663173148312203e-01 0
-6.4950691373110310e+00 7.6631327528976306e-02 0
-2.9291400785642816e+00 2.0711017392219419e-01 0
9.6586531246247331e-01 -1.9665657844601253e-02 0
4.2580824927749056e-01 -2.7261555001646565e-02 0
-2.0878916085733067e+01 8.5074022268813221e-01 0
-8.0871594775350708e+00 8.5601671234202314e-01 0
7.3030380981106258e-01 -8.7343984418915444e-02 0
1.3521506279603904e-01 -1.8249648040320400e-02 0
-4.8003608855306936e+00 5.4215078306091058e-01 0
-9.4631613048462004e-01 2.6179230457080926e-01 0
-4.5320077004825645e+00 4.6907193623557074e-02 0
-1.0700092926206988e+00 2.5462947050850304e-01 0
-1.7677185623376968e+00 4.7524372840135030e+00 0
1.2321667646673498e+00 2.2559026323639214e-01 0
-4.9649019280269979e-01 4.5922784125939076e-01 0
-6.0054833926832363e-01 4.8210942266712378e+00 0
7.1031642650188631e-01 3.6826244612113395e+00 0
4.1620322998809672e-01 3.1663059346439355e+00 0
5.9123779087020367e-01 8.0892897661962915e-01 0
2.5004037950175251e-01 -2.2254359894374254e-01 0

