# vtk DataFile Version 2.0

ASCII

DATASET UNSTRUCTURED_GRID

POINTS 106 float 

-5.0000000000000003e-02  0.0000000000000000e+00  0.0000000000000000e+00
5.0000000000000003e-02  0.0000000000000000e+00  0.0000000000000000e+00
-5.0000000000000003e-02  2.0000000000000000e-02  0.0000000000000000e+00
5.0000000000000003e-02  2.0000000000000000e-02  0.0000000000000000e+00
-5.0000000000000003e-02  4.0000000000000001e-02  0.0000000000000000e+00
5.0000000000000003e-02  4.0000000000000001e-02  0.0000000000000000e+00
-5.0000000000000003e-02  5.9999999999999998e-02  0.0000000000000000e+00
5.0000000000000003e-02  5.9999999999999998e-02  0.0000000000000000e+00
-5.0000000000000003e-02  8.0000000000000002e-02  0.0000000000000000e+00
5.0000000000000003e-02  8.0000000000000002e-02  0.0000000000000000e+00
-5.0000000000000003e-02  1.0000000000000001e-01  0.0000000000000000e+00
5.0000000000000003e-02  1.0000000000000001e-01  0.0000000000000000e+00
-5.0000000000000003e-02  1.2000000000000000e-01  0.0000000000000000e+00
5.0000000000000003e-02  1.2000000000000000e-01  0.0000000000000000e+00
-5.0000000000000003e-02  1.4000000000000001e-01  0.0000000000000000e+00
5.0000000000000003e-02  1.4000000000000001e-01  0.0000000000000000e+00
-5.0000000000000003e-02  1.6000000000000000e-01  0.0000000000000000e+00
5.0000000000000003e-02  1.6000000000000000e-01  0.0000000000000000e+00
-5.0000000000000003e-02  1.7999999999999999e-01  0.0000000000000000e+00
5.0000000000000003e-02  1.7999999999999999e-01  0.0000000000000000e+00
-5.0000000000000003e-02  2.0000000000000001e-01  0.0000000000000000e+00
5.0000000000000003e-02  2.0000000000000001e-01  0.0000000000000000e+00
-5.0000000000000003e-02  2.2000000000000000e-01  0.0000000000000000e+00
5.0000000000000003e-02  2.2000000000000000e-01  0.0000000000000000e+00
-5.0000000000000003e-02  2.3999999999999999e-01  0.0000000000000000e+00
5.0000000000000003e-02  2.3999999999999999e-01  0.0000000000000000e+00
-5.0000000000000003e-02  2.6000000000000001e-01  0.0000000000000000e+00
5.0000000000000003e-02  2.6000000000000001e-01  0.0000000000000000e+00
-5.0000000000000003e-02  2.8000000000000003e-01  0.0000000000000000e+00
5.0000000000000003e-02  2.8000000000000003e-01  0.0000000000000000e+00
-5.0000000000000003e-02  2.9999999999999999e-01  0.0000000000000000e+00
5.0000000000000003e-02  2.9999999999999999e-01  0.0000000000000000e+00
-5.0000000000000003e-02  3.2000000000000001e-01  0.0000000000000000e+00
5.0000000000000003e-02  3.2000000000000001e-01  0.0000000000000000e+00
-5.0000000000000003e-02  3.4000000000000002e-01  0.0000000000000000e+00
5.0000000000000003e-02  3.4000000000000002e-01  0.0000000000000000e+00
-5.0000000000000003e-02  3.5999999999999999e-01  0.0000000000000000e+00
5.0000000000000003e-02  3.5999999999999999e-01  0.0000000000000000e+00
-5.0000000000000003e-02  3.8000000000000000e-01  0.0000000000000000e+00
5.0000000000000003e-02  3.8000000000000000e-01  0.0000000000000000e+00
-5.0000000000000003e-02  4.0000000000000002e-01  0.0000000000000000e+00
5.0000000000000003e-02  4.0000000000000002e-01  0.0000000000000000e+00
-5.0000000000000003e-02  4.1999999999999998e-01  0.0000000000000000e+00
5.0000000000000003e-02  4.1999999999999998e-01  0.0000000000000000e+00
-5.0000000000000003e-02  4.4000000000000000e-01  0.0000000000000000e+00
5.0000000000000003e-02  4.4000000000000000e-01  0.0000000000000000e+00
-5.0000000000000003e-02  4.6000000000000002e-01  0.0000000000000000e+00
5.0000000000000003e-02  4.6000000000000002e-01  0.0000000000000000e+00
-5.0000000000000003e-02  4.7999999999999998e-01  0.0000000000000000e+00
5.0000000000000003e-02  4.7999999999999998e-01  0.0000000000000000e+00
-5.0000000000000003e-02  5.0000000000000000e-01  0.0000000000000000e+00
5.0000000000000003e-02  5.0000000000000000e-01  0.0000000000000000e+00
-5.0000000000000003e-02  5.2000000000000002e-01  0.0000000000000000e+00
5.0000000000000003e-02  5.2000000000000002e-01  0.0000000000000000e+00
-5.0000000000000003e-02  5.4000000000000004e-01  0.0000000000000000e+00
5.0000000000000003e-02  5.4000000000000004e-01  0.0000000000000000e+00
-5.0000000000000003e-02  5.6000000000000005e-01  0.0000000000000000e+00
5.0000000000000003e-02  5.6000000000000005e-01  0.0000000000000000e+00
-5.0000000000000003e-02  5.7999999999999996e-01  0.0000000000000000e+00
5.0000000000000003e-02  5.7999999999999996e-01  0.0000000000000000e+00
-5.0000000000000003e-02  5.9999999999999998e-01  0.0000000000000000e+00
5.0000000000000003e-02  5.9999999999999998e-01  0.0000000000000000e+00
-5.0000000000000003e-02  6.2000000000000000e-01  0.0000000000000000e+00
5.0000000000000003e-02  6.2000000000000000e-01  0.0000000000000000e+00
-5.0000000000000003e-02  6.4000000000000001e-01  0.0000000000000000e+00
5.0000000000000003e-02  6.4000000000000001e-01  0.0000000000000000e+00
-5.0000000000000003e-02  6.6000000000000003e-01  0.0000000000000000e+00
5.0000000000000003e-02  6.6000000000000003e-01  0.0000000000000000e+00
-5.0000000000000003e-02  6.8000000000000005e-01  0.0000000000000000e+00
5.0000000000000003e-02  6.8000000000000005e-01  0.0000000000000000e+00
-5.0000000000000003e-02  6.9999999999999996e-01  0.0000000000000000e+00
5.0000000000000003e-02  6.9999999999999996e-01  0.0000000000000000e+00
-5.0000000000000003e-02  7.1999999999999997e-01  0.0000000000000000e+00
5.0000000000000003e-02  7.1999999999999997e-01  0.0000000000000000e+00
-5.0000000000000003e-02  7.3999999999999999e-01  0.0000000000000000e+00
5.0000000000000003e-02  7.3999999999999999e-01  0.0000000000000000e+00
-5.0000000000000003e-02  7.6000000000000001e-01  0.0000000000000000e+00
5.0000000000000003e-02  7.6000000000000001e-01  0.0000000000000000e+00
-5.0000000000000003e-02  7.8000000000000003e-01  0.0000000000000000e+00
5.0000000000000003e-02  7.8000000000000003e-01  0.0000000000000000e+00
-5.0000000000000003e-02  8.0000000000000004e-01  0.0000000000000000e+00
5.0000000000000003e-02  8.0000000000000004e-01  0.0000000000000000e+00
-5.0000000000000003e-02  8.1999999999999995e-01  0.0000000000000000e+00
5.0000000000000003e-02  8.1999999999999995e-01  0.0000000000000000e+00
-5.0000000000000003e-02  8.3999999999999997e-01  0.0000000000000000e+00
5.0000000000000003e-02  8.3999999999999997e-01  0.0000000000000000e+00
-5.0000000000000003e-02  8.5999999999999999e-01  0.0000000000000000e+00
5.0000000000000003e-02  8.5999999999999999e-01  0.0000000000000000e+00
-5.0000000000000003e-02  8.8000000000000000e-01  0.0000000000000000e+00
5.0000000000000003e-02  8.8000000000000000e-01  0.0000000000000000e+00
-5.0000000000000003e-02  9.0000000000000002e-01  0.0000000000000000e+00
5.0000000000000003e-02  9.0000000000000002e-01  0.0000000000000000e+00
-5.0000000000000003e-02  9.2000000000000004e-01  0.0000000000000000e+00
5.0000000000000003e-02  9.2000000000000004e-01  0.0000000000000000e+00
-5.0000000000000003e-02  9.3999999999999995e-01  0.0000000000000000e+00
5.0000000000000003e-02  9.3999999999999995e-01  0.0000000000000000e+00
-5.0000000000000003e-02  9.5999999999999996e-01  0.0000000000000000e+00
5.0000000000000003e-02  9.5999999999999996e-01  0.0000000000000000e+00
-5.0000000000000003e-02  9.7999999999999998e-01  0.0000000000000000e+00
5.0000000000000003e-02  9.7999999999999998e-01  0.0000000000000000e+00
-5.0000000000000003e-02  1.0000000000000000e+00  0.0000000000000000e+00
-3.0000000000000002e-02  1.0000000000000000e+00  0.0000000000000000e+00
-1.0000000000000002e-02  1.0000000000000000e+00  0.0000000000000000e+00
1.0000000000000009e-02  1.0000000000000000e+00  0.0000000000000000e+00
2.9999999999999999e-02  1.0000000000000000e+00  0.0000000000000000e+00
5.0000000000000003e-02  1.0000000000000000e+00  0.0000000000000000e+00

CELLS 0 0


CELL_TYPES 0


POINT_DATA 106

VECTORS VertexNormals float

0.0000000000000000e+00 0.0000000000000000e+00 0
0.0000000000000000e+00 0.0000000000000000e+00 0
0.0000000000000000e+00 0.0000000000000000e+00 0
0.0000000000000000e+00 0.0000000000000000e+00 0
0.0000000000000000e+00 0.0000000000000000e+00 0
0.0000000000000000e+00 0.0000000000000000e+00 0
0.0000000000000000e+00 0.0000000000000000e+00 0
0.0000000000000000e+00 0.0000000000000000e+00 0
0.0000000000000000e+00 0.0000000000000000e+00 0
0.0000000000000000e+00 0.0000000000000000e+00 0
0.0000000000000000e+00 0.0000000000000000e+00 0
0.0000000000000000e+00 0.0000000000000000e+00 0
0.0000000000000000e+00 0.0000000000000000e+00 0
0.0000000000000000e+00 0.0000000000000000e+00 0
0.0000000000000000e+00 0.0000000000000000e+00 0
0.0000000000000000e+00 0.0000000000000000e+00 0
0.0000000000000000e+00 0.0000000000000000e+00 0
0.0000000000000000e+00 0.0000000000000000e+00 0
0.0000000000000000e+00 0.0000000000000000e+00 0
0.0000000000000000e+00 0.0000000000000000e+00 0
0.0000000000000000e+00 0.0000000000000000e+00 0
0.0000000000000000e+00 0.0000000000000000e+00 0
0.0000000000000000e+00 0.0000000000000000e+00 0
0.0000000000000000e+00 0.0000000000000000e+00 0
0.0000000000000000e+00 0.0000000000000000e+00 0
0.0000000000000000e+00 0.0000000000000000e+00 0
0.0000000000000000e+00 0.0000000000000000e+00 0
0.0000000000000000e+00 0.0000000000000000e+00 0
0.0000000000000000e+00 0.0000000000000000e+00 0
0.0000000000000000e+00 0.0000000000000000e+00 0
0.0000000000000000e+00 0.0000000000000000e+00 0
0.0000000000000000e+00 0.0000000000000000e+00 0
0.0000000000000000e+00 0.0000000000000000e+00 0
0.0000000000000000e+00 0.0000000000000000e+00 0
0.0000000000000000e+00 0.0000000000000000e+00 0
0.0000000000000000e+00 0.0000000000000000e+00 0
0.0000000000000000e+00 0.0000000000000000e+00 0
0.0000000000000000e+00 0.0000000000000000e+00 0
0.0000000000000000e+00 0.0000000000000000e+00 0
0.0000000000000000e+00 0.0000000000000000e+00 0
0.0000000000000000e+00 0.0000000000000000e+00 0
0.0000000000000000e+00 0.0000000000000000e+00 0
0.0000000000000000e+00 0.0000000000000000e+00 0
0.0000000000000000e+00 0.0000000000000000e+00 0
0.0000000000000000e+00 0.0000000000000000e+00 0
0.0000000000000000e+00 0.0000000000000000e+00 0
0.0000000000000000e+00 0.0000000000000000e+00 0
0.0000000000000000e+00 0.0000000000000000e+00 0
0.0000000000000000e+00 0.0000000000000000e+00 0
0.0000000000000000e+00 0.0000000000000000e+00 0
0.0000000000000000e+00 0.0000000000000000e+00 0
0.0000000000000000e+00 0.0000000000000000e+00 0
0.0000000000000000e+00 0.0000000000000000e+00 0
0.0000000000000000e+00 0.0000000000000000e+00 0
0.0000000000000000e+00 0.0000000000000000e+00 0
0.0000000000000000e+00 0.0000000000000000e+00 0
0.0000000000000000e+00 0.0000000000000000e+00 0
0.0000000000000000e+00 0.0000000000000000e+00 0
0.0000000000000000e+00 0.0000000000000000e+00 0
0.0000000000000000e+00 0.0000000000000000e+00 0
0.0000000000000000e+00 0.0000000000000000e+00 0
0.0000000000000000e+00 0.0000000000000000e+00 0
0.0000000000000000e+00 0.0000000000000000e+00 0
0.0000000000000000e+00 0.0000000000000000e+00 0
0.0000000000000000e+00 0.0000000000000000e+00 0
0.0000000000000000e+00 0.0000000000000000e+00 0
0.0000000000000000e+00 0.0000000000000000e+00 0
0.0000000000000000e+00 0.0000000000000000e+00 0
0.0000000000000000e+00 0.0000000000000000e+00 0
0.0000000000000000e+00 0.0000000000000000e+00 0
0.0000000000000000e+00 0.0000000000000000e+00 0
0.0000000000000000e+00 0.0000000000000000e+00 0
0.0000000000000000e+00 0.0000000000000000e+00 0
0.0000000000000000e+00 0.0000000000000000e+00 0
0.0000000000000000e+00 0.0000000000000000e+00 0
0.0000000000000000e+00 0.0000000000000000e+00 0
0.0000000000000000e+00 0.0000000000000000e+00 0
0.0000000000000000e+00 0.0000000000000000e+00 0
0.0000000000000000e+00 0.0000000000000000e+00 0
0.0000000000000000e+00 0.0000000000000000e+00 0
0.0000000000000000e+00 0.0000000000000000e+00 0
0.0000000000000000e+00 0.0000000000000000e+00 0
0.0000000000000000e+00 0.0000000000000000e+00 0
0.0000000000000000e+00 0.0000000000000000e+00 0
0.0000000000000000e+00 0.0000000000000000e+00 0
0.0000000000000000e+00 0.0000000000000000e+00 0
0.0000000000000000e+00 0.0000000000000000e+00 0
0.0000000000000000e+00 0.0000000000000000e+00 0
0.0000000000000000e+00 0.0000000000000000e+00 0
0.0000000000000000e+00 0.0000000000000000e+00 0
0.0000000000000000e+00 0.0000000000000000e+00 0
0.0000000000000000e+00 0.0000000000000000e+00 0
0.0000000000000000e+00 0.0000000000000000e+00 0
0.0000000000000000e+00 0.0000000000000000e+00 0
0.0000000000000000e+00 0.0000000000000000e+00 0
0.0000000000000000e+00 0.0000000000000000e+00 0
0.0000000000000000e+00 0.0000000000000000e+00 0
0.0000000000000000e+00 0.0000000000000000e+00 0
0.0000000000000000e+00 0.0000000000000000e+00 0
0.0000000000000000e+00 0.0000000000000000e+00 0
0.0000000000000000e+00 0.0000000000000000e+00 0
0.0000000000000000e+00 0.0000000000000000e+00 0
0.0000000000000000e+00 0.0000000000000000e+00 0
0.0000000000000000e+00 0.0000000000000000e+00 0
0.0000000000000000e+00 0.0000000000000000e+00 0
0.0000000000000000e+00 0.0000000000000000e+00 0

VECTORS Displacements1 float
-5.3212450206066833e-17 2.9728449861724048e-17 0
-7.9416302064591489e-23 8.4264932212723279e-24 0
1.0569924631953471e-06 1.8147532799888102e-07 0
1.0266453641101023e-06 -1.3765309561072277e-07 0
1.6295101882959746e-06 2.2970678615045804e-07 0
1.5564888381834902e-06 -1.7308471441256528e-07 0
1.7551692096412251e-06 1.8458519412212799e-07 0
1.6888813943200663e-06 -1.3317602042737756e-07 0
1.6636487461538577e-06 1.2580777799085424e-07 0
1.6209973293301177e-06 -9.8606141450104889e-08 0
2.7684612537050039e-06 5.0769236686853536e-08 0
2.5826587869641921e-06 1.1542411219217830e-07 0
1.6369311136918612e-06 -1.1580972430950933e-07 0
1.5937515288749056e-06 1.3720238103310183e-07 0
1.8327629587202903e-06 -4.4754696787112128e-09 0
1.7677843466216574e-06 8.9565995603358222e-08 0
1.8465617417972683e-06 2.9157690744804553e-08 0
1.7829173638721846e-06 6.5497647502524251e-08 0
1.6592339706091475e-06 8.5710885157096500e-08 0
1.6210285956756145e-06 -1.6645160580886833e-08 0
2.7775445072197668e-06 7.4195075010549747e-08 0
2.6068677041386738e-06 1.5603357940683502e-07 0
1.6655937353553862e-06 -7.9576531068072376e-08 0
1.6242075306142207e-06 1.4646062751876798e-07 0
1.8646498023398996e-06 2.1062143436487946e-08 0
1.8080216142935165e-06 1.1319778934128659e-07 0
1.8720039511843699e-06 4.8832825767887074e-08 0
1.8190464815355012e-06 9.7218596531160381e-08 0
1.6884312955972810e-06 1.0335111990110636e-07 0
1.6594798913644850e-06 1.4034098440919250e-08 0
2.8124799664491072e-06 8.8953064761241410e-08 0
2.6922456750486197e-06 2.1817583202754621e-07 0
1.7024093634530015e-06 -6.7268121373482376e-08 0
1.6653437504982727e-06 1.8966861848687450e-07 0
1.9062043244379197e-06 3.5613762191137326e-08 0
1.8712662235986488e-06 1.5858502363199528e-07 0
1.9188496713188165e-06 6.6597447192550393e-08 0
1.8893333676053716e-06 1.4176858174176361e-07 0
1.7409763905463969e-06 1.2310608869437696e-07 0
1.7266828913861386e-06 4.9750957523771210e-08 0
2.8729230917202250e-06 1.1571303494852482e-07 0
2.8406965800694000e-06 2.8516855305752793e-07 0
1.7642058301344323e-06 -4.4142005973392982e-08 0
1.7368056348050785e-06 2.3533196940109591e-07 0
1.9716452183215500e-06 6.4877504210909544e-08 0
1.9712655474844517e-06 2.0283543663425239e-07 0
1.9900903511583190e-06 1.0096221328424057e-07 0
1.9972270388616537e-06 1.8439887369674709e-07 0
1.8183824376838939e-06 1.6064622639774515e-07 0
1.8257487214957984e-06 8.0128229555173331e-08 0
2.9609657418111961e-06 1.6955940689162196e-07 0
3.0591398701806061e-06 3.5005763879366766e-07 0
1.8542982584917369e-06 -2.0341256371078770e-09 0
1.8424135738012702e-06 2.8082980990554064e-07 0
2.0639866785268509e-06 1.1632792175735617e-07 0
2.1144181639773832e-06 2.4495339651735954e-07 0
2.0896993818762423e-06 1.5909536614902469e-07 0
2.1502060264915504e-06 2.2468273969534714e-07 0
1.9264105046620400e-06 2.2049923421974965e-07 0
1.9644385794048742e-06 1.0575302569424442e-07 0
3.0776111222742412e-06 2.5418054223097082e-07 0
3.3630705194106995e-06 4.1685131528747195e-07 0
1.9809301598331249e-06 6.9726103054621530e-08 0
1.9910789827359040e-06 3.2518933112392751e-07 0
2.2009368671826648e-06 2.0257349739251210e-07 0
2.3188963250288470e-06 2.8350135919944065e-07 0
2.2400399353322227e-06 2.5868613881531925e-07 0
2.3712513409625455e-06 2.5925418504877881e-07 0
2.0904911641938548e-06 3.3240522609773817e-07 0
2.1684653238045100e-06 1.1663577667573134e-07 0
3.2846685003442106e-06 4.2289639560147858e-07 0
3.8160735936541144e-06 4.7356506442183100e-07 0
2.1833043431175530e-06 1.9291106738158033e-07 0
2.2221036969304624e-06 3.6765510874924256e-07 0
2.4094686437496583e-06 3.5783106934978907e-07 0
2.6283630807421711e-06 3.1281106865909181e-07 0
2.4750212503174284e-06 4.3348153427425910e-07 0
2.7098088999798169e-06 2.8538468531516866e-07 0
2.3624111992658461e-06 5.1986421909393130e-07 0
2.4875473573751162e-06 1.2170019626162863e-07 0
3.6080767962830690e-06 7.1720468715708708e-07 0
4.4910408759338733e-06 5.5415024270224098e-07 0
2.5726288277409584e-06 6.1465673970834750e-07 0
2.5757968408366834e-06 3.7867551362497450e-07 0
2.9771803344728562e-06 1.0466515143530611e-06 0
3.1609079515445933e-06 2.7382655925361778e-07 0
3.1847433227264184e-06 1.5307481536118745e-06 0
3.2882851329363130e-06 1.3708884319985364e-07 0
3.1590692147546973e-06 2.3058388089092532e-06 0
3.0298332077960387e-06 -3.4862859221513064e-07 0
4.9994421304390342e-06 3.7489401790949176e-06 0
5.8894784016489001e-06 -3.6972564390686152e-07 0
4.1061678884914326e-06 4.6836975716652151e-06 0
3.6806296898326025e-06 -1.3793077813247366e-06 0
5.8717436984602819e-06 7.0988286667600521e-06 0
5.8138968026499881e-06 -2.7829604806451986e-06 0
8.4680288072185066e-06 9.4987672760086972e-06 0
8.2633756575680326e-06 -4.2251723881010299e-06 0
1.3951288876135500e-05 1.2224376127104645e-05 0
1.3042310659593895e-05 -5.0858416749450887e-06 0
1.7487799126587593e-05 1.2328891120509731e-05 0
1.7472699618815553e-05 8.3089125359168772e-06 0
1.6113529404750510e-05 4.5605685638408924e-06 0
1.5580824462380257e-05 1.7546185707898249e-06 0
1.6168076996166094e-05 -1.6651215924841144e-06 0
1.5778433629828249e-05 -5.7661631779542246e-06 0

VECTORS Displacements2 float
-5.3254530482798553e-17 2.9751976425121788e-17 0
-7.9955012599877507e-23 8.7984982578254394e-24 0
1.0640452878274078e-06 1.8658168613294208e-07 0
1.0334422428823284e-06 -1.4285899853726184e-07 0
1.6432491904381197e-06 2.3664242114912237e-07 0
1.5699283831454808e-06 -1.8004743145202763e-07 0
1.7749902880373623e-06 1.9072597449646340e-07 0
1.7081538554742326e-06 -1.3895365841053166e-07 0
1.6858888533226371e-06 1.2915836574609354e-07 0
1.6430679011605982e-06 -1.0177765713464786e-07 0
2.7922733927981612e-06 5.2600697974958204e-08 0
2.6055413936996975e-06 1.1392167716470451e-07 0
1.6599866316675957e-06 -1.1486090790346161e-07 0
1.6164926595472267e-06 1.3651929442381004e-07 0
1.8569796062146958e-06 -4.1322211709404564e-09 0
1.7915887481994866e-06 8.9747284260239611e-08 0
1.8710451859004166e-06 2.9147121915922509e-08 0
1.8068366738173884e-06 6.6258005978952997e-08 0
1.6824219368556360e-06 8.5179801262930533e-08 0
1.6439390311471155e-06 -1.5468552033267014e-08 0
2.8013054422787639e-06 7.4605050058575632e-08 0
2.6295147880135147e-06 1.5662225247602487e-07 0
1.6891186169853452e-06 -7.8559620609536484e-08 0
1.6473316851530090e-06 1.4637092241794209e-07 0
1.8896757498855195e-06 2.1929940000104019e-08 0
1.8326905942041233e-06 1.1356014219194124e-07 0
1.8973097900399477e-06 4.9254525311813571e-08 0
1.8435327767829592e-06 9.8208530080490304e-08 0
1.7122249580630546e-06 1.0333723394815983e-07 0
1.6827971796885093e-06 1.5394663560568418e-08 0
2.8368781256108218e-06 8.9931604193604316e-08 0
2.7152821479510602e-06 2.1896344720579900e-07 0
1.7265964168349746e-06 -6.5699184580704392e-08 0
1.6889424067501734e-06 1.8974583458325809e-07 0
1.9319846937790100e-06 3.6977497080876510e-08 0
1.8964836218212941e-06 1.5923186127967596e-07 0
1.9450223788108939e-06 6.7480086616364952e-08 0
1.9144789504220652e-06 1.4314418024524671e-07 0
1.7657081061584865e-06 1.2356941736352837e-07 0
1.7506072601851285e-06 5.1488489557805578e-08 0
2.8983557122160585e-06 1.1724261221217505e-07 0
2.8643855716584321e-06 2.8630106883512014e-07 0
1.7895034260326496e-06 -4.2012477805000673e-08 0
1.7611990750052161e-06 2.3571573484906149e-07 0
1.9986309694931708e-06 6.6838512489773770e-08 0
1.9974405118060694e-06 2.0383534065985369e-07 0
2.0175850709538165e-06 1.0245835310881790e-07 0
2.0233860733781898e-06 1.8619312345530181e-07 0
1.8445287264942216e-06 1.6173096111425561e-07 0
1.8506075087334954e-06 8.2299579679395092e-08 0
2.9879125855549646e-06 1.7181792858172636e-07 0
3.0838034274517149e-06 3.5157065476630267e-07 0
1.8812067351607409e-06 8.5474181671673479e-10 0
1.8679597377110138e-06 2.8153232868703248e-07 0
2.0927049608588589e-06 1.1912082915305228e-07 0
2.1419791921409462e-06 2.4632389413195830e-07 0
2.1190820268770683e-06 1.6147129686871648e-07 0
2.1778155697407928e-06 2.2693770876500748e-07 0
1.9545563169703578e-06 2.2250182405329673e-07 0
1.9906177873117635e-06 1.0839494150841829e-07 0
3.1066678710789988e-06 2.5754191998705833e-07 0
3.3890941820499967e-06 4.1873797498313940e-07 0
2.0101085259575461e-06 7.3795063944747036e-08 0
2.0182223878805759e-06 3.2617375944401276e-07 0
2.2321187939376012e-06 2.0665330438018596e-07 0
2.3484176801454093e-06 2.8522165138693070e-07 0
2.2721508963701146e-06 2.6238519787198172e-07 0
2.4009749694258336e-06 2.6199254180299564e-07 0
2.1216291569667810e-06 3.3579947481820474e-07 0
2.1966636355406425e-06 1.1979206239071036e-07 0
3.3169313840236198e-06 4.2791965533476082e-07 0
3.8442769362191028e-06 4.7583632625714821e-07 0
2.2160715416584883e-06 1.9889714836343298e-07 0
2.2518764813146309e-06 3.6884558849513534e-07 0
2.4444953649208169e-06 3.6410666722963135e-07 0
2.6611433168401625e-06 3.1474828708927422e-07 0
2.5117351975056813e-06 4.4002046416070458e-07 0
2.7429035669165956e-06 2.8858382637748210e-07 0
2.3987947709237450e-06 5.2773678887694833e-07 0
2.5187892937184347e-06 1.2516844830443734e-07 0
3.6466089629014227e-06 7.2958080385190455e-07 0
4.5220547791474556e-06 5.5651765678537316e-07 0
2.6129995205177643e-06 6.3210417419093653e-07 0
2.6090734950533282e-06 3.7922947831283955e-07 0
3.0217437309783889e-06 1.0694391314456592e-06 0
3.1970781073884410e-06 2.7474712299856702e-07 0
3.2308867903851734e-06 1.5606350384935163e-06 0
3.3244925610735781e-06 1.3662160992424445e-07 0
3.2035654278023259e-06 2.3468137085222842e-06 0
3.0626384688354675e-06 -3.5471289279630048e-07 0
5.0496587887226531e-06 3.8083465526345652e-06 0
5.9256510309993687e-06 -3.8862196421775277e-07 0
4.1714546461553312e-06 4.7630456993421690e-06 0
3.7342280153960983e-06 -1.4148605361372907e-06 0
5.9651207413747897e-06 7.1945600061503209e-06 0
5.8979265093894575e-06 -2.8299510982899494e-06 0
8.5933830816523684e-06 9.6033890985186343e-06 0
8.3800606497889692e-06 -4.2770299617620980e-06 0
1.4107223855994306e-05 1.2332486655777281e-05 0
1.3190526740239280e-05 -5.1380165355111557e-06 0
1.7673214721151925e-05 1.2437287089854197e-05 0
1.7659078731361740e-05 8.3866345561958991e-06 0
1.6300053310588853e-05 4.6066604573672730e-06 0
1.5765252613675392e-05 1.7673041498209318e-06 0
1.6349141784675294e-05 -1.6849121811160539e-06 0
1.5957666780839052e-05 -5.8188232144520300e-06 0

VECTORS Displacements3 float
-5.3296241294063012e-17 2.9775297440184809e-17 0
-8.0495911919135130e-23 9.1714806208918470e-24 0
1.0711244689087711e-06 1.9170540133062794e-07 0
1.0402646404845961e-06 -1.4808727713139685e-07 0
1.6570472298559578e-06 2.4363255426120889e-07 0
1.5834330931360206e-06 -1.8707448909020530e-07 0
1.7948794590565747e-06 1.9693013495056405e-07 0
1.7274903048882536e-06 -1.4479502352362838e-07 0
1.7082457901176790e-06 1.3261538445433073e-07 0
1.6652621910497028e-06 -1.0505741758166318e-07 0
2.8162758987306426e-06 5.4515314013407218e-08 0
2.6286031715779525e-06 1.1234475538909506e-07 0
1.6832176665820526e-06 -1.1387656076398638e-07 0
1.6394287842088147e-06 1.3579036531404191e-07 0
1.8814173258241946e-06 -3.7566103281755319e-09 0
1.8156038479598003e-06 8.9900325563425980e-08 0
1.8957249420474546e-06 2.9130872774648509e-08 0
1.8309351560291669e-06 6.7039385756343435e-08 0
1.7057859654371288e-06 8.4661460070387148e-08 0
1.6670420071870341e-06 -1.4304138394064615e-08 0
2.8252517338676629e-06 7.5025121499989587e-08 0
2.6523534579874780e-06 1.5720404341080098e-07 0
1.7128206385846679e-06 -7.7544836420274016e-08 0
1.6706299504231755e-06 1.4627776602450057e-07 0
1.9149234890179385e-06 2.2836924907152279e-08 0
1.8575872949846308e-06 1.1390543376673888e-07 0
1.9228388103366952e-06 4.9675068866029886e-08 0
1.8682250754736835e-06 9.9227648663374950e-08 0
1.7361946229150471e-06 1.0333796860546496e-07 0
1.7062993622663187e-06 1.6737566493739503e-08 0
2.8614659011826274e-06 9.0928455368196581e-08 0
2.7385182090453645e-06 2.1974636348257003e-07 0
1.7509667266336129e-06 -6.4123191121129274e-08 0
1.7127191970606342e-06 1.8981853099409727e-07 0
1.9579879671815558e-06 3.8395665344295438e-08 0
1.9219312571127887e-06 1.5985555834051316e-07 0
1.9714264366083243e-06 6.8366802172012859e-08 0
1.9398385856690359e-06 1.4455240916060566e-07 0
1.7906205569787064e-06 1.2405732589762069e-07 0
1.7747228776577698e-06 5.3205590320953881e-08 0
2.9239842421323583e-06 1.1879913430134833e-07 0
2.8882836859991926e-06 2.8742871370435127e-07 0
1.8149924107663757e-06 -3.9867161011716131e-08 0
1.7857773024900746e-06 2.3609584636039894e-07 0
2.0258494257799460e-06 6.8864434072715396e-08 0
2.0238568082553176e-06 2.0481188377561020e-07 0
2.0453221524007593e-06 1.0396591828001763e-07 0
2.0497674298672696e-06 1.8802313133082138e-07 0
1.8708644925772581e-06 1.6284964074392635e-07 0
1.8756666208401274e-06 8.4450831945692859e-08 0
3.0150641467792672e-06 1.7411339708249749e-07 0
3.1086897819658298e-06 3.5308012158925938e-07 0
1.9083182353745137e-06 3.7689671086417378e-09 0
1.8937006530268828e-06 2.8223415510785402e-07 0
2.1216704730469814e-06 1.2199149449332333e-07 0
2.1697970498858857e-06 2.4767213301918117e-07 0
2.1487227109514766e-06 1.6386743447778604e-07 0
2.2056589186128353e-06 2.2923449391503613e-07 0
1.9829040424579638e-06 2.2454954739990173e-07 0
2.0170096827185513e-06 1.1101721415627900e-07 0
3.1359412755119808e-06 2.6095296863091517e-07 0
3.4153589732882386e-06 4.2062426571796104e-07 0
2.0395071402607796e-06 7.7899150579714553e-08 0
2.0455746010300998e-06 3.2716269881778619e-07 0
2.2635691795502965e-06 2.1082715501060752e-07 0
2.3782178895278031e-06 2.8692216762476695e-07 0
2.3045422686835557e-06 2.6611276309208948e-07 0
2.4309502890760323e-06 2.6478187957414075e-07 0
2.1529915764321743e-06 3.3925709774637794e-07 0
2.2250950379983115e-06 1.2292780075344636e-07 0
3.3494341021354803e-06 4.3301106495676430e-07 0
3.8727483254300700e-06 4.7811259180115866e-07 0
2.2490912968908330e-06 2.0495166328796271e-07 0
2.2818802436041629e-06 3.7004108157620057e-07 0
2.4798187619339319e-06 3.7050351997362419e-07 0
2.6942307533543601e-06 3.1667768111450875e-07 0
2.5487818341436920e-06 4.4665526496260586e-07 0
2.7762730070499551e-06 2.9185471327576243e-07 0
2.4354365992229546e-06 5.3578771602552177e-07 0
2.5502911452131744e-06 1.2862246449387811e-07 0
3.6854283035375629e-06 7.4218342556685179e-07 0
4.5533405854152234e-06 5.5891543063833623e-07 0
2.6537347716577233e-06 6.4984776995361009e-07 0
2.6426159179819470e-06 3.7980982942615109e-07 0
3.0666501341393661e-06 1.0925937886695057e-06 0
3.2335219440007441e-06 2.7564602016283348e-07 0
3.2773088080911002e-06 1.5909072892335045e-06 0
3.3609183614442106e-06 1.3614632598825255e-07 0
3.2482559127998389e-06 2.3883148721644576e-06 0
3.0956016321581890e-06 -3.6101500542804336e-07 0
5.1002483106310404e-06 3.8683864484758691e-06 0
5.9622131229704086e-06 -4.0786663602291773e-07 0
4.2374058669288048e-06 4.8430307229012891e-06 0
3.7884784318562606e-06 -1.4508116183411448e-06 0
6.0593924524896258e-06 7.2907568054536662e-06 0
5.9829142501109695e-06 -2.8772355173108989e-06 0
8.7196947159078839e-06 9.7082005434106649e-06 0
8.4978233846036866e-06 -4.3289905948951562e-06 0
1.4264004583589778e-05 1.2440679009914612e-05 0
1.3339793591086858e-05 -5.1903431665968289e-06 0
1.7859416385153505e-05 1.2545662093800622e-05 0
1.7846271614645294e-05 8.4645320010433846e-06 0
1.6487463833904838e-05 4.6529162562338773e-06 0
1.5950735192485691e-05 1.7801397842245950e-06 0
1.6531364783022617e-05 -1.7047464092970139e-06 0
1.6138223565333740e-05 -5.8715770910678565e-06 0

VECTORS Forces1 float
-4.2756836947318716e-01 2.5304539804108794e-01 0
-2.5812888078150820e-01 -1.5433228839778862e-01 0
5.5773842346992657e+00 -3.0878634484513188e+00 0
3.4631826393023477e+00 1.9159265992874910e+00 0
6.1116963122399017e+00 -9.4800165958455640e-01 0
3.8118672441197332e+00 5.9107248058873352e-01 0
3.8946615266957809e+00 1.5733345317902878e-01 0
2.4318410117444897e+00 -9.5379852936209555e-02 0
-5.8697145964958375e-01 -2.1011090687395047e-02 0
-3.6717707479228640e-01 1.2900069212531831e-02 0
1.4998610654315090e+01 1.5877629794632960e-03 0
9.4025208995714475e+00 2.4708213705738051e-02 0
-6.3642450027954101e-01 -6.6693259014923912e-04 0
-4.0048710968957507e-01 -1.6036387059637641e-03 0
4.2758086409393012e+00 -6.8241843749941374e-05 0
2.6887169692120101e+00 1.5068847765889072e-02 0
4.2761349250966605e+00 -1.6210151860619236e-04 0
2.6889869205315078e+00 1.5119732449664601e-02 0
-6.3711447990229286e-01 -2.4288054341412786e-04 0
-4.0086982339429583e-01 -2.0571511141376040e-03 0
1.5072051775209827e+01 -4.7935837279471268e-03 0
9.4984668520618563e+00 9.1882431287566985e-02 0
-6.3704213622223715e-01 -1.5610676068824458e-04 0
-4.0331702835262928e-01 -5.0245912597559148e-03 0
4.2759838439177749e+00 -6.8278078367468083e-04 0
2.7065611268107901e+00 3.5917372501783160e-02 0
4.2759780226169974e+00 -6.8109649357093690e-04 0
2.7065874159679675e+00 3.5935351450332546e-02 0
-6.3696163133057127e-01 -1.7658860491710738e-04 0
-4.0341498298408607e-01 -5.1562208087823219e-03 0
1.5039475946838605e+01 7.6532972745092555e-03 0
9.5665943632272654e+00 1.5743331097822064e-01 0
-6.3409105986024761e-01 -1.0173692014427129e-03 0
-4.0621247938069460e-01 -7.7184199646941889e-03 0
4.2559067450236290e+00 5.2390265905634427e-03 0
2.7263404574715988e+00 5.4001639533489888e-02 0
4.2558791517926444e+00 5.2412949992652318e-03 0
2.7263697089578307e+00 5.4021997343130748e-02 0
-6.3388114870094858e-01 -1.0892730118774523e-03 0
-4.0633072358177846e-01 -7.8295304195209886e-03 0
1.4928725400783376e+01 3.4727786153770424e-02 0
9.6387200243889914e+00 2.2250360830978133e-01 0
-6.2801064965102238e-01 -2.6055397921057647e-03 0
-4.0965662200875314e-01 -1.0381465876135736e-02 0
4.2146896347632890e+00 1.5825920761299676e-02 0
2.7497834309095919e+00 7.2102572543342319e-02 0
4.2146384443878384e+00 1.5830690419086434e-02 0
2.7498199096951410e+00 7.2125859556441477e-02 0
-6.2765293635194941e-01 -2.7481220605933897e-03 0
-4.0980607580741885e-01 -1.0471550949509722e-02 0
1.4746671165997377e+01 9.2584095686570611e-02 0
9.7355284807356597e+00 2.8090581282203619e-01 0
-6.1827021929999004e-01 -5.9387498595822293e-03 0
-4.1418424697917089e-01 -1.2649186640788859e-02 0
4.1487271403422552e+00 3.8063054404192963e-02 0
2.7805845131906830e+00 8.7707936604825648e-02 0
4.1486508749029483e+00 3.8066071167336700e-02 0
2.7806348059813479e+00 8.7738637920777574e-02 0
-6.1778376474841490e-01 -6.1614806137524503e-03 0
-4.1441729908545621e-01 -1.2718901275476358e-02 0
1.4466023959834450e+01 1.7324577379599432e-01 0
9.8643001635380472e+00 3.4330786078172626e-01 0
-6.0584052188698678e-01 -9.9410182532573520e-03 0
-4.2147306864124506e-01 -1.5296273670893031e-02 0
4.0646329952276039e+00 6.4194924038459056e-02 0
2.8301473665373678e+00 1.0633630733025254e-01 0
4.0645054578957813e+00 6.4202630874926794e-02 0
2.8302071871036465e+00 1.0637569764172580e-01 0
-6.0518275430772905e-01 -1.0424546689505451e-02 0
-4.2183843664329007e-01 -1.5288584098218806e-02 0
1.4136531797166008e+01 3.6405165986424204e-01 0
1.0085844446032628e+01 3.7735140664536859e-01 0
-5.8613354678079843e-01 -2.1876910638015033e-02 0
-4.3102248833165352e-01 -1.5873067778130155e-02 0
3.9296006336086844e+00 1.4348358330942174e-01 0
2.8939005627991401e+00 1.1151527087554935e-01 0
3.9293487997690559e+00 1.4340460006167227e-01 0
2.8939179761350289e+00 1.1159800098884066e-01 0
-5.8635883536624311e-01 -2.2703096427174271e-02 0
-4.3251618202705389e-01 -1.5859241775884426e-02 0
1.3648353260026552e+01 4.9351799733218121e-01 0
1.0445348361149202e+01 5.1002126560458483e-01 0
-5.8952677117386088e-01 -2.9065089364684587e-02 0
-4.6926047856530617e-01 -2.1952481279244186e-02 0
3.9411491439954882e+00 1.8235567149304083e-01 0
3.1430439021382095e+00 1.5601153333561305e-01 0
3.9400562210819747e+00 1.8202758581483694e-01 0
3.1426773259312384e+00 1.5618280045094995e-01 0
-5.9096723220744674e-01 -3.3891206505217431e-02 0
-4.7293293784556767e-01 -1.9872205312613217e-02 0
1.3849690469450355e+01 1.8358928214460706e+00 0
1.1807757661687505e+01 1.1385159694224825e-01 0
-5.4874219757871190e-01 -1.4493151554454284e-01 0
-5.2892614607739907e-01 2.9567152949799572e-02 0
3.7907376762191078e+00 9.5432462977709442e-01 0
3.7020451417534117e+00 -1.1780401382700839e-01 0
2.9737694824807615e+00 6.4011315448524497e-01 0
2.9595059495040017e+00 -1.1165671501265088e-01 0
7.5374873587458007e+00 2.8644804654232567e+00 0
6.8512262195174207e+00 1.1076716643736720e-01 0
7.1855265920906597e-01 3.9486869224802196e-01 0
5.1147846696750845e+00 1.7479289466982253e+00 0
2.7329549002687590e+00 1.4082441042001634e+00 0
2.6051056259491658e+00 1.7488141365332535e+00 0
4.3653494159372501e+00 1.0527905895365652e+00 0
6.2339931113796387e-01 -1.9987970620461032e-01 0

VECTORS Forces2 float
5.1982206201076209e-01 -2.9629020355867008e-01 0
2.5650772030508950e-01 1.6149986788945930e-01 0
-6.5178471762332038e+00 3.5954681855791550e+00 0
-3.3048953691266818e+00 -1.8248274828194475e+00 0
-7.1407053960039866e+00 1.1058160080901529e+00 0
-3.6535161952027897e+00 -5.6051224195118587e-01 0
-4.5554929735997005e+00 -1.8190478313834499e-01 0
-2.3389484922685666e+00 8.9907058489106975e-02 0
6.8627443275244715e-01 2.3524259965055156e-02 0
3.5286183351587419e-01 -1.2009181409475588e-02 0
-1.7597039279535839e+01 -2.0015439439370088e-04 0
-9.1309632605194437e+00 2.1751884071692731e-02 0
7.4778681395488844e-01 4.8359983555314808e-04 0
3.8969609827238710e-01 -2.4479469819496456e-03 0
-5.0245888832198267e+00 -1.9718763393455191e-03 0
-2.6181196172603585e+00 1.5672124762555660e-02 0
-5.0249562749306769e+00 -1.8556191522171202e-03 0
-2.6183724505135877e+00 1.5669174870139649e-02 0
7.4875713184301651e-01 4.5056960861255264e-05 0
3.9003122925200356e-01 -2.2119321090341877e-03 0
-1.7717903893775595e+01 -6.2188577411626429e-03 0
-9.1985811762798892e+00 8.7271659513210698e-02 0
7.4850358890436275e-01 2.8018907887813831e-04 0
3.8614448772216503e-01 -5.1260639299316405e-03 0
-5.0232902882763488e+00 -3.4842750127094231e-03 0
-2.5913059843474331e+00 3.6326974261489654e-02 0
-5.0232734635209608e+00 -3.4913375634989838e-03 0
-2.5912581982891392e+00 3.6354836442249641e-02 0
7.4835326705014860e-01 2.6883981951176221e-04 0
3.8572446916650771e-01 -5.2486936962253825e-03 0
-1.7644351982111182e+01 -1.5052418626289837e-02 0
-8.9918023477131150e+00 1.6891076183713022e-01 0
7.4264669771608660e-01 3.1553283302300560e-04 0
3.7280323492648626e-01 -8.4531325180800133e-03 0
-4.9829068146509918e+00 -3.8762811328035590e-03 0
-2.5004642877617393e+00 5.9031436122483683e-02 0
-4.9828587582818402e+00 -3.8831434172604050e-03 0
-2.5003650719751640e+00 5.9060729972129071e-02 0
7.4223298215236333e-01 2.6888445548652111e-04 0
3.7193120107240962e-01 -8.5719768479124176e-03 0
-1.7435880504913332e+01 -5.0439821170570956e-03 0
-8.5584045213327915e+00 2.4437037568683936e-01 0
7.3135435392336290e-01 -5.7829161006065020e-04 0
3.4996036461202812e-01 -1.1493730031372282e-02 0
-4.9059507453821078e+00 1.9377185231610205e-03 0
-2.3459663560446793e+00 7.9816898837179170e-02 0
-4.9058714499887444e+00 1.9331288862230727e-03 0
-2.3458153366598928e+00 7.9848285764503313e-02 0
7.3069336897847759e-01 -6.9517468694694324e-04 0
3.4861450642656594e-01 -1.1588822670012461e-02 0
-1.7102770369063272e+01 3.2183667782207215e-02 0
-7.8981938299656100e+00 3.1476915476200418e-01 0
7.1485136511105751e-01 -2.9654226656813548e-03 0
3.1692060552139978e-01 -1.4253655641584411e-02 0
-4.7938354195766957e+00 1.7620692155767587e-02 0
-2.1231435196991204e+00 9.8935634382804741e-02 0
-4.7937145358805129e+00 1.7610519486411878e-02 0
-2.1229348695618890e+00 9.8977080926148445e-02 0
7.1389535915669200e-01 -3.1546048890058131e-03 0
3.1499416029943234e-01 -1.4332978904782715e-02 0
-1.6634150793047784e+01 8.7586298195902954e-02 0
-6.9703894903730435e+00 3.9011169152745534e-01 0
6.9054794673727238e-01 -5.6941216171264696e-03 0
2.7053053229688384e-01 -1.7649797829253348e-02 0
-4.6285212715223114e+00 3.4890410365199361e-02 0
-1.8106991888113229e+00 1.2288864515090302e-01 0
-4.6283428660183690e+00 3.4875138607585357e-02 0
-1.8104217735658585e+00 1.2294378866712828e-01 0
6.8925825960167253e-01 -6.1378046437900718e-03 0
2.6776414051550068e-01 -1.7649912894236133e-02 0
-1.5927344665937603e+01 2.3480551327964855e-01 0
-5.6556712769687971e+00 4.5309559466018923e-01 0
6.5841059148248304e-01 -1.5623114213549772e-02 0
2.0480754700663956e-01 -1.9103814877797966e-02 0
-4.4096554477352488e+00 9.9966486275481478e-02 0
-1.3690130293477369e+00 1.3438314268461266e-01 0
-4.4093576796222607e+00 9.9812692222876753e-02 0
-1.3687080160934455e+00 1.3448888759404870e-01 0
6.5652689693045296e-01 -1.6360762761340655e-02 0
2.0061095404462362e-01 -1.9109152120192496e-02 0
-1.5056016366155607e+01 3.0397167358838895e-01 0
-3.8303922508914403e+00 5.7597501731494938e-01 0
6.0502957768991239e-01 -1.5418828830715155e-02 0
1.1090190964242798e-01 -2.6880903440567264e-02 0
-4.0441733110211269e+00 8.5351571084532299e-02 0
-7.4430092033448381e-01 1.9054964680384331e-01 0
-4.0431308940640545e+00 8.4592926024237722e-02 0
-7.4418488082473766e-01 1.9088090176759706e-01 0
6.0106876331707559e-01 -1.9822964919135086e-02 0
1.0072382626941692e-01 -2.5259081350258332e-02 0
-1.2698869321600050e+01 9.4025118290967791e-01 0
-6.2594837064405018e-01 6.0224313060682988e-01 0
4.3778790409621493e-01 -8.8320586445078439e-02 0
-1.2616956772225382e-01 -3.7471030766514858e-03 0
-2.8120806372421407e+00 5.6148011276931520e-01 0
8.3717068856077503e-01 1.4080785097116855e-01 0
-2.7795101884805629e+00 1.3420760932828485e-01 0
4.8619812515535982e-01 1.1851950966186937e-01 0
2.6732822019938129e-01 4.0826454989649044e+00 0
3.2236608070623092e+00 3.7697906415959120e-01 0
-2.6554762885841898e-01 4.0527871806497462e-01 0
6.3047843886590360e-01 3.9634320246934376e+00 0
1.1875827216688308e+00 3.2517375365279637e+00 0
9.2326982831285231e-01 3.0021438335282582e+00 0
1.8638194169199627e+00 1.1444695734798156e+00 0
4.5802634002498166e-01 -1.9851559351885470e-01 0

