# vtk DataFile Version 2.0

ASCII

DATASET UNSTRUCTURED_GRID

POINTS 106 float 

-5.0000000000000003e-02  0.0000000000000000e+00  0.0000000000000000e+00
5.0000000000000003e-02  0.0000000000000000e+00  0.0000000000000000e+00
-5.0000000000000003e-02  2.0000000000000000e-02  0.0000000000000000e+00
5.0000000000000003e-02  2.0000000000000000e-02  0.0000000000000000e+00
-5.0000000000000003e-02  4.0000000000000001e-02  0.0000000000000000e+00
5.0000000000000003e-02  4.0000000000000001e-02  0.0000000000000000e+00
-5.0000000000000003e-02  5.9999999999999998e-02  0.0000000000000000e+00
5.0000000000000003e-02  5.9999999999999998e-02  0.0000000000000000e+00
-5.0000000000000003e-02  8.0000000000000002e-02  0.0000000000000000e+00
5.0000000000000003e-02  8.0000000000000002e-02  0.0000000000000000e+00
-5.0000000000000003e-02  1.0000000000000001e-01  0.0000000000000000e+00
5.0000000000000003e-02  1.0000000000000001e-01  0.0000000000000000e+00
-5.0000000000000003e-02  1.2000000000000000e-01  0.0000000000000000e+00
5.0000000000000003e-02  1.2000000000000000e-01  0.0000000000000000e+00
-5.0000000000000003e-02  1.4000000000000001e-01  0.0000000000000000e+00
5.0000000000000003e-02  1.4000000000000001e-01  0.0000000000000000e+00
-5.0000000000000003e-02  1.6000000000000000e-01  0.0000000000000000e+00
5.0000000000000003e-02  1.6000000000000000e-01  0.0000000000000000e+00
-5.0000000000000003e-02  1.7999999999999999e-01  0.0000000000000000e+00
5.0000000000000003e-02  1.7999999999999999e-01  0.0000000000000000e+00
-5.0000000000000003e-02  2.0000000000000001e-01  0.0000000000000000e+00
5.0000000000000003e-02  2.0000000000000001e-01  0.0000000000000000e+00
-5.0000000000000003e-02  2.2000000000000000e-01  0.0000000000000000e+00
5.0000000000000003e-02  2.2000000000000000e-01  0.0000000000000000e+00
-5.0000000000000003e-02  2.3999999999999999e-01  0.0000000000000000e+00
5.0000000000000003e-02  2.3999999999999999e-01  0.0000000000000000e+00
-5.0000000000000003e-02  2.6000000000000001e-01  0.0000000000000000e+00
5.0000000000000003e-02  2.6000000000000001e-01  0.0000000000000000e+00
-5.0000000000000003e-02  2.8000000000000003e-01  0.0000000000000000e+00
5.0000000000000003e-02  2.8000000000000003e-01  0.0000000000000000e+00
-5.0000000000000003e-02  2.9999999999999999e-01  0.0000000000000000e+00
5.0000000000000003e-02  2.9999999999999999e-01  0.0000000000000000e+00
-5.0000000000000003e-02  3.2000000000000001e-01  0.0000000000000000e+00
5.0000000000000003e-02  3.2000000000000001e-01  0.0000000000000000e+00
-5.0000000000000003e-02  3.4000000000000002e-01  0.0000000000000000e+00
5.0000000000000003e-02  3.4000000000000002e-01  0.0000000000000000e+00
-5.0000000000000003e-02  3.5999999999999999e-01  0.0000000000000000e+00
5.0000000000000003e-02  3.5999999999999999e-01  0.0000000000000000e+00
-5.0000000000000003e-02  3.8000000000000000e-01  0.0000000000000000e+00
5.0000000000000003e-02  3.8000000000000000e-01  0.0000000000000000e+00
-5.0000000000000003e-02  4.0000000000000002e-01  0.0000000000000000e+00
5.0000000000000003e-02  4.0000000000000002e-01  0.0000000000000000e+00
-5.0000000000000003e-02  4.1999999999999998e-01  0.0000000000000000e+00
5.0000000000000003e-02  4.1999999999999998e-01  0.0000000000000000e+00
-5.0000000000000003e-02  4.4000000000000000e-01  0.0000000000000000e+00
5.0000000000000003e-02  4.4000000000000000e-01  0.0000000000000000e+00
-5.0000000000000003e-02  4.6000000000000002e-01  0.0000000000000000e+00
5.0000000000000003e-02  4.6000000000000002e-01  0.0000000000000000e+00
-5.0000000000000003e-02  4.7999999999999998e-01  0.0000000000000000e+00
5.0000000000000003e-02  4.7999999999999998e-01  0.0000000000000000e+00
-5.0000000000000003e-02  5.0000000000000000e-01  0.0000000000000000e+00
5.0000000000000003e-02  5.0000000000000000e-01  0.0000000000000000e+00
-5.0000000000000003e-02  5.2000000000000002e-01  0.0000000000000000e+00
5.0000000000000003e-02  5.2000000000000002e-01  0.0000000000000000e+00
-5.0000000000000003e-02  5.4000000000000004e-01  0.0000000000000000e+00
5.0000000000000003e-02  5.4000000000000004e-01  0.0000000000000000e+00
-5.0000000000000003e-02  5.6000000000000005e-01  0.0000000000000000e+00
5.0000000000000003e-02  5.6000000000000005e-01  0.0000000000000000e+00
-5.0000000000000003e-02  5.7999999999999996e-01  0.0000000000000000e+00
5.0000000000000003e-02  5.7999999999999996e-01  0.0000000000000000e+00
-5.0000000000000003e-02  5.9999999999999998e-01  0.0000000000000000e+00
5.0000000000000003e-02  5.9999999999999998e-01  0.0000000000000000e+00
-5.0000000000000003e-02  6.2000000000000000e-01  0.0000000000000000e+00
5.0000000000000003e-02  6.2000000000000000e-01  0.0000000000000000e+00
-5.0000000000000003e-02  6.4000000000000001e-01  0.0000000000000000e+00
5.0000000000000003e-02  6.4000000000000001e-01  0.0000000000000000e+00
-5.0000000000000003e-02  6.6000000000000003e-01  0.0000000000000000e+00
5.0000000000000003e-02  6.6000000000000003e-01  0.0000000000000000e+00
-5.0000000000000003e-02  6.8000000000000005e-01  0.0000000000000000e+00
5.0000000000000003e-02  6.8000000000000005e-01  0.0000000000000000e+00
-5.0000000000000003e-02  6.9999999999999996e-01  0.0000000000000000e+00
5.0000000000000003e-02  6.9999999999999996e-01  0.0000000000000000e+00
-5.0000000000000003e-02  7.1999999999999997e-01  0.0000000000000000e+00
5.0000000000000003e-02  7.1999999999999997e-01  0.0000000000000000e+00
-5.0000000000000003e-02  7.3999999999999999e-01  0.0000000000000000e+00
5.0000000000000003e-02  7.3999999999999999e-01  0.0000000000000000e+00
-5.0000000000000003e-02  7.6000000000000001e-01  0.0000000000000000e+00
5.0000000000000003e-02  7.6000000000000001e-01  0.0000000000000000e+00
-5.0000000000000003e-02  7.8000000000000003e-01  0.0000000000000000e+00
5.0000000000000003e-02  7.8000000000000003e-01  0.0000000000000000e+00
-5.0000000000000003e-02  8.0000000000000004e-01  0.0000000000000000e+00
5.0000000000000003e-02  8.0000000000000004e-01  0.0000000000000000e+00
-5.0000000000000003e-02  8.1999999999999995e-01  0.0000000000000000e+00
5.0000000000000003e-02  8.1999999999999995e-01  0.0000000000000000e+00
-5.0000000000000003e-02  8.3999999999999997e-01  0.0000000000000000e+00
5.0000000000000003e-02  8.3999999999999997e-01  0.0000000000000000e+00
-5.0000000000000003e-02  8.5999999999999999e-01  0.0000000000000000e+00
5.0000000000000003e-02  8.5999999999999999e-01  0.0000000000000000e+00
-5.0000000000000003e-02  8.8000000000000000e-01  0.0000000000000000e+00
5.0000000000000003e-02  8.8000000000000000e-01  0.0000000000000000e+00
-5.0000000000000003e-02  9.0000000000000002e-01  0.0000000000000000e+00
5.0000000000000003e-02  9.0000000000000002e-01  0.0000000000000000e+00
-5.0000000000000003e-02  9.2000000000000004e-01  0.0000000000000000e+00
5.0000000000000003e-02  9.2000000000000004e-01  0.0000000000000000e+00
-5.0000000000000003e-02  9.3999999999999995e-01  0.0000000000000000e+00
5.0000000000000003e-02  9.3999999999999995e-01  0.0000000000000000e+00
-5.0000000000000003e-02  9.5999999999999996e-01  0.0000000000000000e+00
5.0000000000000003e-02  9.5999999999999996e-01  0.0000000000000000e+00
-5.0000000000000003e-02  9.7999999999999998e-01  0.0000000000000000e+00
5.0000000000000003e-02  9.7999999999999998e-01  0.0000000000000000e+00
-5.0000000000000003e-02  1.0000000000000000e+00  0.0000000000000000e+00
-3.0000000000000002e-02  1.0000000000000000e+00  0.0000000000000000e+00
-1.0000000000000002e-02  1.0000000000000000e+00  0.0000000000000000e+00
1.0000000000000009e-02  1.0000000000000000e+00  0.0000000000000000e+00
2.9999999999999999e-02  1.0000000000000000e+00  0.0000000000000000e+00
5.0000000000000003e-02  1.0000000000000000e+00  0.0000000000000000e+00

CELLS 0 0


CELL_TYPES 0


POINT_DATA 106

VECTORS VertexNormals float

0.0000000000000000e+00 0.0000000000000000e+00 0
0.0000000000000000e+00 0.0000000000000000e+00 0
0.0000000000000000e+00 0.0000000000000000e+00 0
0.0000000000000000e+00 0.0000000000000000e+00 0
0.0000000000000000e+00 0.0000000000000000e+00 0
0.0000000000000000e+00 0.0000000000000000e+00 0
0.0000000000000000e+00 0.0000000000000000e+00 0
0.0000000000000000e+00 0.0000000000000000e+00 0
0.0000000000000000e+00 0.0000000000000000e+00 0
0.0000000000000000e+00 0.0000000000000000e+00 0
0.0000000000000000e+00 0.0000000000000000e+00 0
0.0000000000000000e+00 0.0000000000000000e+00 0
0.0000000000000000e+00 0.0000000000000000e+00 0
0.0000000000000000e+00 0.0000000000000000e+00 0
0.0000000000000000e+00 0.0000000000000000e+00 0
0.0000000000000000e+00 0.0000000000000000e+00 0
0.0000000000000000e+00 0.0000000000000000e+00 0
0.0000000000000000e+00 0.0000000000000000e+00 0
0.0000000000000000e+00 0.0000000000000000e+00 0
0.0000000000000000e+00 0.0000000000000000e+00 0
0.0000000000000000e+00 0.0000000000000000e+00 0
0.0000000000000000e+00 0.0000000000000000e+00 0
0.0000000000000000e+00 0.0000000000000000e+00 0
0.0000000000000000e+00 0.0000000000000000e+00 0
0.0000000000000000e+00 0.0000000000000000e+00 0
0.0000000000000000e+00 0.0000000000000000e+00 0
0.0000000000000000e+00 0.0000000000000000e+00 0
0.0000000000000000e+00 0.0000000000000000e+00 0
0.0000000000000000e+00 0.0000000000000000e+00 0
0.0000000000000000e+00 0.0000000000000000e+00 0
0.0000000000000000e+00 0.0000000000000000e+00 0
0.0000000000000000e+00 0.0000000000000000e+00 0
0.0000000000000000e+00 0.0000000000000000e+00 0
0.0000000000000000e+00 0.0000000000000000e+00 0
0.0000000000000000e+00 0.0000000000000000e+00 0
0.0000000000000000e+00 0.0000000000000000e+00 0
0.0000000000000000e+00 0.0000000000000000e+00 0
0.0000000000000000e+00 0.0000000000000000e+00 0
0.0000000000000000e+00 0.0000000000000000e+00 0
0.0000000000000000e+00 0.0000000000000000e+00 0
0.0000000000000000e+00 0.0000000000000000e+00 0
0.0000000000000000e+00 0.0000000000000000e+00 0
0.0000000000000000e+00 0.0000000000000000e+00 0
0.0000000000000000e+00 0.0000000000000000e+00 0
0.0000000000000000e+00 0.0000000000000000e+00 0
0.0000000000000000e+00 0.0000000000000000e+00 0
0.0000000000000000e+00 0.0000000000000000e+00 0
0.0000000000000000e+00 0.0000000000000000e+00 0
0.0000000000000000e+00 0.0000000000000000e+00 0
0.0000000000000000e+00 0.0000000000000000e+00 0
0.0000000000000000e+00 0.0000000000000000e+00 0
0.0000000000000000e+00 0.0000000000000000e+00 0
0.0000000000000000e+00 0.0000000000000000e+00 0
0.0000000000000000e+00 0.0000000000000000e+00 0
0.0000000000000000e+00 0.0000000000000000e+00 0
0.0000000000000000e+00 0.0000000000000000e+00 0
0.0000000000000000e+00 0.0000000000000000e+00 0
0.0000000000000000e+00 0.0000000000000000e+00 0
0.0000000000000000e+00 0.0000000000000000e+00 0
0.0000000000000000e+00 0.0000000000000000e+00 0
0.0000000000000000e+00 0.0000000000000000e+00 0
0.0000000000000000e+00 0.0000000000000000e+00 0
0.0000000000000000e+00 0.0000000000000000e+00 0
0.0000000000000000e+00 0.0000000000000000e+00 0
0.0000000000000000e+00 0.0000000000000000e+00 0
0.0000000000000000e+00 0.0000000000000000e+00 0
0.0000000000000000e+00 0.0000000000000000e+00 0
0.0000000000000000e+00 0.0000000000000000e+00 0
0.0000000000000000e+00 0.0000000000000000e+00 0
0.0000000000000000e+00 0.0000000000000000e+00 0
0.0000000000000000e+00 0.0000000000000000e+00 0
0.0000000000000000e+00 0.0000000000000000e+00 0
0.0000000000000000e+00 0.0000000000000000e+00 0
0.0000000000000000e+00 0.0000000000000000e+00 0
0.0000000000000000e+00 0.0000000000000000e+00 0
0.0000000000000000e+00 0.0000000000000000e+00 0
0.0000000000000000e+00 0.0000000000000000e+00 0
0.0000000000000000e+00 0.0000000000000000e+00 0
0.0000000000000000e+00 0.0000000000000000e+00 0
0.0000000000000000e+00 0.0000000000000000e+00 0
0.0000000000000000e+00 0.0000000000000000e+00 0
0.0000000000000000e+00 0.0000000000000000e+00 0
0.0000000000000000e+00 0.0000000000000000e+00 0
0.0000000000000000e+00 0.0000000000000000e+00 0
0.0000000000000000e+00 0.0000000000000000e+00 0
0.0000000000000000e+00 0.0000000000000000e+00 0
0.0000000000000000e+00 0.0000000000000000e+00 0
0.0000000000000000e+00 0.0000000000000000e+00 0
0.0000000000000000e+00 0.0000000000000000e+00 0
0.0000000000000000e+00 0.0000000000000000e+00 0
0.0000000000000000e+00 0.0000000000000000e+00 0
0.0000000000000000e+00 0.0000000000000000e+00 0
0.0000000000000000e+00 0.0000000000000000e+00 0
0.0000000000000000e+00 0.0000000000000000e+00 0
0.0000000000000000e+00 0.0000000000000000e+00 0
0.0000000000000000e+00 0.0000000000000000e+00 0
0.0000000000000000e+00 0.0000000000000000e+00 0
0.0000000000000000e+00 0.0000000000000000e+00 0
0.0000000000000000e+00 0.0000000000000000e+00 0
0.0000000000000000e+00 0.0000000000000000e+00 0
0.0000000000000000e+00 0.0000000000000000e+00 0
0.0000000000000000e+00 0.0000000000000000e+00 0
0.0000000000000000e+00 0.0000000000000000e+00 0
0.0000000000000000e+00 0.0000000000000000e+00 0
0.0000000000000000e+00 0.0000000000000000e+00 0
0.0000000000000000e+00 0.0000000000000000e+00 0

VECTORS Displacements1 float
-5.2660118452008809e-17 2.9419841149221358e-17 0
-7.3169171824377403e-23 4.0309799257705990e-24 0
9.7430958124568620e-07 1.2149947212546370e-07 0
9.4765512700353065e-07 -7.6714142974469273e-08 0
1.4692224254712050e-06 1.5057977028299715e-07 0
1.4005216614461061e-06 -9.4942730393513937e-08 0
1.5231913144338468e-06 1.1740363083913912e-07 0
1.4629691767733004e-06 -6.9068886616598777e-08 0
1.4048980175055044e-06 9.2522877062243678e-08 0
1.3658638651744795e-06 -6.8158894453665587e-08 0
2.4983258721963381e-06 3.5122502566227029e-08 0
2.3237438533087673e-06 1.2796552273773450e-07 0
1.3730053714747060e-06 -1.2404590256854343e-07 0
1.3346809935600780e-06 1.4168620931010525e-07 0
1.5590958836147912e-06 -6.9249512815023946e-09 0
1.4988753902761785e-06 8.5932181799902220e-08 0
1.5680451185675075e-06 2.9796912224917533e-08 0
1.5101871697197674e-06 5.7445995951259053e-08 0
1.3931201703291019e-06 9.1775742687112840e-08 0
1.3597025065762349e-06 -3.1045443160221930e-08 0
2.5071215470803153e-06 7.0369872168214695e-08 0
2.3509119869259560e-06 1.4870500305429210e-07 0
1.3964930537636337e-06 -9.1279343213177301e-08 0
1.3593949293750175e-06 1.4661499120693360e-07 0
1.5810670236622899e-06 1.2826735172885512e-08 0
1.5302195653664382e-06 1.0825967139672973e-07 0
1.5857654474975610e-06 4.4581354071857664e-08 0
1.5412440151495439e-06 8.6761191625538328e-08 0
1.4154948677383154e-06 1.0346139740771662e-07 0
1.3933283805950515e-06 -2.9123157993671304e-09 0
2.5348739705145487e-06 7.8946784177731980e-08 0
2.4322993173257354e-06 2.0850123360487382e-07 0
1.4258125459653794e-06 -8.4687960529271010e-08 0
1.3951007261913264e-06 1.8756826250860813e-07 0
1.6137354351432989e-06 2.2503817733724386e-08 0
1.5867735199573869e-06 1.4979838761026281e-07 0
1.6227915543052173e-06 5.7258096760838980e-08 0
1.6041497079605074e-06 1.2690039469431667e-07 0
1.4572004523882386e-06 1.1818051029894730e-07 0
1.4535056396641193e-06 2.8219566135038305e-08 0
2.5833312290845974e-06 9.9796821859254232e-08 0
2.5734769723482922e-06 2.7129976314561919e-07 0
1.4749420185368660e-06 -6.7622320260443723e-08 0
1.4574201163132092e-06 2.2959959823680203e-07 0
1.6654754858742099e-06 4.5341647586759145e-08 0
1.6759967264348493e-06 1.8984643850014727e-07 0
1.6790158290647458e-06 8.4838113968776908e-08 0
1.7004638279258130e-06 1.6470430363819391e-07 0
1.5184094258727450e-06 1.4889478907228443e-07 0
1.5417883099601932e-06 5.3474929046148454e-08 0
2.6538752866813038e-06 1.4566396095095480e-07 0
2.7810449567782371e-06 3.3166498953235755e-07 0
1.5466709046671622e-06 -3.3878126776437186e-08 0
1.5497413710864547e-06 2.7143253496466303e-07 0
1.7381478375032764e-06 8.7715726997663584e-08 0
1.8035401120407715e-06 2.2765001560562679e-07 0
1.7571837890044235e-06 1.3311603156951149e-07 0
1.8368130062690739e-06 1.9986807758059369e-07 0
1.6035272893582371e-06 1.9851739907211715e-07 0
1.6652156452426011e-06 7.3612911029083161e-08 0
2.7461666106971499e-06 2.1803412763334744e-07 0
3.0697704448824586e-06 3.9410927560809352e-07 0
1.6474846225743347e-06 2.4638473759980338e-08 0
1.6799802778552550e-06 3.1275614286273062e-07 0
1.8471311563696808e-06 1.5965452710453942e-07 0
1.9859956605200334e-06 2.6228267839615457e-07 0
1.8765399828608689e-06 2.1750300097298157e-07 0
2.0336901844185682e-06 2.2928981558136310e-07 0
1.7335970587858873e-06 2.9493923333625762e-07 0
1.8460467154996376e-06 7.8546967724919087e-08 0
2.9164339745531264e-06 3.6810811695157092e-07 0
3.4984278651439185e-06 4.4645719678596672e-07 0
1.8093408847468487e-06 1.2722102962871515e-07 0
1.8809006672295233e-06 3.5280603891038045e-07 0
2.0112384178694702e-06 2.9004724024192375e-07 0
2.2587636615649368e-06 2.8952569561761458e-07 0
2.0603278461235855e-06 3.6261311993901461e-07 0
2.3333909936538694e-06 2.5126119310792351e-07 0
1.9463976493244259e-06 4.3690165501089991e-07 0
2.1302174206700670e-06 7.9790781027790214e-08 0
3.1695402574131421e-06 5.8590724494574902e-07 0
4.1389981423801542e-06 5.2736327327490612e-07 0
2.1155589077809176e-06 4.2893513350901773e-07 0
2.1943039369775525e-06 3.7166686433885373e-07 0
2.4692473736281713e-06 7.9996302629451377e-07 0
2.7467565500615571e-06 2.6311168815779166e-07 0
2.6544601627436931e-06 1.2029669274178913e-06 0
2.8710539819057215e-06 1.4036109820546185e-07 0
2.6390467493109002e-06 1.8526054580506801e-06 0
2.6447767712740895e-06 -2.9009284974615549e-07 0
4.4241024621925953e-06 3.0848831505311870e-06 0
5.4828081039714948e-06 -1.6906739093339201e-07 0
3.3715551767030997e-06 3.7845550198084393e-06 0
3.0820261423230910e-06 -9.8494450735266796e-07 0
4.8205097896202023e-06 5.9895814614884278e-06 0
4.8776867498036979e-06 -2.2450859911245211e-06 0
7.0389356063692456e-06 8.2626277693863331e-06 0
6.9429052947237041e-06 -3.6147674594277219e-06 0
1.2143680136277177e-05 1.0931856538134618e-05 0
1.1343724575427401e-05 -4.4708041675424619e-06 0
1.5318509621369598e-05 1.1027520008159977e-05 0
1.5298752685697076e-05 7.3871063308755778e-06 0
1.3947112861281980e-05 4.0213108195288165e-06 0
1.3449277667232163e-05 1.6119236756690817e-06 0
1.4083979143395068e-05 -1.4296839350395106e-06 0
1.3723576754405261e-05 -5.1446200686918203e-06 0

VECTORS Displacements2 float
-5.2707574929956390e-17 2.9446349522013999e-17 0
-7.3672496256260792e-23 4.3913874475096261e-24 0
9.8106041534354544e-07 1.2640993331624478e-07 0
9.5402311829051779e-07 -8.1685110575335518e-08 0
1.4822762002947895e-06 1.5689339937225043e-07 0
1.4131340599691317e-06 -1.0108265177913365e-07 0
1.5420412521772185e-06 1.2247548062781260e-07 0
1.4813519644894283e-06 -7.3986721526930984e-08 0
1.4259043740763898e-06 9.4884168274944637e-08 0
1.3864023088916361e-06 -7.0230815858705623e-08 0
2.5196705340744079e-06 3.5999562269058935e-08 0
2.3441083396090285e-06 1.2728693308798347e-07 0
1.3941336514457415e-06 -1.2359712352276276e-07 0
1.3553265419349120e-06 1.4158430775187510e-07 0
1.5807188182223599e-06 -6.8029227875890532e-09 0
1.5200606005900561e-06 8.6298343838926759e-08 0
1.5901400923968544e-06 2.9687576764914994e-08 0
1.5318267608400032e-06 5.8081716807612159e-08 0
1.4145050177086526e-06 9.1360258089191300e-08 0
1.3805744210961588e-06 -2.9878883336835752e-08 0
2.5285780762297648e-06 7.0603090955767224e-08 0
2.3710636934403762e-06 1.4932710120173923e-07 0
1.4180249564289664e-06 -9.0391560579322598e-08 0
1.3805820233118376e-06 1.4670030295594253e-07 0
1.6035245352789491e-06 1.3412503897388979e-08 0
1.5520538484925838e-06 1.0867249154323540e-07 0
1.6083765297384224e-06 4.4858132046410735e-08 0
1.5632128584611963e-06 8.7593083438207617e-08 0
1.4374001873223123e-06 1.0351861880999363e-07 0
1.4145711658079397e-06 -1.5237873995592395e-09 0
2.5568854201866451e-06 7.9651832577945301e-08 0
2.4527271973685357e-06 2.0931263706325509e-07 0
1.4479355589671826e-06 -8.3395740838730460e-08 0
1.4167192405068178e-06 1.8787395875880812e-07 0
1.6369105137810443e-06 2.3431556059013012e-08 0
1.6091705170403805e-06 1.5055975482866750e-07 0
1.6461808095446942e-06 5.7921789294923640e-08 0
1.6267080744825497e-06 1.2809039083032378e-07 0
1.4799737577226883e-06 1.1861757098227331e-07 0
1.4753252610886656e-06 2.9992065098074238e-08 0
2.6063111524976638e-06 1.0094234672004068e-07 0
2.5944782664894241e-06 2.7246592084824211e-07 0
1.4980719621600137e-06 -6.5872695574393783e-08 0
1.4797809081166140e-06 2.3020705736896886e-07 0
1.6897375327402739e-06 4.6756744445839872e-08 0
1.6992463921244113e-06 1.9095497427296710e-07 0
1.7035941497850174e-06 8.6025512355236389e-08 0
1.7239505197492198e-06 1.6628372120628927e-07 0
1.5424732347939002e-06 1.4986218489333606e-07 0
1.5644900525121872e-06 5.5665921810984405e-08 0
2.6782632892281953e-06 1.4741894698777191e-07 0
2.8029020214721611e-06 3.3320833882515081e-07 0
1.5712586843224061e-06 -3.1485251049809433e-08 0
1.5731827345435151e-06 2.7233927078571789e-07 0
1.7639690024743729e-06 8.9829677895982648e-08 0
1.8280265472137275e-06 2.2910865327041471e-07 0
1.7834592877719352e-06 1.3507260702754611e-07 0
1.8616355869325632e-06 2.0185076907440089e-07 0
1.6294168747727461e-06 2.0029017436734583e-07 0
1.6891676438016471e-06 7.6245341040926327e-08 0
2.7725097315892067e-06 2.2073565560388284e-07 0
3.0928262663265672e-06 3.9601050083342825e-07 0
1.6741212855714690e-06 2.8065779471624590e-08 0
1.7049208608880372e-06 3.1390057662878580e-07 0
1.8751664694164102e-06 1.6289531416116372e-07 0
2.0122227727728866e-06 2.6404598449750414e-07 0
1.9052690067964285e-06 2.2067592521688774e-07 0
2.0604476503456056e-06 2.3166424378347539e-07 0
1.7621770763377837e-06 2.9793489134299024e-07 0
1.8718837493459995e-06 8.1651061853248069e-08 0
2.9457253947948375e-06 3.7226724246358106e-07 0
3.5233881714835830e-06 4.4872136330134259e-07 0
1.8391743924414147e-06 1.3222121272017190e-07 0
1.9082703545974524e-06 3.5415281620122049e-07 0
2.0428486945561567e-06 2.9524991893803305e-07 0
2.2878805564142084e-06 2.9145030720987511e-07 0
2.0930351257746641e-06 3.6799965505180414e-07 0
2.3632969421122730e-06 2.5391400262350602e-07 0
1.9795615523864774e-06 4.4313448630447843e-07 0
2.1589189928569712e-06 8.3228137978828498e-08 0
3.2042958508535555e-06 5.9564186535429439e-07 0
4.1668978175446988e-06 5.2953759769884398e-07 0
2.1518293224619808e-06 4.4276408421991000e-07 0
2.2249971493853289e-06 3.7236051710539218e-07 0
2.5095975760504952e-06 8.1873195086504294e-07 0
2.7798604634755858e-06 2.6394158927181368e-07 0
2.6968818373795415e-06 1.2281026609840609e-06 0
2.9045340996315478e-06 1.4032611561419145e-07 0
2.6814041019141999e-06 1.8877776586089947e-06 0
2.6764278792158684e-06 -2.9409442356625599e-07 0
4.4701576230906326e-06 3.1368020962202143e-06 0
5.5148173381063959e-06 -1.8400518508141381e-07 0
3.4294760201707756e-06 3.8556165314892589e-06 0
3.1290379685258255e-06 -1.0154733131477760e-06 0
4.9031851951155511e-06 6.0790223368362166e-06 0
4.9506970485875031e-06 -2.2878672430506471e-06 0
7.1527106107172534e-06 8.3640370904339616e-06 0
7.0474335348074498e-06 -3.6645675015848841e-06 0
1.2289893060218322e-05 1.1039250768013846e-05 0
1.1479547120646780e-05 -4.5213140032955233e-06 0
1.5495653413343960e-05 1.1135954131047778e-05 0
1.5475576641021879e-05 7.4633622195369865e-06 0
1.4122327912805424e-05 4.0652281675542465e-06 0
1.3621097301240086e-05 1.6232394953389633e-06 0
1.4251422620322875e-05 -1.4492196617705646e-06 0
1.3888527349592425e-05 -5.1954695488698941e-06 0

VECTORS Displacements3 float
-5.2755416022821500e-17 2.9473069001675955e-17 0
-7.4179013529057293e-23 4.7531965942328354e-24 0
9.8783801616094572e-07 1.3133693163840182e-07 0
9.6043208300624196e-07 -8.6676539660262789e-08 0
1.4953808881475093e-06 1.6326040011854431e-07 0
1.4258159946949704e-06 -1.0728422123138190e-07 0
1.5609913631604571e-06 1.2764875326073923e-07 0
1.4998291941135050e-06 -7.8992530218590312e-08 0
1.4470167138637058e-06 9.7312087920810539e-08 0
1.4070798095291927e-06 -7.2373584199844847e-08 0
2.5412362524270894e-06 3.6949967109890497e-08 0
2.3647059679925207e-06 1.2654555493530770e-07 0
1.4154181161068599e-06 -1.2310407794283791e-07 0
1.3761439593833560e-06 1.4143304000462009e-07 0
1.6025565064043029e-06 -6.6674003505088506e-09 0
1.5414750348045274e-06 8.6658630509537927e-08 0
1.6124464269208443e-06 2.9587237863508511e-08 0
1.5536812796221034e-06 5.8718827831617999e-08 0
1.4360293318367132e-06 9.0921573960340278e-08 0
1.4016081085541891e-06 -2.8696081121642435e-08 0
2.5502378474176956e-06 7.0852329474284062e-08 0
2.3914357943124786e-06 1.4994854158281528e-07 0
1.4397149265954492e-06 -8.9478885415992554e-08 0
1.4019328112749954e-06 1.4676441479048179e-07 0
1.6261986571690734e-06 1.4011934993044557e-08 0
1.5741297477595066e-06 1.0909032780103616e-07 0
1.6312160453774659e-06 4.5148155141497471e-08 0
1.5854084089237886e-06 8.8425480250342302e-08 0
1.4594548614058091e-06 1.0355798298654146e-07 0
1.4359836668592058e-06 -1.1931708142921582e-10 0
2.5791089979514949e-06 8.0380410051018066e-08 0
2.4733864967949854e-06 2.1012609961477223e-07 0
1.4702226343411456e-06 -8.2064660306406636e-08 0
1.4385057086909568e-06 1.8815111562942155e-07 0
1.6603092695335870e-06 2.4382136216245864e-08 0
1.6318110283332736e-06 1.5132171689573068e-07 0
1.6698053132615534e-06 5.8606653856498271e-08 0
1.6494962933849719e-06 1.2928191056210938e-07 0
1.5029040563249180e-06 1.1904250222790244e-07 0
1.4973151667990617e-06 3.1780113657541682e-08 0
2.6295093508964453e-06 1.0212096839993272e-07 0
2.6157169132280730e-06 2.7363296555259355e-07 0
1.5213752248476914e-06 -6.4075444566921751e-08 0
1.5023122654026288e-06 2.3078565993643502e-07 0
1.7142337158107381e-06 4.8202968457251018e-08 0
1.7227475691465847e-06 1.9206460745966421e-07 0
1.7284196712308198e-06 8.7241834585347030e-08 0
1.7476733586855850e-06 1.6786684539538317e-07 0
1.5667052595505444e-06 1.5082367976032669e-07 0
1.5873637106198116e-06 5.7874371432668726e-08 0
2.7028795960550488e-06 1.4921733949452837e-07 0
2.8250053806492572e-06 3.3475247433122665e-07 0
1.5960334646978871e-06 -2.9034833961492564e-08 0
1.5967986390299697e-06 2.7321749126961139e-07 0
1.7900395500172091e-06 9.1984409347178238e-08 0
1.8527754548741124e-06 2.3056997630163206e-07 0
1.8099991850833609e-06 1.3706790459093049e-07 0
1.8867032915584279e-06 2.0384067265785982e-07 0
1.6554908533010381e-06 2.0206438447126718e-07 0
1.7132936654207210e-06 7.8898403632404621e-08 0
2.7990958727942991e-06 2.2349509501333799e-07 0
3.1161402222197848e-06 3.9791311392500785e-07 0
1.7009640402889872e-06 3.1562712629153855e-08 0
1.7300416252415963e-06 3.1501749526419555e-07 0
1.9034740440877888e-06 1.6618705318759756e-07 0
2.0387280499388480e-06 2.6581591822737985e-07 0
1.9342867986499436e-06 2.2389775474174476e-07 0
2.0874652021733132e-06 2.3405104227693769e-07 0
1.7909693837499955e-06 3.0094198716070656e-07 0
1.8979008196854389e-06 8.4780684952302151e-08 0
2.9752813340163989e-06 3.7650372147314277e-07 0
3.5486297320364826e-06 4.5098513546261744e-07 0
1.8692469411527477e-06 1.3731369923401329e-07 0
1.9358306079566178e-06 3.5547197056030731e-07 0
2.0747585247688132e-06 3.0052890093609336e-07 0
2.3173056966513829e-06 2.9338016483655950e-07 0
2.1260838025613598e-06 3.7347416370085161e-07 0
2.3934747093111161e-06 2.5658870691690296e-07 0
2.0130069553906020e-06 4.4947650913611323e-07 0
2.1877971512102539e-06 8.6690709974706814e-08 0
3.2393914583088248e-06 6.0559420579958451e-07 0
4.1950680359826227e-06 5.3171878644497255e-07 0
2.1884120302969065e-06 4.5688781682534973e-07 0
2.2558757080175351e-06 3.7303047507567464e-07 0
2.5503301603271547e-06 8.3781898387669507e-07 0
2.8132342628479943e-06 2.6477850574582241e-07 0
2.7396445680763480e-06 1.2536289613409188e-06 0
2.9382674464948961e-06 1.4024885893777687e-07 0
2.7239478605564946e-06 1.9234123297833033e-06 0
2.7081463477177792e-06 -2.9823645426066963e-07 0
4.5165621449031819e-06 3.1893435082929709e-06 0
5.5471694116055270e-06 -1.9926006982624595e-07 0
3.4879813523687215e-06 3.9273956381054509e-06 0
3.1765503823212394e-06 -1.0464363898272943e-06 0
4.9867729184229020e-06 6.1690439693234940e-06 0
5.0246172798428620e-06 -2.3310508798891167e-06 0
7.2674603540912833e-06 8.4657722871724680e-06 0
7.1529695059187620e-06 -3.7145892298851738e-06 0
1.2436919953374066e-05 1.1146723050008784e-05 0
1.1616442549130417e-05 -4.5719577608082953e-06 0
1.5673424863887816e-05 1.1244393734210784e-05 0
1.5653187148360886e-05 7.5396952524606344e-06 0
1.4298556084904865e-05 4.1093389163940981e-06 0
1.3793998371041282e-05 1.6346563362815499e-06 0
1.4420003094809390e-05 -1.4687615295004054e-06 0
1.4054555702514484e-05 -5.2465136598802216e-06 0

VECTORS Forces1 float
-3.9585322765738684e-01 2.3454746580922642e-01 0
-2.3842821214365750e-01 -1.4239711589983423e-01 0
5.1718065714418540e+00 -2.8638135577865502e+00 0
3.2053437886724807e+00 1.7736253442457999e+00 0
5.6673360190994400e+00 -8.7954135487804086e-01 0
3.5279234010651841e+00 5.4768982367879571e-01 0
3.6113468951008052e+00 1.4561163376269615e-01 0
2.2504968405416110e+00 -8.7901349577064886e-02 0
-5.4427201425371463e-01 -1.9463713167334237e-02 0
-3.3981069273691428e-01 1.1895719998075488e-02 0
1.3904384127100386e+01 -1.4888024841942633e-04 0
8.6980576306346205e+00 2.6153095204612824e-02 0
-5.8976377990827678e-01 -5.9211841841656440e-04 0
-3.7031567224986917e-01 -1.6410648856358557e-03 0
3.9622776004370106e+00 -3.6940105547305068e-04 0
2.4860393269980245e+00 1.5138221796809105e-02 0
3.9625785738102026e+00 -4.5645243203166927e-04 0
2.4862889227452540e+00 1.5186244353014161e-02 0
-5.9038564795292070e-01 -1.9772322026544132e-04 0
-3.7065775695227005e-01 -2.0671996282742478e-03 0
1.3961635242677406e+01 -5.4165107522312298e-03 0
8.7798594560944760e+00 9.0719465891591050e-02 0
-5.9000671130777860e-01 -8.6895299626582145e-05 0
-3.7286458373205128e-01 -4.9734630696414610e-03 0
3.9602511529133206e+00 -1.1503822903459597e-03 0
2.5021474779592401e+00 3.5560902563505213e-02 0
3.9602448508899024e+00 -1.1493066203040151e-03 0
2.5021734734658985e+00 3.5579002973198895e-02 0
-5.8992379402136319e-01 -1.0489895756243726e-04 0
-3.7296412327173151e-01 -5.1029475464499895e-03 0
1.3928340351983996e+01 4.5813450667174047e-03 0
8.8486347667466259e+00 1.5643879098556548e-01 0
-5.8724508913348161e-01 -8.4224060627040125e-04 0
-3.7602444413986946e-01 -7.6724091566379021e-03 0
3.9415257419528285e+00 4.0406261573837834e-03 0
2.5237694254966310e+00 5.3698663157222735e-02 0
3.9415002229115790e+00 4.0421252671959248e-03 0
2.5238008967690595e+00 5.3719214257990887e-02 0
-5.8705293008879067e-01 -9.1009659607229352e-04 0
-3.7616615926313118e-01 -7.7823752144187269e-03 0
1.3826779493601247e+01 2.9507852777946576e-02 0
8.9323071698466432e+00 2.2111409982439170e-01 0
-5.8170447275872628e-01 -2.3409305953214546e-03 0
-3.8012874623454823e-01 -1.0309666077936654e-02 0
3.9039915757538348e+00 1.4022957905044464e-02 0
2.5516879178729752e+00 7.1628693497207963e-02 0
3.9039445533794397e+00 1.4026906282569697e-02 0
2.5517285834351817e+00 7.1652055207600387e-02 0
-5.8138047080567035e-01 -2.4791050614081612e-03 0
-3.8032010873969141e-01 -1.0397588028731076e-02 0
1.3661478434910780e+01 8.4819845459905382e-02 0
9.0489801067798687e+00 2.7890410528935100e-01 0
-5.7285151265448808e-01 -5.5510026012512885e-03 0
-3.8568688691664244e-01 -1.2541478656000814e-02 0
3.8440551185342877e+00 3.5420432656518369e-02 0
2.5894405931920095e+00 8.6999324194872968e-02 0
3.8439853231835248e+00 3.5422403022153479e-02 0
2.5894969444649258e+00 8.7030186388363462e-02 0
-5.7241441447572139e-01 -5.7685067322400807e-03 0
-3.8598111039809230e-01 -1.2608659441543777e-02 0
1.3406599736040910e+01 1.6238785681513096e-01 0
9.2071117125638562e+00 3.4038228688665778e-01 0
-5.6166380617704292e-01 -9.4183567542166970e-03 0
-3.9441594696310767e-01 -1.5157801088709217e-02 0
3.7683874421016434e+00 6.0633235082166156e-02 0
2.6486985920804309e+00 1.0543446044820701e-01 0
3.7682701904008322e+00 6.0638978032609051e-02 0
2.6487675316329922e+00 1.0547414263330167e-01 0
-5.6107576689551020e-01 -9.8920165094882155e-03 0
-3.9487314132325751e-01 -1.5145262391939722e-02 0
1.3112285695590352e+01 3.4802713345647218e-01 0
9.4702605011429650e+00 3.7364138007126518e-01 0
-5.4382530973042043e-01 -2.1005929287298272e-02 0
-4.0623507264500064e-01 -1.5638100842800911e-02 0
3.6461042277112656e+00 1.3752627282900673e-01 0
2.7277705835906914e+00 1.0997945079105931e-01 0
3.6458718928048759e+00 1.3744268896339118e-01 0
2.7277999658761360e+00 1.1006384418336806e-01 0
-5.4412045160031175e-01 -2.1810818585339613e-02 0
-4.0782939864355960e-01 -1.5618540514995975e-02 0
1.2676730817581644e+01 4.6648685981419824e-01 0
9.8892627934341490e+00 5.0308485720299245e-01 0
-5.4930537187295503e-01 -2.7468324093216322e-02 0
-4.4647906061154513e-01 -2.1778329465636875e-02 0
3.6722995686846507e+00 1.7139760783369565e-01 0
2.9904618740994588e+00 1.5498708383117016e-01 0
3.6712799579343556e+00 1.7105487316208193e-01 0
2.9901165935846801e+00 1.5516780711050390e-01 0
-5.5087032330931041e-01 -3.2265699429365358e-02 0
-4.5036575416184244e-01 -1.9687282472971582e-02 0
1.2963433356785224e+01 1.7717368717088360e+00 0
1.1312385351762206e+01 1.2076445604537746e-01 0
-5.1645899427675490e-01 -1.4182620022438466e-01 0
-5.1227846437833491e-01 2.9295177167096714e-02 0
3.5742520544900453e+00 9.3231800595449243e-01 0
3.5851285483500197e+00 -1.1511213811392858e-01 0
2.7858926286965802e+00 6.1654593787169132e-01 0
2.8579095970942183e+00 -1.0648274362029832e-01 0
7.2910176028521816e+00 2.8838285132808847e+00 0
6.7118371423891761e+00 8.6408250905871883e-02 0
6.8638121887808268e-01 3.9417766433880164e-01 0
4.9630160440501809e+00 1.8024786078832569e+00 0
2.6821393463755632e+00 1.4444099119696783e+00 0
2.5509618884503635e+00 1.7633737643746445e+00 0
4.2729162929450091e+00 1.0246590833413098e+00 0
6.1471052176065277e-01 -2.0239308713498139e-01 0

VECTORS Forces2 float
4.6771369234510257e-01 -2.6594065086163804e-01 0
2.2290467877678424e-01 1.4107444976520467e-01 0
-5.8510242863514108e+00 3.2270301879573391e+00 0
-2.8673782830164423e+00 -1.5830356808625237e+00 0
-6.4103845619866036e+00 9.9303553669513622e-01 0
-3.1720123383194792e+00 -4.8652516982649530e-01 0
-4.0899425743060300e+00 -1.6279577517013935e-01 0
-2.0314843251789179e+00 7.7496428594872518e-02 0
6.1611702136791180e-01 2.1010268124484598e-02 0
3.0646285986048755e-01 -1.0346783317983818e-02 0
-1.5801031109491893e+01 1.2130331056046109e-03 0
-7.9372820606510555e+00 2.0600275565253522e-02 0
6.7126932379503190e-01 4.2505933982831348e-04 0
3.3855081578018253e-01 -2.3884934991971279e-03 0
-4.5104356566917110e+00 -1.8955489848907138e-03 0
-2.2745700801513955e+00 1.5559110116425126e-02 0
-4.5107622290343015e+00 -1.7908020701367972e-03 0
-2.2747884385732906e+00 1.5560576688928475e-02 0
6.7213433880770845e-01 3.7898959640718935e-05 0
3.3881503551231074e-01 -2.1947368506899092e-03 0
-1.5898324089085165e+01 -7.1000201054949022e-03 0
-7.9795411580166791e+00 8.7367117177196668e-02 0
6.7149257112179217e-01 3.0458707541986359e-04 0
3.3445662792108527e-01 -5.0873085997774660e-03 0
-4.5063310056835872e+00 -3.6368343388248400e-03 0
-2.2443658846968866e+00 3.6052951808863781e-02 0
-4.5063142030378680e+00 -3.6435183150404387e-03 0
-2.2443173037455129e+00 3.6079918117327407e-02 0
6.7134436048939305e-01 2.9434989219480638e-04 0
3.3403697698222190e-01 -5.2084204618393064e-03 0
-1.5826735503436625e+01 -1.5016122526026193e-02 0
-7.7727562549292992e+00 1.6650942474702851e-01 0
6.6609147823730408e-01 3.0995113080224760e-04 0
3.2152916205022219e-01 -8.3108426461841380e-03 0
-4.4691406773536455e+00 -3.8057676738039808e-03 0
-2.1564257594574516e+00 5.8032187951889816e-02 0
-4.4690969105536276e+00 -3.8121800200184158e-03 0
-2.1563302396836694e+00 5.8060501694438930e-02 0
6.6571472186111780e-01 2.6379667923444756e-04 0
3.2069565546633177e-01 -8.4266951139421210e-03 0
-1.5637148759922857e+01 -4.8931269238037646e-03 0
-7.3583826217173662e+00 2.3999747491572945e-01 0
6.5586702057100033e-01 -5.7677250563807050e-04 0
2.9979185096781508e-01 -1.1275084003398711e-02 0
-4.3994512772325045e+00 1.9673673935702266e-03 0
-2.0094341390563315e+00 7.8293443872645085e-02 0
-4.3993797857045553e+00 1.9631973645618558e-03 0
-2.0092903793684473e+00 7.8323847222061344e-02 0
6.5527120883835377e-01 -6.9205384311463896e-04 0
2.9851643473648348e-01 -1.1367632279165993e-02 0
-1.5336359630526371e+01 3.2246859743023278e-02 0
-6.7318067173768403e+00 3.0826585583507377e-01 0
6.4103678003124476e-01 -2.9573188328000481e-03 0
2.6850600348807391e-01 -1.3943735579955771e-02 0
-4.2986725621267601e+00 1.7623551907533640e-02 0
-1.7984577626325058e+00 9.6777717677995700e-02 0
-4.2985633309218780e+00 1.7614008098428089e-02 0
-1.7982598118329223e+00 9.6817847626636949e-02 0
6.4017457759053131e-01 -3.1435906171386608e-03 0
2.6668271045358266e-01 -1.4020160921033739e-02 0
-1.4915522798530475e+01 8.7382930656536129e-02 0
-5.8542017577217580e+00 3.8132621775229647e-01 0
6.1905372873853692e-01 -5.6553554596944344e-03 0
2.2456934833702963e-01 -1.7224059262265699e-02 0
-4.1490708371500773e+00 3.4714120082366580e-02 0
-1.5025513431016770e+00 1.1991969962076458e-01 0
-4.1489098823828536e+00 3.4700384786866795e-02 0
-1.5022903343704985e+00 1.1997277395008794e-01 0
6.1789369803803151e-01 -6.0946955672294047e-03 0
2.2195737619952180e-01 -1.7220887990012441e-02 0
-1.4273935684896115e+01 2.3405892128620479e-01 0
-4.6101736220105165e+00 4.3999456324434916e-01 0
5.9023663521090119e-01 -1.5611408142238546e-02 0
1.6272441996760043e-01 -1.8508872835525814e-02 0
-3.9527780858849808e+00 1.0005403437249366e-01 0
-1.0870822876147797e+00 1.3021808753575423e-01 0
-3.9525114540479822e+00 9.9906847583622116e-02 0
-1.0867988322231230e+00 1.3032068430175803e-01 0
5.8849471221708771e-01 -1.6345190504525851e-02 0
1.5869185134387914e-01 -1.8511639269397848e-02 0
-1.3494095398167417e+01 3.0792914682505312e-01 0
-2.8870071581544523e+00 5.6234537779921456e-01 0
5.4080677253692222e-01 -1.5839744553613654e-02 0
7.2090331302960081e-02 -2.6101230011495086e-02 0
-3.6147048076635810e+00 8.8739538368603585e-02 0
-4.8452023806650113e-01 1.8508440092507503e-01 0
-3.6137690614130067e+00 8.8011260194720706e-02 0
-4.8445090510828948e-01 1.8539999770417798e-01 0
5.3712657543366238e-01 -2.0176823694556176e-02 0
6.2253156591767958e-02 -2.4469051928942252e-02 0
-1.1295841996463416e+01 9.6459322755850396e-01 0
2.1685033087053512e-01 5.5588839046084881e-01 0
3.8728490188974740e-01 -8.8828500522782725e-02 0
-1.5409489333574591e-01 -1.2699925914366516e-03 0
-2.4725626696183824e+00 5.6590753787384063e-01 0
1.0308683709945505e+00 1.2050406659717389e-01 0
-2.4796396756712258e+00 1.5101470735081773e-01 0
6.5427700288619572e-01 9.9977512545227312e-02 0
6.0392101078484817e-01 3.9588033872786763e+00 0
3.4541951778777360e+00 3.5945479324525365e-01 0
-2.2120736548771469e-01 3.9754597044692508e-01 0
8.2842498695430711e-01 3.8010293887999640e+00 0
1.2512708059740008e+00 3.1342369431168633e+00 0
9.9705970196216720e-01 2.9216074003291954e+00 0
2.0180439598717212e+00 1.1427632247681743e+00 0
4.7559472511787765e-01 -1.9694800182358574e-01 0

