# vtk DataFile Version 2.0

ASCII

DATASET UNSTRUCTURED_GRID

POINTS 106 float 

-5.0000000000000003e-02  0.0000000000000000e+00  0.0000000000000000e+00
5.0000000000000003e-02  0.0000000000000000e+00  0.0000000000000000e+00
-5.0000000000000003e-02  2.0000000000000000e-02  0.0000000000000000e+00
5.0000000000000003e-02  2.0000000000000000e-02  0.0000000000000000e+00
-5.0000000000000003e-02  4.0000000000000001e-02  0.0000000000000000e+00
5.0000000000000003e-02  4.0000000000000001e-02  0.0000000000000000e+00
-5.0000000000000003e-02  5.9999999999999998e-02  0.0000000000000000e+00
5.0000000000000003e-02  5.9999999999999998e-02  0.0000000000000000e+00
-5.0000000000000003e-02  8.0000000000000002e-02  0.0000000000000000e+00
5.0000000000000003e-02  8.0000000000000002e-02  0.0000000000000000e+00
-5.0000000000000003e-02  1.0000000000000001e-01  0.0000000000000000e+00
5.0000000000000003e-02  1.0000000000000001e-01  0.0000000000000000e+00
-5.0000000000000003e-02  1.2000000000000000e-01  0.0000000000000000e+00
5.0000000000000003e-02  1.2000000000000000e-01  0.0000000000000000e+00
-5.0000000000000003e-02  1.4000000000000001e-01  0.0000000000000000e+00
5.0000000000000003e-02  1.4000000000000001e-01  0.0000000000000000e+00
-5.0000000000000003e-02  1.6000000000000000e-01  0.0000000000000000e+00
5.0000000000000003e-02  1.6000000000000000e-01  0.0000000000000000e+00
-5.0000000000000003e-02  1.7999999999999999e-01  0.0000000000000000e+00
5.0000000000000003e-02  1.7999999999999999e-01  0.0000000000000000e+00
-5.0000000000000003e-02  2.0000000000000001e-01  0.0000000000000000e+00
5.0000000000000003e-02  2.0000000000000001e-01  0.0000000000000000e+00
-5.0000000000000003e-02  2.2000000000000000e-01  0.0000000000000000e+00
5.0000000000000003e-02  2.2000000000000000e-01  0.0000000000000000e+00
-5.0000000000000003e-02  2.3999999999999999e-01  0.0000000000000000e+00
5.0000000000000003e-02  2.3999999999999999e-01  0.0000000000000000e+00
-5.0000000000000003e-02  2.6000000000000001e-01  0.0000000000000000e+00
5.0000000000000003e-02  2.6000000000000001e-01  0.0000000000000000e+00
-5.0000000000000003e-02  2.8000000000000003e-01  0.0000000000000000e+00
5.0000000000000003e-02  2.8000000000000003e-01  0.0000000000000000e+00
-5.0000000000000003e-02  2.9999999999999999e-01  0.0000000000000000e+00
5.0000000000000003e-02  2.9999999999999999e-01  0.0000000000000000e+00
-5.0000000000000003e-02  3.2000000000000001e-01  0.0000000000000000e+00
5.0000000000000003e-02  3.2000000000000001e-01  0.0000000000000000e+00
-5.0000000000000003e-02  3.4000000000000002e-01  0.0000000000000000e+00
5.0000000000000003e-02  3.4000000000000002e-01  0.0000000000000000e+00
-5.0000000000000003e-02  3.5999999999999999e-01  0.0000000000000000e+00
5.0000000000000003e-02  3.5999999999999999e-01  0.0000000000000000e+00
-5.0000000000000003e-02  3.8000000000000000e-01  0.0000000000000000e+00
5.0000000000000003e-02  3.8000000000000000e-01  0.0000000000000000e+00
-5.0000000000000003e-02  4.0000000000000002e-01  0.0000000000000000e+00
5.0000000000000003e-02  4.0000000000000002e-01  0.0000000000000000e+00
-5.0000000000000003e-02  4.1999999999999998e-01  0.0000000000000000e+00
5.0000000000000003e-02  4.1999999999999998e-01  0.0000000000000000e+00
-5.0000000000000003e-02  4.4000000000000000e-01  0.0000000000000000e+00
5.0000000000000003e-02  4.4000000000000000e-01  0.0000000000000000e+00
-5.0000000000000003e-02  4.6000000000000002e-01  0.0000000000000000e+00
5.0000000000000003e-02  4.6000000000000002e-01  0.0000000000000000e+00
-5.0000000000000003e-02  4.7999999999999998e-01  0.0000000000000000e+00
5.0000000000000003e-02  4.7999999999999998e-01  0.0000000000000000e+00
-5.0000000000000003e-02  5.0000000000000000e-01  0.0000000000000000e+00
5.0000000000000003e-02  5.0000000000000000e-01  0.0000000000000000e+00
-5.0000000000000003e-02  5.2000000000000002e-01  0.0000000000000000e+00
5.0000000000000003e-02  5.2000000000000002e-01  0.0000000000000000e+00
-5.0000000000000003e-02  5.4000000000000004e-01  0.0000000000000000e+00
5.0000000000000003e-02  5.4000000000000004e-01  0.0000000000000000e+00
-5.0000000000000003e-02  5.6000000000000005e-01  0.0000000000000000e+00
5.0000000000000003e-02  5.6000000000000005e-01  0.0000000000000000e+00
-5.0000000000000003e-02  5.7999999999999996e-01  0.0000000000000000e+00
5.0000000000000003e-02  5.7999999999999996e-01  0.0000000000000000e+00
-5.0000000000000003e-02  5.9999999999999998e-01  0.0000000000000000e+00
5.0000000000000003e-02  5.9999999999999998e-01  0.0000000000000000e+00
-5.0000000000000003e-02  6.2000000000000000e-01  0.0000000000000000e+00
5.0000000000000003e-02  6.2000000000000000e-01  0.0000000000000000e+00
-5.0000000000000003e-02  6.4000000000000001e-01  0.0000000000000000e+00
5.0000000000000003e-02  6.4000000000000001e-01  0.0000000000000000e+00
-5.0000000000000003e-02  6.6000000000000003e-01  0.0000000000000000e+00
5.0000000000000003e-02  6.6000000000000003e-01  0.0000000000000000e+00
-5.0000000000000003e-02  6.8000000000000005e-01  0.0000000000000000e+00
5.0000000000000003e-02  6.8000000000000005e-01  0.0000000000000000e+00
-5.0000000000000003e-02  6.9999999999999996e-01  0.0000000000000000e+00
5.0000000000000003e-02  6.9999999999999996e-01  0.0000000000000000e+00
-5.0000000000000003e-02  7.1999999999999997e-01  0.0000000000000000e+00
5.0000000000000003e-02  7.1999999999999997e-01  0.0000000000000000e+00
-5.0000000000000003e-02  7.3999999999999999e-01  0.0000000000000000e+00
5.0000000000000003e-02  7.3999999999999999e-01  0.0000000000000000e+00
-5.0000000000000003e-02  7.6000000000000001e-01  0.0000000000000000e+00
5.0000000000000003e-02  7.6000000000000001e-01  0.0000000000000000e+00
-5.0000000000000003e-02  7.8000000000000003e-01  0.0000000000000000e+00
5.0000000000000003e-02  7.8000000000000003e-01  0.0000000000000000e+00
-5.0000000000000003e-02  8.0000000000000004e-01  0.0000000000000000e+00
5.0000000000000003e-02  8.0000000000000004e-01  0.0000000000000000e+00
-5.0000000000000003e-02  8.1999999999999995e-01  0.0000000000000000e+00
5.0000000000000003e-02  8.1999999999999995e-01  0.0000000000000000e+00
-5.0000000000000003e-02  8.3999999999999997e-01  0.0000000000000000e+00
5.0000000000000003e-02  8.3999999999999997e-01  0.0000000000000000e+00
-5.0000000000000003e-02  8.5999999999999999e-01  0.0000000000000000e+00
5.0000000000000003e-02  8.5999999999999999e-01  0.0000000000000000e+00
-5.0000000000000003e-02  8.8000000000000000e-01  0.0000000000000000e+00
5.0000000000000003e-02  8.8000000000000000e-01  0.0000000000000000e+00
-5.0000000000000003e-02  9.0000000000000002e-01  0.0000000000000000e+00
5.0000000000000003e-02  9.0000000000000002e-01  0.0000000000000000e+00
-5.0000000000000003e-02  9.2000000000000004e-01  0.0000000000000000e+00
5.0000000000000003e-02  9.2000000000000004e-01  0.0000000000000000e+00
-5.0000000000000003e-02  9.3999999999999995e-01  0.0000000000000000e+00
5.0000000000000003e-02  9.3999999999999995e-01  0.0000000000000000e+00
-5.0000000000000003e-02  9.5999999999999996e-01  0.0000000000000000e+00
5.0000000000000003e-02  9.5999999999999996e-01  0.0000000000000000e+00
-5.0000000000000003e-02  9.7999999999999998e-01  0.0000000000000000e+00
5.0000000000000003e-02  9.7999999999999998e-01  0.0000000000000000e+00
-5.0000000000000003e-02  1.0000000000000000e+00  0.0000000000000000e+00
-3.0000000000000002e-02  1.0000000000000000e+00  0.0000000000000000e+00
-1.0000000000000002e-02  1.0000000000000000e+00  0.0000000000000000e+00
1.0000000000000009e-02  1.0000000000000000e+00  0.0000000000000000e+00
2.9999999999999999e-02  1.0000000000000000e+00  0.0000000000000000e+00
5.0000000000000003e-02  1.0000000000000000e+00  0.0000000000000000e+00

CELLS 0 0


CELL_TYPES 0


POINT_DATA 106

VECTORS VertexNormals float

0.0000000000000000e+00 0.0000000000000000e+00 0
0.0000000000000000e+00 0.0000000000000000e+00 0
0.0000000000000000e+00 0.0000000000000000e+00 0
0.0000000000000000e+00 0.0000000000000000e+00 0
0.0000000000000000e+00 0.0000000000000000e+00 0
0.0000000000000000e+00 0.0000000000000000e+00 0
0.0000000000000000e+00 0.0000000000000000e+00 0
0.0000000000000000e+00 0.0000000000000000e+00 0
0.0000000000000000e+00 0.0000000000000000e+00 0
0.0000000000000000e+00 0.0000000000000000e+00 0
0.0000000000000000e+00 0.0000000000000000e+00 0
0.0000000000000000e+00 0.0000000000000000e+00 0
0.0000000000000000e+00 0.0000000000000000e+00 0
0.0000000000000000e+00 0.0000000000000000e+00 0
0.0000000000000000e+00 0.0000000000000000e+00 0
0.0000000000000000e+00 0.0000000000000000e+00 0
0.0000000000000000e+00 0.0000000000000000e+00 0
0.0000000000000000e+00 0.0000000000000000e+00 0
0.0000000000000000e+00 0.0000000000000000e+00 0
0.0000000000000000e+00 0.0000000000000000e+00 0
0.0000000000000000e+00 0.0000000000000000e+00 0
0.0000000000000000e+00 0.0000000000000000e+00 0
0.0000000000000000e+00 0.0000000000000000e+00 0
0.0000000000000000e+00 0.0000000000000000e+00 0
0.0000000000000000e+00 0.0000000000000000e+00 0
0.0000000000000000e+00 0.0000000000000000e+00 0
0.0000000000000000e+00 0.0000000000000000e+00 0
0.0000000000000000e+00 0.0000000000000000e+00 0
0.0000000000000000e+00 0.0000000000000000e+00 0
0.0000000000000000e+00 0.0000000000000000e+00 0
0.0000000000000000e+00 0.0000000000000000e+00 0
0.0000000000000000e+00 0.0000000000000000e+00 0
0.0000000000000000e+00 0.0000000000000000e+00 0
0.0000000000000000e+00 0.0000000000000000e+00 0
0.0000000000000000e+00 0.0000000000000000e+00 0
0.0000000000000000e+00 0.0000000000000000e+00 0
0.0000000000000000e+00 0.0000000000000000e+00 0
0.0000000000000000e+00 0.0000000000000000e+00 0
0.0000000000000000e+00 0.0000000000000000e+00 0
0.0000000000000000e+00 0.0000000000000000e+00 0
0.0000000000000000e+00 0.0000000000000000e+00 0
0.0000000000000000e+00 0.0000000000000000e+00 0
0.0000000000000000e+00 0.0000000000000000e+00 0
0.0000000000000000e+00 0.0000000000000000e+00 0
0.0000000000000000e+00 0.0000000000000000e+00 0
0.0000000000000000e+00 0.0000000000000000e+00 0
0.0000000000000000e+00 0.0000000000000000e+00 0
0.0000000000000000e+00 0.0000000000000000e+00 0
0.0000000000000000e+00 0.0000000000000000e+00 0
0.0000000000000000e+00 0.0000000000000000e+00 0
0.0000000000000000e+00 0.0000000000000000e+00 0
0.0000000000000000e+00 0.0000000000000000e+00 0
0.0000000000000000e+00 0.0000000000000000e+00 0
0.0000000000000000e+00 0.0000000000000000e+00 0
0.0000000000000000e+00 0.0000000000000000e+00 0
0.0000000000000000e+00 0.0000000000000000e+00 0
0.0000000000000000e+00 0.0000000000000000e+00 0
0.0000000000000000e+00 0.0000000000000000e+00 0
0.0000000000000000e+00 0.0000000000000000e+00 0
0.0000000000000000e+00 0.0000000000000000e+00 0
0.0000000000000000e+00 0.0000000000000000e+00 0
0.0000000000000000e+00 0.0000000000000000e+00 0
0.0000000000000000e+00 0.0000000000000000e+00 0
0.0000000000000000e+00 0.0000000000000000e+00 0
0.0000000000000000e+00 0.0000000000000000e+00 0
0.0000000000000000e+00 0.0000000000000000e+00 0
0.0000000000000000e+00 0.0000000000000000e+00 0
0.0000000000000000e+00 0.0000000000000000e+00 0
0.0000000000000000e+00 0.0000000000000000e+00 0
0.0000000000000000e+00 0.0000000000000000e+00 0
0.0000000000000000e+00 0.0000000000000000e+00 0
0.0000000000000000e+00 0.0000000000000000e+00 0
0.0000000000000000e+00 0.0000000000000000e+00 0
0.0000000000000000e+00 0.0000000000000000e+00 0
0.0000000000000000e+00 0.0000000000000000e+00 0
0.0000000000000000e+00 0.0000000000000000e+00 0
0.0000000000000000e+00 0.0000000000000000e+00 0
0.0000000000000000e+00 0.0000000000000000e+00 0
0.0000000000000000e+00 0.0000000000000000e+00 0
0.0000000000000000e+00 0.0000000000000000e+00 0
0.0000000000000000e+00 0.0000000000000000e+00 0
0.0000000000000000e+00 0.0000000000000000e+00 0
0.0000000000000000e+00 0.0000000000000000e+00 0
0.0000000000000000e+00 0.0000000000000000e+00 0
0.0000000000000000e+00 0.0000000000000000e+00 0
0.0000000000000000e+00 0.0000000000000000e+00 0
0.0000000000000000e+00 0.0000000000000000e+00 0
0.0000000000000000e+00 0.0000000000000000e+00 0
0.0000000000000000e+00 0.0000000000000000e+00 0
0.0000000000000000e+00 0.0000000000000000e+00 0
0.0000000000000000e+00 0.0000000000000000e+00 0
0.0000000000000000e+00 0.0000000000000000e+00 0
0.0000000000000000e+00 0.0000000000000000e+00 0
0.0000000000000000e+00 0.0000000000000000e+00 0
0.0000000000000000e+00 0.0000000000000000e+00 0
0.0000000000000000e+00 0.0000000000000000e+00 0
0.0000000000000000e+00 0.0000000000000000e+00 0
0.0000000000000000e+00 0.0000000000000000e+00 0
0.0000000000000000e+00 0.0000000000000000e+00 0
0.0000000000000000e+00 0.0000000000000000e+00 0
0.0000000000000000e+00 0.0000000000000000e+00 0
0.0000000000000000e+00 0.0000000000000000e+00 0
0.0000000000000000e+00 0.0000000000000000e+00 0
0.0000000000000000e+00 0.0000000000000000e+00 0
0.0000000000000000e+00 0.0000000000000000e+00 0
0.0000000000000000e+00 0.0000000000000000e+00 0

VECTORS Displacements1 float
-5.6954333786426801e-17 3.1819238859229736e-17 0
-1.3062717082440123e-22 4.5883494162780188e-23 0
1.7404596643162068e-06 7.0722067745059180e-07 0
1.6819808170936257e-06 -6.6171101449098422e-07 0
2.9321841438152631e-06 9.7407330029707737e-07 0
2.8297643298106034e-06 -9.1310166668442210e-07 0
3.6223380758648856e-06 9.8345285677107703e-07 0
3.5410145329666004e-06 -9.1612908691522085e-07 0
4.0133499626570036e-06 8.5534840929755160e-07 0
3.9678189735816699e-06 -7.9526955527184530e-07 0
5.5675687378302035e-06 6.0627796318143363e-07 0
5.3061068995947209e-06 -3.9294946734983335e-07 0
4.5345411150119903e-06 2.2315185310028397e-07 0
4.4756950945938120e-06 -1.5473930115119739e-07 0
4.7738975015201514e-06 1.7923883931333655e-07 0
4.6749766161963033e-06 -2.6971492844568530e-08 0
4.7439901453837110e-06 1.2475600066386550e-07 0
4.6455815437987958e-06 5.0658585889015990e-08 0
4.5019143371745073e-06 1.6835261170393048e-07 0
4.4486381841017207e-06 -3.0474781567599281e-09 0
5.7100400575268294e-06 1.7558253016481904e-07 0
5.4586722829961903e-06 1.7294196710042764e-07 0
4.5615870928511824e-06 2.9129015799094675e-08 0
4.5019153642171016e-06 1.6491128207154456e-07 0
4.8221140502777810e-06 1.4064307769255361e-07 0
4.7307739181276463e-06 1.4800179039006353e-07 0
4.8460900593075785e-06 1.5865263940938817e-07 0
4.7518823407808704e-06 1.5738499380024582e-07 0
4.6244787702942993e-06 2.2646767150366939e-07 0
4.5774369386031226e-06 7.7956437817543082e-08 0
5.8333923442878905e-06 2.5091597084914838e-07 0
5.6257805019315244e-06 2.7343673087465706e-07 0
4.6803872514353746e-06 1.1500783128414455e-07 0
4.6215516107690589e-06 2.3241079236886375e-07 0
4.9519290817697784e-06 2.3596250138768568e-07 0
4.8752768411087945e-06 2.1659991642202822e-07 0
4.9852395037158978e-06 2.5827855009413150e-07 0
4.9062578859127427e-06 2.2652564704005560e-07 0
4.7737880255594687e-06 3.2936486017319916e-07 0
4.7363934978915408e-06 1.3917589227708688e-07 0
6.0021448849213519e-06 3.6691189546335597e-07 0
5.8747294637713875e-06 3.6914020192642235e-07 0
4.8604866936394169e-06 2.2745324677242293e-07 0
4.8052168756427189e-06 3.0872982861424420e-07 0
5.1488426107637035e-06 3.5627822983586841e-07 0
5.0967267959883593e-06 2.9585987722753331e-07 0
5.1972620208149559e-06 3.8534288955454282e-07 0
5.1431920134301486e-06 3.0648017119393456e-07 0
4.9976358607844655e-06 4.6399372297906242e-07 0
4.9739604472364716e-06 2.0724545496449834e-07 0
6.2499766488751954e-06 5.2850016572627047e-07 0
6.2427350354202034e-06 4.7477227412153917e-07 0
5.1232003518903075e-06 3.8127747452065260e-07 0
5.0735421314268786e-06 3.9550169720332473e-07 0
5.4293148618100450e-06 5.2526455395553239e-07 0
5.4121952542820734e-06 3.8369318719058192e-07 0
5.4961230212516875e-06 5.6581789629756729e-07 0
5.4770409707165734e-06 3.9449722045175202e-07 0
5.3124741300218148e-06 6.5464265491709748e-07 0
5.3058900732990723e-06 2.7965138021446289e-07 0
6.5919610092270252e-06 7.6072133579341404e-07 0
6.7571836854852282e-06 5.9065015984175684e-07 0
5.4978638543411720e-06 6.0986399323178952e-07 0
5.4540167873779019e-06 4.8832187794454624e-07 0
5.8411155085232620e-06 7.8090384571419254e-07 0
5.8672820543489319e-06 4.7412133439985909e-07 0
5.9449361821041298e-06 8.5077352091872269e-07 0
5.9680975040043520e-06 4.8179328570486364e-07 0
5.7983473188609513e-06 9.8305936873029481e-07 0
5.8020469243352498e-06 3.4361090335523554e-07 0
7.1637508936141196e-06 1.2140100742142215e-06 0
7.5232406821470299e-06 7.1212180057279821e-07 0
6.1202623593846622e-06 1.1038180905925429e-06 0
6.0140943351299772e-06 6.1398020279841764e-07 0
6.5320025705497914e-06 1.4458501150417316e-06 0
6.5037141736573939e-06 6.2237569260390504e-07 0
6.7184056810428985e-06 1.7407945225209557e-06 0
6.6037416672236858e-06 6.5682682748785457e-07 0
6.6644821131198350e-06 2.1732036302530452e-06 0
6.3958801817721019e-06 5.1476110924586644e-07 0
8.1234910466390874e-06 2.8517872079542337e-06 0
8.4251240347929344e-06 9.5698815990027049e-07 0
7.1051535166866012e-06 3.2520009768884907e-06 0
6.4868739756991518e-06 7.0636518048753017e-07 0
7.5173268218066335e-06 4.3880528360068338e-06 0
6.9550715077883520e-06 3.8549421915795301e-07 0
7.7118136778597003e-06 5.8873871933168845e-06 0
7.0277048472739889e-06 -3.2786985457252903e-07 0
8.0766898159502381e-06 8.0773725459699770e-06 0
7.2454892640593409e-06 -1.8328635125824220e-06 0
1.1353678491250255e-05 1.1165860106682493e-05 0
1.1554774295216909e-05 -3.0577768770274054e-06 0
1.2690653384547720e-05 1.3397255152682803e-05 0
1.1810601158286271e-05 -5.1674881554179824e-06 0
1.7394367969477025e-05 1.6674700692841029e-05 0
1.7034547805354308e-05 -7.2210049533502715e-06 0
2.3019452294277698e-05 1.9427621107679478e-05 0
2.2754983541554304e-05 -8.9509874145378302e-06 0
3.1431037720350590e-05 2.2286041199120514e-05 0
3.0758166255213311e-05 -9.8838758888981981e-06 0
3.7699437098167149e-05 2.2354584551594124e-05 0
3.7730629214484186e-05 1.5625145953384707e-05 0
3.6523044456270651e-05 9.0815050421674953e-06 0
3.6251492305586951e-05 3.3040145108241994e-06 0
3.7029749846998432e-05 -3.2963368016090142e-06 0
3.6726913075054015e-05 -1.0639940425024683e-05 0

VECTORS Displacements2 float
-5.6990626024229144e-17 3.1839516634645623e-17 0
-1.3117645206383144e-22 4.6310716653079965e-23 0
1.7478072848625745e-06 7.1345956752763800e-07 0
1.6889303529913733e-06 -6.6758800942126717e-07 0
2.9456723214582180e-06 9.8358002120149182e-07 0
2.8429074543092353e-06 -9.2252079854856767e-07 0
3.6436177458864408e-06 9.9526439283382837e-07 0
3.5617600316181434e-06 -9.2768081609270850e-07 0
4.0422096539106055e-06 8.6739530945093554e-07 0
3.9966181349484312e-06 -8.0686176505204738e-07 0
5.6044312546541391e-06 6.1682734581599644e-07 0
5.3421613209602954e-06 -4.0268882292315016e-07 0
4.5750031739141686e-06 2.3040617166357706e-07 0
4.5156332433062024e-06 -1.6109983137481880e-07 0
4.8151327915979908e-06 1.8367964910935747e-07 0
4.7157361564409771e-06 -3.0620695427935635e-08 0
4.7849875534315540e-06 1.2807899602012238e-07 0
4.6860298553679046e-06 4.8480599401928360e-08 0
4.5425541804672409e-06 1.7118576914424518e-07 0
4.4888625174308355e-06 -4.4088155655990199e-09 0
5.7521735861249834e-06 1.7772784630167551e-07 0
5.4997993328138343e-06 1.7242518038123818e-07 0
4.6026940936379417e-06 3.0512492515996682e-08 0
4.5424582856731035e-06 1.6541950288910751e-07 0
4.8623942053627108e-06 1.4212861959739527e-07 0
4.7706836305481887e-06 1.4854844214986716e-07 0
4.8866776993998358e-06 1.6118851828287846e-07 0
4.7919991803491792e-06 1.5719674771452005e-07 0
4.6662695591431281e-06 2.2944863999756742e-07 0
4.6189214245390473e-06 7.7719217711636533e-08 0
5.8770656711077999e-06 2.5351135404696230e-07 0
5.6685230344347764e-06 2.7393792372030386e-07 0
4.7227767645206219e-06 1.1714788807493583e-07 0
4.6634232537035461e-06 2.3364086033159621e-07 0
4.9933685634079598e-06 2.3848509471887274e-07 0
4.9164408296841492e-06 2.1746909289421275e-07 0
5.0270510725916399e-06 2.6207937251378390e-07 0
4.9476946098136881e-06 2.2661824812228112e-07 0
4.8168551340029871e-06 3.3366272489877450e-07 0
4.7793771553576467e-06 1.3920554638821169e-07 0
6.0472255335033049e-06 3.7090503366614002e-07 0
5.9190546813731629e-06 3.6994244500915914e-07 0
4.9043990000581003e-06 2.3099613051670485e-07 0
4.8487535138040057e-06 3.1032536048972333e-07 0
5.1918822800487886e-06 3.6021363777116006e-07 0
5.1396464652302737e-06 2.9713085925974134e-07 0
5.2408305741255557e-06 3.9061058408425726e-07 0
5.1865542347735480e-06 3.0693683880216830e-07 0
5.0425666914907558e-06 4.6983703321021379e-07 0
5.0191062957312973e-06 2.0768975493660322e-07 0
6.2971389926298658e-06 5.3413030136728822e-07 0
6.2894159849897367e-06 4.7611228954824428e-07 0
5.1693225377451015e-06 3.8649513133972633e-07 0
5.1194721053330489e-06 3.9775009387974000e-07 0
5.4746333559089130e-06 5.3091455108392469e-07 0
5.4575641121338307e-06 3.8558431679975588e-07 0
5.5421345021894015e-06 5.7294031419673745e-07 0
5.5230721519238614e-06 3.9552850618286788e-07 0
5.3600557394528579e-06 6.6245660633677886e-07 0
5.3540950828152767e-06 2.8065055736265692e-07 0
6.6420783044816038e-06 7.6853302474539627e-07 0
6.8072350277262087e-06 5.9271946851521579e-07 0
5.5472783139386563e-06 6.1741120339712535e-07 0
5.5034542709512886e-06 4.9137678369998594e-07 0
5.8899053416062121e-06 7.8913127128054306e-07 0
5.9162509615794602e-06 4.7675318536933658e-07 0
5.9948212102402967e-06 8.6100975894900484e-07 0
6.0180641593423785e-06 4.8353351073379493e-07 0
5.8502621368808325e-06 9.9505046231121779e-07 0
5.8545232132395281e-06 3.4567426592693749e-07 0
7.2191309265753935e-06 1.2277620331928225e-06 0
7.5777554828097336e-06 7.1595640509082231e-07 0
6.1755149595226712e-06 1.1191945818425614e-06 0
6.0674295967860516e-06 6.1977878005202569e-07 0
6.5871172662410848e-06 1.4647607316098071e-06 0
6.5555364303823968e-06 6.2850651085580027e-07 0
6.7747499159081502e-06 1.7652554854256640e-06 0
6.6564815554309787e-06 6.6267956836692411e-07 0
6.7232668754232046e-06 2.2026247043335689e-06 0
6.4499125842131302e-06 5.2160155525312123e-07 0
8.1834683843095306e-06 2.8853290252267040e-06 0
8.4794821704840524e-06 9.6548301965688954e-07 0
7.1603236239898000e-06 3.2909472744238852e-06 0
6.5357510755692526e-06 7.1461814704635153e-07 0
7.5681583107691038e-06 4.4380266105389004e-06 0
6.9995919860959487e-06 3.8727183529147043e-07 0
7.7656293440358671e-06 5.9537792334604666e-06 0
7.0772441359155125e-06 -3.3856538985221070e-07 0
8.1461131873580149e-06 8.1612600965971872e-06 0
7.3142256277440931e-06 -1.8571209323681772e-06 0
1.1451622725231079e-05 1.1264382496796295e-05 0
1.1652590713703553e-05 -3.0917301775100083e-06 0
1.2819850746624204e-05 1.3504084243924560e-05 0
1.1941719156509164e-05 -5.2077065030541937e-06 0
1.7557939103054667e-05 1.6786920428940512e-05 0
1.7199750567782625e-05 -7.2653674809482531e-06 0
2.3217931639399000e-05 1.9543460498333180e-05 0
2.2957076673587473e-05 -8.9988398606068054e-06 0
3.1665259557601597e-05 2.2403911935229200e-05 0
3.0998674781843483e-05 -9.9332686459720329e-06 0
3.7968515771296325e-05 2.2471594722168894e-05 0
3.8000585071150275e-05 1.5708331647379812e-05 0
3.6793712220070435e-05 9.1318815694096295e-06 0
3.6525135022639655e-05 3.3243133272668554e-06 0
3.7306993179626206e-05 -3.3094364743052131e-06 0
3.7005486547117078e-05 -1.0690018783113886e-05 0

VECTORS Displacements3 float
-5.7026147199604642e-17 3.1859366933814750e-17 0
-1.3172135873924577e-22 4.6738571385491524e-23 0
1.7551275006627962e-06 7.1971257694420558e-07 0
1.6958175374783969e-06 -6.7347133983193490e-07 0
2.9591568929986996e-06 9.9313237714807120e-07 0
2.8560335789854626e-06 -9.3198868903952624e-07 0
3.6649004364050674e-06 1.0071308336687967e-06 0
3.5824749748607397e-06 -9.3928122998841454e-07 0
4.0711324843796566e-06 8.7949551248589275e-07 0
4.0254650325038178e-06 -8.1851433350179247e-07 0
5.6413821085720985e-06 6.2746818159944364e-07 0
5.3782879693067755e-06 -4.1250606854126709e-07 0
4.6155773752670332e-06 2.3774913607056347e-07 0
4.5556812364784436e-06 -1.6754175246978502e-07 0
4.8565849528108001e-06 1.8820303677829615e-07 0
4.7567011092278987e-06 -3.4349704342938836e-08 0
4.8262269592027658e-06 1.3145250614256987e-07 0
4.7267058649262975e-06 4.6242052335012411e-08 0
4.5834266217630402e-06 1.7405133132486150e-07 0
4.5293154812043888e-06 -5.7926608630806698e-09 0
5.7945408665712703e-06 1.7990771144244463e-07 0
5.5411298609767498e-06 1.7190266753782181e-07 0
4.6439700278028218e-06 3.1915169819471166e-08 0
4.5831700575672704e-06 1.6590585231102279e-07 0
4.9028908082746418e-06 1.4363198387239403e-07 0
4.8107856019197951e-06 1.4907527964855598e-07 0
4.9274548565553101e-06 1.6373625292488511e-07 0
4.8323089133567854e-06 1.5699078260462446e-07 0
4.7082678807126950e-06 2.3245006995821545e-07 0
4.6605983545730810e-06 7.7473300753456610e-08 0
5.9209712512480415e-06 2.5613668861211489e-07 0
5.7114643584733516e-06 2.7444939405011682e-07 0
4.7653509704257153e-06 1.1929703647097677e-07 0
4.7054743123163762e-06 2.3487171065490758e-07 0
5.0350267877204345e-06 2.4102028381535407e-07 0
4.9578056781517975e-06 2.1832250389431214e-07 0
5.0690663040917193e-06 2.6588812286563053e-07 0
4.9893410231641966e-06 2.2670573597321347e-07 0
4.8601366185996789e-06 3.3799213914599645e-07 0
4.8225609139876872e-06 1.3922617585010665e-07 0
6.0925489744565115e-06 3.7493217040895129e-07 0
5.9635910620038361e-06 3.7076245602237695e-07 0
4.9485080692796213e-06 2.3455513618218227e-07 0
4.8924837055868192e-06 3.1191983881909039e-07 0
5.2351487430220334e-06 3.6417206662145790e-07 0
5.1827767863554726e-06 2.9838449776295440e-07 0
5.2846091198836035e-06 3.9589437294220637e-07 0
5.2301356298383615e-06 3.0738814533715881e-07 0
5.0877264996666862e-06 4.7572060092712619e-07 0
5.0644653353312057e-06 2.0812649344433954e-07 0
6.3445566315397913e-06 5.3980316070137327e-07 0
6.3363196360316429e-06 4.7747511746203353e-07 0
5.2156537281556429e-06 3.9173560280109032e-07 0
5.1656046525776727e-06 4.0000070156381338e-07 0
5.5201894322480374e-06 5.3659435208597747e-07 0
5.5031602228020436e-06 3.8745762381380544e-07 0
5.5883677714096300e-06 5.8008917440250219e-07 0
5.5693382308512590e-06 3.9655774893624027e-07 0
5.4078874455314611e-06 6.7032310020205146e-07 0
5.4025334332257419e-06 2.8164516303801157e-07 0
6.6924702924286835e-06 7.7640532316920386e-07 0
6.8575272579321497e-06 5.9481755043816436e-07 0
5.5969137013569187e-06 6.2499094272235765e-07 0
5.5531075034339562e-06 4.9443929714304694e-07 0
5.9389521772706464e-06 7.9741705271092905e-07 0
5.9654704419731347e-06 4.7936770254913502e-07 0
6.0449668131183156e-06 8.7130591979305737e-07 0
6.0682731254392101e-06 4.8528646831834407e-07 0
5.9024697818691339e-06 1.0071788174076937e-06 0
5.9072310102421333e-06 3.4776526643212818e-07 0
7.2748244316729622e-06 1.2416587857825339e-06 0
7.6325046536007099e-06 7.1988443142582045e-07 0
6.2310150367546302e-06 1.1347108587161044e-06 0
6.1209814187803660e-06 6.2564886346493914e-07 0
6.6424970997429352e-06 1.4838498976121343e-06 0
6.6075490155279813e-06 6.3469539122232290e-07 0
6.8313319903512835e-06 1.7899072134728053e-06 0
6.7094470375645110e-06 6.6865673460490097e-07 0
6.7822778420369494e-06 2.2322117079316568e-06 0
6.5041129941266598e-06 5.2855859062908632e-07 0
8.2436339127448998e-06 2.9190275775921640e-06 0
8.5339421471766854e-06 9.7414022986271751e-07 0
7.2155296787996297e-06 3.3300396889034460e-06 0
6.5846427283132908e-06 7.2297182242579792e-07 0
7.6190747673342639e-06 4.4882600924068947e-06 0
7.0442277326208163e-06 3.8904603412673817e-07 0
7.8196999325216377e-06 6.0204744724749652e-06 0
7.1272017615069400e-06 -3.4930538468813923e-07 0
8.2160449666250862e-06 8.2455034896562967e-06 0
7.3836238846127027e-06 -1.8814216546170056e-06 0
1.1550372970646376e-05 1.1363126789294895e-05 0
1.1751294029456583e-05 -3.1256192465659323e-06 0
1.2949920076322233e-05 1.3611011659322261e-05 0
1.2073735254898096e-05 -5.2477884986933705e-06 0
1.7722429115830801e-05 1.6899241247308611e-05 0
1.7365849692036638e-05 -7.3095191773081731e-06 0
2.3417320287505651e-05 1.9659440498290892e-05 0
2.3160081008641681e-05 -9.0464165780264004e-06 0
3.1900448609303361e-05 2.2521985061832434e-05 0
3.1239986786296173e-05 -9.9824419903780033e-06 0
3.8238813425514475e-05 2.2588871441119584e-05 0
3.8271638273071921e-05 1.5791533542020364e-05 0
3.7065360773411008e-05 9.1822528304036954e-06 0
3.6799671095163901e-05 3.3446248869114854e-06 0
3.7585108344442352e-05 -3.3223699625416350e-06 0
3.7284812451956091e-05 -1.0739836197989015e-05 0

VECTORS Forces1 float
-6.2398714212768625e-01 3.6877991284639056e-01 0
-4.0759930925649668e-01 -2.4391683043877854e-01 0
8.1009381679499857e+00 -4.4826245960219877e+00 0
5.4082627810107899e+00 2.9900371363651046e+00 0
8.8767419083412644e+00 -1.3729213706184105e+00 0
5.9485516510598027e+00 9.1745973080134113e-01 0
5.6573776421241400e+00 2.3134114382425425e-01 0
3.7950706726157741e+00 -1.5302112344994415e-01 0
-8.5274173332670422e-01 -3.0817416436880189e-02 0
-5.7288688225251871e-01 2.0603488800026340e-02 0
2.1819507104985025e+01 1.5536124728417295e-02 0
1.4696924459226874e+01 1.2542469906349904e-02 0
-9.2918879788515785e-01 -1.1225992885818272e-03 0
-6.2882114783294452e-01 -1.4020357714738419e-03 0
6.2432392866605051e+00 1.6785581988646224e-03 0
4.2229853640652388e+00 1.4956775575884445e-02 0
6.2437409954159486e+00 1.5447840166879980e-03 0
4.2234145907607834e+00 1.5033627077566688e-02 0
-9.3040413927184840e-01 -5.0404334905205053e-04 0
-6.2964187380494030e-01 -2.0494966385474797e-03 0
2.2084784201129597e+01 5.1904062599997670e-04 0
1.4987220591519499e+01 9.8884168932042035e-02 0
-9.3456568036299781e-01 -6.9883251197220447e-04 0
-6.3680172483169739e-01 -5.3219004373275189e-03 0
6.2735441748295244e+00 3.0380325954952056e-03 0
4.2743174552713858e+00 3.7936341193094476e-02 0
6.2735466349745872e+00 3.0441291913710306e-03 0
4.2743595097512124e+00 3.7953736203778676e-02 0
-9.3455038132702561e-01 -7.3633394740717088e-04 0
-6.3700195093405443e-01 -5.4691842190268264e-03 0
2.2064393433388236e+01 2.8315494679915936e-02 0
1.5090026846296848e+01 1.6583538409206308e-01 0
-9.3012457812534544e-01 -2.1912255241657201e-03 0
-6.3953672253197213e-01 -8.1462493456574119e-03 0
6.2425473403537879e+00 1.3308123167563269e-02 0
4.2922793410043738e+00 5.6810367957226313e-02 0
6.2425025437656014e+00 1.3315905870864786e-02 0
4.2923046279611681e+00 5.6829776648750857e-02 0
-9.2977550402500375e-01 -2.2907325299424187e-03 0
-6.3958263208157562e-01 -8.2687575822557400e-03 0
2.1884750557098865e+01 7.1462375385984614e-02 0
1.5133339197953404e+01 2.3398169864418528e-01 0
-9.1977278433118004e-01 -4.5038485702710200e-03 0
-6.4065538133283073e-01 -1.0964802084118624e-02 0
6.1722371796132727e+00 2.8825974663975990e-02 0
4.2998697429218975e+00 7.5907676318683046e-02 0
6.1721513602620455e+00 2.8837154494593356e-02 0
4.2998896998200413e+00 7.5929974746440004e-02 0
-9.1913898509177494e-01 -4.6786499393690149e-03 0
-6.4061499468393668e-01 -1.1069060296357330e-02 0
2.1563558102332248e+01 1.4857525020101292e-01 0
1.5143146693395096e+01 2.9657410627656144e-01 0
-9.0256608852651188e-01 -8.7002271011332143e-03 0
-6.4010598294027243e-01 -1.3441446246682870e-02 0
6.0556148097625071e+00 5.6946526303268880e-02 0
4.2962611783178808e+00 9.2858160767458356e-02 0
6.0554880380561720e+00 5.6957949697834451e-02 0
4.2962801509517377e+00 9.2887378602615950e-02 0
-9.0168307604384212e-01 -8.9625210371996073e-03 0
-6.4001286049758221e-01 -1.3531950595398155e-02 0
2.1071873112447477e+01 2.5095815505902713e-01 0
1.5115838011882648e+01 3.6422948219992607e-01 0
-8.8060423125667908e-01 -1.3833571328550611e-02 0
-6.3942696900844898e-01 -1.6408984084720638e-02 0
5.9070960721531494e+00 9.0816781600926752e-02 0
4.2920402410723311e+00 1.1354451235164281e-01 0
5.9068810559896407e+00 9.0843616547772607e-02 0
4.2920348334312663e+00 1.1357959695872179e-01 0
-8.7929139813950052e-01 -1.4417129729527817e-02 0
-6.3917345412969029e-01 -1.6436440543999037e-02 0
2.0455305352707676e+01 4.9672915146431290e-01 0
1.5074513772010182e+01 4.0516198650983715e-01 0
-8.4205617804733690e-01 -2.9455962858399819e-02 0
-6.3171031766493269e-01 -1.7396635070568524e-02 0
5.6435818699439979e+00 1.9545058025926243e-01 0
4.2384486674504682e+00 1.2126623428893388e-01 0
5.6431949595267223e+00 1.9539632824873038e-01 0
4.2383928937941509e+00 1.2133932134279546e-01 0
-8.4170056530313686e-01 -3.0381248237913869e-02 0
-6.3273776994947639e-01 -1.7486422781559065e-02 0
1.9447443301045915e+01 6.9216702824540799e-01 0
1.5008079124848910e+01 5.7704733910025063e-01 0
-8.3368357050904118e-01 -3.8287765594123647e-02 0
-6.6563625593886833e-01 -2.5458204047396217e-02 0
5.5737806454071883e+00 2.4547771077808250e-01 0
4.4588910144364586e+00 1.7834247735007466e-01 0
5.5722871625827590e+00 2.4523862522866441e-01 0
4.4583296363465648e+00 1.7842320407018367e-01 0
-8.3442053964768803e-01 -4.3219173589189953e-02 0
-6.6841456613742878e-01 -2.3576700048595835e-02 0
1.9361726374374335e+01 2.2122689995852101e+00 0
1.6317128762625433e+01 1.1142113509520492e-01 0
-7.4985873664106173e-01 -1.6418057490814916e-01 0
-6.8756105672149170e-01 2.9676553502271288e-02 0
5.1513322570131912e+00 1.0953669452192769e+00 0
4.7965867082889169e+00 -1.2450021946608693e-01 0
4.1484996423668976e+00 7.8488263169429329e-01 0
3.9154529963324172e+00 -1.5185082769225353e-01 0
9.1611381654051858e+00 2.8084827642894101e+00 0
8.0793607451992848e+00 4.4070485753481037e-01 0
9.0935958937421013e-01 3.9691877648611107e-01 0
6.1390935134057072e+00 1.4834125830408076e+00 0
3.1238827616193001e+00 1.3396536541874811e+00 0
2.9974707812385493e+00 1.8428878494017502e+00 0
5.1487062676745259e+00 1.4460150115858104e+00 0
7.3413220368667809e-01 -1.7272066970431313e-01 0

VECTORS Forces2 float
8.3913102599867129e-01 -4.8423457869756398e-01 0
5.1161297798780137e-01 3.1473667744786915e-01 0
-1.0624726599177617e+01 5.8658553545130516e+00 0
-6.6074140625570026e+00 -3.6507987592084818e+00 0
-1.1639766652031609e+01 1.7994032759710796e+00 0
-7.2797613919086874e+00 -1.1178976626407553e+00 0
-7.4233360693233950e+00 -3.0071844874124282e-01 0
-4.6523645963197771e+00 1.8524916914181958e-01 0
1.1186231398365136e+00 3.9206356706009707e-02 0
7.0194926613074504e-01 -2.4708950503990992e-02 0
-2.8684228259933203e+01 -1.0987695506601619e-02 0
-1.8112518713278128e+01 3.0229327110190222e-02 0
1.2232329695671214e+00 7.3075309952769674e-04 0
7.7707088000510727e-01 -2.6168296720665263e-03 0
-8.2197301642783991e+00 -1.5764581872359320e-03 0
-5.2209002831807307e+00 1.4838877407374596e-02 0
-8.2203787902153564e+00 -1.3937408689397468e-03 0
-5.2214224381359191e+00 1.4794550370386777e-02 0
1.2250166185757485e+00 -4.0818266257317309e-05 0
7.7816259254282394e-01 -2.0800350750642374e-03 0
-2.9096981865207287e+01 -1.1860044792621463e-03 0
-1.8513664829213990e+01 8.4320288247612521e-02 0
1.2308808276189951e+00 2.5401793242779886e-04 0
7.8266711195000005e-01 -5.3516069388632216e-03 0
-8.2620442918988939e+00 -3.4828708923100981e-03 0
-5.2536555632316322e+00 3.8041708299730123e-02 0
-8.2620353922477570e+00 -3.4933990474827373e-03 0
-5.2536369928763405e+00 3.8075603490732614e-02 0
1.2307960246547427e+00 2.3845017322058547e-04 0
7.8244018568821927e-01 -5.4851723272564901e-03 0
-2.9023639857542761e+01 -1.6704037978732402e-02 0
-1.8378336932462680e+01 1.8114852297619527e-01 0
1.2216218579714115e+00 4.0057352174209206e-04 0
7.6948626937485409e-01 -9.1861708196183788e-03 0
-8.1973179733416011e+00 -4.7264936841475398e-03 0
-5.1626077986908188e+00 6.4292610110325013e-02 0
-8.1972354517446924e+00 -4.7368651067615135e-03 0
-5.1625030764159954e+00 6.4328151136313766e-02 0
1.2209252264441799e+00 3.5066733426324380e-04 0
7.6850719929225919e-01 -9.3212172694774314e-03 0
-2.8674691835183072e+01 -9.1904435262395636e-03 0
-1.7902046018827839e+01 2.6949903338818815e-01 0
1.2019930200530149e+00 -4.0371496332504149e-04 0
7.4288362313128020e-01 -1.2777823373041092e-02 0
-8.0636935357844290e+00 3.8958399138655525e-04 0
-4.9823664913450507e+00 8.8896821359953138e-02 0
-8.0635505548741087e+00 3.8108281241712065e-04 0
-4.9821869632153071e+00 8.8935535925161430e-02 0
1.2008086543601049e+00 -5.2932512510975413e-04 0
7.4122674793294385e-01 -1.2890917717774829e-02 0
-2.8078763862351604e+01 2.6404574623662011e-02 0
-1.7097838043748926e+01 3.5451670863969004e-01 0
1.1717230673158066e+00 -2.8139181749701008e-03 0
7.0136797945396157e-01 -1.6200089731485443e-02 0
-7.8583293480162677e+00 1.6105574438127788e-02 0
-4.7019913861293121e+00 1.1262784273899426e-01 0
-7.8581180362092491e+00 1.6089744818237221e-02 0
-4.7017270480254609e+00 1.1267886516247923e-01 0
1.1700216451404772e+00 -3.0208333435176485e-03 0
6.9889818426368644e-01 -1.6295043357253968e-02 0
-2.7224537363841833e+01 8.3755328530970952e-02 0
-1.5906293761204255e+01 4.4667842281001818e-01 0
1.1296174266086447e+00 -5.5869100991010924e-03 0
6.4142945805072582e-01 -2.0270461815137131e-02 0
-7.5728542667959191e+00 3.3433123820577747e-02 0
-4.2978992353319549e+00 1.4134875143836761e-01 0
-7.5725298143282833e+00 3.3400451226374903e-02 0
-4.2975066549287746e+00 1.4142136776742831e-01 0
1.1271512921037199e+00 -6.0225431743603283e-03 0
6.3764573922671652e-01 -2.0291155464526287e-02 0
-2.5991906297238767e+01 2.1175386110020630e-01 0
-1.4148881390476319e+01 5.3863051266537054e-01 0
1.0652522791950694e+00 -1.3718926705994360e-02 0
5.4708373093798568e-01 -2.3229431339003421e-02 0
-7.1348882066249617e+00 8.5613864805704695e-02 0
-3.6614322589563399e+00 1.6352907220023061e-01 0
-7.1343802692521949e+00 8.5424411731169742e-02 0
-3.6609934890654996e+00 1.6365498412460364e-01 0
1.0622393886280805e+00 -1.4541854883415143e-02 0
5.4215101508027896e-01 -2.3160489862290683e-02 0
-2.4252403856178613e+01 2.6457333543795586e-01 0
-1.1615314394042947e+01 6.3904939481259360e-01 0
9.8932834408993897e-01 -1.4812603854495232e-02 0
4.4612091770796186e-01 -2.8957349192928885e-02 0
-6.6154875852449875e+00 7.8032699626064697e-02 0
-2.9891302122704868e+00 2.0645573240524320e-01 0
-6.6138965926771451e+00 7.7084495778483350e-02 0
-2.9886016083450770e+00 2.0693778772902080e-01 0
9.8362484893747992e-01 -1.9776806212743161e-02 0
4.3457770741070278e-01 -2.7228281816561888e-02 0
-2.1287682475971824e+01 8.4874910962544015e-01 0
-8.2922440455835140e+00 8.6275787767756273e-01 0
7.4566023680455118e-01 -8.7252180946136529e-02 0
1.4137107824661915e-01 -1.8690022873137580e-02 0
-4.9030909431511125e+00 5.4122346092660467e-01 0
-9.9003174014647355e-01 2.6585105004876142e-01 0
-4.6223843197475851e+00 4.2224300811306605e-02 0
-1.1086239085519800e+00 2.5810431516279847e-01 0
-1.8720852332377342e+00 4.7900297443977671e+00 0
1.1854384908778601e+00 2.3191312416729115e-01 0
-5.1138774697038647e-01 4.6141864754201922e-01 0
-6.6179974134355923e-01 4.8724993123255462e+00 0
6.9406932440879687e-01 3.7255925010205995e+00 0
3.9704320419847433e-01 3.1991919471276282e+00 0
5.5925429078243871e-01 8.1507599096391103e-01 0
2.4825773602312598e-01 -2.2335288239735857e-01 0

