# vtk DataFile Version 2.0

ASCII

DATASET UNSTRUCTURED_GRID

POINTS 106 float 

-5.0000000000000003e-02  0.0000000000000000e+00  0.0000000000000000e+00
5.0000000000000003e-02  0.0000000000000000e+00  0.0000000000000000e+00
-5.0000000000000003e-02  2.0000000000000000e-02  0.0000000000000000e+00
5.0000000000000003e-02  2.0000000000000000e-02  0.0000000000000000e+00
-5.0000000000000003e-02  4.0000000000000001e-02  0.0000000000000000e+00
5.0000000000000003e-02  4.0000000000000001e-02  0.0000000000000000e+00
-5.0000000000000003e-02  5.9999999999999998e-02  0.0000000000000000e+00
5.0000000000000003e-02  5.9999999999999998e-02  0.0000000000000000e+00
-5.0000000000000003e-02  8.0000000000000002e-02  0.0000000000000000e+00
5.0000000000000003e-02  8.0000000000000002e-02  0.0000000000000000e+00
-5.0000000000000003e-02  1.0000000000000001e-01  0.0000000000000000e+00
5.0000000000000003e-02  1.0000000000000001e-01  0.0000000000000000e+00
-5.0000000000000003e-02  1.2000000000000000e-01  0.0000000000000000e+00
5.0000000000000003e-02  1.2000000000000000e-01  0.0000000000000000e+00
-5.0000000000000003e-02  1.4000000000000001e-01  0.0000000000000000e+00
5.0000000000000003e-02  1.4000000000000001e-01  0.0000000000000000e+00
-5.0000000000000003e-02  1.6000000000000000e-01  0.0000000000000000e+00
5.0000000000000003e-02  1.6000000000000000e-01  0.0000000000000000e+00
-5.0000000000000003e-02  1.7999999999999999e-01  0.0000000000000000e+00
5.0000000000000003e-02  1.7999999999999999e-01  0.0000000000000000e+00
-5.0000000000000003e-02  2.0000000000000001e-01  0.0000000000000000e+00
5.0000000000000003e-02  2.0000000000000001e-01  0.0000000000000000e+00
-5.0000000000000003e-02  2.2000000000000000e-01  0.0000000000000000e+00
5.0000000000000003e-02  2.2000000000000000e-01  0.0000000000000000e+00
-5.0000000000000003e-02  2.3999999999999999e-01  0.0000000000000000e+00
5.0000000000000003e-02  2.3999999999999999e-01  0.0000000000000000e+00
-5.0000000000000003e-02  2.6000000000000001e-01  0.0000000000000000e+00
5.0000000000000003e-02  2.6000000000000001e-01  0.0000000000000000e+00
-5.0000000000000003e-02  2.8000000000000003e-01  0.0000000000000000e+00
5.0000000000000003e-02  2.8000000000000003e-01  0.0000000000000000e+00
-5.0000000000000003e-02  2.9999999999999999e-01  0.0000000000000000e+00
5.0000000000000003e-02  2.9999999999999999e-01  0.0000000000000000e+00
-5.0000000000000003e-02  3.2000000000000001e-01  0.0000000000000000e+00
5.0000000000000003e-02  3.2000000000000001e-01  0.0000000000000000e+00
-5.0000000000000003e-02  3.4000000000000002e-01  0.0000000000000000e+00
5.0000000000000003e-02  3.4000000000000002e-01  0.0000000000000000e+00
-5.0000000000000003e-02  3.5999999999999999e-01  0.0000000000000000e+00
5.0000000000000003e-02  3.5999999999999999e-01  0.0000000000000000e+00
-5.0000000000000003e-02  3.8000000000000000e-01  0.0000000000000000e+00
5.0000000000000003e-02  3.8000000000000000e-01  0.0000000000000000e+00
-5.0000000000000003e-02  4.0000000000000002e-01  0.0000000000000000e+00
5.0000000000000003e-02  4.0000000000000002e-01  0.0000000000000000e+00
-5.0000000000000003e-02  4.1999999999999998e-01  0.0000000000000000e+00
5.0000000000000003e-02  4.1999999999999998e-01  0.0000000000000000e+00
-5.0000000000000003e-02  4.4000000000000000e-01  0.0000000000000000e+00
5.0000000000000003e-02  4.4000000000000000e-01  0.0000000000000000e+00
-5.0000000000000003e-02  4.6000000000000002e-01  0.0000000000000000e+00
5.0000000000000003e-02  4.6000000000000002e-01  0.0000000000000000e+00
-5.0000000000000003e-02  4.7999999999999998e-01  0.0000000000000000e+00
5.0000000000000003e-02  4.7999999999999998e-01  0.0000000000000000e+00
-5.0000000000000003e-02  5.0000000000000000e-01  0.0000000000000000e+00
5.0000000000000003e-02  5.0000000000000000e-01  0.0000000000000000e+00
-5.0000000000000003e-02  5.2000000000000002e-01  0.0000000000000000e+00
5.0000000000000003e-02  5.2000000000000002e-01  0.0000000000000000e+00
-5.0000000000000003e-02  5.4000000000000004e-01  0.0000000000000000e+00
5.0000000000000003e-02  5.4000000000000004e-01  0.0000000000000000e+00
-5.0000000000000003e-02  5.6000000000000005e-01  0.0000000000000000e+00
5.0000000000000003e-02  5.6000000000000005e-01  0.0000000000000000e+00
-5.0000000000000003e-02  5.7999999999999996e-01  0.0000000000000000e+00
5.0000000000000003e-02  5.7999999999999996e-01  0.0000000000000000e+00
-5.0000000000000003e-02  5.9999999999999998e-01  0.0000000000000000e+00
5.0000000000000003e-02  5.9999999999999998e-01  0.0000000000000000e+00
-5.0000000000000003e-02  6.2000000000000000e-01  0.0000000000000000e+00
5.0000000000000003e-02  6.2000000000000000e-01  0.0000000000000000e+00
-5.0000000000000003e-02  6.4000000000000001e-01  0.0000000000000000e+00
5.0000000000000003e-02  6.4000000000000001e-01  0.0000000000000000e+00
-5.0000000000000003e-02  6.6000000000000003e-01  0.0000000000000000e+00
5.0000000000000003e-02  6.6000000000000003e-01  0.0000000000000000e+00
-5.0000000000000003e-02  6.8000000000000005e-01  0.0000000000000000e+00
5.0000000000000003e-02  6.8000000000000005e-01  0.0000000000000000e+00
-5.0000000000000003e-02  6.9999999999999996e-01  0.0000000000000000e+00
5.0000000000000003e-02  6.9999999999999996e-01  0.0000000000000000e+00
-5.0000000000000003e-02  7.1999999999999997e-01  0.0000000000000000e+00
5.0000000000000003e-02  7.1999999999999997e-01  0.0000000000000000e+00
-5.0000000000000003e-02  7.3999999999999999e-01  0.0000000000000000e+00
5.0000000000000003e-02  7.3999999999999999e-01  0.0000000000000000e+00
-5.0000000000000003e-02  7.6000000000000001e-01  0.0000000000000000e+00
5.0000000000000003e-02  7.6000000000000001e-01  0.0000000000000000e+00
-5.0000000000000003e-02  7.8000000000000003e-01  0.0000000000000000e+00
5.0000000000000003e-02  7.8000000000000003e-01  0.0000000000000000e+00
-5.0000000000000003e-02  8.0000000000000004e-01  0.0000000000000000e+00
5.0000000000000003e-02  8.0000000000000004e-01  0.0000000000000000e+00
-5.0000000000000003e-02  8.1999999999999995e-01  0.0000000000000000e+00
5.0000000000000003e-02  8.1999999999999995e-01  0.0000000000000000e+00
-5.0000000000000003e-02  8.3999999999999997e-01  0.0000000000000000e+00
5.0000000000000003e-02  8.3999999999999997e-01  0.0000000000000000e+00
-5.0000000000000003e-02  8.5999999999999999e-01  0.0000000000000000e+00
5.0000000000000003e-02  8.5999999999999999e-01  0.0000000000000000e+00
-5.0000000000000003e-02  8.8000000000000000e-01  0.0000000000000000e+00
5.0000000000000003e-02  8.8000000000000000e-01  0.0000000000000000e+00
-5.0000000000000003e-02  9.0000000000000002e-01  0.0000000000000000e+00
5.0000000000000003e-02  9.0000000000000002e-01  0.0000000000000000e+00
-5.0000000000000003e-02  9.2000000000000004e-01  0.0000000000000000e+00
5.0000000000000003e-02  9.2000000000000004e-01  0.0000000000000000e+00
-5.0000000000000003e-02  9.3999999999999995e-01  0.0000000000000000e+00
5.0000000000000003e-02  9.3999999999999995e-01  0.0000000000000000e+00
-5.0000000000000003e-02  9.5999999999999996e-01  0.0000000000000000e+00
5.0000000000000003e-02  9.5999999999999996e-01  0.0000000000000000e+00
-5.0000000000000003e-02  9.7999999999999998e-01  0.0000000000000000e+00
5.0000000000000003e-02  9.7999999999999998e-01  0.0000000000000000e+00
-5.0000000000000003e-02  1.0000000000000000e+00  0.0000000000000000e+00
-3.0000000000000002e-02  1.0000000000000000e+00  0.0000000000000000e+00
-1.0000000000000002e-02  1.0000000000000000e+00  0.0000000000000000e+00
1.0000000000000009e-02  1.0000000000000000e+00  0.0000000000000000e+00
2.9999999999999999e-02  1.0000000000000000e+00  0.0000000000000000e+00
5.0000000000000003e-02  1.0000000000000000e+00  0.0000000000000000e+00

CELLS 0 0


CELL_TYPES 0


POINT_DATA 106

VECTORS VertexNormals float

0.0000000000000000e+00 0.0000000000000000e+00 0
0.0000000000000000e+00 0.0000000000000000e+00 0
0.0000000000000000e+00 0.0000000000000000e+00 0
0.0000000000000000e+00 0.0000000000000000e+00 0
0.0000000000000000e+00 0.0000000000000000e+00 0
0.0000000000000000e+00 0.0000000000000000e+00 0
0.0000000000000000e+00 0.0000000000000000e+00 0
0.0000000000000000e+00 0.0000000000000000e+00 0
0.0000000000000000e+00 0.0000000000000000e+00 0
0.0000000000000000e+00 0.0000000000000000e+00 0
0.0000000000000000e+00 0.0000000000000000e+00 0
0.0000000000000000e+00 0.0000000000000000e+00 0
0.0000000000000000e+00 0.0000000000000000e+00 0
0.0000000000000000e+00 0.0000000000000000e+00 0
0.0000000000000000e+00 0.0000000000000000e+00 0
0.0000000000000000e+00 0.0000000000000000e+00 0
0.0000000000000000e+00 0.0000000000000000e+00 0
0.0000000000000000e+00 0.0000000000000000e+00 0
0.0000000000000000e+00 0.0000000000000000e+00 0
0.0000000000000000e+00 0.0000000000000000e+00 0
0.0000000000000000e+00 0.0000000000000000e+00 0
0.0000000000000000e+00 0.0000000000000000e+00 0
0.0000000000000000e+00 0.0000000000000000e+00 0
0.0000000000000000e+00 0.0000000000000000e+00 0
0.0000000000000000e+00 0.0000000000000000e+00 0
0.0000000000000000e+00 0.0000000000000000e+00 0
0.0000000000000000e+00 0.0000000000000000e+00 0
0.0000000000000000e+00 0.0000000000000000e+00 0
0.0000000000000000e+00 0.0000000000000000e+00 0
0.0000000000000000e+00 0.0000000000000000e+00 0
0.0000000000000000e+00 0.0000000000000000e+00 0
0.0000000000000000e+00 0.0000000000000000e+00 0
0.0000000000000000e+00 0.0000000000000000e+00 0
0.0000000000000000e+00 0.0000000000000000e+00 0
0.0000000000000000e+00 0.0000000000000000e+00 0
0.0000000000000000e+00 0.0000000000000000e+00 0
0.0000000000000000e+00 0.0000000000000000e+00 0
0.0000000000000000e+00 0.0000000000000000e+00 0
0.0000000000000000e+00 0.0000000000000000e+00 0
0.0000000000000000e+00 0.0000000000000000e+00 0
0.0000000000000000e+00 0.0000000000000000e+00 0
0.0000000000000000e+00 0.0000000000000000e+00 0
0.0000000000000000e+00 0.0000000000000000e+00 0
0.0000000000000000e+00 0.0000000000000000e+00 0
0.0000000000000000e+00 0.0000000000000000e+00 0
0.0000000000000000e+00 0.0000000000000000e+00 0
0.0000000000000000e+00 0.0000000000000000e+00 0
0.0000000000000000e+00 0.0000000000000000e+00 0
0.0000000000000000e+00 0.0000000000000000e+00 0
0.0000000000000000e+00 0.0000000000000000e+00 0
0.0000000000000000e+00 0.0000000000000000e+00 0
0.0000000000000000e+00 0.0000000000000000e+00 0
0.0000000000000000e+00 0.0000000000000000e+00 0
0.0000000000000000e+00 0.0000000000000000e+00 0
0.0000000000000000e+00 0.0000000000000000e+00 0
0.0000000000000000e+00 0.0000000000000000e+00 0
0.0000000000000000e+00 0.0000000000000000e+00 0
0.0000000000000000e+00 0.0000000000000000e+00 0
0.0000000000000000e+00 0.0000000000000000e+00 0
0.0000000000000000e+00 0.0000000000000000e+00 0
0.0000000000000000e+00 0.0000000000000000e+00 0
0.0000000000000000e+00 0.0000000000000000e+00 0
0.0000000000000000e+00 0.0000000000000000e+00 0
0.0000000000000000e+00 0.0000000000000000e+00 0
0.0000000000000000e+00 0.0000000000000000e+00 0
0.0000000000000000e+00 0.0000000000000000e+00 0
0.0000000000000000e+00 0.0000000000000000e+00 0
0.0000000000000000e+00 0.0000000000000000e+00 0
0.0000000000000000e+00 0.0000000000000000e+00 0
0.0000000000000000e+00 0.0000000000000000e+00 0
0.0000000000000000e+00 0.0000000000000000e+00 0
0.0000000000000000e+00 0.0000000000000000e+00 0
0.0000000000000000e+00 0.0000000000000000e+00 0
0.0000000000000000e+00 0.0000000000000000e+00 0
0.0000000000000000e+00 0.0000000000000000e+00 0
0.0000000000000000e+00 0.0000000000000000e+00 0
0.0000000000000000e+00 0.0000000000000000e+00 0
0.0000000000000000e+00 0.0000000000000000e+00 0
0.0000000000000000e+00 0.0000000000000000e+00 0
0.0000000000000000e+00 0.0000000000000000e+00 0
0.0000000000000000e+00 0.0000000000000000e+00 0
0.0000000000000000e+00 0.0000000000000000e+00 0
0.0000000000000000e+00 0.0000000000000000e+00 0
0.0000000000000000e+00 0.0000000000000000e+00 0
0.0000000000000000e+00 0.0000000000000000e+00 0
0.0000000000000000e+00 0.0000000000000000e+00 0
0.0000000000000000e+00 0.0000000000000000e+00 0
0.0000000000000000e+00 0.0000000000000000e+00 0
0.0000000000000000e+00 0.0000000000000000e+00 0
0.0000000000000000e+00 0.0000000000000000e+00 0
0.0000000000000000e+00 0.0000000000000000e+00 0
0.0000000000000000e+00 0.0000000000000000e+00 0
0.0000000000000000e+00 0.0000000000000000e+00 0
0.0000000000000000e+00 0.0000000000000000e+00 0
0.0000000000000000e+00 0.0000000000000000e+00 0
0.0000000000000000e+00 0.0000000000000000e+00 0
0.0000000000000000e+00 0.0000000000000000e+00 0
0.0000000000000000e+00 0.0000000000000000e+00 0
0.0000000000000000e+00 0.0000000000000000e+00 0
0.0000000000000000e+00 0.0000000000000000e+00 0
0.0000000000000000e+00 0.0000000000000000e+00 0
0.0000000000000000e+00 0.0000000000000000e+00 0
0.0000000000000000e+00 0.0000000000000000e+00 0
0.0000000000000000e+00 0.0000000000000000e+00 0
0.0000000000000000e+00 0.0000000000000000e+00 0
0.0000000000000000e+00 0.0000000000000000e+00 0

VECTORS Displacements1 float
-5.6287130301733833e-17 3.1446396189224597e-17 0
-1.2038069754253979e-22 3.8213868667160497e-23 0
1.6051148145391196e-06 5.9895891895991825e-07 0
1.5520120371869398e-06 -5.5561586547386123e-07 0
2.6880817020979641e-06 8.0735554752741638e-07 0
2.5914196755033504e-06 -7.5080222364122458e-07 0
3.2427700770973553e-06 7.8139224285585741e-07 0
3.1646389988020881e-06 -7.1820015358941527e-07 0
3.5038769882885024e-06 6.4974354339256852e-07 0
3.4578558482584678e-06 -5.9892420628272184e-07 0
4.9228841249721350e-06 4.3172618588792478e-07 0
4.6742480254273359e-06 -2.3112108893987374e-07 0
3.8296399825420495e-06 1.0759319869536022e-07 0
3.7776241073948541e-06 -5.2443512045908034e-08 0
4.0681581802811478e-06 1.1130072245722542e-07 0
3.9754702975360893e-06 2.5018357311135008e-08 0
4.0480388069334697e-06 7.4303461021255344e-08 0
3.9556458523532616e-06 8.0657002680224432e-08 0
3.8072337426345449e-06 1.2433505258829780e-07 0
3.7594177229957864e-06 1.6417926041587082e-08 0
4.9931831120758091e-06 1.4193871027459187e-07 0
4.7562656436350508e-06 1.7954696580775462e-07 0
3.8531331916806056e-06 6.5758400173148514e-09 0
3.8010121623815532e-06 1.5474855355725241e-07 0
4.1316197896200307e-06 1.1551823681909775e-07 0
4.0445405236966098e-06 1.3639471874607534e-07 0
4.1478805945083640e-06 1.1662443954003749e-07 0
4.0602638312049554e-06 1.5750389971244180e-07 0
3.9071210350409291e-06 1.7802469920742011e-07 0
3.8631717034396356e-06 7.9687369483241580e-08 0
5.0904025794041242e-06 2.0773771666261445e-07 0
4.8957289925590220e-06 2.6435780644380223e-07 0
3.9514460908843211e-06 7.7817232861242913e-08 0
3.8987773119534934e-06 2.1281215937053748e-07 0
4.2402615156293956e-06 1.9120596790239778e-07 0
4.1671325759661635e-06 1.9916522493006355e-07 0
4.2668356695855997e-06 1.9418703072720552e-07 0
4.1927880310687945e-06 2.2261713186614435e-07 0
4.0346692391075474e-06 2.5850515598086050e-07 0
3.9966620418578445e-06 1.3642438135024602e-07 0
5.2346117809819651e-06 2.9963221572004506e-07 0
5.1173085329084938e-06 3.5524406282958752e-07 0
4.1053723898707238e-06 1.6620363096826896e-07 0
4.0541469550595227e-06 2.8240432433629734e-07 0
4.4089782391082254e-06 2.8763137269865352e-07 0
4.3589424946530049e-06 2.7107604339673537e-07 0
4.4485152599877465e-06 2.9638337767294235e-07 0
4.3966671855068167e-06 2.9582378039553930e-07 0
4.2265302728071028e-06 3.6709337850364173e-07 0
4.1974220098580210e-06 1.9729195022342616e-07 0
5.4466521460396307e-06 4.3310903977122498e-07 0
5.4449262014152467e-06 4.5169557412899903e-07 0
4.3296211540254536e-06 2.9136765978345987e-07 0
4.2808652366007112e-06 3.5825171594371598e-07 0
4.6494671066786327e-06 4.2688759677486806e-07 0
4.6328403919449072e-06 3.4775215274942590e-07 0
4.7048252958160512e-06 4.4531715259493462e-07 0
4.6847213813273365e-06 3.7401220422786023e-07 0
4.4961705382711563e-06 5.2418479289889899e-07 0
4.4778476371786423e-06 2.5981399920996559e-07 0
5.7374675185875112e-06 6.2829816733580346e-07 0
5.9015825326167146e-06 5.5552004865672021e-07 0
4.6476789847516397e-06 4.8017780238612116e-07 0
4.6009086857806073e-06 4.3720879525752285e-07 0
5.0012060608277748e-06 6.3918392794135312e-07 0
5.0262981122336400e-06 4.2506555388379370e-07 0
5.0884211667102475e-06 6.7961248444227676e-07 0
5.1070969031018439e-06 4.4980672607970803e-07 0
4.9085042194256263e-06 7.8864637000528064e-07 0
4.8987663947805827e-06 3.0983048071623222e-07 0
6.2200257853666759e-06 9.8924839782412780e-07 0
6.5894953904911010e-06 6.5285499279693786e-07 0
5.1685064462705030e-06 8.4997712979218741e-07 0
5.0896733537272862e-06 5.2418350459017230e-07 0
5.5802556347351318e-06 1.1329661613379962e-06 0
5.6008684655893396e-06 5.2150741962554593e-07 0
5.7448011098300103e-06 1.3374615974154866e-06 0
5.6945895002613479e-06 5.6635159046580950e-07 0
5.6471303372197127e-06 1.6787438170345843e-06 0
5.4490504561977025e-06 4.1035446173518728e-07 0
7.0773182221349029e-06 2.2761904489825688e-06 0
7.4748630409166997e-06 8.2588666905391114e-07 0
6.1173009177055866e-06 2.5788970794369132e-06 0
5.6089003621047865e-06 5.7724743605067351e-07 0
6.6077689998339501e-06 3.5323661204099235e-06 0
6.1671275950866761e-06 3.5310946497831679e-07 0
6.7730607978045123e-06 4.7485428808757339e-06 0
6.1916322243444630e-06 -1.4665843766138271e-07 0
6.9027395836635395e-06 6.6272860045328647e-06 0
6.1127640884612868e-06 -1.4105744503037362e-06 0
9.7248879925969011e-06 9.4332468356705972e-06 0
9.9393725113195601e-06 -2.4421763114432289e-06 0
1.0508255437088915e-05 1.1497851020195996e-05 0
9.6064008387958433e-06 -4.4212720018701543e-06 0
1.4596812800551169e-05 1.4665477041659685e-05 0
1.4209481738672412e-05 -6.3889599956796736e-06 0
1.9594922652766945e-05 1.7360396419630923e-05 0
1.9267329698549576e-05 -8.0485965673889790e-06 0
2.7370575826887932e-05 2.0194820736030082e-05 0
2.6566340323382417e-05 -8.9606337552410088e-06 0
3.3047635745182136e-05 2.0276839503589102e-05 0
3.3058353683613525e-05 1.4134557450384727e-05 0
3.1818959646520885e-05 8.1682951611424641e-06 0
3.1480653195266719e-05 2.9425170543613701e-06 0
3.2190841220296243e-05 -3.0325686149671001e-06 0
3.1850274481767259e-05 -9.7019661213473799e-06 0

VECTORS Displacements2 float
-5.6318254947388526e-17 3.1463842122983432e-17 0
-1.2095243841220979e-22 3.8641111478021298e-23 0
1.6127399024997267e-06 6.0479475324590885e-07 0
1.5592510786716925e-06 -5.6154677468960139e-07 0
2.7018258477056051e-06 8.1643780436756629e-07 0
2.6047548649080932e-06 -7.5959625392353650e-07 0
3.2635914795116186e-06 7.9204688027852075e-07 0
3.1853899472055191e-06 -7.2862820615447629e-07 0
3.5316394568292518e-06 6.6048069106988711e-07 0
3.4856350872215055e-06 -6.0918379026961524e-07 0
4.9576556279411858e-06 4.4070745392665601e-07 0
4.7082687758249857e-06 -2.3949079399343121e-07 0
3.8674313548393839e-06 1.1324562302584213e-07 0
3.8150809085030629e-06 -5.7570978793171518e-08 0
4.1055906772531198e-06 1.1449363421563130e-07 0
4.0126000196616044e-06 2.2751741640238563e-08 0
4.0845961731997238e-06 7.6622761593273977e-08 0
3.9919657124350033e-06 7.9401341994033309e-08 0
3.8440310547280157e-06 1.2633629359429489e-07 0
3.7959818196460824e-06 1.5623741723672007e-08 0
5.0309676634457764e-06 1.4362041715674156e-07 0
4.7932594844149821e-06 1.7935922879383263e-07 0
3.8907876567079927e-06 7.7375443702455787e-09 0
3.8383689955895907e-06 1.5523238815414573e-07 0
4.1683758163344629e-06 1.1684620358585223e-07 0
4.0810760371973570e-06 1.3706261271227655e-07 0
4.1850383515471363e-06 1.1872515462215997e-07 0
4.0971094737961357e-06 1.5762863458941000e-07 0
3.9452373590331542e-06 1.8035110236873051e-07 0
3.9011638306272672e-06 7.9767207425930715e-08 0
5.1294708332091190e-06 2.1002875871345006e-07 0
4.9340947951253996e-06 2.6490226551550076e-07 0
3.9901131738895247e-06 7.9846995461532115e-08 0
3.9372191704941176e-06 2.1366433746742680e-07 0
4.2781751748815173e-06 1.9364685164891528e-07 0
4.2048398769631063e-06 2.0014771315548964e-07 0
4.3050685032807527e-06 1.9743735903354960e-07 0
4.2307936540773124e-06 2.2296800975177654e-07 0
4.0739169887085552e-06 2.6202668831353743e-07 0
4.0359658167329423e-06 1.3672025793976707e-07 0
5.2749896374573409e-06 3.0319440898479084e-07 0
5.1571453015487495e-06 3.5605859016995573e-07 0
4.1454635109862228e-06 1.6949753894101741e-07 0
4.0941250088643289e-06 2.8362880002505518e-07 0
4.4484396459102709e-06 2.9132949495387876e-07 0
4.3982115408205119e-06 2.7247760907102591e-07 0
4.4883739119886450e-06 3.0093974268188573e-07 0
4.4364238684530146e-06 2.9655730716781155e-07 0
4.2675008990590198e-06 3.7197241160623051e-07 0
4.2386762215537721e-06 1.9798871362248187e-07 0
5.4889399761900041e-06 4.3816419346288462e-07 0
5.4868951269511784e-06 4.5299798017973936e-07 0
4.3717877008248272e-06 2.9618660664577107e-07 0
4.3230824754281567e-06 3.6004352112355273e-07 0
4.6911167965208323e-06 4.3217394590357208e-07 0
4.6743225817051134e-06 3.4976945403723903e-07 0
4.7469800684542728e-06 4.5154485625908749e-07 0
4.7269079201348234e-06 3.7527621989566821e-07 0
4.5395597982657462e-06 5.3082309213348305e-07 0
4.5218108275568226e-06 2.6106034939578629e-07 0
5.7824966132706537e-06 6.3531903171189221e-07 0
5.9465942770900907e-06 5.5744714982759310e-07 0
4.6928370357266196e-06 4.8707376403756430e-07 0
4.6463534227576929e-06 4.3973420781461106e-07 0
5.0461159988665813e-06 6.4677057985565616e-07 0
5.0710691191301330e-06 4.2779810745827349e-07 0
5.1340851508266239e-06 6.8837353867791666e-07 0
5.1529477384158504e-06 4.5164645238421927e-07 0
4.9558295717485847e-06 7.9841561200311511e-07 0
4.9467410514839586e-06 3.1167824976832479e-07 0
6.2696971715820864e-06 1.0006843949957418e-06 0
6.6387124038643699e-06 6.5581913778905820e-07 0
5.2191156669555408e-06 8.6297310263228699e-07 0
5.1392647735150927e-06 5.2838371952175262e-07 0
5.6311721839031599e-06 1.1490042958046774e-06 0
5.6494348817407416e-06 5.2659346522443734e-07 0
5.7968743254664003e-06 1.3578760029205492e-06 0
5.7430994517381807e-06 5.7081157828096842e-07 0
5.7015120900760144e-06 1.7042162647161241e-06 0
5.5002296879913192e-06 4.1536056500317459e-07 0
7.1337413568446736e-06 2.3067421801882255e-06 0
7.5257335494391843e-06 8.3225644063284523e-07 0
6.1717753676562363e-06 2.6146984370150093e-06 0
5.6575131318936409e-06 5.8334785376549124e-07 0
6.6582915765723378e-06 3.5777581012493180e-06 0
6.2103549320047022e-06 3.5494800381704723e-07 0
6.8240231004097596e-06 4.8087827259483418e-06 0
6.2359125397920848e-06 -1.5603159213668015e-07 0
6.9643476509147213e-06 6.7047667258366746e-06 0
6.1707900345691506e-06 -1.4331454841524144e-06 0
9.8089992334346936e-06 9.5271282483111192e-06 0
1.0021925542282734e-05 -2.4764087522100325e-06 0
1.0622581918771917e-05 1.1602054214347360e-05 0
9.7209895629374586e-06 -4.4639411007195377e-06 0
1.4745088170441753e-05 1.4776521127055483e-05 0
1.4359068143126320e-05 -6.4365604938176588e-06 0
1.9778124205847738e-05 1.7474553661231807e-05 0
1.9453839152987005e-05 -8.1003937256926387e-06 0
2.7588652327606632e-05 2.0309714436439338e-05 0
2.6792236505260150e-05 -9.0133993981454073e-06 0
3.3297265640175394e-05 2.0391341603115205e-05 0
3.3308666642441926e-05 1.4216822407478001e-05 0
3.2071892127804775e-05 8.2194314212461130e-06 0
3.1737906328340378e-05 2.9622465580050478e-06 0
3.2452112207839219e-05 -3.0485329152864705e-06 0
3.2113745506714510e-05 -9.7553705837835041e-06 0

VECTORS Displacements3 float
-5.6350046780760024e-17 3.1481655325101905e-17 0
-1.2152476540289188e-22 3.9068336676874869e-23 0
1.6203543311903412e-06 6.1063495742238388e-07 0
1.5664982481280635e-06 -5.6747770985588603e-07 0
2.7155263682285321e-06 8.2554749899795792e-07 0
2.6180656898351952e-06 -7.6839972058595576e-07 0
3.2844463161713066e-06 8.0277111849801515e-07 0
3.2061870098044718e-06 -7.3912848388035197e-07 0
3.5594703720733091e-06 6.7131038092492609e-07 0
3.5134942193496503e-06 -6.1951967415266907e-07 0
4.9925518583015436e-06 4.4977282883680865e-07 0
4.7424285279260564e-06 -2.4792905896263880e-07 0
3.9054004466303179e-06 1.1898745567736085e-07 0
3.8527265067787060e-06 -6.2766244683682954e-08 0
4.1432204827362639e-06 1.1775450756776781e-07 0
4.0499357544849525e-06 2.0425769724242505e-08 0
4.1213961687126255e-06 7.8998203406577124e-08 0
4.0285310702072130e-06 7.8097824070610849e-08 0
3.8810399558604516e-06 1.2840023347742439e-07 0
3.8327598383865157e-06 1.4788969705855773e-08 0
5.0689782681569226e-06 1.4532012175792299e-07 0
4.8304929390055003e-06 1.7915282755570216e-07 0
3.9286522407128864e-06 8.9059673519819702e-09 0
3.8759319040682312e-06 1.5573276148984984e-07 0
4.2052998703484346e-06 1.1818374852246540e-07 0
4.1177917603444201e-06 1.3773467451281772e-07 0
4.2223871895991907e-06 1.2085481997092606e-07 0
4.1341483718842856e-06 1.5774047527997746e-07 0
3.9835597376390866e-06 1.8272956958008461e-07 0
3.9393664458388236e-06 7.9818759256620047e-08 0
5.1687903203106637e-06 2.1233120604076315e-07 0
4.9727266286432862e-06 2.6544457619014376e-07 0
4.0290030365860726e-06 8.1873924036957171e-08 0
3.9758818274244513e-06 2.1454898061251412e-07 0
4.3162678971949298e-06 1.9609795699108595e-07 0
4.2427406953717983e-06 2.0113737035620518e-07 0
4.3434935621446785e-06 2.0072806765245196e-07 0
4.2689958494698278e-06 2.2330146697955950e-07 0
4.1133794405688727e-06 2.6560694540368446e-07 0
4.0754946712547367e-06 1.3699324820885907e-07 0
5.3156314586079324e-06 3.0677637817262668e-07 0
5.1972590526948392e-06 3.5686887801304679e-07 0
4.1857806621678838e-06 1.7279920844788908e-07 0
4.1343241646200937e-06 2.8488634864665157e-07 0
4.4880815549799291e-06 2.9504666069431618e-07 0
4.4376814360253846e-06 2.7388549496080460e-07 0
4.5284311710737294e-06 3.0554525089809559e-07 0
4.4763888424455563e-06 2.9727321859458609e-07 0
4.3086918763177904e-06 3.7692048349998028e-07 0
4.2801666498972719e-06 1.9866011215695051e-07 0
5.5315018590603625e-06 4.4324858052456685e-07 0
5.5291559688169377e-06 4.5429956474343366e-07 0
4.4141890849169350e-06 3.0102105667732571e-07 0
4.3655300783450465e-06 3.6187258311635030e-07 0
4.7329500339573189e-06 4.3748726631812923e-07 0
4.7160143832368393e-06 3.5179404435781171e-07 0
4.7893436813120482e-06 4.5783257967046634e-07 0
4.7693179092390817e-06 3.7652413798247316e-07 0
4.5831757142056073e-06 5.3754435266226276e-07 0
4.5660253731211863e-06 2.6228142796932373e-07 0
5.8278179593076152e-06 6.4238011085557235e-07 0
5.9919233000237224e-06 5.5937827866132317e-07 0
4.7382454631844042e-06 4.9400070770851222e-07 0
4.6920424812378489e-06 4.4230435600142557e-07 0
5.0912155452843367e-06 6.5439781745825515e-07 0
5.1160657671593168e-06 4.3053953060849918e-07 0
5.1799618157193364e-06 6.9722323365783762e-07 0
5.1990462043037375e-06 4.5347900346584847e-07 0
5.0034026489032587e-06 8.0830471157839358e-07 0
4.9949949708503556e-06 3.1350781323829622e-07 0
6.3197077409393387e-06 1.0122412692923635e-06 0
6.6882549136462313e-06 6.5882132305645019e-07 0
5.2700072303359076e-06 8.7609327310728871e-07 0
5.1890730223908707e-06 5.3267224916597507e-07 0
5.6823141842734091e-06 1.1652061278602060e-06 0
5.6982149590699798e-06 5.3174698935095774e-07 0
5.8491746305322513e-06 1.3785306920197210e-06 0
5.7918282889691847e-06 5.7532146650037197e-07 0
5.7561534418406269e-06 1.7299426360918771e-06 0
5.5516188332523925e-06 4.2043296738231767e-07 0
7.1903678084221120e-06 2.3374724674544042e-06 0
7.5768664765375697e-06 8.3872889429550651e-07 0
6.2263230263049779e-06 2.6506998945549782e-06 0
5.7061571915460363e-06 5.8957858336318302e-07 0
6.7087973584331777e-06 3.6234102616875457e-06 0
6.2536433319614047e-06 3.5677812172495428e-07 0
6.8751140099325324e-06 4.8694063943986641e-06 0
6.2804001767544241e-06 -1.6550521871832425e-07 0
7.0263810246523348e-06 6.7826318857391087e-06 0
6.2293722092297995e-06 -1.4558300266013140e-06 0
9.8938125496042171e-06 9.6213300639171647e-06 0
1.0105341606420393e-05 -2.5106479111428517e-06 0
1.0737696792224921e-05 1.1706407237711454e-05 0
9.8365146144682725e-06 -4.5064560786495575e-06 0
1.4894212531644595e-05 1.4887678852236397e-05 0
1.4509552911829788e-05 -6.4840265535930215e-06 0
1.9962125472723523e-05 1.7588800850608907e-05 0
1.9641198606908213e-05 -8.1520313623157875e-06 0
2.7807607195685052e-05 2.0424734686469610e-05 0
2.7019000699215713e-05 -9.0660076297005290e-06 0
3.3547882919796745e-05 2.0505953627994907e-05 0
3.3560049578733402e-05 1.4299160697799255e-05 0
3.2325837628528136e-05 8.2705203982122363e-06 0
3.1996106932080903e-05 2.9820335940807600e-06 0
3.2714286058711954e-05 -3.0643586227975907e-06 0
3.2378164156213478e-05 -9.8086722735079465e-06 0

VECTORS Forces1 float
-5.7564359317428060e-01 3.4064615874161180e-01 0
-3.8167387619368681e-01 -2.2793145440478071e-01 0
7.4839627420027588e+00 -4.1414996244456006e+00 0
5.0660264479067454e+00 2.8008057653958547e+00 0
8.2016719086089029e+00 -1.2688157243916369e+00 0
5.5721182416103581e+00 8.6005052779011604e-01 0
5.2272225698076120e+00 2.1335896191730275e-01 0
3.5548618006551975e+00 -1.4284047465875199e-01 0
-7.8789595744619267e-01 -2.8448968398506625e-02 0
-5.3660832735083053e-01 1.9229982509324891e-02 0
2.0155797649269999e+01 1.3435108820985560e-02 0
1.3760394723165888e+01 1.4504989374239424e-02 0
-8.5763415209574290e-01 -1.0677290054958012e-03 0
-5.8803238244167055e-01 -1.4207147779793487e-03 0
5.7623258655351979e+00 1.6038210602577010e-03 0
3.9488782605067572e+00 1.4825369236081248e-02 0
5.7627853854994973e+00 1.4808269234911403e-03 0
3.9492744478317690e+00 1.4899023988321795e-02 0
-8.5870593698628539e-01 -4.9325072452772783e-04 0
-5.8876011617682467e-01 -2.0299667165136165e-03 0
2.0365675499775332e+01 -3.8527154593541007e-04 0
1.3998387425145360e+01 9.7935225029238696e-02 0
-8.6157055863046994e-01 -5.8805036260245035e-04 0
-5.9467560928477325e-01 -5.2958882884442419e-03 0
5.7834296195458830e+00 2.2672600570523191e-03 0
3.9913795062201114e+00 3.7766659322015325e-02 0
5.7834290544241584e+00 2.2724425276778228e-03 0
3.9914178225155585e+00 3.7784367561536719e-02 0
-8.6152964389296038e-01 -6.2186344056888254e-04 0
-5.9485141474526215e-01 -5.4406815814024168e-03 0
2.0339820215708144e+01 2.4641334096845061e-02 0
1.4095232323335878e+01 1.6457832382563048e-01 0
-8.5736706942257868e-01 -1.9862186202059791e-03 0
-5.9757109767050776e-01 -8.0766667092719742e-03 0
5.7542861112060724e+00 1.1894470230360322e-02 0
4.0106297055348987e+00 5.6357237504661595e-02 0
5.7542446958590840e+00 1.1901239497626195e-02 0
4.0106564070948458e+00 5.6376862621084517e-02 0
-8.5704298285403113e-01 -2.0808806790395366e-03 0
-5.9763952118581765e-01 -8.1965955469290586e-03 0
2.0172117372303898e+01 6.4775988873973303e-02 0
1.4147320812244088e+01 2.3226277142497495e-01 0
-8.4782291298188639e-01 -4.1505038557456348e-03 0
-5.9932754034746127e-01 -1.0875128098612208e-02 0
5.6894966212551541e+00 2.6397123810669741e-02 0
4.0225392656813996e+00 7.5335724784093519e-02 0
5.6894181528959455e+00 2.6407015922449383e-02 0
4.0225634586639298e+00 7.5358386116639656e-02 0
-8.4724313698235121e-01 -4.3191948482263270e-03 0
-5.9933839213125228e-01 -1.0977191142361137e-02 0
1.9879011791596948e+01 1.3807070859990769e-01 0
1.4180385075984553e+01 2.9427343419456720e-01 0
-8.3215198713181238e-01 -8.1882050324146877e-03 0
-6.0012348399535753e-01 -1.3332926378443754e-02 0
5.5833321442952419e+00 5.3436427176790063e-02 0
4.0280254086245701e+00 9.2175575618234779e-02 0
5.5832167598376703e+00 5.3445953016488384e-02 0
4.0280519654821330e+00 9.2205173177351302e-02 0
-8.3134950864296453e-01 -8.4416543112855597e-03 0
-6.0011725590917542e-01 -1.3418953097141972e-02 0
1.9431378246352374e+01 2.3609035559592781e-01 0
1.4193925703159087e+01 3.6136963546320433e-01 0
-8.1220115391807335e-01 -1.3033859727020406e-02 0
-6.0151076279521809e-01 -1.6211384867759148e-02 0
5.4484583409021408e+00 8.5330782919158341e-02 0
4.0377061492380335e+00 1.1227751965889546e-01 0
5.4482658427619768e+00 8.5353250820349738e-02 0
4.0377153901666762e+00 1.1231349095712691e-01 0
-8.1103814072166247e-01 -1.3595438472445365e-02 0
-6.0141934540430897e-01 -1.6230883590261615e-02 0
1.8880341979017956e+01 4.6805055039021415e-01 0
1.4219373824280639e+01 3.9973933502071263e-01 0
-7.7833851683825894e-01 -2.7870773910642039e-02 0
-5.9812745875540108e-01 -1.7114856600438599e-02 0
5.2170384696833318e+00 1.8456191470659244e-01 0
4.0134563951013300e+00 1.1948197400163023e-01 0
5.2166855789453672e+00 1.8450330808017423e-01 0
4.0134103314986422e+00 1.1955536606304358e-01 0
-7.7808697743870947e-01 -2.8791914121589008e-02 0
-5.9927048466026567e-01 -1.7178378678922430e-02 0
1.7998610813668435e+01 6.5694124376794683e-01 0
1.4253732564144821e+01 5.6146767282762589e-01 0
-7.7165796113553742e-01 -3.6956613719870711e-02 0
-6.3233753072679943e-01 -2.4463034969907621e-02 0
5.1591782652720770e+00 2.3627333672626710e-01 0
4.2352044935229545e+00 1.7181972370013607e-01 0
5.1577942016342542e+00 2.3600979619736209e-01 0
4.2346553089856416e+00 1.7191467516213102e-01 0
-7.7241072583107684e-01 -4.1890518435647249e-02 0
-6.3540598560442441e-01 -2.2544676803975525e-02 0
1.7930822856562941e+01 2.1471551933166038e+00 0
1.5546346238912303e+01 1.0587597314468329e-01 0
-6.9584663519182821e-01 -1.6047812259178509e-01 0
-6.6339360870502662e-01 2.9821923585237300e-02 0
4.7899086141848164e+00 1.0684689239229219e+00 0
4.6247690807475292e+00 -1.2340885924683480e-01 0
3.8353061298841191e+00 7.5308916434836437e-01 0
3.7637100109462174e+00 -1.4702949064183163e-01 0
8.7470117839726669e+00 2.8617512401350700e+00 0
7.8957359396001241e+00 4.0584873136012561e-01 0
8.5287083593016055e-01 3.9785267352575404e-01 0
5.8849372966939528e+00 1.5970474070020779e+00 0
3.0462184274015964e+00 1.4305314293812701e+00 0
2.9147740287129627e+00 1.8988693480900543e+00 0
5.0261803559047378e+00 1.4152326738561716e+00 0
7.2665752786409554e-01 -1.7825044521374456e-01 0

VECTORS Forces2 float
7.5975974349890563e-01 -4.3810207381446398e-01 0
4.6722449097403485e-01 2.8732379889420284e-01 0
-9.6110049798072215e+00 5.3052836377584383e+00 0
-6.0250396054537951e+00 -3.3283880934443340e+00 0
-1.0530739742836390e+01 1.6279471041460272e+00 0
-6.6394375993160164e+00 -1.0195766257534029e+00 0
-6.7167154242597755e+00 -2.7149518306578441e-01 0
-4.2437715697737701e+00 1.6843148629291688e-01 0
1.0121108989432062e+00 3.5369820191687641e-02 0
6.4024122044484832e-01 -2.2447869317705905e-02 0
-2.5953214725024750e+01 -9.8308111250032144e-03 0
-1.6520086655869207e+01 2.9355558485443599e-02 0
1.1058799805280892e+00 7.3514662557713577e-04 0
7.0774705296666718e-01 -2.6306076506608278e-03 0
-7.4309961618436002e+00 -2.0723466022839611e-03 0
-4.7550703177840914e+00 1.5343958771694628e-02 0
-7.4315764742828900e+00 -1.9076703973957914e-03 0
-4.7555366861388730e+00 1.5304630205137879e-02 0
1.1074363505771756e+00 3.8851376656906366e-05 0
7.0867964267047934e-01 -2.1538313772907821e-03 0
-2.6279819092475599e+01 -2.4045414610964380e-03 0
-1.6833303518954430e+01 8.4850082006013336e-02 0
1.1113309703131826e+00 2.4282257559102305e-04 0
7.1102455902517081e-01 -5.2807922691114019e-03 0
-7.4593252428241748e+00 -3.3546929765736048e-03 0
-4.7725088333933909e+00 3.7515318143258897e-02 0
-7.4593124222172440e+00 -3.3643767159611082e-03 0
-4.7724834936415013e+00 3.7547710302583304e-02 0
1.1112117647633493e+00 2.2683578428452252e-04 0
7.1075275156751938e-01 -5.4114251625678239e-03 0
-2.6200765497413549e+01 -1.6423733770674961e-02 0
-1.6684994507685417e+01 1.7855201104780974e-01 0
1.1026321695918277e+00 3.9348753770449208e-04 0
6.9801905196984015e-01 -9.0378983723377361e-03 0
-7.3987808917187952e+00 -4.6218789035690688e-03 0
-4.6829946098821429e+00 6.3228660610373397e-02 0
-7.3987051129416548e+00 -4.6315925662275600e-03 0
-4.6828920740370439e+00 6.3262916288496313e-02 0
1.1019870645838257e+00 3.4449698524144346e-04 0
6.9707513298265933e-01 -9.1703162019981643e-03 0
-2.5876852267164818e+01 -8.4051239813996460e-03 0
-1.6222658718463766e+01 2.6425047074766539e-01 0
1.0845978755897883e+00 -4.4423573936513657e-04 0
6.7247772306079967e-01 -1.2510535233302745e-02 0
-7.2760310088934474e+00 7.4486284339992932e-04 0
-4.5099656622644559e+00 8.7001627772548343e-02 0
-7.2759014941440414e+00 7.3722250725791411e-04 0
-4.5097935047080870e+00 8.7038693077511317e-02 0
1.0835165000229523e+00 -5.6829268091515301e-04 0
6.7090607798354018e-01 -1.2619600281083380e-02 0
-2.5334012023057578e+01 2.7766336965450174e-02 0
-1.5457486451331548e+01 3.4616148715040146e-01 0
1.0571580588112792e+00 -2.8469036021461524e-03 0
6.3322431293859505e-01 -1.5780413398793425e-02 0
-7.0898991473369595e+00 1.6432937782326427e-02 0
-4.2449033334139070e+00 1.0967119506936486e-01 0
-7.0897081662480836e+00 1.6418564123856845e-02 0
-4.2446524977339006e+00 1.0972022145350638e-01 0
1.0556087297392318e+00 -3.0518602412845657e-03 0
6.3090064232773879e-01 -1.5872929353543817e-02 0
-2.4560359241457444e+01 8.5042390747887914e-02 0
-1.4335258503813895e+01 4.3455126612854988e-01 0
1.0188206510547977e+00 -5.6918508171195257e-03 0
5.7682357523224848e-01 -1.9749759092162502e-02 0
-6.8299521276933159e+00 3.4309333235839880e-02 0
-3.8646562473813155e+00 1.3767070593510680e-01 0
-6.8296651468652323e+00 3.4281020098986432e-02 0
-3.8642893874427293e+00 1.3773983795882830e-01 0
1.0166203395299360e+00 -6.1328140010332250e-03 0
5.7330713060566985e-01 -1.9767809053306069e-02 0
-2.3446765322141214e+01 2.2085105341323871e-01 0
-1.2690799381640131e+01 5.2221159517429738e-01 0
9.6236255535758031e-01 -1.4296620547806452e-02 0
4.8963001795029037e-01 -2.2421281240996745e-02 0
-6.4460020099455591e+00 8.9852883923386487e-02 0
-3.2766569373658703e+00 1.5780229418692879e-01 0
-6.4455478010286820e+00 8.9670339107273997e-02 0
-3.2762372322439490e+00 1.5792660093521962e-01 0
9.5955564150151673e-01 -1.5083710830920558e-02 0
4.8488517140877330e-01 -2.2374377767995304e-02 0
-2.1915990299347737e+01 2.6950377663730252e-01 0
-1.0324185922980567e+01 6.3081685096513063e-01 0
8.8992323298428100e-01 -1.4421711050502026e-02 0
3.8930696738776832e-01 -2.8988209864677011e-02 0
-5.9507207212042781e+00 7.6122655242293502e-02 0
-2.6078132111480397e+00 2.0640472852912323e-01 0
-5.9492894818657271e+00 7.5223411865897233e-02 0
-2.6073230149601745e+00 2.0686336580495732e-01 0
8.8436784842075933e-01 -1.9244800611670453e-02 0
3.7822476927640469e-01 -2.7273085547066277e-02 0
-1.9012682219517863e+01 8.6050412863648806e-01 0
-6.9866619473657572e+00 8.1975245789422979e-01 0
6.6081279949140526e-01 -8.7621874031161076e-02 0
1.0065929834155396e-01 -1.5979726088460926e-02 0
-4.3340877278286305e+00 5.4574066810310851e-01 0
-7.0436290500101983e-01 2.4138759823315742e-01 0
-4.1216395256262279e+00 6.7557669648356661e-02 0
-8.5691634604690292e-01 2.3570099966915534e-01 0
-1.2935162429117910e+00 4.5823068624071688e+00 0
1.4922019625311562e+00 2.0899298733554689e-01 0
-4.3144808831218234e-01 4.4852738540870257e-01 0
-3.2060594753977878e-01 4.5920805479252964e+00 0
7.9165900577905379e-01 3.5046204525209737e+00 0
5.0948436119232743e-01 3.0374614966621043e+00 0
7.6511703091590166e-01 8.0121653034147300e-01 0
2.6588891088839783e-01 -2.1841472041447491e-01 0

