# vtk DataFile Version 2.0

ASCII

DATASET UNSTRUCTURED_GRID

POINTS 106 float 

-5.0000000000000003e-02  0.0000000000000000e+00  0.0000000000000000e+00
5.0000000000000003e-02  0.0000000000000000e+00  0.0000000000000000e+00
-5.0000000000000003e-02  2.0000000000000000e-02  0.0000000000000000e+00
5.0000000000000003e-02  2.0000000000000000e-02  0.0000000000000000e+00
-5.0000000000000003e-02  4.0000000000000001e-02  0.0000000000000000e+00
5.0000000000000003e-02  4.0000000000000001e-02  0.0000000000000000e+00
-5.0000000000000003e-02  5.9999999999999998e-02  0.0000000000000000e+00
5.0000000000000003e-02  5.9999999999999998e-02  0.0000000000000000e+00
-5.0000000000000003e-02  8.0000000000000002e-02  0.0000000000000000e+00
5.0000000000000003e-02  8.0000000000000002e-02  0.0000000000000000e+00
-5.0000000000000003e-02  1.0000000000000001e-01  0.0000000000000000e+00
5.0000000000000003e-02  1.0000000000000001e-01  0.0000000000000000e+00
-5.0000000000000003e-02  1.2000000000000000e-01  0.0000000000000000e+00
5.0000000000000003e-02  1.2000000000000000e-01  0.0000000000000000e+00
-5.0000000000000003e-02  1.4000000000000001e-01  0.0000000000000000e+00
5.0000000000000003e-02  1.4000000000000001e-01  0.0000000000000000e+00
-5.0000000000000003e-02  1.6000000000000000e-01  0.0000000000000000e+00
5.0000000000000003e-02  1.6000000000000000e-01  0.0000000000000000e+00
-5.0000000000000003e-02  1.7999999999999999e-01  0.0000000000000000e+00
5.0000000000000003e-02  1.7999999999999999e-01  0.0000000000000000e+00
-5.0000000000000003e-02  2.0000000000000001e-01  0.0000000000000000e+00
5.0000000000000003e-02  2.0000000000000001e-01  0.0000000000000000e+00
-5.0000000000000003e-02  2.2000000000000000e-01  0.0000000000000000e+00
5.0000000000000003e-02  2.2000000000000000e-01  0.0000000000000000e+00
-5.0000000000000003e-02  2.3999999999999999e-01  0.0000000000000000e+00
5.0000000000000003e-02  2.3999999999999999e-01  0.0000000000000000e+00
-5.0000000000000003e-02  2.6000000000000001e-01  0.0000000000000000e+00
5.0000000000000003e-02  2.6000000000000001e-01  0.0000000000000000e+00
-5.0000000000000003e-02  2.8000000000000003e-01  0.0000000000000000e+00
5.0000000000000003e-02  2.8000000000000003e-01  0.0000000000000000e+00
-5.0000000000000003e-02  2.9999999999999999e-01  0.0000000000000000e+00
5.0000000000000003e-02  2.9999999999999999e-01  0.0000000000000000e+00
-5.0000000000000003e-02  3.2000000000000001e-01  0.0000000000000000e+00
5.0000000000000003e-02  3.2000000000000001e-01  0.0000000000000000e+00
-5.0000000000000003e-02  3.4000000000000002e-01  0.0000000000000000e+00
5.0000000000000003e-02  3.4000000000000002e-01  0.0000000000000000e+00
-5.0000000000000003e-02  3.5999999999999999e-01  0.0000000000000000e+00
5.0000000000000003e-02  3.5999999999999999e-01  0.0000000000000000e+00
-5.0000000000000003e-02  3.8000000000000000e-01  0.0000000000000000e+00
5.0000000000000003e-02  3.8000000000000000e-01  0.0000000000000000e+00
-5.0000000000000003e-02  4.0000000000000002e-01  0.0000000000000000e+00
5.0000000000000003e-02  4.0000000000000002e-01  0.0000000000000000e+00
-5.0000000000000003e-02  4.1999999999999998e-01  0.0000000000000000e+00
5.0000000000000003e-02  4.1999999999999998e-01  0.0000000000000000e+00
-5.0000000000000003e-02  4.4000000000000000e-01  0.0000000000000000e+00
5.0000000000000003e-02  4.4000000000000000e-01  0.0000000000000000e+00
-5.0000000000000003e-02  4.6000000000000002e-01  0.0000000000000000e+00
5.0000000000000003e-02  4.6000000000000002e-01  0.0000000000000000e+00
-5.0000000000000003e-02  4.7999999999999998e-01  0.0000000000000000e+00
5.0000000000000003e-02  4.7999999999999998e-01  0.0000000000000000e+00
-5.0000000000000003e-02  5.0000000000000000e-01  0.0000000000000000e+00
5.0000000000000003e-02  5.0000000000000000e-01  0.0000000000000000e+00
-5.0000000000000003e-02  5.2000000000000002e-01  0.0000000000000000e+00
5.0000000000000003e-02  5.2000000000000002e-01  0.0000000000000000e+00
-5.0000000000000003e-02  5.4000000000000004e-01  0.0000000000000000e+00
5.0000000000000003e-02  5.4000000000000004e-01  0.0000000000000000e+00
-5.0000000000000003e-02  5.6000000000000005e-01  0.0000000000000000e+00
5.0000000000000003e-02  5.6000000000000005e-01  0.0000000000000000e+00
-5.0000000000000003e-02  5.7999999999999996e-01  0.0000000000000000e+00
5.0000000000000003e-02  5.7999999999999996e-01  0.0000000000000000e+00
-5.0000000000000003e-02  5.9999999999999998e-01  0.0000000000000000e+00
5.0000000000000003e-02  5.9999999999999998e-01  0.0000000000000000e+00
-5.0000000000000003e-02  6.2000000000000000e-01  0.0000000000000000e+00
5.0000000000000003e-02  6.2000000000000000e-01  0.0000000000000000e+00
-5.0000000000000003e-02  6.4000000000000001e-01  0.0000000000000000e+00
5.0000000000000003e-02  6.4000000000000001e-01  0.0000000000000000e+00
-5.0000000000000003e-02  6.6000000000000003e-01  0.0000000000000000e+00
5.0000000000000003e-02  6.6000000000000003e-01  0.0000000000000000e+00
-5.0000000000000003e-02  6.8000000000000005e-01  0.0000000000000000e+00
5.0000000000000003e-02  6.8000000000000005e-01  0.0000000000000000e+00
-5.0000000000000003e-02  6.9999999999999996e-01  0.0000000000000000e+00
5.0000000000000003e-02  6.9999999999999996e-01  0.0000000000000000e+00
-5.0000000000000003e-02  7.1999999999999997e-01  0.0000000000000000e+00
5.0000000000000003e-02  7.1999999999999997e-01  0.0000000000000000e+00
-5.0000000000000003e-02  7.3999999999999999e-01  0.0000000000000000e+00
5.0000000000000003e-02  7.3999999999999999e-01  0.0000000000000000e+00
-5.0000000000000003e-02  7.6000000000000001e-01  0.0000000000000000e+00
5.0000000000000003e-02  7.6000000000000001e-01  0.0000000000000000e+00
-5.0000000000000003e-02  7.8000000000000003e-01  0.0000000000000000e+00
5.0000000000000003e-02  7.8000000000000003e-01  0.0000000000000000e+00
-5.0000000000000003e-02  8.0000000000000004e-01  0.0000000000000000e+00
5.0000000000000003e-02  8.0000000000000004e-01  0.0000000000000000e+00
-5.0000000000000003e-02  8.1999999999999995e-01  0.0000000000000000e+00
5.0000000000000003e-02  8.1999999999999995e-01  0.0000000000000000e+00
-5.0000000000000003e-02  8.3999999999999997e-01  0.0000000000000000e+00
5.0000000000000003e-02  8.3999999999999997e-01  0.0000000000000000e+00
-5.0000000000000003e-02  8.5999999999999999e-01  0.0000000000000000e+00
5.0000000000000003e-02  8.5999999999999999e-01  0.0000000000000000e+00
-5.0000000000000003e-02  8.8000000000000000e-01  0.0000000000000000e+00
5.0000000000000003e-02  8.8000000000000000e-01  0.0000000000000000e+00
-5.0000000000000003e-02  9.0000000000000002e-01  0.0000000000000000e+00
5.0000000000000003e-02  9.0000000000000002e-01  0.0000000000000000e+00
-5.0000000000000003e-02  9.2000000000000004e-01  0.0000000000000000e+00
5.0000000000000003e-02  9.2000000000000004e-01  0.0000000000000000e+00
-5.0000000000000003e-02  9.3999999999999995e-01  0.0000000000000000e+00
5.0000000000000003e-02  9.3999999999999995e-01  0.0000000000000000e+00
-5.0000000000000003e-02  9.5999999999999996e-01  0.0000000000000000e+00
5.0000000000000003e-02  9.5999999999999996e-01  0.0000000000000000e+00
-5.0000000000000003e-02  9.7999999999999998e-01  0.0000000000000000e+00
5.0000000000000003e-02  9.7999999999999998e-01  0.0000000000000000e+00
-5.0000000000000003e-02  1.0000000000000000e+00  0.0000000000000000e+00
-3.0000000000000002e-02  1.0000000000000000e+00  0.0000000000000000e+00
-1.0000000000000002e-02  1.0000000000000000e+00  0.0000000000000000e+00
1.0000000000000009e-02  1.0000000000000000e+00  0.0000000000000000e+00
2.9999999999999999e-02  1.0000000000000000e+00  0.0000000000000000e+00
5.0000000000000003e-02  1.0000000000000000e+00  0.0000000000000000e+00

CELLS 0 0


CELL_TYPES 0


POINT_DATA 106

VECTORS VertexNormals float

0.0000000000000000e+00 0.0000000000000000e+00 0
0.0000000000000000e+00 0.0000000000000000e+00 0
0.0000000000000000e+00 0.0000000000000000e+00 0
0.0000000000000000e+00 0.0000000000000000e+00 0
0.0000000000000000e+00 0.0000000000000000e+00 0
0.0000000000000000e+00 0.0000000000000000e+00 0
0.0000000000000000e+00 0.0000000000000000e+00 0
0.0000000000000000e+00 0.0000000000000000e+00 0
0.0000000000000000e+00 0.0000000000000000e+00 0
0.0000000000000000e+00 0.0000000000000000e+00 0
0.0000000000000000e+00 0.0000000000000000e+00 0
0.0000000000000000e+00 0.0000000000000000e+00 0
0.0000000000000000e+00 0.0000000000000000e+00 0
0.0000000000000000e+00 0.0000000000000000e+00 0
0.0000000000000000e+00 0.0000000000000000e+00 0
0.0000000000000000e+00 0.0000000000000000e+00 0
0.0000000000000000e+00 0.0000000000000000e+00 0
0.0000000000000000e+00 0.0000000000000000e+00 0
0.0000000000000000e+00 0.0000000000000000e+00 0
0.0000000000000000e+00 0.0000000000000000e+00 0
0.0000000000000000e+00 0.0000000000000000e+00 0
0.0000000000000000e+00 0.0000000000000000e+00 0
0.0000000000000000e+00 0.0000000000000000e+00 0
0.0000000000000000e+00 0.0000000000000000e+00 0
0.0000000000000000e+00 0.0000000000000000e+00 0
0.0000000000000000e+00 0.0000000000000000e+00 0
0.0000000000000000e+00 0.0000000000000000e+00 0
0.0000000000000000e+00 0.0000000000000000e+00 0
0.0000000000000000e+00 0.0000000000000000e+00 0
0.0000000000000000e+00 0.0000000000000000e+00 0
0.0000000000000000e+00 0.0000000000000000e+00 0
0.0000000000000000e+00 0.0000000000000000e+00 0
0.0000000000000000e+00 0.0000000000000000e+00 0
0.0000000000000000e+00 0.0000000000000000e+00 0
0.0000000000000000e+00 0.0000000000000000e+00 0
0.0000000000000000e+00 0.0000000000000000e+00 0
0.0000000000000000e+00 0.0000000000000000e+00 0
0.0000000000000000e+00 0.0000000000000000e+00 0
0.0000000000000000e+00 0.0000000000000000e+00 0
0.0000000000000000e+00 0.0000000000000000e+00 0
0.0000000000000000e+00 0.0000000000000000e+00 0
0.0000000000000000e+00 0.0000000000000000e+00 0
0.0000000000000000e+00 0.0000000000000000e+00 0
0.0000000000000000e+00 0.0000000000000000e+00 0
0.0000000000000000e+00 0.0000000000000000e+00 0
0.0000000000000000e+00 0.0000000000000000e+00 0
0.0000000000000000e+00 0.0000000000000000e+00 0
0.0000000000000000e+00 0.0000000000000000e+00 0
0.0000000000000000e+00 0.0000000000000000e+00 0
0.0000000000000000e+00 0.0000000000000000e+00 0
0.0000000000000000e+00 0.0000000000000000e+00 0
0.0000000000000000e+00 0.0000000000000000e+00 0
0.0000000000000000e+00 0.0000000000000000e+00 0
0.0000000000000000e+00 0.0000000000000000e+00 0
0.0000000000000000e+00 0.0000000000000000e+00 0
0.0000000000000000e+00 0.0000000000000000e+00 0
0.0000000000000000e+00 0.0000000000000000e+00 0
0.0000000000000000e+00 0.0000000000000000e+00 0
0.0000000000000000e+00 0.0000000000000000e+00 0
0.0000000000000000e+00 0.0000000000000000e+00 0
0.0000000000000000e+00 0.0000000000000000e+00 0
0.0000000000000000e+00 0.0000000000000000e+00 0
0.0000000000000000e+00 0.0000000000000000e+00 0
0.0000000000000000e+00 0.0000000000000000e+00 0
0.0000000000000000e+00 0.0000000000000000e+00 0
0.0000000000000000e+00 0.0000000000000000e+00 0
0.0000000000000000e+00 0.0000000000000000e+00 0
0.0000000000000000e+00 0.0000000000000000e+00 0
0.0000000000000000e+00 0.0000000000000000e+00 0
0.0000000000000000e+00 0.0000000000000000e+00 0
0.0000000000000000e+00 0.0000000000000000e+00 0
0.0000000000000000e+00 0.0000000000000000e+00 0
0.0000000000000000e+00 0.0000000000000000e+00 0
0.0000000000000000e+00 0.0000000000000000e+00 0
0.0000000000000000e+00 0.0000000000000000e+00 0
0.0000000000000000e+00 0.0000000000000000e+00 0
0.0000000000000000e+00 0.0000000000000000e+00 0
0.0000000000000000e+00 0.0000000000000000e+00 0
0.0000000000000000e+00 0.0000000000000000e+00 0
0.0000000000000000e+00 0.0000000000000000e+00 0
0.0000000000000000e+00 0.0000000000000000e+00 0
0.0000000000000000e+00 0.0000000000000000e+00 0
0.0000000000000000e+00 0.0000000000000000e+00 0
0.0000000000000000e+00 0.0000000000000000e+00 0
0.0000000000000000e+00 0.0000000000000000e+00 0
0.0000000000000000e+00 0.0000000000000000e+00 0
0.0000000000000000e+00 0.0000000000000000e+00 0
0.0000000000000000e+00 0.0000000000000000e+00 0
0.0000000000000000e+00 0.0000000000000000e+00 0
0.0000000000000000e+00 0.0000000000000000e+00 0
0.0000000000000000e+00 0.0000000000000000e+00 0
0.0000000000000000e+00 0.0000000000000000e+00 0
0.0000000000000000e+00 0.0000000000000000e+00 0
0.0000000000000000e+00 0.0000000000000000e+00 0
0.0000000000000000e+00 0.0000000000000000e+00 0
0.0000000000000000e+00 0.0000000000000000e+00 0
0.0000000000000000e+00 0.0000000000000000e+00 0
0.0000000000000000e+00 0.0000000000000000e+00 0
0.0000000000000000e+00 0.0000000000000000e+00 0
0.0000000000000000e+00 0.0000000000000000e+00 0
0.0000000000000000e+00 0.0000000000000000e+00 0
0.0000000000000000e+00 0.0000000000000000e+00 0
0.0000000000000000e+00 0.0000000000000000e+00 0
0.0000000000000000e+00 0.0000000000000000e+00 0
0.0000000000000000e+00 0.0000000000000000e+00 0
0.0000000000000000e+00 0.0000000000000000e+00 0

VECTORS Displacements1 float
-2.7819168856534873e-17 1.5539297266971461e-17 0
-1.9634268692685306e-23 -8.2673539586568989e-24 0
2.5704454172603152e-07 -8.3127746502923490e-08 0
2.6757711961291764e-07 1.0925589560394794e-07 0
3.0091871816121290e-07 -6.2691652728370379e-08 0
2.9859742232428334e-07 9.5331752674869964e-08 0
1.9145271310819356e-07 -2.1101744581347303e-08 0
1.8657676695962693e-07 4.6824066489931808e-08 0
7.0225616527264913e-08 2.6511541575419453e-08 0
7.2714290087484863e-08 -2.1702748399218147e-08 0
6.4524842005445487e-07 3.8001835124265043e-08 0
6.2590255691105961e-07 4.4693996581026394e-08 0
7.1293448470856946e-08 -3.2517722516173293e-08 0
7.3306952209932160e-08 3.5924779857658822e-08 0
1.9620891184733685e-07 1.5083947884146521e-08 0
1.9315246001087607e-07 1.6195587871783891e-08 0
1.9625322916348783e-07 8.6369389196970152e-09 0
1.9294619920788380e-07 2.1543936456622770e-08 0
7.0910281912200755e-08 3.1305590698234230e-08 0
7.5915245824109579e-08 -2.5462777675950135e-08 0
6.4096551043089362e-07 3.4475057214750438e-08 0
6.3737899968064791e-07 5.9589278876422470e-08 0
7.0257736282915332e-08 -3.3954541713752622e-08 0
7.4028751833980094e-08 4.1215973983056345e-08 0
1.9522673728755438e-07 1.2880237348953523e-08 0
1.9993284865105162e-07 2.3544002074215733e-08 0
1.9528395748760446e-07 6.4729815853257103e-09 0
1.9972739621252624e-07 2.9161419791609011e-08 0
7.0708539268067700e-08 2.9679746278456761e-08 0
8.0547764290963459e-08 -2.1841942126715159e-08 0
6.3879620246295614e-07 3.1293669662529444e-08 0
6.6987581474802620e-07 7.7320405411241769e-08 0
6.9698645113351144e-08 -3.5112850619423558e-08 0
7.7046470964878945e-08 4.8066863414733082e-08 0
1.9461926885425022e-07 1.1987326796487119e-08 0
2.1316774491697470e-07 3.1082233274098417e-08 0
1.9476213503945399e-07 5.7649433258036626e-09 0
2.1284252844060709e-07 3.6947905903752259e-08 0
7.0374940675111915e-08 2.9319367253297891e-08 0
8.7522237222614268e-08 -1.9695957581072942e-08 0
6.3693058458103980e-07 3.2034871580772604e-08 0
7.2348772042311230e-07 9.5178075414188882e-08 0
6.9384656846410065e-08 -3.4885179094579803e-08 0
8.2556623800322612e-08 5.5545603696423107e-08 0
1.9409350831842100e-07 1.3112508659250883e-08 0
2.3329364802672198e-07 3.8340136341380160e-08 0
1.9433942556012813e-07 7.2347372366293944e-09 0
2.3283677500678644e-07 4.4541672469642888e-08 0
6.9732710633964337e-08 3.1085227451192348e-08 0
9.7218741427997138e-08 -1.9657283227308861e-08 0
6.3525981167061545e-07 3.9437772458775999e-08 0
8.0160945266160649e-07 1.1213084223649341e-07 0
6.9390367987422487e-08 -3.2344667038404460e-08 0
9.1011054888833339e-08 6.3379899282174501e-08 0
1.9285156486329804e-07 1.7744672147330637e-08 0
2.6126168747662663e-07 4.4718893534604653e-08 0
1.9339943530601507e-07 1.2112285494793698e-08 0
2.6077612954817926e-07 5.1595669677921117e-08 0
6.8697677974516095e-08 3.4321345041210126e-08 0
1.1037821222578208e-07 -2.1316734193978452e-08 0
6.3071798624072060e-07 5.0903294362508995e-08 0
9.0912919057001677e-07 1.3113956659935420e-07 0
6.9388247650811354e-08 -2.8102681855972015e-08 0
1.0288041688263248e-07 7.2643021042673541e-08 0
1.9387426576904767e-07 2.4034274024782920e-08 0
3.0168336104803746e-07 5.2290609763537554e-08 0
1.9440133648625194e-07 1.9648111782906409e-08 0
3.0089472645699580e-07 5.9554892780688494e-08 0
6.7984064519867771e-08 4.4793799694401431e-08 0
1.2900853976416492e-07 -2.8424889841164504e-08 0
6.4085996490774256e-07 8.5715584038050624e-08 0
1.0678163806049826e-06 1.4438109148539648e-07 0
7.1764934386203091e-08 -1.6856399173526244e-08 0
1.2098349604825183e-07 8.1215266549224013e-08 0
1.9179775579310992e-07 4.4489113266010646e-08 0
3.5611037280296786e-07 5.4777261671197988e-08 0
1.9403922600134385e-07 3.9249397971491780e-08 0
3.5608031272719570e-07 6.4456804222469283e-08 0
6.8678672108853942e-08 5.0897369623141120e-08 0
1.5678509122242434e-07 -3.3605380308623896e-08 0
6.4241189251121797e-07 9.9893625488000242e-08 0
1.2931900841401702e-06 1.8384577069113484e-07 0
7.3122258133968869e-08 -1.0539443077440875e-08 0
1.4551526891484840e-07 9.9083758728065646e-08 0
2.2932828071692436e-07 5.4416792980814042e-08 0
4.6441972017513138e-07 7.2752800700933772e-08 0
2.2942908208164377e-07 6.1160353977232893e-08 0
4.6180510376795141e-07 7.7782113015487085e-08 0
8.1654457678871590e-08 1.2939682025452328e-07 0
2.1180953698469481e-07 -8.5510821506708916e-08 0
8.9599438220315697e-07 3.4636866726241735e-07 0
1.8099228428864726e-06 1.3498203487402773e-07 0
1.1663789765653664e-07 9.5778023459186940e-08 0
1.9874677763647560e-07 8.8173588996383286e-08 0
3.4569729170571831e-07 4.0084675428725754e-07 0
6.9002490021045240e-07 -5.9467868830769959e-08 0
4.3572799801763135e-07 7.4993914075260847e-07 0
7.5925377624239088e-07 -2.6120562520567681e-07 0
1.6807066688744780e-06 1.6061654005810788e-06 0
1.8241639962108152e-06 -4.8033768274956294e-07 0
1.7771568528979967e-06 1.5086657147314335e-06 0
1.9173509006033960e-06 1.0808908934235114e-06 0
1.4855673097958278e-06 6.5078758284779669e-07 0
1.4723569904767547e-06 5.1063011070562237e-07 0
1.9423477283795008e-06 -3.8716937711508825e-08 0
1.6958100842895375e-06 -7.9389567786932095e-07 0

VECTORS Displacements2 float
-2.8229518172557902e-17 1.5768541018391479e-17 0
-2.0047870637385829e-23 -8.3715058607320949e-24 0
2.6248261275074029e-07 -8.4170328930147358e-08 0
2.7296743115845936e-07 1.1056240411513714e-07 0
3.0744549001318816e-07 -6.3844779819681280e-08 0
3.0479461937945778e-07 9.6934538484112396e-08 0
1.9643198638300654e-07 -2.1669214916043854e-08 0
1.9135190802971695e-07 4.7749347539709510e-08 0
7.3774348332463159e-08 2.6907697812626325e-08 0
7.6245477438678167e-08 -2.1956688056140866e-08 0
6.5779573662399124e-07 3.8452555578609497e-08 0
6.3755916800053982e-07 4.5497598360961892e-08 0
7.4973361600324310e-08 -3.3438463002300095e-08 0
7.6960666579270695e-08 3.6836178565402238e-08 0
2.0076004359249238e-07 1.5032721326583013e-08 0
1.9749017701634076e-07 1.6805970212888052e-08 0
2.0081064268611226e-07 9.0409573962908983e-09 0
1.9729160367440730e-07 2.1647030525860310e-08 0
7.4541946795728449e-08 3.2138337949398161e-08 0
7.9625301595778563e-08 -2.6142425678033211e-08 0
6.5342818743118025e-07 3.5004828857004100e-08 0
6.4920547573050527e-07 6.0589812606267665e-08 0
7.3899397860174958e-08 -3.4928118432341397e-08 0
7.7683222838425471e-08 4.2324062186187433e-08 0
1.9977162204644067e-07 1.2795175775845214e-08 0
2.0439588628731464e-07 2.4337287467444850e-08 0
1.9984170268919889e-07 6.8363732362628882e-09 0
2.0424380754731455e-07 2.9455827462294622e-08 0
7.4340451741014066e-08 3.0475453360403376e-08 0
8.4435494419091792e-08 -2.2396424756391618e-08 0
6.5126593216093911e-07 3.1792926136430725e-08 0
6.8226634694142494e-07 7.8684686685447720e-08 0
7.3337941375829275e-08 -3.6113517771233547e-08 0
8.0861467608609053e-08 4.9386574753566105e-08 0
1.9916972476813938e-07 1.1895957304701986e-08 0
2.1788815281031941e-07 3.2086361784811601e-08 0
1.9933196708355547e-07 6.1226682269010051e-09 0
2.1765118033342013e-07 3.7413935025274261e-08 0
7.4011361012934656e-08 3.0117935295137825e-08 0
9.1700846985833251e-08 -2.0158560953937489e-08 0
6.4942339381653587e-07 3.2584551989931756e-08 0
7.3682757671308830e-07 9.6903606325277439e-08 0
7.3036747496246630e-08 -3.5869905221159551e-08 0
8.6647400130280248e-08 5.7089341701175907e-08 0
1.9866010017396955e-07 1.3071626595174398e-08 0
2.3841800421877702e-07 3.9554155845845835e-08 0
1.9892757145233293e-07 7.6477094750277450e-09 0
2.3808641071889641e-07 4.5155968865779117e-08 0
7.3373687368803607e-08 3.1954182360312279e-08 0
1.0181445069020586e-07 -2.0083239056247926e-08 0
6.4779140989541794e-07 4.0177557945744021e-08 0
8.1634005098354579e-07 1.1419811632979618e-07 0
7.3069976210059139e-08 -3.3243356365559961e-08 0
9.5512059754029488e-08 6.5155612171868319e-08 0
1.9743092850772295e-07 1.7844982754692737e-08 0
2.6695714613659404e-07 4.6134275785988010e-08 0
1.9800038749508578e-07 1.2662968879545214e-08 0
2.6664018585931677e-07 5.2331299626974820e-08 0
7.2333267575068607e-08 3.5312228022204187e-08 0
1.1554392951465072e-07 -2.1749714366357513e-08 0
6.4325161382613672e-07 5.1928302263402051e-08 0
9.2578189873877057e-07 1.3358144791514998e-07 0
7.3113708755769225e-08 -2.8856390333066741e-08 0
1.0796294760857344e-07 7.4685190263421845e-08 0
1.9852001654949085e-07 2.4349630316504277e-08 0
3.0820108405251777e-07 5.3930339093586903e-08 0
1.9906868215027760e-07 2.0448417697159814e-08 0
3.0764300842608031e-07 6.0380804855954937e-08 0
7.1666358035913273e-08 4.6127448641570346e-08 0
1.3500141964920365e-07 -2.9002150707679148e-08 0
6.5368301634154030e-07 8.7504819140666411e-08 0
1.0873008088277631e-06 1.4710121210295446e-07 0
7.5617390573611923e-08 -1.7264126365098840e-08 0
1.2692178890246800e-07 8.3517130005334429e-08 0
1.9647695996050167e-07 4.5326391419056409e-08 0
3.6375744713994130e-07 5.6591733228694593e-08 0
1.9876772576790033e-07 4.0518892392352589e-08 0
3.6406288432258469e-07 6.5328537396905812e-08 0
7.2412685725897426e-08 5.2474848423147739e-08 0
1.6396439765655986e-07 -3.4272658279277326e-08 0
6.5540628690189352e-07 1.0210436979855377e-07 0
1.3167341789046370e-06 1.8729136607229263e-07 0
7.7283147235978213e-08 -1.0643633284496910e-08 0
1.5278276924810798e-07 1.0186594682715552e-07 0
2.3476607705070097e-07 5.5757403446922436e-08 0
4.7418506071001257e-07 7.4946429232682302e-08 0
2.3507352070450489e-07 6.3553856317169378e-08 0
4.7221550562578506e-07 7.8435213358738166e-08 0
8.6463303070310430e-08 1.3327055075450673e-07 0
2.2146652964254910e-07 -8.7326447129629675e-08 0
9.1373443103664868e-07 3.5398671085632213e-07 0
1.8429665609893571e-06 1.3760255532469612e-07 0
1.2307738945809492e-07 1.0103428465752633e-07 0
2.0841684446090906e-07 8.9814793595251270e-08 0
3.5572054332634678e-07 4.1593063577687074e-07 0
7.0582743934452450e-07 -6.2388249771283167e-08 0
4.5148121259973842e-07 7.7784021630354588e-07 0
7.7910654756762358e-07 -2.7228380644040519e-07 0
1.7249284088485654e-06 1.6526774264057238e-06 0
1.8682353113708101e-06 -4.9779242276527432e-07 0
1.8338731399319478e-06 1.5554789772407465e-06 0
1.9742800504448360e-06 1.1105462451111525e-06 0
1.5331291926296119e-06 6.6673069669152434e-07 0
1.5185995881076921e-06 5.2060204823786046e-07 0
1.9964135305383231e-06 -4.2252377197028358e-08 0
1.7475982998042833e-06 -8.1703292337797338e-07 0

VECTORS Displacements3 float
-2.8639409049494768e-17 1.5997528016633265e-17 0
-2.0465669873904343e-23 -8.4745445677595631e-24 0
2.6796970218139048e-07 -8.5191329694835752e-08 0
2.7839953310630391e-07 1.1184914446921209e-07 0
3.1405606668475088e-07 -6.4979089524664629e-08 0
3.1105614921548205e-07 9.8521624551920501e-08 0
2.0152473239165404e-07 -2.2233585236491426e-08 0
1.9622850027488211e-07 4.8669320492071588e-08 0
7.7430194988709188e-08 2.7303872674289441e-08 0
7.9878407515589064e-08 -2.2208395340972709e-08 0
6.7044529419540833e-07 3.8892321869565640e-08 0
6.4929875811360154e-07 4.6318175278332523e-08 0
7.8752550077034390e-08 -3.4372867644044393e-08 0
8.0708092866932610e-08 3.7764343893310169e-08 0
2.0540241160041548e-07 1.4978300429987507e-08 0
2.0190669057737659e-07 1.7420111293023159e-08 0
2.0545890227598986e-07 9.4486779091101825e-09 0
2.0172103233110959e-07 2.1750938986880122e-08 0
7.8274775492549853e-08 3.2988969776517651e-08 0
8.3429743563751203e-08 -2.6829911250121521e-08 0
6.6599414917059986e-07 3.5532576920908264e-08 0
6.6111678394859697e-07 6.1590761103126452e-08 0
7.7642942488232852e-08 -3.5915141701035201e-08 0
8.1429437258922743e-08 4.3452835802834340e-08 0
2.0440910043786723e-07 1.2708430558722052e-08 0
2.0894348515205603e-07 2.5136313201416770e-08 0
2.0449239631583316e-07 7.2029046650007180e-09 0
2.0884675781002106e-07 2.9754682751162600e-08 0
7.8074779251905992e-08 3.1289202278847344e-08 0
8.8418585936098206e-08 -2.2956706837684629e-08 0
6.6384173235941448e-07 3.2290579292798447e-08 0
6.9474326856166642e-07 8.0053195654778493e-08 0
7.7080567897574309e-08 -3.7127771896001685e-08 0
8.4770928390389388e-08 5.0730028196771498e-08 0
2.0381518030158165e-07 1.1803331756429187e-08 0
2.2269517221498881e-07 3.3098902807090671e-08 0
2.0399751441855051e-07 6.4841091143602909e-09 0
2.2254974076258723e-07 3.7886681005388765e-08 0
7.7752227775353998e-08 3.0935481981745335e-08 0
9.5979722186433170e-08 -2.0624450499750889e-08 0
6.6202662481138799e-07 3.3133629655556883e-08 0
7.5025627955424282e-07 9.8636299127264765e-08 0
7.6794548606555551e-08 -3.6867473267448738e-08 0
9.0837444419384333e-08 5.8660356654252257e-08 0
2.0332541529794299e-07 1.3030747838236755e-08 0
2.4363273367460545e-07 4.0779173269881932e-08 0
2.0361545803630561e-07 8.0660662294323804e-09 0
2.4343109518636234e-07 4.5778880283091220e-08 0
7.7122026838998280e-08 3.2844348933740869e-08 0
1.0651763608012339e-07 -2.0510696711649779e-08 0
6.6043937774851261e-07 4.0918864599930024e-08 0
8.3116335021531494e-07 1.1627526240618591e-07 0
7.6858732933030516e-08 -3.4152927009052368e-08 0
1.0011953788277056e-07 6.6962345298395713e-08 0
2.0211424015735763e-07 1.7947629208377871e-08 0
2.7274863083918536e-07 4.7563117938270580e-08 0
2.0270654181207356e-07 1.3221796576296664e-08 0
2.7260649230649753e-07 5.3077283992801958e-08 0
7.6079731316040666e-08 3.6327720582046713e-08 0
1.2082701947731301e-07 -2.2182925160421036e-08 0
6.5590959305636476e-07 5.2958339037210484e-08 0
9.4253295360782309e-07 1.3603556038941078e-07 0
7.6953085453372312e-08 -2.9617243293437701e-08 0
1.1316233546297696e-07 7.6762427536319739e-08 0
2.0327708238818541e-07 2.4672067765387192e-08 0
3.1482275786069289e-07 5.5585240857537540e-08 0
2.0384977229665239e-07 2.1262884265899130e-08 0
3.1450440541439574e-07 6.1217487715725679e-08 0
7.5466001997860345e-08 4.7493121935777187e-08 0
1.4112672246865270e-07 -2.9580072399638831e-08 0
6.6664211053698032e-07 8.9305498272485362e-08 0
1.1068919117396374e-06 1.4983636057990329e-07 0
7.9591140389005062e-08 -1.7672791979796519e-08 0
1.3299228343541003e-07 8.5859124202976492e-08 0
2.0127886105458152e-07 4.6177037656615407e-08 0
3.7152107010243439e-07 5.8423881104696905e-08 0
2.0362271756677921e-07 4.1808512964291765e-08 0
3.7217471196377036e-07 6.6212964302704178e-08 0
7.6270359838358284e-08 5.4092508278576215e-08 0
1.7129710061332975e-07 -3.4940083944073526e-08 0
6.6855304061694000e-07 1.0433540307796230e-07 0
1.3403998203656805e-06 1.9075204661304806e-07 0
8.1582618813605176e-08 -1.0731850895611071e-08 0
1.6020808897887474e-07 1.0469313935291401e-07 0
2.4034912323731084e-07 5.7130411406367740e-08 0
4.8408361130426472e-07 7.7154256903079906e-08 0
2.4086351028156648e-07 6.6009650780301595e-08 0
4.8279196267316929e-07 7.9082660673303782e-08 0
9.1472574152388008e-08 1.3722577568776750e-07 0
2.3131237305156059e-07 -8.9146285894705601e-08 0
9.3165581069415061e-07 3.6173633601366228e-07 0
1.8761584814714725e-06 1.4022860934542328e-07 0
1.2977329632597006e-07 1.0655105632777581e-07 0
2.1832533559057299e-07 9.1425131594149049e-08 0
3.6605753302843885e-07 4.3147913764953180e-07 0
7.2188056289003663e-07 -6.5442899743823296e-08 0
4.6770756908086758e-07 8.0640090614351885e-07 0
7.9934227156468165e-07 -2.8363691492710524e-07 0
1.7699016624481332e-06 1.6999936369098712e-06 0
1.9129439871801109e-06 -5.1559263503823078e-07 0
1.8916926932195239e-06 1.6031187738676522e-06 0
2.0323189387611136e-06 1.1407208251794223e-06 0
1.5817507453104410e-06 6.8289737740626344e-07 0
1.5658432561651290e-06 5.3063151680118425e-07 0
2.0513989342738039e-06 -4.5914907441271023e-08 0
1.8003200934574794e-06 -8.4052777105692759e-07 0

VECTORS Forces1 float
-7.8811469934934111e-02 4.9563042319644264e-02 0
-8.9683793051518967e-02 -5.1188152163346344e-02 0
1.0903506117874076e+00 -6.0602661123858126e-01 0
1.1980875162045930e+00 6.6371489383533455e-01 0
1.1977281873924672e+00 -1.8633729447033709e-01 0
1.3131452390431455e+00 2.0587798018874295e-01 0
7.6284990504863803e-01 3.0437040031747537e-02 0
8.3607895834521206e-01 -3.2542283458300042e-02 0
-1.1503884510205482e-01 -4.2172921117838375e-03 0
-1.2619966397247773e-01 4.3631706461941507e-03 0
2.9292483495254809e+00 -2.4020179570615240e-03 0
3.2132429772443620e+00 1.7761703934586981e-02 0
-1.2370169683109129e-01 -9.4049065128603296e-05 0
-1.3652065704690430e-01 -1.0942537724254256e-03 0
8.3091840132570205e-01 -1.0618918066822205e-03 0
9.1636120699552559e-01 9.0842634304681615e-03 0
8.3098486661420812e-01 -1.0769665214216159e-03 0
9.1644584045234512e-01 9.1116803210623456e-03 0
-1.2375381028663908e-01 1.4360823410965744e-05 0
-1.3667989401371394e-01 -1.2509853658406620e-03 0
2.9120816584771103e+00 -7.2318416274710666e-03 0
3.2453998788732452e+00 5.0085803081159223e-02 0
-1.2258195544789541e-01 3.1995051786393820e-04 0
-1.3864122760978861e-01 -2.7655401298652253e-03 0
8.2289339326031408e-01 -3.1800039489680442e-03 0
9.3032740516680834e-01 1.9762345297223798e-02 0
8.2288651669951662e-01 -3.1821311358016945e-03 0
9.3035005834121765e-01 1.9773509347738003e-02 0
-1.2251556024252463e-01 3.2378093653262036e-04 0
-1.3877719189808727e-01 -2.8318653930060494e-03 0
2.8829739967184542e+00 -1.1922481427306663e-02 0
3.3229098184180725e+00 8.7865212995410780e-02 0
-1.2107536232311805e-01 3.2379966546987972e-04 0
-1.4289027263756543e-01 -4.2876557092695255e-03 0
8.1287999414328149e-01 -3.1883410881508494e-03 0
9.5926172132653997e-01 3.0050376750749119e-02 0
8.1286862972941942e-01 -3.1905703935564008e-03 0
9.5929615742254548e-01 3.0062756833793988e-02 0
-1.2099078906485275e-01 3.0283444667119047e-04 0
-1.4313068963818759e-01 -4.3442615974834745e-03 0
2.8385638572458203e+00 -7.0413902514931447e-03 0
3.4484551617369639e+00 1.2267423749796381e-01 0
-1.1887223688953169e-01 -1.3118327656276105e-04 0
-1.4926779759143974e-01 -5.6697012861859622e-03 0
7.9812922044564361e-01 -1.9498354164832995e-04 0
1.0023928764160230e+00 3.9470632817685272e-02 0
7.9811215229688104e-01 -1.9603190875721246e-04 0
1.0024398739059266e+00 3.9484038804755907e-02 0
-1.1875093511316591e-01 -1.9101966835408817e-04 0
-1.4961549614175684e-01 -5.7092654556161063e-03 0
2.7777357939921461e+00 1.3728566872147996e-02 0
3.6290530173788973e+00 1.5213260274034135e-01 0
-1.1569846633074736e-01 -1.4668622396540167e-03 0
-1.5805840955617870e-01 -6.7374731574241925e-03 0
7.7686140679752991e-01 8.6421049039180093e-03 0
1.0616846321695490e+00 4.6879355876048343e-02 0
7.7684065751870923e-01 8.6387929477150533e-03 0
1.0617469054067403e+00 4.6897170714900530e-02 0
-1.1555364940937513e-01 -1.5670025852164283e-03 0
-1.5855519353683625e-01 -6.7624778004531667e-03 0
2.6915924555221977e+00 4.4794290408458157e-02 0
3.8728674467243933e+00 1.8223620380297323e-01 0
-1.1239342185427921e-01 -3.0189820502699613e-03 0
-1.7051615641878726e-01 -8.0299150802293860e-03 0
7.5490858288250984e-01 1.8564863049958982e-02 0
1.1456006851890486e+00 5.6099642244414195e-02 0
7.5487872150235957e-01 1.8561387034253161e-02 0
1.1456748251391209e+00 5.6121733704913086e-02 0
-1.1220819074270882e-01 -3.2574139285032611e-03 0
-1.7122860614411714e-01 -7.9948466183315560e-03 0
2.6172601122642636e+00 1.3056700471194702e-01 0
4.2269808165961607e+00 1.9205060461653714e-01 0
-1.0711810099137278e-01 -8.6834927728648200e-03 0
-1.8719291838644395e-01 -7.5762718263860211e-03 0
7.1925148430507679e-01 5.5926066730486064e-02 0
1.2570542621397001e+00 5.3804717945968993e-02 0
7.1920177876075564e-01 5.5859771663887454e-02 0
1.2571008745175438e+00 5.3855593966973314e-02 0
-1.0735473681597134e-01 -9.0759394683513576e-03 0
-1.8867785969271991e-01 -7.5416232057760194e-03 0
2.5040932162277767e+00 1.6746257080999472e-01 0
4.7186473393458241e+00 2.5344653520840199e-01 0
-1.1487962273283375e-01 -9.5752523966789582e-03 0
-2.2119873148850605e-01 -1.1286245642949447e-02 0
7.6905046494688711e-01 5.5734923219191962e-02 0
1.4798360968414572e+00 8.1112575048302257e-02 0
7.6887437158093308e-01 5.5457939271287324e-02 0
1.4795784656680975e+00 8.1228615179652353e-02 0
-1.1570074341881838e-01 -1.2165490048770513e-02 0
-2.2490235434340550e-01 -1.0034265110373402e-02 0
2.9369278585562641e+00 7.3952539021158548e-01 0
5.8703557157511259e+00 4.9450120535873249e-02 0
-1.2430613294368403e-01 -6.5867585451533664e-02 0
-2.8700944709407988e-01 1.8556668739604036e-02 0
9.1601813811420407e-01 4.2768221189128441e-01 0
1.9752563649890935e+00 -7.3476465395981960e-02 0
6.0948563300539127e-01 2.3208857197699939e-01 0
1.5608481407091963e+00 -6.8590227368245049e-02 0
2.9592117901385588e+00 1.8212744827143852e+00 0
3.7825894623477376e+00 5.9512748604763369e-02 0
1.9855920831285054e-01 2.2095829228607303e-01 0
2.1066359673113770e+00 1.4198115746059501e+00 0
1.3627376960853435e+00 1.2518142595831807e+00 0
1.2549116464036718e+00 1.3597292114313673e+00 0
2.3587343983773947e+00 6.8462159521325883e-01 0
4.0906991146083932e-01 -1.2792717582184823e-01 0

VECTORS Forces2 float
2.1547156163539388e-02 -1.0959459966448875e-02 0
4.2573600830970879e-02 2.5715291669769165e-02 0
-2.1673907006199886e-01 1.1612786869314382e-01 0
-4.9346449444977702e-01 -2.7081847968066974e-01 0
-2.4311121456138607e-01 3.7133690077363626e-02 0
-5.4480705668816054e-01 -8.3311084531848739e-02 0
-1.5799936404461112e-01 -4.3761510790405475e-03 0
-3.4991400510048498e-01 1.2947118660385283e-02 0
2.3805352059583344e-02 4.1223456703608794e-04 0
5.2567986744541197e-02 -1.6013199152797367e-03 0
-6.4076378672558165e-01 7.4483974633474310e-04 0
-1.3746734467143147e+00 1.0811477090870845e-02 0
2.7361869968829833e-02 1.6391614145444045e-04 0
5.8164881117161088e-02 -1.1293581439041894e-03 0
-1.8382481136708728e-01 -1.9781064202438188e-03 0
-3.9148659733486540e-01 8.4431142981346956e-03 0
-1.8383915441195600e-01 -1.9793958748893776e-03 0
-3.9150568622726489e-01 8.4442399606047634e-03 0
2.7394668733331393e-02 1.6365164326770769e-04 0
5.8224063631551380e-02 -1.1599895922403186e-03 0
-6.3305901481458104e-01 -1.2198861021623099e-02 0
-1.3571738236508046e+00 4.8616029952300861e-02 0
2.6129909879839729e-02 5.6820720545381275e-04 0
5.6054607767307869e-02 -2.6947951535937027e-03 0
-1.7489268000007921e-01 -4.8102151541871566e-03 0
-3.7620960589479852e-01 1.9251131404221050e-02 0
-1.7488203922372342e-01 -4.8141877606578684e-03 0
-3.7618863678221581e-01 1.9263245241142465e-02 0
2.6047892496404278e-02 5.7334006229624421e-04 0
5.5903455044902461e-02 -2.7591537504766421e-03 0
-5.9298176575663075e-01 -1.8819120314001386e-02 0
-1.2807320154812165e+00 8.5984114856142838e-02 0
2.3927142218641579e-02 6.7397869872801457e-04 0
5.1698829924689410e-02 -4.2182165298670742e-03 0
-1.5989003156906142e-01 -5.5442837294932719e-03 0
-3.4659010073791752e-01 2.9573071816292842e-02 0
-1.5987475397701983e-01 -5.5480168585147916e-03 0
-3.4655588087857442e-01 2.9586165948959957e-02 0
2.3792017169115338e-02 6.5601283497671178e-04 0
5.1431250352335291e-02 -4.2737791135907133e-03 0
-5.2592089971518863e-01 -1.6843348292996860e-02 0
-1.1449439579217191e+00 1.2137626339106306e-01 0
2.0531416320645667e-02 3.4246669680564312e-04 0
4.4602512566498984e-02 -5.6268928432655629e-03 0
-1.3683478936564947e-01 -3.4114501734389077e-03 0
-2.9851343200940306e-01 3.9195944088044610e-02 0
-1.3681458651044417e-01 -3.4140372094595109e-03 0
-2.9846240378939953e-01 3.9210217237257879e-02 0
2.0341925357724007e-02 2.8664046900156903e-04 0
4.4193544803722659e-02 -5.6666103668667070e-03 0
-4.3147404492524788e-01 7.1720344376696656e-04 0
-9.3864503997263193e-01 1.5182297013531787e-01 0
1.6164894334038213e-02 -8.5502053708569781e-04 0
3.4268354732000392e-02 -6.7475601684512127e-03 0
-1.0728875469807993e-01 4.4687814112082287e-03 0
-2.2866730658727014e-01 4.6985182642515472e-02 0
-1.0726184894122305e-01 4.4636788358408544e-03 0
-2.2859375332207776e-01 4.7004309856189544e-02 0
1.5899679640684457e-02 -9.5056741442145053e-04 0
3.3662106636661283e-02 -6.7733435655852429e-03 0
-3.1353329771978772e-01 2.8256053294790640e-02 0
-6.4323722034216313e-01 1.8365494863580073e-01 0
9.7890943410845650e-03 -2.2425465468710755e-03 0
1.8932892705288040e-02 -8.1262223279173658e-03 0
-6.4087841350842820e-02 1.3250197667981824e-02 0
-1.2507027636625431e-01 5.6824844753777651e-02 0
-6.4058112722835972e-02 1.3244169712123340e-02 0
-1.2496859774765656e-01 5.6849957747643287e-02 0
9.4371926760412859e-03 -2.4735453948223013e-03 0
1.8029510289979088e-02 -8.0937768343575175e-03 0
-1.2758292982218189e-01 1.0832816715460290e-01 0
-1.9400547403037460e-01 1.9772459576988591e-01 0
2.4325316845373941e-03 -7.6138012247021656e-03 0
-3.2832209402060349e-03 -7.9335421669075971e-03 0
-1.4725007538483197e-02 4.8589276086487235e-02 0
2.4467750731268372e-02 5.6405993713563397e-02 0
-1.4702706241311330e-02 4.8523668847954719e-02 0
2.4585880468623228e-02 5.6465407830282151e-02 0
1.5954553937788858e-03 -8.0009619432091870e-03 0
-4.9848869399585069e-03 -7.8779200252551019e-03 0
8.1607009159821206e-02 1.4439996865701626e-01 0
4.6791319424902478e-01 2.6215969961031621e-01 0
-1.8238809915016398e-02 -8.7030439092733343e-03 0
-4.4957608550264955e-02 -1.1496617746904466e-02 0
1.2215542258437030e-01 4.9992634453588959e-02 0
3.0174051415967662e-01 8.3269895598987398e-02 0
1.2209323014075885e-01 4.9702130820619014e-02 0
3.0178635350893379e-01 8.3452105042441022e-02 0
-2.0274026548802025e-02 -1.1132432371470703e-02 0
-4.9045364501585170e-02 -1.0224116682610673e-02 0
9.1788044848976880e-01 6.5725319057319520e-01 0
1.9607742200705782e+00 1.0907069081615052e-01 0
-6.0999545962332584e-02 -5.8196081191107217e-02 0
-1.4046532884425936e-01 1.3313334070195481e-02 0
4.6893039028765832e-01 3.6931854161091071e-01 0
9.9364760810910668e-01 -3.8625542981196276e-02 0
2.2198779987235726e-01 1.8843992096365608e-01 0
7.0325960725039904e-01 -8.3347395307610175e-03 0
2.4100497933827434e+00 1.6790622963240713e+00 0
2.7237858986976788e+00 -2.0585674982545651e-01 0
1.7238400632618311e-01 2.1478589341511775e-01 0
1.7093159478271376e+00 1.2916083380199288e+00 0
1.1077015516828372e+00 9.0832840428035000e-01 0
1.0327369447797667e+00 9.3117953014039445e-01 0
1.7212713384186897e+00 2.5818248615552458e-01 0
2.6496011010875931e-01 -1.3302827095716530e-01 0

