# vtk DataFile Version 2.0

ASCII

DATASET UNSTRUCTURED_GRID

POINTS 106 float 

-5.0000000000000003e-02  0.0000000000000000e+00  0.0000000000000000e+00
5.0000000000000003e-02  0.0000000000000000e+00  0.0000000000000000e+00
-5.0000000000000003e-02  2.0000000000000000e-02  0.0000000000000000e+00
5.0000000000000003e-02  2.0000000000000000e-02  0.0000000000000000e+00
-5.0000000000000003e-02  4.0000000000000001e-02  0.0000000000000000e+00
5.0000000000000003e-02  4.0000000000000001e-02  0.0000000000000000e+00
-5.0000000000000003e-02  5.9999999999999998e-02  0.0000000000000000e+00
5.0000000000000003e-02  5.9999999999999998e-02  0.0000000000000000e+00
-5.0000000000000003e-02  8.0000000000000002e-02  0.0000000000000000e+00
5.0000000000000003e-02  8.0000000000000002e-02  0.0000000000000000e+00
-5.0000000000000003e-02  1.0000000000000001e-01  0.0000000000000000e+00
5.0000000000000003e-02  1.0000000000000001e-01  0.0000000000000000e+00
-5.0000000000000003e-02  1.2000000000000000e-01  0.0000000000000000e+00
5.0000000000000003e-02  1.2000000000000000e-01  0.0000000000000000e+00
-5.0000000000000003e-02  1.4000000000000001e-01  0.0000000000000000e+00
5.0000000000000003e-02  1.4000000000000001e-01  0.0000000000000000e+00
-5.0000000000000003e-02  1.6000000000000000e-01  0.0000000000000000e+00
5.0000000000000003e-02  1.6000000000000000e-01  0.0000000000000000e+00
-5.0000000000000003e-02  1.7999999999999999e-01  0.0000000000000000e+00
5.0000000000000003e-02  1.7999999999999999e-01  0.0000000000000000e+00
-5.0000000000000003e-02  2.0000000000000001e-01  0.0000000000000000e+00
5.0000000000000003e-02  2.0000000000000001e-01  0.0000000000000000e+00
-5.0000000000000003e-02  2.2000000000000000e-01  0.0000000000000000e+00
5.0000000000000003e-02  2.2000000000000000e-01  0.0000000000000000e+00
-5.0000000000000003e-02  2.3999999999999999e-01  0.0000000000000000e+00
5.0000000000000003e-02  2.3999999999999999e-01  0.0000000000000000e+00
-5.0000000000000003e-02  2.6000000000000001e-01  0.0000000000000000e+00
5.0000000000000003e-02  2.6000000000000001e-01  0.0000000000000000e+00
-5.0000000000000003e-02  2.8000000000000003e-01  0.0000000000000000e+00
5.0000000000000003e-02  2.8000000000000003e-01  0.0000000000000000e+00
-5.0000000000000003e-02  2.9999999999999999e-01  0.0000000000000000e+00
5.0000000000000003e-02  2.9999999999999999e-01  0.0000000000000000e+00
-5.0000000000000003e-02  3.2000000000000001e-01  0.0000000000000000e+00
5.0000000000000003e-02  3.2000000000000001e-01  0.0000000000000000e+00
-5.0000000000000003e-02  3.4000000000000002e-01  0.0000000000000000e+00
5.0000000000000003e-02  3.4000000000000002e-01  0.0000000000000000e+00
-5.0000000000000003e-02  3.5999999999999999e-01  0.0000000000000000e+00
5.0000000000000003e-02  3.5999999999999999e-01  0.0000000000000000e+00
-5.0000000000000003e-02  3.8000000000000000e-01  0.0000000000000000e+00
5.0000000000000003e-02  3.8000000000000000e-01  0.0000000000000000e+00
-5.0000000000000003e-02  4.0000000000000002e-01  0.0000000000000000e+00
5.0000000000000003e-02  4.0000000000000002e-01  0.0000000000000000e+00
-5.0000000000000003e-02  4.1999999999999998e-01  0.0000000000000000e+00
5.0000000000000003e-02  4.1999999999999998e-01  0.0000000000000000e+00
-5.0000000000000003e-02  4.4000000000000000e-01  0.0000000000000000e+00
5.0000000000000003e-02  4.4000000000000000e-01  0.0000000000000000e+00
-5.0000000000000003e-02  4.6000000000000002e-01  0.0000000000000000e+00
5.0000000000000003e-02  4.6000000000000002e-01  0.0000000000000000e+00
-5.0000000000000003e-02  4.7999999999999998e-01  0.0000000000000000e+00
5.0000000000000003e-02  4.7999999999999998e-01  0.0000000000000000e+00
-5.0000000000000003e-02  5.0000000000000000e-01  0.0000000000000000e+00
5.0000000000000003e-02  5.0000000000000000e-01  0.0000000000000000e+00
-5.0000000000000003e-02  5.2000000000000002e-01  0.0000000000000000e+00
5.0000000000000003e-02  5.2000000000000002e-01  0.0000000000000000e+00
-5.0000000000000003e-02  5.4000000000000004e-01  0.0000000000000000e+00
5.0000000000000003e-02  5.4000000000000004e-01  0.0000000000000000e+00
-5.0000000000000003e-02  5.6000000000000005e-01  0.0000000000000000e+00
5.0000000000000003e-02  5.6000000000000005e-01  0.0000000000000000e+00
-5.0000000000000003e-02  5.7999999999999996e-01  0.0000000000000000e+00
5.0000000000000003e-02  5.7999999999999996e-01  0.0000000000000000e+00
-5.0000000000000003e-02  5.9999999999999998e-01  0.0000000000000000e+00
5.0000000000000003e-02  5.9999999999999998e-01  0.0000000000000000e+00
-5.0000000000000003e-02  6.2000000000000000e-01  0.0000000000000000e+00
5.0000000000000003e-02  6.2000000000000000e-01  0.0000000000000000e+00
-5.0000000000000003e-02  6.4000000000000001e-01  0.0000000000000000e+00
5.0000000000000003e-02  6.4000000000000001e-01  0.0000000000000000e+00
-5.0000000000000003e-02  6.6000000000000003e-01  0.0000000000000000e+00
5.0000000000000003e-02  6.6000000000000003e-01  0.0000000000000000e+00
-5.0000000000000003e-02  6.8000000000000005e-01  0.0000000000000000e+00
5.0000000000000003e-02  6.8000000000000005e-01  0.0000000000000000e+00
-5.0000000000000003e-02  6.9999999999999996e-01  0.0000000000000000e+00
5.0000000000000003e-02  6.9999999999999996e-01  0.0000000000000000e+00
-5.0000000000000003e-02  7.1999999999999997e-01  0.0000000000000000e+00
5.0000000000000003e-02  7.1999999999999997e-01  0.0000000000000000e+00
-5.0000000000000003e-02  7.3999999999999999e-01  0.0000000000000000e+00
5.0000000000000003e-02  7.3999999999999999e-01  0.0000000000000000e+00
-5.0000000000000003e-02  7.6000000000000001e-01  0.0000000000000000e+00
5.0000000000000003e-02  7.6000000000000001e-01  0.0000000000000000e+00
-5.0000000000000003e-02  7.8000000000000003e-01  0.0000000000000000e+00
5.0000000000000003e-02  7.8000000000000003e-01  0.0000000000000000e+00
-5.0000000000000003e-02  8.0000000000000004e-01  0.0000000000000000e+00
5.0000000000000003e-02  8.0000000000000004e-01  0.0000000000000000e+00
-5.0000000000000003e-02  8.1999999999999995e-01  0.0000000000000000e+00
5.0000000000000003e-02  8.1999999999999995e-01  0.0000000000000000e+00
-5.0000000000000003e-02  8.3999999999999997e-01  0.0000000000000000e+00
5.0000000000000003e-02  8.3999999999999997e-01  0.0000000000000000e+00
-5.0000000000000003e-02  8.5999999999999999e-01  0.0000000000000000e+00
5.0000000000000003e-02  8.5999999999999999e-01  0.0000000000000000e+00
-5.0000000000000003e-02  8.8000000000000000e-01  0.0000000000000000e+00
5.0000000000000003e-02  8.8000000000000000e-01  0.0000000000000000e+00
-5.0000000000000003e-02  9.0000000000000002e-01  0.0000000000000000e+00
5.0000000000000003e-02  9.0000000000000002e-01  0.0000000000000000e+00
-5.0000000000000003e-02  9.2000000000000004e-01  0.0000000000000000e+00
5.0000000000000003e-02  9.2000000000000004e-01  0.0000000000000000e+00
-5.0000000000000003e-02  9.3999999999999995e-01  0.0000000000000000e+00
5.0000000000000003e-02  9.3999999999999995e-01  0.0000000000000000e+00
-5.0000000000000003e-02  9.5999999999999996e-01  0.0000000000000000e+00
5.0000000000000003e-02  9.5999999999999996e-01  0.0000000000000000e+00
-5.0000000000000003e-02  9.7999999999999998e-01  0.0000000000000000e+00
5.0000000000000003e-02  9.7999999999999998e-01  0.0000000000000000e+00
-5.0000000000000003e-02  1.0000000000000000e+00  0.0000000000000000e+00
-3.0000000000000002e-02  1.0000000000000000e+00  0.0000000000000000e+00
-1.0000000000000002e-02  1.0000000000000000e+00  0.0000000000000000e+00
1.0000000000000009e-02  1.0000000000000000e+00  0.0000000000000000e+00
2.9999999999999999e-02  1.0000000000000000e+00  0.0000000000000000e+00
5.0000000000000003e-02  1.0000000000000000e+00  0.0000000000000000e+00

CELLS 0 0


CELL_TYPES 0


POINT_DATA 106

VECTORS VertexNormals float

0.0000000000000000e+00 0.0000000000000000e+00 0
0.0000000000000000e+00 0.0000000000000000e+00 0
0.0000000000000000e+00 0.0000000000000000e+00 0
0.0000000000000000e+00 0.0000000000000000e+00 0
0.0000000000000000e+00 0.0000000000000000e+00 0
0.0000000000000000e+00 0.0000000000000000e+00 0
0.0000000000000000e+00 0.0000000000000000e+00 0
0.0000000000000000e+00 0.0000000000000000e+00 0
0.0000000000000000e+00 0.0000000000000000e+00 0
0.0000000000000000e+00 0.0000000000000000e+00 0
0.0000000000000000e+00 0.0000000000000000e+00 0
0.0000000000000000e+00 0.0000000000000000e+00 0
0.0000000000000000e+00 0.0000000000000000e+00 0
0.0000000000000000e+00 0.0000000000000000e+00 0
0.0000000000000000e+00 0.0000000000000000e+00 0
0.0000000000000000e+00 0.0000000000000000e+00 0
0.0000000000000000e+00 0.0000000000000000e+00 0
0.0000000000000000e+00 0.0000000000000000e+00 0
0.0000000000000000e+00 0.0000000000000000e+00 0
0.0000000000000000e+00 0.0000000000000000e+00 0
0.0000000000000000e+00 0.0000000000000000e+00 0
0.0000000000000000e+00 0.0000000000000000e+00 0
0.0000000000000000e+00 0.0000000000000000e+00 0
0.0000000000000000e+00 0.0000000000000000e+00 0
0.0000000000000000e+00 0.0000000000000000e+00 0
0.0000000000000000e+00 0.0000000000000000e+00 0
0.0000000000000000e+00 0.0000000000000000e+00 0
0.0000000000000000e+00 0.0000000000000000e+00 0
0.0000000000000000e+00 0.0000000000000000e+00 0
0.0000000000000000e+00 0.0000000000000000e+00 0
0.0000000000000000e+00 0.0000000000000000e+00 0
0.0000000000000000e+00 0.0000000000000000e+00 0
0.0000000000000000e+00 0.0000000000000000e+00 0
0.0000000000000000e+00 0.0000000000000000e+00 0
0.0000000000000000e+00 0.0000000000000000e+00 0
0.0000000000000000e+00 0.0000000000000000e+00 0
0.0000000000000000e+00 0.0000000000000000e+00 0
0.0000000000000000e+00 0.0000000000000000e+00 0
0.0000000000000000e+00 0.0000000000000000e+00 0
0.0000000000000000e+00 0.0000000000000000e+00 0
0.0000000000000000e+00 0.0000000000000000e+00 0
0.0000000000000000e+00 0.0000000000000000e+00 0
0.0000000000000000e+00 0.0000000000000000e+00 0
0.0000000000000000e+00 0.0000000000000000e+00 0
0.0000000000000000e+00 0.0000000000000000e+00 0
0.0000000000000000e+00 0.0000000000000000e+00 0
0.0000000000000000e+00 0.0000000000000000e+00 0
0.0000000000000000e+00 0.0000000000000000e+00 0
0.0000000000000000e+00 0.0000000000000000e+00 0
0.0000000000000000e+00 0.0000000000000000e+00 0
0.0000000000000000e+00 0.0000000000000000e+00 0
0.0000000000000000e+00 0.0000000000000000e+00 0
0.0000000000000000e+00 0.0000000000000000e+00 0
0.0000000000000000e+00 0.0000000000000000e+00 0
0.0000000000000000e+00 0.0000000000000000e+00 0
0.0000000000000000e+00 0.0000000000000000e+00 0
0.0000000000000000e+00 0.0000000000000000e+00 0
0.0000000000000000e+00 0.0000000000000000e+00 0
0.0000000000000000e+00 0.0000000000000000e+00 0
0.0000000000000000e+00 0.0000000000000000e+00 0
0.0000000000000000e+00 0.0000000000000000e+00 0
0.0000000000000000e+00 0.0000000000000000e+00 0
0.0000000000000000e+00 0.0000000000000000e+00 0
0.0000000000000000e+00 0.0000000000000000e+00 0
0.0000000000000000e+00 0.0000000000000000e+00 0
0.0000000000000000e+00 0.0000000000000000e+00 0
0.0000000000000000e+00 0.0000000000000000e+00 0
0.0000000000000000e+00 0.0000000000000000e+00 0
0.0000000000000000e+00 0.0000000000000000e+00 0
0.0000000000000000e+00 0.0000000000000000e+00 0
0.0000000000000000e+00 0.0000000000000000e+00 0
0.0000000000000000e+00 0.0000000000000000e+00 0
0.0000000000000000e+00 0.0000000000000000e+00 0
0.0000000000000000e+00 0.0000000000000000e+00 0
0.0000000000000000e+00 0.0000000000000000e+00 0
0.0000000000000000e+00 0.0000000000000000e+00 0
0.0000000000000000e+00 0.0000000000000000e+00 0
0.0000000000000000e+00 0.0000000000000000e+00 0
0.0000000000000000e+00 0.0000000000000000e+00 0
0.0000000000000000e+00 0.0000000000000000e+00 0
0.0000000000000000e+00 0.0000000000000000e+00 0
0.0000000000000000e+00 0.0000000000000000e+00 0
0.0000000000000000e+00 0.0000000000000000e+00 0
0.0000000000000000e+00 0.0000000000000000e+00 0
0.0000000000000000e+00 0.0000000000000000e+00 0
0.0000000000000000e+00 0.0000000000000000e+00 0
0.0000000000000000e+00 0.0000000000000000e+00 0
0.0000000000000000e+00 0.0000000000000000e+00 0
0.0000000000000000e+00 0.0000000000000000e+00 0
0.0000000000000000e+00 0.0000000000000000e+00 0
0.0000000000000000e+00 0.0000000000000000e+00 0
0.0000000000000000e+00 0.0000000000000000e+00 0
0.0000000000000000e+00 0.0000000000000000e+00 0
0.0000000000000000e+00 0.0000000000000000e+00 0
0.0000000000000000e+00 0.0000000000000000e+00 0
0.0000000000000000e+00 0.0000000000000000e+00 0
0.0000000000000000e+00 0.0000000000000000e+00 0
0.0000000000000000e+00 0.0000000000000000e+00 0
0.0000000000000000e+00 0.0000000000000000e+00 0
0.0000000000000000e+00 0.0000000000000000e+00 0
0.0000000000000000e+00 0.0000000000000000e+00 0
0.0000000000000000e+00 0.0000000000000000e+00 0
0.0000000000000000e+00 0.0000000000000000e+00 0
0.0000000000000000e+00 0.0000000000000000e+00 0
0.0000000000000000e+00 0.0000000000000000e+00 0
0.0000000000000000e+00 0.0000000000000000e+00 0

VECTORS Displacements1 float
-1.6912728706676756e-17 9.4468894391691898e-18 0
-1.0105944273901825e-23 -5.2749397320273705e-24 0
1.3111549895289722e-07 -5.3628226653302147e-08 0
1.4127973359738853e-07 7.0947667338582459e-08 0
1.5106773650716750e-07 -2.9575939707855448e-08 0
1.5343548375554444e-07 5.0843950205436908e-08 0
9.1190144418006542e-08 -6.9676996372240351e-09 0
9.0420789633843624e-08 2.2810096838245749e-08 0
8.6886722021995831e-09 1.4819298174915985e-08 0
1.0652543250791874e-08 -1.2470975543912934e-08 0
3.4607959648905205e-07 2.3143320759141580e-08 0
3.4374432282206034e-07 2.6675218238165179e-08 0
8.3900839536290056e-09 -1.3486356773291634e-08 0
9.7900000215564793e-09 1.5824917153673136e-08 0
9.8470109122421095e-08 1.3974444272199061e-08 0
9.9357136441893778e-08 3.5751790342736502e-09 0
9.8619321438840204e-08 4.3651214114955073e-10 0
9.8852391813415354e-08 1.7356796506915145e-08 0
8.3615949368161900e-09 1.3775076427782425e-08 0
1.0687811603724236e-08 -1.1368694368845762e-08 0
3.4321237249390289e-07 2.0385467852919062e-08 0
3.5076832164886309e-07 3.4348730562357011e-08 0
8.1240935870044521e-09 -1.4106770589612046e-08 0
9.5248388303244950e-09 1.7885487786719828e-08 0
9.7898358135681916e-08 1.2759149184456796e-08 0
1.0322089388590839e-07 6.6887685544658301e-09 0
9.7926986800397619e-08 -6.8130326363481024e-10 0
1.0224512855351737e-07 2.0971611826308833e-08 0
8.3535501346798718e-09 1.3028716388957884e-08 0
1.1729636481042304e-08 -1.0262172901514498e-08 0
3.4156138926227253e-07 1.8183838137696671e-08 0
3.6898492614301949e-07 4.3557434285979569e-08 0
7.8878815858598532e-09 -1.4643985248108130e-08 0
9.6182086295637056e-09 2.0451592876271809e-08 0
9.7499189008552560e-08 1.2160071060322851e-08 0
1.1033696634480197e-07 9.7082288396512353e-09 0
9.7500910947668467e-08 -1.1500197672302715e-09 0
1.0888423321718476e-07 2.4901114172851041e-08 0
8.2469974907759586e-09 1.2751858955042269e-08 0
1.3073060677983198e-08 -9.7881746263790684e-09 0
3.4007426587216607e-07 1.8002264142361733e-08 0
3.9880727054880753e-07 5.2894050091126153e-08 0
7.7338030159023703e-09 -1.4687301451885160e-08 0
1.0041852673243995e-08 2.3330732145204032e-08 0
9.7093459682103051e-08 1.2419402525004154e-08 0
1.2100589138951895e-07 1.2475494199492617e-08 0
9.7167240182036112e-08 -7.1217258815653938e-10 0
1.1907113564710957e-07 2.9037752220351332e-08 0
7.9901768468761988e-09 1.3247023951622145e-08 0
1.4766953133589102e-08 -1.0214371342169797e-08 0
3.3867466066864915e-07 2.1215101174172411e-08 0
4.4214685682822421e-07 6.1781662267936885e-08 0
7.7351846209908185e-09 -1.3893858211481415e-08 0
1.0884257157502811e-08 2.6401133414438628e-08 0
9.6269445321692366e-08 1.4243293587256081e-08 0
1.3571286047131329e-07 1.4609398923726505e-08 0
9.6606393850129099e-08 1.2889208223833841e-09 0
1.3332812656576906e-07 3.3159893570226103e-08 0
7.6374503924590117e-09 1.4224557557904763e-08 0
1.6999824768614260e-08 -1.1384004649289088e-08 0
3.3574052716256338e-07 2.6380118877306388e-08 0
5.0167922213773032e-07 7.1840576705890072e-08 0
7.6453964784562884e-09 -1.2537425790356532e-08 0
1.2028704249915661e-08 3.0116126286132809e-08 0
9.6574522238992691e-08 1.6527417927775427e-08 0
1.5696323599095526e-07 1.7254723657990327e-08 0
9.7103303565364059e-08 3.9559870603501421e-09 0
1.5385607871211922e-07 3.8467605600100245e-08 0
7.0157706574061503e-09 1.7951625212681685e-08 0
1.9930001799908558e-08 -1.4939163374430019e-08 0
3.4079625367018639e-07 4.3514996995663508e-08 0
5.8959812642002608e-07 7.8697833678349298e-08 0
8.4232202581406884e-09 -8.6078341710740483e-09 0
1.4209193198402625e-08 3.3527690947852938e-08 0
9.5293236458187929e-08 2.5813432185984764e-08 0
1.8539613070431607e-07 1.6470344310436492e-08 0
9.6854575854336882e-08 1.2930698747012519e-08 0
1.8186258797838611e-07 4.2089617306946696e-08 0
7.2100825274170747e-09 1.9733510240502699e-08 0
2.4875484384273346e-08 -1.7821344982025311e-08 0
3.4180974887686974e-07 4.9022440245510404e-08 0
7.1409696905398362e-07 1.0009778201142717e-07 0
6.7221746355291047e-09 -7.1468072376421169e-09 0
1.5173014759647100e-08 4.1004407038992323e-08 0
1.1495516642324563e-07 2.8005876068957600e-08 0
2.4298293224796611e-07 2.4381737225765550e-08 0
1.1467052934908501e-07 1.6795576534452787e-08 0
2.3574824192465060e-07 5.5443118286961740e-08 0
7.1101637830885816e-09 4.9618903945437028e-08 0
3.2579032419218496e-08 -4.0835084316224771e-08 0
4.7778096090434804e-07 1.7476161652401068e-07 0
1.0005321204978278e-06 7.2021565924105949e-08 0
1.6849221762253997e-08 1.9847398544436661e-08 0
2.3249183953671107e-08 4.0418984334782236e-08 0
1.6148737558232867e-07 1.3975769238777983e-07 0
3.4995103511319031e-07 -1.7017890697930497e-08 0
1.5299670558215713e-07 2.3282853647316540e-07 0
3.4365947832352752e-07 -6.0626405494285153e-08 0
7.5704138325819544e-07 6.4734491523360207e-07 0
8.7114722588948222e-07 -1.4115112596626943e-07 0
6.3716738801640330e-07 5.5721043840765832e-07 0
7.6315503249917059e-07 4.5923390093070088e-07 0
5.6051181585904795e-07 2.9827582870170502e-07 0
5.6228563851678358e-07 2.7691434382748363e-07 0
8.1772936850924864e-07 1.8348876500571386e-08 0
6.3053693916365226e-07 -3.0441895624063533e-07 0

VECTORS Displacements2 float
-1.7300034995420005e-17 9.6632102469528517e-18 0
-1.0409223404477747e-23 -5.3886549126045469e-24 0
1.3506277432335178e-07 -5.4740749055739244e-08 0
1.4536141593337805e-07 7.2407869914075046e-08 0
1.5583990763709615e-07 -3.0713676576152832e-08 0
1.5814278416801698e-07 5.2458306094443006e-08 0
9.4040033230648396e-08 -7.4341677845486784e-09 0
9.3156192364858898e-08 2.3628128622488857e-08 0
1.0052848739549709e-08 1.5320006017625329e-08 0
1.2113454933991914e-08 -1.2896147207748716e-08 0
3.5583123545783164e-07 2.3700592269170240e-08 0
3.5306664663647986e-07 2.7308356960546615e-08 0
9.7363794180003274e-09 -1.4023052607883982e-08 0
1.1203560305217562e-08 1.6412864165822309e-08 0
1.0143922477383880e-07 1.4162280095329596e-08 0
1.0223732924834152e-07 3.8617595202927798e-09 0
1.0158441545529394e-07 5.9779696817460480e-10 0
1.0174129240141378e-07 1.7631075418000679e-08 0
9.6998315575543734e-09 1.4289869881206289e-08 0
1.2152462797123905e-08 -1.1785280045615513e-08 0
3.5289881295654665e-07 2.0876349185326861e-08 0
3.6026723003131321e-07 3.5208417112213480e-08 0
9.4583112312648788e-09 -1.4668953149297543e-08 0
1.0951333903103236e-08 1.8558397903113845e-08 0
1.0085565124800294e-07 1.2914058381069483e-08 0
1.0621118238476011e-07 7.1034435688954786e-09 0
1.0088099805346649e-07 -5.5431336982058250e-10 0
1.0523160922669901e-07 2.1363860721931776e-08 0
9.6842293585007982e-09 1.3516608309818522e-08 0
1.3281306031833927e-08 -1.0619677655226844e-08 0
3.5122241159621135e-07 1.8632780434507336e-08 0
3.7896290766221958e-07 4.4688813456307906e-08 0
9.2094336036137263e-09 -1.5225373481871054e-08 0
1.1105907780527570e-08 2.1236473051984203e-08 0
1.0044922818373113e-07 1.2302154637024577e-08 0
1.1352593571645620e-07 1.0246974436245459e-08 0
1.0045050499542567e-07 -1.0336632818000168e-09 0
1.1206167324771185e-07 2.5412943431763060e-08 0
9.5667019532523954e-09 1.3233845902238860e-08 0
1.4758824952665447e-08 -1.0111039578500917e-08 0
3.4971413802846841e-07 1.8469449433638669e-08 0
4.0957816612889090e-07 5.4297518015476926e-08 0
9.0456261491949824e-09 -1.5264288250436586e-08 0
1.1638981794512575e-08 2.4237704208880836e-08 0
1.0003825749624830e-07 1.2580806201859437e-08 0
1.2449688425939792e-07 1.3135024959680359e-08 0
1.0011386727162659e-07 -5.7118242170987157e-10 0
1.2254099472367199e-07 2.9663507987429898e-08 0
9.2920372637076211e-09 1.3758496109040625e-08 0
1.6640255663326520e-08 -1.0538543514236479e-08 0
3.4829662967620648e-07 2.1803322892488309e-08 0
4.5407500971562976e-07 6.3442636966940755e-08 0
9.0413133916025901e-09 -1.4426701516091116e-08 0
1.2647896631697485e-08 2.7434797491057457e-08 0
9.9197836643580504e-08 1.4479985611616979e-08 0
1.3962314178088924e-07 1.5377663732153001e-08 0
9.9542546396467973e-08 1.5096279045539951e-09 0
1.3720725482431252e-07 3.3888460821977918e-08 0
8.9124525002473445e-09 1.4789198135171615e-08 0
1.9128278845529980e-08 -1.1738669528841587e-08 0
3.4530018059608940e-07 2.7152531330997243e-08 0
5.1520078161871239e-07 7.3789349183306290e-08 0
8.9423679747250114e-09 -1.2997836039829649e-08 0
1.4025009171911570e-08 3.1300332841528327e-08 0
9.9526471964659991e-08 1.6864936885939720e-08 0
1.6148243851676097e-07 1.8152774045458513e-08 0
1.0005605610305222e-07 4.2995280693547985e-09 0
1.5832100680292392e-07 3.9308205826152168e-08 0
8.2684457410727002e-09 1.8691748500799219e-08 0
2.2421681194556379e-08 -1.5417335301794374e-08 0
3.5051753313212612e-07 4.4831564539205379e-08 0
6.0547298649151703e-07 8.0847357425889616e-08 0
9.7529455006603653e-09 -8.8718323615894922e-09 0
1.6559351821849472e-08 3.4842463983184792e-08 0
9.8210938828393873e-08 2.6475586708593315e-08 0
1.9073041728710213e-07 1.7426382763456116e-08 0
9.9804707585749298e-08 1.3592311800713146e-08 0
1.8713243337151566e-07 4.2991251188746987e-08 0
8.4611185900058965e-09 2.0567993500607371e-08 0
2.7906097157392621e-08 -1.8391878079215578e-08 0
3.5154522146797985e-07 5.0567364671297191e-08 0
7.3330720452528707e-07 1.0284475953596742e-07 0
8.0500348862482336e-09 -7.3083772046021272e-09 0
1.8000282761199333e-08 4.2614394318160742e-08 0
1.1851562027465432e-07 2.8811111261753527e-08 0
2.4997648434010927e-07 2.5652971573327391e-08 0
1.1807680881521863e-07 1.7815215756513534e-08 0
2.4252770193183943e-07 5.6505466900072051e-08 0
8.7047233648750148e-09 5.1785102053286541e-08 0
3.6680555934558407e-08 -4.2281089355660398e-08 0
4.9115306931657059e-07 1.8006821207330249e-07 0
1.0273764123221240e-06 7.3968721681632863e-08 0
1.8986535281736318e-08 2.1123983290357735e-08 0
2.7382876523653924e-08 4.2176350438986226e-08 0
1.6631392933260607e-07 1.4570890368187978e-07 0
3.6001887023911946e-07 -1.7906837232098781e-08 0
1.5989691376859234e-07 2.4489222658940660e-07 0
3.5582035733937205e-07 -6.5039235676967336e-08 0
7.8288632181667358e-07 6.7307994031964158e-07 0
8.9890346217416262e-07 -1.4936406920607644e-07 0
6.6695204377609502e-07 5.8235623204996962e-07 0
7.9382714194715840e-07 4.7645530084241007e-07 0
5.8377269500587097e-07 3.0880968913949156e-07 0
5.8558873162431987e-07 2.8431076256510697e-07 0
8.4859926002145712e-07 1.7142284273992232e-08 0
6.5917473168282513e-07 -3.1801801006615075e-07 0

VECTORS Displacements3 float
-1.7689636311512860e-17 9.8808141205613964e-18 0
-1.0716205799026819e-23 -5.5020858523664543e-24 0
1.3906758939636428e-07 -5.5847009115372310e-08 0
1.4948951581405688e-07 7.3863046303294770e-08 0
1.6068127601974744e-07 -3.1871535125272503e-08 0
1.6290747407344394e-07 5.4083147888893050e-08 0
9.6943730971650431e-08 -7.9063702492058731e-09 0
9.5938734586606207e-08 2.4454272057700585e-08 0
1.1472468076111456e-08 1.5816145082513593e-08 0
1.3622896188079622e-08 -1.3324051007378150e-08 0
3.6569145548288594e-07 2.4260004284750273e-08 0
3.6248535242725394e-07 2.7940718786758309e-08 0
1.1134120944852156e-08 -1.4573028433797506e-08 0
1.2667484421973003e-08 1.7010930033142093e-08 0
1.0445439243414299e-07 1.4334418496243355e-08 0
1.0515018836391358e-07 4.1651898472724221e-09 0
1.0458793017965362e-07 7.7249635995689023e-10 0
1.0467272520193801e-07 1.7890826694369071e-08 0
1.1093645072357129e-08 1.4810726863270567e-08 0
1.3668750728570903e-08 -1.2210784859418768e-08 0
3.6269606337416685e-07 2.1369634338454521e-08 0
3.6986198210975699e-07 3.6074202258924963e-08 0
1.0844270456324072e-08 -1.5244783937503890e-08 0
1.2432634862565868e-08 1.9240884109527861e-08 0
1.0385899570750908e-07 1.3053258290403159e-08 0
1.0923528701337205e-07 7.5375024242058752e-09 0
1.0387345271709888e-07 -4.1428887391617789e-10 0
1.0826135985239038e-07 2.1743899729564691e-08 0
1.1070402329486473e-08 1.4010208021670939e-08 0
1.4887326916782262e-08 -1.0983899052143304e-08 0
3.6099410447848400e-07 1.9084570758006599e-08 0
3.8904120609360575e-07 4.5829416422800095e-08 0
1.0582541505358609e-08 -1.5820750422034457e-08 0
1.2650923649887733e-08 2.2033773818103034e-08 0
1.0344554766697038e-07 1.2428695312216614e-08 0
1.1675038161492684e-07 1.0808649186511424e-08 0
1.0343842711180306e-07 -9.0422741280987333e-10 0
1.1528527919708889e-07 2.5913813394470201e-08 0
1.0941866955625402e-08 1.3721707509360617e-08 0
1.6503440007610035e-08 -1.0438974959322204e-08 0
3.5946423184123163e-07 1.8940850872181834e-08 0
4.2045704712165720e-07 5.5713360419153248e-08 0
1.0408771778843048e-08 -1.5854892287997794e-08 0
1.3297817348602344e-08 2.5159852948389572e-08 0
1.0302980240910081e-07 1.2727563730890304e-08 0
1.2802627726306139e-07 1.3821302125530712e-08 0
1.0309840390840609e-07 -4.1616307446593527e-10 0
1.2606118729430376e-07 3.0278678364520933e-08 0
1.0649236245157296e-08 1.4276989662070602e-08 0
1.8578979222301911e-08 -1.0866917260628793e-08 0
3.5802801635201296e-07 2.2398686902139832e-08 0
4.6612255536047186e-07 6.5118744077514923e-08 0
1.0398437310887775e-08 -1.4971667733164591e-08 0
1.4479758006583221e-08 2.8486307753840440e-08 0
1.0217356011085502e-07 1.4704120861967358e-08 0
1.4357622606041122e-07 1.6176810973928831e-08 0
1.0251574355939752e-07 1.7464406027685839e-09 0
1.4114243226024956e-07 3.4605930341454707e-08 0
1.0242434195923746e-08 1.5362746217298337e-08 0
2.1331166961997570e-08 -1.2097255693003372e-08 0
3.5496729584162368e-07 2.7936381996844090e-08 0
5.2885765289982241e-07 7.5756032202410411e-08 0
1.0289923556247705e-08 -1.3467850902133692e-08 0
1.6098766466172476e-08 3.2505188613213889e-08 0
1.0252702148840323e-07 1.7192954753588904e-08 0
1.6605073305482579e-07 1.9086437432743415e-08 0
1.0304489384653607e-07 4.6633244914011864e-09 0
1.6285005030628457e-07 4.0135534937047913e-08 0
9.5764684221396128e-09 1.9445726628485592e-08 0
2.5000974096380883e-08 -1.5901052171384380e-08 0
3.6034593812860422e-07 4.6168912655475639e-08 0
6.2150657511507083e-07 8.3016242480341755e-08 0
1.1133527744960144e-08 -9.1397987481047165e-09 0
1.9000306579781869e-08 3.6180493220043985e-08 0
1.0117811251885884e-07 2.7134829801613975e-08 0
1.9612278539954198e-07 1.8423595684428807e-08 0
1.0278933200054371e-07 1.4281121843596996e-08 0
1.9247806879934345e-07 4.3876461937559091e-08 0
9.7681328665199618e-09 2.1418856203379048e-08 0
3.1042582064756021e-08 -1.8968496909841463e-08 0
3.6138212480840253e-07 5.2142374182953622e-08 0
7.5270982863343451e-07 1.0561566690979100e-07 0
9.4309856967641875e-09 -7.4685858696116169e-09 0
2.0939139251841650e-08 4.4251564695214711e-08 0
1.2213450946481128e-07 2.9617015421157263e-08 0
2.5704169950773648e-07 2.6972578200707945e-08 0
1.2152247482110989e-07 1.8883011359864930e-08 0
2.4940496425953228e-07 5.7536522727699294e-08 0
1.0363497484245233e-08 5.4008365831535272e-08 0
4.0925109210814850e-08 -4.3754206991016871e-08 0
5.0468345343667420e-07 1.8545950982973284e-07 0
1.0544742512811189e-06 7.5932484217554923e-08 0
2.1181876664994043e-08 2.2474038970042171e-08 0
3.1650687996089603e-08 4.3945292990066916e-08 0
1.7123425673687982e-07 1.5186806565058194e-07 0
3.7025145157007254e-07 -1.8815653555121134e-08 0
1.6697916405859005e-07 2.5741035752536377e-07 0
3.6819333725979316e-07 -6.9667167085535380e-08 0
8.0928404278258428e-07 6.9949383465350086e-07 0
9.2717839216411333e-07 -1.5788930219153244e-07 0
6.9760006175953276e-07 6.0821825354076711e-07 0
8.2534051710768211e-07 4.9408667858108326e-07 0
6.0777445781970641e-07 3.1953683139326597e-07 0
6.0961272028687210e-07 2.9177391451267345e-07 0
8.8023245335704529e-07 1.5851275849713624e-08 0
6.8859871803732638e-07 -3.3198408595533160e-07 0

VECTORS Forces1 float
-4.0106977331185512e-02 2.5593526264844797e-02 0
-4.9023105022169208e-02 -2.7836649836719275e-02 0
5.6506469195791509e-01 -3.1443726655170118e-01 0
6.5747270060195728e-01 3.6440789577206673e-01 0
6.2057923711948393e-01 -9.6556388806010973e-02 0
7.2015352817692613e-01 1.1305446531459443e-01 0
3.9501651232926721e-01 1.5914346504008810e-02 0
4.5830825665699909e-01 -1.7905104816738050e-02 0
-5.9573659765478681e-02 -2.2259439083019265e-03 0
-6.9190770791716705e-02 2.4067543998178304e-03 0
1.5137482368793467e+00 -1.4574357658125529e-03 0
1.7594648397259587e+00 1.0613129279818620e-02 0
-6.3861001404531284e-02 -1.0871590030491874e-05 0
-7.4790349564867700e-02 -6.7611062342802486e-04 0
4.2895573497660550e-01 -9.3311639407519652e-04 0
5.0194837950139803e-01 5.5725918331971007e-03 0
4.2899030961243795e-01 -9.4115411806761984e-04 0
5.0199546498645808e-01 5.5885328722758577e-03 0
-6.3879454316801268e-02 5.0643112774973966e-05 0
-7.4882253227686504e-02 -7.6535211636563692e-04 0
1.5027438371707518e+00 -6.3124267694843923e-03 0
1.7804632626225327e+00 3.0671476565220682e-02 0
-6.3235332477355577e-02 3.0768968560019639e-04 0
-7.6210816670479686e-02 -1.6872282863660615e-03 0
4.2454997426154217e-01 -2.7221011936148444e-03 0
5.1138858350968974e-01 1.2072030149429485e-02 0
4.2454635184872430e-01 -2.7239356985832900e-03 0
5.1140327096878724e-01 1.2078930389399186e-02 0
-6.3199764145158960e-02 3.1301576077319231e-04 0
-7.6301791131382454e-02 -1.7270621360888497e-03 0
1.4871264708474161e+00 -1.0846744020309926e-02 0
1.8313360734559911e+00 5.3563029244627698e-02 0
-6.2448371293248144e-02 3.7916834316552712e-04 0
-7.8996124688066785e-02 -2.6063428619622652e-03 0
4.1933971279576188e-01 -3.1945939102851345e-03 0
5.3034173391177675e-01 1.8286992092304707e-02 0
4.1933387321564897e-01 -3.1964842391678950e-03 0
5.3036401263148014e-01 1.8294603619724518e-02 0
-6.2405370213884460e-02 3.6920197984991154e-04 0
-7.9155038331664998e-02 -2.6397955172886099e-03 0
1.4644885063651891e+00 -9.5063438757905534e-03 0
1.9138494487282596e+00 7.4493012122098981e-02 0
-6.1338958709117666e-02 1.6945149234096722e-04 0
-8.3193010644146359e-02 -3.4300013492480018e-03 0
4.1193750845594584e-01 -1.8287484384214773e-03 0
5.5872131208599118e-01 2.3906072322316032e-02 0
4.1192883587268642e-01 -1.8299530984489509e-03 0
5.5875183602745127e-01 2.3914256837399679e-02 0
-6.1278088505132576e-02 1.3561133617709308e-04 0
-8.3423448084551030e-02 -3.4521019216015606e-03 0
1.4341383006480999e+00 1.5623034788094555e-03 0
2.0327933783737135e+00 9.1723798706471446e-02 0
-5.9735695641203325e-02 -5.7846478080112850e-04 0
-8.8992690645658193e-02 -4.0371097135326458e-03 0
4.0122322762148227e-01 3.1057614685913886e-03 0
5.9783473244929830e-01 2.8131619817305439e-02 0
4.0121308532929428e-01 3.1030297654115937e-03 0
5.9787535509958767e-01 2.8142533320282867e-02 0
-5.9665449209935557e-02 -6.3683580705019467e-04 0
-8.9322739903017881e-02 -4.0493166113896297e-03 0
1.3909178854494477e+00 1.8741440024950463e-02 0
2.1939195528792861e+00 1.0909859399966879e-01 0
-5.8180247377132864e-02 -1.4432415825313203e-03 0
-9.7242126886224550e-02 -4.7771005958853734e-03 0
3.9096356893002199e-01 8.5933266655564017e-03 0
6.5340068365585036e-01 3.3443406952333547e-02 0
3.9094905621245829e-01 8.5902452498172639e-03 0
6.5344945789180009e-01 3.3456869207559900e-02 0
-5.8091342907031746e-02 -1.5861949765956546e-03 0
-9.7716616769675607e-02 -4.7488467943029274e-03 0
1.3585580037415124e+00 6.9092688801127136e-02 0
2.4290000862418251e+00 1.1247160957120760e-01 0
-5.5589284093256718e-02 -4.8171808352784765e-03 0
-1.0834104057419221e-01 -4.3312462281151192e-03 0
3.7348883644751324e-01 3.0812389363360608e-02 0
7.2760009791369551e-01 3.0919820619212154e-02 0
3.7346417230661599e-01 3.0770179541184696e-02 0
7.2763319228799472e-01 3.0952238923157901e-02 0
-5.5762272203773139e-02 -5.0534919720236797e-03 0
-1.0931438701548332e-01 -4.2993623516644668e-03 0
1.3062946739504657e+00 8.8453926589196541e-02 0
2.7551483803591905e+00 1.4850128961343581e-01 0
-6.1101089053086803e-02 -5.1913159983141693e-03 0
-1.3070197930158520e-01 -6.5455728398691598e-03 0
4.0922390169378159e-01 2.9495692833621124e-02 0
8.7429741517812087e-01 4.7393142546211728e-02 0
4.0913614033704837e-01 2.9319347907977824e-02 0
8.7414183577151372e-01 4.7470835721477346e-02 0
-6.1645001954914562e-02 -6.7758559453509649e-03 0
-1.3313309053810107e-01 -5.7265697906364182e-03 0
1.6004774199935599e+00 4.3061344069143631e-01 0
3.5168319276890920e+00 1.2027263665674727e-02 0
-6.9215046418385301e-02 -3.9124882255298601e-02 0
-1.7474803319085599e-01 1.2745321047693131e-02 0
5.1645857031923581e-01 2.5244402090203688e-01 0
1.2020023337366181e+00 -5.3978025864055201e-02 0
3.3217676558452336e-01 1.3296230082748955e-01 0
9.4425361807429575e-01 -4.6461531723005392e-02 0
1.7874564139072100e+00 1.1125984279778056e+00 0
2.3545618690585433e+00 -5.8344682849750581e-03 0
1.1519065913420982e-01 1.3607297614575251e-01 0
1.2738176002584760e+00 8.7388885169348596e-01 0
8.3873139707324351e-01 7.6342096779666102e-01 0
7.7348999033788979e-01 8.2565580025867147e-01 0
1.4689083560175369e+00 3.9069303836493696e-01 0
2.5635580495860455e-01 -8.3561474539797537e-02 0

VECTORS Forces2 float
-1.6236388037937572e-03 2.1118905535061801e-03 0
1.2675780259339258e-02 7.8079673690915107e-03 0
6.1516240496278365e-02 -3.6313335749511684e-02 0
-1.2788549069224622e-01 -6.9398404821911300e-02 0
6.4481281783462796e-02 -1.0409678964656962e-02 0
-1.4203000683136865e-01 -2.1203807502112797e-02 0
3.9347572573127709e-02 2.6334723834798334e-03 0
-9.2008290341331664e-02 3.2166304553360872e-03 0
-5.9331053791608149e-03 -4.5244235093940400e-04 0
1.3744656664728435e-02 -3.5283807032702351e-04 0
1.3225657886681239e-01 -2.8171239205997155e-04 0
-3.6897770049078432e-01 7.3489308444059064e-03 0
-5.4097230722539346e-03 1.1230543707822727e-04 0
1.5522851389521671e-02 -6.8981998416547355e-04 0
3.6342543079826928e-02 -1.4350717206191692e-03 0
-1.0479629100054370e-01 5.2957922694240739e-03 0
3.6344653289050115e-02 -1.4389746734397464e-03 0
-1.0479593911456023e-01 5.2988266556798823e-03 0
-5.4034326106606806e-03 1.2963809328883278e-04 0
1.5537938651784664e-02 -7.2366376666513734e-04 0
1.3355765153859994e-01 -8.9310116455514916e-03 0
-3.5538834788147527e-01 3.0285580966692319e-02 0
-5.9027622636605914e-03 4.3587684374379903e-04 0
1.4151474009242996e-02 -1.6724325096866318e-03 0
3.9902543223921352e-02 -3.5812402510853425e-03 0
-9.5012674888233062e-02 1.1975571641888300e-02 0
3.9907175097989640e-02 -3.5839557086805376e-03 0
-9.4998854016346362e-02 1.1982986504518549e-02 0
-5.9369430226335479e-03 4.4180617387726148e-04 0
1.4055914371913735e-02 -1.7121744385040886e-03 0
1.5065380551160601e-01 -1.4402526832811569e-02 0
-3.0596518562711439e-01 5.3348377903515994e-02 0
-6.8628459114674287e-03 5.5354362183715868e-04 0
1.1362201143498694e-02 -2.6066428856994180e-03 0
4.6473787395061562e-02 -4.3830110645592434e-03 0
-7.6040535613866728e-02 1.8302430101419305e-02 0
4.6480347193219272e-02 -4.3856274752259753e-03 0
-7.6018425139814799e-02 1.8310482620770049e-02 0
-6.9230702432981125e-03 5.4464657317078316e-04 0
1.1193511223137652e-02 -2.6402025783670239e-03 0
1.8023049049336667e-01 -1.4328103407485162e-02 0
-2.1986228020118012e-01 7.4898204975608534e-02 0
-8.3698009409393474e-03 3.9467502392052966e-04 0
6.8828303807798863e-03 -3.4569144391252138e-03 0
5.6730553623236653e-02 -3.3743765422705259e-03 0
-4.5699796363081698e-02 2.4112619835129443e-02 0
5.6739019211985563e-02 -3.3763168153572716e-03 0
-4.5667341461373176e-02 2.4121349249519863e-02 0
-8.4544582175312393e-03 3.6189930183547561e-04 0
6.6270715245500562e-03 -3.4794516598772819e-03 0
2.2226928679590055e-01 -4.4794644389737296e-03 0
-9.0102865325541195e-02 9.2884279112804460e-02 0
-1.0275817761895355e-02 -3.0589944616050421e-04 0
4.1042058094282753e-04 -4.0986207733726123e-03 0
6.9651507067267124e-02 1.2265313234302714e-03 0
-1.9647595619970942e-03 2.8585113668758315e-02 0
6.9663014696225267e-02 1.2229191539453032e-03 0
-1.9185055640788837e-03 2.8596854781094680e-02 0
-1.0397837054518088e-02 -3.6348871186599727e-04 0
3.2463078017777816e-05 -4.1113462690146214e-03 0
2.7385675659694503e-01 1.1461528490242175e-02 0
9.4236511798146100e-02 1.1136278046550166e-01 0
-1.3225592329551105e-02 -1.1160295615609921e-03 0
-9.1591986319572317e-03 -4.8927576958734450e-03 0
8.9687364128564775e-02 6.3238893640505606e-03 0
6.2661333517283979e-02 3.4287066288714613e-02 0
8.9699192010599893e-02 6.3195547969815196e-03 0
6.2724044975219551e-02 3.4302274710483895e-02 0
-1.3389805442440918e-02 -1.2583643943374408e-03 0
-9.7207474897727155e-03 -4.8650563746824452e-03 0
3.6254064295661914e-01 6.0257485630567875e-02 0
3.7400696429326979e-01 1.1684321486465479e-01 0
-1.6491104460820482e-02 -4.4156594239265993e-03 0
-2.2893243419184035e-02 -4.5631494306501508e-03 0
1.1155812138815657e-01 2.8010104270458334e-02 0
1.5502078944136349e-01 3.2615691553175861e-02 0
1.1156356664481668e-01 2.7967626984479896e-02 0
1.5508958703362824e-01 3.2653214953764470e-02 0
-1.6971949994050783e-02 -4.6532525492868990e-03 0
-2.3976945882095542e-02 -4.5197542307289897e-03 0
4.6241800297242519e-01 7.8977455119386461e-02 0
7.8368324793310107e-01 1.5525774573046894e-01 0
-2.8614441331250462e-02 -4.8876152102461882e-03 0
-4.9263158683620994e-02 -6.7585657126240459e-03 0
1.9162941061658173e-01 2.7426237321963195e-02 0
3.3009916313136484e-01 4.9283472929187784e-02 0
1.9157073345976700e-01 2.7244429563448646e-02 0
3.3009484264734779e-01 4.9395534841890576e-02 0
-2.9816013209298373e-02 -6.4405394443355435e-03 0
-5.1881914252393961e-02 -5.9022897920201194e-03 0
9.6256762108498994e-01 4.0730635001928583e-01 0
1.7233996821599802e+00 3.8303719300768757e-02 0
-5.2566297917081305e-02 -3.7050569831901921e-02 0
-1.0807467269797359e-01 1.0782987062345541e-02 0
3.9421130069978788e-01 2.3491184557438768e-01 0
7.5897274067614562e-01 -4.0591720050710177e-02 0
2.2334039924012966e-01 1.2130364147400813e-01 0
5.5407473330535062e-01 -1.9397629327901535e-02 0
1.6580177278461208e+00 1.0528823683890616e+00 0
1.9118154188167442e+00 -1.4648289196871134e-01 0
1.1944656368344493e-01 1.3655901276030893e-01 0
1.1718296801389823e+00 7.9986045969633413e-01 0
7.5855470162897187e-01 5.7762327357727028e-01 0
7.1023228373419689e-01 6.0536958266256813e-01 0
1.2108138411472631e+00 1.7769476417928895e-01 0
1.8914469092567535e-01 -8.8290440300772141e-02 0

