{
  "Finalized": "2019-11-13T15:37:01.772",
  "Initialized": "2019-11-13T15:36:52.660",
  "Name": "",
  "Ranks": [
    {
      "Finalized": "2019-11-13T15:37:01.772",
      "Initialized": "2019-11-13T15:36:52.660",
      "StateChanges": [
        {
          "Name": "_GLOBAL",
          "State": 1,
          "Timestamp": 0
        },
        {
          "Name": "_GLOBAL",
          "State": 0,
          "Timestamp": 9111
        },
        {
          "Name": "advance",
          "State": 1,
          "Timestamp": 177
        },
        {
          "Name": "advance",
          "State": 0,
          "Timestamp": 325
        },
        {
          "Name": "advance",
          "State": 1,
          "Timestamp": 406
        },
        {
          "Name": "advance",
          "State": 0,
          "Timestamp": 469
        },
        {
          "Name": "advance",
          "State": 1,
          "Timestamp": 535
        },
        {
          "Name": "advance",
          "State": 0,
          "Timestamp": 614
        },
        {
          "Name": "advance",
          "State": 1,
          "Timestamp": 680
        },
        {
          "Name": "advance",
          "State": 0,
          "Timestamp": 743
        },
        {
          "Name": "advance",
          "State": 1,
          "Timestamp": 808
        },
        {
          "Name": "advance",
          "State": 0,
          "Timestamp": 871
        },
        {
          "Name": "advance",
          "State": 1,
          "Timestamp": 936
        },
        {
          "Name": "advance",
          "State": 0,
          "Timestamp": 1000
        },
        {
          "Name": "advance",
          "State": 1,
          "Timestamp": 1065
        },
        {
          "Name": "advance",
          "State": 0,
          "Timestamp": 1129
        },
        {
          "Name": "advance",
          "State": 1,
          "Timestamp": 1194
        },
        {
          "Name": "advance",
          "State": 0,
          "Timestamp": 1256
        },
        {
          "Name": "advance",
          "State": 1,
          "Timestamp": 1322
        },
        {
          "Name": "advance",
          "State": 0,
          "Timestamp": 1385
        },
        {
          "Name": "advance",
          "State": 1,
          "Timestamp": 1450
        },
        {
          "Name": "advance",
          "State": 0,
          "Timestamp": 1514
        },
        {
          "Name": "advance",
          "State": 1,
          "Timestamp": 1580
        },
        {
          "Name": "advance",
          "State": 0,
          "Timestamp": 1642
        },
        {
          "Name": "advance",
          "State": 1,
          "Timestamp": 1708
        },
        {
          "Name": "advance",
          "State": 0,
          "Timestamp": 1771
        },
        {
          "Name": "advance",
          "State": 1,
          "Timestamp": 1837
        },
        {
          "Name": "advance",
          "State": 0,
          "Timestamp": 1900
        },
        {
          "Name": "advance",
          "State": 1,
          "Timestamp": 1966
        },
        {
          "Name": "advance",
          "State": 0,
          "Timestamp": 2028
        },
        {
          "Name": "advance",
          "State": 1,
          "Timestamp": 2094
        },
        {
          "Name": "advance",
          "State": 0,
          "Timestamp": 2156
        },
        {
          "Name": "advance",
          "State": 1,
          "Timestamp": 2222
        },
        {
          "Name": "advance",
          "State": 0,
          "Timestamp": 2285
        },
        {
          "Name": "advance",
          "State": 1,
          "Timestamp": 2350
        },
        {
          "Name": "advance",
          "State": 0,
          "Timestamp": 2413
        },
        {
          "Name": "advance",
          "State": 1,
          "Timestamp": 2479
        },
        {
          "Name": "advance",
          "State": 0,
          "Timestamp": 2542
        },
        {
          "Name": "advance",
          "State": 1,
          "Timestamp": 2619
        },
        {
          "Name": "advance",
          "State": 0,
          "Timestamp": 2694
        },
        {
          "Name": "advance",
          "State": 1,
          "Timestamp": 2759
        },
        {
          "Name": "advance",
          "State": 0,
          "Timestamp": 2822
        },
        {
          "Name": "advance",
          "State": 1,
          "Timestamp": 2888
        },
        {
          "Name": "advance",
          "State": 0,
          "Timestamp": 2951
        },
        {
          "Name": "advance",
          "State": 1,
          "Timestamp": 3016
        },
        {
          "Name": "advance",
          "State": 0,
          "Timestamp": 3079
        },
        {
          "Name": "advance",
          "State": 1,
          "Timestamp": 3145
        },
        {
          "Name": "advance",
          "State": 0,
          "Timestamp": 3208
        },
        {
          "Name": "advance",
          "State": 1,
          "Timestamp": 3274
        },
        {
          "Name": "advance",
          "State": 0,
          "Timestamp": 3337
        },
        {
          "Name": "advance",
          "State": 1,
          "Timestamp": 3403
        },
        {
          "Name": "advance",
          "State": 0,
          "Timestamp": 3467
        },
        {
          "Name": "advance",
          "State": 1,
          "Timestamp": 3534
        },
        {
          "Name": "advance",
          "State": 0,
          "Timestamp": 3598
        },
        {
          "Name": "advance",
          "State": 1,
          "Timestamp": 3664
        },
        {
          "Name": "advance",
          "State": 0,
          "Timestamp": 3728
        },
        {
          "Name": "advance",
          "State": 1,
          "Timestamp": 3793
        },
        {
          "Name": "advance",
          "State": 0,
          "Timestamp": 3856
        },
        {
          "Name": "advance",
          "State": 1,
          "Timestamp": 3922
        },
        {
          "Name": "advance",
          "State": 0,
          "Timestamp": 3985
        },
        {
          "Name": "advance",
          "State": 1,
          "Timestamp": 4050
        },
        {
          "Name": "advance",
          "State": 0,
          "Timestamp": 4114
        },
        {
          "Name": "advance",
          "State": 1,
          "Timestamp": 4179
        },
        {
          "Name": "advance",
          "State": 0,
          "Timestamp": 4242
        },
        {
          "Name": "advance",
          "State": 1,
          "Timestamp": 4307
        },
        {
          "Name": "advance",
          "State": 0,
          "Timestamp": 4372
        },
        {
          "Name": "advance",
          "State": 1,
          "Timestamp": 4437
        },
        {
          "Name": "advance",
          "State": 0,
          "Timestamp": 4502
        },
        {
          "Name": "advance",
          "State": 1,
          "Timestamp": 4567
        },
        {
          "Name": "advance",
          "State": 0,
          "Timestamp": 4631
        },
        {
          "Name": "advance",
          "State": 1,
          "Timestamp": 4697
        },
        {
          "Name": "advance",
          "State": 0,
          "Timestamp": 4761
        },
        {
          "Name": "advance",
          "State": 1,
          "Timestamp": 4826
        },
        {
          "Name": "advance",
          "State": 0,
          "Timestamp": 4890
        },
        {
          "Name": "advance",
          "State": 1,
          "Timestamp": 4966
        },
        {
          "Name": "advance",
          "State": 0,
          "Timestamp": 5042
        },
        {
          "Name": "advance",
          "State": 1,
          "Timestamp": 5108
        },
        {
          "Name": "advance",
          "State": 0,
          "Timestamp": 5171
        },
        {
          "Name": "advance",
          "State": 1,
          "Timestamp": 5237
        },
        {
          "Name": "advance",
          "State": 0,
          "Timestamp": 5300
        },
        {
          "Name": "advance",
          "State": 1,
          "Timestamp": 5366
        },
        {
          "Name": "advance",
          "State": 0,
          "Timestamp": 5429
        },
        {
          "Name": "advance",
          "State": 1,
          "Timestamp": 5495
        },
        {
          "Name": "advance",
          "State": 0,
          "Timestamp": 5559
        },
        {
          "Name": "advance",
          "State": 1,
          "Timestamp": 5624
        },
        {
          "Name": "advance",
          "State": 0,
          "Timestamp": 5688
        },
        {
          "Name": "advance",
          "State": 1,
          "Timestamp": 5754
        },
        {
          "Name": "advance",
          "State": 0,
          "Timestamp": 5817
        },
        {
          "Name": "advance",
          "State": 1,
          "Timestamp": 5882
        },
        {
          "Name": "advance",
          "State": 0,
          "Timestamp": 5945
        },
        {
          "Name": "advance",
          "State": 1,
          "Timestamp": 6011
        },
        {
          "Name": "advance",
          "State": 0,
          "Timestamp": 6074
        },
        {
          "Name": "advance",
          "State": 1,
          "Timestamp": 6140
        },
        {
          "Name": "advance",
          "State": 0,
          "Timestamp": 6204
        },
        {
          "Name": "advance",
          "State": 1,
          "Timestamp": 6281
        },
        {
          "Name": "advance",
          "State": 0,
          "Timestamp": 6355
        },
        {
          "Name": "advance",
          "State": 1,
          "Timestamp": 6421
        },
        {
          "Name": "advance",
          "State": 0,
          "Timestamp": 6485
        },
        {
          "Name": "advance",
          "State": 1,
          "Timestamp": 6550
        },
        {
          "Name": "advance",
          "State": 0,
          "Timestamp": 6614
        },
        {
          "Name": "advance",
          "State": 1,
          "Timestamp": 6692
        },
        {
          "Name": "advance",
          "State": 0,
          "Timestamp": 6766
        },
        {
          "Name": "advance",
          "State": 1,
          "Timestamp": 6832
        },
        {
          "Name": "advance",
          "State": 0,
          "Timestamp": 6895
        },
        {
          "Name": "advance",
          "State": 1,
          "Timestamp": 6960
        },
        {
          "Name": "advance",
          "State": 0,
          "Timestamp": 7023
        },
        {
          "Name": "advance",
          "State": 1,
          "Timestamp": 7100
        },
        {
          "Name": "advance",
          "State": 0,
          "Timestamp": 7174
        },
        {
          "Name": "advance",
          "State": 1,
          "Timestamp": 7240
        },
        {
          "Name": "advance",
          "State": 0,
          "Timestamp": 7303
        },
        {
          "Name": "advance",
          "State": 1,
          "Timestamp": 7370
        },
        {
          "Name": "advance",
          "State": 0,
          "Timestamp": 7434
        },
        {
          "Name": "advance",
          "State": 1,
          "Timestamp": 7512
        },
        {
          "Name": "advance",
          "State": 0,
          "Timestamp": 7585
        },
        {
          "Name": "advance",
          "State": 1,
          "Timestamp": 7652
        },
        {
          "Name": "advance",
          "State": 0,
          "Timestamp": 7715
        },
        {
          "Name": "advance",
          "State": 1,
          "Timestamp": 7780
        },
        {
          "Name": "advance",
          "State": 0,
          "Timestamp": 7848
        },
        {
          "Name": "advance",
          "State": 1,
          "Timestamp": 7925
        },
        {
          "Name": "advance",
          "State": 0,
          "Timestamp": 8000
        },
        {
          "Name": "advance",
          "State": 1,
          "Timestamp": 8066
        },
        {
          "Name": "advance",
          "State": 0,
          "Timestamp": 8129
        },
        {
          "Name": "advance",
          "State": 1,
          "Timestamp": 8195
        },
        {
          "Name": "advance",
          "State": 0,
          "Timestamp": 8259
        },
        {
          "Name": "advance",
          "State": 1,
          "Timestamp": 8336
        },
        {
          "Name": "advance",
          "State": 0,
          "Timestamp": 8411
        },
        {
          "Name": "advance",
          "State": 1,
          "Timestamp": 8477
        },
        {
          "Name": "advance",
          "State": 0,
          "Timestamp": 8541
        },
        {
          "Name": "advance",
          "State": 1,
          "Timestamp": 8607
        },
        {
          "Name": "advance",
          "State": 0,
          "Timestamp": 8674
        },
        {
          "Name": "advance",
          "State": 1,
          "Timestamp": 8752
        },
        {
          "Name": "advance",
          "State": 0,
          "Timestamp": 8827
        },
        {
          "Name": "advance",
          "State": 1,
          "Timestamp": 8892
        },
        {
          "Name": "advance",
          "State": 0,
          "Timestamp": 8956
        },
        {
          "Name": "advance",
          "State": 1,
          "Timestamp": 9021
        },
        {
          "Name": "advance",
          "State": 0,
          "Timestamp": 9083
        },
        {
          "Name": "advance/map.np.mapData.FromDirichletNodesToNeumannNodes",
          "State": 1,
          "Timestamp": 177
        },
        {
          "Name": "advance/map.np.mapData.FromDirichletNodesToNeumannNodes",
          "State": 0,
          "Timestamp": 177
        },
        {
          "Name": "advance/map.np.mapData.FromDirichletNodesToNeumannNodes",
          "State": 1,
          "Timestamp": 177
        },
        {
          "Name": "advance/map.np.mapData.FromDirichletNodesToNeumannNodes",
          "State": 0,
          "Timestamp": 177
        },
        {
          "Name": "advance/map.np.mapData.FromDirichletNodesToNeumannNodes",
          "State": 1,
          "Timestamp": 406
        },
        {
          "Name": "advance/map.np.mapData.FromDirichletNodesToNeumannNodes",
          "State": 0,
          "Timestamp": 406
        },
        {
          "Name": "advance/map.np.mapData.FromDirichletNodesToNeumannNodes",
          "State": 1,
          "Timestamp": 406
        },
        {
          "Name": "advance/map.np.mapData.FromDirichletNodesToNeumannNodes",
          "State": 0,
          "Timestamp": 406
        },
        {
          "Name": "advance/map.np.mapData.FromDirichletNodesToNeumannNodes",
          "State": 1,
          "Timestamp": 535
        },
        {
          "Name": "advance/map.np.mapData.FromDirichletNodesToNeumannNodes",
          "State": 0,
          "Timestamp": 535
        },
        {
          "Name": "advance/map.np.mapData.FromDirichletNodesToNeumannNodes",
          "State": 1,
          "Timestamp": 535
        },
        {
          "Name": "advance/map.np.mapData.FromDirichletNodesToNeumannNodes",
          "State": 0,
          "Timestamp": 535
        },
        {
          "Name": "advance/map.np.mapData.FromDirichletNodesToNeumannNodes",
          "State": 1,
          "Timestamp": 680
        },
        {
          "Name": "advance/map.np.mapData.FromDirichletNodesToNeumannNodes",
          "State": 0,
          "Timestamp": 680
        },
        {
          "Name": "advance/map.np.mapData.FromDirichletNodesToNeumannNodes",
          "State": 1,
          "Timestamp": 680
        },
        {
          "Name": "advance/map.np.mapData.FromDirichletNodesToNeumannNodes",
          "State": 0,
          "Timestamp": 680
        },
        {
          "Name": "advance/map.np.mapData.FromDirichletNodesToNeumannNodes",
          "State": 1,
          "Timestamp": 808
        },
        {
          "Name": "advance/map.np.mapData.FromDirichletNodesToNeumannNodes",
          "State": 0,
          "Timestamp": 808
        },
        {
          "Name": "advance/map.np.mapData.FromDirichletNodesToNeumannNodes",
          "State": 1,
          "Timestamp": 808
        },
        {
          "Name": "advance/map.np.mapData.FromDirichletNodesToNeumannNodes",
          "State": 0,
          "Timestamp": 808
        },
        {
          "Name": "advance/map.np.mapData.FromDirichletNodesToNeumannNodes",
          "State": 1,
          "Timestamp": 936
        },
        {
          "Name": "advance/map.np.mapData.FromDirichletNodesToNeumannNodes",
          "State": 0,
          "Timestamp": 936
        },
        {
          "Name": "advance/map.np.mapData.FromDirichletNodesToNeumannNodes",
          "State": 1,
          "Timestamp": 936
        },
        {
          "Name": "advance/map.np.mapData.FromDirichletNodesToNeumannNodes",
          "State": 0,
          "Timestamp": 936
        },
        {
          "Name": "advance/map.np.mapData.FromDirichletNodesToNeumannNodes",
          "State": 1,
          "Timestamp": 1065
        },
        {
          "Name": "advance/map.np.mapData.FromDirichletNodesToNeumannNodes",
          "State": 0,
          "Timestamp": 1065
        },
        {
          "Name": "advance/map.np.mapData.FromDirichletNodesToNeumannNodes",
          "State": 1,
          "Timestamp": 1065
        },
        {
          "Name": "advance/map.np.mapData.FromDirichletNodesToNeumannNodes",
          "State": 0,
          "Timestamp": 1065
        },
        {
          "Name": "advance/map.np.mapData.FromDirichletNodesToNeumannNodes",
          "State": 1,
          "Timestamp": 1194
        },
        {
          "Name": "advance/map.np.mapData.FromDirichletNodesToNeumannNodes",
          "State": 0,
          "Timestamp": 1194
        },
        {
          "Name": "advance/map.np.mapData.FromDirichletNodesToNeumannNodes",
          "State": 1,
          "Timestamp": 1194
        },
        {
          "Name": "advance/map.np.mapData.FromDirichletNodesToNeumannNodes",
          "State": 0,
          "Timestamp": 1194
        },
        {
          "Name": "advance/map.np.mapData.FromDirichletNodesToNeumannNodes",
          "State": 1,
          "Timestamp": 1322
        },
        {
          "Name": "advance/map.np.mapData.FromDirichletNodesToNeumannNodes",
          "State": 0,
          "Timestamp": 1322
        },
        {
          "Name": "advance/map.np.mapData.FromDirichletNodesToNeumannNodes",
          "State": 1,
          "Timestamp": 1322
        },
        {
          "Name": "advance/map.np.mapData.FromDirichletNodesToNeumannNodes",
          "State": 0,
          "Timestamp": 1322
        },
        {
          "Name": "advance/map.np.mapData.FromDirichletNodesToNeumannNodes",
          "State": 1,
          "Timestamp": 1450
        },
        {
          "Name": "advance/map.np.mapData.FromDirichletNodesToNeumannNodes",
          "State": 0,
          "Timestamp": 1450
        },
        {
          "Name": "advance/map.np.mapData.FromDirichletNodesToNeumannNodes",
          "State": 1,
          "Timestamp": 1450
        },
        {
          "Name": "advance/map.np.mapData.FromDirichletNodesToNeumannNodes",
          "State": 0,
          "Timestamp": 1450
        },
        {
          "Name": "advance/map.np.mapData.FromDirichletNodesToNeumannNodes",
          "State": 1,
          "Timestamp": 1580
        },
        {
          "Name": "advance/map.np.mapData.FromDirichletNodesToNeumannNodes",
          "State": 0,
          "Timestamp": 1580
        },
        {
          "Name": "advance/map.np.mapData.FromDirichletNodesToNeumannNodes",
          "State": 1,
          "Timestamp": 1580
        },
        {
          "Name": "advance/map.np.mapData.FromDirichletNodesToNeumannNodes",
          "State": 0,
          "Timestamp": 1580
        },
        {
          "Name": "advance/map.np.mapData.FromDirichletNodesToNeumannNodes",
          "State": 1,
          "Timestamp": 1708
        },
        {
          "Name": "advance/map.np.mapData.FromDirichletNodesToNeumannNodes",
          "State": 0,
          "Timestamp": 1708
        },
        {
          "Name": "advance/map.np.mapData.FromDirichletNodesToNeumannNodes",
          "State": 1,
          "Timestamp": 1708
        },
        {
          "Name": "advance/map.np.mapData.FromDirichletNodesToNeumannNodes",
          "State": 0,
          "Timestamp": 1708
        },
        {
          "Name": "advance/map.np.mapData.FromDirichletNodesToNeumannNodes",
          "State": 1,
          "Timestamp": 1837
        },
        {
          "Name": "advance/map.np.mapData.FromDirichletNodesToNeumannNodes",
          "State": 0,
          "Timestamp": 1837
        },
        {
          "Name": "advance/map.np.mapData.FromDirichletNodesToNeumannNodes",
          "State": 1,
          "Timestamp": 1837
        },
        {
          "Name": "advance/map.np.mapData.FromDirichletNodesToNeumannNodes",
          "State": 0,
          "Timestamp": 1837
        },
        {
          "Name": "advance/map.np.mapData.FromDirichletNodesToNeumannNodes",
          "State": 1,
          "Timestamp": 1966
        },
        {
          "Name": "advance/map.np.mapData.FromDirichletNodesToNeumannNodes",
          "State": 0,
          "Timestamp": 1966
        },
        {
          "Name": "advance/map.np.mapData.FromDirichletNodesToNeumannNodes",
          "State": 1,
          "Timestamp": 1966
        },
        {
          "Name": "advance/map.np.mapData.FromDirichletNodesToNeumannNodes",
          "State": 0,
          "Timestamp": 1966
        },
        {
          "Name": "advance/map.np.mapData.FromDirichletNodesToNeumannNodes",
          "State": 1,
          "Timestamp": 2094
        },
        {
          "Name": "advance/map.np.mapData.FromDirichletNodesToNeumannNodes",
          "State": 0,
          "Timestamp": 2094
        },
        {
          "Name": "advance/map.np.mapData.FromDirichletNodesToNeumannNodes",
          "State": 1,
          "Timestamp": 2094
        },
        {
          "Name": "advance/map.np.mapData.FromDirichletNodesToNeumannNodes",
          "State": 0,
          "Timestamp": 2094
        },
        {
          "Name": "advance/map.np.mapData.FromDirichletNodesToNeumannNodes",
          "State": 1,
          "Timestamp": 2222
        },
        {
          "Name": "advance/map.np.mapData.FromDirichletNodesToNeumannNodes",
          "State": 0,
          "Timestamp": 2222
        },
        {
          "Name": "advance/map.np.mapData.FromDirichletNodesToNeumannNodes",
          "State": 1,
          "Timestamp": 2222
        },
        {
          "Name": "advance/map.np.mapData.FromDirichletNodesToNeumannNodes",
          "State": 0,
          "Timestamp": 2222
        },
        {
          "Name": "advance/map.np.mapData.FromDirichletNodesToNeumannNodes",
          "State": 1,
          "Timestamp": 2350
        },
        {
          "Name": "advance/map.np.mapData.FromDirichletNodesToNeumannNodes",
          "State": 0,
          "Timestamp": 2350
        },
        {
          "Name": "advance/map.np.mapData.FromDirichletNodesToNeumannNodes",
          "State": 1,
          "Timestamp": 2350
        },
        {
          "Name": "advance/map.np.mapData.FromDirichletNodesToNeumannNodes",
          "State": 0,
          "Timestamp": 2350
        },
        {
          "Name": "advance/map.np.mapData.FromDirichletNodesToNeumannNodes",
          "State": 1,
          "Timestamp": 2479
        },
        {
          "Name": "advance/map.np.mapData.FromDirichletNodesToNeumannNodes",
          "State": 0,
          "Timestamp": 2479
        },
        {
          "Name": "advance/map.np.mapData.FromDirichletNodesToNeumannNodes",
          "State": 1,
          "Timestamp": 2479
        },
        {
          "Name": "advance/map.np.mapData.FromDirichletNodesToNeumannNodes",
          "State": 0,
          "Timestamp": 2479
        },
        {
          "Name": "advance/map.np.mapData.FromDirichletNodesToNeumannNodes",
          "State": 1,
          "Timestamp": 2619
        },
        {
          "Name": "advance/map.np.mapData.FromDirichletNodesToNeumannNodes",
          "State": 0,
          "Timestamp": 2619
        },
        {
          "Name": "advance/map.np.mapData.FromDirichletNodesToNeumannNodes",
          "State": 1,
          "Timestamp": 2619
        },
        {
          "Name": "advance/map.np.mapData.FromDirichletNodesToNeumannNodes",
          "State": 0,
          "Timestamp": 2619
        },
        {
          "Name": "advance/map.np.mapData.FromDirichletNodesToNeumannNodes",
          "State": 1,
          "Timestamp": 2759
        },
        {
          "Name": "advance/map.np.mapData.FromDirichletNodesToNeumannNodes",
          "State": 0,
          "Timestamp": 2759
        },
        {
          "Name": "advance/map.np.mapData.FromDirichletNodesToNeumannNodes",
          "State": 1,
          "Timestamp": 2759
        },
        {
          "Name": "advance/map.np.mapData.FromDirichletNodesToNeumannNodes",
          "State": 0,
          "Timestamp": 2759
        },
        {
          "Name": "advance/map.np.mapData.FromDirichletNodesToNeumannNodes",
          "State": 1,
          "Timestamp": 2888
        },
        {
          "Name": "advance/map.np.mapData.FromDirichletNodesToNeumannNodes",
          "State": 0,
          "Timestamp": 2888
        },
        {
          "Name": "advance/map.np.mapData.FromDirichletNodesToNeumannNodes",
          "State": 1,
          "Timestamp": 2888
        },
        {
          "Name": "advance/map.np.mapData.FromDirichletNodesToNeumannNodes",
          "State": 0,
          "Timestamp": 2888
        },
        {
          "Name": "advance/map.np.mapData.FromDirichletNodesToNeumannNodes",
          "State": 1,
          "Timestamp": 3016
        },
        {
          "Name": "advance/map.np.mapData.FromDirichletNodesToNeumannNodes",
          "State": 0,
          "Timestamp": 3016
        },
        {
          "Name": "advance/map.np.mapData.FromDirichletNodesToNeumannNodes",
          "State": 1,
          "Timestamp": 3016
        },
        {
          "Name": "advance/map.np.mapData.FromDirichletNodesToNeumannNodes",
          "State": 0,
          "Timestamp": 3016
        },
        {
          "Name": "advance/map.np.mapData.FromDirichletNodesToNeumannNodes",
          "State": 1,
          "Timestamp": 3145
        },
        {
          "Name": "advance/map.np.mapData.FromDirichletNodesToNeumannNodes",
          "State": 0,
          "Timestamp": 3145
        },
        {
          "Name": "advance/map.np.mapData.FromDirichletNodesToNeumannNodes",
          "State": 1,
          "Timestamp": 3145
        },
        {
          "Name": "advance/map.np.mapData.FromDirichletNodesToNeumannNodes",
          "State": 0,
          "Timestamp": 3145
        },
        {
          "Name": "advance/map.np.mapData.FromDirichletNodesToNeumannNodes",
          "State": 1,
          "Timestamp": 3274
        },
        {
          "Name": "advance/map.np.mapData.FromDirichletNodesToNeumannNodes",
          "State": 0,
          "Timestamp": 3274
        },
        {
          "Name": "advance/map.np.mapData.FromDirichletNodesToNeumannNodes",
          "State": 1,
          "Timestamp": 3274
        },
        {
          "Name": "advance/map.np.mapData.FromDirichletNodesToNeumannNodes",
          "State": 0,
          "Timestamp": 3274
        },
        {
          "Name": "advance/map.np.mapData.FromDirichletNodesToNeumannNodes",
          "State": 1,
          "Timestamp": 3403
        },
        {
          "Name": "advance/map.np.mapData.FromDirichletNodesToNeumannNodes",
          "State": 0,
          "Timestamp": 3403
        },
        {
          "Name": "advance/map.np.mapData.FromDirichletNodesToNeumannNodes",
          "State": 1,
          "Timestamp": 3403
        },
        {
          "Name": "advance/map.np.mapData.FromDirichletNodesToNeumannNodes",
          "State": 0,
          "Timestamp": 3403
        },
        {
          "Name": "advance/map.np.mapData.FromDirichletNodesToNeumannNodes",
          "State": 1,
          "Timestamp": 3534
        },
        {
          "Name": "advance/map.np.mapData.FromDirichletNodesToNeumannNodes",
          "State": 0,
          "Timestamp": 3534
        },
        {
          "Name": "advance/map.np.mapData.FromDirichletNodesToNeumannNodes",
          "State": 1,
          "Timestamp": 3534
        },
        {
          "Name": "advance/map.np.mapData.FromDirichletNodesToNeumannNodes",
          "State": 0,
          "Timestamp": 3534
        },
        {
          "Name": "advance/map.np.mapData.FromDirichletNodesToNeumannNodes",
          "State": 1,
          "Timestamp": 3664
        },
        {
          "Name": "advance/map.np.mapData.FromDirichletNodesToNeumannNodes",
          "State": 0,
          "Timestamp": 3664
        },
        {
          "Name": "advance/map.np.mapData.FromDirichletNodesToNeumannNodes",
          "State": 1,
          "Timestamp": 3664
        },
        {
          "Name": "advance/map.np.mapData.FromDirichletNodesToNeumannNodes",
          "State": 0,
          "Timestamp": 3664
        },
        {
          "Name": "advance/map.np.mapData.FromDirichletNodesToNeumannNodes",
          "State": 1,
          "Timestamp": 3793
        },
        {
          "Name": "advance/map.np.mapData.FromDirichletNodesToNeumannNodes",
          "State": 0,
          "Timestamp": 3793
        },
        {
          "Name": "advance/map.np.mapData.FromDirichletNodesToNeumannNodes",
          "State": 1,
          "Timestamp": 3793
        },
        {
          "Name": "advance/map.np.mapData.FromDirichletNodesToNeumannNodes",
          "State": 0,
          "Timestamp": 3793
        },
        {
          "Name": "advance/map.np.mapData.FromDirichletNodesToNeumannNodes",
          "State": 1,
          "Timestamp": 3922
        },
        {
          "Name": "advance/map.np.mapData.FromDirichletNodesToNeumannNodes",
          "State": 0,
          "Timestamp": 3922
        },
        {
          "Name": "advance/map.np.mapData.FromDirichletNodesToNeumannNodes",
          "State": 1,
          "Timestamp": 3922
        },
        {
          "Name": "advance/map.np.mapData.FromDirichletNodesToNeumannNodes",
          "State": 0,
          "Timestamp": 3922
        },
        {
          "Name": "advance/map.np.mapData.FromDirichletNodesToNeumannNodes",
          "State": 1,
          "Timestamp": 4050
        },
        {
          "Name": "advance/map.np.mapData.FromDirichletNodesToNeumannNodes",
          "State": 0,
          "Timestamp": 4050
        },
        {
          "Name": "advance/map.np.mapData.FromDirichletNodesToNeumannNodes",
          "State": 1,
          "Timestamp": 4050
        },
        {
          "Name": "advance/map.np.mapData.FromDirichletNodesToNeumannNodes",
          "State": 0,
          "Timestamp": 4050
        },
        {
          "Name": "advance/map.np.mapData.FromDirichletNodesToNeumannNodes",
          "State": 1,
          "Timestamp": 4179
        },
        {
          "Name": "advance/map.np.mapData.FromDirichletNodesToNeumannNodes",
          "State": 0,
          "Timestamp": 4179
        },
        {
          "Name": "advance/map.np.mapData.FromDirichletNodesToNeumannNodes",
          "State": 1,
          "Timestamp": 4179
        },
        {
          "Name": "advance/map.np.mapData.FromDirichletNodesToNeumannNodes",
          "State": 0,
          "Timestamp": 4179
        },
        {
          "Name": "advance/map.np.mapData.FromDirichletNodesToNeumannNodes",
          "State": 1,
          "Timestamp": 4307
        },
        {
          "Name": "advance/map.np.mapData.FromDirichletNodesToNeumannNodes",
          "State": 0,
          "Timestamp": 4307
        },
        {
          "Name": "advance/map.np.mapData.FromDirichletNodesToNeumannNodes",
          "State": 1,
          "Timestamp": 4307
        },
        {
          "Name": "advance/map.np.mapData.FromDirichletNodesToNeumannNodes",
          "State": 0,
          "Timestamp": 4307
        },
        {
          "Name": "advance/map.np.mapData.FromDirichletNodesToNeumannNodes",
          "State": 1,
          "Timestamp": 4437
        },
        {
          "Name": "advance/map.np.mapData.FromDirichletNodesToNeumannNodes",
          "State": 0,
          "Timestamp": 4437
        },
        {
          "Name": "advance/map.np.mapData.FromDirichletNodesToNeumannNodes",
          "State": 1,
          "Timestamp": 4437
        },
        {
          "Name": "advance/map.np.mapData.FromDirichletNodesToNeumannNodes",
          "State": 0,
          "Timestamp": 4437
        },
        {
          "Name": "advance/map.np.mapData.FromDirichletNodesToNeumannNodes",
          "State": 1,
          "Timestamp": 4567
        },
        {
          "Name": "advance/map.np.mapData.FromDirichletNodesToNeumannNodes",
          "State": 0,
          "Timestamp": 4567
        },
        {
          "Name": "advance/map.np.mapData.FromDirichletNodesToNeumannNodes",
          "State": 1,
          "Timestamp": 4567
        },
        {
          "Name": "advance/map.np.mapData.FromDirichletNodesToNeumannNodes",
          "State": 0,
          "Timestamp": 4567
        },
        {
          "Name": "advance/map.np.mapData.FromDirichletNodesToNeumannNodes",
          "State": 1,
          "Timestamp": 4697
        },
        {
          "Name": "advance/map.np.mapData.FromDirichletNodesToNeumannNodes",
          "State": 0,
          "Timestamp": 4697
        },
        {
          "Name": "advance/map.np.mapData.FromDirichletNodesToNeumannNodes",
          "State": 1,
          "Timestamp": 4697
        },
        {
          "Name": "advance/map.np.mapData.FromDirichletNodesToNeumannNodes",
          "State": 0,
          "Timestamp": 4697
        },
        {
          "Name": "advance/map.np.mapData.FromDirichletNodesToNeumannNodes",
          "State": 1,
          "Timestamp": 4826
        },
        {
          "Name": "advance/map.np.mapData.FromDirichletNodesToNeumannNodes",
          "State": 0,
          "Timestamp": 4826
        },
        {
          "Name": "advance/map.np.mapData.FromDirichletNodesToNeumannNodes",
          "State": 1,
          "Timestamp": 4826
        },
        {
          "Name": "advance/map.np.mapData.FromDirichletNodesToNeumannNodes",
          "State": 0,
          "Timestamp": 4826
        },
        {
          "Name": "advance/map.np.mapData.FromDirichletNodesToNeumannNodes",
          "State": 1,
          "Timestamp": 4966
        },
        {
          "Name": "advance/map.np.mapData.FromDirichletNodesToNeumannNodes",
          "State": 0,
          "Timestamp": 4966
        },
        {
          "Name": "advance/map.np.mapData.FromDirichletNodesToNeumannNodes",
          "State": 1,
          "Timestamp": 4966
        },
        {
          "Name": "advance/map.np.mapData.FromDirichletNodesToNeumannNodes",
          "State": 0,
          "Timestamp": 4966
        },
        {
          "Name": "advance/map.np.mapData.FromDirichletNodesToNeumannNodes",
          "State": 1,
          "Timestamp": 5108
        },
        {
          "Name": "advance/map.np.mapData.FromDirichletNodesToNeumannNodes",
          "State": 0,
          "Timestamp": 5108
        },
        {
          "Name": "advance/map.np.mapData.FromDirichletNodesToNeumannNodes",
          "State": 1,
          "Timestamp": 5108
        },
        {
          "Name": "advance/map.np.mapData.FromDirichletNodesToNeumannNodes",
          "State": 0,
          "Timestamp": 5108
        },
        {
          "Name": "advance/map.np.mapData.FromDirichletNodesToNeumannNodes",
          "State": 1,
          "Timestamp": 5237
        },
        {
          "Name": "advance/map.np.mapData.FromDirichletNodesToNeumannNodes",
          "State": 0,
          "Timestamp": 5237
        },
        {
          "Name": "advance/map.np.mapData.FromDirichletNodesToNeumannNodes",
          "State": 1,
          "Timestamp": 5237
        },
        {
          "Name": "advance/map.np.mapData.FromDirichletNodesToNeumannNodes",
          "State": 0,
          "Timestamp": 5237
        },
        {
          "Name": "advance/map.np.mapData.FromDirichletNodesToNeumannNodes",
          "State": 1,
          "Timestamp": 5366
        },
        {
          "Name": "advance/map.np.mapData.FromDirichletNodesToNeumannNodes",
          "State": 0,
          "Timestamp": 5366
        },
        {
          "Name": "advance/map.np.mapData.FromDirichletNodesToNeumannNodes",
          "State": 1,
          "Timestamp": 5366
        },
        {
          "Name": "advance/map.np.mapData.FromDirichletNodesToNeumannNodes",
          "State": 0,
          "Timestamp": 5366
        },
        {
          "Name": "advance/map.np.mapData.FromDirichletNodesToNeumannNodes",
          "State": 1,
          "Timestamp": 5495
        },
        {
          "Name": "advance/map.np.mapData.FromDirichletNodesToNeumannNodes",
          "State": 0,
          "Timestamp": 5495
        },
        {
          "Name": "advance/map.np.mapData.FromDirichletNodesToNeumannNodes",
          "State": 1,
          "Timestamp": 5495
        },
        {
          "Name": "advance/map.np.mapData.FromDirichletNodesToNeumannNodes",
          "State": 0,
          "Timestamp": 5495
        },
        {
          "Name": "advance/map.np.mapData.FromDirichletNodesToNeumannNodes",
          "State": 1,
          "Timestamp": 5624
        },
        {
          "Name": "advance/map.np.mapData.FromDirichletNodesToNeumannNodes",
          "State": 0,
          "Timestamp": 5624
        },
        {
          "Name": "advance/map.np.mapData.FromDirichletNodesToNeumannNodes",
          "State": 1,
          "Timestamp": 5624
        },
        {
          "Name": "advance/map.np.mapData.FromDirichletNodesToNeumannNodes",
          "State": 0,
          "Timestamp": 5624
        },
        {
          "Name": "advance/map.np.mapData.FromDirichletNodesToNeumannNodes",
          "State": 1,
          "Timestamp": 5754
        },
        {
          "Name": "advance/map.np.mapData.FromDirichletNodesToNeumannNodes",
          "State": 0,
          "Timestamp": 5754
        },
        {
          "Name": "advance/map.np.mapData.FromDirichletNodesToNeumannNodes",
          "State": 1,
          "Timestamp": 5754
        },
        {
          "Name": "advance/map.np.mapData.FromDirichletNodesToNeumannNodes",
          "State": 0,
          "Timestamp": 5754
        },
        {
          "Name": "advance/map.np.mapData.FromDirichletNodesToNeumannNodes",
          "State": 1,
          "Timestamp": 5882
        },
        {
          "Name": "advance/map.np.mapData.FromDirichletNodesToNeumannNodes",
          "State": 0,
          "Timestamp": 5882
        },
        {
          "Name": "advance/map.np.mapData.FromDirichletNodesToNeumannNodes",
          "State": 1,
          "Timestamp": 5882
        },
        {
          "Name": "advance/map.np.mapData.FromDirichletNodesToNeumannNodes",
          "State": 0,
          "Timestamp": 5882
        },
        {
          "Name": "advance/map.np.mapData.FromDirichletNodesToNeumannNodes",
          "State": 1,
          "Timestamp": 6011
        },
        {
          "Name": "advance/map.np.mapData.FromDirichletNodesToNeumannNodes",
          "State": 0,
          "Timestamp": 6011
        },
        {
          "Name": "advance/map.np.mapData.FromDirichletNodesToNeumannNodes",
          "State": 1,
          "Timestamp": 6011
        },
        {
          "Name": "advance/map.np.mapData.FromDirichletNodesToNeumannNodes",
          "State": 0,
          "Timestamp": 6011
        },
        {
          "Name": "advance/map.np.mapData.FromDirichletNodesToNeumannNodes",
          "State": 1,
          "Timestamp": 6140
        },
        {
          "Name": "advance/map.np.mapData.FromDirichletNodesToNeumannNodes",
          "State": 0,
          "Timestamp": 6140
        },
        {
          "Name": "advance/map.np.mapData.FromDirichletNodesToNeumannNodes",
          "State": 1,
          "Timestamp": 6140
        },
        {
          "Name": "advance/map.np.mapData.FromDirichletNodesToNeumannNodes",
          "State": 0,
          "Timestamp": 6140
        },
        {
          "Name": "advance/map.np.mapData.FromDirichletNodesToNeumannNodes",
          "State": 1,
          "Timestamp": 6281
        },
        {
          "Name": "advance/map.np.mapData.FromDirichletNodesToNeumannNodes",
          "State": 0,
          "Timestamp": 6281
        },
        {
          "Name": "advance/map.np.mapData.FromDirichletNodesToNeumannNodes",
          "State": 1,
          "Timestamp": 6281
        },
        {
          "Name": "advance/map.np.mapData.FromDirichletNodesToNeumannNodes",
          "State": 0,
          "Timestamp": 6281
        },
        {
          "Name": "advance/map.np.mapData.FromDirichletNodesToNeumannNodes",
          "State": 1,
          "Timestamp": 6421
        },
        {
          "Name": "advance/map.np.mapData.FromDirichletNodesToNeumannNodes",
          "State": 0,
          "Timestamp": 6421
        },
        {
          "Name": "advance/map.np.mapData.FromDirichletNodesToNeumannNodes",
          "State": 1,
          "Timestamp": 6421
        },
        {
          "Name": "advance/map.np.mapData.FromDirichletNodesToNeumannNodes",
          "State": 0,
          "Timestamp": 6421
        },
        {
          "Name": "advance/map.np.mapData.FromDirichletNodesToNeumannNodes",
          "State": 1,
          "Timestamp": 6550
        },
        {
          "Name": "advance/map.np.mapData.FromDirichletNodesToNeumannNodes",
          "State": 0,
          "Timestamp": 6550
        },
        {
          "Name": "advance/map.np.mapData.FromDirichletNodesToNeumannNodes",
          "State": 1,
          "Timestamp": 6550
        },
        {
          "Name": "advance/map.np.mapData.FromDirichletNodesToNeumannNodes",
          "State": 0,
          "Timestamp": 6550
        },
        {
          "Name": "advance/map.np.mapData.FromDirichletNodesToNeumannNodes",
          "State": 1,
          "Timestamp": 6692
        },
        {
          "Name": "advance/map.np.mapData.FromDirichletNodesToNeumannNodes",
          "State": 0,
          "Timestamp": 6692
        },
        {
          "Name": "advance/map.np.mapData.FromDirichletNodesToNeumannNodes",
          "State": 1,
          "Timestamp": 6692
        },
        {
          "Name": "advance/map.np.mapData.FromDirichletNodesToNeumannNodes",
          "State": 0,
          "Timestamp": 6692
        },
        {
          "Name": "advance/map.np.mapData.FromDirichletNodesToNeumannNodes",
          "State": 1,
          "Timestamp": 6832
        },
        {
          "Name": "advance/map.np.mapData.FromDirichletNodesToNeumannNodes",
          "State": 0,
          "Timestamp": 6832
        },
        {
          "Name": "advance/map.np.mapData.FromDirichletNodesToNeumannNodes",
          "State": 1,
          "Timestamp": 6832
        },
        {
          "Name": "advance/map.np.mapData.FromDirichletNodesToNeumannNodes",
          "State": 0,
          "Timestamp": 6832
        },
        {
          "Name": "advance/map.np.mapData.FromDirichletNodesToNeumannNodes",
          "State": 1,
          "Timestamp": 6960
        },
        {
          "Name": "advance/map.np.mapData.FromDirichletNodesToNeumannNodes",
          "State": 0,
          "Timestamp": 6960
        },
        {
          "Name": "advance/map.np.mapData.FromDirichletNodesToNeumannNodes",
          "State": 1,
          "Timestamp": 6960
        },
        {
          "Name": "advance/map.np.mapData.FromDirichletNodesToNeumannNodes",
          "State": 0,
          "Timestamp": 6960
        },
        {
          "Name": "advance/map.np.mapData.FromDirichletNodesToNeumannNodes",
          "State": 1,
          "Timestamp": 7100
        },
        {
          "Name": "advance/map.np.mapData.FromDirichletNodesToNeumannNodes",
          "State": 0,
          "Timestamp": 7100
        },
        {
          "Name": "advance/map.np.mapData.FromDirichletNodesToNeumannNodes",
          "State": 1,
          "Timestamp": 7100
        },
        {
          "Name": "advance/map.np.mapData.FromDirichletNodesToNeumannNodes",
          "State": 0,
          "Timestamp": 7100
        },
        {
          "Name": "advance/map.np.mapData.FromDirichletNodesToNeumannNodes",
          "State": 1,
          "Timestamp": 7240
        },
        {
          "Name": "advance/map.np.mapData.FromDirichletNodesToNeumannNodes",
          "State": 0,
          "Timestamp": 7240
        },
        {
          "Name": "advance/map.np.mapData.FromDirichletNodesToNeumannNodes",
          "State": 1,
          "Timestamp": 7240
        },
        {
          "Name": "advance/map.np.mapData.FromDirichletNodesToNeumannNodes",
          "State": 0,
          "Timestamp": 7240
        },
        {
          "Name": "advance/map.np.mapData.FromDirichletNodesToNeumannNodes",
          "State": 1,
          "Timestamp": 7370
        },
        {
          "Name": "advance/map.np.mapData.FromDirichletNodesToNeumannNodes",
          "State": 0,
          "Timestamp": 7370
        },
        {
          "Name": "advance/map.np.mapData.FromDirichletNodesToNeumannNodes",
          "State": 1,
          "Timestamp": 7370
        },
        {
          "Name": "advance/map.np.mapData.FromDirichletNodesToNeumannNodes",
          "State": 0,
          "Timestamp": 7370
        },
        {
          "Name": "advance/map.np.mapData.FromDirichletNodesToNeumannNodes",
          "State": 1,
          "Timestamp": 7512
        },
        {
          "Name": "advance/map.np.mapData.FromDirichletNodesToNeumannNodes",
          "State": 0,
          "Timestamp": 7512
        },
        {
          "Name": "advance/map.np.mapData.FromDirichletNodesToNeumannNodes",
          "State": 1,
          "Timestamp": 7512
        },
        {
          "Name": "advance/map.np.mapData.FromDirichletNodesToNeumannNodes",
          "State": 0,
          "Timestamp": 7512
        },
        {
          "Name": "advance/map.np.mapData.FromDirichletNodesToNeumannNodes",
          "State": 1,
          "Timestamp": 7652
        },
        {
          "Name": "advance/map.np.mapData.FromDirichletNodesToNeumannNodes",
          "State": 0,
          "Timestamp": 7652
        },
        {
          "Name": "advance/map.np.mapData.FromDirichletNodesToNeumannNodes",
          "State": 1,
          "Timestamp": 7652
        },
        {
          "Name": "advance/map.np.mapData.FromDirichletNodesToNeumannNodes",
          "State": 0,
          "Timestamp": 7652
        },
        {
          "Name": "advance/map.np.mapData.FromDirichletNodesToNeumannNodes",
          "State": 1,
          "Timestamp": 7780
        },
        {
          "Name": "advance/map.np.mapData.FromDirichletNodesToNeumannNodes",
          "State": 0,
          "Timestamp": 7780
        },
        {
          "Name": "advance/map.np.mapData.FromDirichletNodesToNeumannNodes",
          "State": 1,
          "Timestamp": 7780
        },
        {
          "Name": "advance/map.np.mapData.FromDirichletNodesToNeumannNodes",
          "State": 0,
          "Timestamp": 7780
        },
        {
          "Name": "advance/map.np.mapData.FromDirichletNodesToNeumannNodes",
          "State": 1,
          "Timestamp": 7925
        },
        {
          "Name": "advance/map.np.mapData.FromDirichletNodesToNeumannNodes",
          "State": 0,
          "Timestamp": 7925
        },
        {
          "Name": "advance/map.np.mapData.FromDirichletNodesToNeumannNodes",
          "State": 1,
          "Timestamp": 7925
        },
        {
          "Name": "advance/map.np.mapData.FromDirichletNodesToNeumannNodes",
          "State": 0,
          "Timestamp": 7925
        },
        {
          "Name": "advance/map.np.mapData.FromDirichletNodesToNeumannNodes",
          "State": 1,
          "Timestamp": 8066
        },
        {
          "Name": "advance/map.np.mapData.FromDirichletNodesToNeumannNodes",
          "State": 0,
          "Timestamp": 8066
        },
        {
          "Name": "advance/map.np.mapData.FromDirichletNodesToNeumannNodes",
          "State": 1,
          "Timestamp": 8066
        },
        {
          "Name": "advance/map.np.mapData.FromDirichletNodesToNeumannNodes",
          "State": 0,
          "Timestamp": 8066
        },
        {
          "Name": "advance/map.np.mapData.FromDirichletNodesToNeumannNodes",
          "State": 1,
          "Timestamp": 8195
        },
        {
          "Name": "advance/map.np.mapData.FromDirichletNodesToNeumannNodes",
          "State": 0,
          "Timestamp": 8195
        },
        {
          "Name": "advance/map.np.mapData.FromDirichletNodesToNeumannNodes",
          "State": 1,
          "Timestamp": 8195
        },
        {
          "Name": "advance/map.np.mapData.FromDirichletNodesToNeumannNodes",
          "State": 0,
          "Timestamp": 8195
        },
        {
          "Name": "advance/map.np.mapData.FromDirichletNodesToNeumannNodes",
          "State": 1,
          "Timestamp": 8336
        },
        {
          "Name": "advance/map.np.mapData.FromDirichletNodesToNeumannNodes",
          "State": 0,
          "Timestamp": 8336
        },
        {
          "Name": "advance/map.np.mapData.FromDirichletNodesToNeumannNodes",
          "State": 1,
          "Timestamp": 8336
        },
        {
          "Name": "advance/map.np.mapData.FromDirichletNodesToNeumannNodes",
          "State": 0,
          "Timestamp": 8336
        },
        {
          "Name": "advance/map.np.mapData.FromDirichletNodesToNeumannNodes",
          "State": 1,
          "Timestamp": 8477
        },
        {
          "Name": "advance/map.np.mapData.FromDirichletNodesToNeumannNodes",
          "State": 0,
          "Timestamp": 8477
        },
        {
          "Name": "advance/map.np.mapData.FromDirichletNodesToNeumannNodes",
          "State": 1,
          "Timestamp": 8477
        },
        {
          "Name": "advance/map.np.mapData.FromDirichletNodesToNeumannNodes",
          "State": 0,
          "Timestamp": 8477
        },
        {
          "Name": "advance/map.np.mapData.FromDirichletNodesToNeumannNodes",
          "State": 1,
          "Timestamp": 8607
        },
        {
          "Name": "advance/map.np.mapData.FromDirichletNodesToNeumannNodes",
          "State": 0,
          "Timestamp": 8607
        },
        {
          "Name": "advance/map.np.mapData.FromDirichletNodesToNeumannNodes",
          "State": 1,
          "Timestamp": 8607
        },
        {
          "Name": "advance/map.np.mapData.FromDirichletNodesToNeumannNodes",
          "State": 0,
          "Timestamp": 8607
        },
        {
          "Name": "advance/map.np.mapData.FromDirichletNodesToNeumannNodes",
          "State": 1,
          "Timestamp": 8752
        },
        {
          "Name": "advance/map.np.mapData.FromDirichletNodesToNeumannNodes",
          "State": 0,
          "Timestamp": 8752
        },
        {
          "Name": "advance/map.np.mapData.FromDirichletNodesToNeumannNodes",
          "State": 1,
          "Timestamp": 8752
        },
        {
          "Name": "advance/map.np.mapData.FromDirichletNodesToNeumannNodes",
          "State": 0,
          "Timestamp": 8752
        },
        {
          "Name": "advance/map.np.mapData.FromDirichletNodesToNeumannNodes",
          "State": 1,
          "Timestamp": 8892
        },
        {
          "Name": "advance/map.np.mapData.FromDirichletNodesToNeumannNodes",
          "State": 0,
          "Timestamp": 8893
        },
        {
          "Name": "advance/map.np.mapData.FromDirichletNodesToNeumannNodes",
          "State": 1,
          "Timestamp": 8893
        },
        {
          "Name": "advance/map.np.mapData.FromDirichletNodesToNeumannNodes",
          "State": 0,
          "Timestamp": 8893
        },
        {
          "Name": "advance/map.np.mapData.FromDirichletNodesToNeumannNodes",
          "State": 1,
          "Timestamp": 9021
        },
        {
          "Name": "advance/map.np.mapData.FromDirichletNodesToNeumannNodes",
          "State": 0,
          "Timestamp": 9021
        },
        {
          "Name": "advance/map.np.mapData.FromDirichletNodesToNeumannNodes",
          "State": 1,
          "Timestamp": 9021
        },
        {
          "Name": "advance/map.np.mapData.FromDirichletNodesToNeumannNodes",
          "State": 0,
          "Timestamp": 9021
        },
        {
          "Name": "advance/map.np.mapData.FromNeumannNodesToDirichletNodes",
          "State": 1,
          "Timestamp": 325
        },
        {
          "Name": "advance/map.np.mapData.FromNeumannNodesToDirichletNodes",
          "State": 0,
          "Timestamp": 325
        },
        {
          "Name": "advance/map.np.mapData.FromNeumannNodesToDirichletNodes",
          "State": 1,
          "Timestamp": 469
        },
        {
          "Name": "advance/map.np.mapData.FromNeumannNodesToDirichletNodes",
          "State": 0,
          "Timestamp": 469
        },
        {
          "Name": "advance/map.np.mapData.FromNeumannNodesToDirichletNodes",
          "State": 1,
          "Timestamp": 614
        },
        {
          "Name": "advance/map.np.mapData.FromNeumannNodesToDirichletNodes",
          "State": 0,
          "Timestamp": 614
        },
        {
          "Name": "advance/map.np.mapData.FromNeumannNodesToDirichletNodes",
          "State": 1,
          "Timestamp": 743
        },
        {
          "Name": "advance/map.np.mapData.FromNeumannNodesToDirichletNodes",
          "State": 0,
          "Timestamp": 743
        },
        {
          "Name": "advance/map.np.mapData.FromNeumannNodesToDirichletNodes",
          "State": 1,
          "Timestamp": 871
        },
        {
          "Name": "advance/map.np.mapData.FromNeumannNodesToDirichletNodes",
          "State": 0,
          "Timestamp": 871
        },
        {
          "Name": "advance/map.np.mapData.FromNeumannNodesToDirichletNodes",
          "State": 1,
          "Timestamp": 1000
        },
        {
          "Name": "advance/map.np.mapData.FromNeumannNodesToDirichletNodes",
          "State": 0,
          "Timestamp": 1000
        },
        {
          "Name": "advance/map.np.mapData.FromNeumannNodesToDirichletNodes",
          "State": 1,
          "Timestamp": 1129
        },
        {
          "Name": "advance/map.np.mapData.FromNeumannNodesToDirichletNodes",
          "State": 0,
          "Timestamp": 1129
        },
        {
          "Name": "advance/map.np.mapData.FromNeumannNodesToDirichletNodes",
          "State": 1,
          "Timestamp": 1256
        },
        {
          "Name": "advance/map.np.mapData.FromNeumannNodesToDirichletNodes",
          "State": 0,
          "Timestamp": 1256
        },
        {
          "Name": "advance/map.np.mapData.FromNeumannNodesToDirichletNodes",
          "State": 1,
          "Timestamp": 1385
        },
        {
          "Name": "advance/map.np.mapData.FromNeumannNodesToDirichletNodes",
          "State": 0,
          "Timestamp": 1385
        },
        {
          "Name": "advance/map.np.mapData.FromNeumannNodesToDirichletNodes",
          "State": 1,
          "Timestamp": 1514
        },
        {
          "Name": "advance/map.np.mapData.FromNeumannNodesToDirichletNodes",
          "State": 0,
          "Timestamp": 1514
        },
        {
          "Name": "advance/map.np.mapData.FromNeumannNodesToDirichletNodes",
          "State": 1,
          "Timestamp": 1642
        },
        {
          "Name": "advance/map.np.mapData.FromNeumannNodesToDirichletNodes",
          "State": 0,
          "Timestamp": 1642
        },
        {
          "Name": "advance/map.np.mapData.FromNeumannNodesToDirichletNodes",
          "State": 1,
          "Timestamp": 1771
        },
        {
          "Name": "advance/map.np.mapData.FromNeumannNodesToDirichletNodes",
          "State": 0,
          "Timestamp": 1771
        },
        {
          "Name": "advance/map.np.mapData.FromNeumannNodesToDirichletNodes",
          "State": 1,
          "Timestamp": 1900
        },
        {
          "Name": "advance/map.np.mapData.FromNeumannNodesToDirichletNodes",
          "State": 0,
          "Timestamp": 1900
        },
        {
          "Name": "advance/map.np.mapData.FromNeumannNodesToDirichletNodes",
          "State": 1,
          "Timestamp": 2028
        },
        {
          "Name": "advance/map.np.mapData.FromNeumannNodesToDirichletNodes",
          "State": 0,
          "Timestamp": 2028
        },
        {
          "Name": "advance/map.np.mapData.FromNeumannNodesToDirichletNodes",
          "State": 1,
          "Timestamp": 2156
        },
        {
          "Name": "advance/map.np.mapData.FromNeumannNodesToDirichletNodes",
          "State": 0,
          "Timestamp": 2156
        },
        {
          "Name": "advance/map.np.mapData.FromNeumannNodesToDirichletNodes",
          "State": 1,
          "Timestamp": 2285
        },
        {
          "Name": "advance/map.np.mapData.FromNeumannNodesToDirichletNodes",
          "State": 0,
          "Timestamp": 2285
        },
        {
          "Name": "advance/map.np.mapData.FromNeumannNodesToDirichletNodes",
          "State": 1,
          "Timestamp": 2413
        },
        {
          "Name": "advance/map.np.mapData.FromNeumannNodesToDirichletNodes",
          "State": 0,
          "Timestamp": 2413
        },
        {
          "Name": "advance/map.np.mapData.FromNeumannNodesToDirichletNodes",
          "State": 1,
          "Timestamp": 2542
        },
        {
          "Name": "advance/map.np.mapData.FromNeumannNodesToDirichletNodes",
          "State": 0,
          "Timestamp": 2542
        },
        {
          "Name": "advance/map.np.mapData.FromNeumannNodesToDirichletNodes",
          "State": 1,
          "Timestamp": 2694
        },
        {
          "Name": "advance/map.np.mapData.FromNeumannNodesToDirichletNodes",
          "State": 0,
          "Timestamp": 2694
        },
        {
          "Name": "advance/map.np.mapData.FromNeumannNodesToDirichletNodes",
          "State": 1,
          "Timestamp": 2822
        },
        {
          "Name": "advance/map.np.mapData.FromNeumannNodesToDirichletNodes",
          "State": 0,
          "Timestamp": 2822
        },
        {
          "Name": "advance/map.np.mapData.FromNeumannNodesToDirichletNodes",
          "State": 1,
          "Timestamp": 2951
        },
        {
          "Name": "advance/map.np.mapData.FromNeumannNodesToDirichletNodes",
          "State": 0,
          "Timestamp": 2951
        },
        {
          "Name": "advance/map.np.mapData.FromNeumannNodesToDirichletNodes",
          "State": 1,
          "Timestamp": 3079
        },
        {
          "Name": "advance/map.np.mapData.FromNeumannNodesToDirichletNodes",
          "State": 0,
          "Timestamp": 3079
        },
        {
          "Name": "advance/map.np.mapData.FromNeumannNodesToDirichletNodes",
          "State": 1,
          "Timestamp": 3208
        },
        {
          "Name": "advance/map.np.mapData.FromNeumannNodesToDirichletNodes",
          "State": 0,
          "Timestamp": 3208
        },
        {
          "Name": "advance/map.np.mapData.FromNeumannNodesToDirichletNodes",
          "State": 1,
          "Timestamp": 3337
        },
        {
          "Name": "advance/map.np.mapData.FromNeumannNodesToDirichletNodes",
          "State": 0,
          "Timestamp": 3337
        },
        {
          "Name": "advance/map.np.mapData.FromNeumannNodesToDirichletNodes",
          "State": 1,
          "Timestamp": 3467
        },
        {
          "Name": "advance/map.np.mapData.FromNeumannNodesToDirichletNodes",
          "State": 0,
          "Timestamp": 3467
        },
        {
          "Name": "advance/map.np.mapData.FromNeumannNodesToDirichletNodes",
          "State": 1,
          "Timestamp": 3598
        },
        {
          "Name": "advance/map.np.mapData.FromNeumannNodesToDirichletNodes",
          "State": 0,
          "Timestamp": 3598
        },
        {
          "Name": "advance/map.np.mapData.FromNeumannNodesToDirichletNodes",
          "State": 1,
          "Timestamp": 3728
        },
        {
          "Name": "advance/map.np.mapData.FromNeumannNodesToDirichletNodes",
          "State": 0,
          "Timestamp": 3728
        },
        {
          "Name": "advance/map.np.mapData.FromNeumannNodesToDirichletNodes",
          "State": 1,
          "Timestamp": 3856
        },
        {
          "Name": "advance/map.np.mapData.FromNeumannNodesToDirichletNodes",
          "State": 0,
          "Timestamp": 3856
        },
        {
          "Name": "advance/map.np.mapData.FromNeumannNodesToDirichletNodes",
          "State": 1,
          "Timestamp": 3985
        },
        {
          "Name": "advance/map.np.mapData.FromNeumannNodesToDirichletNodes",
          "State": 0,
          "Timestamp": 3985
        },
        {
          "Name": "advance/map.np.mapData.FromNeumannNodesToDirichletNodes",
          "State": 1,
          "Timestamp": 4114
        },
        {
          "Name": "advance/map.np.mapData.FromNeumannNodesToDirichletNodes",
          "State": 0,
          "Timestamp": 4114
        },
        {
          "Name": "advance/map.np.mapData.FromNeumannNodesToDirichletNodes",
          "State": 1,
          "Timestamp": 4242
        },
        {
          "Name": "advance/map.np.mapData.FromNeumannNodesToDirichletNodes",
          "State": 0,
          "Timestamp": 4242
        },
        {
          "Name": "advance/map.np.mapData.FromNeumannNodesToDirichletNodes",
          "State": 1,
          "Timestamp": 4372
        },
        {
          "Name": "advance/map.np.mapData.FromNeumannNodesToDirichletNodes",
          "State": 0,
          "Timestamp": 4372
        },
        {
          "Name": "advance/map.np.mapData.FromNeumannNodesToDirichletNodes",
          "State": 1,
          "Timestamp": 4502
        },
        {
          "Name": "advance/map.np.mapData.FromNeumannNodesToDirichletNodes",
          "State": 0,
          "Timestamp": 4502
        },
        {
          "Name": "advance/map.np.mapData.FromNeumannNodesToDirichletNodes",
          "State": 1,
          "Timestamp": 4631
        },
        {
          "Name": "advance/map.np.mapData.FromNeumannNodesToDirichletNodes",
          "State": 0,
          "Timestamp": 4631
        },
        {
          "Name": "advance/map.np.mapData.FromNeumannNodesToDirichletNodes",
          "State": 1,
          "Timestamp": 4761
        },
        {
          "Name": "advance/map.np.mapData.FromNeumannNodesToDirichletNodes",
          "State": 0,
          "Timestamp": 4761
        },
        {
          "Name": "advance/map.np.mapData.FromNeumannNodesToDirichletNodes",
          "State": 1,
          "Timestamp": 4890
        },
        {
          "Name": "advance/map.np.mapData.FromNeumannNodesToDirichletNodes",
          "State": 0,
          "Timestamp": 4890
        },
        {
          "Name": "advance/map.np.mapData.FromNeumannNodesToDirichletNodes",
          "State": 1,
          "Timestamp": 5042
        },
        {
          "Name": "advance/map.np.mapData.FromNeumannNodesToDirichletNodes",
          "State": 0,
          "Timestamp": 5042
        },
        {
          "Name": "advance/map.np.mapData.FromNeumannNodesToDirichletNodes",
          "State": 1,
          "Timestamp": 5171
        },
        {
          "Name": "advance/map.np.mapData.FromNeumannNodesToDirichletNodes",
          "State": 0,
          "Timestamp": 5171
        },
        {
          "Name": "advance/map.np.mapData.FromNeumannNodesToDirichletNodes",
          "State": 1,
          "Timestamp": 5300
        },
        {
          "Name": "advance/map.np.mapData.FromNeumannNodesToDirichletNodes",
          "State": 0,
          "Timestamp": 5300
        },
        {
          "Name": "advance/map.np.mapData.FromNeumannNodesToDirichletNodes",
          "State": 1,
          "Timestamp": 5429
        },
        {
          "Name": "advance/map.np.mapData.FromNeumannNodesToDirichletNodes",
          "State": 0,
          "Timestamp": 5429
        },
        {
          "Name": "advance/map.np.mapData.FromNeumannNodesToDirichletNodes",
          "State": 1,
          "Timestamp": 5559
        },
        {
          "Name": "advance/map.np.mapData.FromNeumannNodesToDirichletNodes",
          "State": 0,
          "Timestamp": 5559
        },
        {
          "Name": "advance/map.np.mapData.FromNeumannNodesToDirichletNodes",
          "State": 1,
          "Timestamp": 5688
        },
        {
          "Name": "advance/map.np.mapData.FromNeumannNodesToDirichletNodes",
          "State": 0,
          "Timestamp": 5688
        },
        {
          "Name": "advance/map.np.mapData.FromNeumannNodesToDirichletNodes",
          "State": 1,
          "Timestamp": 5817
        },
        {
          "Name": "advance/map.np.mapData.FromNeumannNodesToDirichletNodes",
          "State": 0,
          "Timestamp": 5817
        },
        {
          "Name": "advance/map.np.mapData.FromNeumannNodesToDirichletNodes",
          "State": 1,
          "Timestamp": 5945
        },
        {
          "Name": "advance/map.np.mapData.FromNeumannNodesToDirichletNodes",
          "State": 0,
          "Timestamp": 5945
        },
        {
          "Name": "advance/map.np.mapData.FromNeumannNodesToDirichletNodes",
          "State": 1,
          "Timestamp": 6074
        },
        {
          "Name": "advance/map.np.mapData.FromNeumannNodesToDirichletNodes",
          "State": 0,
          "Timestamp": 6074
        },
        {
          "Name": "advance/map.np.mapData.FromNeumannNodesToDirichletNodes",
          "State": 1,
          "Timestamp": 6204
        },
        {
          "Name": "advance/map.np.mapData.FromNeumannNodesToDirichletNodes",
          "State": 0,
          "Timestamp": 6204
        },
        {
          "Name": "advance/map.np.mapData.FromNeumannNodesToDirichletNodes",
          "State": 1,
          "Timestamp": 6355
        },
        {
          "Name": "advance/map.np.mapData.FromNeumannNodesToDirichletNodes",
          "State": 0,
          "Timestamp": 6355
        },
        {
          "Name": "advance/map.np.mapData.FromNeumannNodesToDirichletNodes",
          "State": 1,
          "Timestamp": 6485
        },
        {
          "Name": "advance/map.np.mapData.FromNeumannNodesToDirichletNodes",
          "State": 0,
          "Timestamp": 6485
        },
        {
          "Name": "advance/map.np.mapData.FromNeumannNodesToDirichletNodes",
          "State": 1,
          "Timestamp": 6614
        },
        {
          "Name": "advance/map.np.mapData.FromNeumannNodesToDirichletNodes",
          "State": 0,
          "Timestamp": 6614
        },
        {
          "Name": "advance/map.np.mapData.FromNeumannNodesToDirichletNodes",
          "State": 1,
          "Timestamp": 6766
        },
        {
          "Name": "advance/map.np.mapData.FromNeumannNodesToDirichletNodes",
          "State": 0,
          "Timestamp": 6766
        },
        {
          "Name": "advance/map.np.mapData.FromNeumannNodesToDirichletNodes",
          "State": 1,
          "Timestamp": 6895
        },
        {
          "Name": "advance/map.np.mapData.FromNeumannNodesToDirichletNodes",
          "State": 0,
          "Timestamp": 6895
        },
        {
          "Name": "advance/map.np.mapData.FromNeumannNodesToDirichletNodes",
          "State": 1,
          "Timestamp": 7023
        },
        {
          "Name": "advance/map.np.mapData.FromNeumannNodesToDirichletNodes",
          "State": 0,
          "Timestamp": 7023
        },
        {
          "Name": "advance/map.np.mapData.FromNeumannNodesToDirichletNodes",
          "State": 1,
          "Timestamp": 7174
        },
        {
          "Name": "advance/map.np.mapData.FromNeumannNodesToDirichletNodes",
          "State": 0,
          "Timestamp": 7174
        },
        {
          "Name": "advance/map.np.mapData.FromNeumannNodesToDirichletNodes",
          "State": 1,
          "Timestamp": 7303
        },
        {
          "Name": "advance/map.np.mapData.FromNeumannNodesToDirichletNodes",
          "State": 0,
          "Timestamp": 7303
        },
        {
          "Name": "advance/map.np.mapData.FromNeumannNodesToDirichletNodes",
          "State": 1,
          "Timestamp": 7434
        },
        {
          "Name": "advance/map.np.mapData.FromNeumannNodesToDirichletNodes",
          "State": 0,
          "Timestamp": 7434
        },
        {
          "Name": "advance/map.np.mapData.FromNeumannNodesToDirichletNodes",
          "State": 1,
          "Timestamp": 7585
        },
        {
          "Name": "advance/map.np.mapData.FromNeumannNodesToDirichletNodes",
          "State": 0,
          "Timestamp": 7585
        },
        {
          "Name": "advance/map.np.mapData.FromNeumannNodesToDirichletNodes",
          "State": 1,
          "Timestamp": 7715
        },
        {
          "Name": "advance/map.np.mapData.FromNeumannNodesToDirichletNodes",
          "State": 0,
          "Timestamp": 7715
        },
        {
          "Name": "advance/map.np.mapData.FromNeumannNodesToDirichletNodes",
          "State": 1,
          "Timestamp": 7848
        },
        {
          "Name": "advance/map.np.mapData.FromNeumannNodesToDirichletNodes",
          "State": 0,
          "Timestamp": 7848
        },
        {
          "Name": "advance/map.np.mapData.FromNeumannNodesToDirichletNodes",
          "State": 1,
          "Timestamp": 8000
        },
        {
          "Name": "advance/map.np.mapData.FromNeumannNodesToDirichletNodes",
          "State": 0,
          "Timestamp": 8000
        },
        {
          "Name": "advance/map.np.mapData.FromNeumannNodesToDirichletNodes",
          "State": 1,
          "Timestamp": 8129
        },
        {
          "Name": "advance/map.np.mapData.FromNeumannNodesToDirichletNodes",
          "State": 0,
          "Timestamp": 8129
        },
        {
          "Name": "advance/map.np.mapData.FromNeumannNodesToDirichletNodes",
          "State": 1,
          "Timestamp": 8259
        },
        {
          "Name": "advance/map.np.mapData.FromNeumannNodesToDirichletNodes",
          "State": 0,
          "Timestamp": 8259
        },
        {
          "Name": "advance/map.np.mapData.FromNeumannNodesToDirichletNodes",
          "State": 1,
          "Timestamp": 8411
        },
        {
          "Name": "advance/map.np.mapData.FromNeumannNodesToDirichletNodes",
          "State": 0,
          "Timestamp": 8411
        },
        {
          "Name": "advance/map.np.mapData.FromNeumannNodesToDirichletNodes",
          "State": 1,
          "Timestamp": 8541
        },
        {
          "Name": "advance/map.np.mapData.FromNeumannNodesToDirichletNodes",
          "State": 0,
          "Timestamp": 8541
        },
        {
          "Name": "advance/map.np.mapData.FromNeumannNodesToDirichletNodes",
          "State": 1,
          "Timestamp": 8674
        },
        {
          "Name": "advance/map.np.mapData.FromNeumannNodesToDirichletNodes",
          "State": 0,
          "Timestamp": 8674
        },
        {
          "Name": "advance/map.np.mapData.FromNeumannNodesToDirichletNodes",
          "State": 1,
          "Timestamp": 8827
        },
        {
          "Name": "advance/map.np.mapData.FromNeumannNodesToDirichletNodes",
          "State": 0,
          "Timestamp": 8827
        },
        {
          "Name": "advance/map.np.mapData.FromNeumannNodesToDirichletNodes",
          "State": 1,
          "Timestamp": 8956
        },
        {
          "Name": "advance/map.np.mapData.FromNeumannNodesToDirichletNodes",
          "State": 0,
          "Timestamp": 8956
        },
        {
          "Name": "advance/map.np.mapData.FromNeumannNodesToDirichletNodes",
          "State": 1,
          "Timestamp": 9083
        },
        {
          "Name": "advance/map.np.mapData.FromNeumannNodesToDirichletNodes",
          "State": 0,
          "Timestamp": 9083
        },
        {
          "Name": "configure",
          "State": 1,
          "Timestamp": 0
        },
        {
          "Name": "configure",
          "State": 0,
          "Timestamp": 0
        },
        {
          "Name": "finalize",
          "State": 1,
          "Timestamp": 9109
        },
        {
          "Name": "finalize",
          "State": 0,
          "Timestamp": 9111
        },
        {
          "Name": "initialize",
          "State": 1,
          "Timestamp": 4
        },
        {
          "Name": "initialize",
          "State": 0,
          "Timestamp": 69
        },
        {
          "Name": "initialize/m2n.requestMasterConnection",
          "State": 1,
          "Timestamp": 4
        },
        {
          "Name": "initialize/m2n.requestMasterConnection",
          "State": 0,
          "Timestamp": 26
        },
        {
          "Name": "initialize/m2n.requestSlavesConnection",
          "State": 1,
          "Timestamp": 69
        },
        {
          "Name": "initialize/m2n.requestSlavesConnection",
          "State": 0,
          "Timestamp": 69
        },
        {
          "Name": "initialize/partition.feedbackMesh.DirichletNodes",
          "State": 1,
          "Timestamp": 69
        },
        {
          "Name": "initialize/partition.feedbackMesh.DirichletNodes",
          "State": 0,
          "Timestamp": 69
        },
        {
          "Name": "initialize/partition.receiveGlobalMesh.NeumannNodes",
          "State": 1,
          "Timestamp": 26
        },
        {
          "Name": "initialize/partition.receiveGlobalMesh.NeumannNodes",
          "State": 0,
          "Timestamp": 69
        },
        {
          "Name": "initializeData",
          "State": 1,
          "Timestamp": 74
        },
        {
          "Name": "initializeData",
          "State": 0,
          "Timestamp": 74
        },
        {
          "Name": "initializeData/map.np.computeMapping.FromDirichletNodesToNeumannNodes",
          "State": 1,
          "Timestamp": 74
        },
        {
          "Name": "initializeData/map.np.computeMapping.FromDirichletNodesToNeumannNodes",
          "State": 0,
          "Timestamp": 74
        },
        {
          "Name": "initializeData/map.np.computeMapping.FromDirichletNodesToNeumannNodes.getIndexOnEdges",
          "State": 1,
          "Timestamp": 74
        },
        {
          "Name": "initializeData/map.np.computeMapping.FromDirichletNodesToNeumannNodes.getIndexOnEdges",
          "State": 0,
          "Timestamp": 74
        },
        {
          "Name": "initializeData/map.np.computeMapping.FromDirichletNodesToNeumannNodes.getIndexOnVertices",
          "State": 1,
          "Timestamp": 74
        },
        {
          "Name": "initializeData/map.np.computeMapping.FromDirichletNodesToNeumannNodes.getIndexOnVertices",
          "State": 0,
          "Timestamp": 74
        },
        {
          "Name": "initializeData/map.np.computeMapping.FromNeumannNodesToDirichletNodes",
          "State": 1,
          "Timestamp": 74
        },
        {
          "Name": "initializeData/map.np.computeMapping.FromNeumannNodesToDirichletNodes",
          "State": 0,
          "Timestamp": 74
        },
        {
          "Name": "initializeData/map.np.computeMapping.FromNeumannNodesToDirichletNodes.getIndexOnEdges",
          "State": 1,
          "Timestamp": 74
        },
        {
          "Name": "initializeData/map.np.computeMapping.FromNeumannNodesToDirichletNodes.getIndexOnEdges",
          "State": 0,
          "Timestamp": 74
        },
        {
          "Name": "initializeData/map.np.computeMapping.FromNeumannNodesToDirichletNodes.getIndexOnVertices",
          "State": 1,
          "Timestamp": 74
        },
        {
          "Name": "initializeData/map.np.computeMapping.FromNeumannNodesToDirichletNodes.getIndexOnVertices",
          "State": 0,
          "Timestamp": 74
        },
        {
          "Name": "initializeData/map.np.mapData.FromDirichletNodesToNeumannNodes",
          "State": 1,
          "Timestamp": 74
        },
        {
          "Name": "initializeData/map.np.mapData.FromDirichletNodesToNeumannNodes",
          "State": 0,
          "Timestamp": 74
        },
        {
          "Name": "initializeData/map.np.mapData.FromDirichletNodesToNeumannNodes",
          "State": 1,
          "Timestamp": 74
        },
        {
          "Name": "initializeData/map.np.mapData.FromDirichletNodesToNeumannNodes",
          "State": 0,
          "Timestamp": 74
        },
        {
          "Name": "initializeData/map.np.mapData.FromNeumannNodesToDirichletNodes",
          "State": 1,
          "Timestamp": 74
        },
        {
          "Name": "initializeData/map.np.mapData.FromNeumannNodesToDirichletNodes",
          "State": 0,
          "Timestamp": 74
        },
        {
          "Name": "solver.advance",
          "State": 1,
          "Timestamp": 325
        },
        {
          "Name": "solver.advance",
          "State": 0,
          "Timestamp": 406
        },
        {
          "Name": "solver.advance",
          "State": 1,
          "Timestamp": 469
        },
        {
          "Name": "solver.advance",
          "State": 0,
          "Timestamp": 535
        },
        {
          "Name": "solver.advance",
          "State": 1,
          "Timestamp": 614
        },
        {
          "Name": "solver.advance",
          "State": 0,
          "Timestamp": 680
        },
        {
          "Name": "solver.advance",
          "State": 1,
          "Timestamp": 743
        },
        {
          "Name": "solver.advance",
          "State": 0,
          "Timestamp": 808
        },
        {
          "Name": "solver.advance",
          "State": 1,
          "Timestamp": 871
        },
        {
          "Name": "solver.advance",
          "State": 0,
          "Timestamp": 936
        },
        {
          "Name": "solver.advance",
          "State": 1,
          "Timestamp": 1000
        },
        {
          "Name": "solver.advance",
          "State": 0,
          "Timestamp": 1065
        },
        {
          "Name": "solver.advance",
          "State": 1,
          "Timestamp": 1129
        },
        {
          "Name": "solver.advance",
          "State": 0,
          "Timestamp": 1194
        },
        {
          "Name": "solver.advance",
          "State": 1,
          "Timestamp": 1256
        },
        {
          "Name": "solver.advance",
          "State": 0,
          "Timestamp": 1322
        },
        {
          "Name": "solver.advance",
          "State": 1,
          "Timestamp": 1385
        },
        {
          "Name": "solver.advance",
          "State": 0,
          "Timestamp": 1450
        },
        {
          "Name": "solver.advance",
          "State": 1,
          "Timestamp": 1514
        },
        {
          "Name": "solver.advance",
          "State": 0,
          "Timestamp": 1580
        },
        {
          "Name": "solver.advance",
          "State": 1,
          "Timestamp": 1642
        },
        {
          "Name": "solver.advance",
          "State": 0,
          "Timestamp": 1708
        },
        {
          "Name": "solver.advance",
          "State": 1,
          "Timestamp": 1771
        },
        {
          "Name": "solver.advance",
          "State": 0,
          "Timestamp": 1837
        },
        {
          "Name": "solver.advance",
          "State": 1,
          "Timestamp": 1900
        },
        {
          "Name": "solver.advance",
          "State": 0,
          "Timestamp": 1966
        },
        {
          "Name": "solver.advance",
          "State": 1,
          "Timestamp": 2028
        },
        {
          "Name": "solver.advance",
          "State": 0,
          "Timestamp": 2094
        },
        {
          "Name": "solver.advance",
          "State": 1,
          "Timestamp": 2156
        },
        {
          "Name": "solver.advance",
          "State": 0,
          "Timestamp": 2222
        },
        {
          "Name": "solver.advance",
          "State": 1,
          "Timestamp": 2285
        },
        {
          "Name": "solver.advance",
          "State": 0,
          "Timestamp": 2350
        },
        {
          "Name": "solver.advance",
          "State": 1,
          "Timestamp": 2413
        },
        {
          "Name": "solver.advance",
          "State": 0,
          "Timestamp": 2479
        },
        {
          "Name": "solver.advance",
          "State": 1,
          "Timestamp": 2542
        },
        {
          "Name": "solver.advance",
          "State": 0,
          "Timestamp": 2619
        },
        {
          "Name": "solver.advance",
          "State": 1,
          "Timestamp": 2694
        },
        {
          "Name": "solver.advance",
          "State": 0,
          "Timestamp": 2759
        },
        {
          "Name": "solver.advance",
          "State": 1,
          "Timestamp": 2822
        },
        {
          "Name": "solver.advance",
          "State": 0,
          "Timestamp": 2888
        },
        {
          "Name": "solver.advance",
          "State": 1,
          "Timestamp": 2951
        },
        {
          "Name": "solver.advance",
          "State": 0,
          "Timestamp": 3016
        },
        {
          "Name": "solver.advance",
          "State": 1,
          "Timestamp": 3079
        },
        {
          "Name": "solver.advance",
          "State": 0,
          "Timestamp": 3145
        },
        {
          "Name": "solver.advance",
          "State": 1,
          "Timestamp": 3208
        },
        {
          "Name": "solver.advance",
          "State": 0,
          "Timestamp": 3274
        },
        {
          "Name": "solver.advance",
          "State": 1,
          "Timestamp": 3337
        },
        {
          "Name": "solver.advance",
          "State": 0,
          "Timestamp": 3403
        },
        {
          "Name": "solver.advance",
          "State": 1,
          "Timestamp": 3467
        },
        {
          "Name": "solver.advance",
          "State": 0,
          "Timestamp": 3534
        },
        {
          "Name": "solver.advance",
          "State": 1,
          "Timestamp": 3598
        },
        {
          "Name": "solver.advance",
          "State": 0,
          "Timestamp": 3664
        },
        {
          "Name": "solver.advance",
          "State": 1,
          "Timestamp": 3728
        },
        {
          "Name": "solver.advance",
          "State": 0,
          "Timestamp": 3793
        },
        {
          "Name": "solver.advance",
          "State": 1,
          "Timestamp": 3856
        },
        {
          "Name": "solver.advance",
          "State": 0,
          "Timestamp": 3922
        },
        {
          "Name": "solver.advance",
          "State": 1,
          "Timestamp": 3985
        },
        {
          "Name": "solver.advance",
          "State": 0,
          "Timestamp": 4050
        },
        {
          "Name": "solver.advance",
          "State": 1,
          "Timestamp": 4114
        },
        {
          "Name": "solver.advance",
          "State": 0,
          "Timestamp": 4179
        },
        {
          "Name": "solver.advance",
          "State": 1,
          "Timestamp": 4242
        },
        {
          "Name": "solver.advance",
          "State": 0,
          "Timestamp": 4307
        },
        {
          "Name": "solver.advance",
          "State": 1,
          "Timestamp": 4372
        },
        {
          "Name": "solver.advance",
          "State": 0,
          "Timestamp": 4437
        },
        {
          "Name": "solver.advance",
          "State": 1,
          "Timestamp": 4502
        },
        {
          "Name": "solver.advance",
          "State": 0,
          "Timestamp": 4567
        },
        {
          "Name": "solver.advance",
          "State": 1,
          "Timestamp": 4631
        },
        {
          "Name": "solver.advance",
          "State": 0,
          "Timestamp": 4697
        },
        {
          "Name": "solver.advance",
          "State": 1,
          "Timestamp": 4761
        },
        {
          "Name": "solver.advance",
          "State": 0,
          "Timestamp": 4826
        },
        {
          "Name": "solver.advance",
          "State": 1,
          "Timestamp": 4890
        },
        {
          "Name": "solver.advance",
          "State": 0,
          "Timestamp": 4966
        },
        {
          "Name": "solver.advance",
          "State": 1,
          "Timestamp": 5042
        },
        {
          "Name": "solver.advance",
          "State": 0,
          "Timestamp": 5108
        },
        {
          "Name": "solver.advance",
          "State": 1,
          "Timestamp": 5171
        },
        {
          "Name": "solver.advance",
          "State": 0,
          "Timestamp": 5237
        },
        {
          "Name": "solver.advance",
          "State": 1,
          "Timestamp": 5300
        },
        {
          "Name": "solver.advance",
          "State": 0,
          "Timestamp": 5366
        },
        {
          "Name": "solver.advance",
          "State": 1,
          "Timestamp": 5429
        },
        {
          "Name": "solver.advance",
          "State": 0,
          "Timestamp": 5495
        },
        {
          "Name": "solver.advance",
          "State": 1,
          "Timestamp": 5559
        },
        {
          "Name": "solver.advance",
          "State": 0,
          "Timestamp": 5624
        },
        {
          "Name": "solver.advance",
          "State": 1,
          "Timestamp": 5688
        },
        {
          "Name": "solver.advance",
          "State": 0,
          "Timestamp": 5754
        },
        {
          "Name": "solver.advance",
          "State": 1,
          "Timestamp": 5817
        },
        {
          "Name": "solver.advance",
          "State": 0,
          "Timestamp": 5882
        },
        {
          "Name": "solver.advance",
          "State": 1,
          "Timestamp": 5945
        },
        {
          "Name": "solver.advance",
          "State": 0,
          "Timestamp": 6011
        },
        {
          "Name": "solver.advance",
          "State": 1,
          "Timestamp": 6074
        },
        {
          "Name": "solver.advance",
          "State": 0,
          "Timestamp": 6140
        },
        {
          "Name": "solver.advance",
          "State": 1,
          "Timestamp": 6204
        },
        {
          "Name": "solver.advance",
          "State": 0,
          "Timestamp": 6281
        },
        {
          "Name": "solver.advance",
          "State": 1,
          "Timestamp": 6355
        },
        {
          "Name": "solver.advance",
          "State": 0,
          "Timestamp": 6421
        },
        {
          "Name": "solver.advance",
          "State": 1,
          "Timestamp": 6485
        },
        {
          "Name": "solver.advance",
          "State": 0,
          "Timestamp": 6550
        },
        {
          "Name": "solver.advance",
          "State": 1,
          "Timestamp": 6614
        },
        {
          "Name": "solver.advance",
          "State": 0,
          "Timestamp": 6692
        },
        {
          "Name": "solver.advance",
          "State": 1,
          "Timestamp": 6766
        },
        {
          "Name": "solver.advance",
          "State": 0,
          "Timestamp": 6832
        },
        {
          "Name": "solver.advance",
          "State": 1,
          "Timestamp": 6895
        },
        {
          "Name": "solver.advance",
          "State": 0,
          "Timestamp": 6960
        },
        {
          "Name": "solver.advance",
          "State": 1,
          "Timestamp": 7023
        },
        {
          "Name": "solver.advance",
          "State": 0,
          "Timestamp": 7100
        },
        {
          "Name": "solver.advance",
          "State": 1,
          "Timestamp": 7174
        },
        {
          "Name": "solver.advance",
          "State": 0,
          "Timestamp": 7240
        },
        {
          "Name": "solver.advance",
          "State": 1,
          "Timestamp": 7303
        },
        {
          "Name": "solver.advance",
          "State": 0,
          "Timestamp": 7370
        },
        {
          "Name": "solver.advance",
          "State": 1,
          "Timestamp": 7434
        },
        {
          "Name": "solver.advance",
          "State": 0,
          "Timestamp": 7512
        },
        {
          "Name": "solver.advance",
          "State": 1,
          "Timestamp": 7585
        },
        {
          "Name": "solver.advance",
          "State": 0,
          "Timestamp": 7652
        },
        {
          "Name": "solver.advance",
          "State": 1,
          "Timestamp": 7715
        },
        {
          "Name": "solver.advance",
          "State": 0,
          "Timestamp": 7780
        },
        {
          "Name": "solver.advance",
          "State": 1,
          "Timestamp": 7848
        },
        {
          "Name": "solver.advance",
          "State": 0,
          "Timestamp": 7925
        },
        {
          "Name": "solver.advance",
          "State": 1,
          "Timestamp": 8000
        },
        {
          "Name": "solver.advance",
          "State": 0,
          "Timestamp": 8066
        },
        {
          "Name": "solver.advance",
          "State": 1,
          "Timestamp": 8129
        },
        {
          "Name": "solver.advance",
          "State": 0,
          "Timestamp": 8195
        },
        {
          "Name": "solver.advance",
          "State": 1,
          "Timestamp": 8259
        },
        {
          "Name": "solver.advance",
          "State": 0,
          "Timestamp": 8336
        },
        {
          "Name": "solver.advance",
          "State": 1,
          "Timestamp": 8411
        },
        {
          "Name": "solver.advance",
          "State": 0,
          "Timestamp": 8477
        },
        {
          "Name": "solver.advance",
          "State": 1,
          "Timestamp": 8541
        },
        {
          "Name": "solver.advance",
          "State": 0,
          "Timestamp": 8607
        },
        {
          "Name": "solver.advance",
          "State": 1,
          "Timestamp": 8674
        },
        {
          "Name": "solver.advance",
          "State": 0,
          "Timestamp": 8752
        },
        {
          "Name": "solver.advance",
          "State": 1,
          "Timestamp": 8827
        },
        {
          "Name": "solver.advance",
          "State": 0,
          "Timestamp": 8892
        },
        {
          "Name": "solver.advance",
          "State": 1,
          "Timestamp": 8956
        },
        {
          "Name": "solver.advance",
          "State": 0,
          "Timestamp": 9021
        },
        {
          "Name": "solver.advance",
          "State": 1,
          "Timestamp": 9083
        },
        {
          "Name": "solver.advance",
          "State": 0,
          "Timestamp": 9109
        },
        {
          "Name": "solver.initialize",
          "State": 1,
          "Timestamp": 0
        },
        {
          "Name": "solver.initialize",
          "State": 2,
          "Timestamp": 4
        },
        {
          "Name": "solver.initialize",
          "State": 1,
          "Timestamp": 69
        },
        {
          "Name": "solver.initialize",
          "State": 2,
          "Timestamp": 74
        },
        {
          "Name": "solver.initialize",
          "State": 1,
          "Timestamp": 74
        },
        {
          "Name": "solver.initialize",
          "State": 0,
          "Timestamp": 177
        }
      ],
      "Timings": {
        "_GLOBAL": {
          "Count": 1,
          "Data": {},
          "Max": 9111,
          "Min": 9111,
          "TimeRatio": 1.0,
          "Total": 9111
        },
        "advance": {
          "Count": 67,
          "Data": {},
          "Max": 148,
          "Min": 62,
          "TimeRatio": 0.488420590495006,
          "Total": 4450
        },
        "advance/map.np.mapData.FromDirichletNodesToNeumannNodes": {
          "Count": 134,
          "Data": {},
          "Max": 0,
          "Min": 0,
          "TimeRatio": 0.0,
          "Total": 0
        },
        "advance/map.np.mapData.FromNeumannNodesToDirichletNodes": {
          "Count": 67,
          "Data": {},
          "Max": 0,
          "Min": 0,
          "TimeRatio": 0.0,
          "Total": 0
        },
        "configure": {
          "Count": 1,
          "Data": {},
          "Max": 0,
          "Min": 0,
          "TimeRatio": 0.0,
          "Total": 0
        },
        "finalize": {
          "Count": 1,
          "Data": {},
          "Max": 2,
          "Min": 2,
          "TimeRatio": 0.000219514872132587,
          "Total": 2
        },
        "initialize": {
          "Count": 1,
          "Data": {},
          "Max": 65,
          "Min": 65,
          "TimeRatio": 0.007134233344309077,
          "Total": 65
        },
        "initialize/m2n.requestMasterConnection": {
          "Count": 1,
          "Data": {},
          "Max": 21,
          "Min": 21,
          "TimeRatio": 0.0023049061573921633,
          "Total": 21
        },
        "initialize/m2n.requestSlavesConnection": {
          "Count": 1,
          "Data": {},
          "Max": 0,
          "Min": 0,
          "TimeRatio": 0.0,
          "Total": 0
        },
        "initialize/partition.feedbackMesh.DirichletNodes": {
          "Count": 1,
          "Data": {},
          "Max": 0,
          "Min": 0,
          "TimeRatio": 0.0,
          "Total": 0
        },
        "initialize/partition.receiveGlobalMesh.NeumannNodes": {
          "Count": 1,
          "Data": {},
          "Max": 43,
          "Min": 43,
          "TimeRatio": 0.00471956975085062,
          "Total": 43
        },
        "initializeData": {
          "Count": 1,
          "Data": {},
          "Max": 0,
          "Min": 0,
          "TimeRatio": 0.0,
          "Total": 0
        },
        "initializeData/map.np.computeMapping.FromDirichletNodesToNeumannNodes": {
          "Count": 1,
          "Data": {},
          "Max": 0,
          "Min": 0,
          "TimeRatio": 0.0,
          "Total": 0
        },
        "initializeData/map.np.computeMapping.FromDirichletNodesToNeumannNodes.getIndexOnEdges": {
          "Count": 1,
          "Data": {},
          "Max": 0,
          "Min": 0,
          "TimeRatio": 0.0,
          "Total": 0
        },
        "initializeData/map.np.computeMapping.FromDirichletNodesToNeumannNodes.getIndexOnVertices": {
          "Count": 1,
          "Data": {},
          "Max": 0,
          "Min": 0,
          "TimeRatio": 0.0,
          "Total": 0
        },
        "initializeData/map.np.computeMapping.FromNeumannNodesToDirichletNodes": {
          "Count": 1,
          "Data": {},
          "Max": 0,
          "Min": 0,
          "TimeRatio": 0.0,
          "Total": 0
        },
        "initializeData/map.np.computeMapping.FromNeumannNodesToDirichletNodes.getIndexOnEdges": {
          "Count": 1,
          "Data": {},
          "Max": 0,
          "Min": 0,
          "TimeRatio": 0.0,
          "Total": 0
        },
        "initializeData/map.np.computeMapping.FromNeumannNodesToDirichletNodes.getIndexOnVertices": {
          "Count": 1,
          "Data": {},
          "Max": 0,
          "Min": 0,
          "TimeRatio": 0.0,
          "Total": 0
        },
        "initializeData/map.np.mapData.FromDirichletNodesToNeumannNodes": {
          "Count": 2,
          "Data": {},
          "Max": 0,
          "Min": 0,
          "TimeRatio": 0.0,
          "Total": 0
        },
        "initializeData/map.np.mapData.FromNeumannNodesToDirichletNodes": {
          "Count": 1,
          "Data": {},
          "Max": 0,
          "Min": 0,
          "TimeRatio": 0.0,
          "Total": 0
        },
        "solver.advance": {
          "Count": 67,
          "Data": {},
          "Max": 80,
          "Min": 25,
          "TimeRatio": 0.4918230710130611,
          "Total": 4481
        },
        "solver.initialize": {
          "Count": 1,
          "Data": {},
          "Max": 112,
          "Min": 112,
          "TimeRatio": 0.012292832839424872,
          "Total": 112
        }
      }
    }
  ]
}
