{
  "Finalized": "2019-11-13T14:09:19.662",
  "Initialized": "2019-11-13T14:09:10.672",
  "Name": "",
  "Ranks": [
    {
      "Finalized": "2019-11-13T14:09:19.662",
      "Initialized": "2019-11-13T14:09:10.672",
      "StateChanges": [
        {
          "Name": "_GLOBAL",
          "State": 1,
          "Timestamp": 0
        },
        {
          "Name": "_GLOBAL",
          "State": 0,
          "Timestamp": 8989
        },
        {
          "Name": "advance",
          "State": 1,
          "Timestamp": 219
        },
        {
          "Name": "advance",
          "State": 0,
          "Timestamp": 252
        },
        {
          "Name": "advance",
          "State": 1,
          "Timestamp": 294
        },
        {
          "Name": "advance",
          "State": 0,
          "Timestamp": 379
        },
        {
          "Name": "advance",
          "State": 1,
          "Timestamp": 421
        },
        {
          "Name": "advance",
          "State": 0,
          "Timestamp": 469
        },
        {
          "Name": "advance",
          "State": 1,
          "Timestamp": 527
        },
        {
          "Name": "advance",
          "State": 0,
          "Timestamp": 559
        },
        {
          "Name": "advance",
          "State": 1,
          "Timestamp": 602
        },
        {
          "Name": "advance",
          "State": 0,
          "Timestamp": 686
        },
        {
          "Name": "advance",
          "State": 1,
          "Timestamp": 729
        },
        {
          "Name": "advance",
          "State": 0,
          "Timestamp": 761
        },
        {
          "Name": "advance",
          "State": 1,
          "Timestamp": 804
        },
        {
          "Name": "advance",
          "State": 0,
          "Timestamp": 887
        },
        {
          "Name": "advance",
          "State": 1,
          "Timestamp": 930
        },
        {
          "Name": "advance",
          "State": 0,
          "Timestamp": 1030
        },
        {
          "Name": "advance",
          "State": 1,
          "Timestamp": 1072
        },
        {
          "Name": "advance",
          "State": 0,
          "Timestamp": 1106
        },
        {
          "Name": "advance",
          "State": 1,
          "Timestamp": 1148
        },
        {
          "Name": "advance",
          "State": 0,
          "Timestamp": 1234
        },
        {
          "Name": "advance",
          "State": 1,
          "Timestamp": 1276
        },
        {
          "Name": "advance",
          "State": 0,
          "Timestamp": 1310
        },
        {
          "Name": "advance",
          "State": 1,
          "Timestamp": 1353
        },
        {
          "Name": "advance",
          "State": 0,
          "Timestamp": 1437
        },
        {
          "Name": "advance",
          "State": 1,
          "Timestamp": 1480
        },
        {
          "Name": "advance",
          "State": 0,
          "Timestamp": 1513
        },
        {
          "Name": "advance",
          "State": 1,
          "Timestamp": 1555
        },
        {
          "Name": "advance",
          "State": 0,
          "Timestamp": 1654
        },
        {
          "Name": "advance",
          "State": 1,
          "Timestamp": 1697
        },
        {
          "Name": "advance",
          "State": 0,
          "Timestamp": 1730
        },
        {
          "Name": "advance",
          "State": 1,
          "Timestamp": 1773
        },
        {
          "Name": "advance",
          "State": 0,
          "Timestamp": 1874
        },
        {
          "Name": "advance",
          "State": 1,
          "Timestamp": 1917
        },
        {
          "Name": "advance",
          "State": 0,
          "Timestamp": 1949
        },
        {
          "Name": "advance",
          "State": 1,
          "Timestamp": 1992
        },
        {
          "Name": "advance",
          "State": 0,
          "Timestamp": 2082
        },
        {
          "Name": "advance",
          "State": 1,
          "Timestamp": 2135
        },
        {
          "Name": "advance",
          "State": 0,
          "Timestamp": 2169
        },
        {
          "Name": "advance",
          "State": 1,
          "Timestamp": 2211
        },
        {
          "Name": "advance",
          "State": 0,
          "Timestamp": 2291
        },
        {
          "Name": "advance",
          "State": 1,
          "Timestamp": 2334
        },
        {
          "Name": "advance",
          "State": 0,
          "Timestamp": 2418
        },
        {
          "Name": "advance",
          "State": 1,
          "Timestamp": 2460
        },
        {
          "Name": "advance",
          "State": 0,
          "Timestamp": 2493
        },
        {
          "Name": "advance",
          "State": 1,
          "Timestamp": 2536
        },
        {
          "Name": "advance",
          "State": 0,
          "Timestamp": 2615
        },
        {
          "Name": "advance",
          "State": 1,
          "Timestamp": 2659
        },
        {
          "Name": "advance",
          "State": 0,
          "Timestamp": 2759
        },
        {
          "Name": "advance",
          "State": 1,
          "Timestamp": 2802
        },
        {
          "Name": "advance",
          "State": 0,
          "Timestamp": 2834
        },
        {
          "Name": "advance",
          "State": 1,
          "Timestamp": 2878
        },
        {
          "Name": "advance",
          "State": 0,
          "Timestamp": 2962
        },
        {
          "Name": "advance",
          "State": 1,
          "Timestamp": 3004
        },
        {
          "Name": "advance",
          "State": 0,
          "Timestamp": 3037
        },
        {
          "Name": "advance",
          "State": 1,
          "Timestamp": 3080
        },
        {
          "Name": "advance",
          "State": 0,
          "Timestamp": 3173
        },
        {
          "Name": "advance",
          "State": 1,
          "Timestamp": 3227
        },
        {
          "Name": "advance",
          "State": 0,
          "Timestamp": 3260
        },
        {
          "Name": "advance",
          "State": 1,
          "Timestamp": 3304
        },
        {
          "Name": "advance",
          "State": 0,
          "Timestamp": 3380
        },
        {
          "Name": "advance",
          "State": 1,
          "Timestamp": 3423
        },
        {
          "Name": "advance",
          "State": 0,
          "Timestamp": 3518
        },
        {
          "Name": "advance",
          "State": 1,
          "Timestamp": 3571
        },
        {
          "Name": "advance",
          "State": 0,
          "Timestamp": 3604
        },
        {
          "Name": "advance",
          "State": 1,
          "Timestamp": 3647
        },
        {
          "Name": "advance",
          "State": 0,
          "Timestamp": 3727
        },
        {
          "Name": "advance",
          "State": 1,
          "Timestamp": 3770
        },
        {
          "Name": "advance",
          "State": 0,
          "Timestamp": 3869
        },
        {
          "Name": "advance",
          "State": 1,
          "Timestamp": 3922
        },
        {
          "Name": "advance",
          "State": 0,
          "Timestamp": 3955
        },
        {
          "Name": "advance",
          "State": 1,
          "Timestamp": 3998
        },
        {
          "Name": "advance",
          "State": 0,
          "Timestamp": 4076
        },
        {
          "Name": "advance",
          "State": 1,
          "Timestamp": 4119
        },
        {
          "Name": "advance",
          "State": 0,
          "Timestamp": 4213
        },
        {
          "Name": "advance",
          "State": 1,
          "Timestamp": 4267
        },
        {
          "Name": "advance",
          "State": 0,
          "Timestamp": 4300
        },
        {
          "Name": "advance",
          "State": 1,
          "Timestamp": 4343
        },
        {
          "Name": "advance",
          "State": 0,
          "Timestamp": 4423
        },
        {
          "Name": "advance",
          "State": 1,
          "Timestamp": 4466
        },
        {
          "Name": "advance",
          "State": 0,
          "Timestamp": 4561
        },
        {
          "Name": "advance",
          "State": 1,
          "Timestamp": 4616
        },
        {
          "Name": "advance",
          "State": 0,
          "Timestamp": 4649
        },
        {
          "Name": "advance",
          "State": 1,
          "Timestamp": 4692
        },
        {
          "Name": "advance",
          "State": 0,
          "Timestamp": 4771
        },
        {
          "Name": "advance",
          "State": 1,
          "Timestamp": 4814
        },
        {
          "Name": "advance",
          "State": 0,
          "Timestamp": 4909
        },
        {
          "Name": "advance",
          "State": 1,
          "Timestamp": 4963
        },
        {
          "Name": "advance",
          "State": 0,
          "Timestamp": 4995
        },
        {
          "Name": "advance",
          "State": 1,
          "Timestamp": 5038
        },
        {
          "Name": "advance",
          "State": 0,
          "Timestamp": 5122
        },
        {
          "Name": "advance",
          "State": 1,
          "Timestamp": 5164
        },
        {
          "Name": "advance",
          "State": 0,
          "Timestamp": 5209
        },
        {
          "Name": "advance",
          "State": 1,
          "Timestamp": 5262
        },
        {
          "Name": "advance",
          "State": 0,
          "Timestamp": 5295
        },
        {
          "Name": "advance",
          "State": 1,
          "Timestamp": 5338
        },
        {
          "Name": "advance",
          "State": 0,
          "Timestamp": 5422
        },
        {
          "Name": "advance",
          "State": 1,
          "Timestamp": 5465
        },
        {
          "Name": "advance",
          "State": 0,
          "Timestamp": 5509
        },
        {
          "Name": "advance",
          "State": 1,
          "Timestamp": 5563
        },
        {
          "Name": "advance",
          "State": 0,
          "Timestamp": 5595
        },
        {
          "Name": "advance",
          "State": 1,
          "Timestamp": 5640
        },
        {
          "Name": "advance",
          "State": 0,
          "Timestamp": 5736
        },
        {
          "Name": "advance",
          "State": 1,
          "Timestamp": 5779
        },
        {
          "Name": "advance",
          "State": 0,
          "Timestamp": 5823
        },
        {
          "Name": "advance",
          "State": 1,
          "Timestamp": 5876
        },
        {
          "Name": "advance",
          "State": 0,
          "Timestamp": 5909
        },
        {
          "Name": "advance",
          "State": 1,
          "Timestamp": 5952
        },
        {
          "Name": "advance",
          "State": 0,
          "Timestamp": 6038
        },
        {
          "Name": "advance",
          "State": 1,
          "Timestamp": 6080
        },
        {
          "Name": "advance",
          "State": 0,
          "Timestamp": 6124
        },
        {
          "Name": "advance",
          "State": 1,
          "Timestamp": 6178
        },
        {
          "Name": "advance",
          "State": 0,
          "Timestamp": 6211
        },
        {
          "Name": "advance",
          "State": 1,
          "Timestamp": 6253
        },
        {
          "Name": "advance",
          "State": 0,
          "Timestamp": 6342
        },
        {
          "Name": "advance",
          "State": 1,
          "Timestamp": 6385
        },
        {
          "Name": "advance",
          "State": 0,
          "Timestamp": 6429
        },
        {
          "Name": "advance",
          "State": 1,
          "Timestamp": 6482
        },
        {
          "Name": "advance",
          "State": 0,
          "Timestamp": 6515
        },
        {
          "Name": "advance",
          "State": 1,
          "Timestamp": 6558
        },
        {
          "Name": "advance",
          "State": 0,
          "Timestamp": 6642
        },
        {
          "Name": "advance",
          "State": 1,
          "Timestamp": 6686
        },
        {
          "Name": "advance",
          "State": 0,
          "Timestamp": 6730
        },
        {
          "Name": "advance",
          "State": 1,
          "Timestamp": 6785
        },
        {
          "Name": "advance",
          "State": 0,
          "Timestamp": 6817
        },
        {
          "Name": "advance",
          "State": 1,
          "Timestamp": 6860
        },
        {
          "Name": "advance",
          "State": 0,
          "Timestamp": 6946
        },
        {
          "Name": "advance",
          "State": 1,
          "Timestamp": 6989
        },
        {
          "Name": "advance",
          "State": 0,
          "Timestamp": 7034
        },
        {
          "Name": "advance",
          "State": 1,
          "Timestamp": 7087
        },
        {
          "Name": "advance",
          "State": 0,
          "Timestamp": 7120
        },
        {
          "Name": "advance",
          "State": 1,
          "Timestamp": 7162
        },
        {
          "Name": "advance",
          "State": 0,
          "Timestamp": 7246
        },
        {
          "Name": "advance",
          "State": 1,
          "Timestamp": 7289
        },
        {
          "Name": "advance",
          "State": 0,
          "Timestamp": 7334
        },
        {
          "Name": "advance",
          "State": 1,
          "Timestamp": 7387
        },
        {
          "Name": "advance",
          "State": 0,
          "Timestamp": 7420
        },
        {
          "Name": "advance",
          "State": 1,
          "Timestamp": 7463
        },
        {
          "Name": "advance",
          "State": 0,
          "Timestamp": 7562
        },
        {
          "Name": "advance",
          "State": 1,
          "Timestamp": 7606
        },
        {
          "Name": "advance",
          "State": 0,
          "Timestamp": 7650
        },
        {
          "Name": "advance",
          "State": 1,
          "Timestamp": 7705
        },
        {
          "Name": "advance",
          "State": 0,
          "Timestamp": 7738
        },
        {
          "Name": "advance",
          "State": 1,
          "Timestamp": 7782
        },
        {
          "Name": "advance",
          "State": 0,
          "Timestamp": 7863
        },
        {
          "Name": "advance",
          "State": 1,
          "Timestamp": 7905
        },
        {
          "Name": "advance",
          "State": 0,
          "Timestamp": 8005
        },
        {
          "Name": "advance",
          "State": 1,
          "Timestamp": 8059
        },
        {
          "Name": "advance",
          "State": 0,
          "Timestamp": 8092
        },
        {
          "Name": "advance",
          "State": 1,
          "Timestamp": 8135
        },
        {
          "Name": "advance",
          "State": 0,
          "Timestamp": 8218
        },
        {
          "Name": "advance",
          "State": 1,
          "Timestamp": 8260
        },
        {
          "Name": "advance",
          "State": 0,
          "Timestamp": 8305
        },
        {
          "Name": "advance",
          "State": 1,
          "Timestamp": 8359
        },
        {
          "Name": "advance",
          "State": 0,
          "Timestamp": 8392
        },
        {
          "Name": "advance",
          "State": 1,
          "Timestamp": 8435
        },
        {
          "Name": "advance",
          "State": 0,
          "Timestamp": 8516
        },
        {
          "Name": "advance",
          "State": 1,
          "Timestamp": 8559
        },
        {
          "Name": "advance",
          "State": 0,
          "Timestamp": 8670
        },
        {
          "Name": "advance",
          "State": 1,
          "Timestamp": 8724
        },
        {
          "Name": "advance",
          "State": 0,
          "Timestamp": 8757
        },
        {
          "Name": "advance",
          "State": 1,
          "Timestamp": 8801
        },
        {
          "Name": "advance",
          "State": 0,
          "Timestamp": 8878
        },
        {
          "Name": "advance",
          "State": 1,
          "Timestamp": 8922
        },
        {
          "Name": "advance",
          "State": 0,
          "Timestamp": 8922
        },
        {
          "Name": "advance/cpl.computeQuasiNewtonUpdate",
          "State": 1,
          "Timestamp": 219
        },
        {
          "Name": "advance/cpl.computeQuasiNewtonUpdate",
          "State": 0,
          "Timestamp": 219
        },
        {
          "Name": "advance/cpl.computeQuasiNewtonUpdate",
          "State": 1,
          "Timestamp": 294
        },
        {
          "Name": "advance/cpl.computeQuasiNewtonUpdate",
          "State": 0,
          "Timestamp": 294
        },
        {
          "Name": "advance/cpl.computeQuasiNewtonUpdate",
          "State": 1,
          "Timestamp": 422
        },
        {
          "Name": "advance/cpl.computeQuasiNewtonUpdate",
          "State": 0,
          "Timestamp": 422
        },
        {
          "Name": "advance/cpl.computeQuasiNewtonUpdate",
          "State": 1,
          "Timestamp": 527
        },
        {
          "Name": "advance/cpl.computeQuasiNewtonUpdate",
          "State": 0,
          "Timestamp": 527
        },
        {
          "Name": "advance/cpl.computeQuasiNewtonUpdate",
          "State": 1,
          "Timestamp": 602
        },
        {
          "Name": "advance/cpl.computeQuasiNewtonUpdate",
          "State": 0,
          "Timestamp": 603
        },
        {
          "Name": "advance/cpl.computeQuasiNewtonUpdate",
          "State": 1,
          "Timestamp": 729
        },
        {
          "Name": "advance/cpl.computeQuasiNewtonUpdate",
          "State": 0,
          "Timestamp": 729
        },
        {
          "Name": "advance/cpl.computeQuasiNewtonUpdate",
          "State": 1,
          "Timestamp": 804
        },
        {
          "Name": "advance/cpl.computeQuasiNewtonUpdate",
          "State": 0,
          "Timestamp": 804
        },
        {
          "Name": "advance/cpl.computeQuasiNewtonUpdate",
          "State": 1,
          "Timestamp": 930
        },
        {
          "Name": "advance/cpl.computeQuasiNewtonUpdate",
          "State": 0,
          "Timestamp": 930
        },
        {
          "Name": "advance/cpl.computeQuasiNewtonUpdate",
          "State": 1,
          "Timestamp": 1072
        },
        {
          "Name": "advance/cpl.computeQuasiNewtonUpdate",
          "State": 0,
          "Timestamp": 1072
        },
        {
          "Name": "advance/cpl.computeQuasiNewtonUpdate",
          "State": 1,
          "Timestamp": 1148
        },
        {
          "Name": "advance/cpl.computeQuasiNewtonUpdate",
          "State": 0,
          "Timestamp": 1148
        },
        {
          "Name": "advance/cpl.computeQuasiNewtonUpdate",
          "State": 1,
          "Timestamp": 1276
        },
        {
          "Name": "advance/cpl.computeQuasiNewtonUpdate",
          "State": 0,
          "Timestamp": 1276
        },
        {
          "Name": "advance/cpl.computeQuasiNewtonUpdate",
          "State": 1,
          "Timestamp": 1353
        },
        {
          "Name": "advance/cpl.computeQuasiNewtonUpdate",
          "State": 0,
          "Timestamp": 1353
        },
        {
          "Name": "advance/cpl.computeQuasiNewtonUpdate",
          "State": 1,
          "Timestamp": 1480
        },
        {
          "Name": "advance/cpl.computeQuasiNewtonUpdate",
          "State": 0,
          "Timestamp": 1480
        },
        {
          "Name": "advance/cpl.computeQuasiNewtonUpdate",
          "State": 1,
          "Timestamp": 1555
        },
        {
          "Name": "advance/cpl.computeQuasiNewtonUpdate",
          "State": 0,
          "Timestamp": 1555
        },
        {
          "Name": "advance/cpl.computeQuasiNewtonUpdate",
          "State": 1,
          "Timestamp": 1697
        },
        {
          "Name": "advance/cpl.computeQuasiNewtonUpdate",
          "State": 0,
          "Timestamp": 1697
        },
        {
          "Name": "advance/cpl.computeQuasiNewtonUpdate",
          "State": 1,
          "Timestamp": 1773
        },
        {
          "Name": "advance/cpl.computeQuasiNewtonUpdate",
          "State": 0,
          "Timestamp": 1773
        },
        {
          "Name": "advance/cpl.computeQuasiNewtonUpdate",
          "State": 1,
          "Timestamp": 1917
        },
        {
          "Name": "advance/cpl.computeQuasiNewtonUpdate",
          "State": 0,
          "Timestamp": 1917
        },
        {
          "Name": "advance/cpl.computeQuasiNewtonUpdate",
          "State": 1,
          "Timestamp": 2135
        },
        {
          "Name": "advance/cpl.computeQuasiNewtonUpdate",
          "State": 0,
          "Timestamp": 2135
        },
        {
          "Name": "advance/cpl.computeQuasiNewtonUpdate",
          "State": 1,
          "Timestamp": 2211
        },
        {
          "Name": "advance/cpl.computeQuasiNewtonUpdate",
          "State": 0,
          "Timestamp": 2211
        },
        {
          "Name": "advance/cpl.computeQuasiNewtonUpdate",
          "State": 1,
          "Timestamp": 2334
        },
        {
          "Name": "advance/cpl.computeQuasiNewtonUpdate",
          "State": 0,
          "Timestamp": 2334
        },
        {
          "Name": "advance/cpl.computeQuasiNewtonUpdate",
          "State": 1,
          "Timestamp": 2460
        },
        {
          "Name": "advance/cpl.computeQuasiNewtonUpdate",
          "State": 0,
          "Timestamp": 2460
        },
        {
          "Name": "advance/cpl.computeQuasiNewtonUpdate",
          "State": 1,
          "Timestamp": 2536
        },
        {
          "Name": "advance/cpl.computeQuasiNewtonUpdate",
          "State": 0,
          "Timestamp": 2536
        },
        {
          "Name": "advance/cpl.computeQuasiNewtonUpdate",
          "State": 1,
          "Timestamp": 2659
        },
        {
          "Name": "advance/cpl.computeQuasiNewtonUpdate",
          "State": 0,
          "Timestamp": 2659
        },
        {
          "Name": "advance/cpl.computeQuasiNewtonUpdate",
          "State": 1,
          "Timestamp": 2802
        },
        {
          "Name": "advance/cpl.computeQuasiNewtonUpdate",
          "State": 0,
          "Timestamp": 2802
        },
        {
          "Name": "advance/cpl.computeQuasiNewtonUpdate",
          "State": 1,
          "Timestamp": 2878
        },
        {
          "Name": "advance/cpl.computeQuasiNewtonUpdate",
          "State": 0,
          "Timestamp": 2878
        },
        {
          "Name": "advance/cpl.computeQuasiNewtonUpdate",
          "State": 1,
          "Timestamp": 3005
        },
        {
          "Name": "advance/cpl.computeQuasiNewtonUpdate",
          "State": 0,
          "Timestamp": 3005
        },
        {
          "Name": "advance/cpl.computeQuasiNewtonUpdate",
          "State": 1,
          "Timestamp": 3227
        },
        {
          "Name": "advance/cpl.computeQuasiNewtonUpdate",
          "State": 0,
          "Timestamp": 3227
        },
        {
          "Name": "advance/cpl.computeQuasiNewtonUpdate",
          "State": 1,
          "Timestamp": 3304
        },
        {
          "Name": "advance/cpl.computeQuasiNewtonUpdate",
          "State": 0,
          "Timestamp": 3304
        },
        {
          "Name": "advance/cpl.computeQuasiNewtonUpdate",
          "State": 1,
          "Timestamp": 3571
        },
        {
          "Name": "advance/cpl.computeQuasiNewtonUpdate",
          "State": 0,
          "Timestamp": 3571
        },
        {
          "Name": "advance/cpl.computeQuasiNewtonUpdate",
          "State": 1,
          "Timestamp": 3647
        },
        {
          "Name": "advance/cpl.computeQuasiNewtonUpdate",
          "State": 0,
          "Timestamp": 3647
        },
        {
          "Name": "advance/cpl.computeQuasiNewtonUpdate",
          "State": 1,
          "Timestamp": 3922
        },
        {
          "Name": "advance/cpl.computeQuasiNewtonUpdate",
          "State": 0,
          "Timestamp": 3922
        },
        {
          "Name": "advance/cpl.computeQuasiNewtonUpdate",
          "State": 1,
          "Timestamp": 3998
        },
        {
          "Name": "advance/cpl.computeQuasiNewtonUpdate",
          "State": 0,
          "Timestamp": 3998
        },
        {
          "Name": "advance/cpl.computeQuasiNewtonUpdate",
          "State": 1,
          "Timestamp": 4267
        },
        {
          "Name": "advance/cpl.computeQuasiNewtonUpdate",
          "State": 0,
          "Timestamp": 4267
        },
        {
          "Name": "advance/cpl.computeQuasiNewtonUpdate",
          "State": 1,
          "Timestamp": 4344
        },
        {
          "Name": "advance/cpl.computeQuasiNewtonUpdate",
          "State": 0,
          "Timestamp": 4344
        },
        {
          "Name": "advance/cpl.computeQuasiNewtonUpdate",
          "State": 1,
          "Timestamp": 4616
        },
        {
          "Name": "advance/cpl.computeQuasiNewtonUpdate",
          "State": 0,
          "Timestamp": 4616
        },
        {
          "Name": "advance/cpl.computeQuasiNewtonUpdate",
          "State": 1,
          "Timestamp": 4692
        },
        {
          "Name": "advance/cpl.computeQuasiNewtonUpdate",
          "State": 0,
          "Timestamp": 4692
        },
        {
          "Name": "advance/cpl.computeQuasiNewtonUpdate",
          "State": 1,
          "Timestamp": 4963
        },
        {
          "Name": "advance/cpl.computeQuasiNewtonUpdate",
          "State": 0,
          "Timestamp": 4963
        },
        {
          "Name": "advance/cpl.computeQuasiNewtonUpdate",
          "State": 1,
          "Timestamp": 5038
        },
        {
          "Name": "advance/cpl.computeQuasiNewtonUpdate",
          "State": 0,
          "Timestamp": 5038
        },
        {
          "Name": "advance/cpl.computeQuasiNewtonUpdate",
          "State": 1,
          "Timestamp": 5262
        },
        {
          "Name": "advance/cpl.computeQuasiNewtonUpdate",
          "State": 0,
          "Timestamp": 5262
        },
        {
          "Name": "advance/cpl.computeQuasiNewtonUpdate",
          "State": 1,
          "Timestamp": 5338
        },
        {
          "Name": "advance/cpl.computeQuasiNewtonUpdate",
          "State": 0,
          "Timestamp": 5339
        },
        {
          "Name": "advance/cpl.computeQuasiNewtonUpdate",
          "State": 1,
          "Timestamp": 5563
        },
        {
          "Name": "advance/cpl.computeQuasiNewtonUpdate",
          "State": 0,
          "Timestamp": 5563
        },
        {
          "Name": "advance/cpl.computeQuasiNewtonUpdate",
          "State": 1,
          "Timestamp": 5640
        },
        {
          "Name": "advance/cpl.computeQuasiNewtonUpdate",
          "State": 0,
          "Timestamp": 5640
        },
        {
          "Name": "advance/cpl.computeQuasiNewtonUpdate",
          "State": 1,
          "Timestamp": 5876
        },
        {
          "Name": "advance/cpl.computeQuasiNewtonUpdate",
          "State": 0,
          "Timestamp": 5876
        },
        {
          "Name": "advance/cpl.computeQuasiNewtonUpdate",
          "State": 1,
          "Timestamp": 5952
        },
        {
          "Name": "advance/cpl.computeQuasiNewtonUpdate",
          "State": 0,
          "Timestamp": 5952
        },
        {
          "Name": "advance/cpl.computeQuasiNewtonUpdate",
          "State": 1,
          "Timestamp": 6178
        },
        {
          "Name": "advance/cpl.computeQuasiNewtonUpdate",
          "State": 0,
          "Timestamp": 6178
        },
        {
          "Name": "advance/cpl.computeQuasiNewtonUpdate",
          "State": 1,
          "Timestamp": 6253
        },
        {
          "Name": "advance/cpl.computeQuasiNewtonUpdate",
          "State": 0,
          "Timestamp": 6253
        },
        {
          "Name": "advance/cpl.computeQuasiNewtonUpdate",
          "State": 1,
          "Timestamp": 6482
        },
        {
          "Name": "advance/cpl.computeQuasiNewtonUpdate",
          "State": 0,
          "Timestamp": 6482
        },
        {
          "Name": "advance/cpl.computeQuasiNewtonUpdate",
          "State": 1,
          "Timestamp": 6558
        },
        {
          "Name": "advance/cpl.computeQuasiNewtonUpdate",
          "State": 0,
          "Timestamp": 6558
        },
        {
          "Name": "advance/cpl.computeQuasiNewtonUpdate",
          "State": 1,
          "Timestamp": 6785
        },
        {
          "Name": "advance/cpl.computeQuasiNewtonUpdate",
          "State": 0,
          "Timestamp": 6785
        },
        {
          "Name": "advance/cpl.computeQuasiNewtonUpdate",
          "State": 1,
          "Timestamp": 6860
        },
        {
          "Name": "advance/cpl.computeQuasiNewtonUpdate",
          "State": 0,
          "Timestamp": 6860
        },
        {
          "Name": "advance/cpl.computeQuasiNewtonUpdate",
          "State": 1,
          "Timestamp": 7087
        },
        {
          "Name": "advance/cpl.computeQuasiNewtonUpdate",
          "State": 0,
          "Timestamp": 7087
        },
        {
          "Name": "advance/cpl.computeQuasiNewtonUpdate",
          "State": 1,
          "Timestamp": 7162
        },
        {
          "Name": "advance/cpl.computeQuasiNewtonUpdate",
          "State": 0,
          "Timestamp": 7162
        },
        {
          "Name": "advance/cpl.computeQuasiNewtonUpdate",
          "State": 1,
          "Timestamp": 7387
        },
        {
          "Name": "advance/cpl.computeQuasiNewtonUpdate",
          "State": 0,
          "Timestamp": 7387
        },
        {
          "Name": "advance/cpl.computeQuasiNewtonUpdate",
          "State": 1,
          "Timestamp": 7463
        },
        {
          "Name": "advance/cpl.computeQuasiNewtonUpdate",
          "State": 0,
          "Timestamp": 7463
        },
        {
          "Name": "advance/cpl.computeQuasiNewtonUpdate",
          "State": 1,
          "Timestamp": 7705
        },
        {
          "Name": "advance/cpl.computeQuasiNewtonUpdate",
          "State": 0,
          "Timestamp": 7705
        },
        {
          "Name": "advance/cpl.computeQuasiNewtonUpdate",
          "State": 1,
          "Timestamp": 7782
        },
        {
          "Name": "advance/cpl.computeQuasiNewtonUpdate",
          "State": 0,
          "Timestamp": 7782
        },
        {
          "Name": "advance/cpl.computeQuasiNewtonUpdate",
          "State": 1,
          "Timestamp": 8059
        },
        {
          "Name": "advance/cpl.computeQuasiNewtonUpdate",
          "State": 0,
          "Timestamp": 8059
        },
        {
          "Name": "advance/cpl.computeQuasiNewtonUpdate",
          "State": 1,
          "Timestamp": 8135
        },
        {
          "Name": "advance/cpl.computeQuasiNewtonUpdate",
          "State": 0,
          "Timestamp": 8135
        },
        {
          "Name": "advance/cpl.computeQuasiNewtonUpdate",
          "State": 1,
          "Timestamp": 8359
        },
        {
          "Name": "advance/cpl.computeQuasiNewtonUpdate",
          "State": 0,
          "Timestamp": 8359
        },
        {
          "Name": "advance/cpl.computeQuasiNewtonUpdate",
          "State": 1,
          "Timestamp": 8435
        },
        {
          "Name": "advance/cpl.computeQuasiNewtonUpdate",
          "State": 0,
          "Timestamp": 8435
        },
        {
          "Name": "advance/cpl.computeQuasiNewtonUpdate",
          "State": 1,
          "Timestamp": 8724
        },
        {
          "Name": "advance/cpl.computeQuasiNewtonUpdate",
          "State": 0,
          "Timestamp": 8724
        },
        {
          "Name": "advance/cpl.computeQuasiNewtonUpdate",
          "State": 1,
          "Timestamp": 8801
        },
        {
          "Name": "advance/cpl.computeQuasiNewtonUpdate",
          "State": 0,
          "Timestamp": 8801
        },
        {
          "Name": "configure",
          "State": 1,
          "Timestamp": 0
        },
        {
          "Name": "configure",
          "State": 0,
          "Timestamp": 0
        },
        {
          "Name": "finalize",
          "State": 1,
          "Timestamp": 8947
        },
        {
          "Name": "finalize",
          "State": 0,
          "Timestamp": 8989
        },
        {
          "Name": "initialize",
          "State": 1,
          "Timestamp": 4
        },
        {
          "Name": "initialize",
          "State": 0,
          "Timestamp": 21
        },
        {
          "Name": "initialize/m2n.acceptMasterConnection",
          "State": 1,
          "Timestamp": 4
        },
        {
          "Name": "initialize/m2n.acceptMasterConnection",
          "State": 0,
          "Timestamp": 20
        },
        {
          "Name": "initialize/m2n.acceptSlavesConnection",
          "State": 1,
          "Timestamp": 21
        },
        {
          "Name": "initialize/m2n.acceptSlavesConnection",
          "State": 0,
          "Timestamp": 21
        },
        {
          "Name": "initialize/partition.feedbackMesh.NeumannNodes",
          "State": 1,
          "Timestamp": 21
        },
        {
          "Name": "initialize/partition.feedbackMesh.NeumannNodes",
          "State": 0,
          "Timestamp": 21
        },
        {
          "Name": "initialize/partition.gatherMesh.NeumannNodes",
          "State": 1,
          "Timestamp": 21
        },
        {
          "Name": "initialize/partition.gatherMesh.NeumannNodes",
          "State": 0,
          "Timestamp": 21
        },
        {
          "Name": "initialize/partition.sendGlobalMesh.NeumannNodes",
          "State": 1,
          "Timestamp": 21
        },
        {
          "Name": "initialize/partition.sendGlobalMesh.NeumannNodes",
          "State": 0,
          "Timestamp": 21
        },
        {
          "Name": "initializeData",
          "State": 1,
          "Timestamp": 23
        },
        {
          "Name": "initializeData",
          "State": 0,
          "Timestamp": 140
        },
        {
          "Name": "solver.advance",
          "State": 1,
          "Timestamp": 252
        },
        {
          "Name": "solver.advance",
          "State": 0,
          "Timestamp": 294
        },
        {
          "Name": "solver.advance",
          "State": 1,
          "Timestamp": 379
        },
        {
          "Name": "solver.advance",
          "State": 0,
          "Timestamp": 421
        },
        {
          "Name": "solver.advance",
          "State": 1,
          "Timestamp": 469
        },
        {
          "Name": "solver.advance",
          "State": 0,
          "Timestamp": 527
        },
        {
          "Name": "solver.advance",
          "State": 1,
          "Timestamp": 559
        },
        {
          "Name": "solver.advance",
          "State": 0,
          "Timestamp": 602
        },
        {
          "Name": "solver.advance",
          "State": 1,
          "Timestamp": 686
        },
        {
          "Name": "solver.advance",
          "State": 0,
          "Timestamp": 729
        },
        {
          "Name": "solver.advance",
          "State": 1,
          "Timestamp": 761
        },
        {
          "Name": "solver.advance",
          "State": 0,
          "Timestamp": 804
        },
        {
          "Name": "solver.advance",
          "State": 1,
          "Timestamp": 887
        },
        {
          "Name": "solver.advance",
          "State": 0,
          "Timestamp": 930
        },
        {
          "Name": "solver.advance",
          "State": 1,
          "Timestamp": 1030
        },
        {
          "Name": "solver.advance",
          "State": 0,
          "Timestamp": 1072
        },
        {
          "Name": "solver.advance",
          "State": 1,
          "Timestamp": 1106
        },
        {
          "Name": "solver.advance",
          "State": 0,
          "Timestamp": 1148
        },
        {
          "Name": "solver.advance",
          "State": 1,
          "Timestamp": 1234
        },
        {
          "Name": "solver.advance",
          "State": 0,
          "Timestamp": 1276
        },
        {
          "Name": "solver.advance",
          "State": 1,
          "Timestamp": 1310
        },
        {
          "Name": "solver.advance",
          "State": 0,
          "Timestamp": 1353
        },
        {
          "Name": "solver.advance",
          "State": 1,
          "Timestamp": 1437
        },
        {
          "Name": "solver.advance",
          "State": 0,
          "Timestamp": 1480
        },
        {
          "Name": "solver.advance",
          "State": 1,
          "Timestamp": 1513
        },
        {
          "Name": "solver.advance",
          "State": 0,
          "Timestamp": 1555
        },
        {
          "Name": "solver.advance",
          "State": 1,
          "Timestamp": 1654
        },
        {
          "Name": "solver.advance",
          "State": 0,
          "Timestamp": 1697
        },
        {
          "Name": "solver.advance",
          "State": 1,
          "Timestamp": 1730
        },
        {
          "Name": "solver.advance",
          "State": 0,
          "Timestamp": 1773
        },
        {
          "Name": "solver.advance",
          "State": 1,
          "Timestamp": 1874
        },
        {
          "Name": "solver.advance",
          "State": 0,
          "Timestamp": 1916
        },
        {
          "Name": "solver.advance",
          "State": 1,
          "Timestamp": 1949
        },
        {
          "Name": "solver.advance",
          "State": 0,
          "Timestamp": 1992
        },
        {
          "Name": "solver.advance",
          "State": 1,
          "Timestamp": 2082
        },
        {
          "Name": "solver.advance",
          "State": 0,
          "Timestamp": 2135
        },
        {
          "Name": "solver.advance",
          "State": 1,
          "Timestamp": 2169
        },
        {
          "Name": "solver.advance",
          "State": 0,
          "Timestamp": 2211
        },
        {
          "Name": "solver.advance",
          "State": 1,
          "Timestamp": 2291
        },
        {
          "Name": "solver.advance",
          "State": 0,
          "Timestamp": 2334
        },
        {
          "Name": "solver.advance",
          "State": 1,
          "Timestamp": 2418
        },
        {
          "Name": "solver.advance",
          "State": 0,
          "Timestamp": 2460
        },
        {
          "Name": "solver.advance",
          "State": 1,
          "Timestamp": 2493
        },
        {
          "Name": "solver.advance",
          "State": 0,
          "Timestamp": 2536
        },
        {
          "Name": "solver.advance",
          "State": 1,
          "Timestamp": 2615
        },
        {
          "Name": "solver.advance",
          "State": 0,
          "Timestamp": 2659
        },
        {
          "Name": "solver.advance",
          "State": 1,
          "Timestamp": 2759
        },
        {
          "Name": "solver.advance",
          "State": 0,
          "Timestamp": 2802
        },
        {
          "Name": "solver.advance",
          "State": 1,
          "Timestamp": 2834
        },
        {
          "Name": "solver.advance",
          "State": 0,
          "Timestamp": 2878
        },
        {
          "Name": "solver.advance",
          "State": 1,
          "Timestamp": 2962
        },
        {
          "Name": "solver.advance",
          "State": 0,
          "Timestamp": 3004
        },
        {
          "Name": "solver.advance",
          "State": 1,
          "Timestamp": 3037
        },
        {
          "Name": "solver.advance",
          "State": 0,
          "Timestamp": 3080
        },
        {
          "Name": "solver.advance",
          "State": 1,
          "Timestamp": 3173
        },
        {
          "Name": "solver.advance",
          "State": 0,
          "Timestamp": 3227
        },
        {
          "Name": "solver.advance",
          "State": 1,
          "Timestamp": 3260
        },
        {
          "Name": "solver.advance",
          "State": 0,
          "Timestamp": 3304
        },
        {
          "Name": "solver.advance",
          "State": 1,
          "Timestamp": 3380
        },
        {
          "Name": "solver.advance",
          "State": 0,
          "Timestamp": 3423
        },
        {
          "Name": "solver.advance",
          "State": 1,
          "Timestamp": 3518
        },
        {
          "Name": "solver.advance",
          "State": 0,
          "Timestamp": 3571
        },
        {
          "Name": "solver.advance",
          "State": 1,
          "Timestamp": 3604
        },
        {
          "Name": "solver.advance",
          "State": 0,
          "Timestamp": 3647
        },
        {
          "Name": "solver.advance",
          "State": 1,
          "Timestamp": 3727
        },
        {
          "Name": "solver.advance",
          "State": 0,
          "Timestamp": 3770
        },
        {
          "Name": "solver.advance",
          "State": 1,
          "Timestamp": 3869
        },
        {
          "Name": "solver.advance",
          "State": 0,
          "Timestamp": 3922
        },
        {
          "Name": "solver.advance",
          "State": 1,
          "Timestamp": 3955
        },
        {
          "Name": "solver.advance",
          "State": 0,
          "Timestamp": 3998
        },
        {
          "Name": "solver.advance",
          "State": 1,
          "Timestamp": 4076
        },
        {
          "Name": "solver.advance",
          "State": 0,
          "Timestamp": 4119
        },
        {
          "Name": "solver.advance",
          "State": 1,
          "Timestamp": 4213
        },
        {
          "Name": "solver.advance",
          "State": 0,
          "Timestamp": 4267
        },
        {
          "Name": "solver.advance",
          "State": 1,
          "Timestamp": 4300
        },
        {
          "Name": "solver.advance",
          "State": 0,
          "Timestamp": 4343
        },
        {
          "Name": "solver.advance",
          "State": 1,
          "Timestamp": 4423
        },
        {
          "Name": "solver.advance",
          "State": 0,
          "Timestamp": 4466
        },
        {
          "Name": "solver.advance",
          "State": 1,
          "Timestamp": 4561
        },
        {
          "Name": "solver.advance",
          "State": 0,
          "Timestamp": 4616
        },
        {
          "Name": "solver.advance",
          "State": 1,
          "Timestamp": 4649
        },
        {
          "Name": "solver.advance",
          "State": 0,
          "Timestamp": 4692
        },
        {
          "Name": "solver.advance",
          "State": 1,
          "Timestamp": 4771
        },
        {
          "Name": "solver.advance",
          "State": 0,
          "Timestamp": 4814
        },
        {
          "Name": "solver.advance",
          "State": 1,
          "Timestamp": 4909
        },
        {
          "Name": "solver.advance",
          "State": 0,
          "Timestamp": 4963
        },
        {
          "Name": "solver.advance",
          "State": 1,
          "Timestamp": 4995
        },
        {
          "Name": "solver.advance",
          "State": 0,
          "Timestamp": 5038
        },
        {
          "Name": "solver.advance",
          "State": 1,
          "Timestamp": 5122
        },
        {
          "Name": "solver.advance",
          "State": 0,
          "Timestamp": 5164
        },
        {
          "Name": "solver.advance",
          "State": 1,
          "Timestamp": 5209
        },
        {
          "Name": "solver.advance",
          "State": 0,
          "Timestamp": 5262
        },
        {
          "Name": "solver.advance",
          "State": 1,
          "Timestamp": 5295
        },
        {
          "Name": "solver.advance",
          "State": 0,
          "Timestamp": 5338
        },
        {
          "Name": "solver.advance",
          "State": 1,
          "Timestamp": 5422
        },
        {
          "Name": "solver.advance",
          "State": 0,
          "Timestamp": 5465
        },
        {
          "Name": "solver.advance",
          "State": 1,
          "Timestamp": 5509
        },
        {
          "Name": "solver.advance",
          "State": 0,
          "Timestamp": 5563
        },
        {
          "Name": "solver.advance",
          "State": 1,
          "Timestamp": 5595
        },
        {
          "Name": "solver.advance",
          "State": 0,
          "Timestamp": 5640
        },
        {
          "Name": "solver.advance",
          "State": 1,
          "Timestamp": 5736
        },
        {
          "Name": "solver.advance",
          "State": 0,
          "Timestamp": 5779
        },
        {
          "Name": "solver.advance",
          "State": 1,
          "Timestamp": 5823
        },
        {
          "Name": "solver.advance",
          "State": 0,
          "Timestamp": 5876
        },
        {
          "Name": "solver.advance",
          "State": 1,
          "Timestamp": 5909
        },
        {
          "Name": "solver.advance",
          "State": 0,
          "Timestamp": 5952
        },
        {
          "Name": "solver.advance",
          "State": 1,
          "Timestamp": 6038
        },
        {
          "Name": "solver.advance",
          "State": 0,
          "Timestamp": 6080
        },
        {
          "Name": "solver.advance",
          "State": 1,
          "Timestamp": 6124
        },
        {
          "Name": "solver.advance",
          "State": 0,
          "Timestamp": 6178
        },
        {
          "Name": "solver.advance",
          "State": 1,
          "Timestamp": 6211
        },
        {
          "Name": "solver.advance",
          "State": 0,
          "Timestamp": 6253
        },
        {
          "Name": "solver.advance",
          "State": 1,
          "Timestamp": 6342
        },
        {
          "Name": "solver.advance",
          "State": 0,
          "Timestamp": 6385
        },
        {
          "Name": "solver.advance",
          "State": 1,
          "Timestamp": 6429
        },
        {
          "Name": "solver.advance",
          "State": 0,
          "Timestamp": 6482
        },
        {
          "Name": "solver.advance",
          "State": 1,
          "Timestamp": 6515
        },
        {
          "Name": "solver.advance",
          "State": 0,
          "Timestamp": 6558
        },
        {
          "Name": "solver.advance",
          "State": 1,
          "Timestamp": 6642
        },
        {
          "Name": "solver.advance",
          "State": 0,
          "Timestamp": 6686
        },
        {
          "Name": "solver.advance",
          "State": 1,
          "Timestamp": 6730
        },
        {
          "Name": "solver.advance",
          "State": 0,
          "Timestamp": 6785
        },
        {
          "Name": "solver.advance",
          "State": 1,
          "Timestamp": 6817
        },
        {
          "Name": "solver.advance",
          "State": 0,
          "Timestamp": 6860
        },
        {
          "Name": "solver.advance",
          "State": 1,
          "Timestamp": 6946
        },
        {
          "Name": "solver.advance",
          "State": 0,
          "Timestamp": 6989
        },
        {
          "Name": "solver.advance",
          "State": 1,
          "Timestamp": 7034
        },
        {
          "Name": "solver.advance",
          "State": 0,
          "Timestamp": 7087
        },
        {
          "Name": "solver.advance",
          "State": 1,
          "Timestamp": 7120
        },
        {
          "Name": "solver.advance",
          "State": 0,
          "Timestamp": 7162
        },
        {
          "Name": "solver.advance",
          "State": 1,
          "Timestamp": 7246
        },
        {
          "Name": "solver.advance",
          "State": 0,
          "Timestamp": 7289
        },
        {
          "Name": "solver.advance",
          "State": 1,
          "Timestamp": 7334
        },
        {
          "Name": "solver.advance",
          "State": 0,
          "Timestamp": 7387
        },
        {
          "Name": "solver.advance",
          "State": 1,
          "Timestamp": 7420
        },
        {
          "Name": "solver.advance",
          "State": 0,
          "Timestamp": 7463
        },
        {
          "Name": "solver.advance",
          "State": 1,
          "Timestamp": 7562
        },
        {
          "Name": "solver.advance",
          "State": 0,
          "Timestamp": 7606
        },
        {
          "Name": "solver.advance",
          "State": 1,
          "Timestamp": 7650
        },
        {
          "Name": "solver.advance",
          "State": 0,
          "Timestamp": 7705
        },
        {
          "Name": "solver.advance",
          "State": 1,
          "Timestamp": 7738
        },
        {
          "Name": "solver.advance",
          "State": 0,
          "Timestamp": 7782
        },
        {
          "Name": "solver.advance",
          "State": 1,
          "Timestamp": 7863
        },
        {
          "Name": "solver.advance",
          "State": 0,
          "Timestamp": 7905
        },
        {
          "Name": "solver.advance",
          "State": 1,
          "Timestamp": 8005
        },
        {
          "Name": "solver.advance",
          "State": 0,
          "Timestamp": 8059
        },
        {
          "Name": "solver.advance",
          "State": 1,
          "Timestamp": 8092
        },
        {
          "Name": "solver.advance",
          "State": 0,
          "Timestamp": 8135
        },
        {
          "Name": "solver.advance",
          "State": 1,
          "Timestamp": 8218
        },
        {
          "Name": "solver.advance",
          "State": 0,
          "Timestamp": 8260
        },
        {
          "Name": "solver.advance",
          "State": 1,
          "Timestamp": 8305
        },
        {
          "Name": "solver.advance",
          "State": 0,
          "Timestamp": 8359
        },
        {
          "Name": "solver.advance",
          "State": 1,
          "Timestamp": 8392
        },
        {
          "Name": "solver.advance",
          "State": 0,
          "Timestamp": 8435
        },
        {
          "Name": "solver.advance",
          "State": 1,
          "Timestamp": 8516
        },
        {
          "Name": "solver.advance",
          "State": 0,
          "Timestamp": 8559
        },
        {
          "Name": "solver.advance",
          "State": 1,
          "Timestamp": 8670
        },
        {
          "Name": "solver.advance",
          "State": 0,
          "Timestamp": 8724
        },
        {
          "Name": "solver.advance",
          "State": 1,
          "Timestamp": 8757
        },
        {
          "Name": "solver.advance",
          "State": 0,
          "Timestamp": 8801
        },
        {
          "Name": "solver.advance",
          "State": 1,
          "Timestamp": 8878
        },
        {
          "Name": "solver.advance",
          "State": 0,
          "Timestamp": 8922
        },
        {
          "Name": "solver.advance",
          "State": 1,
          "Timestamp": 8922
        },
        {
          "Name": "solver.advance",
          "State": 0,
          "Timestamp": 8947
        },
        {
          "Name": "solver.initialize",
          "State": 1,
          "Timestamp": 0
        },
        {
          "Name": "solver.initialize",
          "State": 2,
          "Timestamp": 4
        },
        {
          "Name": "solver.initialize",
          "State": 1,
          "Timestamp": 21
        },
        {
          "Name": "solver.initialize",
          "State": 2,
          "Timestamp": 23
        },
        {
          "Name": "solver.initialize",
          "State": 1,
          "Timestamp": 140
        },
        {
          "Name": "solver.initialize",
          "State": 0,
          "Timestamp": 219
        }
      ],
      "Timings": {
        "_GLOBAL": {
          "Count": 1,
          "Data": {},
          "Max": 8989,
          "Min": 8989,
          "TimeRatio": 1.0,
          "Total": 8989
        },
        "advance": {
          "Count": 82,
          "Data": {},
          "Max": 111,
          "Min": 0,
          "TimeRatio": 0.55701412837913,
          "Total": 5007
        },
        "advance/cpl.computeQuasiNewtonUpdate": {
          "Count": 62,
          "Data": {},
          "Max": 0,
          "Min": 0,
          "TimeRatio": 0.0,
          "Total": 0
        },
        "configure": {
          "Count": 1,
          "Data": {},
          "Max": 0,
          "Min": 0,
          "TimeRatio": 0.0,
          "Total": 0
        },
        "finalize": {
          "Count": 1,
          "Data": {},
          "Max": 42,
          "Min": 42,
          "TimeRatio": 0.00467237735009456,
          "Total": 42
        },
        "initialize": {
          "Count": 1,
          "Data": {},
          "Max": 17,
          "Min": 17,
          "TimeRatio": 0.0018912003559906551,
          "Total": 17
        },
        "initialize/m2n.acceptMasterConnection": {
          "Count": 1,
          "Data": {},
          "Max": 16,
          "Min": 16,
          "TimeRatio": 0.001779953276226499,
          "Total": 16
        },
        "initialize/m2n.acceptSlavesConnection": {
          "Count": 1,
          "Data": {},
          "Max": 0,
          "Min": 0,
          "TimeRatio": 0.0,
          "Total": 0
        },
        "initialize/partition.feedbackMesh.NeumannNodes": {
          "Count": 1,
          "Data": {},
          "Max": 0,
          "Min": 0,
          "TimeRatio": 0.0,
          "Total": 0
        },
        "initialize/partition.gatherMesh.NeumannNodes": {
          "Count": 1,
          "Data": {},
          "Max": 0,
          "Min": 0,
          "TimeRatio": 0.0,
          "Total": 0
        },
        "initialize/partition.sendGlobalMesh.NeumannNodes": {
          "Count": 1,
          "Data": {},
          "Max": 0,
          "Min": 0,
          "TimeRatio": 0.0,
          "Total": 0
        },
        "initializeData": {
          "Count": 1,
          "Data": {},
          "Max": 116,
          "Min": 116,
          "TimeRatio": 0.012904661252642119,
          "Total": 116
        },
        "solver.advance": {
          "Count": 82,
          "Data": {},
          "Max": 57,
          "Min": 24,
          "TimeRatio": 0.41372788964289686,
          "Total": 3719
        },
        "solver.initialize": {
          "Count": 1,
          "Data": {},
          "Max": 85,
          "Min": 85,
          "TimeRatio": 0.009456001779953276,
          "Total": 85
        }
      }
    }
  ]
}
