{
  "Finalized": "2019-11-13T20:10:51.237",
  "Initialized": "2019-11-13T20:02:17.011",
  "Name": "",
  "Ranks": [
    {
      "Finalized": "2019-11-13T20:10:51.237",
      "Initialized": "2019-11-13T20:02:17.011",
      "StateChanges": [
        {
          "Name": "_GLOBAL",
          "State": 1,
          "Timestamp": 0
        },
        {
          "Name": "_GLOBAL",
          "State": 0,
          "Timestamp": 514225
        },
        {
          "Name": "advance",
          "State": 1,
          "Timestamp": 12823
        },
        {
          "Name": "advance",
          "State": 0,
          "Timestamp": 16881
        },
        {
          "Name": "advance",
          "State": 1,
          "Timestamp": 25524
        },
        {
          "Name": "advance",
          "State": 0,
          "Timestamp": 29582
        },
        {
          "Name": "advance",
          "State": 1,
          "Timestamp": 38296
        },
        {
          "Name": "advance",
          "State": 0,
          "Timestamp": 42365
        },
        {
          "Name": "advance",
          "State": 1,
          "Timestamp": 51125
        },
        {
          "Name": "advance",
          "State": 0,
          "Timestamp": 55187
        },
        {
          "Name": "advance",
          "State": 1,
          "Timestamp": 63948
        },
        {
          "Name": "advance",
          "State": 0,
          "Timestamp": 68020
        },
        {
          "Name": "advance",
          "State": 1,
          "Timestamp": 76827
        },
        {
          "Name": "advance",
          "State": 0,
          "Timestamp": 80895
        },
        {
          "Name": "advance",
          "State": 1,
          "Timestamp": 89642
        },
        {
          "Name": "advance",
          "State": 0,
          "Timestamp": 93719
        },
        {
          "Name": "advance",
          "State": 1,
          "Timestamp": 102459
        },
        {
          "Name": "advance",
          "State": 0,
          "Timestamp": 106532
        },
        {
          "Name": "advance",
          "State": 1,
          "Timestamp": 115268
        },
        {
          "Name": "advance",
          "State": 0,
          "Timestamp": 119331
        },
        {
          "Name": "advance",
          "State": 1,
          "Timestamp": 128111
        },
        {
          "Name": "advance",
          "State": 0,
          "Timestamp": 132194
        },
        {
          "Name": "advance",
          "State": 1,
          "Timestamp": 140931
        },
        {
          "Name": "advance",
          "State": 0,
          "Timestamp": 145037
        },
        {
          "Name": "advance",
          "State": 1,
          "Timestamp": 153812
        },
        {
          "Name": "advance",
          "State": 0,
          "Timestamp": 157898
        },
        {
          "Name": "advance",
          "State": 1,
          "Timestamp": 166705
        },
        {
          "Name": "advance",
          "State": 0,
          "Timestamp": 170796
        },
        {
          "Name": "advance",
          "State": 1,
          "Timestamp": 179597
        },
        {
          "Name": "advance",
          "State": 0,
          "Timestamp": 183687
        },
        {
          "Name": "advance",
          "State": 1,
          "Timestamp": 192455
        },
        {
          "Name": "advance",
          "State": 0,
          "Timestamp": 196539
        },
        {
          "Name": "advance",
          "State": 1,
          "Timestamp": 205302
        },
        {
          "Name": "advance",
          "State": 0,
          "Timestamp": 209385
        },
        {
          "Name": "advance",
          "State": 1,
          "Timestamp": 218212
        },
        {
          "Name": "advance",
          "State": 0,
          "Timestamp": 222289
        },
        {
          "Name": "advance",
          "State": 1,
          "Timestamp": 231131
        },
        {
          "Name": "advance",
          "State": 0,
          "Timestamp": 235202
        },
        {
          "Name": "advance",
          "State": 1,
          "Timestamp": 243966
        },
        {
          "Name": "advance",
          "State": 0,
          "Timestamp": 248045
        },
        {
          "Name": "advance",
          "State": 1,
          "Timestamp": 256822
        },
        {
          "Name": "advance",
          "State": 0,
          "Timestamp": 260908
        },
        {
          "Name": "advance",
          "State": 1,
          "Timestamp": 269697
        },
        {
          "Name": "advance",
          "State": 0,
          "Timestamp": 273766
        },
        {
          "Name": "advance",
          "State": 1,
          "Timestamp": 282536
        },
        {
          "Name": "advance",
          "State": 0,
          "Timestamp": 286644
        },
        {
          "Name": "advance",
          "State": 1,
          "Timestamp": 295380
        },
        {
          "Name": "advance",
          "State": 0,
          "Timestamp": 299478
        },
        {
          "Name": "advance",
          "State": 1,
          "Timestamp": 308264
        },
        {
          "Name": "advance",
          "State": 0,
          "Timestamp": 312331
        },
        {
          "Name": "advance",
          "State": 1,
          "Timestamp": 321111
        },
        {
          "Name": "advance",
          "State": 0,
          "Timestamp": 325193
        },
        {
          "Name": "advance",
          "State": 1,
          "Timestamp": 333981
        },
        {
          "Name": "advance",
          "State": 0,
          "Timestamp": 338090
        },
        {
          "Name": "advance",
          "State": 1,
          "Timestamp": 346889
        },
        {
          "Name": "advance",
          "State": 0,
          "Timestamp": 350986
        },
        {
          "Name": "advance",
          "State": 1,
          "Timestamp": 359729
        },
        {
          "Name": "advance",
          "State": 0,
          "Timestamp": 363830
        },
        {
          "Name": "advance",
          "State": 1,
          "Timestamp": 372608
        },
        {
          "Name": "advance",
          "State": 0,
          "Timestamp": 376696
        },
        {
          "Name": "advance",
          "State": 1,
          "Timestamp": 385443
        },
        {
          "Name": "advance",
          "State": 0,
          "Timestamp": 389565
        },
        {
          "Name": "advance",
          "State": 1,
          "Timestamp": 398316
        },
        {
          "Name": "advance",
          "State": 0,
          "Timestamp": 402398
        },
        {
          "Name": "advance",
          "State": 1,
          "Timestamp": 411203
        },
        {
          "Name": "advance",
          "State": 0,
          "Timestamp": 415288
        },
        {
          "Name": "advance",
          "State": 1,
          "Timestamp": 424072
        },
        {
          "Name": "advance",
          "State": 0,
          "Timestamp": 428145
        },
        {
          "Name": "advance",
          "State": 1,
          "Timestamp": 436970
        },
        {
          "Name": "advance",
          "State": 0,
          "Timestamp": 441080
        },
        {
          "Name": "advance",
          "State": 1,
          "Timestamp": 449849
        },
        {
          "Name": "advance",
          "State": 0,
          "Timestamp": 453937
        },
        {
          "Name": "advance",
          "State": 1,
          "Timestamp": 462690
        },
        {
          "Name": "advance",
          "State": 0,
          "Timestamp": 466784
        },
        {
          "Name": "advance",
          "State": 1,
          "Timestamp": 475544
        },
        {
          "Name": "advance",
          "State": 0,
          "Timestamp": 479633
        },
        {
          "Name": "advance",
          "State": 1,
          "Timestamp": 488391
        },
        {
          "Name": "advance",
          "State": 0,
          "Timestamp": 492531
        },
        {
          "Name": "advance",
          "State": 1,
          "Timestamp": 501308
        },
        {
          "Name": "advance",
          "State": 0,
          "Timestamp": 505396
        },
        {
          "Name": "advance",
          "State": 1,
          "Timestamp": 514190
        },
        {
          "Name": "advance",
          "State": 0,
          "Timestamp": 514191
        },
        {
          "Name": "advance/cpl.computeQuasiNewtonUpdate",
          "State": 1,
          "Timestamp": 12823
        },
        {
          "Name": "advance/cpl.computeQuasiNewtonUpdate",
          "State": 0,
          "Timestamp": 12823
        },
        {
          "Name": "advance/cpl.computeQuasiNewtonUpdate",
          "State": 1,
          "Timestamp": 25524
        },
        {
          "Name": "advance/cpl.computeQuasiNewtonUpdate",
          "State": 0,
          "Timestamp": 25524
        },
        {
          "Name": "advance/cpl.computeQuasiNewtonUpdate",
          "State": 1,
          "Timestamp": 38296
        },
        {
          "Name": "advance/cpl.computeQuasiNewtonUpdate",
          "State": 0,
          "Timestamp": 38296
        },
        {
          "Name": "advance/cpl.computeQuasiNewtonUpdate",
          "State": 1,
          "Timestamp": 51125
        },
        {
          "Name": "advance/cpl.computeQuasiNewtonUpdate",
          "State": 0,
          "Timestamp": 51125
        },
        {
          "Name": "advance/cpl.computeQuasiNewtonUpdate",
          "State": 1,
          "Timestamp": 63948
        },
        {
          "Name": "advance/cpl.computeQuasiNewtonUpdate",
          "State": 0,
          "Timestamp": 63948
        },
        {
          "Name": "advance/cpl.computeQuasiNewtonUpdate",
          "State": 1,
          "Timestamp": 76828
        },
        {
          "Name": "advance/cpl.computeQuasiNewtonUpdate",
          "State": 0,
          "Timestamp": 76828
        },
        {
          "Name": "advance/cpl.computeQuasiNewtonUpdate",
          "State": 1,
          "Timestamp": 89642
        },
        {
          "Name": "advance/cpl.computeQuasiNewtonUpdate",
          "State": 0,
          "Timestamp": 89642
        },
        {
          "Name": "advance/cpl.computeQuasiNewtonUpdate",
          "State": 1,
          "Timestamp": 102459
        },
        {
          "Name": "advance/cpl.computeQuasiNewtonUpdate",
          "State": 0,
          "Timestamp": 102459
        },
        {
          "Name": "advance/cpl.computeQuasiNewtonUpdate",
          "State": 1,
          "Timestamp": 115268
        },
        {
          "Name": "advance/cpl.computeQuasiNewtonUpdate",
          "State": 0,
          "Timestamp": 115268
        },
        {
          "Name": "advance/cpl.computeQuasiNewtonUpdate",
          "State": 1,
          "Timestamp": 128112
        },
        {
          "Name": "advance/cpl.computeQuasiNewtonUpdate",
          "State": 0,
          "Timestamp": 128112
        },
        {
          "Name": "advance/cpl.computeQuasiNewtonUpdate",
          "State": 1,
          "Timestamp": 140931
        },
        {
          "Name": "advance/cpl.computeQuasiNewtonUpdate",
          "State": 0,
          "Timestamp": 140931
        },
        {
          "Name": "advance/cpl.computeQuasiNewtonUpdate",
          "State": 1,
          "Timestamp": 153812
        },
        {
          "Name": "advance/cpl.computeQuasiNewtonUpdate",
          "State": 0,
          "Timestamp": 153812
        },
        {
          "Name": "advance/cpl.computeQuasiNewtonUpdate",
          "State": 1,
          "Timestamp": 166705
        },
        {
          "Name": "advance/cpl.computeQuasiNewtonUpdate",
          "State": 0,
          "Timestamp": 166705
        },
        {
          "Name": "advance/cpl.computeQuasiNewtonUpdate",
          "State": 1,
          "Timestamp": 179597
        },
        {
          "Name": "advance/cpl.computeQuasiNewtonUpdate",
          "State": 0,
          "Timestamp": 179597
        },
        {
          "Name": "advance/cpl.computeQuasiNewtonUpdate",
          "State": 1,
          "Timestamp": 192455
        },
        {
          "Name": "advance/cpl.computeQuasiNewtonUpdate",
          "State": 0,
          "Timestamp": 192455
        },
        {
          "Name": "advance/cpl.computeQuasiNewtonUpdate",
          "State": 1,
          "Timestamp": 205302
        },
        {
          "Name": "advance/cpl.computeQuasiNewtonUpdate",
          "State": 0,
          "Timestamp": 205302
        },
        {
          "Name": "advance/cpl.computeQuasiNewtonUpdate",
          "State": 1,
          "Timestamp": 218212
        },
        {
          "Name": "advance/cpl.computeQuasiNewtonUpdate",
          "State": 0,
          "Timestamp": 218212
        },
        {
          "Name": "advance/cpl.computeQuasiNewtonUpdate",
          "State": 1,
          "Timestamp": 231131
        },
        {
          "Name": "advance/cpl.computeQuasiNewtonUpdate",
          "State": 0,
          "Timestamp": 231131
        },
        {
          "Name": "advance/cpl.computeQuasiNewtonUpdate",
          "State": 1,
          "Timestamp": 243966
        },
        {
          "Name": "advance/cpl.computeQuasiNewtonUpdate",
          "State": 0,
          "Timestamp": 243967
        },
        {
          "Name": "advance/cpl.computeQuasiNewtonUpdate",
          "State": 1,
          "Timestamp": 269697
        },
        {
          "Name": "advance/cpl.computeQuasiNewtonUpdate",
          "State": 0,
          "Timestamp": 269697
        },
        {
          "Name": "advance/cpl.computeQuasiNewtonUpdate",
          "State": 1,
          "Timestamp": 282536
        },
        {
          "Name": "advance/cpl.computeQuasiNewtonUpdate",
          "State": 0,
          "Timestamp": 282536
        },
        {
          "Name": "advance/cpl.computeQuasiNewtonUpdate",
          "State": 1,
          "Timestamp": 295380
        },
        {
          "Name": "advance/cpl.computeQuasiNewtonUpdate",
          "State": 0,
          "Timestamp": 295380
        },
        {
          "Name": "advance/cpl.computeQuasiNewtonUpdate",
          "State": 1,
          "Timestamp": 308264
        },
        {
          "Name": "advance/cpl.computeQuasiNewtonUpdate",
          "State": 0,
          "Timestamp": 308264
        },
        {
          "Name": "advance/cpl.computeQuasiNewtonUpdate",
          "State": 1,
          "Timestamp": 321111
        },
        {
          "Name": "advance/cpl.computeQuasiNewtonUpdate",
          "State": 0,
          "Timestamp": 321111
        },
        {
          "Name": "advance/cpl.computeQuasiNewtonUpdate",
          "State": 1,
          "Timestamp": 333981
        },
        {
          "Name": "advance/cpl.computeQuasiNewtonUpdate",
          "State": 0,
          "Timestamp": 333981
        },
        {
          "Name": "advance/cpl.computeQuasiNewtonUpdate",
          "State": 1,
          "Timestamp": 346890
        },
        {
          "Name": "advance/cpl.computeQuasiNewtonUpdate",
          "State": 0,
          "Timestamp": 346890
        },
        {
          "Name": "advance/cpl.computeQuasiNewtonUpdate",
          "State": 1,
          "Timestamp": 359729
        },
        {
          "Name": "advance/cpl.computeQuasiNewtonUpdate",
          "State": 0,
          "Timestamp": 359729
        },
        {
          "Name": "advance/cpl.computeQuasiNewtonUpdate",
          "State": 1,
          "Timestamp": 372608
        },
        {
          "Name": "advance/cpl.computeQuasiNewtonUpdate",
          "State": 0,
          "Timestamp": 372608
        },
        {
          "Name": "advance/cpl.computeQuasiNewtonUpdate",
          "State": 1,
          "Timestamp": 385443
        },
        {
          "Name": "advance/cpl.computeQuasiNewtonUpdate",
          "State": 0,
          "Timestamp": 385443
        },
        {
          "Name": "advance/cpl.computeQuasiNewtonUpdate",
          "State": 1,
          "Timestamp": 398316
        },
        {
          "Name": "advance/cpl.computeQuasiNewtonUpdate",
          "State": 0,
          "Timestamp": 398316
        },
        {
          "Name": "advance/cpl.computeQuasiNewtonUpdate",
          "State": 1,
          "Timestamp": 411203
        },
        {
          "Name": "advance/cpl.computeQuasiNewtonUpdate",
          "State": 0,
          "Timestamp": 411203
        },
        {
          "Name": "advance/cpl.computeQuasiNewtonUpdate",
          "State": 1,
          "Timestamp": 424072
        },
        {
          "Name": "advance/cpl.computeQuasiNewtonUpdate",
          "State": 0,
          "Timestamp": 424072
        },
        {
          "Name": "advance/cpl.computeQuasiNewtonUpdate",
          "State": 1,
          "Timestamp": 436970
        },
        {
          "Name": "advance/cpl.computeQuasiNewtonUpdate",
          "State": 0,
          "Timestamp": 436970
        },
        {
          "Name": "advance/cpl.computeQuasiNewtonUpdate",
          "State": 1,
          "Timestamp": 449849
        },
        {
          "Name": "advance/cpl.computeQuasiNewtonUpdate",
          "State": 0,
          "Timestamp": 449850
        },
        {
          "Name": "advance/cpl.computeQuasiNewtonUpdate",
          "State": 1,
          "Timestamp": 462690
        },
        {
          "Name": "advance/cpl.computeQuasiNewtonUpdate",
          "State": 0,
          "Timestamp": 462690
        },
        {
          "Name": "advance/cpl.computeQuasiNewtonUpdate",
          "State": 1,
          "Timestamp": 475544
        },
        {
          "Name": "advance/cpl.computeQuasiNewtonUpdate",
          "State": 0,
          "Timestamp": 475544
        },
        {
          "Name": "advance/cpl.computeQuasiNewtonUpdate",
          "State": 1,
          "Timestamp": 488391
        },
        {
          "Name": "advance/cpl.computeQuasiNewtonUpdate",
          "State": 0,
          "Timestamp": 488391
        },
        {
          "Name": "advance/cpl.computeQuasiNewtonUpdate",
          "State": 1,
          "Timestamp": 501308
        },
        {
          "Name": "advance/cpl.computeQuasiNewtonUpdate",
          "State": 0,
          "Timestamp": 501308
        },
        {
          "Name": "configure",
          "State": 1,
          "Timestamp": 0
        },
        {
          "Name": "configure",
          "State": 0,
          "Timestamp": 0
        },
        {
          "Name": "finalize",
          "State": 1,
          "Timestamp": 514221
        },
        {
          "Name": "finalize",
          "State": 0,
          "Timestamp": 514225
        },
        {
          "Name": "initialize",
          "State": 1,
          "Timestamp": 4
        },
        {
          "Name": "initialize",
          "State": 0,
          "Timestamp": 6
        },
        {
          "Name": "initialize/m2n.acceptMasterConnection",
          "State": 1,
          "Timestamp": 4
        },
        {
          "Name": "initialize/m2n.acceptMasterConnection",
          "State": 0,
          "Timestamp": 6
        },
        {
          "Name": "initialize/m2n.acceptSlavesConnection",
          "State": 1,
          "Timestamp": 6
        },
        {
          "Name": "initialize/m2n.acceptSlavesConnection",
          "State": 0,
          "Timestamp": 6
        },
        {
          "Name": "initialize/partition.feedbackMesh.NeumannNodes",
          "State": 1,
          "Timestamp": 6
        },
        {
          "Name": "initialize/partition.feedbackMesh.NeumannNodes",
          "State": 0,
          "Timestamp": 6
        },
        {
          "Name": "initialize/partition.gatherMesh.NeumannNodes",
          "State": 1,
          "Timestamp": 6
        },
        {
          "Name": "initialize/partition.gatherMesh.NeumannNodes",
          "State": 0,
          "Timestamp": 6
        },
        {
          "Name": "initialize/partition.sendGlobalMesh.NeumannNodes",
          "State": 1,
          "Timestamp": 6
        },
        {
          "Name": "initialize/partition.sendGlobalMesh.NeumannNodes",
          "State": 0,
          "Timestamp": 6
        },
        {
          "Name": "initializeData",
          "State": 1,
          "Timestamp": 17
        },
        {
          "Name": "initializeData",
          "State": 0,
          "Timestamp": 4169
        },
        {
          "Name": "solver.advance",
          "State": 1,
          "Timestamp": 16881
        },
        {
          "Name": "solver.advance",
          "State": 0,
          "Timestamp": 25524
        },
        {
          "Name": "solver.advance",
          "State": 1,
          "Timestamp": 29582
        },
        {
          "Name": "solver.advance",
          "State": 0,
          "Timestamp": 38296
        },
        {
          "Name": "solver.advance",
          "State": 1,
          "Timestamp": 42365
        },
        {
          "Name": "solver.advance",
          "State": 0,
          "Timestamp": 51125
        },
        {
          "Name": "solver.advance",
          "State": 1,
          "Timestamp": 55187
        },
        {
          "Name": "solver.advance",
          "State": 0,
          "Timestamp": 63948
        },
        {
          "Name": "solver.advance",
          "State": 1,
          "Timestamp": 68020
        },
        {
          "Name": "solver.advance",
          "State": 0,
          "Timestamp": 76827
        },
        {
          "Name": "solver.advance",
          "State": 1,
          "Timestamp": 80895
        },
        {
          "Name": "solver.advance",
          "State": 0,
          "Timestamp": 89642
        },
        {
          "Name": "solver.advance",
          "State": 1,
          "Timestamp": 93719
        },
        {
          "Name": "solver.advance",
          "State": 0,
          "Timestamp": 102459
        },
        {
          "Name": "solver.advance",
          "State": 1,
          "Timestamp": 106532
        },
        {
          "Name": "solver.advance",
          "State": 0,
          "Timestamp": 115268
        },
        {
          "Name": "solver.advance",
          "State": 1,
          "Timestamp": 119331
        },
        {
          "Name": "solver.advance",
          "State": 0,
          "Timestamp": 128111
        },
        {
          "Name": "solver.advance",
          "State": 1,
          "Timestamp": 132194
        },
        {
          "Name": "solver.advance",
          "State": 0,
          "Timestamp": 140931
        },
        {
          "Name": "solver.advance",
          "State": 1,
          "Timestamp": 145037
        },
        {
          "Name": "solver.advance",
          "State": 0,
          "Timestamp": 153812
        },
        {
          "Name": "solver.advance",
          "State": 1,
          "Timestamp": 157898
        },
        {
          "Name": "solver.advance",
          "State": 0,
          "Timestamp": 166705
        },
        {
          "Name": "solver.advance",
          "State": 1,
          "Timestamp": 170796
        },
        {
          "Name": "solver.advance",
          "State": 0,
          "Timestamp": 179597
        },
        {
          "Name": "solver.advance",
          "State": 1,
          "Timestamp": 183687
        },
        {
          "Name": "solver.advance",
          "State": 0,
          "Timestamp": 192455
        },
        {
          "Name": "solver.advance",
          "State": 1,
          "Timestamp": 196539
        },
        {
          "Name": "solver.advance",
          "State": 0,
          "Timestamp": 205302
        },
        {
          "Name": "solver.advance",
          "State": 1,
          "Timestamp": 209385
        },
        {
          "Name": "solver.advance",
          "State": 0,
          "Timestamp": 218212
        },
        {
          "Name": "solver.advance",
          "State": 1,
          "Timestamp": 222289
        },
        {
          "Name": "solver.advance",
          "State": 0,
          "Timestamp": 231131
        },
        {
          "Name": "solver.advance",
          "State": 1,
          "Timestamp": 235202
        },
        {
          "Name": "solver.advance",
          "State": 0,
          "Timestamp": 243966
        },
        {
          "Name": "solver.advance",
          "State": 1,
          "Timestamp": 248045
        },
        {
          "Name": "solver.advance",
          "State": 0,
          "Timestamp": 256822
        },
        {
          "Name": "solver.advance",
          "State": 1,
          "Timestamp": 260908
        },
        {
          "Name": "solver.advance",
          "State": 0,
          "Timestamp": 269697
        },
        {
          "Name": "solver.advance",
          "State": 1,
          "Timestamp": 273766
        },
        {
          "Name": "solver.advance",
          "State": 0,
          "Timestamp": 282536
        },
        {
          "Name": "solver.advance",
          "State": 1,
          "Timestamp": 286644
        },
        {
          "Name": "solver.advance",
          "State": 0,
          "Timestamp": 295380
        },
        {
          "Name": "solver.advance",
          "State": 1,
          "Timestamp": 299478
        },
        {
          "Name": "solver.advance",
          "State": 0,
          "Timestamp": 308264
        },
        {
          "Name": "solver.advance",
          "State": 1,
          "Timestamp": 312331
        },
        {
          "Name": "solver.advance",
          "State": 0,
          "Timestamp": 321111
        },
        {
          "Name": "solver.advance",
          "State": 1,
          "Timestamp": 325193
        },
        {
          "Name": "solver.advance",
          "State": 0,
          "Timestamp": 333981
        },
        {
          "Name": "solver.advance",
          "State": 1,
          "Timestamp": 338090
        },
        {
          "Name": "solver.advance",
          "State": 0,
          "Timestamp": 346889
        },
        {
          "Name": "solver.advance",
          "State": 1,
          "Timestamp": 350986
        },
        {
          "Name": "solver.advance",
          "State": 0,
          "Timestamp": 359729
        },
        {
          "Name": "solver.advance",
          "State": 1,
          "Timestamp": 363830
        },
        {
          "Name": "solver.advance",
          "State": 0,
          "Timestamp": 372608
        },
        {
          "Name": "solver.advance",
          "State": 1,
          "Timestamp": 376696
        },
        {
          "Name": "solver.advance",
          "State": 0,
          "Timestamp": 385443
        },
        {
          "Name": "solver.advance",
          "State": 1,
          "Timestamp": 389565
        },
        {
          "Name": "solver.advance",
          "State": 0,
          "Timestamp": 398316
        },
        {
          "Name": "solver.advance",
          "State": 1,
          "Timestamp": 402398
        },
        {
          "Name": "solver.advance",
          "State": 0,
          "Timestamp": 411203
        },
        {
          "Name": "solver.advance",
          "State": 1,
          "Timestamp": 415288
        },
        {
          "Name": "solver.advance",
          "State": 0,
          "Timestamp": 424072
        },
        {
          "Name": "solver.advance",
          "State": 1,
          "Timestamp": 428145
        },
        {
          "Name": "solver.advance",
          "State": 0,
          "Timestamp": 436970
        },
        {
          "Name": "solver.advance",
          "State": 1,
          "Timestamp": 441080
        },
        {
          "Name": "solver.advance",
          "State": 0,
          "Timestamp": 449849
        },
        {
          "Name": "solver.advance",
          "State": 1,
          "Timestamp": 453937
        },
        {
          "Name": "solver.advance",
          "State": 0,
          "Timestamp": 462690
        },
        {
          "Name": "solver.advance",
          "State": 1,
          "Timestamp": 466784
        },
        {
          "Name": "solver.advance",
          "State": 0,
          "Timestamp": 475544
        },
        {
          "Name": "solver.advance",
          "State": 1,
          "Timestamp": 479633
        },
        {
          "Name": "solver.advance",
          "State": 0,
          "Timestamp": 488391
        },
        {
          "Name": "solver.advance",
          "State": 1,
          "Timestamp": 492531
        },
        {
          "Name": "solver.advance",
          "State": 0,
          "Timestamp": 501308
        },
        {
          "Name": "solver.advance",
          "State": 1,
          "Timestamp": 505396
        },
        {
          "Name": "solver.advance",
          "State": 0,
          "Timestamp": 514190
        },
        {
          "Name": "solver.advance",
          "State": 1,
          "Timestamp": 514191
        },
        {
          "Name": "solver.advance",
          "State": 0,
          "Timestamp": 514221
        },
        {
          "Name": "solver.initialize",
          "State": 1,
          "Timestamp": 0
        },
        {
          "Name": "solver.initialize",
          "State": 2,
          "Timestamp": 4
        },
        {
          "Name": "solver.initialize",
          "State": 1,
          "Timestamp": 6
        },
        {
          "Name": "solver.initialize",
          "State": 2,
          "Timestamp": 17
        },
        {
          "Name": "solver.initialize",
          "State": 1,
          "Timestamp": 4169
        },
        {
          "Name": "solver.initialize",
          "State": 0,
          "Timestamp": 12823
        }
      ],
      "Timings": {
        "_GLOBAL": {
          "Count": 1,
          "Data": {},
          "Max": 514225,
          "Min": 514225,
          "TimeRatio": 1.0,
          "Total": 514225
        },
        "advance": {
          "Count": 40,
          "Data": {},
          "Max": 4140,
          "Min": 0,
          "TimeRatio": 0.30984491224658467,
          "Total": 159330
        },
        "advance/cpl.computeQuasiNewtonUpdate": {
          "Count": 38,
          "Data": {},
          "Max": 0,
          "Min": 0,
          "TimeRatio": 1.9446740240167242e-06,
          "Total": 1
        },
        "configure": {
          "Count": 1,
          "Data": {},
          "Max": 0,
          "Min": 0,
          "TimeRatio": 0.0,
          "Total": 0
        },
        "finalize": {
          "Count": 1,
          "Data": {},
          "Max": 4,
          "Min": 4,
          "TimeRatio": 7.778696096066897e-06,
          "Total": 4
        },
        "initialize": {
          "Count": 1,
          "Data": {},
          "Max": 2,
          "Min": 2,
          "TimeRatio": 3.8893480480334485e-06,
          "Total": 2
        },
        "initialize/m2n.acceptMasterConnection": {
          "Count": 1,
          "Data": {},
          "Max": 2,
          "Min": 2,
          "TimeRatio": 3.8893480480334485e-06,
          "Total": 2
        },
        "initialize/m2n.acceptSlavesConnection": {
          "Count": 1,
          "Data": {},
          "Max": 0,
          "Min": 0,
          "TimeRatio": 0.0,
          "Total": 0
        },
        "initialize/partition.feedbackMesh.NeumannNodes": {
          "Count": 1,
          "Data": {},
          "Max": 0,
          "Min": 0,
          "TimeRatio": 0.0,
          "Total": 0
        },
        "initialize/partition.gatherMesh.NeumannNodes": {
          "Count": 1,
          "Data": {},
          "Max": 0,
          "Min": 0,
          "TimeRatio": 0.0,
          "Total": 0
        },
        "initialize/partition.sendGlobalMesh.NeumannNodes": {
          "Count": 1,
          "Data": {},
          "Max": 0,
          "Min": 0,
          "TimeRatio": 0.0,
          "Total": 0
        },
        "initializeData": {
          "Count": 1,
          "Data": {},
          "Max": 4152,
          "Min": 4152,
          "TimeRatio": 0.008074286547717439,
          "Total": 4152
        },
        "solver.advance": {
          "Count": 40,
          "Data": {},
          "Max": 8841,
          "Min": 30,
          "TimeRatio": 0.6652088093733288,
          "Total": 342067
        },
        "solver.initialize": {
          "Count": 1,
          "Data": {},
          "Max": 8668,
          "Min": 8668,
          "TimeRatio": 0.016856434440176964,
          "Total": 8668
        }
      }
    }
  ]
}
