{
  "Finalized": "2019-11-13T15:36:51.830",
  "Initialized": "2019-11-13T15:36:26.705",
  "Name": "",
  "Ranks": [
    {
      "Finalized": "2019-11-13T15:36:51.830",
      "Initialized": "2019-11-13T15:36:26.705",
      "StateChanges": [
        {
          "Name": "_GLOBAL",
          "State": 1,
          "Timestamp": 0
        },
        {
          "Name": "_GLOBAL",
          "State": 0,
          "Timestamp": 25125
        },
        {
          "Name": "advance",
          "State": 1,
          "Timestamp": 513
        },
        {
          "Name": "advance",
          "State": 0,
          "Timestamp": 551
        },
        {
          "Name": "advance",
          "State": 1,
          "Timestamp": 844
        },
        {
          "Name": "advance",
          "State": 0,
          "Timestamp": 943
        },
        {
          "Name": "advance",
          "State": 1,
          "Timestamp": 1238
        },
        {
          "Name": "advance",
          "State": 0,
          "Timestamp": 1276
        },
        {
          "Name": "advance",
          "State": 1,
          "Timestamp": 1572
        },
        {
          "Name": "advance",
          "State": 0,
          "Timestamp": 1612
        },
        {
          "Name": "advance",
          "State": 1,
          "Timestamp": 1904
        },
        {
          "Name": "advance",
          "State": 0,
          "Timestamp": 1942
        },
        {
          "Name": "advance",
          "State": 1,
          "Timestamp": 2235
        },
        {
          "Name": "advance",
          "State": 0,
          "Timestamp": 2317
        },
        {
          "Name": "advance",
          "State": 1,
          "Timestamp": 2613
        },
        {
          "Name": "advance",
          "State": 0,
          "Timestamp": 2651
        },
        {
          "Name": "advance",
          "State": 1,
          "Timestamp": 2942
        },
        {
          "Name": "advance",
          "State": 0,
          "Timestamp": 3044
        },
        {
          "Name": "advance",
          "State": 1,
          "Timestamp": 3339
        },
        {
          "Name": "advance",
          "State": 0,
          "Timestamp": 3377
        },
        {
          "Name": "advance",
          "State": 1,
          "Timestamp": 3672
        },
        {
          "Name": "advance",
          "State": 0,
          "Timestamp": 3711
        },
        {
          "Name": "advance",
          "State": 1,
          "Timestamp": 4005
        },
        {
          "Name": "advance",
          "State": 0,
          "Timestamp": 4089
        },
        {
          "Name": "advance",
          "State": 1,
          "Timestamp": 4382
        },
        {
          "Name": "advance",
          "State": 0,
          "Timestamp": 4422
        },
        {
          "Name": "advance",
          "State": 1,
          "Timestamp": 4716
        },
        {
          "Name": "advance",
          "State": 0,
          "Timestamp": 4755
        },
        {
          "Name": "advance",
          "State": 1,
          "Timestamp": 5048
        },
        {
          "Name": "advance",
          "State": 0,
          "Timestamp": 5153
        },
        {
          "Name": "advance",
          "State": 1,
          "Timestamp": 5449
        },
        {
          "Name": "advance",
          "State": 0,
          "Timestamp": 5488
        },
        {
          "Name": "advance",
          "State": 1,
          "Timestamp": 5781
        },
        {
          "Name": "advance",
          "State": 0,
          "Timestamp": 5819
        },
        {
          "Name": "advance",
          "State": 1,
          "Timestamp": 6112
        },
        {
          "Name": "advance",
          "State": 0,
          "Timestamp": 6197
        },
        {
          "Name": "advance",
          "State": 1,
          "Timestamp": 6498
        },
        {
          "Name": "advance",
          "State": 0,
          "Timestamp": 6536
        },
        {
          "Name": "advance",
          "State": 1,
          "Timestamp": 6834
        },
        {
          "Name": "advance",
          "State": 0,
          "Timestamp": 6884
        },
        {
          "Name": "advance",
          "State": 1,
          "Timestamp": 7188
        },
        {
          "Name": "advance",
          "State": 0,
          "Timestamp": 7227
        },
        {
          "Name": "advance",
          "State": 1,
          "Timestamp": 7522
        },
        {
          "Name": "advance",
          "State": 0,
          "Timestamp": 7624
        },
        {
          "Name": "advance",
          "State": 1,
          "Timestamp": 7918
        },
        {
          "Name": "advance",
          "State": 0,
          "Timestamp": 7957
        },
        {
          "Name": "advance",
          "State": 1,
          "Timestamp": 8252
        },
        {
          "Name": "advance",
          "State": 0,
          "Timestamp": 8290
        },
        {
          "Name": "advance",
          "State": 1,
          "Timestamp": 8586
        },
        {
          "Name": "advance",
          "State": 0,
          "Timestamp": 8689
        },
        {
          "Name": "advance",
          "State": 1,
          "Timestamp": 8983
        },
        {
          "Name": "advance",
          "State": 0,
          "Timestamp": 9022
        },
        {
          "Name": "advance",
          "State": 1,
          "Timestamp": 9319
        },
        {
          "Name": "advance",
          "State": 0,
          "Timestamp": 9401
        },
        {
          "Name": "advance",
          "State": 1,
          "Timestamp": 9697
        },
        {
          "Name": "advance",
          "State": 0,
          "Timestamp": 9736
        },
        {
          "Name": "advance",
          "State": 1,
          "Timestamp": 10030
        },
        {
          "Name": "advance",
          "State": 0,
          "Timestamp": 10068
        },
        {
          "Name": "advance",
          "State": 1,
          "Timestamp": 10361
        },
        {
          "Name": "advance",
          "State": 0,
          "Timestamp": 10400
        },
        {
          "Name": "advance",
          "State": 1,
          "Timestamp": 10697
        },
        {
          "Name": "advance",
          "State": 0,
          "Timestamp": 10735
        },
        {
          "Name": "advance",
          "State": 1,
          "Timestamp": 11028
        },
        {
          "Name": "advance",
          "State": 0,
          "Timestamp": 11113
        },
        {
          "Name": "advance",
          "State": 1,
          "Timestamp": 11408
        },
        {
          "Name": "advance",
          "State": 0,
          "Timestamp": 11446
        },
        {
          "Name": "advance",
          "State": 1,
          "Timestamp": 11740
        },
        {
          "Name": "advance",
          "State": 0,
          "Timestamp": 11844
        },
        {
          "Name": "advance",
          "State": 1,
          "Timestamp": 12140
        },
        {
          "Name": "advance",
          "State": 0,
          "Timestamp": 12178
        },
        {
          "Name": "advance",
          "State": 1,
          "Timestamp": 12475
        },
        {
          "Name": "advance",
          "State": 0,
          "Timestamp": 12579
        },
        {
          "Name": "advance",
          "State": 1,
          "Timestamp": 12875
        },
        {
          "Name": "advance",
          "State": 0,
          "Timestamp": 12913
        },
        {
          "Name": "advance",
          "State": 1,
          "Timestamp": 13209
        },
        {
          "Name": "advance",
          "State": 0,
          "Timestamp": 13247
        },
        {
          "Name": "advance",
          "State": 1,
          "Timestamp": 13545
        },
        {
          "Name": "advance",
          "State": 0,
          "Timestamp": 13646
        },
        {
          "Name": "advance",
          "State": 1,
          "Timestamp": 13954
        },
        {
          "Name": "advance",
          "State": 0,
          "Timestamp": 13992
        },
        {
          "Name": "advance",
          "State": 1,
          "Timestamp": 14289
        },
        {
          "Name": "advance",
          "State": 0,
          "Timestamp": 14327
        },
        {
          "Name": "advance",
          "State": 1,
          "Timestamp": 14628
        },
        {
          "Name": "advance",
          "State": 0,
          "Timestamp": 14713
        },
        {
          "Name": "advance",
          "State": 1,
          "Timestamp": 15009
        },
        {
          "Name": "advance",
          "State": 0,
          "Timestamp": 15048
        },
        {
          "Name": "advance",
          "State": 1,
          "Timestamp": 15344
        },
        {
          "Name": "advance",
          "State": 0,
          "Timestamp": 15429
        },
        {
          "Name": "advance",
          "State": 1,
          "Timestamp": 15730
        },
        {
          "Name": "advance",
          "State": 0,
          "Timestamp": 15768
        },
        {
          "Name": "advance",
          "State": 1,
          "Timestamp": 16078
        },
        {
          "Name": "advance",
          "State": 0,
          "Timestamp": 16116
        },
        {
          "Name": "advance",
          "State": 1,
          "Timestamp": 16414
        },
        {
          "Name": "advance",
          "State": 0,
          "Timestamp": 16453
        },
        {
          "Name": "advance",
          "State": 1,
          "Timestamp": 16751
        },
        {
          "Name": "advance",
          "State": 0,
          "Timestamp": 16789
        },
        {
          "Name": "advance",
          "State": 1,
          "Timestamp": 17086
        },
        {
          "Name": "advance",
          "State": 0,
          "Timestamp": 17125
        },
        {
          "Name": "advance",
          "State": 1,
          "Timestamp": 17422
        },
        {
          "Name": "advance",
          "State": 0,
          "Timestamp": 17460
        },
        {
          "Name": "advance",
          "State": 1,
          "Timestamp": 17759
        },
        {
          "Name": "advance",
          "State": 0,
          "Timestamp": 17808
        },
        {
          "Name": "advance",
          "State": 1,
          "Timestamp": 18114
        },
        {
          "Name": "advance",
          "State": 0,
          "Timestamp": 18152
        },
        {
          "Name": "advance",
          "State": 1,
          "Timestamp": 18449
        },
        {
          "Name": "advance",
          "State": 0,
          "Timestamp": 18487
        },
        {
          "Name": "advance",
          "State": 1,
          "Timestamp": 18782
        },
        {
          "Name": "advance",
          "State": 0,
          "Timestamp": 18875
        },
        {
          "Name": "advance",
          "State": 1,
          "Timestamp": 19181
        },
        {
          "Name": "advance",
          "State": 0,
          "Timestamp": 19219
        },
        {
          "Name": "advance",
          "State": 1,
          "Timestamp": 19515
        },
        {
          "Name": "advance",
          "State": 0,
          "Timestamp": 19596
        },
        {
          "Name": "advance",
          "State": 1,
          "Timestamp": 19891
        },
        {
          "Name": "advance",
          "State": 0,
          "Timestamp": 19940
        },
        {
          "Name": "advance",
          "State": 1,
          "Timestamp": 20244
        },
        {
          "Name": "advance",
          "State": 0,
          "Timestamp": 20282
        },
        {
          "Name": "advance",
          "State": 1,
          "Timestamp": 20576
        },
        {
          "Name": "advance",
          "State": 0,
          "Timestamp": 20664
        },
        {
          "Name": "advance",
          "State": 1,
          "Timestamp": 20957
        },
        {
          "Name": "advance",
          "State": 0,
          "Timestamp": 21006
        },
        {
          "Name": "advance",
          "State": 1,
          "Timestamp": 21311
        },
        {
          "Name": "advance",
          "State": 0,
          "Timestamp": 21349
        },
        {
          "Name": "advance",
          "State": 1,
          "Timestamp": 21647
        },
        {
          "Name": "advance",
          "State": 0,
          "Timestamp": 21686
        },
        {
          "Name": "advance",
          "State": 1,
          "Timestamp": 21980
        },
        {
          "Name": "advance",
          "State": 0,
          "Timestamp": 22029
        },
        {
          "Name": "advance",
          "State": 1,
          "Timestamp": 22334
        },
        {
          "Name": "advance",
          "State": 0,
          "Timestamp": 22372
        },
        {
          "Name": "advance",
          "State": 1,
          "Timestamp": 22668
        },
        {
          "Name": "advance",
          "State": 0,
          "Timestamp": 22707
        },
        {
          "Name": "advance",
          "State": 1,
          "Timestamp": 22997
        },
        {
          "Name": "advance",
          "State": 0,
          "Timestamp": 23094
        },
        {
          "Name": "advance",
          "State": 1,
          "Timestamp": 23402
        },
        {
          "Name": "advance",
          "State": 0,
          "Timestamp": 23440
        },
        {
          "Name": "advance",
          "State": 1,
          "Timestamp": 23737
        },
        {
          "Name": "advance",
          "State": 0,
          "Timestamp": 23776
        },
        {
          "Name": "advance",
          "State": 1,
          "Timestamp": 24070
        },
        {
          "Name": "advance",
          "State": 0,
          "Timestamp": 24119
        },
        {
          "Name": "advance",
          "State": 1,
          "Timestamp": 24427
        },
        {
          "Name": "advance",
          "State": 0,
          "Timestamp": 24466
        },
        {
          "Name": "advance",
          "State": 1,
          "Timestamp": 24762
        },
        {
          "Name": "advance",
          "State": 0,
          "Timestamp": 24801
        },
        {
          "Name": "advance",
          "State": 1,
          "Timestamp": 25095
        },
        {
          "Name": "advance",
          "State": 0,
          "Timestamp": 25096
        },
        {
          "Name": "advance/cpl.computeQuasiNewtonUpdate",
          "State": 1,
          "Timestamp": 513
        },
        {
          "Name": "advance/cpl.computeQuasiNewtonUpdate",
          "State": 0,
          "Timestamp": 513
        },
        {
          "Name": "advance/cpl.computeQuasiNewtonUpdate",
          "State": 1,
          "Timestamp": 844
        },
        {
          "Name": "advance/cpl.computeQuasiNewtonUpdate",
          "State": 0,
          "Timestamp": 844
        },
        {
          "Name": "advance/cpl.computeQuasiNewtonUpdate",
          "State": 1,
          "Timestamp": 1238
        },
        {
          "Name": "advance/cpl.computeQuasiNewtonUpdate",
          "State": 0,
          "Timestamp": 1238
        },
        {
          "Name": "advance/cpl.computeQuasiNewtonUpdate",
          "State": 1,
          "Timestamp": 1573
        },
        {
          "Name": "advance/cpl.computeQuasiNewtonUpdate",
          "State": 0,
          "Timestamp": 1573
        },
        {
          "Name": "advance/cpl.computeQuasiNewtonUpdate",
          "State": 1,
          "Timestamp": 1904
        },
        {
          "Name": "advance/cpl.computeQuasiNewtonUpdate",
          "State": 0,
          "Timestamp": 1904
        },
        {
          "Name": "advance/cpl.computeQuasiNewtonUpdate",
          "State": 1,
          "Timestamp": 2235
        },
        {
          "Name": "advance/cpl.computeQuasiNewtonUpdate",
          "State": 0,
          "Timestamp": 2235
        },
        {
          "Name": "advance/cpl.computeQuasiNewtonUpdate",
          "State": 1,
          "Timestamp": 2613
        },
        {
          "Name": "advance/cpl.computeQuasiNewtonUpdate",
          "State": 0,
          "Timestamp": 2613
        },
        {
          "Name": "advance/cpl.computeQuasiNewtonUpdate",
          "State": 1,
          "Timestamp": 2943
        },
        {
          "Name": "advance/cpl.computeQuasiNewtonUpdate",
          "State": 0,
          "Timestamp": 2943
        },
        {
          "Name": "advance/cpl.computeQuasiNewtonUpdate",
          "State": 1,
          "Timestamp": 3339
        },
        {
          "Name": "advance/cpl.computeQuasiNewtonUpdate",
          "State": 0,
          "Timestamp": 3339
        },
        {
          "Name": "advance/cpl.computeQuasiNewtonUpdate",
          "State": 1,
          "Timestamp": 3672
        },
        {
          "Name": "advance/cpl.computeQuasiNewtonUpdate",
          "State": 0,
          "Timestamp": 3673
        },
        {
          "Name": "advance/cpl.computeQuasiNewtonUpdate",
          "State": 1,
          "Timestamp": 4005
        },
        {
          "Name": "advance/cpl.computeQuasiNewtonUpdate",
          "State": 0,
          "Timestamp": 4005
        },
        {
          "Name": "advance/cpl.computeQuasiNewtonUpdate",
          "State": 1,
          "Timestamp": 4382
        },
        {
          "Name": "advance/cpl.computeQuasiNewtonUpdate",
          "State": 0,
          "Timestamp": 4383
        },
        {
          "Name": "advance/cpl.computeQuasiNewtonUpdate",
          "State": 1,
          "Timestamp": 4716
        },
        {
          "Name": "advance/cpl.computeQuasiNewtonUpdate",
          "State": 0,
          "Timestamp": 4716
        },
        {
          "Name": "advance/cpl.computeQuasiNewtonUpdate",
          "State": 1,
          "Timestamp": 5048
        },
        {
          "Name": "advance/cpl.computeQuasiNewtonUpdate",
          "State": 0,
          "Timestamp": 5048
        },
        {
          "Name": "advance/cpl.computeQuasiNewtonUpdate",
          "State": 1,
          "Timestamp": 5449
        },
        {
          "Name": "advance/cpl.computeQuasiNewtonUpdate",
          "State": 0,
          "Timestamp": 5449
        },
        {
          "Name": "advance/cpl.computeQuasiNewtonUpdate",
          "State": 1,
          "Timestamp": 5781
        },
        {
          "Name": "advance/cpl.computeQuasiNewtonUpdate",
          "State": 0,
          "Timestamp": 5781
        },
        {
          "Name": "advance/cpl.computeQuasiNewtonUpdate",
          "State": 1,
          "Timestamp": 6112
        },
        {
          "Name": "advance/cpl.computeQuasiNewtonUpdate",
          "State": 0,
          "Timestamp": 6112
        },
        {
          "Name": "advance/cpl.computeQuasiNewtonUpdate",
          "State": 1,
          "Timestamp": 6498
        },
        {
          "Name": "advance/cpl.computeQuasiNewtonUpdate",
          "State": 0,
          "Timestamp": 6498
        },
        {
          "Name": "advance/cpl.computeQuasiNewtonUpdate",
          "State": 1,
          "Timestamp": 7188
        },
        {
          "Name": "advance/cpl.computeQuasiNewtonUpdate",
          "State": 0,
          "Timestamp": 7188
        },
        {
          "Name": "advance/cpl.computeQuasiNewtonUpdate",
          "State": 1,
          "Timestamp": 7522
        },
        {
          "Name": "advance/cpl.computeQuasiNewtonUpdate",
          "State": 0,
          "Timestamp": 7522
        },
        {
          "Name": "advance/cpl.computeQuasiNewtonUpdate",
          "State": 1,
          "Timestamp": 7918
        },
        {
          "Name": "advance/cpl.computeQuasiNewtonUpdate",
          "State": 0,
          "Timestamp": 7918
        },
        {
          "Name": "advance/cpl.computeQuasiNewtonUpdate",
          "State": 1,
          "Timestamp": 8252
        },
        {
          "Name": "advance/cpl.computeQuasiNewtonUpdate",
          "State": 0,
          "Timestamp": 8252
        },
        {
          "Name": "advance/cpl.computeQuasiNewtonUpdate",
          "State": 1,
          "Timestamp": 8586
        },
        {
          "Name": "advance/cpl.computeQuasiNewtonUpdate",
          "State": 0,
          "Timestamp": 8586
        },
        {
          "Name": "advance/cpl.computeQuasiNewtonUpdate",
          "State": 1,
          "Timestamp": 8984
        },
        {
          "Name": "advance/cpl.computeQuasiNewtonUpdate",
          "State": 0,
          "Timestamp": 8984
        },
        {
          "Name": "advance/cpl.computeQuasiNewtonUpdate",
          "State": 1,
          "Timestamp": 9319
        },
        {
          "Name": "advance/cpl.computeQuasiNewtonUpdate",
          "State": 0,
          "Timestamp": 9319
        },
        {
          "Name": "advance/cpl.computeQuasiNewtonUpdate",
          "State": 1,
          "Timestamp": 9697
        },
        {
          "Name": "advance/cpl.computeQuasiNewtonUpdate",
          "State": 0,
          "Timestamp": 9697
        },
        {
          "Name": "advance/cpl.computeQuasiNewtonUpdate",
          "State": 1,
          "Timestamp": 10030
        },
        {
          "Name": "advance/cpl.computeQuasiNewtonUpdate",
          "State": 0,
          "Timestamp": 10030
        },
        {
          "Name": "advance/cpl.computeQuasiNewtonUpdate",
          "State": 1,
          "Timestamp": 10361
        },
        {
          "Name": "advance/cpl.computeQuasiNewtonUpdate",
          "State": 0,
          "Timestamp": 10361
        },
        {
          "Name": "advance/cpl.computeQuasiNewtonUpdate",
          "State": 1,
          "Timestamp": 10697
        },
        {
          "Name": "advance/cpl.computeQuasiNewtonUpdate",
          "State": 0,
          "Timestamp": 10697
        },
        {
          "Name": "advance/cpl.computeQuasiNewtonUpdate",
          "State": 1,
          "Timestamp": 11028
        },
        {
          "Name": "advance/cpl.computeQuasiNewtonUpdate",
          "State": 0,
          "Timestamp": 11028
        },
        {
          "Name": "advance/cpl.computeQuasiNewtonUpdate",
          "State": 1,
          "Timestamp": 11408
        },
        {
          "Name": "advance/cpl.computeQuasiNewtonUpdate",
          "State": 0,
          "Timestamp": 11408
        },
        {
          "Name": "advance/cpl.computeQuasiNewtonUpdate",
          "State": 1,
          "Timestamp": 11740
        },
        {
          "Name": "advance/cpl.computeQuasiNewtonUpdate",
          "State": 0,
          "Timestamp": 11740
        },
        {
          "Name": "advance/cpl.computeQuasiNewtonUpdate",
          "State": 1,
          "Timestamp": 12140
        },
        {
          "Name": "advance/cpl.computeQuasiNewtonUpdate",
          "State": 0,
          "Timestamp": 12140
        },
        {
          "Name": "advance/cpl.computeQuasiNewtonUpdate",
          "State": 1,
          "Timestamp": 12475
        },
        {
          "Name": "advance/cpl.computeQuasiNewtonUpdate",
          "State": 0,
          "Timestamp": 12475
        },
        {
          "Name": "advance/cpl.computeQuasiNewtonUpdate",
          "State": 1,
          "Timestamp": 12875
        },
        {
          "Name": "advance/cpl.computeQuasiNewtonUpdate",
          "State": 0,
          "Timestamp": 12875
        },
        {
          "Name": "advance/cpl.computeQuasiNewtonUpdate",
          "State": 1,
          "Timestamp": 13209
        },
        {
          "Name": "advance/cpl.computeQuasiNewtonUpdate",
          "State": 0,
          "Timestamp": 13209
        },
        {
          "Name": "advance/cpl.computeQuasiNewtonUpdate",
          "State": 1,
          "Timestamp": 13954
        },
        {
          "Name": "advance/cpl.computeQuasiNewtonUpdate",
          "State": 0,
          "Timestamp": 13954
        },
        {
          "Name": "advance/cpl.computeQuasiNewtonUpdate",
          "State": 1,
          "Timestamp": 14289
        },
        {
          "Name": "advance/cpl.computeQuasiNewtonUpdate",
          "State": 0,
          "Timestamp": 14289
        },
        {
          "Name": "advance/cpl.computeQuasiNewtonUpdate",
          "State": 1,
          "Timestamp": 14628
        },
        {
          "Name": "advance/cpl.computeQuasiNewtonUpdate",
          "State": 0,
          "Timestamp": 14628
        },
        {
          "Name": "advance/cpl.computeQuasiNewtonUpdate",
          "State": 1,
          "Timestamp": 15009
        },
        {
          "Name": "advance/cpl.computeQuasiNewtonUpdate",
          "State": 0,
          "Timestamp": 15009
        },
        {
          "Name": "advance/cpl.computeQuasiNewtonUpdate",
          "State": 1,
          "Timestamp": 15344
        },
        {
          "Name": "advance/cpl.computeQuasiNewtonUpdate",
          "State": 0,
          "Timestamp": 15344
        },
        {
          "Name": "advance/cpl.computeQuasiNewtonUpdate",
          "State": 1,
          "Timestamp": 15730
        },
        {
          "Name": "advance/cpl.computeQuasiNewtonUpdate",
          "State": 0,
          "Timestamp": 15730
        },
        {
          "Name": "advance/cpl.computeQuasiNewtonUpdate",
          "State": 1,
          "Timestamp": 16078
        },
        {
          "Name": "advance/cpl.computeQuasiNewtonUpdate",
          "State": 0,
          "Timestamp": 16078
        },
        {
          "Name": "advance/cpl.computeQuasiNewtonUpdate",
          "State": 1,
          "Timestamp": 16414
        },
        {
          "Name": "advance/cpl.computeQuasiNewtonUpdate",
          "State": 0,
          "Timestamp": 16414
        },
        {
          "Name": "advance/cpl.computeQuasiNewtonUpdate",
          "State": 1,
          "Timestamp": 16751
        },
        {
          "Name": "advance/cpl.computeQuasiNewtonUpdate",
          "State": 0,
          "Timestamp": 16751
        },
        {
          "Name": "advance/cpl.computeQuasiNewtonUpdate",
          "State": 1,
          "Timestamp": 17086
        },
        {
          "Name": "advance/cpl.computeQuasiNewtonUpdate",
          "State": 0,
          "Timestamp": 17086
        },
        {
          "Name": "advance/cpl.computeQuasiNewtonUpdate",
          "State": 1,
          "Timestamp": 17422
        },
        {
          "Name": "advance/cpl.computeQuasiNewtonUpdate",
          "State": 0,
          "Timestamp": 17422
        },
        {
          "Name": "advance/cpl.computeQuasiNewtonUpdate",
          "State": 1,
          "Timestamp": 18114
        },
        {
          "Name": "advance/cpl.computeQuasiNewtonUpdate",
          "State": 0,
          "Timestamp": 18114
        },
        {
          "Name": "advance/cpl.computeQuasiNewtonUpdate",
          "State": 1,
          "Timestamp": 18449
        },
        {
          "Name": "advance/cpl.computeQuasiNewtonUpdate",
          "State": 0,
          "Timestamp": 18449
        },
        {
          "Name": "advance/cpl.computeQuasiNewtonUpdate",
          "State": 1,
          "Timestamp": 19181
        },
        {
          "Name": "advance/cpl.computeQuasiNewtonUpdate",
          "State": 0,
          "Timestamp": 19181
        },
        {
          "Name": "advance/cpl.computeQuasiNewtonUpdate",
          "State": 1,
          "Timestamp": 19515
        },
        {
          "Name": "advance/cpl.computeQuasiNewtonUpdate",
          "State": 0,
          "Timestamp": 19515
        },
        {
          "Name": "advance/cpl.computeQuasiNewtonUpdate",
          "State": 1,
          "Timestamp": 20244
        },
        {
          "Name": "advance/cpl.computeQuasiNewtonUpdate",
          "State": 0,
          "Timestamp": 20244
        },
        {
          "Name": "advance/cpl.computeQuasiNewtonUpdate",
          "State": 1,
          "Timestamp": 20576
        },
        {
          "Name": "advance/cpl.computeQuasiNewtonUpdate",
          "State": 0,
          "Timestamp": 20576
        },
        {
          "Name": "advance/cpl.computeQuasiNewtonUpdate",
          "State": 1,
          "Timestamp": 21311
        },
        {
          "Name": "advance/cpl.computeQuasiNewtonUpdate",
          "State": 0,
          "Timestamp": 21311
        },
        {
          "Name": "advance/cpl.computeQuasiNewtonUpdate",
          "State": 1,
          "Timestamp": 21647
        },
        {
          "Name": "advance/cpl.computeQuasiNewtonUpdate",
          "State": 0,
          "Timestamp": 21647
        },
        {
          "Name": "advance/cpl.computeQuasiNewtonUpdate",
          "State": 1,
          "Timestamp": 22334
        },
        {
          "Name": "advance/cpl.computeQuasiNewtonUpdate",
          "State": 0,
          "Timestamp": 22334
        },
        {
          "Name": "advance/cpl.computeQuasiNewtonUpdate",
          "State": 1,
          "Timestamp": 22669
        },
        {
          "Name": "advance/cpl.computeQuasiNewtonUpdate",
          "State": 0,
          "Timestamp": 22669
        },
        {
          "Name": "advance/cpl.computeQuasiNewtonUpdate",
          "State": 1,
          "Timestamp": 23402
        },
        {
          "Name": "advance/cpl.computeQuasiNewtonUpdate",
          "State": 0,
          "Timestamp": 23402
        },
        {
          "Name": "advance/cpl.computeQuasiNewtonUpdate",
          "State": 1,
          "Timestamp": 23737
        },
        {
          "Name": "advance/cpl.computeQuasiNewtonUpdate",
          "State": 0,
          "Timestamp": 23737
        },
        {
          "Name": "advance/cpl.computeQuasiNewtonUpdate",
          "State": 1,
          "Timestamp": 24427
        },
        {
          "Name": "advance/cpl.computeQuasiNewtonUpdate",
          "State": 0,
          "Timestamp": 24427
        },
        {
          "Name": "advance/cpl.computeQuasiNewtonUpdate",
          "State": 1,
          "Timestamp": 24762
        },
        {
          "Name": "advance/cpl.computeQuasiNewtonUpdate",
          "State": 0,
          "Timestamp": 24762
        },
        {
          "Name": "configure",
          "State": 1,
          "Timestamp": 0
        },
        {
          "Name": "configure",
          "State": 0,
          "Timestamp": 0
        },
        {
          "Name": "finalize",
          "State": 1,
          "Timestamp": 25123
        },
        {
          "Name": "finalize",
          "State": 0,
          "Timestamp": 25125
        },
        {
          "Name": "initialize",
          "State": 1,
          "Timestamp": 4
        },
        {
          "Name": "initialize",
          "State": 0,
          "Timestamp": 32
        },
        {
          "Name": "initialize/m2n.acceptMasterConnection",
          "State": 1,
          "Timestamp": 4
        },
        {
          "Name": "initialize/m2n.acceptMasterConnection",
          "State": 0,
          "Timestamp": 32
        },
        {
          "Name": "initialize/m2n.acceptSlavesConnection",
          "State": 1,
          "Timestamp": 32
        },
        {
          "Name": "initialize/m2n.acceptSlavesConnection",
          "State": 0,
          "Timestamp": 32
        },
        {
          "Name": "initialize/partition.feedbackMesh.NeumannNodes",
          "State": 1,
          "Timestamp": 32
        },
        {
          "Name": "initialize/partition.feedbackMesh.NeumannNodes",
          "State": 0,
          "Timestamp": 32
        },
        {
          "Name": "initialize/partition.gatherMesh.NeumannNodes",
          "State": 1,
          "Timestamp": 32
        },
        {
          "Name": "initialize/partition.gatherMesh.NeumannNodes",
          "State": 0,
          "Timestamp": 32
        },
        {
          "Name": "initialize/partition.sendGlobalMesh.NeumannNodes",
          "State": 1,
          "Timestamp": 32
        },
        {
          "Name": "initialize/partition.sendGlobalMesh.NeumannNodes",
          "State": 0,
          "Timestamp": 32
        },
        {
          "Name": "initializeData",
          "State": 1,
          "Timestamp": 43
        },
        {
          "Name": "initializeData",
          "State": 0,
          "Timestamp": 156
        },
        {
          "Name": "solver.advance",
          "State": 1,
          "Timestamp": 551
        },
        {
          "Name": "solver.advance",
          "State": 0,
          "Timestamp": 844
        },
        {
          "Name": "solver.advance",
          "State": 1,
          "Timestamp": 943
        },
        {
          "Name": "solver.advance",
          "State": 0,
          "Timestamp": 1238
        },
        {
          "Name": "solver.advance",
          "State": 1,
          "Timestamp": 1276
        },
        {
          "Name": "solver.advance",
          "State": 0,
          "Timestamp": 1572
        },
        {
          "Name": "solver.advance",
          "State": 1,
          "Timestamp": 1612
        },
        {
          "Name": "solver.advance",
          "State": 0,
          "Timestamp": 1904
        },
        {
          "Name": "solver.advance",
          "State": 1,
          "Timestamp": 1942
        },
        {
          "Name": "solver.advance",
          "State": 0,
          "Timestamp": 2235
        },
        {
          "Name": "solver.advance",
          "State": 1,
          "Timestamp": 2317
        },
        {
          "Name": "solver.advance",
          "State": 0,
          "Timestamp": 2613
        },
        {
          "Name": "solver.advance",
          "State": 1,
          "Timestamp": 2651
        },
        {
          "Name": "solver.advance",
          "State": 0,
          "Timestamp": 2942
        },
        {
          "Name": "solver.advance",
          "State": 1,
          "Timestamp": 3044
        },
        {
          "Name": "solver.advance",
          "State": 0,
          "Timestamp": 3339
        },
        {
          "Name": "solver.advance",
          "State": 1,
          "Timestamp": 3377
        },
        {
          "Name": "solver.advance",
          "State": 0,
          "Timestamp": 3672
        },
        {
          "Name": "solver.advance",
          "State": 1,
          "Timestamp": 3711
        },
        {
          "Name": "solver.advance",
          "State": 0,
          "Timestamp": 4005
        },
        {
          "Name": "solver.advance",
          "State": 1,
          "Timestamp": 4089
        },
        {
          "Name": "solver.advance",
          "State": 0,
          "Timestamp": 4382
        },
        {
          "Name": "solver.advance",
          "State": 1,
          "Timestamp": 4422
        },
        {
          "Name": "solver.advance",
          "State": 0,
          "Timestamp": 4716
        },
        {
          "Name": "solver.advance",
          "State": 1,
          "Timestamp": 4755
        },
        {
          "Name": "solver.advance",
          "State": 0,
          "Timestamp": 5048
        },
        {
          "Name": "solver.advance",
          "State": 1,
          "Timestamp": 5153
        },
        {
          "Name": "solver.advance",
          "State": 0,
          "Timestamp": 5449
        },
        {
          "Name": "solver.advance",
          "State": 1,
          "Timestamp": 5488
        },
        {
          "Name": "solver.advance",
          "State": 0,
          "Timestamp": 5781
        },
        {
          "Name": "solver.advance",
          "State": 1,
          "Timestamp": 5819
        },
        {
          "Name": "solver.advance",
          "State": 0,
          "Timestamp": 6112
        },
        {
          "Name": "solver.advance",
          "State": 1,
          "Timestamp": 6197
        },
        {
          "Name": "solver.advance",
          "State": 0,
          "Timestamp": 6498
        },
        {
          "Name": "solver.advance",
          "State": 1,
          "Timestamp": 6536
        },
        {
          "Name": "solver.advance",
          "State": 0,
          "Timestamp": 6834
        },
        {
          "Name": "solver.advance",
          "State": 1,
          "Timestamp": 6884
        },
        {
          "Name": "solver.advance",
          "State": 0,
          "Timestamp": 7188
        },
        {
          "Name": "solver.advance",
          "State": 1,
          "Timestamp": 7227
        },
        {
          "Name": "solver.advance",
          "State": 0,
          "Timestamp": 7522
        },
        {
          "Name": "solver.advance",
          "State": 1,
          "Timestamp": 7624
        },
        {
          "Name": "solver.advance",
          "State": 0,
          "Timestamp": 7918
        },
        {
          "Name": "solver.advance",
          "State": 1,
          "Timestamp": 7957
        },
        {
          "Name": "solver.advance",
          "State": 0,
          "Timestamp": 8252
        },
        {
          "Name": "solver.advance",
          "State": 1,
          "Timestamp": 8290
        },
        {
          "Name": "solver.advance",
          "State": 0,
          "Timestamp": 8586
        },
        {
          "Name": "solver.advance",
          "State": 1,
          "Timestamp": 8689
        },
        {
          "Name": "solver.advance",
          "State": 0,
          "Timestamp": 8983
        },
        {
          "Name": "solver.advance",
          "State": 1,
          "Timestamp": 9022
        },
        {
          "Name": "solver.advance",
          "State": 0,
          "Timestamp": 9319
        },
        {
          "Name": "solver.advance",
          "State": 1,
          "Timestamp": 9401
        },
        {
          "Name": "solver.advance",
          "State": 0,
          "Timestamp": 9697
        },
        {
          "Name": "solver.advance",
          "State": 1,
          "Timestamp": 9736
        },
        {
          "Name": "solver.advance",
          "State": 0,
          "Timestamp": 10030
        },
        {
          "Name": "solver.advance",
          "State": 1,
          "Timestamp": 10068
        },
        {
          "Name": "solver.advance",
          "State": 0,
          "Timestamp": 10361
        },
        {
          "Name": "solver.advance",
          "State": 1,
          "Timestamp": 10400
        },
        {
          "Name": "solver.advance",
          "State": 0,
          "Timestamp": 10697
        },
        {
          "Name": "solver.advance",
          "State": 1,
          "Timestamp": 10735
        },
        {
          "Name": "solver.advance",
          "State": 0,
          "Timestamp": 11028
        },
        {
          "Name": "solver.advance",
          "State": 1,
          "Timestamp": 11113
        },
        {
          "Name": "solver.advance",
          "State": 0,
          "Timestamp": 11408
        },
        {
          "Name": "solver.advance",
          "State": 1,
          "Timestamp": 11446
        },
        {
          "Name": "solver.advance",
          "State": 0,
          "Timestamp": 11740
        },
        {
          "Name": "solver.advance",
          "State": 1,
          "Timestamp": 11844
        },
        {
          "Name": "solver.advance",
          "State": 0,
          "Timestamp": 12140
        },
        {
          "Name": "solver.advance",
          "State": 1,
          "Timestamp": 12178
        },
        {
          "Name": "solver.advance",
          "State": 0,
          "Timestamp": 12475
        },
        {
          "Name": "solver.advance",
          "State": 1,
          "Timestamp": 12579
        },
        {
          "Name": "solver.advance",
          "State": 0,
          "Timestamp": 12875
        },
        {
          "Name": "solver.advance",
          "State": 1,
          "Timestamp": 12913
        },
        {
          "Name": "solver.advance",
          "State": 0,
          "Timestamp": 13209
        },
        {
          "Name": "solver.advance",
          "State": 1,
          "Timestamp": 13247
        },
        {
          "Name": "solver.advance",
          "State": 0,
          "Timestamp": 13545
        },
        {
          "Name": "solver.advance",
          "State": 1,
          "Timestamp": 13646
        },
        {
          "Name": "solver.advance",
          "State": 0,
          "Timestamp": 13954
        },
        {
          "Name": "solver.advance",
          "State": 1,
          "Timestamp": 13992
        },
        {
          "Name": "solver.advance",
          "State": 0,
          "Timestamp": 14289
        },
        {
          "Name": "solver.advance",
          "State": 1,
          "Timestamp": 14327
        },
        {
          "Name": "solver.advance",
          "State": 0,
          "Timestamp": 14628
        },
        {
          "Name": "solver.advance",
          "State": 1,
          "Timestamp": 14713
        },
        {
          "Name": "solver.advance",
          "State": 0,
          "Timestamp": 15009
        },
        {
          "Name": "solver.advance",
          "State": 1,
          "Timestamp": 15048
        },
        {
          "Name": "solver.advance",
          "State": 0,
          "Timestamp": 15344
        },
        {
          "Name": "solver.advance",
          "State": 1,
          "Timestamp": 15429
        },
        {
          "Name": "solver.advance",
          "State": 0,
          "Timestamp": 15730
        },
        {
          "Name": "solver.advance",
          "State": 1,
          "Timestamp": 15768
        },
        {
          "Name": "solver.advance",
          "State": 0,
          "Timestamp": 16078
        },
        {
          "Name": "solver.advance",
          "State": 1,
          "Timestamp": 16116
        },
        {
          "Name": "solver.advance",
          "State": 0,
          "Timestamp": 16414
        },
        {
          "Name": "solver.advance",
          "State": 1,
          "Timestamp": 16453
        },
        {
          "Name": "solver.advance",
          "State": 0,
          "Timestamp": 16751
        },
        {
          "Name": "solver.advance",
          "State": 1,
          "Timestamp": 16789
        },
        {
          "Name": "solver.advance",
          "State": 0,
          "Timestamp": 17086
        },
        {
          "Name": "solver.advance",
          "State": 1,
          "Timestamp": 17125
        },
        {
          "Name": "solver.advance",
          "State": 0,
          "Timestamp": 17422
        },
        {
          "Name": "solver.advance",
          "State": 1,
          "Timestamp": 17460
        },
        {
          "Name": "solver.advance",
          "State": 0,
          "Timestamp": 17759
        },
        {
          "Name": "solver.advance",
          "State": 1,
          "Timestamp": 17808
        },
        {
          "Name": "solver.advance",
          "State": 0,
          "Timestamp": 18114
        },
        {
          "Name": "solver.advance",
          "State": 1,
          "Timestamp": 18152
        },
        {
          "Name": "solver.advance",
          "State": 0,
          "Timestamp": 18449
        },
        {
          "Name": "solver.advance",
          "State": 1,
          "Timestamp": 18487
        },
        {
          "Name": "solver.advance",
          "State": 0,
          "Timestamp": 18782
        },
        {
          "Name": "solver.advance",
          "State": 1,
          "Timestamp": 18875
        },
        {
          "Name": "solver.advance",
          "State": 0,
          "Timestamp": 19181
        },
        {
          "Name": "solver.advance",
          "State": 1,
          "Timestamp": 19219
        },
        {
          "Name": "solver.advance",
          "State": 0,
          "Timestamp": 19515
        },
        {
          "Name": "solver.advance",
          "State": 1,
          "Timestamp": 19596
        },
        {
          "Name": "solver.advance",
          "State": 0,
          "Timestamp": 19891
        },
        {
          "Name": "solver.advance",
          "State": 1,
          "Timestamp": 19940
        },
        {
          "Name": "solver.advance",
          "State": 0,
          "Timestamp": 20244
        },
        {
          "Name": "solver.advance",
          "State": 1,
          "Timestamp": 20282
        },
        {
          "Name": "solver.advance",
          "State": 0,
          "Timestamp": 20576
        },
        {
          "Name": "solver.advance",
          "State": 1,
          "Timestamp": 20664
        },
        {
          "Name": "solver.advance",
          "State": 0,
          "Timestamp": 20957
        },
        {
          "Name": "solver.advance",
          "State": 1,
          "Timestamp": 21006
        },
        {
          "Name": "solver.advance",
          "State": 0,
          "Timestamp": 21311
        },
        {
          "Name": "solver.advance",
          "State": 1,
          "Timestamp": 21349
        },
        {
          "Name": "solver.advance",
          "State": 0,
          "Timestamp": 21647
        },
        {
          "Name": "solver.advance",
          "State": 1,
          "Timestamp": 21686
        },
        {
          "Name": "solver.advance",
          "State": 0,
          "Timestamp": 21980
        },
        {
          "Name": "solver.advance",
          "State": 1,
          "Timestamp": 22029
        },
        {
          "Name": "solver.advance",
          "State": 0,
          "Timestamp": 22334
        },
        {
          "Name": "solver.advance",
          "State": 1,
          "Timestamp": 22372
        },
        {
          "Name": "solver.advance",
          "State": 0,
          "Timestamp": 22668
        },
        {
          "Name": "solver.advance",
          "State": 1,
          "Timestamp": 22707
        },
        {
          "Name": "solver.advance",
          "State": 0,
          "Timestamp": 22997
        },
        {
          "Name": "solver.advance",
          "State": 1,
          "Timestamp": 23094
        },
        {
          "Name": "solver.advance",
          "State": 0,
          "Timestamp": 23402
        },
        {
          "Name": "solver.advance",
          "State": 1,
          "Timestamp": 23440
        },
        {
          "Name": "solver.advance",
          "State": 0,
          "Timestamp": 23737
        },
        {
          "Name": "solver.advance",
          "State": 1,
          "Timestamp": 23776
        },
        {
          "Name": "solver.advance",
          "State": 0,
          "Timestamp": 24070
        },
        {
          "Name": "solver.advance",
          "State": 1,
          "Timestamp": 24119
        },
        {
          "Name": "solver.advance",
          "State": 0,
          "Timestamp": 24427
        },
        {
          "Name": "solver.advance",
          "State": 1,
          "Timestamp": 24466
        },
        {
          "Name": "solver.advance",
          "State": 0,
          "Timestamp": 24762
        },
        {
          "Name": "solver.advance",
          "State": 1,
          "Timestamp": 24801
        },
        {
          "Name": "solver.advance",
          "State": 0,
          "Timestamp": 25095
        },
        {
          "Name": "solver.advance",
          "State": 1,
          "Timestamp": 25096
        },
        {
          "Name": "solver.advance",
          "State": 0,
          "Timestamp": 25123
        },
        {
          "Name": "solver.initialize",
          "State": 1,
          "Timestamp": 0
        },
        {
          "Name": "solver.initialize",
          "State": 2,
          "Timestamp": 4
        },
        {
          "Name": "solver.initialize",
          "State": 1,
          "Timestamp": 32
        },
        {
          "Name": "solver.initialize",
          "State": 2,
          "Timestamp": 43
        },
        {
          "Name": "solver.initialize",
          "State": 1,
          "Timestamp": 156
        },
        {
          "Name": "solver.initialize",
          "State": 0,
          "Timestamp": 513
        }
      ],
      "Timings": {
        "_GLOBAL": {
          "Count": 1,
          "Data": {},
          "Max": 25125,
          "Min": 25125,
          "TimeRatio": 1.0,
          "Total": 25125
        },
        "advance": {
          "Count": 71,
          "Data": {},
          "Max": 105,
          "Min": 0,
          "TimeRatio": 0.15128358208955223,
          "Total": 3801
        },
        "advance/cpl.computeQuasiNewtonUpdate": {
          "Count": 61,
          "Data": {},
          "Max": 0,
          "Min": 0,
          "TimeRatio": 3.980099502487562e-05,
          "Total": 1
        },
        "configure": {
          "Count": 1,
          "Data": {},
          "Max": 0,
          "Min": 0,
          "TimeRatio": 0.0,
          "Total": 0
        },
        "finalize": {
          "Count": 1,
          "Data": {},
          "Max": 1,
          "Min": 1,
          "TimeRatio": 3.980099502487562e-05,
          "Total": 1
        },
        "initialize": {
          "Count": 1,
          "Data": {},
          "Max": 28,
          "Min": 28,
          "TimeRatio": 0.0011144278606965174,
          "Total": 28
        },
        "initialize/m2n.acceptMasterConnection": {
          "Count": 1,
          "Data": {},
          "Max": 27,
          "Min": 27,
          "TimeRatio": 0.0010746268656716418,
          "Total": 27
        },
        "initialize/m2n.acceptSlavesConnection": {
          "Count": 1,
          "Data": {},
          "Max": 0,
          "Min": 0,
          "TimeRatio": 0.0,
          "Total": 0
        },
        "initialize/partition.feedbackMesh.NeumannNodes": {
          "Count": 1,
          "Data": {},
          "Max": 0,
          "Min": 0,
          "TimeRatio": 0.0,
          "Total": 0
        },
        "initialize/partition.gatherMesh.NeumannNodes": {
          "Count": 1,
          "Data": {},
          "Max": 0,
          "Min": 0,
          "TimeRatio": 0.0,
          "Total": 0
        },
        "initialize/partition.sendGlobalMesh.NeumannNodes": {
          "Count": 1,
          "Data": {},
          "Max": 0,
          "Min": 0,
          "TimeRatio": 0.0,
          "Total": 0
        },
        "initializeData": {
          "Count": 1,
          "Data": {},
          "Max": 112,
          "Min": 112,
          "TimeRatio": 0.00445771144278607,
          "Total": 112
        },
        "solver.advance": {
          "Count": 71,
          "Data": {},
          "Max": 309,
          "Min": 27,
          "TimeRatio": 0.8282189054726368,
          "Total": 20809
        },
        "solver.initialize": {
          "Count": 1,
          "Data": {},
          "Max": 372,
          "Min": 372,
          "TimeRatio": 0.01480597014925373,
          "Total": 372
        }
      }
    }
  ]
}
