{
  "Finalized": "2019-11-13T14:02:00.946",
  "Initialized": "2019-11-13T14:01:50.066",
  "Name": "",
  "Ranks": [
    {
      "Finalized": "2019-11-13T14:02:00.946",
      "Initialized": "2019-11-13T14:01:50.066",
      "StateChanges": [
        {
          "Name": "_GLOBAL",
          "State": 1,
          "Timestamp": 0
        },
        {
          "Name": "_GLOBAL",
          "State": 0,
          "Timestamp": 10880
        },
        {
          "Name": "advance",
          "State": 1,
          "Timestamp": 484
        },
        {
          "Name": "advance",
          "State": 0,
          "Timestamp": 630
        },
        {
          "Name": "advance",
          "State": 1,
          "Timestamp": 770
        },
        {
          "Name": "advance",
          "State": 0,
          "Timestamp": 918
        },
        {
          "Name": "advance",
          "State": 1,
          "Timestamp": 1045
        },
        {
          "Name": "advance",
          "State": 0,
          "Timestamp": 1191
        },
        {
          "Name": "advance",
          "State": 1,
          "Timestamp": 1314
        },
        {
          "Name": "advance",
          "State": 0,
          "Timestamp": 1460
        },
        {
          "Name": "advance",
          "State": 1,
          "Timestamp": 1584
        },
        {
          "Name": "advance",
          "State": 0,
          "Timestamp": 1730
        },
        {
          "Name": "advance",
          "State": 1,
          "Timestamp": 1856
        },
        {
          "Name": "advance",
          "State": 0,
          "Timestamp": 2004
        },
        {
          "Name": "advance",
          "State": 1,
          "Timestamp": 2130
        },
        {
          "Name": "advance",
          "State": 0,
          "Timestamp": 2277
        },
        {
          "Name": "advance",
          "State": 1,
          "Timestamp": 2400
        },
        {
          "Name": "advance",
          "State": 0,
          "Timestamp": 2546
        },
        {
          "Name": "advance",
          "State": 1,
          "Timestamp": 2670
        },
        {
          "Name": "advance",
          "State": 0,
          "Timestamp": 2819
        },
        {
          "Name": "advance",
          "State": 1,
          "Timestamp": 2942
        },
        {
          "Name": "advance",
          "State": 0,
          "Timestamp": 3093
        },
        {
          "Name": "advance",
          "State": 1,
          "Timestamp": 3216
        },
        {
          "Name": "advance",
          "State": 0,
          "Timestamp": 3363
        },
        {
          "Name": "advance",
          "State": 1,
          "Timestamp": 3486
        },
        {
          "Name": "advance",
          "State": 0,
          "Timestamp": 3633
        },
        {
          "Name": "advance",
          "State": 1,
          "Timestamp": 3756
        },
        {
          "Name": "advance",
          "State": 0,
          "Timestamp": 3903
        },
        {
          "Name": "advance",
          "State": 1,
          "Timestamp": 4027
        },
        {
          "Name": "advance",
          "State": 0,
          "Timestamp": 4173
        },
        {
          "Name": "advance",
          "State": 1,
          "Timestamp": 4297
        },
        {
          "Name": "advance",
          "State": 0,
          "Timestamp": 4444
        },
        {
          "Name": "advance",
          "State": 1,
          "Timestamp": 4567
        },
        {
          "Name": "advance",
          "State": 0,
          "Timestamp": 4714
        },
        {
          "Name": "advance",
          "State": 1,
          "Timestamp": 4840
        },
        {
          "Name": "advance",
          "State": 0,
          "Timestamp": 4986
        },
        {
          "Name": "advance",
          "State": 1,
          "Timestamp": 5109
        },
        {
          "Name": "advance",
          "State": 0,
          "Timestamp": 5256
        },
        {
          "Name": "advance",
          "State": 1,
          "Timestamp": 5378
        },
        {
          "Name": "advance",
          "State": 0,
          "Timestamp": 5536
        },
        {
          "Name": "advance",
          "State": 1,
          "Timestamp": 5670
        },
        {
          "Name": "advance",
          "State": 0,
          "Timestamp": 5819
        },
        {
          "Name": "advance",
          "State": 1,
          "Timestamp": 5944
        },
        {
          "Name": "advance",
          "State": 0,
          "Timestamp": 6094
        },
        {
          "Name": "advance",
          "State": 1,
          "Timestamp": 6219
        },
        {
          "Name": "advance",
          "State": 0,
          "Timestamp": 6367
        },
        {
          "Name": "advance",
          "State": 1,
          "Timestamp": 6492
        },
        {
          "Name": "advance",
          "State": 0,
          "Timestamp": 6639
        },
        {
          "Name": "advance",
          "State": 1,
          "Timestamp": 6765
        },
        {
          "Name": "advance",
          "State": 0,
          "Timestamp": 6912
        },
        {
          "Name": "advance",
          "State": 1,
          "Timestamp": 7036
        },
        {
          "Name": "advance",
          "State": 0,
          "Timestamp": 7183
        },
        {
          "Name": "advance",
          "State": 1,
          "Timestamp": 7308
        },
        {
          "Name": "advance",
          "State": 0,
          "Timestamp": 7455
        },
        {
          "Name": "advance",
          "State": 1,
          "Timestamp": 7580
        },
        {
          "Name": "advance",
          "State": 0,
          "Timestamp": 7727
        },
        {
          "Name": "advance",
          "State": 1,
          "Timestamp": 7852
        },
        {
          "Name": "advance",
          "State": 0,
          "Timestamp": 8000
        },
        {
          "Name": "advance",
          "State": 1,
          "Timestamp": 8125
        },
        {
          "Name": "advance",
          "State": 0,
          "Timestamp": 8273
        },
        {
          "Name": "advance",
          "State": 1,
          "Timestamp": 8398
        },
        {
          "Name": "advance",
          "State": 0,
          "Timestamp": 8545
        },
        {
          "Name": "advance",
          "State": 1,
          "Timestamp": 8670
        },
        {
          "Name": "advance",
          "State": 0,
          "Timestamp": 8819
        },
        {
          "Name": "advance",
          "State": 1,
          "Timestamp": 8945
        },
        {
          "Name": "advance",
          "State": 0,
          "Timestamp": 9092
        },
        {
          "Name": "advance",
          "State": 1,
          "Timestamp": 9216
        },
        {
          "Name": "advance",
          "State": 0,
          "Timestamp": 9363
        },
        {
          "Name": "advance",
          "State": 1,
          "Timestamp": 9487
        },
        {
          "Name": "advance",
          "State": 0,
          "Timestamp": 9634
        },
        {
          "Name": "advance",
          "State": 1,
          "Timestamp": 9757
        },
        {
          "Name": "advance",
          "State": 0,
          "Timestamp": 9907
        },
        {
          "Name": "advance",
          "State": 1,
          "Timestamp": 10031
        },
        {
          "Name": "advance",
          "State": 0,
          "Timestamp": 10180
        },
        {
          "Name": "advance",
          "State": 1,
          "Timestamp": 10304
        },
        {
          "Name": "advance",
          "State": 0,
          "Timestamp": 10451
        },
        {
          "Name": "advance",
          "State": 1,
          "Timestamp": 10577
        },
        {
          "Name": "advance",
          "State": 0,
          "Timestamp": 10727
        },
        {
          "Name": "advance",
          "State": 1,
          "Timestamp": 10851
        },
        {
          "Name": "advance",
          "State": 0,
          "Timestamp": 10851
        },
        {
          "Name": "advance/cpl.computeQuasiNewtonUpdate",
          "State": 1,
          "Timestamp": 484
        },
        {
          "Name": "advance/cpl.computeQuasiNewtonUpdate",
          "State": 0,
          "Timestamp": 484
        },
        {
          "Name": "advance/cpl.computeQuasiNewtonUpdate",
          "State": 1,
          "Timestamp": 771
        },
        {
          "Name": "advance/cpl.computeQuasiNewtonUpdate",
          "State": 0,
          "Timestamp": 771
        },
        {
          "Name": "advance/cpl.computeQuasiNewtonUpdate",
          "State": 1,
          "Timestamp": 1045
        },
        {
          "Name": "advance/cpl.computeQuasiNewtonUpdate",
          "State": 0,
          "Timestamp": 1045
        },
        {
          "Name": "advance/cpl.computeQuasiNewtonUpdate",
          "State": 1,
          "Timestamp": 1314
        },
        {
          "Name": "advance/cpl.computeQuasiNewtonUpdate",
          "State": 0,
          "Timestamp": 1314
        },
        {
          "Name": "advance/cpl.computeQuasiNewtonUpdate",
          "State": 1,
          "Timestamp": 1584
        },
        {
          "Name": "advance/cpl.computeQuasiNewtonUpdate",
          "State": 0,
          "Timestamp": 1584
        },
        {
          "Name": "advance/cpl.computeQuasiNewtonUpdate",
          "State": 1,
          "Timestamp": 1857
        },
        {
          "Name": "advance/cpl.computeQuasiNewtonUpdate",
          "State": 0,
          "Timestamp": 1857
        },
        {
          "Name": "advance/cpl.computeQuasiNewtonUpdate",
          "State": 1,
          "Timestamp": 2130
        },
        {
          "Name": "advance/cpl.computeQuasiNewtonUpdate",
          "State": 0,
          "Timestamp": 2130
        },
        {
          "Name": "advance/cpl.computeQuasiNewtonUpdate",
          "State": 1,
          "Timestamp": 2400
        },
        {
          "Name": "advance/cpl.computeQuasiNewtonUpdate",
          "State": 0,
          "Timestamp": 2400
        },
        {
          "Name": "advance/cpl.computeQuasiNewtonUpdate",
          "State": 1,
          "Timestamp": 2670
        },
        {
          "Name": "advance/cpl.computeQuasiNewtonUpdate",
          "State": 0,
          "Timestamp": 2670
        },
        {
          "Name": "advance/cpl.computeQuasiNewtonUpdate",
          "State": 1,
          "Timestamp": 2942
        },
        {
          "Name": "advance/cpl.computeQuasiNewtonUpdate",
          "State": 0,
          "Timestamp": 2942
        },
        {
          "Name": "advance/cpl.computeQuasiNewtonUpdate",
          "State": 1,
          "Timestamp": 3217
        },
        {
          "Name": "advance/cpl.computeQuasiNewtonUpdate",
          "State": 0,
          "Timestamp": 3217
        },
        {
          "Name": "advance/cpl.computeQuasiNewtonUpdate",
          "State": 1,
          "Timestamp": 3487
        },
        {
          "Name": "advance/cpl.computeQuasiNewtonUpdate",
          "State": 0,
          "Timestamp": 3487
        },
        {
          "Name": "advance/cpl.computeQuasiNewtonUpdate",
          "State": 1,
          "Timestamp": 3756
        },
        {
          "Name": "advance/cpl.computeQuasiNewtonUpdate",
          "State": 0,
          "Timestamp": 3756
        },
        {
          "Name": "advance/cpl.computeQuasiNewtonUpdate",
          "State": 1,
          "Timestamp": 4027
        },
        {
          "Name": "advance/cpl.computeQuasiNewtonUpdate",
          "State": 0,
          "Timestamp": 4027
        },
        {
          "Name": "advance/cpl.computeQuasiNewtonUpdate",
          "State": 1,
          "Timestamp": 4297
        },
        {
          "Name": "advance/cpl.computeQuasiNewtonUpdate",
          "State": 0,
          "Timestamp": 4297
        },
        {
          "Name": "advance/cpl.computeQuasiNewtonUpdate",
          "State": 1,
          "Timestamp": 4567
        },
        {
          "Name": "advance/cpl.computeQuasiNewtonUpdate",
          "State": 0,
          "Timestamp": 4567
        },
        {
          "Name": "advance/cpl.computeQuasiNewtonUpdate",
          "State": 1,
          "Timestamp": 4840
        },
        {
          "Name": "advance/cpl.computeQuasiNewtonUpdate",
          "State": 0,
          "Timestamp": 4840
        },
        {
          "Name": "advance/cpl.computeQuasiNewtonUpdate",
          "State": 1,
          "Timestamp": 5109
        },
        {
          "Name": "advance/cpl.computeQuasiNewtonUpdate",
          "State": 0,
          "Timestamp": 5109
        },
        {
          "Name": "advance/cpl.computeQuasiNewtonUpdate",
          "State": 1,
          "Timestamp": 5670
        },
        {
          "Name": "advance/cpl.computeQuasiNewtonUpdate",
          "State": 0,
          "Timestamp": 5670
        },
        {
          "Name": "advance/cpl.computeQuasiNewtonUpdate",
          "State": 1,
          "Timestamp": 5944
        },
        {
          "Name": "advance/cpl.computeQuasiNewtonUpdate",
          "State": 0,
          "Timestamp": 5944
        },
        {
          "Name": "advance/cpl.computeQuasiNewtonUpdate",
          "State": 1,
          "Timestamp": 6219
        },
        {
          "Name": "advance/cpl.computeQuasiNewtonUpdate",
          "State": 0,
          "Timestamp": 6219
        },
        {
          "Name": "advance/cpl.computeQuasiNewtonUpdate",
          "State": 1,
          "Timestamp": 6492
        },
        {
          "Name": "advance/cpl.computeQuasiNewtonUpdate",
          "State": 0,
          "Timestamp": 6492
        },
        {
          "Name": "advance/cpl.computeQuasiNewtonUpdate",
          "State": 1,
          "Timestamp": 6765
        },
        {
          "Name": "advance/cpl.computeQuasiNewtonUpdate",
          "State": 0,
          "Timestamp": 6765
        },
        {
          "Name": "advance/cpl.computeQuasiNewtonUpdate",
          "State": 1,
          "Timestamp": 7036
        },
        {
          "Name": "advance/cpl.computeQuasiNewtonUpdate",
          "State": 0,
          "Timestamp": 7037
        },
        {
          "Name": "advance/cpl.computeQuasiNewtonUpdate",
          "State": 1,
          "Timestamp": 7308
        },
        {
          "Name": "advance/cpl.computeQuasiNewtonUpdate",
          "State": 0,
          "Timestamp": 7308
        },
        {
          "Name": "advance/cpl.computeQuasiNewtonUpdate",
          "State": 1,
          "Timestamp": 7580
        },
        {
          "Name": "advance/cpl.computeQuasiNewtonUpdate",
          "State": 0,
          "Timestamp": 7580
        },
        {
          "Name": "advance/cpl.computeQuasiNewtonUpdate",
          "State": 1,
          "Timestamp": 7852
        },
        {
          "Name": "advance/cpl.computeQuasiNewtonUpdate",
          "State": 0,
          "Timestamp": 7852
        },
        {
          "Name": "advance/cpl.computeQuasiNewtonUpdate",
          "State": 1,
          "Timestamp": 8125
        },
        {
          "Name": "advance/cpl.computeQuasiNewtonUpdate",
          "State": 0,
          "Timestamp": 8125
        },
        {
          "Name": "advance/cpl.computeQuasiNewtonUpdate",
          "State": 1,
          "Timestamp": 8398
        },
        {
          "Name": "advance/cpl.computeQuasiNewtonUpdate",
          "State": 0,
          "Timestamp": 8398
        },
        {
          "Name": "advance/cpl.computeQuasiNewtonUpdate",
          "State": 1,
          "Timestamp": 8670
        },
        {
          "Name": "advance/cpl.computeQuasiNewtonUpdate",
          "State": 0,
          "Timestamp": 8670
        },
        {
          "Name": "advance/cpl.computeQuasiNewtonUpdate",
          "State": 1,
          "Timestamp": 8945
        },
        {
          "Name": "advance/cpl.computeQuasiNewtonUpdate",
          "State": 0,
          "Timestamp": 8945
        },
        {
          "Name": "advance/cpl.computeQuasiNewtonUpdate",
          "State": 1,
          "Timestamp": 9216
        },
        {
          "Name": "advance/cpl.computeQuasiNewtonUpdate",
          "State": 0,
          "Timestamp": 9216
        },
        {
          "Name": "advance/cpl.computeQuasiNewtonUpdate",
          "State": 1,
          "Timestamp": 9487
        },
        {
          "Name": "advance/cpl.computeQuasiNewtonUpdate",
          "State": 0,
          "Timestamp": 9487
        },
        {
          "Name": "advance/cpl.computeQuasiNewtonUpdate",
          "State": 1,
          "Timestamp": 9757
        },
        {
          "Name": "advance/cpl.computeQuasiNewtonUpdate",
          "State": 0,
          "Timestamp": 9758
        },
        {
          "Name": "advance/cpl.computeQuasiNewtonUpdate",
          "State": 1,
          "Timestamp": 10032
        },
        {
          "Name": "advance/cpl.computeQuasiNewtonUpdate",
          "State": 0,
          "Timestamp": 10032
        },
        {
          "Name": "advance/cpl.computeQuasiNewtonUpdate",
          "State": 1,
          "Timestamp": 10304
        },
        {
          "Name": "advance/cpl.computeQuasiNewtonUpdate",
          "State": 0,
          "Timestamp": 10304
        },
        {
          "Name": "advance/cpl.computeQuasiNewtonUpdate",
          "State": 1,
          "Timestamp": 10577
        },
        {
          "Name": "advance/cpl.computeQuasiNewtonUpdate",
          "State": 0,
          "Timestamp": 10577
        },
        {
          "Name": "configure",
          "State": 1,
          "Timestamp": 0
        },
        {
          "Name": "configure",
          "State": 0,
          "Timestamp": 0
        },
        {
          "Name": "finalize",
          "State": 1,
          "Timestamp": 10880
        },
        {
          "Name": "finalize",
          "State": 0,
          "Timestamp": 10880
        },
        {
          "Name": "initialize",
          "State": 1,
          "Timestamp": 4
        },
        {
          "Name": "initialize",
          "State": 0,
          "Timestamp": 6
        },
        {
          "Name": "initialize/m2n.acceptMasterConnection",
          "State": 1,
          "Timestamp": 4
        },
        {
          "Name": "initialize/m2n.acceptMasterConnection",
          "State": 0,
          "Timestamp": 6
        },
        {
          "Name": "initialize/m2n.acceptSlavesConnection",
          "State": 1,
          "Timestamp": 6
        },
        {
          "Name": "initialize/m2n.acceptSlavesConnection",
          "State": 0,
          "Timestamp": 6
        },
        {
          "Name": "initialize/partition.feedbackMesh.NeumannNodes",
          "State": 1,
          "Timestamp": 6
        },
        {
          "Name": "initialize/partition.feedbackMesh.NeumannNodes",
          "State": 0,
          "Timestamp": 6
        },
        {
          "Name": "initialize/partition.gatherMesh.NeumannNodes",
          "State": 1,
          "Timestamp": 6
        },
        {
          "Name": "initialize/partition.gatherMesh.NeumannNodes",
          "State": 0,
          "Timestamp": 6
        },
        {
          "Name": "initialize/partition.sendGlobalMesh.NeumannNodes",
          "State": 1,
          "Timestamp": 6
        },
        {
          "Name": "initialize/partition.sendGlobalMesh.NeumannNodes",
          "State": 0,
          "Timestamp": 6
        },
        {
          "Name": "initializeData",
          "State": 1,
          "Timestamp": 13
        },
        {
          "Name": "initializeData",
          "State": 0,
          "Timestamp": 323
        },
        {
          "Name": "solver.advance",
          "State": 1,
          "Timestamp": 630
        },
        {
          "Name": "solver.advance",
          "State": 0,
          "Timestamp": 770
        },
        {
          "Name": "solver.advance",
          "State": 1,
          "Timestamp": 918
        },
        {
          "Name": "solver.advance",
          "State": 0,
          "Timestamp": 1045
        },
        {
          "Name": "solver.advance",
          "State": 1,
          "Timestamp": 1191
        },
        {
          "Name": "solver.advance",
          "State": 0,
          "Timestamp": 1314
        },
        {
          "Name": "solver.advance",
          "State": 1,
          "Timestamp": 1460
        },
        {
          "Name": "solver.advance",
          "State": 0,
          "Timestamp": 1584
        },
        {
          "Name": "solver.advance",
          "State": 1,
          "Timestamp": 1730
        },
        {
          "Name": "solver.advance",
          "State": 0,
          "Timestamp": 1856
        },
        {
          "Name": "solver.advance",
          "State": 1,
          "Timestamp": 2004
        },
        {
          "Name": "solver.advance",
          "State": 0,
          "Timestamp": 2130
        },
        {
          "Name": "solver.advance",
          "State": 1,
          "Timestamp": 2277
        },
        {
          "Name": "solver.advance",
          "State": 0,
          "Timestamp": 2400
        },
        {
          "Name": "solver.advance",
          "State": 1,
          "Timestamp": 2546
        },
        {
          "Name": "solver.advance",
          "State": 0,
          "Timestamp": 2670
        },
        {
          "Name": "solver.advance",
          "State": 1,
          "Timestamp": 2819
        },
        {
          "Name": "solver.advance",
          "State": 0,
          "Timestamp": 2942
        },
        {
          "Name": "solver.advance",
          "State": 1,
          "Timestamp": 3093
        },
        {
          "Name": "solver.advance",
          "State": 0,
          "Timestamp": 3216
        },
        {
          "Name": "solver.advance",
          "State": 1,
          "Timestamp": 3363
        },
        {
          "Name": "solver.advance",
          "State": 0,
          "Timestamp": 3486
        },
        {
          "Name": "solver.advance",
          "State": 1,
          "Timestamp": 3633
        },
        {
          "Name": "solver.advance",
          "State": 0,
          "Timestamp": 3756
        },
        {
          "Name": "solver.advance",
          "State": 1,
          "Timestamp": 3903
        },
        {
          "Name": "solver.advance",
          "State": 0,
          "Timestamp": 4027
        },
        {
          "Name": "solver.advance",
          "State": 1,
          "Timestamp": 4173
        },
        {
          "Name": "solver.advance",
          "State": 0,
          "Timestamp": 4297
        },
        {
          "Name": "solver.advance",
          "State": 1,
          "Timestamp": 4444
        },
        {
          "Name": "solver.advance",
          "State": 0,
          "Timestamp": 4567
        },
        {
          "Name": "solver.advance",
          "State": 1,
          "Timestamp": 4714
        },
        {
          "Name": "solver.advance",
          "State": 0,
          "Timestamp": 4840
        },
        {
          "Name": "solver.advance",
          "State": 1,
          "Timestamp": 4986
        },
        {
          "Name": "solver.advance",
          "State": 0,
          "Timestamp": 5109
        },
        {
          "Name": "solver.advance",
          "State": 1,
          "Timestamp": 5256
        },
        {
          "Name": "solver.advance",
          "State": 0,
          "Timestamp": 5378
        },
        {
          "Name": "solver.advance",
          "State": 1,
          "Timestamp": 5536
        },
        {
          "Name": "solver.advance",
          "State": 0,
          "Timestamp": 5670
        },
        {
          "Name": "solver.advance",
          "State": 1,
          "Timestamp": 5819
        },
        {
          "Name": "solver.advance",
          "State": 0,
          "Timestamp": 5944
        },
        {
          "Name": "solver.advance",
          "State": 1,
          "Timestamp": 6094
        },
        {
          "Name": "solver.advance",
          "State": 0,
          "Timestamp": 6219
        },
        {
          "Name": "solver.advance",
          "State": 1,
          "Timestamp": 6367
        },
        {
          "Name": "solver.advance",
          "State": 0,
          "Timestamp": 6492
        },
        {
          "Name": "solver.advance",
          "State": 1,
          "Timestamp": 6639
        },
        {
          "Name": "solver.advance",
          "State": 0,
          "Timestamp": 6765
        },
        {
          "Name": "solver.advance",
          "State": 1,
          "Timestamp": 6912
        },
        {
          "Name": "solver.advance",
          "State": 0,
          "Timestamp": 7036
        },
        {
          "Name": "solver.advance",
          "State": 1,
          "Timestamp": 7183
        },
        {
          "Name": "solver.advance",
          "State": 0,
          "Timestamp": 7308
        },
        {
          "Name": "solver.advance",
          "State": 1,
          "Timestamp": 7455
        },
        {
          "Name": "solver.advance",
          "State": 0,
          "Timestamp": 7580
        },
        {
          "Name": "solver.advance",
          "State": 1,
          "Timestamp": 7727
        },
        {
          "Name": "solver.advance",
          "State": 0,
          "Timestamp": 7852
        },
        {
          "Name": "solver.advance",
          "State": 1,
          "Timestamp": 8000
        },
        {
          "Name": "solver.advance",
          "State": 0,
          "Timestamp": 8125
        },
        {
          "Name": "solver.advance",
          "State": 1,
          "Timestamp": 8273
        },
        {
          "Name": "solver.advance",
          "State": 0,
          "Timestamp": 8398
        },
        {
          "Name": "solver.advance",
          "State": 1,
          "Timestamp": 8545
        },
        {
          "Name": "solver.advance",
          "State": 0,
          "Timestamp": 8670
        },
        {
          "Name": "solver.advance",
          "State": 1,
          "Timestamp": 8819
        },
        {
          "Name": "solver.advance",
          "State": 0,
          "Timestamp": 8945
        },
        {
          "Name": "solver.advance",
          "State": 1,
          "Timestamp": 9092
        },
        {
          "Name": "solver.advance",
          "State": 0,
          "Timestamp": 9216
        },
        {
          "Name": "solver.advance",
          "State": 1,
          "Timestamp": 9363
        },
        {
          "Name": "solver.advance",
          "State": 0,
          "Timestamp": 9487
        },
        {
          "Name": "solver.advance",
          "State": 1,
          "Timestamp": 9634
        },
        {
          "Name": "solver.advance",
          "State": 0,
          "Timestamp": 9757
        },
        {
          "Name": "solver.advance",
          "State": 1,
          "Timestamp": 9907
        },
        {
          "Name": "solver.advance",
          "State": 0,
          "Timestamp": 10031
        },
        {
          "Name": "solver.advance",
          "State": 1,
          "Timestamp": 10180
        },
        {
          "Name": "solver.advance",
          "State": 0,
          "Timestamp": 10304
        },
        {
          "Name": "solver.advance",
          "State": 1,
          "Timestamp": 10451
        },
        {
          "Name": "solver.advance",
          "State": 0,
          "Timestamp": 10577
        },
        {
          "Name": "solver.advance",
          "State": 1,
          "Timestamp": 10727
        },
        {
          "Name": "solver.advance",
          "State": 0,
          "Timestamp": 10851
        },
        {
          "Name": "solver.advance",
          "State": 1,
          "Timestamp": 10851
        },
        {
          "Name": "solver.advance",
          "State": 0,
          "Timestamp": 10880
        },
        {
          "Name": "solver.initialize",
          "State": 1,
          "Timestamp": 0
        },
        {
          "Name": "solver.initialize",
          "State": 2,
          "Timestamp": 4
        },
        {
          "Name": "solver.initialize",
          "State": 1,
          "Timestamp": 6
        },
        {
          "Name": "solver.initialize",
          "State": 2,
          "Timestamp": 13
        },
        {
          "Name": "solver.initialize",
          "State": 1,
          "Timestamp": 323
        },
        {
          "Name": "solver.initialize",
          "State": 0,
          "Timestamp": 484
        }
      ],
      "Timings": {
        "_GLOBAL": {
          "Count": 1,
          "Data": {},
          "Max": 10880,
          "Min": 10880,
          "TimeRatio": 1.0,
          "Total": 10880
        },
        "advance": {
          "Count": 39,
          "Data": {},
          "Max": 157,
          "Min": 0,
          "TimeRatio": 0.5162683823529411,
          "Total": 5617
        },
        "advance/cpl.computeQuasiNewtonUpdate": {
          "Count": 37,
          "Data": {},
          "Max": 0,
          "Min": 0,
          "TimeRatio": 0.0,
          "Total": 0
        },
        "configure": {
          "Count": 1,
          "Data": {},
          "Max": 0,
          "Min": 0,
          "TimeRatio": 0.0,
          "Total": 0
        },
        "finalize": {
          "Count": 1,
          "Data": {},
          "Max": 0,
          "Min": 0,
          "TimeRatio": 0.0,
          "Total": 0
        },
        "initialize": {
          "Count": 1,
          "Data": {},
          "Max": 2,
          "Min": 2,
          "TimeRatio": 0.0001838235294117647,
          "Total": 2
        },
        "initialize/m2n.acceptMasterConnection": {
          "Count": 1,
          "Data": {},
          "Max": 2,
          "Min": 2,
          "TimeRatio": 0.0001838235294117647,
          "Total": 2
        },
        "initialize/m2n.acceptSlavesConnection": {
          "Count": 1,
          "Data": {},
          "Max": 0,
          "Min": 0,
          "TimeRatio": 0.0,
          "Total": 0
        },
        "initialize/partition.feedbackMesh.NeumannNodes": {
          "Count": 1,
          "Data": {},
          "Max": 0,
          "Min": 0,
          "TimeRatio": 0.0,
          "Total": 0
        },
        "initialize/partition.gatherMesh.NeumannNodes": {
          "Count": 1,
          "Data": {},
          "Max": 0,
          "Min": 0,
          "TimeRatio": 0.0,
          "Total": 0
        },
        "initialize/partition.sendGlobalMesh.NeumannNodes": {
          "Count": 1,
          "Data": {},
          "Max": 0,
          "Min": 0,
          "TimeRatio": 0.0,
          "Total": 0
        },
        "initializeData": {
          "Count": 1,
          "Data": {},
          "Max": 309,
          "Min": 309,
          "TimeRatio": 0.028400735294117647,
          "Total": 309
        },
        "solver.advance": {
          "Count": 39,
          "Data": {},
          "Max": 140,
          "Min": 28,
          "TimeRatio": 0.4391544117647059,
          "Total": 4778
        },
        "solver.initialize": {
          "Count": 1,
          "Data": {},
          "Max": 171,
          "Min": 171,
          "TimeRatio": 0.015716911764705882,
          "Total": 171
        }
      }
    }
  ]
}
