{
  "Finalized": "2019-11-13T21:30:51.927",
  "Initialized": "2019-11-13T21:30:41.918",
  "Name": "",
  "Ranks": [
    {
      "Finalized": "2019-11-13T21:30:51.927",
      "Initialized": "2019-11-13T21:30:41.918",
      "StateChanges": [
        {
          "Name": "_GLOBAL",
          "State": 1,
          "Timestamp": 0
        },
        {
          "Name": "_GLOBAL",
          "State": 0,
          "Timestamp": 10008
        },
        {
          "Name": "advance",
          "State": 1,
          "Timestamp": 428
        },
        {
          "Name": "advance",
          "State": 0,
          "Timestamp": 573
        },
        {
          "Name": "advance",
          "State": 1,
          "Timestamp": 618
        },
        {
          "Name": "advance",
          "State": 0,
          "Timestamp": 762
        },
        {
          "Name": "advance",
          "State": 1,
          "Timestamp": 808
        },
        {
          "Name": "advance",
          "State": 0,
          "Timestamp": 956
        },
        {
          "Name": "advance",
          "State": 1,
          "Timestamp": 1019
        },
        {
          "Name": "advance",
          "State": 0,
          "Timestamp": 1165
        },
        {
          "Name": "advance",
          "State": 1,
          "Timestamp": 1212
        },
        {
          "Name": "advance",
          "State": 0,
          "Timestamp": 1356
        },
        {
          "Name": "advance",
          "State": 1,
          "Timestamp": 1403
        },
        {
          "Name": "advance",
          "State": 0,
          "Timestamp": 1548
        },
        {
          "Name": "advance",
          "State": 1,
          "Timestamp": 1594
        },
        {
          "Name": "advance",
          "State": 0,
          "Timestamp": 1739
        },
        {
          "Name": "advance",
          "State": 1,
          "Timestamp": 1785
        },
        {
          "Name": "advance",
          "State": 0,
          "Timestamp": 1930
        },
        {
          "Name": "advance",
          "State": 1,
          "Timestamp": 1977
        },
        {
          "Name": "advance",
          "State": 0,
          "Timestamp": 2123
        },
        {
          "Name": "advance",
          "State": 1,
          "Timestamp": 2169
        },
        {
          "Name": "advance",
          "State": 0,
          "Timestamp": 2316
        },
        {
          "Name": "advance",
          "State": 1,
          "Timestamp": 2364
        },
        {
          "Name": "advance",
          "State": 0,
          "Timestamp": 2521
        },
        {
          "Name": "advance",
          "State": 1,
          "Timestamp": 2578
        },
        {
          "Name": "advance",
          "State": 0,
          "Timestamp": 2723
        },
        {
          "Name": "advance",
          "State": 1,
          "Timestamp": 2769
        },
        {
          "Name": "advance",
          "State": 0,
          "Timestamp": 2916
        },
        {
          "Name": "advance",
          "State": 1,
          "Timestamp": 2963
        },
        {
          "Name": "advance",
          "State": 0,
          "Timestamp": 3108
        },
        {
          "Name": "advance",
          "State": 1,
          "Timestamp": 3155
        },
        {
          "Name": "advance",
          "State": 0,
          "Timestamp": 3300
        },
        {
          "Name": "advance",
          "State": 1,
          "Timestamp": 3347
        },
        {
          "Name": "advance",
          "State": 0,
          "Timestamp": 3492
        },
        {
          "Name": "advance",
          "State": 1,
          "Timestamp": 3539
        },
        {
          "Name": "advance",
          "State": 0,
          "Timestamp": 3684
        },
        {
          "Name": "advance",
          "State": 1,
          "Timestamp": 3731
        },
        {
          "Name": "advance",
          "State": 0,
          "Timestamp": 3876
        },
        {
          "Name": "advance",
          "State": 1,
          "Timestamp": 3924
        },
        {
          "Name": "advance",
          "State": 0,
          "Timestamp": 4069
        },
        {
          "Name": "advance",
          "State": 1,
          "Timestamp": 4115
        },
        {
          "Name": "advance",
          "State": 0,
          "Timestamp": 4261
        },
        {
          "Name": "advance",
          "State": 1,
          "Timestamp": 4307
        },
        {
          "Name": "advance",
          "State": 0,
          "Timestamp": 4465
        },
        {
          "Name": "advance",
          "State": 1,
          "Timestamp": 4523
        },
        {
          "Name": "advance",
          "State": 0,
          "Timestamp": 4670
        },
        {
          "Name": "advance",
          "State": 1,
          "Timestamp": 4717
        },
        {
          "Name": "advance",
          "State": 0,
          "Timestamp": 4866
        },
        {
          "Name": "advance",
          "State": 1,
          "Timestamp": 4912
        },
        {
          "Name": "advance",
          "State": 0,
          "Timestamp": 5059
        },
        {
          "Name": "advance",
          "State": 1,
          "Timestamp": 5105
        },
        {
          "Name": "advance",
          "State": 0,
          "Timestamp": 5253
        },
        {
          "Name": "advance",
          "State": 1,
          "Timestamp": 5299
        },
        {
          "Name": "advance",
          "State": 0,
          "Timestamp": 5446
        },
        {
          "Name": "advance",
          "State": 1,
          "Timestamp": 5492
        },
        {
          "Name": "advance",
          "State": 0,
          "Timestamp": 5640
        },
        {
          "Name": "advance",
          "State": 1,
          "Timestamp": 5686
        },
        {
          "Name": "advance",
          "State": 0,
          "Timestamp": 5833
        },
        {
          "Name": "advance",
          "State": 1,
          "Timestamp": 5881
        },
        {
          "Name": "advance",
          "State": 0,
          "Timestamp": 6028
        },
        {
          "Name": "advance",
          "State": 1,
          "Timestamp": 6074
        },
        {
          "Name": "advance",
          "State": 0,
          "Timestamp": 6222
        },
        {
          "Name": "advance",
          "State": 1,
          "Timestamp": 6267
        },
        {
          "Name": "advance",
          "State": 0,
          "Timestamp": 6426
        },
        {
          "Name": "advance",
          "State": 1,
          "Timestamp": 6484
        },
        {
          "Name": "advance",
          "State": 0,
          "Timestamp": 6631
        },
        {
          "Name": "advance",
          "State": 1,
          "Timestamp": 6677
        },
        {
          "Name": "advance",
          "State": 0,
          "Timestamp": 6824
        },
        {
          "Name": "advance",
          "State": 1,
          "Timestamp": 6871
        },
        {
          "Name": "advance",
          "State": 0,
          "Timestamp": 7017
        },
        {
          "Name": "advance",
          "State": 1,
          "Timestamp": 7065
        },
        {
          "Name": "advance",
          "State": 0,
          "Timestamp": 7213
        },
        {
          "Name": "advance",
          "State": 1,
          "Timestamp": 7259
        },
        {
          "Name": "advance",
          "State": 0,
          "Timestamp": 7406
        },
        {
          "Name": "advance",
          "State": 1,
          "Timestamp": 7452
        },
        {
          "Name": "advance",
          "State": 0,
          "Timestamp": 7599
        },
        {
          "Name": "advance",
          "State": 1,
          "Timestamp": 7645
        },
        {
          "Name": "advance",
          "State": 0,
          "Timestamp": 7791
        },
        {
          "Name": "advance",
          "State": 1,
          "Timestamp": 7837
        },
        {
          "Name": "advance",
          "State": 0,
          "Timestamp": 7983
        },
        {
          "Name": "advance",
          "State": 1,
          "Timestamp": 8029
        },
        {
          "Name": "advance",
          "State": 0,
          "Timestamp": 8175
        },
        {
          "Name": "advance",
          "State": 1,
          "Timestamp": 8221
        },
        {
          "Name": "advance",
          "State": 0,
          "Timestamp": 8378
        },
        {
          "Name": "advance",
          "State": 1,
          "Timestamp": 8435
        },
        {
          "Name": "advance",
          "State": 0,
          "Timestamp": 8584
        },
        {
          "Name": "advance",
          "State": 1,
          "Timestamp": 8630
        },
        {
          "Name": "advance",
          "State": 0,
          "Timestamp": 8776
        },
        {
          "Name": "advance",
          "State": 1,
          "Timestamp": 8823
        },
        {
          "Name": "advance",
          "State": 0,
          "Timestamp": 8971
        },
        {
          "Name": "advance",
          "State": 1,
          "Timestamp": 9017
        },
        {
          "Name": "advance",
          "State": 0,
          "Timestamp": 9163
        },
        {
          "Name": "advance",
          "State": 1,
          "Timestamp": 9209
        },
        {
          "Name": "advance",
          "State": 0,
          "Timestamp": 9355
        },
        {
          "Name": "advance",
          "State": 1,
          "Timestamp": 9401
        },
        {
          "Name": "advance",
          "State": 0,
          "Timestamp": 9548
        },
        {
          "Name": "advance",
          "State": 1,
          "Timestamp": 9594
        },
        {
          "Name": "advance",
          "State": 0,
          "Timestamp": 9740
        },
        {
          "Name": "advance",
          "State": 1,
          "Timestamp": 9786
        },
        {
          "Name": "advance",
          "State": 0,
          "Timestamp": 9933
        },
        {
          "Name": "advance",
          "State": 1,
          "Timestamp": 9979
        },
        {
          "Name": "advance",
          "State": 0,
          "Timestamp": 9980
        },
        {
          "Name": "advance/cpl.computeQuasiNewtonUpdate",
          "State": 1,
          "Timestamp": 428
        },
        {
          "Name": "advance/cpl.computeQuasiNewtonUpdate",
          "State": 0,
          "Timestamp": 428
        },
        {
          "Name": "advance/cpl.computeQuasiNewtonUpdate",
          "State": 1,
          "Timestamp": 618
        },
        {
          "Name": "advance/cpl.computeQuasiNewtonUpdate",
          "State": 0,
          "Timestamp": 618
        },
        {
          "Name": "advance/cpl.computeQuasiNewtonUpdate",
          "State": 1,
          "Timestamp": 808
        },
        {
          "Name": "advance/cpl.computeQuasiNewtonUpdate",
          "State": 0,
          "Timestamp": 808
        },
        {
          "Name": "advance/cpl.computeQuasiNewtonUpdate",
          "State": 1,
          "Timestamp": 1019
        },
        {
          "Name": "advance/cpl.computeQuasiNewtonUpdate",
          "State": 0,
          "Timestamp": 1019
        },
        {
          "Name": "advance/cpl.computeQuasiNewtonUpdate",
          "State": 1,
          "Timestamp": 1212
        },
        {
          "Name": "advance/cpl.computeQuasiNewtonUpdate",
          "State": 0,
          "Timestamp": 1212
        },
        {
          "Name": "advance/cpl.computeQuasiNewtonUpdate",
          "State": 1,
          "Timestamp": 1403
        },
        {
          "Name": "advance/cpl.computeQuasiNewtonUpdate",
          "State": 0,
          "Timestamp": 1403
        },
        {
          "Name": "advance/cpl.computeQuasiNewtonUpdate",
          "State": 1,
          "Timestamp": 1594
        },
        {
          "Name": "advance/cpl.computeQuasiNewtonUpdate",
          "State": 0,
          "Timestamp": 1594
        },
        {
          "Name": "advance/cpl.computeQuasiNewtonUpdate",
          "State": 1,
          "Timestamp": 1785
        },
        {
          "Name": "advance/cpl.computeQuasiNewtonUpdate",
          "State": 0,
          "Timestamp": 1785
        },
        {
          "Name": "advance/cpl.computeQuasiNewtonUpdate",
          "State": 1,
          "Timestamp": 1977
        },
        {
          "Name": "advance/cpl.computeQuasiNewtonUpdate",
          "State": 0,
          "Timestamp": 1977
        },
        {
          "Name": "advance/cpl.computeQuasiNewtonUpdate",
          "State": 1,
          "Timestamp": 2169
        },
        {
          "Name": "advance/cpl.computeQuasiNewtonUpdate",
          "State": 0,
          "Timestamp": 2169
        },
        {
          "Name": "advance/cpl.computeQuasiNewtonUpdate",
          "State": 1,
          "Timestamp": 2578
        },
        {
          "Name": "advance/cpl.computeQuasiNewtonUpdate",
          "State": 0,
          "Timestamp": 2578
        },
        {
          "Name": "advance/cpl.computeQuasiNewtonUpdate",
          "State": 1,
          "Timestamp": 2770
        },
        {
          "Name": "advance/cpl.computeQuasiNewtonUpdate",
          "State": 0,
          "Timestamp": 2770
        },
        {
          "Name": "advance/cpl.computeQuasiNewtonUpdate",
          "State": 1,
          "Timestamp": 2963
        },
        {
          "Name": "advance/cpl.computeQuasiNewtonUpdate",
          "State": 0,
          "Timestamp": 2963
        },
        {
          "Name": "advance/cpl.computeQuasiNewtonUpdate",
          "State": 1,
          "Timestamp": 3155
        },
        {
          "Name": "advance/cpl.computeQuasiNewtonUpdate",
          "State": 0,
          "Timestamp": 3155
        },
        {
          "Name": "advance/cpl.computeQuasiNewtonUpdate",
          "State": 1,
          "Timestamp": 3347
        },
        {
          "Name": "advance/cpl.computeQuasiNewtonUpdate",
          "State": 0,
          "Timestamp": 3347
        },
        {
          "Name": "advance/cpl.computeQuasiNewtonUpdate",
          "State": 1,
          "Timestamp": 3539
        },
        {
          "Name": "advance/cpl.computeQuasiNewtonUpdate",
          "State": 0,
          "Timestamp": 3539
        },
        {
          "Name": "advance/cpl.computeQuasiNewtonUpdate",
          "State": 1,
          "Timestamp": 3731
        },
        {
          "Name": "advance/cpl.computeQuasiNewtonUpdate",
          "State": 0,
          "Timestamp": 3731
        },
        {
          "Name": "advance/cpl.computeQuasiNewtonUpdate",
          "State": 1,
          "Timestamp": 3924
        },
        {
          "Name": "advance/cpl.computeQuasiNewtonUpdate",
          "State": 0,
          "Timestamp": 3924
        },
        {
          "Name": "advance/cpl.computeQuasiNewtonUpdate",
          "State": 1,
          "Timestamp": 4116
        },
        {
          "Name": "advance/cpl.computeQuasiNewtonUpdate",
          "State": 0,
          "Timestamp": 4116
        },
        {
          "Name": "advance/cpl.computeQuasiNewtonUpdate",
          "State": 1,
          "Timestamp": 4523
        },
        {
          "Name": "advance/cpl.computeQuasiNewtonUpdate",
          "State": 0,
          "Timestamp": 4523
        },
        {
          "Name": "advance/cpl.computeQuasiNewtonUpdate",
          "State": 1,
          "Timestamp": 4718
        },
        {
          "Name": "advance/cpl.computeQuasiNewtonUpdate",
          "State": 0,
          "Timestamp": 4718
        },
        {
          "Name": "advance/cpl.computeQuasiNewtonUpdate",
          "State": 1,
          "Timestamp": 4913
        },
        {
          "Name": "advance/cpl.computeQuasiNewtonUpdate",
          "State": 0,
          "Timestamp": 4913
        },
        {
          "Name": "advance/cpl.computeQuasiNewtonUpdate",
          "State": 1,
          "Timestamp": 5106
        },
        {
          "Name": "advance/cpl.computeQuasiNewtonUpdate",
          "State": 0,
          "Timestamp": 5106
        },
        {
          "Name": "advance/cpl.computeQuasiNewtonUpdate",
          "State": 1,
          "Timestamp": 5299
        },
        {
          "Name": "advance/cpl.computeQuasiNewtonUpdate",
          "State": 0,
          "Timestamp": 5299
        },
        {
          "Name": "advance/cpl.computeQuasiNewtonUpdate",
          "State": 1,
          "Timestamp": 5492
        },
        {
          "Name": "advance/cpl.computeQuasiNewtonUpdate",
          "State": 0,
          "Timestamp": 5492
        },
        {
          "Name": "advance/cpl.computeQuasiNewtonUpdate",
          "State": 1,
          "Timestamp": 5686
        },
        {
          "Name": "advance/cpl.computeQuasiNewtonUpdate",
          "State": 0,
          "Timestamp": 5686
        },
        {
          "Name": "advance/cpl.computeQuasiNewtonUpdate",
          "State": 1,
          "Timestamp": 5881
        },
        {
          "Name": "advance/cpl.computeQuasiNewtonUpdate",
          "State": 0,
          "Timestamp": 5881
        },
        {
          "Name": "advance/cpl.computeQuasiNewtonUpdate",
          "State": 1,
          "Timestamp": 6074
        },
        {
          "Name": "advance/cpl.computeQuasiNewtonUpdate",
          "State": 0,
          "Timestamp": 6074
        },
        {
          "Name": "advance/cpl.computeQuasiNewtonUpdate",
          "State": 1,
          "Timestamp": 6484
        },
        {
          "Name": "advance/cpl.computeQuasiNewtonUpdate",
          "State": 0,
          "Timestamp": 6484
        },
        {
          "Name": "advance/cpl.computeQuasiNewtonUpdate",
          "State": 1,
          "Timestamp": 6677
        },
        {
          "Name": "advance/cpl.computeQuasiNewtonUpdate",
          "State": 0,
          "Timestamp": 6677
        },
        {
          "Name": "advance/cpl.computeQuasiNewtonUpdate",
          "State": 1,
          "Timestamp": 6871
        },
        {
          "Name": "advance/cpl.computeQuasiNewtonUpdate",
          "State": 0,
          "Timestamp": 6871
        },
        {
          "Name": "advance/cpl.computeQuasiNewtonUpdate",
          "State": 1,
          "Timestamp": 7065
        },
        {
          "Name": "advance/cpl.computeQuasiNewtonUpdate",
          "State": 0,
          "Timestamp": 7065
        },
        {
          "Name": "advance/cpl.computeQuasiNewtonUpdate",
          "State": 1,
          "Timestamp": 7259
        },
        {
          "Name": "advance/cpl.computeQuasiNewtonUpdate",
          "State": 0,
          "Timestamp": 7259
        },
        {
          "Name": "advance/cpl.computeQuasiNewtonUpdate",
          "State": 1,
          "Timestamp": 7452
        },
        {
          "Name": "advance/cpl.computeQuasiNewtonUpdate",
          "State": 0,
          "Timestamp": 7452
        },
        {
          "Name": "advance/cpl.computeQuasiNewtonUpdate",
          "State": 1,
          "Timestamp": 7645
        },
        {
          "Name": "advance/cpl.computeQuasiNewtonUpdate",
          "State": 0,
          "Timestamp": 7645
        },
        {
          "Name": "advance/cpl.computeQuasiNewtonUpdate",
          "State": 1,
          "Timestamp": 7837
        },
        {
          "Name": "advance/cpl.computeQuasiNewtonUpdate",
          "State": 0,
          "Timestamp": 7837
        },
        {
          "Name": "advance/cpl.computeQuasiNewtonUpdate",
          "State": 1,
          "Timestamp": 8029
        },
        {
          "Name": "advance/cpl.computeQuasiNewtonUpdate",
          "State": 0,
          "Timestamp": 8029
        },
        {
          "Name": "advance/cpl.computeQuasiNewtonUpdate",
          "State": 1,
          "Timestamp": 8435
        },
        {
          "Name": "advance/cpl.computeQuasiNewtonUpdate",
          "State": 0,
          "Timestamp": 8435
        },
        {
          "Name": "advance/cpl.computeQuasiNewtonUpdate",
          "State": 1,
          "Timestamp": 8630
        },
        {
          "Name": "advance/cpl.computeQuasiNewtonUpdate",
          "State": 0,
          "Timestamp": 8630
        },
        {
          "Name": "advance/cpl.computeQuasiNewtonUpdate",
          "State": 1,
          "Timestamp": 8823
        },
        {
          "Name": "advance/cpl.computeQuasiNewtonUpdate",
          "State": 0,
          "Timestamp": 8823
        },
        {
          "Name": "advance/cpl.computeQuasiNewtonUpdate",
          "State": 1,
          "Timestamp": 9017
        },
        {
          "Name": "advance/cpl.computeQuasiNewtonUpdate",
          "State": 0,
          "Timestamp": 9017
        },
        {
          "Name": "advance/cpl.computeQuasiNewtonUpdate",
          "State": 1,
          "Timestamp": 9210
        },
        {
          "Name": "advance/cpl.computeQuasiNewtonUpdate",
          "State": 0,
          "Timestamp": 9210
        },
        {
          "Name": "advance/cpl.computeQuasiNewtonUpdate",
          "State": 1,
          "Timestamp": 9401
        },
        {
          "Name": "advance/cpl.computeQuasiNewtonUpdate",
          "State": 0,
          "Timestamp": 9401
        },
        {
          "Name": "advance/cpl.computeQuasiNewtonUpdate",
          "State": 1,
          "Timestamp": 9594
        },
        {
          "Name": "advance/cpl.computeQuasiNewtonUpdate",
          "State": 0,
          "Timestamp": 9594
        },
        {
          "Name": "advance/cpl.computeQuasiNewtonUpdate",
          "State": 1,
          "Timestamp": 9786
        },
        {
          "Name": "advance/cpl.computeQuasiNewtonUpdate",
          "State": 0,
          "Timestamp": 9786
        },
        {
          "Name": "configure",
          "State": 1,
          "Timestamp": 0
        },
        {
          "Name": "configure",
          "State": 0,
          "Timestamp": 0
        },
        {
          "Name": "finalize",
          "State": 1,
          "Timestamp": 10008
        },
        {
          "Name": "finalize",
          "State": 0,
          "Timestamp": 10008
        },
        {
          "Name": "initialize",
          "State": 1,
          "Timestamp": 4
        },
        {
          "Name": "initialize",
          "State": 0,
          "Timestamp": 6
        },
        {
          "Name": "initialize/m2n.acceptMasterConnection",
          "State": 1,
          "Timestamp": 4
        },
        {
          "Name": "initialize/m2n.acceptMasterConnection",
          "State": 0,
          "Timestamp": 6
        },
        {
          "Name": "initialize/m2n.acceptSlavesConnection",
          "State": 1,
          "Timestamp": 6
        },
        {
          "Name": "initialize/m2n.acceptSlavesConnection",
          "State": 0,
          "Timestamp": 6
        },
        {
          "Name": "initialize/partition.feedbackMesh.NeumannNodes",
          "State": 1,
          "Timestamp": 6
        },
        {
          "Name": "initialize/partition.feedbackMesh.NeumannNodes",
          "State": 0,
          "Timestamp": 6
        },
        {
          "Name": "initialize/partition.gatherMesh.NeumannNodes",
          "State": 1,
          "Timestamp": 6
        },
        {
          "Name": "initialize/partition.gatherMesh.NeumannNodes",
          "State": 0,
          "Timestamp": 6
        },
        {
          "Name": "initialize/partition.sendGlobalMesh.NeumannNodes",
          "State": 1,
          "Timestamp": 6
        },
        {
          "Name": "initialize/partition.sendGlobalMesh.NeumannNodes",
          "State": 0,
          "Timestamp": 6
        },
        {
          "Name": "initializeData",
          "State": 1,
          "Timestamp": 9
        },
        {
          "Name": "initializeData",
          "State": 0,
          "Timestamp": 323
        },
        {
          "Name": "solver.advance",
          "State": 1,
          "Timestamp": 573
        },
        {
          "Name": "solver.advance",
          "State": 0,
          "Timestamp": 618
        },
        {
          "Name": "solver.advance",
          "State": 1,
          "Timestamp": 762
        },
        {
          "Name": "solver.advance",
          "State": 0,
          "Timestamp": 808
        },
        {
          "Name": "solver.advance",
          "State": 1,
          "Timestamp": 956
        },
        {
          "Name": "solver.advance",
          "State": 0,
          "Timestamp": 1019
        },
        {
          "Name": "solver.advance",
          "State": 1,
          "Timestamp": 1165
        },
        {
          "Name": "solver.advance",
          "State": 0,
          "Timestamp": 1212
        },
        {
          "Name": "solver.advance",
          "State": 1,
          "Timestamp": 1356
        },
        {
          "Name": "solver.advance",
          "State": 0,
          "Timestamp": 1403
        },
        {
          "Name": "solver.advance",
          "State": 1,
          "Timestamp": 1548
        },
        {
          "Name": "solver.advance",
          "State": 0,
          "Timestamp": 1594
        },
        {
          "Name": "solver.advance",
          "State": 1,
          "Timestamp": 1739
        },
        {
          "Name": "solver.advance",
          "State": 0,
          "Timestamp": 1785
        },
        {
          "Name": "solver.advance",
          "State": 1,
          "Timestamp": 1930
        },
        {
          "Name": "solver.advance",
          "State": 0,
          "Timestamp": 1977
        },
        {
          "Name": "solver.advance",
          "State": 1,
          "Timestamp": 2123
        },
        {
          "Name": "solver.advance",
          "State": 0,
          "Timestamp": 2169
        },
        {
          "Name": "solver.advance",
          "State": 1,
          "Timestamp": 2316
        },
        {
          "Name": "solver.advance",
          "State": 0,
          "Timestamp": 2364
        },
        {
          "Name": "solver.advance",
          "State": 1,
          "Timestamp": 2521
        },
        {
          "Name": "solver.advance",
          "State": 0,
          "Timestamp": 2578
        },
        {
          "Name": "solver.advance",
          "State": 1,
          "Timestamp": 2723
        },
        {
          "Name": "solver.advance",
          "State": 0,
          "Timestamp": 2769
        },
        {
          "Name": "solver.advance",
          "State": 1,
          "Timestamp": 2916
        },
        {
          "Name": "solver.advance",
          "State": 0,
          "Timestamp": 2963
        },
        {
          "Name": "solver.advance",
          "State": 1,
          "Timestamp": 3108
        },
        {
          "Name": "solver.advance",
          "State": 0,
          "Timestamp": 3155
        },
        {
          "Name": "solver.advance",
          "State": 1,
          "Timestamp": 3300
        },
        {
          "Name": "solver.advance",
          "State": 0,
          "Timestamp": 3347
        },
        {
          "Name": "solver.advance",
          "State": 1,
          "Timestamp": 3492
        },
        {
          "Name": "solver.advance",
          "State": 0,
          "Timestamp": 3539
        },
        {
          "Name": "solver.advance",
          "State": 1,
          "Timestamp": 3684
        },
        {
          "Name": "solver.advance",
          "State": 0,
          "Timestamp": 3731
        },
        {
          "Name": "solver.advance",
          "State": 1,
          "Timestamp": 3876
        },
        {
          "Name": "solver.advance",
          "State": 0,
          "Timestamp": 3924
        },
        {
          "Name": "solver.advance",
          "State": 1,
          "Timestamp": 4069
        },
        {
          "Name": "solver.advance",
          "State": 0,
          "Timestamp": 4115
        },
        {
          "Name": "solver.advance",
          "State": 1,
          "Timestamp": 4261
        },
        {
          "Name": "solver.advance",
          "State": 0,
          "Timestamp": 4307
        },
        {
          "Name": "solver.advance",
          "State": 1,
          "Timestamp": 4465
        },
        {
          "Name": "solver.advance",
          "State": 0,
          "Timestamp": 4523
        },
        {
          "Name": "solver.advance",
          "State": 1,
          "Timestamp": 4670
        },
        {
          "Name": "solver.advance",
          "State": 0,
          "Timestamp": 4717
        },
        {
          "Name": "solver.advance",
          "State": 1,
          "Timestamp": 4866
        },
        {
          "Name": "solver.advance",
          "State": 0,
          "Timestamp": 4912
        },
        {
          "Name": "solver.advance",
          "State": 1,
          "Timestamp": 5059
        },
        {
          "Name": "solver.advance",
          "State": 0,
          "Timestamp": 5105
        },
        {
          "Name": "solver.advance",
          "State": 1,
          "Timestamp": 5253
        },
        {
          "Name": "solver.advance",
          "State": 0,
          "Timestamp": 5299
        },
        {
          "Name": "solver.advance",
          "State": 1,
          "Timestamp": 5446
        },
        {
          "Name": "solver.advance",
          "State": 0,
          "Timestamp": 5492
        },
        {
          "Name": "solver.advance",
          "State": 1,
          "Timestamp": 5640
        },
        {
          "Name": "solver.advance",
          "State": 0,
          "Timestamp": 5686
        },
        {
          "Name": "solver.advance",
          "State": 1,
          "Timestamp": 5833
        },
        {
          "Name": "solver.advance",
          "State": 0,
          "Timestamp": 5881
        },
        {
          "Name": "solver.advance",
          "State": 1,
          "Timestamp": 6028
        },
        {
          "Name": "solver.advance",
          "State": 0,
          "Timestamp": 6074
        },
        {
          "Name": "solver.advance",
          "State": 1,
          "Timestamp": 6222
        },
        {
          "Name": "solver.advance",
          "State": 0,
          "Timestamp": 6267
        },
        {
          "Name": "solver.advance",
          "State": 1,
          "Timestamp": 6426
        },
        {
          "Name": "solver.advance",
          "State": 0,
          "Timestamp": 6484
        },
        {
          "Name": "solver.advance",
          "State": 1,
          "Timestamp": 6631
        },
        {
          "Name": "solver.advance",
          "State": 0,
          "Timestamp": 6677
        },
        {
          "Name": "solver.advance",
          "State": 1,
          "Timestamp": 6824
        },
        {
          "Name": "solver.advance",
          "State": 0,
          "Timestamp": 6871
        },
        {
          "Name": "solver.advance",
          "State": 1,
          "Timestamp": 7017
        },
        {
          "Name": "solver.advance",
          "State": 0,
          "Timestamp": 7065
        },
        {
          "Name": "solver.advance",
          "State": 1,
          "Timestamp": 7213
        },
        {
          "Name": "solver.advance",
          "State": 0,
          "Timestamp": 7259
        },
        {
          "Name": "solver.advance",
          "State": 1,
          "Timestamp": 7406
        },
        {
          "Name": "solver.advance",
          "State": 0,
          "Timestamp": 7452
        },
        {
          "Name": "solver.advance",
          "State": 1,
          "Timestamp": 7599
        },
        {
          "Name": "solver.advance",
          "State": 0,
          "Timestamp": 7645
        },
        {
          "Name": "solver.advance",
          "State": 1,
          "Timestamp": 7791
        },
        {
          "Name": "solver.advance",
          "State": 0,
          "Timestamp": 7837
        },
        {
          "Name": "solver.advance",
          "State": 1,
          "Timestamp": 7983
        },
        {
          "Name": "solver.advance",
          "State": 0,
          "Timestamp": 8029
        },
        {
          "Name": "solver.advance",
          "State": 1,
          "Timestamp": 8175
        },
        {
          "Name": "solver.advance",
          "State": 0,
          "Timestamp": 8221
        },
        {
          "Name": "solver.advance",
          "State": 1,
          "Timestamp": 8378
        },
        {
          "Name": "solver.advance",
          "State": 0,
          "Timestamp": 8435
        },
        {
          "Name": "solver.advance",
          "State": 1,
          "Timestamp": 8584
        },
        {
          "Name": "solver.advance",
          "State": 0,
          "Timestamp": 8630
        },
        {
          "Name": "solver.advance",
          "State": 1,
          "Timestamp": 8776
        },
        {
          "Name": "solver.advance",
          "State": 0,
          "Timestamp": 8823
        },
        {
          "Name": "solver.advance",
          "State": 1,
          "Timestamp": 8971
        },
        {
          "Name": "solver.advance",
          "State": 0,
          "Timestamp": 9017
        },
        {
          "Name": "solver.advance",
          "State": 1,
          "Timestamp": 9163
        },
        {
          "Name": "solver.advance",
          "State": 0,
          "Timestamp": 9209
        },
        {
          "Name": "solver.advance",
          "State": 1,
          "Timestamp": 9355
        },
        {
          "Name": "solver.advance",
          "State": 0,
          "Timestamp": 9401
        },
        {
          "Name": "solver.advance",
          "State": 1,
          "Timestamp": 9548
        },
        {
          "Name": "solver.advance",
          "State": 0,
          "Timestamp": 9594
        },
        {
          "Name": "solver.advance",
          "State": 1,
          "Timestamp": 9740
        },
        {
          "Name": "solver.advance",
          "State": 0,
          "Timestamp": 9786
        },
        {
          "Name": "solver.advance",
          "State": 1,
          "Timestamp": 9933
        },
        {
          "Name": "solver.advance",
          "State": 0,
          "Timestamp": 9979
        },
        {
          "Name": "solver.advance",
          "State": 1,
          "Timestamp": 9980
        },
        {
          "Name": "solver.advance",
          "State": 0,
          "Timestamp": 10008
        },
        {
          "Name": "solver.initialize",
          "State": 1,
          "Timestamp": 0
        },
        {
          "Name": "solver.initialize",
          "State": 2,
          "Timestamp": 4
        },
        {
          "Name": "solver.initialize",
          "State": 1,
          "Timestamp": 6
        },
        {
          "Name": "solver.initialize",
          "State": 2,
          "Timestamp": 9
        },
        {
          "Name": "solver.initialize",
          "State": 1,
          "Timestamp": 323
        },
        {
          "Name": "solver.initialize",
          "State": 0,
          "Timestamp": 428
        }
      ],
      "Timings": {
        "_GLOBAL": {
          "Count": 1,
          "Data": {},
          "Max": 10008,
          "Min": 10008,
          "TimeRatio": 1.0,
          "Total": 10008
        },
        "advance": {
          "Count": 50,
          "Data": {},
          "Max": 158,
          "Min": 0,
          "TimeRatio": 0.7212230215827338,
          "Total": 7218
        },
        "advance/cpl.computeQuasiNewtonUpdate": {
          "Count": 45,
          "Data": {},
          "Max": 0,
          "Min": 0,
          "TimeRatio": 0.0,
          "Total": 0
        },
        "configure": {
          "Count": 1,
          "Data": {},
          "Max": 0,
          "Min": 0,
          "TimeRatio": 0.0,
          "Total": 0
        },
        "finalize": {
          "Count": 1,
          "Data": {},
          "Max": 0,
          "Min": 0,
          "TimeRatio": 0.0,
          "Total": 0
        },
        "initialize": {
          "Count": 1,
          "Data": {},
          "Max": 2,
          "Min": 2,
          "TimeRatio": 0.00019984012789768185,
          "Total": 2
        },
        "initialize/m2n.acceptMasterConnection": {
          "Count": 1,
          "Data": {},
          "Max": 1,
          "Min": 1,
          "TimeRatio": 9.992006394884092e-05,
          "Total": 1
        },
        "initialize/m2n.acceptSlavesConnection": {
          "Count": 1,
          "Data": {},
          "Max": 0,
          "Min": 0,
          "TimeRatio": 0.0,
          "Total": 0
        },
        "initialize/partition.feedbackMesh.NeumannNodes": {
          "Count": 1,
          "Data": {},
          "Max": 0,
          "Min": 0,
          "TimeRatio": 0.0,
          "Total": 0
        },
        "initialize/partition.gatherMesh.NeumannNodes": {
          "Count": 1,
          "Data": {},
          "Max": 0,
          "Min": 0,
          "TimeRatio": 0.0,
          "Total": 0
        },
        "initialize/partition.sendGlobalMesh.NeumannNodes": {
          "Count": 1,
          "Data": {},
          "Max": 0,
          "Min": 0,
          "TimeRatio": 0.0,
          "Total": 0
        },
        "initializeData": {
          "Count": 1,
          "Data": {},
          "Max": 314,
          "Min": 314,
          "TimeRatio": 0.03137490007993605,
          "Total": 314
        },
        "solver.advance": {
          "Count": 50,
          "Data": {},
          "Max": 62,
          "Min": 28,
          "TimeRatio": 0.23591127098321343,
          "Total": 2361
        },
        "solver.initialize": {
          "Count": 1,
          "Data": {},
          "Max": 112,
          "Min": 112,
          "TimeRatio": 0.011191047162270184,
          "Total": 112
        }
      }
    }
  ]
}
