# vtk DataFile Version 2.0

ASCII

DATASET UNSTRUCTURED_GRID

POINTS 106 float 

-5.0000000000000003e-02  0.0000000000000000e+00  0.0000000000000000e+00
5.0000000000000003e-02  0.0000000000000000e+00  0.0000000000000000e+00
-5.0000000000000003e-02  2.0000000000000000e-02  0.0000000000000000e+00
5.0000000000000003e-02  2.0000000000000000e-02  0.0000000000000000e+00
-5.0000000000000003e-02  4.0000000000000001e-02  0.0000000000000000e+00
5.0000000000000003e-02  4.0000000000000001e-02  0.0000000000000000e+00
-5.0000000000000003e-02  5.9999999999999998e-02  0.0000000000000000e+00
5.0000000000000003e-02  5.9999999999999998e-02  0.0000000000000000e+00
-5.0000000000000003e-02  8.0000000000000002e-02  0.0000000000000000e+00
5.0000000000000003e-02  8.0000000000000002e-02  0.0000000000000000e+00
-5.0000000000000003e-02  1.0000000000000001e-01  0.0000000000000000e+00
5.0000000000000003e-02  1.0000000000000001e-01  0.0000000000000000e+00
-5.0000000000000003e-02  1.2000000000000000e-01  0.0000000000000000e+00
5.0000000000000003e-02  1.2000000000000000e-01  0.0000000000000000e+00
-5.0000000000000003e-02  1.4000000000000001e-01  0.0000000000000000e+00
5.0000000000000003e-02  1.4000000000000001e-01  0.0000000000000000e+00
-5.0000000000000003e-02  1.6000000000000000e-01  0.0000000000000000e+00
5.0000000000000003e-02  1.6000000000000000e-01  0.0000000000000000e+00
-5.0000000000000003e-02  1.7999999999999999e-01  0.0000000000000000e+00
5.0000000000000003e-02  1.7999999999999999e-01  0.0000000000000000e+00
-5.0000000000000003e-02  2.0000000000000001e-01  0.0000000000000000e+00
5.0000000000000003e-02  2.0000000000000001e-01  0.0000000000000000e+00
-5.0000000000000003e-02  2.2000000000000000e-01  0.0000000000000000e+00
5.0000000000000003e-02  2.2000000000000000e-01  0.0000000000000000e+00
-5.0000000000000003e-02  2.3999999999999999e-01  0.0000000000000000e+00
5.0000000000000003e-02  2.3999999999999999e-01  0.0000000000000000e+00
-5.0000000000000003e-02  2.6000000000000001e-01  0.0000000000000000e+00
5.0000000000000003e-02  2.6000000000000001e-01  0.0000000000000000e+00
-5.0000000000000003e-02  2.8000000000000003e-01  0.0000000000000000e+00
5.0000000000000003e-02  2.8000000000000003e-01  0.0000000000000000e+00
-5.0000000000000003e-02  2.9999999999999999e-01  0.0000000000000000e+00
5.0000000000000003e-02  2.9999999999999999e-01  0.0000000000000000e+00
-5.0000000000000003e-02  3.2000000000000001e-01  0.0000000000000000e+00
5.0000000000000003e-02  3.2000000000000001e-01  0.0000000000000000e+00
-5.0000000000000003e-02  3.4000000000000002e-01  0.0000000000000000e+00
5.0000000000000003e-02  3.4000000000000002e-01  0.0000000000000000e+00
-5.0000000000000003e-02  3.5999999999999999e-01  0.0000000000000000e+00
5.0000000000000003e-02  3.5999999999999999e-01  0.0000000000000000e+00
-5.0000000000000003e-02  3.8000000000000000e-01  0.0000000000000000e+00
5.0000000000000003e-02  3.8000000000000000e-01  0.0000000000000000e+00
-5.0000000000000003e-02  4.0000000000000002e-01  0.0000000000000000e+00
5.0000000000000003e-02  4.0000000000000002e-01  0.0000000000000000e+00
-5.0000000000000003e-02  4.1999999999999998e-01  0.0000000000000000e+00
5.0000000000000003e-02  4.1999999999999998e-01  0.0000000000000000e+00
-5.0000000000000003e-02  4.4000000000000000e-01  0.0000000000000000e+00
5.0000000000000003e-02  4.4000000000000000e-01  0.0000000000000000e+00
-5.0000000000000003e-02  4.6000000000000002e-01  0.0000000000000000e+00
5.0000000000000003e-02  4.6000000000000002e-01  0.0000000000000000e+00
-5.0000000000000003e-02  4.7999999999999998e-01  0.0000000000000000e+00
5.0000000000000003e-02  4.7999999999999998e-01  0.0000000000000000e+00
-5.0000000000000003e-02  5.0000000000000000e-01  0.0000000000000000e+00
5.0000000000000003e-02  5.0000000000000000e-01  0.0000000000000000e+00
-5.0000000000000003e-02  5.2000000000000002e-01  0.0000000000000000e+00
5.0000000000000003e-02  5.2000000000000002e-01  0.0000000000000000e+00
-5.0000000000000003e-02  5.4000000000000004e-01  0.0000000000000000e+00
5.0000000000000003e-02  5.4000000000000004e-01  0.0000000000000000e+00
-5.0000000000000003e-02  5.6000000000000005e-01  0.0000000000000000e+00
5.0000000000000003e-02  5.6000000000000005e-01  0.0000000000000000e+00
-5.0000000000000003e-02  5.7999999999999996e-01  0.0000000000000000e+00
5.0000000000000003e-02  5.7999999999999996e-01  0.0000000000000000e+00
-5.0000000000000003e-02  5.9999999999999998e-01  0.0000000000000000e+00
5.0000000000000003e-02  5.9999999999999998e-01  0.0000000000000000e+00
-5.0000000000000003e-02  6.2000000000000000e-01  0.0000000000000000e+00
5.0000000000000003e-02  6.2000000000000000e-01  0.0000000000000000e+00
-5.0000000000000003e-02  6.4000000000000001e-01  0.0000000000000000e+00
5.0000000000000003e-02  6.4000000000000001e-01  0.0000000000000000e+00
-5.0000000000000003e-02  6.6000000000000003e-01  0.0000000000000000e+00
5.0000000000000003e-02  6.6000000000000003e-01  0.0000000000000000e+00
-5.0000000000000003e-02  6.8000000000000005e-01  0.0000000000000000e+00
5.0000000000000003e-02  6.8000000000000005e-01  0.0000000000000000e+00
-5.0000000000000003e-02  6.9999999999999996e-01  0.0000000000000000e+00
5.0000000000000003e-02  6.9999999999999996e-01  0.0000000000000000e+00
-5.0000000000000003e-02  7.1999999999999997e-01  0.0000000000000000e+00
5.0000000000000003e-02  7.1999999999999997e-01  0.0000000000000000e+00
-5.0000000000000003e-02  7.3999999999999999e-01  0.0000000000000000e+00
5.0000000000000003e-02  7.3999999999999999e-01  0.0000000000000000e+00
-5.0000000000000003e-02  7.6000000000000001e-01  0.0000000000000000e+00
5.0000000000000003e-02  7.6000000000000001e-01  0.0000000000000000e+00
-5.0000000000000003e-02  7.8000000000000003e-01  0.0000000000000000e+00
5.0000000000000003e-02  7.8000000000000003e-01  0.0000000000000000e+00
-5.0000000000000003e-02  8.0000000000000004e-01  0.0000000000000000e+00
5.0000000000000003e-02  8.0000000000000004e-01  0.0000000000000000e+00
-5.0000000000000003e-02  8.1999999999999995e-01  0.0000000000000000e+00
5.0000000000000003e-02  8.1999999999999995e-01  0.0000000000000000e+00
-5.0000000000000003e-02  8.3999999999999997e-01  0.0000000000000000e+00
5.0000000000000003e-02  8.3999999999999997e-01  0.0000000000000000e+00
-5.0000000000000003e-02  8.5999999999999999e-01  0.0000000000000000e+00
5.0000000000000003e-02  8.5999999999999999e-01  0.0000000000000000e+00
-5.0000000000000003e-02  8.8000000000000000e-01  0.0000000000000000e+00
5.0000000000000003e-02  8.8000000000000000e-01  0.0000000000000000e+00
-5.0000000000000003e-02  9.0000000000000002e-01  0.0000000000000000e+00
5.0000000000000003e-02  9.0000000000000002e-01  0.0000000000000000e+00
-5.0000000000000003e-02  9.2000000000000004e-01  0.0000000000000000e+00
5.0000000000000003e-02  9.2000000000000004e-01  0.0000000000000000e+00
-5.0000000000000003e-02  9.3999999999999995e-01  0.0000000000000000e+00
5.0000000000000003e-02  9.3999999999999995e-01  0.0000000000000000e+00
-5.0000000000000003e-02  9.5999999999999996e-01  0.0000000000000000e+00
5.0000000000000003e-02  9.5999999999999996e-01  0.0000000000000000e+00
-5.0000000000000003e-02  9.7999999999999998e-01  0.0000000000000000e+00
5.0000000000000003e-02  9.7999999999999998e-01  0.0000000000000000e+00
-5.0000000000000003e-02  1.0000000000000000e+00  0.0000000000000000e+00
-3.0000000000000002e-02  1.0000000000000000e+00  0.0000000000000000e+00
-1.0000000000000002e-02  1.0000000000000000e+00  0.0000000000000000e+00
1.0000000000000009e-02  1.0000000000000000e+00  0.0000000000000000e+00
2.9999999999999999e-02  1.0000000000000000e+00  0.0000000000000000e+00
5.0000000000000003e-02  1.0000000000000000e+00  0.0000000000000000e+00

CELLS 0 0


CELL_TYPES 0


POINT_DATA 106

VECTORS VertexNormals float

0.0000000000000000e+00 0.0000000000000000e+00 0
0.0000000000000000e+00 0.0000000000000000e+00 0
0.0000000000000000e+00 0.0000000000000000e+00 0
0.0000000000000000e+00 0.0000000000000000e+00 0
0.0000000000000000e+00 0.0000000000000000e+00 0
0.0000000000000000e+00 0.0000000000000000e+00 0
0.0000000000000000e+00 0.0000000000000000e+00 0
0.0000000000000000e+00 0.0000000000000000e+00 0
0.0000000000000000e+00 0.0000000000000000e+00 0
0.0000000000000000e+00 0.0000000000000000e+00 0
0.0000000000000000e+00 0.0000000000000000e+00 0
0.0000000000000000e+00 0.0000000000000000e+00 0
0.0000000000000000e+00 0.0000000000000000e+00 0
0.0000000000000000e+00 0.0000000000000000e+00 0
0.0000000000000000e+00 0.0000000000000000e+00 0
0.0000000000000000e+00 0.0000000000000000e+00 0
0.0000000000000000e+00 0.0000000000000000e+00 0
0.0000000000000000e+00 0.0000000000000000e+00 0
0.0000000000000000e+00 0.0000000000000000e+00 0
0.0000000000000000e+00 0.0000000000000000e+00 0
0.0000000000000000e+00 0.0000000000000000e+00 0
0.0000000000000000e+00 0.0000000000000000e+00 0
0.0000000000000000e+00 0.0000000000000000e+00 0
0.0000000000000000e+00 0.0000000000000000e+00 0
0.0000000000000000e+00 0.0000000000000000e+00 0
0.0000000000000000e+00 0.0000000000000000e+00 0
0.0000000000000000e+00 0.0000000000000000e+00 0
0.0000000000000000e+00 0.0000000000000000e+00 0
0.0000000000000000e+00 0.0000000000000000e+00 0
0.0000000000000000e+00 0.0000000000000000e+00 0
0.0000000000000000e+00 0.0000000000000000e+00 0
0.0000000000000000e+00 0.0000000000000000e+00 0
0.0000000000000000e+00 0.0000000000000000e+00 0
0.0000000000000000e+00 0.0000000000000000e+00 0
0.0000000000000000e+00 0.0000000000000000e+00 0
0.0000000000000000e+00 0.0000000000000000e+00 0
0.0000000000000000e+00 0.0000000000000000e+00 0
0.0000000000000000e+00 0.0000000000000000e+00 0
0.0000000000000000e+00 0.0000000000000000e+00 0
0.0000000000000000e+00 0.0000000000000000e+00 0
0.0000000000000000e+00 0.0000000000000000e+00 0
0.0000000000000000e+00 0.0000000000000000e+00 0
0.0000000000000000e+00 0.0000000000000000e+00 0
0.0000000000000000e+00 0.0000000000000000e+00 0
0.0000000000000000e+00 0.0000000000000000e+00 0
0.0000000000000000e+00 0.0000000000000000e+00 0
0.0000000000000000e+00 0.0000000000000000e+00 0
0.0000000000000000e+00 0.0000000000000000e+00 0
0.0000000000000000e+00 0.0000000000000000e+00 0
0.0000000000000000e+00 0.0000000000000000e+00 0
0.0000000000000000e+00 0.0000000000000000e+00 0
0.0000000000000000e+00 0.0000000000000000e+00 0
0.0000000000000000e+00 0.0000000000000000e+00 0
0.0000000000000000e+00 0.0000000000000000e+00 0
0.0000000000000000e+00 0.0000000000000000e+00 0
0.0000000000000000e+00 0.0000000000000000e+00 0
0.0000000000000000e+00 0.0000000000000000e+00 0
0.0000000000000000e+00 0.0000000000000000e+00 0
0.0000000000000000e+00 0.0000000000000000e+00 0
0.0000000000000000e+00 0.0000000000000000e+00 0
0.0000000000000000e+00 0.0000000000000000e+00 0
0.0000000000000000e+00 0.0000000000000000e+00 0
0.0000000000000000e+00 0.0000000000000000e+00 0
0.0000000000000000e+00 0.0000000000000000e+00 0
0.0000000000000000e+00 0.0000000000000000e+00 0
0.0000000000000000e+00 0.0000000000000000e+00 0
0.0000000000000000e+00 0.0000000000000000e+00 0
0.0000000000000000e+00 0.0000000000000000e+00 0
0.0000000000000000e+00 0.0000000000000000e+00 0
0.0000000000000000e+00 0.0000000000000000e+00 0
0.0000000000000000e+00 0.0000000000000000e+00 0
0.0000000000000000e+00 0.0000000000000000e+00 0
0.0000000000000000e+00 0.0000000000000000e+00 0
0.0000000000000000e+00 0.0000000000000000e+00 0
0.0000000000000000e+00 0.0000000000000000e+00 0
0.0000000000000000e+00 0.0000000000000000e+00 0
0.0000000000000000e+00 0.0000000000000000e+00 0
0.0000000000000000e+00 0.0000000000000000e+00 0
0.0000000000000000e+00 0.0000000000000000e+00 0
0.0000000000000000e+00 0.0000000000000000e+00 0
0.0000000000000000e+00 0.0000000000000000e+00 0
0.0000000000000000e+00 0.0000000000000000e+00 0
0.0000000000000000e+00 0.0000000000000000e+00 0
0.0000000000000000e+00 0.0000000000000000e+00 0
0.0000000000000000e+00 0.0000000000000000e+00 0
0.0000000000000000e+00 0.0000000000000000e+00 0
0.0000000000000000e+00 0.0000000000000000e+00 0
0.0000000000000000e+00 0.0000000000000000e+00 0
0.0000000000000000e+00 0.0000000000000000e+00 0
0.0000000000000000e+00 0.0000000000000000e+00 0
0.0000000000000000e+00 0.0000000000000000e+00 0
0.0000000000000000e+00 0.0000000000000000e+00 0
0.0000000000000000e+00 0.0000000000000000e+00 0
0.0000000000000000e+00 0.0000000000000000e+00 0
0.0000000000000000e+00 0.0000000000000000e+00 0
0.0000000000000000e+00 0.0000000000000000e+00 0
0.0000000000000000e+00 0.0000000000000000e+00 0
0.0000000000000000e+00 0.0000000000000000e+00 0
0.0000000000000000e+00 0.0000000000000000e+00 0
0.0000000000000000e+00 0.0000000000000000e+00 0
0.0000000000000000e+00 0.0000000000000000e+00 0
0.0000000000000000e+00 0.0000000000000000e+00 0
0.0000000000000000e+00 0.0000000000000000e+00 0
0.0000000000000000e+00 0.0000000000000000e+00 0
0.0000000000000000e+00 0.0000000000000000e+00 0
0.0000000000000000e+00 0.0000000000000000e+00 0

VECTORS Displacements1 float
-5.6924150246341022e-17 3.1802899399302502e-17 0
-1.3090174589249243e-22 4.6313325747611843e-23 0
1.7472626000315177e-06 7.1408509147943874e-07 0
1.6855864261744292e-06 -6.6764711722409495e-07 0
2.9495566836970067e-06 9.8387326221264064e-07 0
2.8448975256120981e-06 -9.2468926125769212e-07 0
3.6433764921535971e-06 9.9499446267122070e-07 0
3.5581972437820837e-06 -9.2604373963603647e-07 0
4.0435586727896335e-06 8.6710631570386390e-07 0
3.9958946243823110e-06 -8.0685472212138991e-07 0
5.6043519078337805e-06 6.1738131973819769e-07 0
5.3408009429982715e-06 -4.0322288464165807e-07 0
4.5735602253071000e-06 2.3198709850706498e-07 0
4.5125266768369865e-06 -1.6271140035611121e-07 0
4.8185795601198267e-06 1.8540172482957167e-07 0
4.7179477769280125e-06 -3.2523571052766261e-08 0
4.7892222340449662e-06 1.2842164898849854e-07 0
4.6865833365160326e-06 4.8015910898745654e-08 0
4.5483314358651238e-06 1.7035323771361163e-07 0
4.4932722756665084e-06 -3.6691600339558049e-09 0
5.7557738334809617e-06 1.7817098625129272e-07 0
5.4999213525533319e-06 1.7347240753572301e-07 0
4.6043964603901525e-06 3.0922193627061306e-08 0
4.5425864891875119e-06 1.6395151777201995e-07 0
4.8691157874960008e-06 1.4337318521287871e-07 0
4.7748177421021621e-06 1.4700361131750562e-07 0
4.8904720094001329e-06 1.6091389683575087e-07 0
4.7933481953527383e-06 1.5774187904071647e-07 0
4.6701826775410884e-06 2.2851892183690205e-07 0
4.6209602692134871e-06 7.9432902733032010e-08 0
5.8789926356578359e-06 2.5398672570407236e-07 0
5.6663713021839840e-06 2.7464994646286894e-07 0
4.7250155447377209e-06 1.1801224288075440e-07 0
4.6642117357846050e-06 2.3244316859688433e-07 0
4.9997709689232495e-06 2.3923729129609814e-07 0
4.9197180604956002e-06 2.1659939089395781e-07 0
5.0315262667768912e-06 2.6109643150914123e-07 0
4.9498076184752252e-06 2.2794258903586145e-07 0
4.8209714903122221e-06 3.3304562273379744e-07 0
4.7812146340889601e-06 1.4086432497739833e-07 0
6.0493688939369469e-06 3.7110173813072491e-07 0
5.9165104896896104e-06 3.7117222432458395e-07 0
4.9070747225052988e-06 2.3155024033167124e-07 0
4.8498549754675687e-06 3.0912940415324152e-07 0
5.1987450176025826e-06 3.6119345573778079e-07 0
5.1429239058574736e-06 2.9622636810008801e-07 0
5.2454889257414270e-06 3.8967870970815693e-07 0
5.1882892101948112e-06 3.0849721652920120e-07 0
5.0472729719064026e-06 4.6933885406942464e-07 0
5.0210068032466230e-06 2.0963587103697653e-07 0
6.2995221751435840e-06 5.3440112783094237e-07 0
6.2862596165978065e-06 4.7755298038184552e-07 0
5.1722142549193234e-06 3.8702385114718725e-07 0
5.1205482402556413e-06 3.9654715722212994e-07 0
5.4821896841111604e-06 5.3210002180115143e-07 0
5.4610626189951077e-06 3.8467768454991998e-07 0
5.5471727958165598e-06 5.7215253900731042e-07 0
5.5244575808063060e-06 3.9735019566422430e-07 0
5.3656325612054510e-06 6.6235192067042264e-07 0
5.3561284604750251e-06 2.8297500291932068e-07 0
6.6448536199153852e-06 7.6919923402435893e-07 0
6.8031366198964693e-06 5.9437622283796833e-07 0
5.5503047896678164e-06 6.1810381340300686e-07 0
5.5043685023785268e-06 4.9028965203948067e-07 0
5.8986128060637619e-06 7.9163096178248337e-07 0
5.9197737418125545e-06 4.7646492457916655e-07 0
6.0014195352865166e-06 8.6240400368956572e-07 0
6.0177940522216882e-06 4.8712502579167299e-07 0
5.8578680095408565e-06 9.9877352647868624e-07 0
5.8552652468075019e-06 3.5083330964430160e-07 0
7.2216784649308727e-06 1.2297119395632448e-06 0
7.5709628964022527e-06 7.2075789841581832e-07 0
6.1791253334455115e-06 1.1217455367455141e-06 0
6.0680273922239483e-06 6.2083184794160932e-07 0
6.5944809245288306e-06 1.4682670645650035e-06 0
6.5556902027271697e-06 6.3095612343740988e-07 0
6.7808394582759592e-06 1.7652004843075637e-06 0
6.6558244622210746e-06 6.7091624160207838e-07 0
6.7240105917412295e-06 2.1981251384536320e-06 0
6.4471929893011377e-06 5.2780229972529052e-07 0
8.1831829958394538e-06 2.8854197619532839e-06 0
8.4670312330907296e-06 9.7254647495335446e-07 0
7.1618095501404244e-06 3.2955689639867091e-06 0
6.5364858068449928e-06 7.1659272041837764e-07 0
7.5783388747343218e-06 4.4434730009937511e-06 0
7.0047692015118517e-06 3.9101117144266351e-07 0
7.7797323642727958e-06 5.9566286047692659e-06 0
7.0913477068030061e-06 -3.3250142165485029e-07 0
8.1577934833756051e-06 8.1655258146420042e-06 0
7.3237088167733348e-06 -1.8523616700712244e-06 0
1.1463907548167109e-05 1.1264102777531283e-05 0
1.1653208726277288e-05 -3.0863062790949935e-06 0
1.2834467809565704e-05 1.3505164900693374e-05 0
1.1947119862530962e-05 -5.2079141064977317e-06 0
1.7570832910803021e-05 1.6788709069078832e-05 0
1.7206192202231176e-05 -7.2608223201504437e-06 0
2.3230543448757701e-05 1.9548480703913242e-05 0
2.2963771651288816e-05 -8.9926165758141916e-06 0
3.1680600528354348e-05 2.2410821812780839e-05 0
3.1001296902102584e-05 -9.9296739254170224e-06 0
3.7988222075551324e-05 2.2478909794461187e-05 0
3.8013046066482040e-05 1.5711830076228191e-05 0
3.6798663011544798e-05 9.1369081512780167e-06 0
3.6526250569720336e-05 3.3247814732388645e-06 0
3.7308301647174188e-05 -3.3052505301793129e-06 0
3.6998031319699574e-05 -1.0681593426780426e-05 0

VECTORS Displacements2 float
-5.7190577270849520e-17 3.1951952316529338e-17 0
-1.3525456686567307e-22 4.9751388152700681e-23 0
1.8042599557276535e-06 7.6286472484898618e-07 0
1.7406563872478141e-06 -7.1511953925243338e-07 0
3.0565339180385810e-06 1.0632587453985983e-06 0
2.9490021142859133e-06 -1.0000005497948385e-06 0
3.8129039475811184e-06 1.0912623579161008e-06 0
3.7252721288447814e-06 -1.0197314084958761e-06 0
4.2763807789988278e-06 9.6642510891746246e-07 0
4.2285597622986494e-06 -9.0182667248465231e-07 0
5.9008380711324828e-06 7.0436411022068906e-07 0
5.6311482347283412e-06 -4.8346045228999752e-07 0
4.9015582016881720e-06 2.9240897310749985e-07 0
4.8386155570053517e-06 -2.1708282994289903e-07 0
5.1548987710686371e-06 2.2539537735657607e-07 0
5.0510179386409465e-06 -6.4107695950228440e-08 0
5.1232800920721163e-06 1.5694556444445948e-07 0
5.0179780610300053e-06 2.9216606145740978e-08 0
4.8822919844124385e-06 1.9440167773922311e-07 0
4.8250692557715722e-06 -1.6078569818574201e-08 0
6.0989790605358799e-06 1.9629814325998781e-07 0
5.8352972771384289e-06 1.6905788713641941e-07 0
4.9401447295149057e-06 4.2085104117274348e-08 0
4.8750630091009495e-06 1.6745299746040947e-07 0
5.1978377578237633e-06 1.5672663456783680e-07 0
5.1006865916020086e-06 1.5111369565917215e-07 0
5.2214275503389172e-06 1.8152282959387713e-07 0
5.1217656667034232e-06 1.5672888155595091e-07 0
5.0113272843820653e-06 2.5371724660906453e-07 0
4.9610976188071608e-06 7.6281200505820578e-08 0
6.2350411836563595e-06 2.7539753004678711e-07 0
6.0145390977805074e-06 2.7902123412106414e-07 0
5.0707714080157873e-06 1.3469211343680672e-07 0
5.0072634401933961e-06 2.4205283534488443e-07 0
5.3382386760551885e-06 2.6113319640296820e-07 0
5.2564960172218598e-06 2.2409489953738436e-07 0
5.3726915979375428e-06 2.9155959326139919e-07 0
5.2892082529440792e-06 2.2934321064759479e-07 0
5.1727101518912893e-06 3.6893963411308198e-07 0
5.1336125355668807e-06 1.3991668474934200e-07 0
6.4171729723581721e-06 4.0406326845050970e-07 0
6.2778679316053400e-06 3.7809997346406361e-07 0
5.2653591831396057e-06 2.5961684569572870e-07 0
5.2064449958303994e-06 3.2178934860466235e-07 0
5.5504729167509879e-06 3.9464895560484841e-07 0
5.4938759461611444e-06 3.0689399399985966e-07 0
5.6009105292767727e-06 4.3221291910898008e-07 0
5.5434641268198254e-06 3.1299805634266056e-07 0
5.4143107498119166e-06 5.1787179740271051e-07 0
5.3910141027077937e-06 2.1198261270930967e-07 0
6.6845236055931442e-06 5.8080990330322376e-07 0
6.6668737613834269e-06 4.8901212450077005e-07 0
5.5486041577311354e-06 4.2862434609568013e-07 0
5.4966072243706286e-06 4.1443661030378708e-07 0
5.8526351293841925e-06 5.7970789582071572e-07 0
5.8319884923493397e-06 4.0048554676656249e-07 0
5.9226220797915853e-06 6.2983417483601683e-07 0
5.9016202076926219e-06 4.0655923166088472e-07 0
5.7544146176893123e-06 7.2715399804633852e-07 0
5.7509280419694350e-06 2.8991548309986753e-07 0
7.0545990645413999e-06 8.3358742553643493e-07 0
7.2114210472558759e-06 6.1180376740963659e-07 0
5.9534379394047353e-06 6.7897006690237027e-07 0
5.9088394693821482e-06 5.1491815683527109e-07 0
6.2977035689852883e-06 8.6121497369882728e-07 0
6.3200755596635773e-06 4.9884984366596913e-07 0
6.4087888994425857e-06 9.4714319570248730e-07 0
6.4267621814721412e-06 5.0330851151262664e-07 0
6.2826793806488943e-06 1.0993592225862918e-06 0
6.2839212517039676e-06 3.6726535292017319e-07 0
7.6753305301520530e-06 1.3443786466000651e-06 0
8.0141042670796486e-06 7.5448485575186197e-07 0
6.6302780959235189e-06 1.2493502589828979e-06 0
6.5020272315575840e-06 6.7007005713554567e-07 0
7.0442757635111445e-06 1.6273629451676422e-06 0
6.9790178440336733e-06 6.8474682725908273e-07 0
7.2400848115066413e-06 1.9652792125333775e-06 0
7.0823149611343076e-06 7.2299771000540466e-07 0
7.1993684095485226e-06 2.4398967564212640e-06 0
6.8877447065981411e-06 5.8633141563598435e-07 0
8.6665569517936220e-06 3.1596307460077700e-06 0
8.9035191595692054e-06 1.0471313524401932e-06 0
7.6042576921239959e-06 3.6125284776260014e-06 0
6.9315913182659013e-06 7.8809897886078476e-07 0
7.9873658689462114e-06 4.8532054644364844e-06 0
7.3661972302558059e-06 4.0445555616704282e-07 0
8.2208029605417570e-06 6.5006360835864617e-06 0
7.5015108191109796e-06 -4.2185323475460457e-07 0
8.7342390394211084e-06 8.8484715865573859e-06 0
7.8971007497858274e-06 -2.0489539974465626e-06 0
1.2272795891964555e-05 1.2058957151802446e-05 0
1.2467421530247800e-05 -3.3562203824404298e-06 0
1.3898885068087845e-05 1.4363650879616773e-05 0
1.3027474730852942e-05 -5.5238403473356905e-06 0
1.8908305376732574e-05 1.7693398489296277e-05 0
1.8560651329246175e-05 -7.6104386028306904e-06 0
2.4851410617300127e-05 2.0481406131651841e-05 0
2.4611431860233144e-05 -9.3712226974230911e-06 0
3.3588547424975228e-05 2.3359729592417471e-05 0
3.2954119046300815e-05 -1.0318924000620785e-05 0
4.0180663628017730e-05 2.3425697233512991e-05 0
4.0208266410206435e-05 1.6378241412397517e-05 0
3.8999030118602582e-05 9.5413366431213591e-06 0
3.8743233858490141e-05 3.4898669162737010e-06 0
3.9550748001786283e-05 -3.4065753180937599e-06 0
3.9256010286592648e-05 -1.1074971212938444e-05 0

VECTORS Displacements3 float
-5.7621162525267770e-17 3.2191634168612984e-17 0
-1.3944527977368284e-22 5.3283228838313605e-23 0
1.8599310686540865e-06 8.1272889352424114e-07 0
1.7943866608939683e-06 -7.6356376804620708e-07 0
3.1638638798423190e-06 1.1444934591113225e-06 0
3.0527572474333961e-06 -1.0771292562520430e-06 0
3.9842541268633129e-06 1.1910388934871723e-06 0
3.8942017973012748e-06 -1.1167863467731643e-06 0
4.5123462329441791e-06 1.0696886159320590e-06 0
4.4636545601660850e-06 -1.0001333189899396e-06 0
6.2036749643681356e-06 7.9577553063818356e-07 0
5.9277051460843355e-06 -5.6801065661585586e-07 0
5.2371161450722263e-06 3.5887265301405728e-07 0
5.1728311123971137e-06 -2.7612495714733026e-07 0
5.5054236120588869e-06 2.7065466608962640e-07 0
5.3969642894767996e-06 -1.0077087914200229e-07 0
5.4744980569990597e-06 1.8877467859748483e-07 0
5.3671114171502874e-06 6.8394865729644608e-09 0
5.2311729728387360e-06 2.2050568872993462e-07 0
5.1711166812384603e-06 -2.9401681031393081e-08 0
6.4587209316605844e-06 2.1548792645872824e-07 0
6.1861893372175400e-06 1.6402362582829110e-07 0
5.2880185147959264e-06 5.4787587907096118e-08 0
5.2201639379438822e-06 1.7053679409243970e-07 0
5.5405217603137722e-06 1.7128816978725661e-07 0
5.4393036946036607e-06 1.5407512377867988e-07 0
5.5666793096281391e-06 2.0275355062834434e-07 0
5.4652772983722824e-06 1.5519043242600427e-07 0
5.3653384952387207e-06 2.8005904090879302e-07 0
5.3128807338554913e-06 7.3486843020212629e-08 0
6.6073179025911775e-06 2.9776937573649505e-07 0
6.3784455459907543e-06 2.8332926723933432e-07 0
5.4296025610904436e-06 1.5188266249365001e-07 0
5.3635499600509867e-06 2.5269236314067843e-07 0
5.6915464469201308e-06 2.8378310209158887e-07 0
5.6067039752706590e-06 2.3103704981600806e-07 0
5.7286090024413668e-06 3.2294798723554993e-07 0
5.6440648583183625e-06 2.3045206133873889e-07 0
5.5380511954658686e-06 4.0613221679005631e-07 0
5.4981290239689073e-06 1.3972175063921940e-07 0
6.8019428383408755e-06 4.3831549768214713e-07 0
6.6556096838900274e-06 3.8526799971892763e-07 0
5.6372780383217628e-06 2.8865678731737190e-07 0
5.5765489293181988e-06 3.3548983003067642e-07 0
5.9175397112713523e-06 4.2933177751621759e-07 0
5.8587601066109509e-06 3.1691819817071471e-07 0
5.9716815113826203e-06 4.7630559270074518e-07 0
5.9147426925645675e-06 3.1728978358083009e-07 0
5.7957399367253375e-06 5.6827819237359384e-07 0
5.7735907624662902e-06 2.1527794034160942e-07 0
7.0873454375693386e-06 6.2901392776838408e-07 0
7.0644726945487386e-06 5.0096993809503906e-07 0
5.9393491554966228e-06 4.7161848332629280e-07 0
5.8865330207960376e-06 4.3353188839292817e-07 0
6.2391031258114791e-06 6.2898174595774120e-07 0
6.2175621025009246e-06 4.1568332285050081e-07 0
6.3142968317119734e-06 6.8980575954227280e-07 0
6.2958889675923221e-06 4.1574738696972831e-07 0
6.1587963281487225e-06 7.9462391420090977e-07 0
6.1590450956214770e-06 2.9810939402292869e-07 0
7.4834843564812121e-06 9.0068035545488762e-07 0
7.6376519859917557e-06 6.3006754123424368e-07 0
6.3721777463505303e-06 7.4230207528599091e-07 0
6.3276939971010363e-06 5.4103220976887366e-07 0
6.7141184430893805e-06 9.3406805111608769e-07 0
6.7358326034207608e-06 5.2108236676970896e-07 0
6.8341610710796826e-06 1.0372921013913621e-06 0
6.8535507512106678e-06 5.2092913582516698e-07 0
6.7257485789362167e-06 1.2075082482177850e-06 0
6.7255390726750765e-06 3.8756079588533994e-07 0
8.1507334657606901e-06 1.4678745673887038e-06 0
8.4742248460469670e-06 7.9304459812490746e-07 0
7.0982229948049136e-06 1.3862083536401541e-06 0
6.9478665230233212e-06 7.2580536945235942e-07 0
7.5122224784128390e-06 1.7966892244507060e-06 0
7.4154097398683791e-06 7.4357083133330231e-07 0
7.7159305597686965e-06 2.1771650329117965e-06 0
7.5234468745369446e-06 7.8309377238009664e-07 0
7.6895434757715260e-06 2.6912679438176920e-06 0
7.3345132124652395e-06 6.5593562344879139e-07 0
9.1600099345176746e-06 3.4414836183011504e-06 0
9.3480774877312881e-06 1.1322405246909097e-06 0
8.0478950475959885e-06 3.9389891367977334e-06 0
7.3244957925292676e-06 8.6650931104884033e-07 0
8.4021607335014109e-06 5.2787861718231543e-06 0
7.7395075159363369e-06 4.1697132461830810e-07 0
8.6816033650935449e-06 7.0636845995556811e-06 0
7.9386567297819308e-06 -5.1360318322315469e-07 0
9.3491953469509953e-06 9.5497945461132254e-06 0
8.5120129246041046e-06 -2.2461015219228770e-06 0
1.3136558232925613e-05 1.2867236088935474e-05 0
1.3337925355459767e-05 -3.6220524399373376e-06 0
1.5017980601631142e-05 1.5228471060833063e-05 0
1.4163346901106731e-05 -5.8287817903235236e-06 0
2.0304360578457670e-05 1.8601720906240818e-05 0
1.9971642332988982e-05 -7.9484569512355857e-06 0
2.6528221941240069e-05 2.1418533687508991e-05 0
2.6313244459633411e-05 -9.7339200486345716e-06 0
3.5558334085698058e-05 2.4317995217247572e-05 0
3.4953471392268490e-05 -1.0692551783418844e-05 0
4.2446689675219183e-05 2.4384677737839264e-05 0
4.2473162081456409e-05 1.7048275011085245e-05 0
4.1259851704876709e-05 9.9453556902815128e-06 0
4.1013630279194492e-05 3.6545118198664365e-06 0
4.1840625462108727e-05 -3.4988918295148694e-06 0
4.1561512724778152e-05 -1.1455499596734901e-05 0

VECTORS Forces1 float
-1.5970869904072971e-01 9.8125687102189718e-02 0
-1.1486886433819718e-01 -6.6075243299054814e-02 0
2.1547861095820808e+00 -1.1982712750810938e+00 0
1.5800860572973698e+00 8.7581680383395266e-01 0
2.3594845419395187e+00 -3.6669185482908428e-01 0
1.7317947849554103e+00 2.6995173360222502e-01 0
1.5014856165877690e+00 6.1902606181688413e-02 0
1.1016438061954890e+00 -4.4868323616301643e-02 0
-2.2640386883782523e-01 -8.5036810192766158e-03 0
-1.6639333270702236e-01 6.1050447834476683e-03 0
5.7647725964226719e+00 2.1796349373575984e-03 0
4.2263706783212198e+00 2.2546319045800144e-02 0
-2.4484620644916980e-01 -3.6614335178194990e-04 0
-1.7999979911407701e-01 -1.9405629056851719e-03 0
1.6447812582104913e+00 -4.7838470124395802e-04 0
1.2080277553311660e+00 1.5935302950889418e-02 0
1.6449159940628271e+00 -5.1148325707856153e-04 0
1.2081518173924590e+00 1.5973417951113091e-02 0
-2.4509817062821429e-01 -1.9104171155322064e-04 0
-1.8019410226487401e-01 -2.2110793483589176e-03 0
5.8121118128365774e+00 -1.2061698362288581e-03 0
4.2907505234025658e+00 9.5872803593208406e-02 0
-2.4610491333884058e-01 -3.9596975372884239e-04 0
-1.8351966555164434e-01 -5.3910270875842580e-03 0
1.6522232086760942e+00 1.0074606505908309e-03 0
1.2317380707205954e+00 3.8339857709431747e-02 0
1.6522279387498346e+00 1.0090205456752348e-03 0
1.2317718940412696e+00 3.8362283658331262e-02 0
-2.4612396588664451e-01 -4.3143526416819191e-04 0
-1.8372351608575102e-01 -5.5332763242583009e-03 0
5.8226452475966646e+00 1.4654263640545334e-02 0
4.4012076150784480e+00 1.7271649394722791e-01 0
-2.4608533736026758e-01 -1.4204658346197764e-03 0
-1.8948335314868994e-01 -8.5886935753533671e-03 0
1.6521008627103853e+00 7.9585935489752523e-03 0
1.2723214194519787e+00 5.9930196844714220e-02 0
1.6520968047019893e+00 7.9610120896480667e-03 0
1.2723713802062524e+00 5.9954961136188152e-02 0
-2.4607202137753978e-01 -1.5067734834841630e-03 0
-1.8982149646805108e-01 -8.7178761329245770e-03 0
5.8126816826727490e+00 4.7987996060950278e-02 0
4.5800778933006319e+00 2.4843606768556309e-01 0
-2.4532770568857309e-01 -3.3206010178272846e-03 0
-1.9860234970112337e-01 -1.1703477638844747e-02 0
1.6470380185607754e+00 2.0625492608680133e-02 0
1.3341206747586858e+00 8.1113525455655117e-02 0
1.6470250782586611e+00 2.0630980431281698e-02 0
1.3341908009233558e+00 8.1141227532409127e-02 0
-2.4527510554166199e-01 -3.4830055983902835e-03 0
-1.9909599353466043e-01 -1.1813618896247114e-02 0
5.7843658197747363e+00 1.1362091069338101e-01 0
4.8396777363248731e+00 3.1957121843344438e-01 0
-2.4326665318958859e-01 -7.0345300251305693e-03 0
-2.1130101689102238e-01 -1.4544554298649821e-02 0
1.6331163950841887e+00 4.5384330985674966e-02 0
1.4199598586895272e+00 1.0064498649066111e-01 0
1.6330968790936975e+00 4.5387757696325123e-02 0
1.4200561335818620e+00 1.0068128169020102e-01 0
-2.4320678431877091e-01 -7.2823493122574252e-03 0
-2.1201335777157226e-01 -1.4640380526878886e-02 0
5.7210785182619395e+00 2.0371506949856541e-01 0
5.1961842583265563e+00 3.9646269988893157e-01 0
-2.4165216948782606e-01 -1.1490608565934772e-02 0
-2.2966103361132054e-01 -1.7936056445895750e-02 0
1.6224024025463704e+00 7.4494301870241711e-02 0
1.5439918616368156e+00 1.2436906477385803e-01 0
1.6223578923057334e+00 7.4502837607873643e-02 0
1.5441132120647405e+00 1.2441610456845009e-01 0
-2.4153846355762570e-01 -1.2028130499801551e-02 0
-2.3068056803720274e-01 -1.7967026907538517e-02 0
5.6908602284338503e+00 4.1374678160774137e-01 0
5.7211943762808319e+00 4.5614493297688646e-01 0
-2.3568769420284366e-01 -2.4746036808484518e-02 0
-2.5431018691162444e-01 -1.9659119890130229e-02 0
1.5809638024188943e+00 1.6255855248883172e-01 0
1.7093217643775300e+00 1.3739640657167615e-01 0
1.5808602477726963e+00 1.6245948802668617e-01 0
1.7094261718378423e+00 1.3748658194894492e-01 0
-2.3638309737299421e-01 -2.5620247536865502e-02 0
-2.5654221598390298e-01 -1.9716567964987063e-02 0
5.5480321217451705e+00 5.5560300873277935e-01 0
6.4775720293571064e+00 6.0921825883363590e-01 0
-2.5354136666030797e-01 -3.0365426736414250e-02 0
-3.0874089459789239e-01 -2.7463975868131148e-02 0
1.6946953862959762e+00 1.8912597594163238e-01 0
2.0682828683763512e+00 1.9316554525910470e-01 0
1.6941800586715896e+00 1.8866349905830507e-01 0
2.0680874566232061e+00 1.9337063402603791e-01 0
-2.5579249817571303e-01 -3.5288015852288558e-02 0
-3.1414686429982841e-01 -2.5703473218300521e-02 0
6.4086983183815862e+00 1.7692713621084895e+00 0
8.3880331878243339e+00 3.8936649453739508e-01 0
-2.7186679704068406e-01 -1.3964532807210572e-01 0
-4.1790796367766730e-01 1.1877912458374410e-02 0
1.9336245358796882e+00 9.1995205568652039e-01 0
2.9144362990609420e+00 1.5754247620544611e-02 0
1.3497518477742017e+00 5.4886750300907283e-01 0
2.2939447833262636e+00 -9.9391245395014510e-03 0
5.5443407689993460e+00 3.4462977593704154e+00 0
5.7138943173464218e+00 4.1627379400046266e-01 0
4.5378462229762934e-01 4.1653772217469009e-01 0
3.8761045661770623e+00 2.5647164762947585e+00 0
2.2401513502960690e+00 2.1125566194599368e+00 0
2.0568525012911620e+00 2.2912189249861887e+00 0
3.5432088478664170e+00 1.2774884603122187e+00 0
5.6428432171570320e-01 -1.8377402807656013e-01 0

VECTORS Forces2 float
3.4456393160118400e-02 -1.5062279555960144e-02 0
5.9152937183363230e-03 7.4339001182406363e-03 0
-3.3327122072696502e-01 1.7779128617446088e-01 0
-2.6907493218963565e-03 -7.7696700965493979e-05 0
-3.6679120432258994e-01 5.4493489999454345e-02 0
-1.1299362398623296e-02 2.0133355560185400e-03 0
-2.3672513586414323e-01 -9.5056304514844273e-03 0
-1.1569460211937986e-02 2.6268794271986734e-04 0
3.5572225327043031e-02 9.1585467511270794e-04 0
1.6265720387063866e-03 3.8444648178176673e-05 0
-9.5144169071731055e-01 -3.9659145496753522e-03 0
-1.0355082011551454e-01 2.6893470124791444e-02 0
4.1564629179207689e-02 -8.7291072790973988e-05 0
5.7470503126004898e-03 -2.1100714832182083e-03 0
-2.7978117261492030e-01 -1.0337741719312033e-03 0
-3.9753542098870553e-02 1.5877957335062254e-02 0
-2.7980070118361150e-01 -1.0245230531861990e-03 0
-3.9757055080809810e-02 1.5900157297331866e-02 0
4.1722827183671915e-02 -9.8185009713015151e-05 0
5.8172967324406537e-03 -2.2227442281259301e-03 0
-1.0003460923522225e+00 -7.8799384462284851e-04 0
-1.3774741491906428e-01 9.2994036821798381e-02 0
4.2143859681245267e-02 -2.2097100488649297e-04 0
4.1453598398387640e-03 -5.4415867062608146e-03 0
-2.8266485124789353e-01 -9.9787898073558755e-05 0
-2.7949755427935347e-02 3.8585733086248859e-02 0
-2.8265994839608993e-01 -1.0072504608869281e-04 0
-2.7919707049026118e-02 3.8610804396834057e-02 0
4.2116215441254365e-02 -2.5039493023312260e-04 0
3.9422635214199078e-03 -5.5863398121181159e-03 0
-9.7876904814211696e-01 6.3431900081058262e-03 0
-2.4199192300326949e-02 1.7738950272706075e-01 0
4.0453116179621072e-02 -9.2191782087245613e-04 0
-3.1195592895063092e-03 -8.9089457033203600e-03 0
-2.7081155644296845e-01 4.6057598557838536e-03 0
2.1761514786000014e-02 6.2073018652525812e-02 0
-2.7079964207608442e-01 4.6054093792638577e-03 0
2.1821314210882417e-02 6.2100468402561483e-02 0
4.0334728400814819e-02 -9.9636844250736026e-04 0
-3.5762822458300712e-03 -9.0465221899974409e-03 0
-9.2257485559861263e-01 3.2855706148614910e-02 0
2.0903821003562076e-01 2.5865267451875601e-01 0
3.7429111428886885e-02 -2.5286120982161132e-03 0
-1.5476851915220370e-02 -1.2252497266893614e-02 0
-2.5014940034568012e-01 1.5283103146901351e-02 0
1.0549534754028986e-01 8.4818067229333646e-02 0
-2.5013325899113992e-01 1.5285933679403748e-02 0
1.0558580684647637e-01 8.4848255402361156e-02 0
3.7250694134786891e-02 -2.6788108594354965e-03 0
-1.6188943294948851e-02 -1.2371657883183082e-02 0
-8.3439845899818554e-01 9.0732720035646766e-02 0
5.7056494234034394e-01 3.3599184395339998e-01 0
3.3430439207177316e-02 -5.9120214728801291e-03 0
-3.3612183024324165e-02 -1.5371292217162425e-02 0
-2.2296409174002702e-01 3.7795095919932742e-02 0
2.2803975541835306e-01 1.0624892776026511e-01 0
-2.2294061277994875e-01 3.7795079442837921e-02 0
2.2816758136543588e-01 1.0628813455365405e-01 0
3.3163059203464247e-02 -6.1434828319299984e-03 0
-3.4655634430187522e-02 -1.5478353717538954e-02 0
-7.2597418007466163e-01 1.7241547321945955e-01 0
1.0850289264421238e+00 4.2006952014014137e-01 0
2.6963978500354334e-02 -9.8763549908741522e-03 0
-5.9788294817435521e-02 -1.9098568337017736e-02 0
-1.7893682394563440e-01 6.3548875090720505e-02 0
4.0470939639044645e-01 1.3226575734446289e-01 0
-1.7891098607706135e-01 6.3549917790706567e-02 0
4.0488291230749440e-01 1.3231667213719864e-01 0
2.6590849200593923e-02 -1.0374929803696031e-02 0
-6.1335218451229780e-02 -1.9142344559317313e-02 0
-5.2129919129552804e-01 3.5992756452465902e-01 0
1.8427033800128656e+00 4.9141081652807045e-01 0
1.9429026007124567e-02 -2.1740263202507309e-02 0
-9.7885320631145786e-02 -2.1235908268678987e-02 0
-1.2827007134091273e-01 1.4205948929633100e-01 0
6.6100842942965055e-01 1.4811667332282108e-01 0
-1.2825333777029113e-01 1.4194484675445548e-01 0
6.6117814933877017e-01 1.4820908757311829e-01 0
1.8318594927097937e-02 -2.2558785562966494e-02 0
-1.0059832120393887e-01 -2.1299599229785589e-02 0
-3.0155739838188172e-01 4.7621685202124997e-01 0
2.9394484308741382e+00 6.3101432923581813e-01 0
-8.9081980088764872e-03 -2.5607572898768281e-02 0
-1.6012707098528067e-01 -2.9024095719493052e-02 0
5.9156288416371473e-02 1.5639448170399228e-01 0
1.0727675404623092e+00 2.0361819494818775e-01 0
5.9048422344673647e-02 1.5585365657954506e-01 0
1.0727118165351555e+00 2.0385806509748158e-01 0
-1.1598469782751572e-02 -3.0337518164846450e-02 0
-1.6649126588955590e-01 -2.7492020280380516e-02 0
9.0284039383522940e-01 1.5056217957249729e+00 0
5.0465256563970868e+00 5.6271079465864582e-01 0
-6.4087501795501461e-02 -1.2385804200574813e-01 0
-3.0078160650065694e-01 -1.3936673617771770e-04 0
5.3325998627641547e-01 8.1244293550735824e-01 0
2.0948267716187288e+00 1.0215965290355125e-01 0
1.3680218310884870e-01 4.2493213242389488e-01 0
1.5914932223935720e+00 6.8107612342783258e-02 0
3.9211930982475032e+00 3.6360535411601171e+00 0
4.6478824174232631e+00 4.8577060701551172e-01 0
2.4900234846010816e-01 4.0960803591318012e-01 0
2.8883197067518367e+00 2.9752674328705293e+00 0
1.8851529959721769e+00 2.4459756293871311e+00 0
1.6766251996258270e+00 2.4895447037703309e+00 0
2.8472994951547035e+00 1.2606583876490738e+00 0
4.8609652857693780e-01 -1.7400384495353907e-01 0

