Timesteps  Total_Iterations  Iterations  Convergence  avgConvRate(0)  avgConvRate(1)  avgConvRate(2)  avgConvRate(3)  avgConvRate(4)  avgConvRate(5)  avgConvRate(6)  avgConvRate(7)  deleted_Columns  
1  22  22  1  0.4970778226992411  0.5007239073851987  0.5040585750426155  0.5048794736268424  0.5047141232443253  0.5869168924583604  0.5869754798242178  0.5872933316046159  0  
2  43  21  1  0.4620094580415410  0.4820711992826850  0.4989403075987599  0.5065057758687195  0.5103483568275370  0.5720012367605193  0.5757135817284422  0.5719859901275752  0  
3  64  21  1  0.4619053052380798  0.4819719256597706  0.4988685833387276  0.5064427549974353  0.5102873977023720  0.5555636323769051  0.5619945170161396  0.5602433940960944  0  
4  84  20  1  0.4461000059984601  0.4592388691495549  0.4750822537491790  0.4899151227575495  0.5021484890819015  0.5474949701546498  0.5580796529146873  0.5580186710515155  0  
5  104  20  1  0.4461306402486729  0.4591842557260904  0.4749213642638191  0.4897712287773742  0.5020505817435358  0.5390883621036850  0.5505045224851474  0.5510558531496819  0  
6  124  20  1  0.4461798990573159  0.4591392023722735  0.4747444064422761  0.4896090981532504  0.5019403522174377  0.5324223880912042  0.5444113250197106  0.5453446707227203  0  
7  144  20  1  0.4462498700177158  0.4591059880480324  0.4745503552316847  0.4894267805256845  0.5018163343294311  0.5269968578318338  0.5393664765958760  0.5405222933958903  0  
8  163  19  1  0.4639170185982801  0.4800299365653579  0.4879004120927091  0.4803412622685358  0.4647272450019808  0.5213606545380006  0.5343771293825595  0.5387419398768428  0  
9  182  19  1  0.4640081080016820  0.4801591331466797  0.4880910487535186  0.4806636035388583  0.4645792383022533  0.5175773586556802  0.5306021381109498  0.5349283478973808  0  
10  201  19  1  0.4641184569015391  0.4803147826766517  0.4883174635797377  0.4810455022691099  0.4644355723427633  0.5145696457072815  0.5274259218859915  0.5316088768740587  0  
11  220  19  1  0.4642502461469833  0.4804998519083731  0.4885836933540020  0.4814936266468087  0.4643089438109327  0.5122400279950552  0.5247732946028814  0.5287220892703967  0  
12  239  19  1  0.4644061819053012  0.4807179514391886  0.4888946809606205  0.4820161092979520  0.4642185750070000  0.5104883635767273  0.5225803412557712  0.5262214897487582  0  
13  257  18  1  0.4700290965221715  0.4903698833450941  0.5047331529653601  0.5063202248370925  0.4989225908277571  0.5075996670109398  0.5152273512709750  0.5206175181852400  0  
14  275  18  1  0.4700420847131718  0.4904352508775786  0.5048721971546095  0.5065373443820781  0.4992224851947389  0.5066832525345550  0.5137283615527848  0.5186776004543936  0  
15  293  18  1  0.4700647633584474  0.4905189238757988  0.5050400053137233  0.5067973713582860  0.4995856658222242  0.5060635400283728  0.5125293145887945  0.5170246564252434  0  
16  311  18  1  0.4700990724745048  0.4906242284141331  0.5052417103257544  0.5071081654090286  0.5000241141242591  0.5056544464397990  0.5115722440385858  0.5156193091643528  0  
17  329  18  1  0.4701473822703794  0.4907552277651023  0.5054836922806043  0.5074795829900738  0.5005529341130430  0.5053833870141508  0.5108019295782271  0.5144202762081924  0  
18  347  18  1  0.4702127220846656  0.4909170679239452  0.5057739808932552  0.5079240585501930  0.5011912471836308  0.5051902296261295  0.5101667867499267  0.5133847589103701  0  
19  364  17  1  0.4608460613778218  0.4851961654716337  0.5056473967859323  0.5118899946743846  0.5109547130696998  0.5072619388731705  0.5107520484661454  0.5096746681814357  0  
20  381  17  1  0.4604500834257400  0.4849202667422148  0.5055921890088301  0.5119421337409400  0.5110254080516676  0.5071101112146931  0.5104284606426329  0.5090150712902760  0  
21  398  17  1  0.4599924326276438  0.4846011559078375  0.5055322732127050  0.5120115186010860  0.5111219826714919  0.5069039728347711  0.5101381449319879  0.5084315614730731  0  
22  415  17  1  0.4594605683260009  0.4842286446769780  0.5054657781643498  0.5121019276482394  0.5112515314264875  0.5066038334521772  0.5098426995254171  0.5078865298132804  0  
23  432  17  1  0.4588394920124222  0.4837901242351177  0.5053903939917751  0.5122183139131898  0.5114235552919324  0.5061690940891072  0.5095040012316610  0.5073445742696319  0  
24  449  17  1  0.4581130392122316  0.4832707393319052  0.5053031125715238  0.5123667933832687  0.5116506473342801  0.5055569607591374  0.5090834980582959  0.5067746735165747  0  
25  466  17  1  0.4572664288362547  0.4826543997833596  0.5052001560239348  0.5125544737378518  0.5119488832930745  0.5047221020142292  0.5085423026321102  0.5061543371520958  0  
26  483  17  1  0.4562924285317939  0.4819270697662053  0.5050771217148692  0.5127884331315821  0.5123368770861084  0.5036177427265622  0.5078433746180137  0.5054786986440871  0  
27  500  17  1  0.4552038195236428  0.4810847352225430  0.5049297517007040  0.5130726949456297  0.5128307555144703  0.5021977799901819  0.5069588895482036  0.5047844073113689  0  
28  517  17  1  0.4540543108437687  0.4801494080827454  0.5047561058848586  0.5134012233334765  0.5134294522178917  0.5004181181250741  0.5058978151222218  0.5042392910139648  0  
29  535  18  1  0.4742765571573386  0.4980358195458643  0.5171029220785192  0.5254963083517254  0.5277783541423956  0.4962386425250443  0.5010837922060778  0.5035431235679509  0  
30  553  18  1  0.4751564776390181  0.4993238515579354  0.5189849274310074  0.5283989327070366  0.5321651548657572  0.4940619446673785  0.5015170994824691  0.5086318786360670  0  
31  573  20  1  0.4754901636880744  0.4944066188668619  0.5061005465657586  0.5139283748247017  0.5196908757251900  0.4982775192754481  0.5211058792623812  0.5424251329543973  0  
32  595  22  1  0.4709690117349574  0.4926290715976784  0.5117958889728539  0.5209933452635560  0.5255595360982497  0.5643025249231982  0.5521157764845409  0.5372268724277137  0  
33  613  18  1  0.4769645340717193  0.5011309129920265  0.5207304503228026  0.5305324586965129  0.5350674060515010  0.5202202829190121  0.5229051644697619  0.5240669885705069  0  
34  631  18  1  0.4769228170491467  0.5005712127923383  0.5194079508511711  0.5282711770027321  0.5317422819357642  0.5118408972114521  0.5167418930652043  0.5192349717976024  0  
35  648  17  1  0.4555883515017612  0.4808001830053837  0.5044738053951374  0.5129734525600448  0.5136460511175301  0.5127889729798778  0.5194969851011646  0.5199578601259944  0  
36  665  17  1  0.4572288679706765  0.4820716557844164  0.5046781633152613  0.5125452086216643  0.5129699961448421  0.5129513027993369  0.5192374195378704  0.5196087602292234  0  
37  682  17  1  0.4587204783164836  0.4831911017279338  0.5048675107962444  0.5121953319532393  0.5123881804804139  0.5139913129550207  0.5197282501739012  0.5199535713411761  0  
38  699  17  1  0.4599688593225038  0.4841066302244308  0.5050299389526209  0.5119278829137458  0.5119264850528670  0.5153939919657253  0.5205725055739443  0.5206727043373783  0  
39  716  17  1  0.4609632958291067  0.4848262651028363  0.5051647797635909  0.5117312456915200  0.5115740635906029  0.5169081772108642  0.5215758597828246  0.5215982088607851  0  
40  733  17  1  0.4617344610588621  0.4853815692559000  0.5052757525021696  0.5115901418432823  0.5113094863142451  0.5184130925412767  0.5226427867442818  0.5226385098885102  0  
41  750  17  1  0.4623246680048127  0.4858074984376077  0.5053675193631180  0.5114908608719209  0.5111120936122813  0.5198589339365033  0.5237306006457976  0.5237457437602425  0  
42  767  17  1  0.4627738728579304  0.4861344563899015  0.5054442798472389  0.5114225684554550  0.5109651629523654  0.5212338923720721  0.5248249656326898  0.5248978866670175  0  
43  784  17  1  0.4631150980647328  0.4863864746558008  0.5055093912802402  0.5113771243548451  0.5108559884985400  0.5225452075819002  0.5259263035546656  0.5260881006575441  0  
44  801  17  1  0.4633740495985835  0.4865817430242613  0.5055653918161078  0.5113485168128868  0.5107751211548835  0.5238087528179003  0.5270424837522099  0.5273184497263802  0  
45  818  17  1  0.4635701863738376  0.4867337668659282  0.5056141446242838  0.5113323098892458  0.5107155520653318  0.5250437453381779  0.5281851446952271  0.5285963774978197  0  
46  836  18  1  0.4715470726847905  0.4913791696318838  0.5052275529510277  0.5071089585213562  0.5013320119342385  0.5231091569246853  0.5277054947116084  0.5317131865103172  0  
47  854  18  1  0.4713609148850657  0.4911521945622992  0.5049460152033006  0.5066981545350145  0.5006777922075264  0.5242958828142590  0.5290019947820573  0.5332171960465103  0  
48  872  18  1  0.4711994893271123  0.4909613738435387  0.5047144923678396  0.5063590465277152  0.5001272423451286  0.5255092849721623  0.5303470109109936  0.5347809024899727  0  
49  890  18  1  0.4710584985299465  0.4908000616597146  0.5045235006914217  0.5060781552198039  0.4996616863811830  0.5267702857808296  0.5317619393106299  0.5364270915178617  0  
50  908  18  1  0.4709346434389972  0.4906630016989953  0.5043655288507966  0.5058448393619206  0.4992663597784148  0.5281016752382683  0.5332708788592709  0.5381818496302145  0  
51  926  18  1  0.4708251908884959  0.4905459821681304  0.5042346468889253  0.5056506960360436  0.4989294858179434  0.5295292179192143  0.5349018092215420  0.5400758181131617  0  
52  945  19  1  0.4643879961771125  0.4801579186406378  0.4878331796390014  0.4808720767715332  0.4639109212442891  0.5317319026835527  0.5412412467761558  0.5446426692236226  0  
53  964  19  1  0.4642065444137608  0.4799498627012380  0.4875738411665810  0.4804059187700760  0.4639205043602304  0.5333703078243126  0.5431557003891937  0.5468131024135305  0  
54  983  19  1  0.4640522011394547  0.4797755098730711  0.4873581411625134  0.4800121345419075  0.4639856913465012  0.5352067827074463  0.5453083994725315  0.5492547591173166  0  
55  1002  19  1  0.4639213503647114  0.4796303280439697  0.4871803532788643  0.4796818725686188  0.4640818935759420  0.5373014804727585  0.5477690651231542  0.5520458930244825  0  
56  1022  20  1  0.4463488704495258  0.4593822009049063  0.4748881969941467  0.4892658101970119  0.5011179291962771  0.5400099506124283  0.5504817115087014  0.5520775509258002  0  
57  1042  20  1  0.4462365667270040  0.4593216974626980  0.4749572856880401  0.4893829854435833  0.5012450379116283  0.5427610183744512  0.5537146426640638  0.5557128544418907  0  
58  1062  20  1  0.4461424938587841  0.4592660550800927  0.4750051190094466  0.4894747934793485  0.5013508306672043  0.5461212787455950  0.5576744014993515  0.5601820493844454  0  
59  1082  20  1  0.4460647332908397  0.4592139807289042  0.4750330974872762  0.4895434962340163  0.5014373469173090  0.5503688738145753  0.5627036726937659  0.5659009792565519  0  
60  1103  21  1  0.4621360684035667  0.4818745198679548  0.4984953298417310  0.5059196612265441  0.5096554312383813  0.5529097754149183  0.5633063791664333  0.5665834926823804  0  
61  1124  21  1  0.4620841659322916  0.4818441524838867  0.4984910322481927  0.5059264068047364  0.5096678723096100  0.5605191578597001  0.5725591975497698  0.5776286094375821  0  
62  1147  23  1  0.4686914958116546  0.4854284360578524  0.4977628991776228  0.4959545423063018  0.4812355417901876  0.5644251088347042  0.5784259139466246  0.5932621185691755  0  
63  1172  25  1  0.4652011890627478  0.4783890064430597  0.4881960357800493  0.4984018365030958  0.5077819992627286  0.5832606321542106  0.6187332903865133  0.6189889415363923  0  
64  1195  23  1  0.4686502011477310  0.4854209455822476  0.4977961175034658  0.4959902703224254  0.4811664140512550  0.5891888739407566  0.5848837506317958  0.5830000311785108  0  
65  1216  21  1  0.4617993221876605  0.4816494312719809  0.4984228145604239  0.5059121644543612  0.5096822657313328  0.5685323027708581  0.5729135318869266  0.5696526615655179  0  
66  1237  21  1  0.4617079554222295  0.4815820775180349  0.4983932629625991  0.5058988626626060  0.5096777953722763  0.5534964367789311  0.5602010923644607  0.5586577038831890  0  
67  1257  20  1  0.4459371689468746  0.4588882359668285  0.4746337600644818  0.4893979835761340  0.5015678060539583  0.5459244418895040  0.5566731919238040  0.5567368680173327  0  
68  1277  20  1  0.4459854741758864  0.4588649190927315  0.4745074921050830  0.4892951320950125  0.5015184932412463  0.5378640922793058  0.5493917027760147  0.5500206538656207  0  
69  1297  20  1  0.4460516686816232  0.4588494163891653  0.4743624297418539  0.4891706248533835  0.5014529961630685  0.5314322846280397  0.5434978916092073  0.5444786800684127  0  
70  1317  20  1  0.4461379273647605  0.4588440994102456  0.4741975067473970  0.4890225329046704  0.5013699820482838  0.5261863633436152  0.5386025094282029  0.5397825195403445  0  
71  1336  19  1  0.4638059729406570  0.4797923769307315  0.4876174599869679  0.4800438383562780  0.4643282733877585  0.5206659105755312  0.5336966238690602  0.5380627818157057  0  
72  1355  19  1  0.4639118568490849  0.4799498417871887  0.4878433701968732  0.4804089452783740  0.4642167834669952  0.5170200573543686  0.5300284530919509  0.5343375581295958  0  
73  1374  19  1  0.4640364235236140  0.4801323741651543  0.4881034633075525  0.4808321942955742  0.4641087236499957  0.5141331685745221  0.5269451022689159  0.5310946161157495  0  
74  1393  19  1  0.4641820131634348  0.4803432045710931  0.4884021043562584  0.4813206831868329  0.4640179488355236  0.5119078715741794  0.5243740632360703  0.5282757365478847  0  
75  1411  18  1  0.4699356369897661  0.4901426393708108  0.5044108115328994  0.5059141031087339  0.4984382714541857  0.5086589488775901  0.5167461385247074  0.5224776854977644  0  
76  1429  18  1  0.4699506649506064  0.4902136180265079  0.5045527621842635  0.5061277190493180  0.4987233291609205  0.5074208252008028  0.5149518953978136  0.5202697535095236  0  
77  1447  18  1  0.4699734890227406  0.4902993467151400  0.5047183243326420  0.5063770024152880  0.4990614761093036  0.5065607954937934  0.5135073660029404  0.5183806358201841  0  
78  1465  18  1  0.4700057602575178  0.4904026950148983  0.5049118955014212  0.5066686164113658  0.4994627739217321  0.5059821655795862  0.5123530076281739  0.5167721380988124  0  
79  1483  18  1  0.4700494519743376  0.4905271022363820  0.5051388690205564  0.5070108316488955  0.4999398053573257  0.5056009957960212  0.5114311088506730  0.5154044150265957  0  
80  1501  18  1  0.4701070642240527  0.4906768822768455  0.5054059757769569  0.5074140014901551  0.5005083947780896  0.5053469349084750  0.5106870269061279  0.5142359052248261  0  
81  1519  18  1  0.4701817903946306  0.4908574565592038  0.5057216434048195  0.5078911483707022  0.5011885377758571  0.5051617203441059  0.5100698174608063  0.5132235959847287  0  
82  1536  17  1  0.4607436776584631  0.4850704921990203  0.5055416557179642  0.5117929055094358  0.5108542799197393  0.5072384388908363  0.5106935795461156  0.5095567167043380  0  
83  1553  17  1  0.4603436520232402  0.4847995870577538  0.5055005647962829  0.5118650625459208  0.5109486436691409  0.5070803277889472  0.5103783696111017  0.5089126720097348  0  
84  1570  17  1  0.4598794935818156  0.4844829439885749  0.5054532968892153  0.5119536470891184  0.5110683416183859  0.5068611664323597  0.5100898628813121  0.5083382268107736  0  
85  1587  17  1  0.4593383052998407  0.4841100264700419  0.5053979266987864  0.5120626303986980  0.5112208580011334  0.5065412798402060  0.5097898152925441  0.5077961010226890  0  
86  1604  17  1  0.4587048013616646  0.4836678419024817  0.5053320544757718  0.5121971748114937  0.5114161813161821  0.5060797767657338  0.5094400756017949  0.5072514524454336  0  
87  1621  17  1  0.4579628070047880  0.4831412274752324  0.5052525549587412  0.5123635958601314  0.5116674835775110  0.5054334242099541  0.5090019908616330  0.5066743171916326  0  
88  1638  17  1  0.4570982445397800  0.4825141181056810  0.5051555248370405  0.5125690999962743  0.5119913881417960  0.5045565309420640  0.5084367490545905  0.5060443252562227  0  
89  1655  17  1  0.4561061595104409  0.4817734298342244  0.5050364982530202  0.5128205313623312  0.5124066034366491  0.5034022798321865  0.5077081097205685  0.5053612003449978  0  
90  1672  17  1  0.4550045300216467  0.4809181360616375  0.5048913931746473  0.5131208384431848  0.5129277435177605  0.5019248618478687  0.5067914192083361  0.5046737941676201  0  
91  1689  17  1  0.4538564580776784  0.4799768874413842  0.5047190162716466  0.5134611873328282  0.5135483039825220  0.5000806178691465  0.5057093271634712  0.5041962713467332  0  
92  1707  18  1  0.4744184598212502  0.4982498481387445  0.5174310286391952  0.5260149383942145  0.5285740099104868  0.4958667545478114  0.5009483577995756  0.5038006194024930  0  
93  1725  18  1  0.4753003560052467  0.4995234388485490  0.5192731543966403  0.5288429910416386  0.5328292218064664  0.4937912687230014  0.5022180604598051  0.5110088744837271  0  
94  1746  21  1  0.4572099668259358  0.4722018649312718  0.4869583182590094  0.4957607538482398  0.5001619452895913  0.5025368755525880  0.5282976771168375  0.5554834598100206  0  
95  1768  22  1  0.4710480426833800  0.4926806522404164  0.5118077760862794  0.5209829158489599  0.5255337123678976  0.5657015556255205  0.5412925829972643  0.5326773679798542  0  
96  1786  18  1  0.4769811712333169  0.5010745655251764  0.5205705664697101  0.5302489300154115  0.5346467939501705  0.5177753773328022  0.5212319267799100  0.5228206975374730  0  
97  1803  17  1  0.4542490703118758  0.4797262253238111  0.5043143380956223  0.5133715600047366  0.5142304090021538  0.5141606272968157  0.5209171449425458  0.5212601808779380  0  
98  1820  17  1  0.4558637255117819  0.4810139476833620  0.5045071620348456  0.5129026072917315  0.5135417048955148  0.5127179959245080  0.5193726166427828  0.5198286718462032  0  
99  1837  17  1  0.4574891552323623  0.4822646695188405  0.5047068862062463  0.5124812623118344  0.5128709947578818  0.5130837838690004  0.5192820746283650  0.5196297280235561  0  
100  1854  17  1  0.4589420807353806  0.4833476316866819  0.5048871160734928  0.5121393336911088  0.5123015049128360  0.5142108901109559  0.5198525027518240  0.5200541865859880  0  