# vtk DataFile Version 2.0

ASCII

DATASET UNSTRUCTURED_GRID

POINTS 106 float 

-5.0000000000000003e-02  0.0000000000000000e+00  0.0000000000000000e+00
5.0000000000000003e-02  0.0000000000000000e+00  0.0000000000000000e+00
-5.0000000000000003e-02  2.0000000000000000e-02  0.0000000000000000e+00
5.0000000000000003e-02  2.0000000000000000e-02  0.0000000000000000e+00
-5.0000000000000003e-02  4.0000000000000001e-02  0.0000000000000000e+00
5.0000000000000003e-02  4.0000000000000001e-02  0.0000000000000000e+00
-5.0000000000000003e-02  5.9999999999999998e-02  0.0000000000000000e+00
5.0000000000000003e-02  5.9999999999999998e-02  0.0000000000000000e+00
-5.0000000000000003e-02  8.0000000000000002e-02  0.0000000000000000e+00
5.0000000000000003e-02  8.0000000000000002e-02  0.0000000000000000e+00
-5.0000000000000003e-02  1.0000000000000001e-01  0.0000000000000000e+00
5.0000000000000003e-02  1.0000000000000001e-01  0.0000000000000000e+00
-5.0000000000000003e-02  1.2000000000000000e-01  0.0000000000000000e+00
5.0000000000000003e-02  1.2000000000000000e-01  0.0000000000000000e+00
-5.0000000000000003e-02  1.4000000000000001e-01  0.0000000000000000e+00
5.0000000000000003e-02  1.4000000000000001e-01  0.0000000000000000e+00
-5.0000000000000003e-02  1.6000000000000000e-01  0.0000000000000000e+00
5.0000000000000003e-02  1.6000000000000000e-01  0.0000000000000000e+00
-5.0000000000000003e-02  1.7999999999999999e-01  0.0000000000000000e+00
5.0000000000000003e-02  1.7999999999999999e-01  0.0000000000000000e+00
-5.0000000000000003e-02  2.0000000000000001e-01  0.0000000000000000e+00
5.0000000000000003e-02  2.0000000000000001e-01  0.0000000000000000e+00
-5.0000000000000003e-02  2.2000000000000000e-01  0.0000000000000000e+00
5.0000000000000003e-02  2.2000000000000000e-01  0.0000000000000000e+00
-5.0000000000000003e-02  2.3999999999999999e-01  0.0000000000000000e+00
5.0000000000000003e-02  2.3999999999999999e-01  0.0000000000000000e+00
-5.0000000000000003e-02  2.6000000000000001e-01  0.0000000000000000e+00
5.0000000000000003e-02  2.6000000000000001e-01  0.0000000000000000e+00
-5.0000000000000003e-02  2.8000000000000003e-01  0.0000000000000000e+00
5.0000000000000003e-02  2.8000000000000003e-01  0.0000000000000000e+00
-5.0000000000000003e-02  2.9999999999999999e-01  0.0000000000000000e+00
5.0000000000000003e-02  2.9999999999999999e-01  0.0000000000000000e+00
-5.0000000000000003e-02  3.2000000000000001e-01  0.0000000000000000e+00
5.0000000000000003e-02  3.2000000000000001e-01  0.0000000000000000e+00
-5.0000000000000003e-02  3.4000000000000002e-01  0.0000000000000000e+00
5.0000000000000003e-02  3.4000000000000002e-01  0.0000000000000000e+00
-5.0000000000000003e-02  3.5999999999999999e-01  0.0000000000000000e+00
5.0000000000000003e-02  3.5999999999999999e-01  0.0000000000000000e+00
-5.0000000000000003e-02  3.8000000000000000e-01  0.0000000000000000e+00
5.0000000000000003e-02  3.8000000000000000e-01  0.0000000000000000e+00
-5.0000000000000003e-02  4.0000000000000002e-01  0.0000000000000000e+00
5.0000000000000003e-02  4.0000000000000002e-01  0.0000000000000000e+00
-5.0000000000000003e-02  4.1999999999999998e-01  0.0000000000000000e+00
5.0000000000000003e-02  4.1999999999999998e-01  0.0000000000000000e+00
-5.0000000000000003e-02  4.4000000000000000e-01  0.0000000000000000e+00
5.0000000000000003e-02  4.4000000000000000e-01  0.0000000000000000e+00
-5.0000000000000003e-02  4.6000000000000002e-01  0.0000000000000000e+00
5.0000000000000003e-02  4.6000000000000002e-01  0.0000000000000000e+00
-5.0000000000000003e-02  4.7999999999999998e-01  0.0000000000000000e+00
5.0000000000000003e-02  4.7999999999999998e-01  0.0000000000000000e+00
-5.0000000000000003e-02  5.0000000000000000e-01  0.0000000000000000e+00
5.0000000000000003e-02  5.0000000000000000e-01  0.0000000000000000e+00
-5.0000000000000003e-02  5.2000000000000002e-01  0.0000000000000000e+00
5.0000000000000003e-02  5.2000000000000002e-01  0.0000000000000000e+00
-5.0000000000000003e-02  5.4000000000000004e-01  0.0000000000000000e+00
5.0000000000000003e-02  5.4000000000000004e-01  0.0000000000000000e+00
-5.0000000000000003e-02  5.6000000000000005e-01  0.0000000000000000e+00
5.0000000000000003e-02  5.6000000000000005e-01  0.0000000000000000e+00
-5.0000000000000003e-02  5.7999999999999996e-01  0.0000000000000000e+00
5.0000000000000003e-02  5.7999999999999996e-01  0.0000000000000000e+00
-5.0000000000000003e-02  5.9999999999999998e-01  0.0000000000000000e+00
5.0000000000000003e-02  5.9999999999999998e-01  0.0000000000000000e+00
-5.0000000000000003e-02  6.2000000000000000e-01  0.0000000000000000e+00
5.0000000000000003e-02  6.2000000000000000e-01  0.0000000000000000e+00
-5.0000000000000003e-02  6.4000000000000001e-01  0.0000000000000000e+00
5.0000000000000003e-02  6.4000000000000001e-01  0.0000000000000000e+00
-5.0000000000000003e-02  6.6000000000000003e-01  0.0000000000000000e+00
5.0000000000000003e-02  6.6000000000000003e-01  0.0000000000000000e+00
-5.0000000000000003e-02  6.8000000000000005e-01  0.0000000000000000e+00
5.0000000000000003e-02  6.8000000000000005e-01  0.0000000000000000e+00
-5.0000000000000003e-02  6.9999999999999996e-01  0.0000000000000000e+00
5.0000000000000003e-02  6.9999999999999996e-01  0.0000000000000000e+00
-5.0000000000000003e-02  7.1999999999999997e-01  0.0000000000000000e+00
5.0000000000000003e-02  7.1999999999999997e-01  0.0000000000000000e+00
-5.0000000000000003e-02  7.3999999999999999e-01  0.0000000000000000e+00
5.0000000000000003e-02  7.3999999999999999e-01  0.0000000000000000e+00
-5.0000000000000003e-02  7.6000000000000001e-01  0.0000000000000000e+00
5.0000000000000003e-02  7.6000000000000001e-01  0.0000000000000000e+00
-5.0000000000000003e-02  7.8000000000000003e-01  0.0000000000000000e+00
5.0000000000000003e-02  7.8000000000000003e-01  0.0000000000000000e+00
-5.0000000000000003e-02  8.0000000000000004e-01  0.0000000000000000e+00
5.0000000000000003e-02  8.0000000000000004e-01  0.0000000000000000e+00
-5.0000000000000003e-02  8.1999999999999995e-01  0.0000000000000000e+00
5.0000000000000003e-02  8.1999999999999995e-01  0.0000000000000000e+00
-5.0000000000000003e-02  8.3999999999999997e-01  0.0000000000000000e+00
5.0000000000000003e-02  8.3999999999999997e-01  0.0000000000000000e+00
-5.0000000000000003e-02  8.5999999999999999e-01  0.0000000000000000e+00
5.0000000000000003e-02  8.5999999999999999e-01  0.0000000000000000e+00
-5.0000000000000003e-02  8.8000000000000000e-01  0.0000000000000000e+00
5.0000000000000003e-02  8.8000000000000000e-01  0.0000000000000000e+00
-5.0000000000000003e-02  9.0000000000000002e-01  0.0000000000000000e+00
5.0000000000000003e-02  9.0000000000000002e-01  0.0000000000000000e+00
-5.0000000000000003e-02  9.2000000000000004e-01  0.0000000000000000e+00
5.0000000000000003e-02  9.2000000000000004e-01  0.0000000000000000e+00
-5.0000000000000003e-02  9.3999999999999995e-01  0.0000000000000000e+00
5.0000000000000003e-02  9.3999999999999995e-01  0.0000000000000000e+00
-5.0000000000000003e-02  9.5999999999999996e-01  0.0000000000000000e+00
5.0000000000000003e-02  9.5999999999999996e-01  0.0000000000000000e+00
-5.0000000000000003e-02  9.7999999999999998e-01  0.0000000000000000e+00
5.0000000000000003e-02  9.7999999999999998e-01  0.0000000000000000e+00
-5.0000000000000003e-02  1.0000000000000000e+00  0.0000000000000000e+00
-3.0000000000000002e-02  1.0000000000000000e+00  0.0000000000000000e+00
-1.0000000000000002e-02  1.0000000000000000e+00  0.0000000000000000e+00
1.0000000000000009e-02  1.0000000000000000e+00  0.0000000000000000e+00
2.9999999999999999e-02  1.0000000000000000e+00  0.0000000000000000e+00
5.0000000000000003e-02  1.0000000000000000e+00  0.0000000000000000e+00

CELLS 0 0


CELL_TYPES 0


POINT_DATA 106

VECTORS VertexNormals float

0.0000000000000000e+00 0.0000000000000000e+00 0
0.0000000000000000e+00 0.0000000000000000e+00 0
0.0000000000000000e+00 0.0000000000000000e+00 0
0.0000000000000000e+00 0.0000000000000000e+00 0
0.0000000000000000e+00 0.0000000000000000e+00 0
0.0000000000000000e+00 0.0000000000000000e+00 0
0.0000000000000000e+00 0.0000000000000000e+00 0
0.0000000000000000e+00 0.0000000000000000e+00 0
0.0000000000000000e+00 0.0000000000000000e+00 0
0.0000000000000000e+00 0.0000000000000000e+00 0
0.0000000000000000e+00 0.0000000000000000e+00 0
0.0000000000000000e+00 0.0000000000000000e+00 0
0.0000000000000000e+00 0.0000000000000000e+00 0
0.0000000000000000e+00 0.0000000000000000e+00 0
0.0000000000000000e+00 0.0000000000000000e+00 0
0.0000000000000000e+00 0.0000000000000000e+00 0
0.0000000000000000e+00 0.0000000000000000e+00 0
0.0000000000000000e+00 0.0000000000000000e+00 0
0.0000000000000000e+00 0.0000000000000000e+00 0
0.0000000000000000e+00 0.0000000000000000e+00 0
0.0000000000000000e+00 0.0000000000000000e+00 0
0.0000000000000000e+00 0.0000000000000000e+00 0
0.0000000000000000e+00 0.0000000000000000e+00 0
0.0000000000000000e+00 0.0000000000000000e+00 0
0.0000000000000000e+00 0.0000000000000000e+00 0
0.0000000000000000e+00 0.0000000000000000e+00 0
0.0000000000000000e+00 0.0000000000000000e+00 0
0.0000000000000000e+00 0.0000000000000000e+00 0
0.0000000000000000e+00 0.0000000000000000e+00 0
0.0000000000000000e+00 0.0000000000000000e+00 0
0.0000000000000000e+00 0.0000000000000000e+00 0
0.0000000000000000e+00 0.0000000000000000e+00 0
0.0000000000000000e+00 0.0000000000000000e+00 0
0.0000000000000000e+00 0.0000000000000000e+00 0
0.0000000000000000e+00 0.0000000000000000e+00 0
0.0000000000000000e+00 0.0000000000000000e+00 0
0.0000000000000000e+00 0.0000000000000000e+00 0
0.0000000000000000e+00 0.0000000000000000e+00 0
0.0000000000000000e+00 0.0000000000000000e+00 0
0.0000000000000000e+00 0.0000000000000000e+00 0
0.0000000000000000e+00 0.0000000000000000e+00 0
0.0000000000000000e+00 0.0000000000000000e+00 0
0.0000000000000000e+00 0.0000000000000000e+00 0
0.0000000000000000e+00 0.0000000000000000e+00 0
0.0000000000000000e+00 0.0000000000000000e+00 0
0.0000000000000000e+00 0.0000000000000000e+00 0
0.0000000000000000e+00 0.0000000000000000e+00 0
0.0000000000000000e+00 0.0000000000000000e+00 0
0.0000000000000000e+00 0.0000000000000000e+00 0
0.0000000000000000e+00 0.0000000000000000e+00 0
0.0000000000000000e+00 0.0000000000000000e+00 0
0.0000000000000000e+00 0.0000000000000000e+00 0
0.0000000000000000e+00 0.0000000000000000e+00 0
0.0000000000000000e+00 0.0000000000000000e+00 0
0.0000000000000000e+00 0.0000000000000000e+00 0
0.0000000000000000e+00 0.0000000000000000e+00 0
0.0000000000000000e+00 0.0000000000000000e+00 0
0.0000000000000000e+00 0.0000000000000000e+00 0
0.0000000000000000e+00 0.0000000000000000e+00 0
0.0000000000000000e+00 0.0000000000000000e+00 0
0.0000000000000000e+00 0.0000000000000000e+00 0
0.0000000000000000e+00 0.0000000000000000e+00 0
0.0000000000000000e+00 0.0000000000000000e+00 0
0.0000000000000000e+00 0.0000000000000000e+00 0
0.0000000000000000e+00 0.0000000000000000e+00 0
0.0000000000000000e+00 0.0000000000000000e+00 0
0.0000000000000000e+00 0.0000000000000000e+00 0
0.0000000000000000e+00 0.0000000000000000e+00 0
0.0000000000000000e+00 0.0000000000000000e+00 0
0.0000000000000000e+00 0.0000000000000000e+00 0
0.0000000000000000e+00 0.0000000000000000e+00 0
0.0000000000000000e+00 0.0000000000000000e+00 0
0.0000000000000000e+00 0.0000000000000000e+00 0
0.0000000000000000e+00 0.0000000000000000e+00 0
0.0000000000000000e+00 0.0000000000000000e+00 0
0.0000000000000000e+00 0.0000000000000000e+00 0
0.0000000000000000e+00 0.0000000000000000e+00 0
0.0000000000000000e+00 0.0000000000000000e+00 0
0.0000000000000000e+00 0.0000000000000000e+00 0
0.0000000000000000e+00 0.0000000000000000e+00 0
0.0000000000000000e+00 0.0000000000000000e+00 0
0.0000000000000000e+00 0.0000000000000000e+00 0
0.0000000000000000e+00 0.0000000000000000e+00 0
0.0000000000000000e+00 0.0000000000000000e+00 0
0.0000000000000000e+00 0.0000000000000000e+00 0
0.0000000000000000e+00 0.0000000000000000e+00 0
0.0000000000000000e+00 0.0000000000000000e+00 0
0.0000000000000000e+00 0.0000000000000000e+00 0
0.0000000000000000e+00 0.0000000000000000e+00 0
0.0000000000000000e+00 0.0000000000000000e+00 0
0.0000000000000000e+00 0.0000000000000000e+00 0
0.0000000000000000e+00 0.0000000000000000e+00 0
0.0000000000000000e+00 0.0000000000000000e+00 0
0.0000000000000000e+00 0.0000000000000000e+00 0
0.0000000000000000e+00 0.0000000000000000e+00 0
0.0000000000000000e+00 0.0000000000000000e+00 0
0.0000000000000000e+00 0.0000000000000000e+00 0
0.0000000000000000e+00 0.0000000000000000e+00 0
0.0000000000000000e+00 0.0000000000000000e+00 0
0.0000000000000000e+00 0.0000000000000000e+00 0
0.0000000000000000e+00 0.0000000000000000e+00 0
0.0000000000000000e+00 0.0000000000000000e+00 0
0.0000000000000000e+00 0.0000000000000000e+00 0
0.0000000000000000e+00 0.0000000000000000e+00 0
0.0000000000000000e+00 0.0000000000000000e+00 0
0.0000000000000000e+00 0.0000000000000000e+00 0

VECTORS Displacements1 float
-5.1691934173264802e-17 2.8877844794559956e-17 0
-6.1867439651935214e-23 -3.4953019267115263e-24 0
8.2325656459674033e-07 1.4735325542029315e-08 0
8.0549017113241897e-07 2.8497707320267592e-08 0
1.1745316504609547e-06 2.3064631980906991e-08 0
1.1195610485298475e-06 3.0169677627530167e-08 0
1.1138669211255851e-06 2.5829303529496587e-08 0
1.0638721667947352e-06 1.9899498536405824e-08 0
9.5108400992134188e-07 5.6334798508593081e-08 0
9.2495606115439653e-07 -3.4907388950403214e-08 0
2.0466615008414776e-06 3.0371787446226549e-08 0
1.9019692025867671e-06 1.2815904552340255e-07 0
9.2680537674201461e-07 -1.2299347244186949e-07 0
8.9843923158137775e-07 1.3327096049954564e-07 0
1.1089886852519345e-06 -5.4452463980050365e-09 0
1.0623038747948141e-06 7.5900967948089085e-08 0
1.1101988425077452e-06 3.2405897528831841e-08 0
1.0648645916817874e-06 4.3672370694453251e-08 0
9.3640002687750849e-07 9.6895003382806435e-08 0
9.1713371005807636e-07 -5.1615487444465321e-08 0
2.0519409357164071e-06 6.6895688546601821e-08 0
1.9295982095885942e-06 1.3452371436260005e-07 0
9.3898745133575797e-07 -1.0208696387775293e-07 0
9.1139880503486036e-07 1.4002043571169164e-07 0
1.1151529305547304e-06 4.5830294312478278e-09 0
1.0818249515273051e-06 9.6212386009323013e-08 0
1.1187166952983327e-06 3.8276156559865486e-08 0
1.0891289373831462e-06 6.8898698255710886e-08 0
9.4884750077119138e-07 9.9374121019587666e-08 0
9.4338334146412891e-07 -2.8340383305432835e-08 0
2.0679464202595686e-06 6.7088000837839713e-08 0
2.0054581030128938e-06 1.8939886615041498e-07 0
9.5567912625183232e-07 -1.0134698104558437e-07 0
9.3788599112323583e-07 1.7373637726498937e-07 0
1.1335886492147362e-06 8.0923736922938024e-09 0
1.1270520057543055e-06 1.2962941137321607e-07 0
1.1398028552480006e-06 4.4111613684900720e-08 0
1.1392033318280981e-06 1.0069623165108888e-07 0
9.7257842928350681e-07 1.0683890565649731e-07 0
9.9029647238395345e-07 -6.1299134386796138e-09 0
2.0958684165290198e-06 7.9769712358717996e-08 0
2.1344478427427072e-06 2.4383849026899481e-07 0
9.8411219483490196e-07 -9.2502923093438378e-08 0
9.8396321713632180e-07 2.0842368984950395e-07 0
1.1630668909720930e-06 2.1656860013483787e-08 0
1.1983770559313597e-06 1.6170293431281835e-07 0
1.1719185630740788e-06 6.1472331479866392e-08 0
1.2157140835447841e-06 1.3002603905329625e-07 0
1.0071115988186476e-06 1.2671315099374519e-07 0
1.0584975663846726e-06 9.8556548649421681e-09 0
2.1367139973184002e-06 1.1366628091910788e-07 0
2.3237218810836436e-06 2.9570971097941350e-07 0
1.0258869943703059e-06 -7.1019634367742377e-08 0
1.0525627041590502e-06 2.4323884146140503e-07 0
1.2038865897317119e-06 5.0196253166910681e-08 0
1.2998761012722705e-06 1.9167869660837576e-07 0
1.2157968433844513e-06 9.4287420401193877e-08 0
1.3235434424724828e-06 1.5678955766860204e-07 0
1.0545334001088717e-06 1.5952621736701428e-07 0
1.1533762511927023e-06 2.0642027286049653e-08 0
2.1878709929290787e-06 1.6703936954604244e-07 0
2.5866614573826247e-06 3.5024406895088965e-07 0
1.0847345774128561e-06 -3.3088864763973289e-08 0
1.1497162330122029e-06 2.7913768607298387e-07 0
1.2676118981980599e-06 9.8851204006927394e-08 0
1.4455965071235892e-06 2.1999227808066171e-07 0
1.2855318026046881e-06 1.5324020714847807e-07 0
1.4793348125590555e-06 1.7871418995003072e-07 0
1.1292118707620120e-06 2.2921507152635379e-07 0
1.2916475435615420e-06 1.6191338938706179e-08 0
2.2962240551577889e-06 2.8776481863151630e-07 0
2.9748817434371796e-06 3.9455236095433570e-07 0
1.1808178596927237e-06 3.7795781537209520e-08 0
1.2972715571646578e-06 3.1473015602439105e-07 0
1.3598071728620295e-06 1.9179084621573961e-07 0
1.6579713263858993e-06 2.4234265794834565e-07 0
1.3893660578552490e-06 2.5248224984015589e-07 0
1.7096691466810420e-06 1.9658351915862419e-07 0
1.2509245553120173e-06 3.1590521072332782e-07 0
1.5072085162580265e-06 1.1585404522962834e-08 0
2.4410924320557092e-06 4.1089254761864848e-07 0
3.5506045617954388e-06 4.7754554520545168e-07 0
1.3544461336795450e-06 1.8385489476880984e-07 0
1.5327282417908893e-06 3.4882647715226440e-07 0
1.6434363595249022e-06 4.4825823559350844e-07 0
2.0511821026202357e-06 2.3994384208321593e-07 0
1.7670966152062022e-06 7.1436016152014282e-07 0
2.1599406102656799e-06 1.3924249771524889e-07 0
1.7173929034233077e-06 1.1562130671372699e-06 0
1.9317803772693740e-06 -2.2699066244521205e-07 0
3.4429284683700531e-06 2.0442462485063973e-06 0
4.8014881331205342e-06 9.4427590640737410e-08 0
2.1724123218810183e-06 2.3230763495140600e-06 0
2.1160392577428900e-06 -3.9639521474973378e-07 0
3.1439638243816963e-06 4.0758355581927665e-06 0
3.4187381823657490e-06 -1.3602118125593113e-06 0
4.6591434248504304e-06 5.9951606583032819e-06 0
4.7839030190125667e-06 -2.5191767052875152e-06 0
8.9678961874406545e-06 8.4665507984446059e-06 0
8.4619434777657020e-06 -3.3277631477916603e-06 0
1.1365998173396118e-05 8.5126257734385139e-06 0
1.1389402813766991e-05 5.6386799029204902e-06 0
1.0131402356490196e-05 3.0524288033129543e-06 0
9.7407934319176488e-06 1.3782773797348962e-06 0
1.0474674063424711e-05 -9.6841842866154380e-07 0
1.0143224361029285e-05 -3.9990644766538051e-06 0

VECTORS Displacements2 float
-5.1763135749607518e-17 2.8917641699489378e-17 0
-6.2584469216426969e-23 -3.0935535816649757e-24 0
8.3262425630923943e-07 2.0754881005922088e-08 0
8.1448154178304273e-07 2.2733271761686989e-08 0
1.1928519253383137e-06 2.9831017547137220e-08 0
1.1369337601527452e-06 2.3576886433382703e-08 0
1.1380016205742783e-06 3.0215184321840427e-08 0
1.0873582463948778e-06 1.5630162473472244e-08 0
9.7742005012535097e-07 5.7683317273714064e-08 0
9.5058942650239634e-07 -3.6104414570114858e-08 0
2.0739197501656517e-06 3.0073138207968927e-08 0
1.9267220770473505e-06 1.2883143691681329e-07 0
9.5221587625697588e-07 -1.2366792151733606e-07 0
9.2347857209886909e-07 1.3427933519694996e-07 0
1.1347518592364610e-06 -5.7163093134781229e-09 0
1.0871384095772892e-06 7.6736953647240000e-08 0
1.1361864570086979e-06 3.2337270219049179e-08 0
1.0900459450919955e-06 4.4411077077485708e-08 0
9.6274140837076197e-07 9.6850626359188230e-08 0
9.4261938479099504e-07 -5.0613405697888152e-08 0
2.0792560839958479e-06 6.7110799649463647e-08 0
1.9545033950944669e-06 1.3533789222570254e-07 0
9.6522479829467540e-07 -1.0197485396781047e-07 0
9.3703572100071084e-07 1.4073751691662040e-07 0
1.1415935494380422e-06 4.7996255538610406e-09 0
1.1071157218348661e-06 9.7297985232188606e-08 0
1.1451059031479398e-06 3.8764992842633313e-08 0
1.1147054098163178e-06 6.9863162075651186e-08 0
9.7567321152056438e-07 9.9797611047013184e-08 0
9.6923994566139014e-07 -2.7076744995812295e-08 0
2.0959949139317227e-06 6.7640000050486620e-08 0
2.0307948608340789e-06 1.9068429614774425e-07 0
9.8262761776197267e-07 -1.0100584815204344e-07 0
9.6411389529635704e-07 1.7497475821752689e-07 0
1.1608223764160776e-06 8.5988606567275005e-09 0
1.1529721883418188e-06 1.3121561803549846e-07 0
1.1670593323645874e-06 4.4930854918455407e-08 0
1.1655398445739288e-06 1.0218881590704893e-07 0
1.0004057658729598e-06 1.0763092354695202e-07 0
1.0169855273980899e-06 -4.3138207560524224e-09 0
2.1250907338474636e-06 8.0746177502955664e-08 0
2.1605727993688623e-06 2.4567267925244761e-07 0
1.0122018553334253e-06 -9.1774192917131468e-08 0
1.0111524374728289e-06 2.1014295739359036e-07 0
1.1915335460960034e-06 2.2642931247792194e-08 0
1.2253514590261464e-06 1.6379489593837196e-07 0
1.2004861076953955e-06 6.2835588566010916e-08 0
1.2432190488168039e-06 1.3202450246568607e-07 0
1.0364202667613593e-06 1.2810692779334530e-07 0
1.0864350743670163e-06 1.2218593657149212e-08 0
2.1676234200179419e-06 1.1531066635947427e-07 0
2.3510283051415304e-06 2.9808265426828146e-07 0
1.0556258273372160e-06 -6.9663917441831918e-08 0
1.0811645825367940e-06 2.4540595463463818e-07 0
1.2341130480548942e-06 5.1932682720024602e-08 0
1.3283822210553045e-06 1.9425960705540188e-07 0
1.2462180155031935e-06 9.6500803303712145e-08 0
1.3527281941449100e-06 1.5926846333162317e-07 0
1.0859331426346922e-06 1.6187045308622119e-07 0
1.1830928320099865e-06 2.3533787414959154e-08 0
2.2211117530961251e-06 1.6975621352314341e-07 0
2.6156390767837624e-06 3.5311464635671843e-07 0
1.1167799700409204e-06 -3.0638699493157822e-08 0
1.1802988204692136e-06 2.8165080663931410e-07 0
1.3003508178511799e-06 1.0190490238009101e-07 0
1.4762722483490088e-06 2.2295433483059500e-07 0
1.3186411592739257e-06 1.5690799038455191e-07 0
1.5109384043749493e-06 1.8157743824351958e-07 0
1.1636931287425646e-06 2.3314103598723546e-07 0
1.3239813636745573e-06 1.9578140049384856e-08 0
2.3329647597981868e-06 2.9220696426877477e-07 0
3.0064327668038506e-06 3.9790647911554597e-07 0
1.2164639738656274e-06 4.1957916195944182e-08 0
1.3310062953552279e-06 3.1752793879473962e-07 0
1.3964453403086597e-06 1.9683592356523307e-07 0
1.6921787363681282e-06 2.4566276041599397e-07 0
1.4268773629374307e-06 2.5870958310266149e-07 0
1.7453045088925452e-06 1.9964157084972051e-07 0
1.2904623826824550e-06 3.2270726403572053e-07 0
1.5439091738435807e-06 1.5177275454501213e-08 0
2.4835384469009110e-06 4.1948536146069075e-07 0
3.5861403199601708e-06 4.8086977399821813e-07 0
1.3973785107913709e-06 1.9531549476345972e-07 0
1.5714193192842221e-06 3.5093433394476856e-07 0
1.6891676004256496e-06 4.6584071379400957e-07 0
2.0913816384110322e-06 2.4169174580812816e-07 0
1.8172452051927020e-06 7.4008086993241310e-07 0
2.2017844037367269e-06 1.3959968294446179e-07 0
1.7712002221322310e-06 1.1936179849853004e-06 0
1.9750083868249638e-06 -2.2983129266677543e-07 0
3.5010596314860991e-06 2.1007931394896973e-06 0
4.8439306496680109e-06 8.2348424764135110e-08 0
2.2399543087436894e-06 2.4044570304405302e-06 0
2.1704997873162105e-06 -4.2624491526149392e-07 0
3.2365213303492570e-06 4.1867066028915827e-06 0
3.4985531402090694e-06 -1.4093587692386412e-06 0
4.7938171350000489e-06 6.1321653225875932e-06 0
4.9053886570046472e-06 -2.5838864896122574e-06 0
9.1554392628042103e-06 8.6198541693732513e-06 0
8.6297247237709615e-06 -3.3976320228953767e-06 0
1.1604517354294961e-05 8.6694877733735578e-06 0
1.1624425600549255e-05 5.7465759639397156e-06 0
1.0357640861144279e-05 3.1108667838229044e-06 0
9.9587626388954574e-06 1.3922014152511882e-06 0
1.0687242924702604e-05 -9.9738642562674378e-07 0
1.0355174357870623e-05 -4.0694308134562435e-06 0

VECTORS Forces1 float
-4.9394681310088018e-01 2.9143629917094438e-01 0
-2.9454999445934882e-01 -1.7664897171492575e-01 0
6.4271494223633967e+00 -3.5569933007861794e+00 0
3.9425546058470426e+00 2.1809743075530026e+00 0
7.0449951401434117e+00 -1.0936801070028626e+00 0
4.3420539071339226e+00 6.7419393539452899e-01 0
4.4904188564174436e+00 1.7974158516302366e-01 0
2.7710884036496291e+00 -1.0705961197786681e-01 0
-6.7671982273933440e-01 -2.3936016455612115e-02 0
-4.1837016232401864e-01 1.4460843009858622e-02 0
1.7298095752619577e+01 -3.8890139013644720e-03 0
1.0721073697847091e+01 3.0333890908480154e-02 0
-7.3337287120526906e-01 -6.6803144075415239e-04 0
-4.5618504207073607e-01 -1.5705896957179857e-03 0
4.9271223349723465e+00 -4.9407774019585339e-04 0
3.0626797163294319e+00 1.5224031267326922e-02 0
4.9274913518102110e+00 -6.0235626515015440e-04 0
3.0629831182822684e+00 1.5277613393109870e-02 0
-7.3412841891249403e-01 -1.8471300920323031e-04 0
-4.5658398801740691e-01 -2.0651295367638189e-03 0
1.7346255272272938e+01 -5.5277470586018842e-03 0
1.0800862176138839e+01 8.9339912170530569e-02 0
-7.3257059994116380e-01 -5.5129899786796402e-05 0
-4.5804092399983459e-01 -4.8808312718579298e-03 0
4.9169202716478928e+00 -1.4224655085616834e-03 0
3.0736209665172267e+00 3.4991376035700267e-02 0
4.9169061203937821e+00 -1.4211180704049502e-03 0
3.0736436287451019e+00 3.5008262430744806e-02 0
-7.3241956556436871e-01 -6.9577405404462958e-05 0
-4.5809218715277972e-01 -5.0086145289984334e-03 0
1.7282215516893562e+01 2.7513505879265981e-03 0
1.0850821810071739e+01 1.5372996293499189e-01 0
-7.2818696959166440e-01 -7.4227924778672222e-04 0
-4.6016205880246130e-01 -7.5120136118750156e-03 0
4.8872537067411699e+00 3.3197319075314300e-03 0
3.0882815108207349e+00 5.2653271115268900e-02 0
4.8872161126380504e+00 3.3211717681710965e-03 0
3.0883073083826114e+00 5.2672948458152950e-02 0
-7.2789820589966003e-01 -8.0656054986735944e-04 0
-4.6023339527584972e-01 -7.6191081536210372e-03 0
1.7131361970147655e+01 2.6401015964093524e-02 0
1.0901872064869231e+01 2.1623559204136869e-01 0
-7.2014583577542235e-01 -2.1893706254291025e-03 0
-4.6257808137049578e-01 -1.0050181662976087e-02 0
4.8327805706719573e+00 1.2966536432730666e-02 0
3.1048181539330217e+00 6.9900280893694100e-02 0
4.8327156530139357e+00 1.2970315646386801e-02 0
3.1048499163948118e+00 6.9922696195499526e-02 0
-7.1968393715260970e-01 -2.3239675385355882e-03 0
-4.6266473821991744e-01 -1.0133016767047689e-02 0
1.6895658637803386e+01 8.0325742454982765e-02 0
1.0970597733120313e+01 2.7118553018353592e-01 0
-7.0785242525051828e-01 -5.3217286270891683e-03 0
-4.6572834882693137e-01 -1.2137749145750065e-02 0
4.7495596084599141e+00 3.3842983895148115e-02 0
3.1263683028615286e+00 8.4287571510680115e-02 0
4.7494647117663460e+00 3.3844859001027856e-02 0
3.1264121989954137e+00 8.4317357317824956e-02 0
-7.0723067800782813e-01 -5.5362357919100007e-03 0
-4.6587583001043892e-01 -1.2197983894788589e-02 0
1.6545699083802184e+01 1.5623152024939826e-01 0
1.1061195288351275e+01 3.2887021598823390e-01 0
-6.9204249276744434e-01 -9.1621891617872531e-03 0
-4.7111992764329358e-01 -1.4583543772424420e-02 0
4.6425756599249999e+00 5.8888708295183181e-02 0
3.1631854414561209e+00 1.0157067328655206e-01 0
4.6424219137179072e+00 5.8893886341735605e-02 0
3.1632371028859763e+00 1.0160878108055553e-01 0
-6.9121499343451809e-01 -9.6269668789719307e-03 0
-4.7137345945595172e-01 -1.4557701783611390e-02 0
1.6123213501258334e+01 3.4012807726502925e-01 0
1.1231595093452594e+01 3.5578752819540221e-01 0
-6.6801885012620821e-01 -2.0449247203893690e-02 0
-4.7829942696601518e-01 -1.4677096559287678e-02 0
4.4782006661121745e+00 1.3373780432108329e-01 0
3.2110386118267931e+00 1.0349215761400454e-01 0
4.4779102027408264e+00 1.3365472007921123e-01 0
3.2110391220028420e+00 1.0357689736842110e-01 0
-6.6812961183061448e-01 -2.1234754852209631e-02 0
-4.7966442320825509e-01 -1.4640719833470149e-02 0
1.5536583147398416e+01 4.4640700167565861e-01 0
1.1526616529667516e+01 4.7933171847064715e-01 0
-6.6859320176367343e-01 -2.6651903061753652e-02 0
-5.1329240464176962e-01 -2.0705726269924868e-02 0
4.4697257794997443e+00 1.6604711569956113e-01 0
3.4378878441975589e+00 1.4794434708332327e-01 0
4.4684994762779837e+00 1.6573686079169370e-01 0
3.4374718058060609e+00 1.4811730241348731e-01 0
-6.6995360305717178e-01 -3.1544293617428207e-02 0
-5.1660251595383844e-01 -1.8479587436200734e-02 0
1.5633735515375312e+01 1.8045425690080683e+00 0
1.2759168223239314e+01 5.0056379183964883e-02 0
-6.1712433282892387e-01 -1.4692509621346778e-01 0
-5.6154562874556013e-01 3.5310319340380952e-02 0
4.2513923252190500e+00 9.6624743851344419e-01 0
3.9324289367937961e+00 -1.5786853728614855e-01 0
3.3711620173734302e+00 6.5892452516000299e-01 0
3.1523620130265053e+00 -1.4105013386765244e-01 0
8.0878545304647069e+00 2.7888825118422544e+00 0
7.1996865155296028e+00 1.2393510873721692e-02 0
7.8604770995066586e-01 3.9764339639061913e-01 0
5.4817926902128775e+00 1.6090692442569574e+00 0
2.9123045067613780e+00 1.2781343002557408e+00 0
2.7907310782017332e+00 1.6540876606841333e+00 0
4.6169693051616987e+00 9.9514179981745055e-01 0
6.4480697016198818e-01 -2.1088062047829087e-01 0

VECTORS Forces2 float
4.3859918920449342e-01 -2.4929915242656547e-01 0
2.1087997122336985e-01 1.3345495122756174e-01 0
-5.4774304111163934e+00 3.0212574347354750e+00 0
-2.7046064463691848e+00 -1.4937076056033762e+00 0
-6.0007252064354093e+00 9.3079336229936394e-01 0
-2.9904986869519687e+00 -4.5981110426105737e-01 0
-3.8286643275554209e+00 -1.5134064248703707e-01 0
-1.9149771233148203e+00 7.2363357323935590e-02 0
5.7673077213826485e-01 1.9490953865461777e-02 0
2.8883947185660575e-01 -9.6306909567507766e-03 0
-1.4786699156952510e+01 4.8519216228567422e-03 0
-7.4731841071620755e+00 1.7202427255516097e-02 0
6.2767990779440141e-01 3.8011066174528381e-04 0
3.1822220394647033e-01 -2.3089561527995283e-03 0
-4.2174207645553388e+00 -1.8279385693771349e-03 0
-2.1379351789274255e+00 1.5226785808269389e-02 0
-4.2177211586792200e+00 -1.7309120951187521e-03 0
-2.1381349253032882e+00 1.5228938123723291e-02 0
6.2844810663200801e-01 2.3995318799314326e-05 0
3.1843200202328698e-01 -2.1346360301223951e-03 0
-1.4851096738594554e+01 -9.6589356688178696e-03 0
-7.4875356276596214e+00 8.7350688941634752e-02 0
6.2681618404571604e-01 3.9635915375482706e-04 0
3.1346900707852393e-01 -4.9962888211279024e-03 0
-4.2063063421056786e+00 -4.3209427866952709e-03 0
-2.1034288391886951e+00 3.5494261951305124e-02 0
-4.2062850291467520e+00 -4.3278249764998125e-03 0
-2.1033792119838353e+00 3.5520398420645805e-02 0
6.2663444601531770e-01 3.8838058975376727e-04 0
3.1304146599910593e-01 -5.1129728312017571e-03 0
-1.4763383273454322e+01 -1.6736436980631497e-02 0
-7.2778783419800153e+00 1.6194690864493469e-01 0
6.2096909513061938e-01 3.8323875833903468e-04 0
3.0081202702837306e-01 -8.0408085175493124e-03 0
-4.1662165885705447e+00 -4.3476373322359129e-03 0
-2.0174309781759598e+00 5.6244256784445751e-02 0
-4.1661707042899403e+00 -4.3541533753351201e-03 0
-2.0173387738188278e+00 5.6271613966452007e-02 0
6.2057957925736928e-01 3.3769697901598348e-04 0
3.0000629519765160e-01 -8.1494412595952293e-03 0
-1.4567489152690650e+01 -7.4536624341699411e-03 0
-6.8781813243721919e+00 2.3228103738012296e-01 0
6.1057336150440000e-01 -4.5525796485348187e-04 0
2.7995113706094577e-01 -1.0871580006378331e-02 0
-4.0954260572381340e+00 1.0858140205818054e-03 0
-1.8763953746572135e+00 7.5618081077418048e-02 0
-4.0953537192155123e+00 1.0811780656521991e-03 0
-1.8762579641455988e+00 7.5647785863606876e-02 0
6.0997535853719198e-01 -5.6870706873444088e-04 0
2.7872933344945705e-01 -1.0956794951927078e-02 0
-1.4264733924493207e+01 2.8613671146285241e-02 0
-6.2782797443855873e+00 2.9682786740404365e-01 0
5.9575564607151765e-01 -2.7864406882833295e-03 0
2.5003938738041315e-01 -1.3377442135921454e-02 0
-3.9947771752955603e+00 1.6399282193805247e-02 0
-1.6746921161043014e+00 9.3013545100422021e-02 0
-3.9946685312618162e+00 1.6389076036964847e-02 0
-1.6745029506996052e+00 9.3052953867512223e-02 0
5.9489991904333284e-01 -2.9711876494219179e-03 0
2.4829266211966480e-01 -1.3443534718728844e-02 0
-1.3846921235648241e+01 8.2440873153843464e-02 0
-5.4391964368166015e+00 3.6590573832542894e-01 0
5.7400497962926289e-01 -5.4277505034612443e-03 0
2.0793134581826028e-01 -1.6428840407505686e-02 0
-3.8468117468194474e+00 3.3087506603265052e-02 0
-1.3910895665272385e+00 1.1463025289288332e-01 0
-3.8466534435534712e+00 3.3072633144400496e-02 0
-1.3908407365204916e+00 1.1468303367160892e-01 0
5.7285503897333279e-01 -5.8651350220392156e-03 0
2.0542690085459267e-01 -1.6410967458923325e-02 0
-1.3213176806916231e+01 2.2681154860966402e-01 0
-4.2454638142767651e+00 4.1698928175421768e-01 0
5.4550048211452218e-01 -1.5280315393983921e-02 0
1.4874336003087751e-01 -1.7449584918196977e-02 0
-3.6527694355584766e+00 9.7691962227341847e-02 0
-9.9353407484064193e-01 1.2321220385820565e-01 0
-3.6525187061102042e+00 9.7548998462787750e-02 0
-9.9326391863141894e-01 1.2331605919760220e-01 0
5.4376965259605137e-01 -1.6046901503453483e-02 0
1.4480284562797680e-01 -1.7416404292306280e-02 0
-1.2447295883600258e+01 3.0939015936319042e-01 0
-2.5868104464288035e+00 5.3708172125917031e-01 0
4.9752000781661876e-01 -1.7008431861358368e-02 0
5.9603936219623559e-02 -2.4289656636360551e-02 0
-3.3254348617807721e+00 9.6730134005292831e-02 0
-4.0107740839326261e-01 1.7330612287053523e-01 0
-3.3245776323766134e+00 9.6011988432152279e-02 0
-4.0102246311449802e-01 1.7363320302144564e-01 0
4.9382801782036079e-01 -2.1423892798763562e-02 0
4.9863795306535161e-02 -2.2476965601706565e-02 0
-1.0326417886111772e+01 1.0215879580239862e+00 0
5.0261373657636244e-01 4.6550445141935304e-01 0
3.4859214298458396e-01 -9.1649482205046179e-02 0
-1.6436682230838989e-01 4.5534032462472953e-03 0
-2.2114871460994974e+00 5.8177134875034731e-01 0
1.1077239145908448e+00 8.0767687670626018e-02 0
-2.2582344135260199e+00 1.7237934645571559e-01 0
7.0792427638491229e-01 7.4288376322161356e-02 0
9.5238724938174824e-01 3.8954843094493610e+00 0
3.6807554614102922e+00 2.2744127318074900e-01 0
-1.7801297811783492e-01 4.0218083920782377e-01 0
1.0436406356300816e+00 3.6853475832126099e+00 0
1.3631540215639704e+00 2.9765696514903546e+00 0
1.1255238099834250e+00 2.7788460587302382e+00 0
2.1954458651074145e+00 1.0251702786206220e+00 0
4.8624241581415745e-01 -2.0974453602988211e-01 0

VECTORS Forces3 float
-4.1214908217969998e-02 2.9171263988940647e-02 0
-5.0256526691914077e-02 -2.7316946654789964e-02 0
6.3359632271295963e-01 -3.5919260727114477e-01 0
7.1238910418390367e-01 3.9893692240168560e-01 0
6.8663053916262051e-01 -1.0962418331600955e-01 0
7.6960063134536549e-01 1.2406324989528218e-01 0
4.3312657940037874e-01 1.8652559537942613e-02 0
4.8549434234575772e-01 -2.0030129186723849e-02 0
-6.5329993368849745e-02 -2.7444618129982400e-03 0
-7.3376565796110238e-02 2.7285838756655775e-03 0
1.6122996139048511e+00 -3.6173713240966877e-03 0
1.8110152482506450e+00 2.6472908936505581e-02 0
-6.7693511484848673e-02 1.9802797414654047e-05 0
-7.6691401719761257e-02 -1.9938121170614293e-03 0
4.5439409465699654e-01 -2.0079609704813806e-03 0
5.1386963551019971e-01 1.5333362283881007e-02 0
4.5443099994472980e-01 -2.0168980270711002e-03 0
5.1392238131149792e-01 1.5361578518051046e-02 0
-6.7667033424740494e-02 9.5047009644378395e-05 0
-7.6756514413095375e-02 -2.1601014540263315e-03 0
1.6034039216388214e+00 -8.3615674750186914e-03 0
1.8428994010960982e+00 8.5177823762663377e-02 0
-6.7813398423894417e-02 2.8537552815857453e-04 0
-8.0078935760018177e-02 -4.8287995508900028e-03 0
4.5562130163732278e-01 -3.2958482012500792e-03 0
5.3738576170059416e-01 3.4147930013549758e-02 0
4.5562334693701606e-01 -3.2982654776084730e-03 0
5.3742055614089668e-01 3.4168158465385817e-02 0
-6.7820779496990252e-02 2.7758318622334206e-04 0
-8.0311502317898673e-02 -4.9492148492767665e-03 0
1.6066699999337006e+00 -1.0612040873108073e-02 0
1.9649970374995911e+00 1.5456253922075389e-01 0
-6.8054897935678732e-02 7.1957220861025434e-05 0
-8.7026202610252956e-02 -7.6688882085416349e-03 0
4.5742917163939006e-01 -1.8587469003366274e-03 0
5.8464267011850479e-01 5.3360030436456714e-02 0
4.5742985004090964e-01 -1.8607943565884441e-03 0
5.8469852561483127e-01 5.3382056630394088e-02 0
-6.8078700110381835e-02 2.6773385227445127e-05 0
-8.7440906800174620e-02 -7.7796858074000866e-03 0
1.6166818184345835e+00 3.4936157710771720e-03 0
2.1791651271207293e+00 2.1978267286302919e-01 0
-6.8587110105183396e-02 -9.4341346962724393e-04 0
-9.8085915606479571e-02 -1.0311989527408942e-02 0
4.6122638024469764e-01 4.8853068114903045e-03 0
6.5951177275867345e-01 7.1322228725512499e-02 0
4.6122533571197838e-01 4.8863031698922824e-03 0
6.5959203553153234e-01 7.1345696059398792e-02 0
-6.8616305965252672e-02 -1.0534794571585792e-03 0
-9.8705583057132368e-02 -1.0401260033441363e-02 0
1.6306769076398400e+00 4.4627525511001562e-02 0
2.4959284652803158e+00 2.7886118395157433e-01 0
-6.8846713745745622e-02 -3.4815392628548955e-03 0
-1.1372236609004380e-01 -1.2592181463254203e-02 0
4.6314987875201225e-01 2.1775309864433812e-02 0
7.6507185350559537e-01 8.6997274853770054e-02 0
4.6315031764594627e-01 2.1773752091707087e-02 0
7.6518247417400664e-01 8.7027756276588375e-02 0
-6.8907231558365908e-02 -3.6554697445325478e-03 0
-1.1461933972934180e-01 -1.2668227685974490e-02 0
1.6363807968506943e+00 1.0409881665225440e-01 0
2.9356119756308923e+00 3.4169123295468246e-01 0
-7.0466338617826391e-02 -6.3278476705103297e-03 0
-1.3626142573400138e-01 -1.5407701385602664e-02 0
4.7453317999763583e-01 4.0164305103981883e-02 0
9.1710423137718156e-01 1.0670917054449609e-01 0
4.7452662617342956e-01 4.0166424334422850e-02 0
9.1724651715808925e-01 1.0674623021909564e-01 0
-7.0534234410395996e-02 -6.7345786401500751e-03 0
-1.3755902758104871e-01 -1.5411185823475133e-02 0
1.7020102062453570e+00 2.5670424787301127e-01 0
3.5820496673278361e+00 3.8293802470650623e-01 0
-7.0334912918361872e-02 -1.6492558848268050e-02 0
-1.6738815999951098e-01 -1.5972307215413269e-02 0
4.7340249942789447e-01 1.0763552963047587e-01 0
1.1259507600668088e+00 1.1158801168392020e-01 0
4.7338174973124247e-01 1.0753666288431180e-01 0
1.1260875418792069e+00 1.1166657773248644e-01 0
-7.1071871434452843e-02 -1.7091010643790743e-02 0
-1.6988959668691953e-01 -1.6021275073950656e-02 0
1.7189610592235607e+00 3.2891392754422266e-01 0
4.4993826284314107e+00 5.0511145637813404e-01 0
-9.1157387618515759e-02 -1.6547802989564316e-02 0
-2.2691301276466844e-01 -2.3669285482849144e-02 0
6.1078624224056244e-01 9.8211149517131308e-02 0
1.5196713073869057e+00 1.6641238775076289e-01 0
6.1062151688166300e-01 9.7780077785635702e-02 0
1.5195110772263385e+00 1.6659067546081885e-01 0
-9.2953497567847002e-02 -2.0314864138054074e-02 0
-2.3280981714872914e-01 -2.2232182593548717e-02 0
2.6578421613616188e+00 1.1458312391776677e+00 0
6.5231767998053503e+00 3.5561436091199733e-01 0
-1.2105780988424060e-01 -9.7595362611667069e-02 0
-3.4648964359870249e-01 8.8137121347047678e-03 0
9.1763635082673678e-01 6.3850113081242332e-01 0
2.3949551464652212e+00 1.9614497303370903e-02 0
5.2381505444867926e-01 3.3461717006187364e-01 0
1.8716710197325825e+00 2.5108842232407975e-03 0
3.8379319389630093e+00 2.8445918362640992e+00 0
4.7902397640268841e+00 3.0616446015997095e-01 0
2.5512503492370819e-01 3.2948973648107177e-01 0
2.7043850156139766e+00 2.2671305454395703e+00 0
1.6609610512873043e+00 1.9971628133623101e+00 0
1.4882509360628751e+00 2.1215800217564049e+00 0
2.8833450119354511e+00 1.1300334109751455e+00 0
5.1969569963561124e-01 -1.6220537629644832e-01 0

