# vtk DataFile Version 2.0

ASCII

DATASET UNSTRUCTURED_GRID

POINTS 106 float 

-5.0000000000000003e-02  0.0000000000000000e+00  0.0000000000000000e+00
5.0000000000000003e-02  0.0000000000000000e+00  0.0000000000000000e+00
-5.0000000000000003e-02  2.0000000000000000e-02  0.0000000000000000e+00
5.0000000000000003e-02  2.0000000000000000e-02  0.0000000000000000e+00
-5.0000000000000003e-02  4.0000000000000001e-02  0.0000000000000000e+00
5.0000000000000003e-02  4.0000000000000001e-02  0.0000000000000000e+00
-5.0000000000000003e-02  5.9999999999999998e-02  0.0000000000000000e+00
5.0000000000000003e-02  5.9999999999999998e-02  0.0000000000000000e+00
-5.0000000000000003e-02  8.0000000000000002e-02  0.0000000000000000e+00
5.0000000000000003e-02  8.0000000000000002e-02  0.0000000000000000e+00
-5.0000000000000003e-02  1.0000000000000001e-01  0.0000000000000000e+00
5.0000000000000003e-02  1.0000000000000001e-01  0.0000000000000000e+00
-5.0000000000000003e-02  1.2000000000000000e-01  0.0000000000000000e+00
5.0000000000000003e-02  1.2000000000000000e-01  0.0000000000000000e+00
-5.0000000000000003e-02  1.4000000000000001e-01  0.0000000000000000e+00
5.0000000000000003e-02  1.4000000000000001e-01  0.0000000000000000e+00
-5.0000000000000003e-02  1.6000000000000000e-01  0.0000000000000000e+00
5.0000000000000003e-02  1.6000000000000000e-01  0.0000000000000000e+00
-5.0000000000000003e-02  1.7999999999999999e-01  0.0000000000000000e+00
5.0000000000000003e-02  1.7999999999999999e-01  0.0000000000000000e+00
-5.0000000000000003e-02  2.0000000000000001e-01  0.0000000000000000e+00
5.0000000000000003e-02  2.0000000000000001e-01  0.0000000000000000e+00
-5.0000000000000003e-02  2.2000000000000000e-01  0.0000000000000000e+00
5.0000000000000003e-02  2.2000000000000000e-01  0.0000000000000000e+00
-5.0000000000000003e-02  2.3999999999999999e-01  0.0000000000000000e+00
5.0000000000000003e-02  2.3999999999999999e-01  0.0000000000000000e+00
-5.0000000000000003e-02  2.6000000000000001e-01  0.0000000000000000e+00
5.0000000000000003e-02  2.6000000000000001e-01  0.0000000000000000e+00
-5.0000000000000003e-02  2.8000000000000003e-01  0.0000000000000000e+00
5.0000000000000003e-02  2.8000000000000003e-01  0.0000000000000000e+00
-5.0000000000000003e-02  2.9999999999999999e-01  0.0000000000000000e+00
5.0000000000000003e-02  2.9999999999999999e-01  0.0000000000000000e+00
-5.0000000000000003e-02  3.2000000000000001e-01  0.0000000000000000e+00
5.0000000000000003e-02  3.2000000000000001e-01  0.0000000000000000e+00
-5.0000000000000003e-02  3.4000000000000002e-01  0.0000000000000000e+00
5.0000000000000003e-02  3.4000000000000002e-01  0.0000000000000000e+00
-5.0000000000000003e-02  3.5999999999999999e-01  0.0000000000000000e+00
5.0000000000000003e-02  3.5999999999999999e-01  0.0000000000000000e+00
-5.0000000000000003e-02  3.8000000000000000e-01  0.0000000000000000e+00
5.0000000000000003e-02  3.8000000000000000e-01  0.0000000000000000e+00
-5.0000000000000003e-02  4.0000000000000002e-01  0.0000000000000000e+00
5.0000000000000003e-02  4.0000000000000002e-01  0.0000000000000000e+00
-5.0000000000000003e-02  4.1999999999999998e-01  0.0000000000000000e+00
5.0000000000000003e-02  4.1999999999999998e-01  0.0000000000000000e+00
-5.0000000000000003e-02  4.4000000000000000e-01  0.0000000000000000e+00
5.0000000000000003e-02  4.4000000000000000e-01  0.0000000000000000e+00
-5.0000000000000003e-02  4.6000000000000002e-01  0.0000000000000000e+00
5.0000000000000003e-02  4.6000000000000002e-01  0.0000000000000000e+00
-5.0000000000000003e-02  4.7999999999999998e-01  0.0000000000000000e+00
5.0000000000000003e-02  4.7999999999999998e-01  0.0000000000000000e+00
-5.0000000000000003e-02  5.0000000000000000e-01  0.0000000000000000e+00
5.0000000000000003e-02  5.0000000000000000e-01  0.0000000000000000e+00
-5.0000000000000003e-02  5.2000000000000002e-01  0.0000000000000000e+00
5.0000000000000003e-02  5.2000000000000002e-01  0.0000000000000000e+00
-5.0000000000000003e-02  5.4000000000000004e-01  0.0000000000000000e+00
5.0000000000000003e-02  5.4000000000000004e-01  0.0000000000000000e+00
-5.0000000000000003e-02  5.6000000000000005e-01  0.0000000000000000e+00
5.0000000000000003e-02  5.6000000000000005e-01  0.0000000000000000e+00
-5.0000000000000003e-02  5.7999999999999996e-01  0.0000000000000000e+00
5.0000000000000003e-02  5.7999999999999996e-01  0.0000000000000000e+00
-5.0000000000000003e-02  5.9999999999999998e-01  0.0000000000000000e+00
5.0000000000000003e-02  5.9999999999999998e-01  0.0000000000000000e+00
-5.0000000000000003e-02  6.2000000000000000e-01  0.0000000000000000e+00
5.0000000000000003e-02  6.2000000000000000e-01  0.0000000000000000e+00
-5.0000000000000003e-02  6.4000000000000001e-01  0.0000000000000000e+00
5.0000000000000003e-02  6.4000000000000001e-01  0.0000000000000000e+00
-5.0000000000000003e-02  6.6000000000000003e-01  0.0000000000000000e+00
5.0000000000000003e-02  6.6000000000000003e-01  0.0000000000000000e+00
-5.0000000000000003e-02  6.8000000000000005e-01  0.0000000000000000e+00
5.0000000000000003e-02  6.8000000000000005e-01  0.0000000000000000e+00
-5.0000000000000003e-02  6.9999999999999996e-01  0.0000000000000000e+00
5.0000000000000003e-02  6.9999999999999996e-01  0.0000000000000000e+00
-5.0000000000000003e-02  7.1999999999999997e-01  0.0000000000000000e+00
5.0000000000000003e-02  7.1999999999999997e-01  0.0000000000000000e+00
-5.0000000000000003e-02  7.3999999999999999e-01  0.0000000000000000e+00
5.0000000000000003e-02  7.3999999999999999e-01  0.0000000000000000e+00
-5.0000000000000003e-02  7.6000000000000001e-01  0.0000000000000000e+00
5.0000000000000003e-02  7.6000000000000001e-01  0.0000000000000000e+00
-5.0000000000000003e-02  7.8000000000000003e-01  0.0000000000000000e+00
5.0000000000000003e-02  7.8000000000000003e-01  0.0000000000000000e+00
-5.0000000000000003e-02  8.0000000000000004e-01  0.0000000000000000e+00
5.0000000000000003e-02  8.0000000000000004e-01  0.0000000000000000e+00
-5.0000000000000003e-02  8.1999999999999995e-01  0.0000000000000000e+00
5.0000000000000003e-02  8.1999999999999995e-01  0.0000000000000000e+00
-5.0000000000000003e-02  8.3999999999999997e-01  0.0000000000000000e+00
5.0000000000000003e-02  8.3999999999999997e-01  0.0000000000000000e+00
-5.0000000000000003e-02  8.5999999999999999e-01  0.0000000000000000e+00
5.0000000000000003e-02  8.5999999999999999e-01  0.0000000000000000e+00
-5.0000000000000003e-02  8.8000000000000000e-01  0.0000000000000000e+00
5.0000000000000003e-02  8.8000000000000000e-01  0.0000000000000000e+00
-5.0000000000000003e-02  9.0000000000000002e-01  0.0000000000000000e+00
5.0000000000000003e-02  9.0000000000000002e-01  0.0000000000000000e+00
-5.0000000000000003e-02  9.2000000000000004e-01  0.0000000000000000e+00
5.0000000000000003e-02  9.2000000000000004e-01  0.0000000000000000e+00
-5.0000000000000003e-02  9.3999999999999995e-01  0.0000000000000000e+00
5.0000000000000003e-02  9.3999999999999995e-01  0.0000000000000000e+00
-5.0000000000000003e-02  9.5999999999999996e-01  0.0000000000000000e+00
5.0000000000000003e-02  9.5999999999999996e-01  0.0000000000000000e+00
-5.0000000000000003e-02  9.7999999999999998e-01  0.0000000000000000e+00
5.0000000000000003e-02  9.7999999999999998e-01  0.0000000000000000e+00
-5.0000000000000003e-02  1.0000000000000000e+00  0.0000000000000000e+00
-3.0000000000000002e-02  1.0000000000000000e+00  0.0000000000000000e+00
-1.0000000000000002e-02  1.0000000000000000e+00  0.0000000000000000e+00
1.0000000000000009e-02  1.0000000000000000e+00  0.0000000000000000e+00
2.9999999999999999e-02  1.0000000000000000e+00  0.0000000000000000e+00
5.0000000000000003e-02  1.0000000000000000e+00  0.0000000000000000e+00

CELLS 0 0


CELL_TYPES 0


POINT_DATA 106

VECTORS VertexNormals float

0.0000000000000000e+00 0.0000000000000000e+00 0
0.0000000000000000e+00 0.0000000000000000e+00 0
0.0000000000000000e+00 0.0000000000000000e+00 0
0.0000000000000000e+00 0.0000000000000000e+00 0
0.0000000000000000e+00 0.0000000000000000e+00 0
0.0000000000000000e+00 0.0000000000000000e+00 0
0.0000000000000000e+00 0.0000000000000000e+00 0
0.0000000000000000e+00 0.0000000000000000e+00 0
0.0000000000000000e+00 0.0000000000000000e+00 0
0.0000000000000000e+00 0.0000000000000000e+00 0
0.0000000000000000e+00 0.0000000000000000e+00 0
0.0000000000000000e+00 0.0000000000000000e+00 0
0.0000000000000000e+00 0.0000000000000000e+00 0
0.0000000000000000e+00 0.0000000000000000e+00 0
0.0000000000000000e+00 0.0000000000000000e+00 0
0.0000000000000000e+00 0.0000000000000000e+00 0
0.0000000000000000e+00 0.0000000000000000e+00 0
0.0000000000000000e+00 0.0000000000000000e+00 0
0.0000000000000000e+00 0.0000000000000000e+00 0
0.0000000000000000e+00 0.0000000000000000e+00 0
0.0000000000000000e+00 0.0000000000000000e+00 0
0.0000000000000000e+00 0.0000000000000000e+00 0
0.0000000000000000e+00 0.0000000000000000e+00 0
0.0000000000000000e+00 0.0000000000000000e+00 0
0.0000000000000000e+00 0.0000000000000000e+00 0
0.0000000000000000e+00 0.0000000000000000e+00 0
0.0000000000000000e+00 0.0000000000000000e+00 0
0.0000000000000000e+00 0.0000000000000000e+00 0
0.0000000000000000e+00 0.0000000000000000e+00 0
0.0000000000000000e+00 0.0000000000000000e+00 0
0.0000000000000000e+00 0.0000000000000000e+00 0
0.0000000000000000e+00 0.0000000000000000e+00 0
0.0000000000000000e+00 0.0000000000000000e+00 0
0.0000000000000000e+00 0.0000000000000000e+00 0
0.0000000000000000e+00 0.0000000000000000e+00 0
0.0000000000000000e+00 0.0000000000000000e+00 0
0.0000000000000000e+00 0.0000000000000000e+00 0
0.0000000000000000e+00 0.0000000000000000e+00 0
0.0000000000000000e+00 0.0000000000000000e+00 0
0.0000000000000000e+00 0.0000000000000000e+00 0
0.0000000000000000e+00 0.0000000000000000e+00 0
0.0000000000000000e+00 0.0000000000000000e+00 0
0.0000000000000000e+00 0.0000000000000000e+00 0
0.0000000000000000e+00 0.0000000000000000e+00 0
0.0000000000000000e+00 0.0000000000000000e+00 0
0.0000000000000000e+00 0.0000000000000000e+00 0
0.0000000000000000e+00 0.0000000000000000e+00 0
0.0000000000000000e+00 0.0000000000000000e+00 0
0.0000000000000000e+00 0.0000000000000000e+00 0
0.0000000000000000e+00 0.0000000000000000e+00 0
0.0000000000000000e+00 0.0000000000000000e+00 0
0.0000000000000000e+00 0.0000000000000000e+00 0
0.0000000000000000e+00 0.0000000000000000e+00 0
0.0000000000000000e+00 0.0000000000000000e+00 0
0.0000000000000000e+00 0.0000000000000000e+00 0
0.0000000000000000e+00 0.0000000000000000e+00 0
0.0000000000000000e+00 0.0000000000000000e+00 0
0.0000000000000000e+00 0.0000000000000000e+00 0
0.0000000000000000e+00 0.0000000000000000e+00 0
0.0000000000000000e+00 0.0000000000000000e+00 0
0.0000000000000000e+00 0.0000000000000000e+00 0
0.0000000000000000e+00 0.0000000000000000e+00 0
0.0000000000000000e+00 0.0000000000000000e+00 0
0.0000000000000000e+00 0.0000000000000000e+00 0
0.0000000000000000e+00 0.0000000000000000e+00 0
0.0000000000000000e+00 0.0000000000000000e+00 0
0.0000000000000000e+00 0.0000000000000000e+00 0
0.0000000000000000e+00 0.0000000000000000e+00 0
0.0000000000000000e+00 0.0000000000000000e+00 0
0.0000000000000000e+00 0.0000000000000000e+00 0
0.0000000000000000e+00 0.0000000000000000e+00 0
0.0000000000000000e+00 0.0000000000000000e+00 0
0.0000000000000000e+00 0.0000000000000000e+00 0
0.0000000000000000e+00 0.0000000000000000e+00 0
0.0000000000000000e+00 0.0000000000000000e+00 0
0.0000000000000000e+00 0.0000000000000000e+00 0
0.0000000000000000e+00 0.0000000000000000e+00 0
0.0000000000000000e+00 0.0000000000000000e+00 0
0.0000000000000000e+00 0.0000000000000000e+00 0
0.0000000000000000e+00 0.0000000000000000e+00 0
0.0000000000000000e+00 0.0000000000000000e+00 0
0.0000000000000000e+00 0.0000000000000000e+00 0
0.0000000000000000e+00 0.0000000000000000e+00 0
0.0000000000000000e+00 0.0000000000000000e+00 0
0.0000000000000000e+00 0.0000000000000000e+00 0
0.0000000000000000e+00 0.0000000000000000e+00 0
0.0000000000000000e+00 0.0000000000000000e+00 0
0.0000000000000000e+00 0.0000000000000000e+00 0
0.0000000000000000e+00 0.0000000000000000e+00 0
0.0000000000000000e+00 0.0000000000000000e+00 0
0.0000000000000000e+00 0.0000000000000000e+00 0
0.0000000000000000e+00 0.0000000000000000e+00 0
0.0000000000000000e+00 0.0000000000000000e+00 0
0.0000000000000000e+00 0.0000000000000000e+00 0
0.0000000000000000e+00 0.0000000000000000e+00 0
0.0000000000000000e+00 0.0000000000000000e+00 0
0.0000000000000000e+00 0.0000000000000000e+00 0
0.0000000000000000e+00 0.0000000000000000e+00 0
0.0000000000000000e+00 0.0000000000000000e+00 0
0.0000000000000000e+00 0.0000000000000000e+00 0
0.0000000000000000e+00 0.0000000000000000e+00 0
0.0000000000000000e+00 0.0000000000000000e+00 0
0.0000000000000000e+00 0.0000000000000000e+00 0
0.0000000000000000e+00 0.0000000000000000e+00 0
0.0000000000000000e+00 0.0000000000000000e+00 0
0.0000000000000000e+00 0.0000000000000000e+00 0

VECTORS Displacements1 float
-5.7396566741041984e-17 3.2066477321518749e-17 0
-1.3720192143100747e-22 5.1288269373772275e-23 0
1.8301847867406155e-06 7.8538496385556332e-07 0
1.7651641356734125e-06 -7.3597137135886662e-07 0
3.1012720551588846e-06 1.0965738297379381e-06 0
2.9935947674887674e-06 -1.0337170060752722e-06 0
3.8886684572208045e-06 1.1349105040719698e-06 0
3.7999508038896904e-06 -1.0636907768593034e-06 0
4.3789391804838616e-06 1.0100434168475274e-06 0
4.3321627956252183e-06 -9.4419623967572944e-07 0
6.0346421968667501e-06 7.4403559917929491e-07 0
5.7626988952089095e-06 -5.1980463437641865e-07 0
5.0485338975725778e-06 3.2020399852688596e-07 0
4.9840746460069347e-06 -2.4034414412633008e-07 0
5.3054074107797671e-06 2.4144112242790465e-07 0
5.2000426823345414e-06 -7.8250410814880365e-08 0
5.2740455436167107e-06 1.6980285586806812e-07 0
5.1689462039332700e-06 1.9377685508807995e-08 0
5.0278869099308498e-06 2.0579803210840429e-07 0
4.9696638230131949e-06 -2.1554912093613249e-08 0
6.2536455479976505e-06 2.0481310756626017e-07 0
5.9879955621848631e-06 1.6619798898445229e-07 0
5.0880701273949615e-06 4.7659749485681949e-08 0
5.0223423259158750e-06 1.6970564531893086e-07 0
5.3421260407527350e-06 1.6109530193716528e-07 0
5.2442066894173591e-06 1.5326098861754604e-07 0
5.3676460479514873e-06 1.9093976747806602e-07 0
5.2688755805120776e-06 1.5456837040829236e-07 0
5.1621942559997499e-06 2.6507096680938306e-07 0
5.1106879526011651e-06 7.4359057355791113e-08 0
6.3962486225230279e-06 2.8532467772897184e-07 0
6.1751309344541801e-06 2.8057511305726758e-07 0
5.2240176523438619e-06 1.4207805368881481e-07 0
5.1594741023907403e-06 2.4781378430905512e-07 0
5.4869471363948070e-06 2.6907886756419884e-07 0
5.4051698617161649e-06 2.2656421702037833e-07 0
5.5231098223233201e-06 3.0596898015106016e-07 0
5.4409356661937108e-06 2.2783024381698528e-07 0
5.3281435160862531e-06 3.8517458782082158e-07 0
5.2889099231656745e-06 1.3888750576238754e-07 0
6.5835489148806558e-06 4.1913784895700700e-07 0
6.4447873486046976e-06 3.8059937420578794e-07 0
5.4240039081140007e-06 2.7246285361907649e-07 0
5.3646826996172893e-06 3.2862952214524144e-07 0
5.7046019621642004e-06 4.0781286654411323e-07 0
5.6490583418751157e-06 3.1060815323288787e-07 0
5.7575376519549422e-06 4.5197179179913469e-07 0
5.7025619513483838e-06 3.1254374266441962e-07 0
5.5763708361884472e-06 5.3971411878644284e-07 0
5.5543368117781575e-06 2.1218845831566132e-07 0
6.8584089103983221e-06 6.0190367209513640e-07 0
6.8429877055128794e-06 4.9341469882315495e-07 0
5.7152107636971802e-06 4.4754460811879254e-07 0
5.6634765376309142e-06 4.2371038020704209e-07 0
6.0145252648082701e-06 5.9884616544299405e-07 0
5.9962052820976559e-06 4.0618219085525388e-07 0
6.0877636186892455e-06 6.5624840249184312e-07 0
6.0708913857357381e-06 4.0797957463560417e-07 0
5.9259469119454657e-06 7.5590850753530945e-07 0
5.9256946278016243e-06 2.9180368047706014e-07 0
7.2390905799697618e-06 8.6256880645238477e-07 0
7.4008489525235850e-06 6.1878533347249960e-07 0
6.1319137686731571e-06 7.0597555702919792e-07 0
6.0886221973737012e-06 5.2692302330398527e-07 0
6.4711601030379257e-06 8.8864308034240677e-07 0
6.4979695053455023e-06 5.0596266339709189e-07 0
6.5875120928636689e-06 9.8302032168121531e-07 0
6.6116262050869196e-06 5.0569588555285532e-07 0
6.4695205315312554e-06 1.1428032810666105e-06 0
6.4748635250620326e-06 3.7124369574892582e-07 0
7.8799656075973024e-06 1.3962749989100185e-06 0
8.2214215997964421e-06 7.6717497455778146e-07 0
6.8294655482287120e-06 1.3058013949461591e-06 0
6.6961690816444958e-06 6.9165782062584328e-07 0
7.2418956750066447e-06 1.6958086640457082e-06 0
7.1666306735000856e-06 7.0378056881338781e-07 0
7.4407675738344198e-06 2.0593680717641008e-06 0
7.2785751145537997e-06 7.4035332177340166e-07 0
7.4151103418049291e-06 2.5518302801404389e-06 0
7.0833492844849832e-06 6.0892491649773495e-07 0
8.8858769545782016e-06 3.2810902092967230e-06 0
9.1112407716442786e-06 1.0762809994188635e-06 0
7.7974281293112591e-06 3.7496074385538928e-06 0
7.0993328407361932e-06 8.1726134573806317e-07 0
8.1599095166897836e-06 5.0309526642048075e-06 0
7.5213121279229982e-06 4.0725047962729687e-07 0
8.4057346208659595e-06 6.7386461597349353e-06 0
7.6784451746190784e-06 -4.6421205580299119e-07 0
8.9853069268456685e-06 9.1503622859775124e-06 0
8.1534963285984662e-06 -2.1387347748145951e-06 0
1.2636340965819173e-05 1.2412570097421603e-05 0
1.2841847675759211e-05 -3.4763537252999556e-06 0
1.4369420937539413e-05 1.4739110409022056e-05 0
1.3512827052529429e-05 -5.6590294848030687e-06 0
1.9505269384902203e-05 1.8085076576322086e-05 0
1.9164114179087119e-05 -7.7617960501166490e-06 0
2.5565700236209505e-05 2.0884861051139174e-05 0
2.5345136534458705e-05 -9.5305693518426938e-06 0
3.4429769369663469e-05 2.3773939557383911e-05 0
3.3819657634253554e-05 -1.0486824967836073e-05 0
4.1151549953820296e-05 2.3837230365564748e-05 0
4.1183451613802129e-05 1.6666502236746199e-05 0
3.9974653422680046e-05 9.7110734241224295e-06 0
3.9732410009079251e-05 3.5586738098019489e-06 0
4.0553667417689477e-05 -3.4494433584883525e-06 0
4.0262485155472113e-05 -1.1248708102866701e-05 0

VECTORS Displacements2 float
-5.7462468593313982e-17 3.2103235354469283e-17 0
-1.3795556321912103e-22 5.1947935016222552e-23 0
1.8406503650349230e-06 7.9471859316987467e-07 0
1.7747846454135353e-06 -7.4504040147159902e-07 0
3.1217445111149503e-06 1.1118489002678996e-06 0
3.0132920529550758e-06 -1.0485218434212995e-06 0
3.9207274094992923e-06 1.1536116948422145e-06 0
3.8311890299409339e-06 -1.0817761743684898e-06 0
4.4235083444485580e-06 1.0292675920034690e-06 0
4.3765423418969136e-06 -9.6265780877483541e-07 0
6.0916057263154360e-06 7.6134652739662913e-07 0
5.8184772797537354e-06 -5.3568418339945875e-07 0
5.1114036713537584e-06 3.3276327579004366e-07 0
5.0464885897297569e-06 -2.5151540434725383e-07 0
5.3715435164284115e-06 2.4998355092445015e-07 0
5.2653248388954086e-06 -8.5255497604286521e-08 0
5.3402177163798719e-06 1.7569992214398671e-07 0
5.2344544830457472e-06 1.5128845973741108e-08 0
5.0937093457027404e-06 2.1058236963025092e-07 0
5.0349601278658735e-06 -2.4003430197037758e-08 0
6.3213700091864634e-06 2.0867049756145741e-07 0
6.0538595422469048e-06 1.6536199818617598e-07 0
5.1531453107761508e-06 5.0030908307819195e-08 0
5.0868940027543171e-06 1.7009615293333135e-07 0
5.4069949636816088e-06 1.6392369380714834e-07 0
5.3079928733914738e-06 1.5361294895529759e-07 0
5.4323670505320404e-06 1.9485773554413182e-07 0
5.3333189071388392e-06 1.5430372204221763e-07 0
5.2289525650326955e-06 2.6991330401182620e-07 0
5.1768472974784161e-06 7.3811291244545607e-08 0
6.4662887528124563e-06 2.8972318656512238e-07 0
6.2433870190086726e-06 2.8156058493281382e-07 0
5.2913055598414417e-06 1.4531791203600515e-07 0
5.2262551919722177e-06 2.4970430901983728e-07 0
5.5537278727928882e-06 2.7339161549188603e-07 0
5.4710529357598589e-06 2.2762243931815466e-07 0
5.5899282595695710e-06 3.1167073990505991e-07 0
5.5076558014209634e-06 2.2811585110342825e-07 0
5.3970167122852864e-06 3.9217127792082616e-07 0
5.3574516918922638e-06 1.3874407872465115e-07 0
6.6559642480120620e-06 4.2573049456492119e-07 0
6.5156472684463269e-06 3.8218167877405094e-07 0
5.4937873799089467e-06 2.7790286984611074e-07 0
5.4341144661041977e-06 3.3105894606059456e-07 0
5.7739918213907464e-06 4.1443649827622650e-07 0
5.7176862882577773e-06 3.1219398832183838e-07 0
5.8271079020883707e-06 4.6003711834339781e-07 0
5.7723285595888257e-06 3.1344860211791964e-07 0
5.6483213259106163e-06 5.4918569102268126e-07 0
5.6263196121641603e-06 2.1267925358860294e-07 0
6.9342217886517481e-06 6.1113701381438435e-07 0
6.9175598099535404e-06 4.9592511792037408e-07 0
5.7885320761997935e-06 4.5556874118051101e-07 0
5.7366274578335611e-06 4.2714932308527704e-07 0
6.0875996805418365e-06 6.0821361854222360e-07 0
6.0687673864479486e-06 4.0869602958140367e-07 0
6.1612239895515151e-06 6.6725004145610351e-07 0
6.1449505788587107e-06 4.0981033209575213e-07 0
6.0022961042228243e-06 7.6858709459003110e-07 0
6.0025430911320400e-06 2.9320523905539516e-07 0
7.3198293472724427e-06 8.7537120275779088e-07 0
7.4807900040137628e-06 6.2248104721958761e-07 0
6.2104101195122955e-06 7.1770134830202457e-07 0
6.1672298917965380e-06 5.3164782486762174e-07 0
6.5498292094755911e-06 9.0237810743779885e-07 0
6.5763609524626944e-06 5.0963040989969653e-07 0
6.6673995544942528e-06 9.9953840568002558e-07 0
6.6917085980016719e-06 5.0906760967113708e-07 0
6.5533323770833468e-06 1.1634198016853887e-06 0
6.5579939311451974e-06 3.7483202510583901e-07 0
7.9695082663228346e-06 1.4196326334095595e-06 0
8.3076231028813886e-06 7.7482070771864236e-07 0
6.9173123855993048e-06 1.3314181775416323e-06 0
6.7801225536121665e-06 7.0180305353472518e-07 0
7.3302712997741696e-06 1.7278686841747623e-06 0
7.2484876379564265e-06 7.1430736927620414e-07 0
7.5301773884450608e-06 2.0993353342170044e-06 0
7.3616954370211365e-06 7.5206708352327312e-07 0
7.5073823246119899e-06 2.5987476906822403e-06 0
7.1674717564135181e-06 6.2151941547610379e-07 0
8.9790254413697258e-06 3.3338669832256400e-06 0
9.1943947239490276e-06 1.0926158920544417e-06 0
7.8808122418185369e-06 3.8108903849220407e-06 0
7.1730141370819340e-06 8.3179019042770422e-07 0
8.2381227452232954e-06 5.1107002958938349e-06 0
7.5908330729511891e-06 4.0974238414524739e-07 0
8.4923779302343329e-06 6.8439281606350489e-06 0
7.7611963743153166e-06 -4.8091693591655915e-07 0
9.1008014147763697e-06 9.2825361449981389e-06 0
8.2695767264737608e-06 -2.1758036697053308e-06 0
1.2798754408028691e-05 1.2564193710347024e-05 0
1.3005647424259899e-05 -3.5256035794492546e-06 0
1.4580169954042123e-05 1.4901022331529377e-05 0
1.3726018766497159e-05 -5.7162137100560901e-06 0
1.9768073251911956e-05 1.8255451085338245e-05 0
1.9428979333206945e-05 -7.8248580521975960e-06 0
2.5880650351791409e-05 2.1060955059475571e-05 0
2.5664971324860500e-05 -9.5976661776638952e-06 0
3.4800059774791838e-05 2.3954608076928137e-05 0
3.4194660503024323e-05 -1.0557217439574471e-05 0
4.1578643918029473e-05 2.4018007822341207e-05 0
4.1609139915129153e-05 1.6791819720413878e-05 0
4.0398513656577120e-05 9.7866596081311349e-06 0
4.0158366955185785e-05 3.5893466091296923e-06 0
4.0984319812538166e-05 -3.4664499212167800e-06 0
4.0694397016451528e-05 -1.1319523457135435e-05 0

VECTORS Forces1 float
-1.0293961927417694e+00 6.0489647514648537e-01 0
-6.5387140600359928e-01 -3.9396388880533378e-01 0
1.3288230417469769e+01 -7.3480736967382922e+00 0
8.6350646877243129e+00 4.7721748089891118e+00 0
1.4560144237499669e+01 -2.2500705555875946e+00 0
9.5026405020258160e+00 1.4624713474237727e+00 0
9.2809797286005242e+00 3.7988400835727554e-01 0
6.0650163668306494e+00 -2.4489782820773309e-01 0
-1.3988779104448350e+00 -5.0379945289292731e-02 0
-9.1550896146238403e-01 3.2936886393172292e-02 0
3.5818860958197767e+01 2.7931005931425130e-02 0
2.3525892181097777e+01 3.2462208216145374e-03 0
-1.5268155751481973e+00 -1.7299510439968665e-03 0
-1.0081964609560943e+00 -1.0161701649457273e-03 0
1.0259132117881549e+01 3.2165603420797389e-03 0
6.7715969924639898e+00 1.4640193522373730e-02 0
1.0259959436399500e+01 2.9940919290374172e-03 0
6.7722919464306068e+00 1.4748967270698623e-02 0
-1.5289348894191950e+00 -7.2722744842519313e-04 0
-1.0095930587754347e+00 -1.9894644809013468e-03 0
3.6321579615357813e+01 2.7666458545140271e-03 0
2.4051349163534372e+01 1.0280418918743134e-01 0
-1.5373286984825045e+00 -1.0575399491632874e-03 0
-1.0211180206134822e+00 -5.3241969497342051e-03 0
1.0319800446739107e+01 5.4775129551938497e-03 0
6.8542153886740964e+00 3.7992331776684020e-02 0
1.0319806816485963e+01 5.4880977150870962e-03 0
6.8542674149540890e+00 3.8005705690983792e-02 0
-1.5373337509461202e+00 -1.1013879990370409e-03 0
-1.0213416162223428e+00 -5.4789764723609221e-03 0
3.6290666738430708e+01 4.2729101814896628e-02 0
2.4151406284558970e+01 1.6329478045746040e-01 0
-1.5296281216565721e+00 -3.0020073460764194e-03 0
-1.0210815228708430e+00 -7.9695136754974159e-03 0
1.0265715138991037e+01 1.8921800773095330e-02 0
6.8525864795595819e+00 5.5506654025423381e-02 0
1.0265638211225479e+01 1.8934766942031535e-02 0
6.8525904494740093e+00 5.5522063447956592e-02 0
-1.5290165630624541e+00 -3.1174332436515774e-03 0
-1.0208744063010124e+00 -8.0918832813631839e-03 0
3.5980213870375259e+01 9.6916724034435173e-02 0
2.4079955085285047e+01 2.2733202021191798e-01 0
-1.5116032360689386e+00 -5.8157251672009387e-03 0
-1.0152774202258008e+00 -1.0621346745923677e-02 0
1.0143161099918894e+01 3.7890792090086278e-02 0
6.8132894097238363e+00 7.3390926889718655e-02 0
1.0143014801820600e+01 3.7907836000951468e-02 0
6.8132653389565156e+00 7.3408974732576321e-02 0
-1.5104929094617510e+00 -6.0082032783505060e-03 0
-1.0147659258521777e+00 -1.0725302695423980e-02 0
3.5417666794887431e+01 1.8761611870946915e-01 0
2.3869092294934703e+01 2.8500045257741291e-01 0
-1.4817377481348908e+00 -1.0587659260324570e-02 0
-1.0029279858288076e+00 -1.2884268321769060e-02 0
9.9406052513911529e+00 6.9986108549726464e-02 0
6.7300037651605749e+00 8.8789446801168695e-02 0
9.9403873867530468e+00 7.0005971206940285e-02 0
6.7299534086063177e+00 8.8813222096089772e-02 0
-1.4801662233988224e+00 -1.0873677126003281e-02 0
-1.0021078236635661e+00 -1.2978137430657609e-02 0
3.4565077845046176e+01 3.0538688516552215e-01 0
2.3497260953406965e+01 3.4722619530230919e-01 0
-1.4426405021289614e+00 -1.6636310446950901e-02 0
-9.8495129712649399e-01 -1.5694751212878423e-02 0
9.6759458072138713e+00 1.1021763707131510e-01 0
6.6092733120572227e+00 1.0826731493814845e-01 0
9.6755775593749629e+00 1.1026336275581435e-01 0
6.6091542104781089e+00 1.0829328815768645e-01 0
-1.4402701095536818e+00 -1.7282522052667969e-02 0
-9.8353095640600363e-01 -1.5734731477410151e-02 0
3.3440953265909897e+01 5.9596724539630741e-01 0
2.2937556628671793e+01 3.8068562153310376e-01 0
-1.3743376803616949e+00 -3.4964224919224803e-02 0
-9.4764233854474356e-01 -1.6434433070636453e-02 0
9.2093280028556688e+00 2.3366224879261840e-01 0
6.3556137699049167e+00 1.1401967200744897e-01 0
9.2086876842427436e+00 2.3364604137611200e-01 0
6.3554302679470114e+00 1.1408059361415561e-01 0
-1.3730932567574974e+00 -3.5931377166585829e-02 0
-9.4761992962928221e-01 -1.6583521397775535e-02 0
3.1637417809867479e+01 8.3650633027965915e-01 0
2.2140500266965184e+01 5.8080008192582855e-01 0
-1.3447340920641733e+00 -4.5801115662065267e-02 0
-9.6606530109606081e-01 -2.5546402089132492e-02 0
8.9906134088752374e+00 2.9856000704491398e-01 0
6.4723516387672522e+00 1.7776247250285335e-01 0
8.9882441751879405e+00 2.9851687100706759e-01 0
6.4715195176431983e+00 1.7773671516498654e-01 0
-1.3443707182353373e+00 -5.0747696497865993e-02 0
-9.6645021584775193e-01 -2.3624134579157213e-02 0
3.0834833429629370e+01 2.6238069720405828e+00 0
2.3015950834483416e+01 -7.3136405208680547e-02 0
-1.1748508331785172e+00 -1.8737028779983375e-01 0
-9.1065723052066772e-01 4.1923876930326121e-02 0
8.0070920196727648e+00 1.2613682098750201e+00 0
6.3608654258804433e+00 -2.2444757958945905e-01 0
6.6309897760549932e+00 1.0015124972313112e+00 0
5.2688889771194383e+00 -2.5710575176314249e-01 0
1.2377466177623225e+01 2.2721995436016797e+00 0
9.9987035567198550e+00 4.9554884180321240e-01 0
1.3238814076649972e+00 3.8250274336527013e-01 0
8.1445136988659055e+00 5.3398302237775763e-01 0
3.8659671107749944e+00 6.3384934064852227e-01 0
3.7889525293644888e+00 1.4189556568621688e+00 0
6.4536541962671130e+00 1.5916997929944943e+00 0
8.5860242841056744e-01 -1.5739656341553301e-01 0

VECTORS Forces2 float
1.0753657240081695e+00 -6.2169097243331772e-01 0
6.5131335716403360e-01 4.0038181860552363e-01 0
-1.3635527748079630e+01 7.5322489233291270e+00 0
-8.4291111503488558e+00 -4.6602897655989519e+00 0
-1.4932165982235432e+01 2.3121703522660515e+00 0
-9.2808703083694901e+00 -1.4290158845101313e+00 0
-9.5207620308723389e+00 -3.8457358916231876e-01 0
-5.9289505692029767e+00 2.3486751169807907e-01 0
1.4346959917060806e+00 5.0169542406253056e-02 0
8.9461435952402069e-01 -3.1319714280450106e-02 0
-3.6764058712046925e+01 -1.8970806742699628e-03 0
-2.3058192243939363e+01 2.0854860429619135e-02 0
1.5681747732469091e+00 5.3142999069101808e-04 0
9.8973680915742535e-01 -2.4131687052380965e-03 0
-1.0537547750734971e+01 1.0823195771648808e-03 0
-6.6494558669637938e+00 1.2311782122886358e-02 0
-1.0538382475289410e+01 1.3167141712167080e-03 0
-6.6501278987506334e+00 1.2251439085170113e-02 0
1.5704767907813513e+00 -4.5876736716483440e-04 0
9.9114856552613739e-01 -1.6992688338240689e-03 0
-3.7324192852311718e+01 3.3185054971480131e-03 0
-2.3605752516460612e+01 8.1356856006250561e-02 0
1.5793615349942629e+00 1.8533170516878760e-04 0
9.9871273381144421e-01 -5.3950356424968104e-03 0
-1.0601446327800417e+01 -3.2415580166577510e-03 0
-6.7040645736515900e+00 3.8537284492733012e-02 0
-1.0601441111572104e+01 -3.2550344753328416e-03 0
-6.7040527913124990e+00 3.8575282615012405e-02 0
1.5793054333240781e+00 1.7281655388936843e-04 0
9.9851263460937356e-01 -5.5337699313248228e-03 0
-3.7249642109669033e+01 -1.5676332383371652e-02 0
-2.3471724706336087e+01 1.8381151319021222e-01 0
1.5682950527599699e+00 3.3458995319901228e-04 0
9.8389634448554419e-01 -9.3233880280902785e-03 0
-1.0523786471516974e+01 -4.5134975848311974e-03 0
-6.6013602805792742e+00 6.5453358338543627e-02 0
-1.0523685008758962e+01 -4.5258395075931388e-03 0
-6.6012421391072245e+00 6.5491833893911278e-02 0
1.5674466308194270e+00 2.8047066980161327e-04 0
9.8276445684971481e-01 -9.4579523473185996e-03 0
-3.6825423112426122e+01 -9.0437305781661675e-03 0
-2.2926293378099395e+01 2.7549016487588740e-01 0
1.5441378640602237e+00 -4.2925786625940492e-04 0
9.5303927909274966e-01 -1.3066097638315325e-02 0
-1.0359299899489748e+01 2.5289673940914710e-04 0
-6.3922814002108348e+00 9.1166562294246120e-02 0
-1.0359120656036124e+01 2.4165746924131070e-04 0
-6.3920740280763040e+00 9.1209068699933102e-02 0
1.5426693541485452e+00 -5.6088570585536158e-04 0
9.5109130378775775e-01 -1.3179309346646191e-02 0
-3.6084728545944721e+01 2.5672552277559824e-02 0
-2.1984596956904337e+01 3.6461028541196777e-01 0
1.5062610952739655e+00 -2.8334286263668419e-03 0
9.0415653641401128e-01 -1.6669589987820109e-02 0
-1.0102274533128982e+01 1.5828446238043841e-02 0
-6.0621383912796070e+00 1.1623303237334605e-01 0
-1.0102007486228182e+01 1.5808342995892555e-02 0
-6.0618292728180272e+00 1.1628935041362287e-01 0
1.5041363185512662e+00 -3.0525219365393425e-03 0
9.0122509525236627e-01 -1.6760523580005612e-02 0
-3.5011425095246949e+01 8.2958262967001900e-02 0
-2.0575665147030936e+01 4.6181089174702927e-01 0
1.4534768745338120e+00 -5.6259764721362827e-03 0
8.3305052097298915e-01 -2.0893320350806380e-02 0
-9.7443847447610494e+00 3.3101586691846388e-02 0
-5.5827723098195303e+00 1.4616523024208744e-01 0
-9.7439658252891892e+00 3.3059177998045093e-02 0
-5.5823094291722102e+00 1.4624768783996872e-01 0
1.4503444987318168e+00 -6.0814266934007179e-03 0
8.2853435483583926e-01 -2.0906283120691798e-02 0
-3.3457449785317884e+01 2.0586743865444124e-01 0
-1.8485626654487699e+01 5.6070534000000516e-01 0
1.3704433717280438e+00 -1.3517979074843277e-02 0
7.2052885149044765e-01 -2.4309944545066867e-02 0
-9.1791000689087614e+00 8.3192980480808879e-02 0
-4.8235942672270635e+00 1.7182173934490555e-01 0
-9.1784463759924773e+00 8.2983182812124828e-02 0
-4.8230896240654619e+00 1.7195887221975834e-01 0
1.3668147242011150e+00 -1.4471852257856651e-02 0
7.1490313334083089e-01 -2.4166663608800508e-02 0
-3.1219343945680762e+01 2.7994994644855475e-01 0
-1.5512719557260999e+01 6.5023910229257054e-01 0
1.2805966551195440e+00 -1.7142646690511611e-02 0
6.0967998351867225e-01 -2.8220126892237359e-02 0
-8.5633961627858568e+00 9.1257360344242255e-02 0
-4.0862278111611543e+00 2.0295795790661075e-01 0
-8.5613187779890971e+00 9.0157346917566716e-02 0
-4.0855729691163436e+00 2.0352542699794512e-01 0
1.2738726199960266e+00 -2.2575872173167380e-02 0
5.9627265393340378e-01 -2.6243677901924195e-02 0
-2.7757278977864175e+01 8.6062444186302822e-01 0
-1.1849967173159142e+01 9.0301679015923941e-01 0
9.7757136877059025e-01 -8.8485844267523747e-02 0
2.4788583508201287e-01 -2.0331435886350915e-02 0
-6.4501782373222243e+00 5.3976581382347222e-01 0
-1.7337922597649491e+00 2.9566541686372216e-01 0
-6.0044963898725623e+00 -1.9228588745090827e-02 0
-1.7864586370829134e+00 2.9615108921224509e-01 0
-3.2365683367209552e+00 5.3806578951556707e+00 0
6.0905967746098644e-01 1.6671050872528190e-01 0
-7.1644033973609067e-01 5.0664392449391704e-01 0
-1.4334841055001772e+00 5.6415218078086395e+00 0
5.8004452129591455e-01 4.2551555037546498e+00 0
2.4873098639411753e-01 3.5564469609768845e+00 0
2.0286569577247374e-01 7.3767131857635548e-01 0
2.2116773034900092e-01 -2.5266791649487719e-01 0

VECTORS Forces3 float
-8.1930677585513017e-03 9.9222802255623660e-03 0
-2.2759075914982836e-02 -1.0539542926974461e-02 0
1.9353238594956224e-01 -1.2188516280509411e-01 0
3.5083514652833919e-01 2.0399254066026182e-01 0
1.9869858051790473e-01 -4.3418027513156071e-02 0
3.6625941906236492e-01 7.0123208374231832e-02 0
1.2056108105654299e-01 1.3160807702197592e-04 0
2.2634498664619926e-01 -4.6707625574645556e-03 0
-1.8172478557510419e-02 -2.0673918174750545e-04 0
-3.4180511558480599e-02 5.8707306047269263e-04 0
3.7843503761488001e-01 -3.7088742476925340e-02 0
7.7245283254518404e-01 5.7232314448281828e-02 0
-1.4129721106791058e-02 9.2060374140795975e-04 0
-3.0884169362316648e-02 -2.9093361925063483e-03 0
9.4039076257214610e-02 -7.8507338683085695e-03 0
2.0589533675895533e-01 2.1269193059969119e-02 0
9.4039703752870130e-02 -7.8492746960560755e-03 0
2.0590797690412183e-01 2.1292233111250610e-02 0
-1.3967347763825678e-02 9.4008807324609631e-04 0
-3.0788758277495196e-02 -3.0374331713885570e-03 0
3.1316557308018272e-01 -1.2167648219289650e-02 0
7.2614122701297346e-01 9.6115577528923399e-02 0
-1.3244513657461116e-02 2.2708673480849919e-04 0
-3.2347960085305223e-02 -5.3818917849777700e-03 0
8.9065432447948387e-02 -2.7836151223553734e-03 0
2.1693578350341777e-01 3.7824140043868443e-02 0
8.9066771330778560e-02 -2.7826346715541222e-03 0
2.1696394475403624e-01 3.7845072913801091e-02 0
-1.3248462166856481e-02 1.9258227263030099e-04 0
-3.2535456496878383e-02 -5.5061802346734528e-03 0
3.2431271883373941e-01 -6.7416331583196850e-03 0
8.3416841629183569e-01 1.7388355237760053e-01 0
-1.4190707583432360e-02 -2.1027420385500442e-04 0
-3.9077910080291427e-02 -8.7259478401072541e-03 0
9.5833944535359997e-02 4.8073946733740407e-05 0
2.6298370083924044e-01 6.0562334035025839e-02 0
9.5839083943756037e-02 4.7057334893109880e-05 0
2.6303867772075745e-01 6.0587827944526725e-02 0
-1.4257301188742966e-02 -2.6795423392700547e-04 0
-3.9491344837872831e-02 -8.8600184067798866e-03 0
3.5329165886048747e-01 1.3556862059145606e-02 0
1.0453761774227441e+00 2.5120138284023269e-01 0
-1.5736345315631933e-02 -1.5054633890436292e-03 0
-5.0190777319383630e-02 -1.1894502572151480e-02 0
1.0643780758921274e-01 8.6756734715241011e-03 0
3.3825246064678055e-01 8.2068203921594182e-02 0
1.0644335008872799e-01 8.6782719199580693e-03 0
3.3833463999883490e-01 8.2095485316874051e-02 0
-1.5830755349860306e-02 -1.6337200785698021e-03 0
-5.0827261371457128e-02 -1.2010138054254658e-02 0
3.9850564369287000e-01 6.2544529812926797e-02 0
1.3698918302557792e+00 3.2427010705856024e-01 0
-1.7628891834488916e-02 -4.4801426746980903e-03 0
-6.6458547412565169e-02 -1.4824046727011686e-02 0
1.1936699465744532e-01 2.8510684900568684e-02 0
4.4817403680860152e-01 1.0214011166922378e-01 0
1.1937463028212783e-01 2.8510398645921271e-02 0
4.4828934254692709e-01 1.0217481979462779e-01 0
-1.7767781002960923e-02 -4.6729621528313675e-03 0
-6.7383500888955089e-02 -1.4928525923630323e-02 0
4.4567060269695091e-01 1.3240730497306435e-01 0
1.8293651614650579e+00 4.0260007477760801e-01 0
-2.0746373618887697e-02 -7.6046566925030250e-03 0
-8.9656724745898198e-02 -1.8268317898585636e-02 0
1.4069615638159652e-01 4.8717125996686296e-02 0
6.0471205874920231e-01 1.2608918092589433e-01 0
1.4070199631538183e-01 4.8716479175540055e-02 0
6.0487166691722349e-01 1.2613107938467322e-01 0
-2.0948588447469090e-02 -8.0111918929123786e-03 0
-9.1049003177275309e-02 -1.8302224601951200e-02 0
5.5642012797346219e-01 2.8528242470983550e-01 0
2.5062594415140445e+00 4.6278333543082717e-01 0
-2.4452774642535542e-02 -1.7259419725229746e-02 0
-1.2460272785425824e-01 -1.9600275906627666e-02 0
1.6564509022957186e-01 1.1255246920370320e-01 0
8.4000663170191725e-01 1.3613979206302043e-01 0
1.6564303404322481e-01 1.1243612232056753e-01 0
8.4016848136487543e-01 1.3622379022835238e-01 0
-2.5267986024815968e-02 -1.7829575886551426e-02 0
-1.2703025792394207e-01 -1.9720492296276104e-02 0
6.7298602499787863e-01 3.2353740661799107e-01 0
3.5165568067669022e+00 5.9196589006526767e-01 0
-4.5694860450466154e-02 -1.5389246915515405e-02 0
-1.8034838421988958e-01 -2.9231796085592943e-02 0
3.0603117841769995e-01 8.9293195221302413e-02 0
1.2091047569480748e+00 2.0371934489782312e-01 0
3.0589307089060841e-01 8.8827388696079618e-02 0
1.2090540380853987e+00 2.0390987780798930e-01 0
-4.7428866335745258e-02 -1.9414938002419425e-02 0
-1.8566250080284888e-01 -2.8092914165701866e-02 0
1.5446316714840349e+00 1.1532350082183285e+00 0
5.3050149028386757e+00 6.2192853503162704e-01 0
-7.4108984982073384e-02 -1.0377981172350122e-01 0
-2.9392954085228018e-01 -5.7825060105050749e-03 0
5.8292686921843095e-01 6.8447649761744112e-01 0
2.0350003335210149e+00 1.2563323825135181e-01 0
2.5017192084811518e-01 3.4710621595219066e-01 0
1.6054783176283554e+00 8.2862005653638604e-02 0
3.2679961672509830e+00 3.1725678095185139e+00 0
3.9191786663241226e+00 5.4870395986655918e-01 0
2.1672360276623023e-01 3.5247117659625204e-01 0
2.2946958559246187e+00 2.5762498627936994e+00 0
1.3106606311433089e+00 2.2485488471632133e+00 0
1.1119437435796657e+00 2.3389356842276086e+00 0
2.2293610630312894e+00 1.3013007740921307e+00 0
4.3394543803585384e-01 -1.4404838834641520e-01 0

