# vtk DataFile Version 2.0

ASCII

DATASET UNSTRUCTURED_GRID

POINTS 106 float 

-5.0000000000000003e-02  0.0000000000000000e+00  0.0000000000000000e+00
5.0000000000000003e-02  0.0000000000000000e+00  0.0000000000000000e+00
-5.0000000000000003e-02  2.0000000000000000e-02  0.0000000000000000e+00
5.0000000000000003e-02  2.0000000000000000e-02  0.0000000000000000e+00
-5.0000000000000003e-02  4.0000000000000001e-02  0.0000000000000000e+00
5.0000000000000003e-02  4.0000000000000001e-02  0.0000000000000000e+00
-5.0000000000000003e-02  5.9999999999999998e-02  0.0000000000000000e+00
5.0000000000000003e-02  5.9999999999999998e-02  0.0000000000000000e+00
-5.0000000000000003e-02  8.0000000000000002e-02  0.0000000000000000e+00
5.0000000000000003e-02  8.0000000000000002e-02  0.0000000000000000e+00
-5.0000000000000003e-02  1.0000000000000001e-01  0.0000000000000000e+00
5.0000000000000003e-02  1.0000000000000001e-01  0.0000000000000000e+00
-5.0000000000000003e-02  1.2000000000000000e-01  0.0000000000000000e+00
5.0000000000000003e-02  1.2000000000000000e-01  0.0000000000000000e+00
-5.0000000000000003e-02  1.4000000000000001e-01  0.0000000000000000e+00
5.0000000000000003e-02  1.4000000000000001e-01  0.0000000000000000e+00
-5.0000000000000003e-02  1.6000000000000000e-01  0.0000000000000000e+00
5.0000000000000003e-02  1.6000000000000000e-01  0.0000000000000000e+00
-5.0000000000000003e-02  1.7999999999999999e-01  0.0000000000000000e+00
5.0000000000000003e-02  1.7999999999999999e-01  0.0000000000000000e+00
-5.0000000000000003e-02  2.0000000000000001e-01  0.0000000000000000e+00
5.0000000000000003e-02  2.0000000000000001e-01  0.0000000000000000e+00
-5.0000000000000003e-02  2.2000000000000000e-01  0.0000000000000000e+00
5.0000000000000003e-02  2.2000000000000000e-01  0.0000000000000000e+00
-5.0000000000000003e-02  2.3999999999999999e-01  0.0000000000000000e+00
5.0000000000000003e-02  2.3999999999999999e-01  0.0000000000000000e+00
-5.0000000000000003e-02  2.6000000000000001e-01  0.0000000000000000e+00
5.0000000000000003e-02  2.6000000000000001e-01  0.0000000000000000e+00
-5.0000000000000003e-02  2.8000000000000003e-01  0.0000000000000000e+00
5.0000000000000003e-02  2.8000000000000003e-01  0.0000000000000000e+00
-5.0000000000000003e-02  2.9999999999999999e-01  0.0000000000000000e+00
5.0000000000000003e-02  2.9999999999999999e-01  0.0000000000000000e+00
-5.0000000000000003e-02  3.2000000000000001e-01  0.0000000000000000e+00
5.0000000000000003e-02  3.2000000000000001e-01  0.0000000000000000e+00
-5.0000000000000003e-02  3.4000000000000002e-01  0.0000000000000000e+00
5.0000000000000003e-02  3.4000000000000002e-01  0.0000000000000000e+00
-5.0000000000000003e-02  3.5999999999999999e-01  0.0000000000000000e+00
5.0000000000000003e-02  3.5999999999999999e-01  0.0000000000000000e+00
-5.0000000000000003e-02  3.8000000000000000e-01  0.0000000000000000e+00
5.0000000000000003e-02  3.8000000000000000e-01  0.0000000000000000e+00
-5.0000000000000003e-02  4.0000000000000002e-01  0.0000000000000000e+00
5.0000000000000003e-02  4.0000000000000002e-01  0.0000000000000000e+00
-5.0000000000000003e-02  4.1999999999999998e-01  0.0000000000000000e+00
5.0000000000000003e-02  4.1999999999999998e-01  0.0000000000000000e+00
-5.0000000000000003e-02  4.4000000000000000e-01  0.0000000000000000e+00
5.0000000000000003e-02  4.4000000000000000e-01  0.0000000000000000e+00
-5.0000000000000003e-02  4.6000000000000002e-01  0.0000000000000000e+00
5.0000000000000003e-02  4.6000000000000002e-01  0.0000000000000000e+00
-5.0000000000000003e-02  4.7999999999999998e-01  0.0000000000000000e+00
5.0000000000000003e-02  4.7999999999999998e-01  0.0000000000000000e+00
-5.0000000000000003e-02  5.0000000000000000e-01  0.0000000000000000e+00
5.0000000000000003e-02  5.0000000000000000e-01  0.0000000000000000e+00
-5.0000000000000003e-02  5.2000000000000002e-01  0.0000000000000000e+00
5.0000000000000003e-02  5.2000000000000002e-01  0.0000000000000000e+00
-5.0000000000000003e-02  5.4000000000000004e-01  0.0000000000000000e+00
5.0000000000000003e-02  5.4000000000000004e-01  0.0000000000000000e+00
-5.0000000000000003e-02  5.6000000000000005e-01  0.0000000000000000e+00
5.0000000000000003e-02  5.6000000000000005e-01  0.0000000000000000e+00
-5.0000000000000003e-02  5.7999999999999996e-01  0.0000000000000000e+00
5.0000000000000003e-02  5.7999999999999996e-01  0.0000000000000000e+00
-5.0000000000000003e-02  5.9999999999999998e-01  0.0000000000000000e+00
5.0000000000000003e-02  5.9999999999999998e-01  0.0000000000000000e+00
-5.0000000000000003e-02  6.2000000000000000e-01  0.0000000000000000e+00
5.0000000000000003e-02  6.2000000000000000e-01  0.0000000000000000e+00
-5.0000000000000003e-02  6.4000000000000001e-01  0.0000000000000000e+00
5.0000000000000003e-02  6.4000000000000001e-01  0.0000000000000000e+00
-5.0000000000000003e-02  6.6000000000000003e-01  0.0000000000000000e+00
5.0000000000000003e-02  6.6000000000000003e-01  0.0000000000000000e+00
-5.0000000000000003e-02  6.8000000000000005e-01  0.0000000000000000e+00
5.0000000000000003e-02  6.8000000000000005e-01  0.0000000000000000e+00
-5.0000000000000003e-02  6.9999999999999996e-01  0.0000000000000000e+00
5.0000000000000003e-02  6.9999999999999996e-01  0.0000000000000000e+00
-5.0000000000000003e-02  7.1999999999999997e-01  0.0000000000000000e+00
5.0000000000000003e-02  7.1999999999999997e-01  0.0000000000000000e+00
-5.0000000000000003e-02  7.3999999999999999e-01  0.0000000000000000e+00
5.0000000000000003e-02  7.3999999999999999e-01  0.0000000000000000e+00
-5.0000000000000003e-02  7.6000000000000001e-01  0.0000000000000000e+00
5.0000000000000003e-02  7.6000000000000001e-01  0.0000000000000000e+00
-5.0000000000000003e-02  7.8000000000000003e-01  0.0000000000000000e+00
5.0000000000000003e-02  7.8000000000000003e-01  0.0000000000000000e+00
-5.0000000000000003e-02  8.0000000000000004e-01  0.0000000000000000e+00
5.0000000000000003e-02  8.0000000000000004e-01  0.0000000000000000e+00
-5.0000000000000003e-02  8.1999999999999995e-01  0.0000000000000000e+00
5.0000000000000003e-02  8.1999999999999995e-01  0.0000000000000000e+00
-5.0000000000000003e-02  8.3999999999999997e-01  0.0000000000000000e+00
5.0000000000000003e-02  8.3999999999999997e-01  0.0000000000000000e+00
-5.0000000000000003e-02  8.5999999999999999e-01  0.0000000000000000e+00
5.0000000000000003e-02  8.5999999999999999e-01  0.0000000000000000e+00
-5.0000000000000003e-02  8.8000000000000000e-01  0.0000000000000000e+00
5.0000000000000003e-02  8.8000000000000000e-01  0.0000000000000000e+00
-5.0000000000000003e-02  9.0000000000000002e-01  0.0000000000000000e+00
5.0000000000000003e-02  9.0000000000000002e-01  0.0000000000000000e+00
-5.0000000000000003e-02  9.2000000000000004e-01  0.0000000000000000e+00
5.0000000000000003e-02  9.2000000000000004e-01  0.0000000000000000e+00
-5.0000000000000003e-02  9.3999999999999995e-01  0.0000000000000000e+00
5.0000000000000003e-02  9.3999999999999995e-01  0.0000000000000000e+00
-5.0000000000000003e-02  9.5999999999999996e-01  0.0000000000000000e+00
5.0000000000000003e-02  9.5999999999999996e-01  0.0000000000000000e+00
-5.0000000000000003e-02  9.7999999999999998e-01  0.0000000000000000e+00
5.0000000000000003e-02  9.7999999999999998e-01  0.0000000000000000e+00
-5.0000000000000003e-02  1.0000000000000000e+00  0.0000000000000000e+00
-3.0000000000000002e-02  1.0000000000000000e+00  0.0000000000000000e+00
-1.0000000000000002e-02  1.0000000000000000e+00  0.0000000000000000e+00
1.0000000000000009e-02  1.0000000000000000e+00  0.0000000000000000e+00
2.9999999999999999e-02  1.0000000000000000e+00  0.0000000000000000e+00
5.0000000000000003e-02  1.0000000000000000e+00  0.0000000000000000e+00

CELLS 0 0


CELL_TYPES 0


POINT_DATA 106

VECTORS VertexNormals float

0.0000000000000000e+00 0.0000000000000000e+00 0
0.0000000000000000e+00 0.0000000000000000e+00 0
0.0000000000000000e+00 0.0000000000000000e+00 0
0.0000000000000000e+00 0.0000000000000000e+00 0
0.0000000000000000e+00 0.0000000000000000e+00 0
0.0000000000000000e+00 0.0000000000000000e+00 0
0.0000000000000000e+00 0.0000000000000000e+00 0
0.0000000000000000e+00 0.0000000000000000e+00 0
0.0000000000000000e+00 0.0000000000000000e+00 0
0.0000000000000000e+00 0.0000000000000000e+00 0
0.0000000000000000e+00 0.0000000000000000e+00 0
0.0000000000000000e+00 0.0000000000000000e+00 0
0.0000000000000000e+00 0.0000000000000000e+00 0
0.0000000000000000e+00 0.0000000000000000e+00 0
0.0000000000000000e+00 0.0000000000000000e+00 0
0.0000000000000000e+00 0.0000000000000000e+00 0
0.0000000000000000e+00 0.0000000000000000e+00 0
0.0000000000000000e+00 0.0000000000000000e+00 0
0.0000000000000000e+00 0.0000000000000000e+00 0
0.0000000000000000e+00 0.0000000000000000e+00 0
0.0000000000000000e+00 0.0000000000000000e+00 0
0.0000000000000000e+00 0.0000000000000000e+00 0
0.0000000000000000e+00 0.0000000000000000e+00 0
0.0000000000000000e+00 0.0000000000000000e+00 0
0.0000000000000000e+00 0.0000000000000000e+00 0
0.0000000000000000e+00 0.0000000000000000e+00 0
0.0000000000000000e+00 0.0000000000000000e+00 0
0.0000000000000000e+00 0.0000000000000000e+00 0
0.0000000000000000e+00 0.0000000000000000e+00 0
0.0000000000000000e+00 0.0000000000000000e+00 0
0.0000000000000000e+00 0.0000000000000000e+00 0
0.0000000000000000e+00 0.0000000000000000e+00 0
0.0000000000000000e+00 0.0000000000000000e+00 0
0.0000000000000000e+00 0.0000000000000000e+00 0
0.0000000000000000e+00 0.0000000000000000e+00 0
0.0000000000000000e+00 0.0000000000000000e+00 0
0.0000000000000000e+00 0.0000000000000000e+00 0
0.0000000000000000e+00 0.0000000000000000e+00 0
0.0000000000000000e+00 0.0000000000000000e+00 0
0.0000000000000000e+00 0.0000000000000000e+00 0
0.0000000000000000e+00 0.0000000000000000e+00 0
0.0000000000000000e+00 0.0000000000000000e+00 0
0.0000000000000000e+00 0.0000000000000000e+00 0
0.0000000000000000e+00 0.0000000000000000e+00 0
0.0000000000000000e+00 0.0000000000000000e+00 0
0.0000000000000000e+00 0.0000000000000000e+00 0
0.0000000000000000e+00 0.0000000000000000e+00 0
0.0000000000000000e+00 0.0000000000000000e+00 0
0.0000000000000000e+00 0.0000000000000000e+00 0
0.0000000000000000e+00 0.0000000000000000e+00 0
0.0000000000000000e+00 0.0000000000000000e+00 0
0.0000000000000000e+00 0.0000000000000000e+00 0
0.0000000000000000e+00 0.0000000000000000e+00 0
0.0000000000000000e+00 0.0000000000000000e+00 0
0.0000000000000000e+00 0.0000000000000000e+00 0
0.0000000000000000e+00 0.0000000000000000e+00 0
0.0000000000000000e+00 0.0000000000000000e+00 0
0.0000000000000000e+00 0.0000000000000000e+00 0
0.0000000000000000e+00 0.0000000000000000e+00 0
0.0000000000000000e+00 0.0000000000000000e+00 0
0.0000000000000000e+00 0.0000000000000000e+00 0
0.0000000000000000e+00 0.0000000000000000e+00 0
0.0000000000000000e+00 0.0000000000000000e+00 0
0.0000000000000000e+00 0.0000000000000000e+00 0
0.0000000000000000e+00 0.0000000000000000e+00 0
0.0000000000000000e+00 0.0000000000000000e+00 0
0.0000000000000000e+00 0.0000000000000000e+00 0
0.0000000000000000e+00 0.0000000000000000e+00 0
0.0000000000000000e+00 0.0000000000000000e+00 0
0.0000000000000000e+00 0.0000000000000000e+00 0
0.0000000000000000e+00 0.0000000000000000e+00 0
0.0000000000000000e+00 0.0000000000000000e+00 0
0.0000000000000000e+00 0.0000000000000000e+00 0
0.0000000000000000e+00 0.0000000000000000e+00 0
0.0000000000000000e+00 0.0000000000000000e+00 0
0.0000000000000000e+00 0.0000000000000000e+00 0
0.0000000000000000e+00 0.0000000000000000e+00 0
0.0000000000000000e+00 0.0000000000000000e+00 0
0.0000000000000000e+00 0.0000000000000000e+00 0
0.0000000000000000e+00 0.0000000000000000e+00 0
0.0000000000000000e+00 0.0000000000000000e+00 0
0.0000000000000000e+00 0.0000000000000000e+00 0
0.0000000000000000e+00 0.0000000000000000e+00 0
0.0000000000000000e+00 0.0000000000000000e+00 0
0.0000000000000000e+00 0.0000000000000000e+00 0
0.0000000000000000e+00 0.0000000000000000e+00 0
0.0000000000000000e+00 0.0000000000000000e+00 0
0.0000000000000000e+00 0.0000000000000000e+00 0
0.0000000000000000e+00 0.0000000000000000e+00 0
0.0000000000000000e+00 0.0000000000000000e+00 0
0.0000000000000000e+00 0.0000000000000000e+00 0
0.0000000000000000e+00 0.0000000000000000e+00 0
0.0000000000000000e+00 0.0000000000000000e+00 0
0.0000000000000000e+00 0.0000000000000000e+00 0
0.0000000000000000e+00 0.0000000000000000e+00 0
0.0000000000000000e+00 0.0000000000000000e+00 0
0.0000000000000000e+00 0.0000000000000000e+00 0
0.0000000000000000e+00 0.0000000000000000e+00 0
0.0000000000000000e+00 0.0000000000000000e+00 0
0.0000000000000000e+00 0.0000000000000000e+00 0
0.0000000000000000e+00 0.0000000000000000e+00 0
0.0000000000000000e+00 0.0000000000000000e+00 0
0.0000000000000000e+00 0.0000000000000000e+00 0
0.0000000000000000e+00 0.0000000000000000e+00 0
0.0000000000000000e+00 0.0000000000000000e+00 0
0.0000000000000000e+00 0.0000000000000000e+00 0

VECTORS Displacements1 float
-5.6022281284289089e-17 3.1297984757046936e-17 0
-1.1552842075189491e-22 3.4597859386182899e-23 0
1.5399046470357563e-06 5.4888893530032934e-07 0
1.4904381855939633e-06 -5.0550596937537104e-07 0
2.5688860260166755e-06 7.3152478055302263e-07 0
2.4762068423368389e-06 -6.7641497757715619e-07 0
3.0668894565039881e-06 6.9351115219501315e-07 0
2.9896848097412845e-06 -6.3242966002524115e-07 0
3.2703983421982830e-06 5.6233325647318875e-07 0
3.2245610067205089e-06 -5.1470528267490782e-07 0
4.6321290529753017e-06 3.5875211555847418e-07 0
4.3902885687090472e-06 -1.6309388516119646e-07 0
3.5157426137644366e-06 6.2855402163367210e-08 0
3.4669966239162979e-06 -1.1877776188643750e-08 0
3.7575072138486074e-06 8.6697934761011019e-08 0
3.6677954965934914e-06 4.2323888656116651e-08 0
3.7464164623418473e-06 5.6637731539262286e-08 0
3.6563555589435856e-06 8.9196055448467180e-08 0
3.5030469417611790e-06 1.0992610820797901e-07 0
3.4572577310608136e-06 2.1351291508446244e-08 0
4.6806331857654486e-06 1.2813280728866612e-07 0
4.4508548578889993e-06 1.8031042514243014e-07 0
3.5413445305530044e-06 -3.2758237980769489e-09 0
3.4918703548983248e-06 1.5125330257574819e-07 0
3.8253714924117132e-06 1.0459107360614138e-07 0
3.7406144911686430e-06 1.3096577374419892e-07 0
3.8393554010177482e-06 9.9817307148303506e-08 0
3.7546298403497220e-06 1.5584666777262461e-07 0
3.5915443699520724e-06 1.6039469829543259e-07 0
3.5486631673511328e-06 7.7733094539122782e-08 0
4.7678156652913513e-06 1.8855609890090744e-07 0
4.5796348682924161e-06 2.5960171603750895e-07 0
3.6314535264800145e-06 6.0189326965671560e-08 0
3.5809260164448302e-06 2.0676465065841220e-07 0
3.9247679282555530e-06 1.7089286660960311e-07 0
3.8540085313291930e-06 1.9123177383428401e-07 0
3.9491936064034097e-06 1.6798240437519506e-07 0
3.8775073978760271e-06 2.1881406089615667e-07 0
3.7097289091177219e-06 2.3104904326710865e-07 0
3.6716300740719925e-06 1.3275679972598319e-07 0
4.9014954103698413e-06 2.6995716838207349e-07 0
4.7893603887962153e-06 3.4810273679299349e-07 0
3.7734828198964467e-06 1.3827504278964192e-07 0
3.7233268274185651e-06 2.7318446409472333e-07 0
4.0804521250305703e-06 2.5698040593455025e-07 0
4.0328031243734251e-06 2.5956705633869243e-07 0
4.1172377167169644e-06 2.5948815517369499e-07 0
4.0670425997117468e-06 2.8877120430793225e-07 0
3.8872042046801338e-06 3.2851758226490336e-07 0
3.8563343181549638e-06 1.9012448531880571e-07 0
5.0977537359402406e-06 3.9118493914300019e-07 0
5.0995583809657341e-06 4.4054551882670151e-07 0
3.9804203378375263e-06 2.5078735310521152e-07 0
3.9314557786237761e-06 3.4437801528189226e-07 0
4.3025012786340716e-06 3.8308892505954175e-07 0
4.2882819035732103e-06 3.3108735574533698e-07 0
4.3543501331957955e-06 3.9471466380849961e-07 0
4.3351563835774633e-06 3.6246084334650442e-07 0
4.1365480065413337e-06 4.7110181115434934e-07 0
4.1144247520889172e-06 2.4798915888251495e-07 0
5.3661043243228383e-06 5.7010292643557619e-07 0
5.5315554620553698e-06 5.3920198203241622e-07 0
4.2736183564501990e-06 4.2242617405532951e-07 0
4.2247293972807425e-06 4.1740578816592777e-07 0
4.6267774270017159e-06 5.7648572230881528e-07 0
4.6545359105909674e-06 4.0232836409659958e-07 0
4.7082772432407420e-06 6.0826780817953061e-07 0
4.7275733308258697e-06 4.3358318034043995e-07 0
4.5165889516096955e-06 7.1055889661057618e-07 0
4.5023325874126040e-06 2.9291979647170408e-07 0
5.8112275800828517e-06 8.9669737219448302e-07 0
6.1838849505748000e-06 6.2902166417785389e-07 0
4.7495910323622556e-06 7.4431703059263619e-07 0
4.6774919833817153e-06 4.9165345554812542e-07 0
5.1560367450198037e-06 1.0033712072122864e-06 0
5.1970575513441288e-06 4.8124758625822761e-07 0
5.3103864535428896e-06 1.1734899994159236e-06 0
5.2903333288526595e-06 5.3008861159315747e-07 0
5.1953016511643483e-06 1.4728506484922092e-06 0
5.0238252077878818e-06 3.6986428402536809e-07 0
6.6060509740247168e-06 2.0238213949044596e-06 0
7.0529558589149038e-06 7.7611193564862232e-07 0
5.6575980739460942e-06 2.2823783557886485e-06 0
5.1976489193215618e-06 5.3045452938288479e-07 0
6.1774183784626510e-06 3.1573886499836702e-06 0
5.8017567828170762e-06 3.3710605633407574e-07 0
6.3442412202993527e-06 4.2522369588450519e-06 0
5.8231124553168684e-06 -7.1870562090091160e-08 0
6.3960345506662190e-06 5.9846624653355709e-06 0
5.6420320066711574e-06 -1.2239557232970839e-06 0
9.0365779101737152e-06 8.6478240370032842e-06 0
9.2733225159344072e-06 -2.1521518229396169e-06 0
9.5676229891425005e-06 1.0617740306623028e-05 0
8.6704681238404302e-06 -4.0528585961753019e-06 0
1.3370908540042526e-05 1.3727266983414425e-05 0
1.2975732730308154e-05 -5.9791857998254447e-06 0
1.8069869154427242e-05 1.6394467640635670e-05 0
1.7717474536960443e-05 -7.6026634226840076e-06 0
2.5552713053498478e-05 1.9223029316402342e-05 0
2.4683022943842573e-05 -8.5066280469616012e-06 0
3.0965485589130462e-05 1.9308904439850096e-05 0
3.0972441990812325e-05 1.3437447136189098e-05 0
2.9710134380403904e-05 7.7315767386532385e-06 0
2.9332774528850923e-05 2.7773370479826746e-06 0
3.0006835599975562e-05 -2.8922654447137873e-06 0
2.9650408480488880e-05 -9.2446108544975693e-06 0

VECTORS Displacements2 float
-5.6098846618603455e-17 3.1340669964190976e-17 0
-1.1638500097336610e-22 3.5233198734708763e-23 0
1.5514259589207096e-06 5.5783741302034675e-07 0
1.5013387313928373e-06 -5.1429686942634722e-07 0
2.5902623492619129e-06 7.4468099941454231e-07 0
2.4969156277611377e-06 -6.8949172574954144e-07 0
3.0978445711943469e-06 7.0869638157208413e-07 0
3.0204995942510052e-06 -6.4725663373777105e-07 0
3.3113610780556291e-06 5.7726716236846617e-07 0
3.2655152002188597e-06 -5.2914461795972465e-07 0
4.6828409553649398e-06 3.7116343263646035e-07 0
4.4397892784736012e-06 -1.7466204390687276e-07 0
3.5701583134479123e-06 7.0399577790444379e-08 0
3.5208544395197395e-06 -1.8624289269942066e-08 0
3.8114494703943677e-06 9.0720991174305500e-08 0
3.7212021424243622e-06 3.9495622667635952e-08 0
3.7986546371536059e-06 5.9505517114566863e-08 0
3.7081344780504087e-06 8.7962398466424388e-08 0
3.5556613734090208e-06 1.1215401319436904e-07 0
3.5095710864045232e-06 2.0734427795090851e-08 0
4.7347231394623834e-06 1.3050722231530026e-07 0
4.5036632747305932e-06 1.8028246605866677e-07 0
3.5953364508220218e-06 -1.4934376845499979e-09 0
3.5454009114513949e-06 1.5180188293093865e-07 0
3.8787303916226967e-06 1.0647249196998257e-07 0
3.7935482961530420e-06 1.3189828309641437e-07 0
3.8929781312592084e-06 1.0264352132254070e-07 0
3.8076945851846648e-06 1.5620944608504099e-07 0
3.6461699577586591e-06 1.6324568742253011e-07 0
3.6031587751497827e-06 7.8273955877942595e-08 0
4.8236062437053774e-06 1.9190443991982381e-07 0
4.6342426756389554e-06 2.6045694656410280e-07 0
3.6868763513004359e-06 6.3390885211569489e-08 0
3.6359674268501634e-06 2.0770087665149316e-07 0
3.9796718009731820e-06 1.7439685299372946e-07 0
3.9084557495384887e-06 1.9258281817135164e-07 0
4.0044359351327078e-06 1.7243986228946822e-07 0
3.9322413094173052e-06 2.1955790499197562e-07 0
3.7659901612781290e-06 2.3558573337454665e-07 0
3.7279052119132962e-06 1.3360068991072524e-07 0
4.9590808057764872e-06 2.7511846846200734e-07 0
4.8459553003558528e-06 3.4939512306759035e-07 0
3.8309783079730897e-06 1.4323798639400064e-07 0
3.7806232086959851e-06 2.7468030051113240e-07 0
4.1376316877915839e-06 2.6226687358138686e-07 0
4.0895129263702822e-06 2.6155101807421030e-07 0
4.1748744840798953e-06 2.6577298754247300e-07 0
4.1242312573276015e-06 2.9009485063445737e-07 0
3.9459747567929426e-06 3.3496756665716146e-07 0
3.9153700340351876e-06 1.9159122986566772e-07 0
5.1580713314463212e-06 3.9845564083200674e-07 0
5.1591257568340650e-06 4.4253270991834932e-07 0
4.0409300180596921e-06 2.5794478645857542e-07 0
3.9919649200199407e-06 3.4667669950894384e-07 0
4.3629195856657962e-06 3.9064128397020171e-07 0
4.3481887844689853e-06 3.3396184546902705e-07 0
4.4153500308109929e-06 4.0336402640872228e-07 0
4.3957555724695084e-06 3.6458283703531219e-07 0
4.1988633869504384e-06 4.8006217853720226e-07 0
4.1773048592252478e-06 2.5027518176115601e-07 0
5.4302901788995914e-06 5.8018590359315787e-07 0
5.5953103902024326e-06 5.4209638217027265e-07 0
4.3384552560158170e-06 4.3255415160315412e-07 0
4.2898653148036237e-06 4.2070440377567575e-07 0
4.6920174662718474e-06 5.8726927880145095e-07 0
4.7191415042123665e-06 4.0627240664582804e-07 0
4.7744769740850585e-06 6.2049945876068373e-07 0
4.7932990758404350e-06 4.3652191142985550e-07 0
4.5844517440852854e-06 7.2369385938239494e-07 0
4.5709390932861362e-06 2.9610952414778972e-07 0
5.8817914854060046e-06 9.1248627379369827e-07 0
6.2538775871893513e-06 6.3308617269489434e-07 0
4.8221810920949725e-06 7.6237518832253447e-07 0
4.7490166683067806e-06 4.9697961081757177e-07 0
5.2299437639400526e-06 1.0253471634701897e-06 0
5.2671930187094198e-06 4.8794205100892200e-07 0
5.3862194664472574e-06 1.2012373983965391e-06 0
5.3607896149812201e-06 5.3629608467049936e-07 0
5.2737427388158145e-06 1.5077816269285449e-06 0
5.0974882573332685e-06 3.7683827594871710e-07 0
6.6881197676150761e-06 2.0673480240000405e-06 0
7.1261049734970648e-06 7.8431899456817215e-07 0
5.7382668230831416e-06 2.3337476000503791e-06 0
5.2698413208780495e-06 5.3811441489913634e-07 0
6.2535351804282646e-06 3.2220423295483602e-06 0
5.8661277820245002e-06 3.3997730733058524e-07 0
6.4196499381342810e-06 4.3377663316893181e-06 0
5.8872416748523594e-06 -8.4335299816987570e-08 0
6.4834056135950665e-06 6.0959313896849953e-06 0
5.7223160335983774e-06 -1.2560631065633094e-06 0
9.1549313317642004e-06 8.7849227951945509e-06 0
9.3862989328342014e-06 -2.2030683302324938e-06 0
9.7297348796644484e-06 1.0772280494365271e-05 0
8.8308391250946082e-06 -4.1184865702557453e-06 0
1.3582936327867377e-05 1.3891988757041213e-05 0
1.3188528779394660e-05 -6.0521895503106949e-06 0
1.8334798854094387e-05 1.6564273226022735e-05 0
1.7986273925713394e-05 -7.6819861481025270e-06 0
2.5868821214517409e-05 1.9393876006562664e-05 0
2.5010419905419706e-05 -8.5873267607249361e-06 0
3.1327938672931660e-05 1.9479006826369867e-05 0
3.1335366533411218e-05 1.3560329828230273e-05 0
3.0076985789948635e-05 7.8088774092292448e-06 0
2.9706747638354627e-05 2.8060502952608149e-06 0
3.0387447073551522e-05 -2.9174889780606455e-06 0
3.0033311688571852e-05 -9.3257893193801268e-06 0

VECTORS Forces1 float
-8.6016786493572139e-01 5.0635913652702180e-01 0
-5.5855011288484258e-01 -3.3534237599188865e-01 0
1.1127062256226314e+01 -6.1532591856685759e+00 0
7.3800750531487900e+00 4.0782880419458767e+00 0
1.2195556710465121e+01 -1.8855503558418290e+00 0
8.1223023498423270e+00 1.2516596028958142e+00 0
7.7743195994694458e+00 3.1678639522673413e-01 0
5.1841389901786226e+00 -2.0784863472468798e-01 0
-1.1717413359863800e+00 -4.2067390385719168e-02 0
-7.8248155873154734e-01 2.7948424749177886e-02 0
2.9991584541902309e+01 2.0479551307645442e-02 0
2.0090832155533413e+01 9.1976571248097126e-03 0
-1.2760730851903954e+00 -1.5537247228382153e-03 0
-8.5859370629429199e-01 -1.0620540000193669e-03 0
8.5739042704565360e+00 3.0661859834173960e-03 0
5.7662085164274712e+00 1.4035799055631223e-02 0
8.5745822085491543e+00 2.8814168345736445e-03 0
5.7667836456377568e+00 1.4132466364193899e-02 0
-1.2776838533060297e+00 -7.0889280761696118e-04 0
-8.5964461452259844e-01 -1.9001038410686873e-03 0
3.0294108763514028e+01 6.6271779879157776e-04 0
2.0424509948276679e+01 9.9970080593650076e-02 0
-1.2813209695100416e+00 -7.5171762039044306e-04 0
-8.6663491556674843e-01 -5.2896243520138275e-03 0
8.6008335204793180e+00 3.3306094303021719e-03 0
5.8166501934046160e+00 3.7799038997578582e-02 0
8.6008279312410654e+00 3.3384592490786598e-03 0
5.8166887362020185e+00 3.7813912541165763e-02 0
-1.2812264043679813e+00 -7.8666598185759141e-04 0
-8.6676784729704315e-01 -5.4386380133730197e-03 0
3.0240352150634489e+01 3.3014406885569267e-02 0
2.0503343009358517e+01 1.6089721486592323e-01 0
-1.2742403557885817e+00 -2.4689880446984837e-03 0
-8.6714378856102259e-01 -7.8316399829671951e-03 0
8.5518135939734652e+00 1.5218358664657972e-02 0
5.8194509100439280e+00 5.4649120585590683e-02 0
8.5517468650794619e+00 1.5228318215409880e-02 0
5.8194602695097366e+00 5.4665690817120062e-02 0
-1.2737058209897476e+00 -2.5722693735710437e-03 0
-8.6701563839206797e-01 -7.9479581591767965e-03 0
2.9964990729327969e+01 7.9007708013334302e-02 0
2.0461794419608097e+01 2.2477894012205465e-01 0
-1.2587767063948523e+00 -4.8616362976789274e-03 0
-8.6362723734593150e-01 -1.0494319942699282e-02 0
8.4467845958022121e+00 3.1290623725709614e-02 0
5.7956586902866807e+00 7.2670133672952733e-02 0
8.4466622821698731e+00 3.1303735160252942e-02 0
5.7956506869767166e+00 7.2690003928860478e-02 0
-1.2578460651233194e+00 -5.0382915475449203e-03 0
-8.6330021471586471e-01 -1.0594487362507185e-02 0
2.9495596646563172e+01 1.5902902239410224e-01 0
2.0336401064710049e+01 2.8252278034489059e-01 0
-1.2340966615626505e+00 -9.2078695209162221e-03 0
-8.5620003445116488e-01 -1.2781992054626516e-02 0
8.2795585901509963e+00 6.0473827997715522e-02 0
5.7456737402044116e+00 8.8295890453687867e-02 0
8.2793788153873518e+00 6.0487735359877996e-02 0
5.7456530783063977e+00 8.8321699731777711e-02 0
-1.2328014042079145e+00 -9.4702442252424020e-03 0
-8.5570175471763876e-01 -1.2864941042296655e-02 0
2.8793086605665454e+01 2.6486146828912205e-01 0
2.0115385742974304e+01 3.4530796569100919e-01 0
-1.2018888659274753e+00 -1.4412584472649603e-02 0
-8.4607443304849794e-01 -1.5402619482943039e-02 0
8.0616428593706857e+00 9.4881942551714171e-02 0
5.6778378392161306e+00 1.0655771832585230e-01 0
8.0613522333697549e+00 9.4913449411811471e-02 0
5.6777744326673742e+00 1.0658755778607791e-01 0
-1.2000471196874392e+00 -1.4994497929087252e-02 0
-8.4524519596777781e-01 -1.5419954441007805e-02 0
2.7897119847443051e+01 5.1270507339655169e-01 0
1.9808128019781261e+01 3.7242133574308778e-01 0
-1.1501560771652448e+00 -3.0321148317798051e-02 0
-8.2445603997183237e-01 -1.5957967650699189e-02 0
7.7085093661315964e+00 2.0163581332835270e-01 0
5.5304222605286375e+00 1.1124644136002965e-01 0
7.7079872298704437e+00 2.0160439449629525e-01 0
5.5302755799557195e+00 1.1130885206660783e-01 0
-1.1492932532024378e+00 -3.1293326194026708e-02 0
-8.2483525823208270e-01 -1.6022424457168744e-02 0
2.6542755691672230e+01 7.3735147296456693e-01 0
1.9366106009332231e+01 5.3997052214586228e-01 0
-1.1267694152981800e+00 -4.2335892438657215e-02 0
-8.4353163678616916e-01 -2.2727369716922598e-02 0
7.5334508075735096e+00 2.7423037559553920e-01 0
5.6494446021195284e+00 1.5940733725822540e-01 0
7.5314566781666139e+00 2.7409723820216492e-01 0
5.6486713712028749e+00 1.5943323479086913e-01 0
-1.1265337480032100e+00 -4.7356270206732914e-02 0
-8.4492141370279927e-01 -2.0701095004012994e-02 0
2.5813253884327516e+01 2.4396360784275428e+00 0
2.0182052574636426e+01 -6.7155993840215908e-02 0
-9.8616321210876967e-01 -1.7703779669501071e-01 0
-8.2153921599797786e-01 4.0882128620556707e-02 0
6.7431373520900735e+00 1.1853502152629269e+00 0
5.7306739857196751e+00 -2.0880858558153889e-01 0
5.5327382287716595e+00 9.0247360033022472e-01 0
4.7132693067090630e+00 -2.3180623172042444e-01 0
1.0956229162001634e+01 2.5138918993266888e+00 0
9.3200950845751365e+00 4.0646807078411940e-01 0
1.1313730782036129e+00 3.9122728797715967e-01 0
7.2749169077371159e+00 9.7365719746729740e-01 0
3.5975524379224186e+00 9.7958895300253379e-01 0
3.5007892854062264e+00 1.6403246922879822e+00 0
6.0001975299698609e+00 1.5065821551780356e+00 0
8.2575553947379987e-01 -1.7493307144010978e-01 0

VECTORS Forces2 float
8.7354699471252939e-01 -5.0430189485302790e-01 0
5.3436782905744318e-01 3.2838064570535480e-01 0
-1.1058176620330002e+01 6.1065127606565524e+00 0
-6.8975349789288520e+00 -3.8121143459142872e+00 0
-1.2113086511479445e+01 1.8755633050651661e+00 0
-7.5974161385942836e+00 -1.1696322450651391e+00 0
-7.7247601579054166e+00 -3.1077294154759955e-01 0
-4.8548257620869801e+00 1.9128295634978568e-01 0
1.1639706465098845e+00 4.0486719287351723e-02 0
7.3241460741885400e-01 -2.5476569984988220e-02 0
-2.9824909143950265e+01 -2.1441399698568031e-03 0
-1.8874370593364937e+01 2.2173726885959366e-02 0
1.2699602839636546e+00 6.5211291696357012e-04 0
8.0774526220769371e-01 -2.5639833376832014e-03 0
-8.5332783360359983e+00 -9.3033602818994119e-04 0
-5.4265233835105935e+00 1.4394669716655801e-02 0
-8.5339382229057819e+00 -7.4131874415489204e-04 0
-5.4270512780919402e+00 1.4347998583225328e-02 0
1.2716825389066269e+00 -1.4601219167433490e-04 0
8.0874442022226600e-01 -2.0045988283807280e-03 0
-3.0162856629332254e+01 -1.2782203986402695e-03 0
-1.9196953942206079e+01 8.4283349020006143e-02 0
1.2753199519421419e+00 2.0198321566574775e-04 0
8.1080887376794619e-01 -5.2622756058262402e-03 0
-8.5599328459442550e+00 -3.2092539379279805e-03 0
-5.4421209062432636e+00 3.7504987058935256e-02 0
-8.5599156189788168e+00 -3.2203498950036805e-03 0
-5.4420921889086804e+00 3.7539008605250231e-02 0
1.2751613803426054e+00 1.8715800976685121e-04 0
8.1049385236561566e-01 -5.3926627905030887e-03 0
-3.0066122122233100e+01 -1.5998528324996653e-02 0
-1.9030740340903705e+01 1.7850843456107934e-01 0
1.2652724939469033e+00 3.6761051390574471e-04 0
7.9644707483217259e-01 -9.0227511391219525e-03 0
-8.4901606100730174e+00 -4.5903145443477230e-03 0
-5.3433792940673301e+00 6.3264495817671074e-02 0
-8.4900735352378280e+00 -4.6010139160415631e-03 0
-5.3432673848450287e+00 6.3299852544462465e-02 0
1.2645352698999852e+00 3.1612118584727398e-04 0
7.9540589920347682e-01 -9.1517810319187119e-03 0
-2.9694461145284158e+01 -8.2975787738561041e-03 0
-1.8520844761124334e+01 2.6424954104640186e-01 0
1.2447027545326654e+00 -4.7631635895538881e-04 0
7.6838066749044009e-01 -1.2481694373549228e-02 0
-8.3501793419853243e+00 7.8145283350234481e-04 0
-5.1532728319966639e+00 8.6988409898193980e-02 0
-8.3500313895692706e+00 7.7242186462106249e-04 0
-5.1530855993324725e+00 8.7026888995611215e-02 0
1.2434758843447105e+00 -6.0409207182587205e-04 0
7.6665586096830607e-01 -1.2586051643211187e-02 0
-2.9078210658730335e+01 2.7829390218670015e-02 0
-1.7683166157550776e+01 3.4600785905168330e-01 0
1.2135819600360953e+00 -2.8705683290308321e-03 0
7.2548365376224822e-01 -1.5737788812525626e-02 0
-8.1391025354191893e+00 1.6351441680517432e-02 0
-4.8636589273078199e+00 1.0962794596904338e-01 0
-8.1388843904188928e+00 1.6334896487259169e-02 0
-4.8633875029289690e+00 1.0967921102704628e-01 0
1.2118275539431487e+00 -3.0833289975278830e-03 0
7.2294503376408092e-01 -1.5822781639921180e-02 0
-2.8199941805762066e+01 8.4905284613394291e-02 0
-1.6459122740594719e+01 4.3412245887974976e-01 0
1.1700450271375280e+00 -5.7822385371719496e-03 0
6.6410232317161277e-01 -1.9676011527548970e-02 0
-7.8438935388871727e+00 3.4580925397861464e-02 0
-4.4499012058378504e+00 1.3752111451719753e-01 0
-7.8435676147884239e+00 3.4548996305752089e-02 0
-4.4495070377714647e+00 1.3759480005360578e-01 0
1.1675775563962152e+00 -6.2464543834677639e-03 0
6.6028726698618800e-01 -1.9682982188322561e-02 0
-2.6942748200263775e+01 2.2478684768488791e-01 0
-1.4676733654188078e+01 5.2218565294290353e-01 0
1.1068913474708073e+00 -1.4736931885390939e-02 0
5.7001768786606521e-01 -2.2421285398539610e-02 0
-7.4144389630214507e+00 9.2277474493428477e-02 0
-3.8155769504641825e+00 1.5837714611636819e-01 0
-7.4139208639893939e+00 9.2084710529038286e-02 0
-3.8151221961951745e+00 1.5851001891326175e-01 0
1.1037935250554238e+00 -1.5596781698056039e-02 0
5.6488385691956389e-01 -2.2336278453142708e-02 0
-2.5233698929051080e+01 2.8570679225433282e-01 0
-1.2122857203830442e+01 6.3205830440523203e-01 0
1.0262467486879541e+00 -1.5895823588545844e-02 0
4.6112764541657170e-01 -2.8459312390121953e-02 0
-6.8623514850082685e+00 8.4695496138776125e-02 0
-3.0892094122279232e+00 2.0386914875834194e-01 0
-6.8606817136129443e+00 8.3720299602938891e-02 0
-3.0886585871015368e+00 2.0437533164219837e-01 0
1.0199844154465374e+00 -2.0978838563613503e-02 0
4.4896507885891190e-01 -2.6529345149358324e-02 0
-2.1954284614685491e+01 8.8684199461092261e-01 0
-8.4577145207846947e+00 8.0205459734285500e-01 0
7.6271983180932101e-01 -8.9488908820612362e-02 0
1.4283423039171514e-01 -1.3813094440147951e-02 0
-5.0100702095622287e+00 5.5200445915244745e-01 0
-9.9838435814877213e-01 2.3608774252911677e-01 0
-4.7337317138830626e+00 4.5122314942409501e-02 0
-1.1345848561937859e+00 2.4051354168413400e-01 0
-1.8061032473679888e+00 4.8608435346835472e+00 0
1.3587400737146920e+00 1.2106856732639242e-01 0
-5.1688689234319740e-01 4.7402068397585639e-01 0
-5.9608018589746459e-01 4.9383762663518986e+00 0
8.0158604713311798e-01 3.7107023423602126e+00 0
5.0655276638427305e-01 3.1635763419957210e+00 0
6.9916026498165751e-01 7.1750895792021674e-01 0
2.6507969953306476e-01 -2.3934262822105112e-01 0

VECTORS Forces3 float
-1.9023648061828248e-02 1.6228217699212670e-02 0
-2.9936216849201839e-02 -1.5035478958236361e-02 0
3.3568527608674847e-01 -1.9897158041805185e-01 0
4.4669093900818607e-01 2.5584366412275023e-01 0
3.5552120356119982e-01 -6.5088669184949224e-02 0
4.7292315882581715e-01 8.4343496968599260e-02 0
2.2081243419203672e-01 5.9799146558287839e-03 0
2.9476679865059635e-01 -8.8698593334605048e-03 0
-3.3303619233243986e-02 -1.0047872433148156e-03 0
-4.4536316834432280e-02 1.1735126381290765e-03 0
7.7323317224421217e-01 -2.7080434755372133e-02 0
1.0473742014143825e+00 4.8563737716902554e-02 0
-3.1461588166128152e-02 6.2242572562687870e-04 0
-4.3260777474263878e-02 -2.6350287985004257e-03 0
2.1063750705292306e-01 -5.8971449481940632e-03 0
2.8916132311107906e-01 1.9474109820983666e-02 0
2.1065067459645082e-01 -5.8988695398898292e-03 0
2.8918646833832129e-01 1.9498294574379509e-02 0
-3.1353370854223669e-02 6.5746267409723359e-04 0
-4.3220322756304184e-02 -2.7734384376636168e-03 0
7.3586700263714622e-01 -9.0944825310813361e-03 0
1.0339775930436164e+00 9.1754964569702613e-02 0
-3.1156520856828854e-02 1.7744110720218211e-04 0
-4.5518991497644885e-02 -5.2002657103532744e-03 0
2.0939230058885128e-01 -2.4694371903142176e-03 0
3.0542875724322838e-01 3.6602209709964383e-02 0
2.0939455349915176e-01 -2.4695105267546332e-03 0
3.0545938780019138e-01 3.6623136698321415e-02 0
-3.1168162295246542e-02 1.5128164974924669e-04 0
-4.5723900253119155e-02 -5.3249348609019165e-03 0
7.4476201254909269e-01 -7.3188653428850683e-03 0
1.1450320707197863e+00 1.6912532330178087e-01 0
-3.1894443442017882e-02 -1.4126142178595558e-04 0
-5.2266015837588102e-02 -8.4739833836007215e-03 0
2.1464512586377210e-01 -4.1389392543817756e-04 0
3.5147546233481125e-01 5.8839174031629429e-02 0
2.1464899608988017e-01 -4.1527474054180727e-04 0
3.5153073823729336e-01 5.8863909418576506e-02 0
-3.1950295929812605e-02 -1.9460031954752260e-04 0
-5.2678829768559726e-02 -8.6034370782219812e-03 0
7.6992281783972027e-01 1.1271258943490847e-02 0
1.3579011444182332e+00 2.4338661580799340e-01 0
-3.3210988762968928e-02 -1.3802245756101819e-03 0
-6.3386636597894910e-02 -1.1503827014848896e-02 0
2.2371575983292241e-01 7.8490164676095278e-03 0
4.2680276654783061e-01 7.9398137741241617e-02 0
2.2371930941431298e-01 7.8513098633347898e-03 0
4.2688454523022146e-01 7.9424271076275227e-02 0
-3.3288542249142565e-02 -1.5035413699626052e-03 0
-6.4016866164984199e-02 -1.1612369003924034e-02 0
8.0661045090838879e-01 5.8440420299712935e-02 0
1.6796352260147389e+00 3.1290406329709947e-01 0
-3.4623819108583018e-02 -4.2269298397204580e-03 0
-7.9417571969077089e-02 -1.4247040067264826e-02 0
2.3338819328009075e-01 2.6819888999746352e-02 0
5.3509758841523192e-01 9.8202798260570601e-02 0
2.3339357998492455e-01 2.6819839407198280e-02 0
5.3521154851522112e-01 9.8236490119964853e-02 0
-3.4743274367365164e-02 -4.4176989566373660e-03 0
-8.0329787517545131e-02 -1.4346912351591126e-02 0
8.4180958896003522e-01 1.2592298535074747e-01 0
2.1316285068253622e+00 3.8708375081932000e-01 0
-3.7404036548462340e-02 -7.4316149846343034e-03 0
-1.0233388450915636e-01 -1.7638825048359459e-02 0
2.5248020409048838e-01 4.7611807884688911e-02 0
6.8973847792749798e-01 1.2180885794820095e-01 0
2.5247989096878409e-01 4.7613072959620001e-02 0
6.8989218010474507e-01 1.2184972074019360e-01 0
-3.7556119802905824e-02 -7.8445289556308972e-03 0
-1.0367966682747069e-01 -1.7671128803759921e-02 0
9.3878204256064723e-01 2.8521944698383184e-01 0
2.7944228615875191e+00 4.4700889853046227e-01 0
-3.9333951753333339e-02 -1.7369792541830808e-02 0
-1.3558964808303864e-01 -1.8878274419600757e-02 0
2.6524060760138679e-01 1.1341956568960811e-01 0
9.1341790631177799e-01 1.3121488722043143e-01 0
2.6522988257933861e-01 1.1330584264682585e-01 0
9.1357647836397726e-01 1.3129877154586642e-01 0
-4.0129827669825445e-02 -1.7927872637715083e-02 0
-1.3803844367996579e-01 -1.8998027200282399e-02 0
1.0061617745197580e+00 3.2451423644787342e-01 0
3.7676401553138086e+00 5.7845754344456557e-01 0
-6.0926809836634635e-02 -1.5082037956417913e-02 0
-1.9333973286462397e-01 -2.8581685380041588e-02 0
4.0797606287635618e-01 8.7467285928999883e-02 0
1.2961629094833924e+00 1.9933659840214538e-01 0
4.0782170385659322e-01 8.7012402209392797e-02 0
1.2960949704316966e+00 1.9952180060758595e-01 0
-6.2757497221597638e-02 -1.9012787338317912e-02 0
-1.9877908562124472e-01 -2.7403490090111917e-02 0
1.9361038018857724e+00 1.1330772214113098e+00 0
5.6603546520697403e+00 5.7728423381560701e-01 0
-9.0941624714112004e-02 -1.0179946484517972e-01 0
-3.0769873171317386e-01 -3.2287018107946346e-03 0
6.9999514548008723e-01 6.7077082443414071e-01 0
2.1309140173487280e+00 1.0603982339892756e-01 0
3.4595355587445042e-01 3.4262423272373321e-01 0
1.6790627575834709e+00 6.7602284023716305e-02 0
3.4628877148088981e+00 3.0831108488099890e+00 0
4.1274887299432796e+00 5.0661313525782170e-01 0
2.3432033430825661e-01 3.4549272233900269e-01 0
2.4324612515724477e+00 2.4852734794530238e+00 0
1.4078146386223256e+00 2.1692746787036410e+00 0
1.2142115498601269e+00 2.2705741236721173e+00 0
2.3871787011361603e+00 1.2668997011890701e+00 0
4.5183203670397715e-01 -1.4546962476448236e-01 0

