# vtk DataFile Version 2.0

ASCII

DATASET UNSTRUCTURED_GRID

POINTS 106 float 

-5.0000000000000003e-02  0.0000000000000000e+00  0.0000000000000000e+00
5.0000000000000003e-02  0.0000000000000000e+00  0.0000000000000000e+00
-5.0000000000000003e-02  2.0000000000000000e-02  0.0000000000000000e+00
5.0000000000000003e-02  2.0000000000000000e-02  0.0000000000000000e+00
-5.0000000000000003e-02  4.0000000000000001e-02  0.0000000000000000e+00
5.0000000000000003e-02  4.0000000000000001e-02  0.0000000000000000e+00
-5.0000000000000003e-02  5.9999999999999998e-02  0.0000000000000000e+00
5.0000000000000003e-02  5.9999999999999998e-02  0.0000000000000000e+00
-5.0000000000000003e-02  8.0000000000000002e-02  0.0000000000000000e+00
5.0000000000000003e-02  8.0000000000000002e-02  0.0000000000000000e+00
-5.0000000000000003e-02  1.0000000000000001e-01  0.0000000000000000e+00
5.0000000000000003e-02  1.0000000000000001e-01  0.0000000000000000e+00
-5.0000000000000003e-02  1.2000000000000000e-01  0.0000000000000000e+00
5.0000000000000003e-02  1.2000000000000000e-01  0.0000000000000000e+00
-5.0000000000000003e-02  1.4000000000000001e-01  0.0000000000000000e+00
5.0000000000000003e-02  1.4000000000000001e-01  0.0000000000000000e+00
-5.0000000000000003e-02  1.6000000000000000e-01  0.0000000000000000e+00
5.0000000000000003e-02  1.6000000000000000e-01  0.0000000000000000e+00
-5.0000000000000003e-02  1.7999999999999999e-01  0.0000000000000000e+00
5.0000000000000003e-02  1.7999999999999999e-01  0.0000000000000000e+00
-5.0000000000000003e-02  2.0000000000000001e-01  0.0000000000000000e+00
5.0000000000000003e-02  2.0000000000000001e-01  0.0000000000000000e+00
-5.0000000000000003e-02  2.2000000000000000e-01  0.0000000000000000e+00
5.0000000000000003e-02  2.2000000000000000e-01  0.0000000000000000e+00
-5.0000000000000003e-02  2.3999999999999999e-01  0.0000000000000000e+00
5.0000000000000003e-02  2.3999999999999999e-01  0.0000000000000000e+00
-5.0000000000000003e-02  2.6000000000000001e-01  0.0000000000000000e+00
5.0000000000000003e-02  2.6000000000000001e-01  0.0000000000000000e+00
-5.0000000000000003e-02  2.8000000000000003e-01  0.0000000000000000e+00
5.0000000000000003e-02  2.8000000000000003e-01  0.0000000000000000e+00
-5.0000000000000003e-02  2.9999999999999999e-01  0.0000000000000000e+00
5.0000000000000003e-02  2.9999999999999999e-01  0.0000000000000000e+00
-5.0000000000000003e-02  3.2000000000000001e-01  0.0000000000000000e+00
5.0000000000000003e-02  3.2000000000000001e-01  0.0000000000000000e+00
-5.0000000000000003e-02  3.4000000000000002e-01  0.0000000000000000e+00
5.0000000000000003e-02  3.4000000000000002e-01  0.0000000000000000e+00
-5.0000000000000003e-02  3.5999999999999999e-01  0.0000000000000000e+00
5.0000000000000003e-02  3.5999999999999999e-01  0.0000000000000000e+00
-5.0000000000000003e-02  3.8000000000000000e-01  0.0000000000000000e+00
5.0000000000000003e-02  3.8000000000000000e-01  0.0000000000000000e+00
-5.0000000000000003e-02  4.0000000000000002e-01  0.0000000000000000e+00
5.0000000000000003e-02  4.0000000000000002e-01  0.0000000000000000e+00
-5.0000000000000003e-02  4.1999999999999998e-01  0.0000000000000000e+00
5.0000000000000003e-02  4.1999999999999998e-01  0.0000000000000000e+00
-5.0000000000000003e-02  4.4000000000000000e-01  0.0000000000000000e+00
5.0000000000000003e-02  4.4000000000000000e-01  0.0000000000000000e+00
-5.0000000000000003e-02  4.6000000000000002e-01  0.0000000000000000e+00
5.0000000000000003e-02  4.6000000000000002e-01  0.0000000000000000e+00
-5.0000000000000003e-02  4.7999999999999998e-01  0.0000000000000000e+00
5.0000000000000003e-02  4.7999999999999998e-01  0.0000000000000000e+00
-5.0000000000000003e-02  5.0000000000000000e-01  0.0000000000000000e+00
5.0000000000000003e-02  5.0000000000000000e-01  0.0000000000000000e+00
-5.0000000000000003e-02  5.2000000000000002e-01  0.0000000000000000e+00
5.0000000000000003e-02  5.2000000000000002e-01  0.0000000000000000e+00
-5.0000000000000003e-02  5.4000000000000004e-01  0.0000000000000000e+00
5.0000000000000003e-02  5.4000000000000004e-01  0.0000000000000000e+00
-5.0000000000000003e-02  5.6000000000000005e-01  0.0000000000000000e+00
5.0000000000000003e-02  5.6000000000000005e-01  0.0000000000000000e+00
-5.0000000000000003e-02  5.7999999999999996e-01  0.0000000000000000e+00
5.0000000000000003e-02  5.7999999999999996e-01  0.0000000000000000e+00
-5.0000000000000003e-02  5.9999999999999998e-01  0.0000000000000000e+00
5.0000000000000003e-02  5.9999999999999998e-01  0.0000000000000000e+00
-5.0000000000000003e-02  6.2000000000000000e-01  0.0000000000000000e+00
5.0000000000000003e-02  6.2000000000000000e-01  0.0000000000000000e+00
-5.0000000000000003e-02  6.4000000000000001e-01  0.0000000000000000e+00
5.0000000000000003e-02  6.4000000000000001e-01  0.0000000000000000e+00
-5.0000000000000003e-02  6.6000000000000003e-01  0.0000000000000000e+00
5.0000000000000003e-02  6.6000000000000003e-01  0.0000000000000000e+00
-5.0000000000000003e-02  6.8000000000000005e-01  0.0000000000000000e+00
5.0000000000000003e-02  6.8000000000000005e-01  0.0000000000000000e+00
-5.0000000000000003e-02  6.9999999999999996e-01  0.0000000000000000e+00
5.0000000000000003e-02  6.9999999999999996e-01  0.0000000000000000e+00
-5.0000000000000003e-02  7.1999999999999997e-01  0.0000000000000000e+00
5.0000000000000003e-02  7.1999999999999997e-01  0.0000000000000000e+00
-5.0000000000000003e-02  7.3999999999999999e-01  0.0000000000000000e+00
5.0000000000000003e-02  7.3999999999999999e-01  0.0000000000000000e+00
-5.0000000000000003e-02  7.6000000000000001e-01  0.0000000000000000e+00
5.0000000000000003e-02  7.6000000000000001e-01  0.0000000000000000e+00
-5.0000000000000003e-02  7.8000000000000003e-01  0.0000000000000000e+00
5.0000000000000003e-02  7.8000000000000003e-01  0.0000000000000000e+00
-5.0000000000000003e-02  8.0000000000000004e-01  0.0000000000000000e+00
5.0000000000000003e-02  8.0000000000000004e-01  0.0000000000000000e+00
-5.0000000000000003e-02  8.1999999999999995e-01  0.0000000000000000e+00
5.0000000000000003e-02  8.1999999999999995e-01  0.0000000000000000e+00
-5.0000000000000003e-02  8.3999999999999997e-01  0.0000000000000000e+00
5.0000000000000003e-02  8.3999999999999997e-01  0.0000000000000000e+00
-5.0000000000000003e-02  8.5999999999999999e-01  0.0000000000000000e+00
5.0000000000000003e-02  8.5999999999999999e-01  0.0000000000000000e+00
-5.0000000000000003e-02  8.8000000000000000e-01  0.0000000000000000e+00
5.0000000000000003e-02  8.8000000000000000e-01  0.0000000000000000e+00
-5.0000000000000003e-02  9.0000000000000002e-01  0.0000000000000000e+00
5.0000000000000003e-02  9.0000000000000002e-01  0.0000000000000000e+00
-5.0000000000000003e-02  9.2000000000000004e-01  0.0000000000000000e+00
5.0000000000000003e-02  9.2000000000000004e-01  0.0000000000000000e+00
-5.0000000000000003e-02  9.3999999999999995e-01  0.0000000000000000e+00
5.0000000000000003e-02  9.3999999999999995e-01  0.0000000000000000e+00
-5.0000000000000003e-02  9.5999999999999996e-01  0.0000000000000000e+00
5.0000000000000003e-02  9.5999999999999996e-01  0.0000000000000000e+00
-5.0000000000000003e-02  9.7999999999999998e-01  0.0000000000000000e+00
5.0000000000000003e-02  9.7999999999999998e-01  0.0000000000000000e+00
-5.0000000000000003e-02  1.0000000000000000e+00  0.0000000000000000e+00
-3.0000000000000002e-02  1.0000000000000000e+00  0.0000000000000000e+00
-1.0000000000000002e-02  1.0000000000000000e+00  0.0000000000000000e+00
1.0000000000000009e-02  1.0000000000000000e+00  0.0000000000000000e+00
2.9999999999999999e-02  1.0000000000000000e+00  0.0000000000000000e+00
5.0000000000000003e-02  1.0000000000000000e+00  0.0000000000000000e+00

CELLS 0 0


CELL_TYPES 0


POINT_DATA 106

VECTORS VertexNormals float

0.0000000000000000e+00 0.0000000000000000e+00 0
0.0000000000000000e+00 0.0000000000000000e+00 0
0.0000000000000000e+00 0.0000000000000000e+00 0
0.0000000000000000e+00 0.0000000000000000e+00 0
0.0000000000000000e+00 0.0000000000000000e+00 0
0.0000000000000000e+00 0.0000000000000000e+00 0
0.0000000000000000e+00 0.0000000000000000e+00 0
0.0000000000000000e+00 0.0000000000000000e+00 0
0.0000000000000000e+00 0.0000000000000000e+00 0
0.0000000000000000e+00 0.0000000000000000e+00 0
0.0000000000000000e+00 0.0000000000000000e+00 0
0.0000000000000000e+00 0.0000000000000000e+00 0
0.0000000000000000e+00 0.0000000000000000e+00 0
0.0000000000000000e+00 0.0000000000000000e+00 0
0.0000000000000000e+00 0.0000000000000000e+00 0
0.0000000000000000e+00 0.0000000000000000e+00 0
0.0000000000000000e+00 0.0000000000000000e+00 0
0.0000000000000000e+00 0.0000000000000000e+00 0
0.0000000000000000e+00 0.0000000000000000e+00 0
0.0000000000000000e+00 0.0000000000000000e+00 0
0.0000000000000000e+00 0.0000000000000000e+00 0
0.0000000000000000e+00 0.0000000000000000e+00 0
0.0000000000000000e+00 0.0000000000000000e+00 0
0.0000000000000000e+00 0.0000000000000000e+00 0
0.0000000000000000e+00 0.0000000000000000e+00 0
0.0000000000000000e+00 0.0000000000000000e+00 0
0.0000000000000000e+00 0.0000000000000000e+00 0
0.0000000000000000e+00 0.0000000000000000e+00 0
0.0000000000000000e+00 0.0000000000000000e+00 0
0.0000000000000000e+00 0.0000000000000000e+00 0
0.0000000000000000e+00 0.0000000000000000e+00 0
0.0000000000000000e+00 0.0000000000000000e+00 0
0.0000000000000000e+00 0.0000000000000000e+00 0
0.0000000000000000e+00 0.0000000000000000e+00 0
0.0000000000000000e+00 0.0000000000000000e+00 0
0.0000000000000000e+00 0.0000000000000000e+00 0
0.0000000000000000e+00 0.0000000000000000e+00 0
0.0000000000000000e+00 0.0000000000000000e+00 0
0.0000000000000000e+00 0.0000000000000000e+00 0
0.0000000000000000e+00 0.0000000000000000e+00 0
0.0000000000000000e+00 0.0000000000000000e+00 0
0.0000000000000000e+00 0.0000000000000000e+00 0
0.0000000000000000e+00 0.0000000000000000e+00 0
0.0000000000000000e+00 0.0000000000000000e+00 0
0.0000000000000000e+00 0.0000000000000000e+00 0
0.0000000000000000e+00 0.0000000000000000e+00 0
0.0000000000000000e+00 0.0000000000000000e+00 0
0.0000000000000000e+00 0.0000000000000000e+00 0
0.0000000000000000e+00 0.0000000000000000e+00 0
0.0000000000000000e+00 0.0000000000000000e+00 0
0.0000000000000000e+00 0.0000000000000000e+00 0
0.0000000000000000e+00 0.0000000000000000e+00 0
0.0000000000000000e+00 0.0000000000000000e+00 0
0.0000000000000000e+00 0.0000000000000000e+00 0
0.0000000000000000e+00 0.0000000000000000e+00 0
0.0000000000000000e+00 0.0000000000000000e+00 0
0.0000000000000000e+00 0.0000000000000000e+00 0
0.0000000000000000e+00 0.0000000000000000e+00 0
0.0000000000000000e+00 0.0000000000000000e+00 0
0.0000000000000000e+00 0.0000000000000000e+00 0
0.0000000000000000e+00 0.0000000000000000e+00 0
0.0000000000000000e+00 0.0000000000000000e+00 0
0.0000000000000000e+00 0.0000000000000000e+00 0
0.0000000000000000e+00 0.0000000000000000e+00 0
0.0000000000000000e+00 0.0000000000000000e+00 0
0.0000000000000000e+00 0.0000000000000000e+00 0
0.0000000000000000e+00 0.0000000000000000e+00 0
0.0000000000000000e+00 0.0000000000000000e+00 0
0.0000000000000000e+00 0.0000000000000000e+00 0
0.0000000000000000e+00 0.0000000000000000e+00 0
0.0000000000000000e+00 0.0000000000000000e+00 0
0.0000000000000000e+00 0.0000000000000000e+00 0
0.0000000000000000e+00 0.0000000000000000e+00 0
0.0000000000000000e+00 0.0000000000000000e+00 0
0.0000000000000000e+00 0.0000000000000000e+00 0
0.0000000000000000e+00 0.0000000000000000e+00 0
0.0000000000000000e+00 0.0000000000000000e+00 0
0.0000000000000000e+00 0.0000000000000000e+00 0
0.0000000000000000e+00 0.0000000000000000e+00 0
0.0000000000000000e+00 0.0000000000000000e+00 0
0.0000000000000000e+00 0.0000000000000000e+00 0
0.0000000000000000e+00 0.0000000000000000e+00 0
0.0000000000000000e+00 0.0000000000000000e+00 0
0.0000000000000000e+00 0.0000000000000000e+00 0
0.0000000000000000e+00 0.0000000000000000e+00 0
0.0000000000000000e+00 0.0000000000000000e+00 0
0.0000000000000000e+00 0.0000000000000000e+00 0
0.0000000000000000e+00 0.0000000000000000e+00 0
0.0000000000000000e+00 0.0000000000000000e+00 0
0.0000000000000000e+00 0.0000000000000000e+00 0
0.0000000000000000e+00 0.0000000000000000e+00 0
0.0000000000000000e+00 0.0000000000000000e+00 0
0.0000000000000000e+00 0.0000000000000000e+00 0
0.0000000000000000e+00 0.0000000000000000e+00 0
0.0000000000000000e+00 0.0000000000000000e+00 0
0.0000000000000000e+00 0.0000000000000000e+00 0
0.0000000000000000e+00 0.0000000000000000e+00 0
0.0000000000000000e+00 0.0000000000000000e+00 0
0.0000000000000000e+00 0.0000000000000000e+00 0
0.0000000000000000e+00 0.0000000000000000e+00 0
0.0000000000000000e+00 0.0000000000000000e+00 0
0.0000000000000000e+00 0.0000000000000000e+00 0
0.0000000000000000e+00 0.0000000000000000e+00 0
0.0000000000000000e+00 0.0000000000000000e+00 0
0.0000000000000000e+00 0.0000000000000000e+00 0
0.0000000000000000e+00 0.0000000000000000e+00 0

VECTORS Displacements1 float
-5.4498423170578736e-17 3.0446717172528874e-17 0
-9.4903394407688813e-23 1.9158764572667097e-23 0
1.2613015197927161e-06 3.2997081176434407e-07 0
1.2251484397467313e-06 -2.8929593657838973e-07 0
2.0269318422380604e-06 4.3594868277289651e-07 0
1.9476553517615935e-06 -3.7912393559508718e-07 0
2.3193007227714211e-06 3.7449546137198788e-07 0
2.2423400459135771e-06 -3.1812584298783831e-07 0
2.3187503674397547e-06 2.6170320202718752e-07 0
2.2741481233300093e-06 -2.2699342722521932e-07 0
3.4953389690285145e-06 1.3372194738499315e-07 0
3.2824404875474663e-06 4.4339095673188936e-08 0
2.3453581347248281e-06 -7.2922926138095507e-08 0
2.3015067834261025e-06 1.0343754016738390e-07 0
2.5757699808547739e-06 2.0491999584505258e-08 0
2.4982370714503471e-06 8.1762931780963097e-08 0
2.5904374505264034e-06 2.5315399522580117e-08 0
2.5114921501548140e-06 8.9888165351137740e-08 0
2.3661722742147588e-06 8.1353564520104589e-08 0
2.3251252924676920e-06 1.0399011173150524e-08 0
3.5046782290523646e-06 8.9245479014879212e-08 0
3.3060472654734114e-06 1.7061358269232051e-07 0
2.3817099477216587e-06 -4.9778087432296978e-08 0
2.3337899819624911e-06 1.4590809520477351e-07 0
2.6305765967637735e-06 5.6802102165577558e-08 0
2.5626653994443700e-06 1.1691349792656829e-07 0
2.6433080884885638e-06 5.7881660593100244e-08 0
2.5710005037139516e-06 1.3086991747556826e-07 0
2.4135860312238669e-06 1.1382128183436017e-07 0
2.3753854187865734e-06 4.6911835195519855e-08 0
3.5599591386745571e-06 1.2257378227212715e-07 0
3.4059761236062867e-06 2.3872387440602888e-07 0
2.4390136028295581e-06 -1.9132237374012002e-08 0
2.3906030779045648e-06 1.9366897147093540e-07 0
2.6946681093853170e-06 8.9447368155232742e-08 0
2.6443104904470868e-06 1.6853901881083860e-07 0
2.7162363563273796e-06 9.2187328171624547e-08 0
2.6608093543146395e-06 1.8523005572310902e-07 0
2.4937079033926581e-06 1.5009562070975053e-07 0
2.4621409020040188e-06 9.2321232142561685e-08 0
3.6508106292748429e-06 1.6812937756617353e-07 0
3.5759286881063584e-06 3.1537078390316241e-07 0
2.5337290507835263e-06 2.2949229057123719e-08 0
2.4870535616106806e-06 2.4797593212564372e-07 0
2.7966482254086705e-06 1.3865441112837364e-07 0
2.7743357170175778e-06 2.2246179095683680e-07 0
2.8274762189464945e-06 1.4657925653165247e-07 0
2.7993286386058796e-06 2.4016818079047584e-07 0
2.6125439796437446e-06 2.0837698230592657e-07 0
2.5910121177114476e-06 1.3436077240492242e-07 0
3.7835507416729978e-06 2.4589248335665290e-07 0
3.8266278035762527e-06 3.9163733508839286e-07 0
2.6717114060168338e-06 8.9932712204699835e-08 0
2.6288546626216472e-06 3.0314962747432514e-07 0
2.9415385773377410e-06 2.1714269661988863e-07 0
2.9605799506587960e-06 2.7529031408862622e-07 0
2.9841758885818104e-06 2.3257335774696111e-07 0
2.9960075765865243e-06 2.9473735259117890e-07 0
2.7791529077079209e-06 2.9795225244267631e-07 0
2.7714752106929459e-06 1.7302877107273135e-07 0
3.9625910068697357e-06 3.6552821819000454e-07 0
4.1753642087281651e-06 4.7050827138438098e-07 0
2.8660692409932946e-06 1.9872675999609683e-07 0
2.8279760487818938e-06 3.5711692615820487e-07 0
3.1535238291638436e-06 3.4322163175520289e-07 0
3.2262988600304081e-06 3.2467563677585176e-07 0
3.2176816384985354e-06 3.7328463250584150e-07 0
3.2812878136055180e-06 3.4506160139259853e-07 0
3.0310193326751785e-06 4.5434204381156294e-07 0
3.0399280569676695e-06 1.9797990628397910e-07 0
4.2665120850949188e-06 5.8877468966007251e-07 0
4.7000940436136692e-06 5.3943900224574734e-07 0
3.1747431463127981e-06 3.8336575272433691e-07 0
3.1401191595819501e-06 4.0648588304727124e-07 0
3.4849678959819469e-06 5.7623875936993039e-07 0
3.6328811912820277e-06 3.6329163862908722e-07 0
3.5966782823600119e-06 6.5774786675651367e-07 0
3.7165408260977404e-06 3.8942270102057380e-07 0
3.4647349223147455e-06 8.1340609667593886e-07 0
3.4459780464981315e-06 2.1953607209466190e-07 0
4.7764837862343369e-06 1.1501214967013929e-06 0
5.4575925467080940e-06 6.2768090133877973e-07 0
3.8009220148389395e-06 1.1986721426065614e-06 0
3.5893634268515908e-06 4.1440220686609591e-07 0
4.3117288988928119e-06 1.8052423618212941e-06 0
4.2468434157284655e-06 2.8637124553690285e-07 0
4.5255987506853253e-06 2.4953211130441468e-06 0
4.3458470802185536e-06 1.1323890788333222e-07 0
4.4617679610027998e-06 3.6338813135386320e-06 0
4.0077652908428512e-06 -6.0101315361795734e-07 0
6.5333299389157559e-06 5.6123898062468308e-06 0
7.0606884518738735e-06 -1.0139288261972425e-06 0
6.1449410371893770e-06 7.0656382123426027e-06 0
5.4225198027058120e-06 -2.4693681305295140e-06 0
8.7517098449232686e-06 9.8682030842190186e-06 0
8.4688591464830648e-06 -4.1535972554171140e-06 0
1.2232903514154656e-05 1.2423029839079495e-05 0
1.1871011815822902e-05 -5.6739062741020680e-06 0
1.8551317302905829e-05 1.5215741200404512e-05 0
1.7528182253712927e-05 -6.5495385505981908e-06 0
2.2890703513450989e-05 1.5317023724296442e-05 0
2.2893994626062870e-05 1.0496385008967703e-05 0
2.1559051152432589e-05 5.8801052777671148e-06 0
2.1032165490776849e-05 2.1569700638762380e-06 0
2.1587697231155205e-05 -2.2204868909521716e-06 0
2.1186176184980803e-05 -7.2497112887892997e-06 0

VECTORS Displacements2 float
-5.4552360965663851e-17 3.0476941124402275e-17 0
-9.5772964162222081e-23 1.9784684290393250e-23 0
1.2729488881054730e-06 3.3873896541565387e-07 0
1.2365040346267018e-06 -2.9812862496150571e-07 0
2.0496799874609866e-06 4.4778446705969953e-07 0
1.9699229645284116e-06 -3.9085445808228402e-07 0
2.3506370718652462e-06 3.8614864545354560e-07 0
2.2734880118086252e-06 -3.2965051174593220e-07 0
2.3566129170980248e-06 2.7166176600528912e-07 0
2.3120417293550213e-06 -2.3657765696097149e-07 0
3.5391406444575280e-06 1.4031195622689013e-07 0
3.3248898796818894e-06 3.8477609814825631e-08 0
2.3887967928288769e-06 -6.9193822642810346e-08 0
2.3449698692285336e-06 1.0043722523333751e-07 0
2.6205036528817374e-06 2.2557758981627215e-08 0
2.5423259322839858e-06 8.0707348334633615e-08 0
2.6347789560076640e-06 2.5259586190288039e-08 0
2.5552148745113721e-06 9.0982648418246852e-08 0
2.4087316177376735e-06 8.1711892786514061e-08 0
2.3676320045762366e-06 1.1480454818465702e-08 0
3.5489430954982635e-06 9.0337612459394599e-08 0
3.3488191742935642e-06 1.7138320056593811e-07 0
2.4250090290497010e-06 -4.7894353821521395e-08 0
2.3770787411003416e-06 1.4594630880582875e-07 0
2.6765134943234964e-06 5.9020094633522926e-08 0
2.6078014291150849e-06 1.1698742286694626e-07 0
2.6893598643545169e-06 5.8528212733391415e-08 0
2.6163807739216041e-06 1.3265022958674165e-07 0
2.4575078821154906e-06 1.1501761996046998e-07 0
2.4189823533538432e-06 4.8500021891668402e-08 0
3.6054364249243825e-06 1.2487107043808342e-07 0
3.4497343548949857e-06 2.3978001362678573e-07 0
2.4835088562603652e-06 -1.6102352119593221e-08 0
2.4348771009266190e-06 1.9397990298820593e-07 0
2.7420001903042900e-06 9.2864485672631460e-08 0
2.6906792114569878e-06 1.6890999873984999e-07 0
2.7637726216167126e-06 9.4032528596708706e-08 0
2.7072930283569223e-06 1.8742098959525808e-07 0
2.5391897062852294e-06 1.5240305119318163e-07 0
2.5069626437272981e-06 9.4412701992376337e-08 0
3.6980251287992113e-06 1.7166369662513112e-07 0
3.6210730439379464e-06 3.1695536695946431e-07 0
2.5801238790834302e-06 2.7230306550788863e-08 0
2.5329226581634335e-06 2.4875827132703030e-07 0
2.8461284550755585e-06 1.4335898761557713e-07 0
2.8225260815567566e-06 2.2337960116107315e-07 0
2.8773445774585059e-06 1.4972038070282368e-07 0
2.8476621055191744e-06 2.4302826618946744e-07 0
2.6603901765197414e-06 2.1204572284304222e-07 0
2.6377358974571702e-06 1.3708822364216821e-07 0
3.8333500456371979e-06 2.5095674220848541e-07 0
3.8738349860070352e-06 3.9388349330012870e-07 0
2.7208657242741048e-06 9.5828057164612632e-08 0
2.6770250804353994e-06 3.0450211085138859e-07 0
2.9941119249101520e-06 2.2354462754479278e-07 0
3.0113748671122031e-06 2.7686136016529362e-07 0
3.0373635703971370e-06 2.3747649069582717e-07 0
3.0469647101608891e-06 2.9840534031554256e-07 0
2.8303410032702429e-06 3.0351768781598451e-07 0
2.8208476223151631e-06 1.7650190591656445e-07 0
4.0160080224710382e-06 3.7276051797293982e-07 0
4.2254378793617382e-06 4.7351566640820627e-07 0
2.9191424841340426e-06 2.0692918596102264e-07 0
2.8793814848575697e-06 3.5908495899616871e-07 0
3.2105410743263094e-06 3.5203150100811659e-07 0
3.2808160456954920e-06 3.2697663947969145e-07 0
3.2757822622659513e-06 3.8075321760000266e-07 0
3.3361719252234592e-06 3.4961841751791497e-07 0
3.0872846016996628e-06 4.6276768697455845e-07 0
3.0933724921855388e-06 2.0225500679072260e-07 0
4.3255782946253559e-06 5.9949672808718460e-07 0
4.7547807974489303e-06 5.4318603824535337e-07 0
3.2339398932528616e-06 3.9556597811258805e-07 0
3.1966387405311650e-06 4.0903551338133782e-07 0
3.5496883663029786e-06 5.9066816503034214e-07 0
3.6931659832623223e-06 3.6634070884385182e-07 0
3.6633080850000527e-06 6.7340785605041222e-07 0
3.7766667485325561e-06 3.9530634824541911e-07 0
3.5310646288884071e-06 8.3445163604989195e-07 0
3.5042725904179739e-06 2.2536137015096726e-07 0
4.8467568443789529e-06 1.1795508178055839e-06 0
5.5173025631843429e-06 6.3242031912384256e-07 0
3.8739319322211202e-06 1.2369449567328446e-06 0
3.6501294228026923e-06 4.1733799694779020e-07 0
4.3889740623195770e-06 1.8539682320207649e-06 0
4.3104839951622586e-06 2.8708542366495584e-07 0
4.6010579259218544e-06 2.5570346411017998e-06 0
4.4056094378246205e-06 1.0996491580057387e-07 0
4.5372953988819843e-06 3.7181485949074280e-06 0
4.0663711031145947e-06 -6.2024269216090489e-07 0
6.6261508044221375e-06 5.7268906582974771e-06 0
7.1362860979289102e-06 -1.0561528197202469e-06 0
6.2702541717725184e-06 7.2056417129067325e-06 0
5.5345543847425964e-06 -2.5337811384864139e-06 0
8.9262307716241363e-06 1.0024990061887809e-05 0
8.6334140127584094e-06 -4.2312326899823894e-06 0
1.2455732371235236e-05 1.2584783000320801e-05 0
1.2090312655481415e-05 -5.7539829050398915e-06 0
1.8821114997361424e-05 1.5379517022427481e-05 0
1.7797567895425817e-05 -6.6304817206302519e-06 0
2.3203813091760450e-05 1.5480734799831022e-05 0
2.3207482861869449e-05 1.0617536117770199e-05 0
2.1874525034327999e-05 5.9550450179737269e-06 0
2.1351436977294812e-05 2.1811486413045972e-06 0
2.1909580691303581e-05 -2.2504686765624148e-06 0
2.1508866418487111e-05 -7.3326731713015034e-06 0

VECTORS Forces1 float
-7.5806010940759827e-01 4.4554067104832129e-01 0
-4.6209778985996225e-01 -2.7815638094935935e-01 0
9.8070468317116912e+00 -5.4238850819628297e+00 0
6.1329636214995382e+00 3.3898084695493855e+00 0
1.0748174970334167e+01 -1.6640740291410634e+00 0
6.7541132459942839e+00 1.0428078120656539e+00 0
6.8514679142187003e+00 2.7747520698388994e-01 0
4.3115901933246752e+00 -1.7048383799692179e-01 0
-1.0325645057116255e+00 -3.6833910383498744e-02 0
-6.5084505057971365e-01 2.2973370358589922e-02 0
2.6416633229521423e+01 1.0130365695140616e-02 0
1.6705936109249571e+01 1.8353693705742975e-02 0
-1.1222701698421909e+00 -1.2423713650353419e-03 0
-7.1259159393223059e-01 -1.2199362782797821e-03 0
7.5402939882625821e+00 1.6961096211688005e-03 0
4.7851063477839109e+00 1.4375999169457447e-02 0
7.5408748560553498e+00 1.5307857214571820e-03 0
4.7855822907494305e+00 1.4453721119065144e-02 0
-1.1235950898874731e+00 -5.0703847548153567e-04 0
-7.1334199105469798e-01 -1.9410233147108408e-03 0
2.6603062235769016e+01 -2.5547714861884475e-03 0
1.6909665270978156e+01 9.6289533141699829e-02 0
-1.1246913044236859e+00 -4.5988544023988967e-04 0
-7.1688398375581852e-01 -5.1376960095816191e-03 0
7.5491399079275885e+00 1.3230132325482158e-03 0
4.8110948908780520e+00 3.6783943492557855e-02 0
7.5491301611357029e+00 1.3285899952171663e-03 0
4.8111202476342525e+00 3.6799155209817261e-02 0
-1.1245624665363845e+00 -4.8794145048331941e-04 0
-7.1692497520965415e-01 -5.2784069143907006e-03 0
2.6545400462330978e+01 2.2106173242334482e-02 0
1.6952886310826141e+01 1.5702707955824613e-01 0
-1.1187294334231948e+00 -1.8554155655843094e-03 0
-7.1683268365600450e-01 -7.6438970663860661e-03 0
7.5082019229986967e+00 1.0978672309533087e-02 0
4.8105951453608258e+00 5.3451374725570773e-02 0
7.5081470335754172e+00 1.0985608455446152e-02 0
4.8106029063049052e+00 5.3468759242519384e-02 0
-1.1182910973480915e+00 -1.9452253465862385e-03 0
-7.1671359589622385e-01 -7.7555933565645902e-03 0
2.6317895727727851e+01 5.9825634908064605e-02 0
1.6911687735982813e+01 2.2015715358330745e-01 0
-1.1061391664100593e+00 -3.8806970525491953e-03 0
-7.1392055724941983e-01 -1.0261979903902976e-02 0
7.4226991762625234e+00 2.4543157435898532e-02 0
4.7910121326637052e+00 7.1202975149629089e-02 0
7.4225991843547341e+00 2.4552778083890923e-02 0
4.7910096248818093e+00 7.1223789732064349e-02 0
-1.1053909719710535e+00 -4.0420854871541304e-03 0
-7.1366547775097322e-01 -1.0356137226291572e-02 0
2.5939919350005678e+01 1.3021524160675291e-01 0
1.6817976754853127e+01 2.7670802199223488e-01 0
-1.0863019264656675e+00 -7.8021619721414803e-03 0
-7.0860332259372738e-01 -1.2485727633216695e-02 0
7.2882667686140712e+00 5.0821089702435582e-02 0
4.7554141202637563e+00 8.6439229471339279e-02 0
7.2881176609364759e+00 5.0830529672469142e-02 0
4.7554077591527086e+00 8.6466440016390617e-02 0
-1.0852607457770560e+00 -8.0473343200503748e-03 0
-7.0824849200368822e-01 -1.2559247652245292e-02 0
2.5371631600644047e+01 2.2582659123381429e-01 0
1.6666753014151222e+01 3.3788513711450313e-01 0
-1.0600055865124252e+00 -1.2492683557340329e-02 0
-7.0213301635173697e-01 -1.4993988603365762e-02 0
7.1101787180450913e+00 8.1693688239220755e-02 0
4.7123534763223880e+00 1.0401349741763552e-01 0
7.1099379524072157e+00 8.1714078414885968e-02 0
4.7123277224982623e+00 1.0404716523252286e-01 0
-1.0585734542543583e+00 -1.3021384214513926e-02 0
-7.0162223687918079e-01 -1.4996214988963211e-02 0
2.4649346356463795e+01 4.4486822910152191e-01 0
1.6491864645464684e+01 3.6460174394579331e-01 0
-1.0196921626309376e+00 -2.6274299607162682e-02 0
-6.9017127864851324e-01 -1.5520214118118740e-02 0
6.8346998268874675e+00 1.7378629688877573e-01 0
4.6308934010418561e+00 1.0867792829108074e-01 0
6.8342476681325763e+00 1.7374059639458589e-01 0
4.6307943853360429e+00 1.0874819079079183e-01 0
-1.0191999226891941e+00 -2.7195162055341570e-02 0
-6.9074114301731215e-01 -1.5522644376194382e-02 0
2.3606336740647457e+01 6.3013207497579315e-01 0
1.6290613612071038e+01 5.1077812487129781e-01 0
-1.0029879313712233e+00 -3.7528505342923776e-02 0
-7.1004435326384296e-01 -2.1075827077348491e-02 0
6.7052201361736330e+00 2.4122311879911090e-01 0
4.7555945710161431e+00 1.4919845320467945e-01 0
6.7034013080477060e+00 2.4104223550125919e-01 0
4.7549838996200657e+00 1.4928933631892058e-01 0
-1.0032795407920245e+00 -4.2534587380098361e-02 0
-7.1167791241735101e-01 -1.8914856188317650e-02 0
2.3014489849809191e+01 2.2505797613645289e+00 0
1.7074250085013436e+01 -4.8059738732405620e-02 0
-8.8598460325657635e-01 -1.6795589878669098e-01 0
-7.0748974092515615e-01 3.9909143685564294e-02 0
6.0571513148680882e+00 1.1165133124723112e+00 0
4.9534135596720761e+00 -1.9846955900989580e-01 0
4.9414195605926903e+00 8.3237166556412756e-01 0
4.0370827774672122e+00 -1.9739738784824279e-01 0
1.0116697988551451e+01 2.5326226792300761e+00 0
8.4359181920186082e+00 1.6712154792991843e-01 0
1.0473965973220902e+00 3.9377250939987207e-01 0
6.7311030816896809e+00 1.0793733812298552e+00 0
3.3468582246645031e+00 9.2462410405604678e-01 0
3.2566330890605792e+00 1.4858856096328750e+00 0
5.4418255978988688e+00 1.1966906465776370e+00 0
7.2881411686385089e-01 -1.9200964564538642e-01 0

VECTORS Forces2 float
7.5364017596177879e-01 -4.3293270358617209e-01 0
4.1592218897536365e-01 2.5804073439110287e-01 0
-9.5078467963614433e+00 5.2490356668874565e+00 0
-5.3730799727350202e+00 -2.9691096327402944e+00 0
-1.0413833980734161e+01 1.6135668227748357e+00 0
-5.9259419878043662e+00 -9.1207743769779526e-01 0
-6.6415154733336772e+00 -2.6605314462077795e-01 0
-3.7890276546942090e+00 1.4735084363693071e-01 0
1.0006236380363234e+00 3.4568200243226758e-02 0
5.7163457777062843e-01 -1.9656989455458414e-02 0
-2.5634068728506580e+01 9.6286096869781831e-04 0
-1.4743285195210227e+01 1.9964429099837470e-02 0
1.0898862470956641e+00 6.0632129700479646e-04 0
6.2966173348381516e-01 -2.5648283150407113e-03 0
-7.3231324577513179e+00 -1.4437287288513369e-03 0
-4.2299084864870133e+00 1.5229710157773732e-02 0
-7.3236803604605276e+00 -1.2776710930623089e-03 0
-4.2303166026186769e+00 1.5204924311428491e-02 0
1.0912928646325610e+00 -5.9051799980437777e-05 0
6.3029658098724983e-01 -2.1361262776532918e-03 0
-2.5845971461776948e+01 -3.8063950816952597e-03 0
-1.4910694435156739e+01 8.6775029790017583e-02 0
1.0922673257287490e+00 2.2148964103215269e-04 0
6.2811789874824786e-01 -5.2209873085970731e-03 0
-7.3308053726675686e+00 -3.2491350115243780e-03 0
-4.2154313701523423e+00 3.7121236232272432e-02 0
-7.3307853726244705e+00 -3.2585331670384986e-03 0
-4.2153861055018771e+00 3.7152778742584672e-02 0
1.0920836569874588e+00 2.0778340937444470e-04 0
6.2768670128898862e-01 -5.3464602207405334e-03 0
-2.5751192585032630e+01 -1.5487533511542964e-02 0
-1.4697167895706173e+01 1.7477662895925367e-01 0
1.0838687855859521e+00 3.4138997146444588e-04 0
6.1294251078542450e-01 -8.7856942461376000e-03 0
-7.2727699209237624e+00 -4.2816716895797127e-03 0
-4.1117854943120253e+00 6.1516455293409079e-02 0
-7.2726991470954587e+00 -4.2908273360750347e-03 0
-4.1116714440799216e+00 6.1549318792435692e-02 0
1.0832648805297056e+00 2.9171879216929636e-04 0
6.1190871550296511e-01 -8.9087732753707679e-03 0
-2.5446242434178867e+01 -6.7739954221165679e-03 0
-1.4186727289190003e+01 2.5557447181942788e-01 0
1.0671961014903140e+00 -5.3373777129099001e-04 0
5.8560720607571837e-01 -1.2033470043005971e-02 0
-7.1592455662639880e+00 1.3437802751888350e-03 0
-3.9268106418670436e+00 8.3772637839346992e-02 0
-7.1591266453332265e+00 1.3364772262855387e-03 0
-3.9266305855939376e+00 8.3808115301229377e-02 0
1.0662109301152385e+00 -6.5723925315479509e-04 0
5.8396911115041850e-01 -1.2131388623263382e-02 0
-2.4951025797927866e+01 2.9847942849831020e-02 0
-1.3387880166432879e+01 3.3166658712700053e-01 0
1.0423599020248437e+00 -2.9125611778324828e-03 0
5.4529339193778592e-01 -1.5033544404219955e-02 0
-6.9906755273355516e+00 1.6867108560434569e-02 0
-3.6548405050894983e+00 1.0462113814767325e-01 0
-6.9904967848621027e+00 1.6852872226484888e-02 0
-3.6545879045361822e+00 1.0466834111870249e-01 0
1.0409425268780368e+00 -3.1155419455526300e-03 0
5.4293157279272397e-01 -1.5113168111970256e-02 0
-2.4246335805915248e+01 8.5479386900388990e-02 0
-1.2250446159400646e+01 4.1323460145850943e-01 0
1.0066932237097876e+00 -5.7321330735605486e-03 0
4.8853489392841104e-01 -1.8701405956342468e-02 0
-6.7484680577814755e+00 3.4576107491233674e-02 0
-3.2724826232468107e+00 1.3058727152006550e-01 0
-6.7482022827946979e+00 3.4551406890049235e-02 0
-3.2721356483494057e+00 1.3065287524372962e-01 0
1.0047476256432468e+00 -6.1964970682022273e-03 0
4.8509883570512796e-01 -1.8699230586067699e-02 0
-2.3216942846002745e+01 2.3167496913822147e-01 0
-1.0631612714876793e+01 4.8813557818171982e-01 0
9.5746974308459554e-01 -1.5404869381481579e-02 0
4.0588072183805524e-01 -2.0722440234068492e-02 0
-6.4134917114988292e+00 9.7453521213351726e-02 0
-2.7162707950469449e+00 1.4628995441386947e-01 0
-6.4130517811912693e+00 9.7273953620202955e-02 0
-2.7158764555745449e+00 1.4641229734363848e-01 0
9.5487807286850868e-01 -1.6224378134682516e-02 0
4.0097554315849182e-01 -2.0681276634217188e-02 0
-2.1878924438322599e+01 2.9686872028066025e-01 0
-8.3625774636567982e+00 6.0821734797230653e-01 0
8.8603669314008116e-01 -1.5749143558985823e-02 0
2.9836513661161851e-01 -2.7919823097006167e-02 0
-5.9235865202466069e+00 8.4977954378013004e-02 0
-1.9996760447425399e+00 1.9919400831546191e-01 0
-5.9220857221498475e+00 8.4074790803745636e-02 0
-1.9993473629901521e+00 1.9962184540886205e-01 0
8.8065335666356381e-01 -2.0596068597435912e-02 0
2.8653415745881022e-01 -2.6090327306719729e-02 0
-1.8827219428886067e+01 9.1058770410301981e-01 0
-4.6994186516125023e+00 7.0279243756403509e-01 0
6.5391098180315765e-01 -8.9258315821138481e-02 0
6.9720433766538286e-03 -8.1034323716977670e-03 0
-4.2627709490173737e+00 5.5790325134960872e-01 0
-7.9715151362341377e-02 1.8810228349675406e-01 0
-4.0729354085179814e+00 7.4938319881803550e-02 0
-3.3025421330487525e-01 1.7701125296493683e-01 0
-1.0508442785564096e+00 4.6292854394910297e+00 0
2.3451840764213334e+00 2.7665053309036913e-01 0
-4.4470056586035661e-01 4.5009419579598553e-01 0
-1.3065403922906751e-01 4.6541575634818129e+00 0
1.0082150885582406e+00 3.6602957326822994e+00 0
7.1435716138865069e-01 3.2344949872141404e+00 0
1.3124235637383310e+00 9.8454910962471898e-01 0
3.8416112306212657e-01 -2.2504511326390042e-01 0

VECTORS Forces3 float
-2.4628062867494294e-02 1.9594968629350978e-02 0
-3.7300351345047472e-02 -1.9445132327312872e-02 0
4.1288860627555812e-01 -2.4014415135970432e-01 0
5.4241683505413818e-01 3.0750012448534297e-01 0
4.4144509556182682e-01 -7.5740038204547042e-02 0
5.7906564439748698e-01 9.8380477339682873e-02 0
2.7590513968635466e-01 9.9823848818727991e-03 0
3.6278871197625118e-01 -1.3196993849766719e-02 0
-4.1622471067265333e-02 -1.5633369366696503e-03 0
-5.4819638744127493e-02 1.7747812618635593e-03 0
9.9220769006086829e-01 -1.7112303686875725e-02 0
1.3179406515159042e+00 3.9322976772198183e-02 0
-4.1079756954813813e-02 3.4388338928302879e-04 0
-5.5205146562186606e-02 -2.3629796966803916e-03 0
2.7537474293088227e-01 -4.0596244795686144e-03 0
3.6946450155068933e-01 1.7688765839476251e-02 0
2.7539544406266653e-01 -4.0632625314498717e-03 0
3.6949974541389324e-01 1.7714764575060837e-02 0
-4.1000389381823654e-02 3.9147454401820391e-04 0
-5.5208788593146332e-02 -2.5114024557956931e-03 0
9.6971828855590692e-01 -7.2430516473415054e-03 0
1.3265442955575282e+00 8.8560674751269094e-02 0
-4.1038351520811263e-02 1.6582808534516407e-04 0
-5.8059791190036396e-02 -5.0587361443732212e-03 0
2.7580287904428502e-01 -2.4195535594900958e-03 0
3.8963408479317702e-01 3.5660002863315471e-02 0
2.7580518431480816e-01 -2.4205784335772436e-03 0
3.8966697528699262e-01 3.5680926120083931e-02 0
-4.1050175420870444e-02 1.4706287783767505e-04 0
-5.8280868762808170e-02 -5.1835036482444892e-03 0
9.7581169027613923e-01 -7.7971837213799662e-03 0
1.4431528598623469e+00 1.6441260096927310e-01 0
-4.1550335447529133e-02 -9.4148324473902561e-05 0
-6.4954695773932272e-02 -8.2152930746391788e-03 0
2.7947263406178174e-01 -7.2656771711032480e-04 0
4.3660468853727363e-01 5.7070136791505272e-02 0
2.7947507533404004e-01 -7.2815755005495124e-04 0
4.3666082371817477e-01 5.7094007801700909e-02 0
-4.1593001407127225e-02 -1.4448882852951262e-04 0
-6.5373196649585838e-02 -8.3390950080961847e-03 0
9.9502881272775712e-01 9.4862906329010975e-03 0
1.6595095145988839e+00 2.3557931351799535e-01 0
-4.2557364765365709e-02 -1.2733108591768928e-03 0
-7.6196493688914679e-02 -1.1111406803456122e-02 0
2.8646795907283445e-01 7.1365441617907881e-03 0
5.1273718558633496e-01 7.6725124515516260e-02 0
2.8646949548506578e-01 7.1385238479947056e-03 0
5.1281926288417379e-01 7.6750259423380318e-02 0
-4.2615226283461594e-02 -1.3922764227215507e-03 0
-7.6829516038566567e-02 -1.1213425027088567e-02 0
1.0223305805074834e+00 5.4833934338652981e-02 0
1.9828163599257023e+00 3.0162039873479463e-01 0
-4.3477641934823875e-02 -4.0145093891529636e-03 0
-9.2226394675270468e-02 -1.3692994091383087e-02 0
2.9282550010429254e-01 2.5396417672300279e-02 0
6.2099018693131880e-01 9.4434218996085756e-02 0
2.9282890218377000e-01 2.5396108879221797e-02 0
6.2110391563786060e-01 9.4466781745445483e-02 0
-4.3574419652653226e-02 -4.2002232118428569e-03 0
-9.3141297274936419e-02 -1.3785952558433285e-02 0
1.0452654502430767e+00 1.1967037510155575e-01 0
2.4340832931150231e+00 3.7190573685245387e-01 0
-4.5851368523806675e-02 -7.1409152979291426e-03 0
-1.1521172623130836e-01 -1.6926711004150934e-02 0
3.0923816602217485e-01 4.5676658209864683e-02 0
7.7607326895528506e-01 1.1697116713946264e-01 0
3.0923473376169569e-01 4.5679323062635585e-02 0
7.7622291481171712e-01 1.1701047005401739e-01 0
-4.5964359748779847e-02 -7.5576019585258921e-03 0
-1.1654167970240831e-01 -1.6951183375977810e-02 0
1.1304405527824453e+00 2.7994305444898793e-01 0
3.0944562436862051e+00 4.2672184032757665e-01 0
-4.6676816299444451e-02 -1.7392616209309899e-02 0
-1.4755688149152663e-01 -1.7937528902774079e-02 0
3.1451515717012885e-01 1.1367857263254939e-01 0
9.9337669596004718e-01 1.2482424641196171e-01 0
3.1450054101319047e-01 1.1356943829712483e-01 0
9.9352854335297169e-01 1.2490643751940972e-01 0
-4.7443568511263370e-02 -1.7957509531377921e-02 0
-1.5003748964838212e-01 -1.8043339123309479e-02 0
1.1678000831105173e+00 3.3197541795562169e-01 0
4.0439111157391725e+00 5.5668281721503599e-01 0
-6.8074813141219118e-02 -1.5414111316798805e-02 0
-2.0659002378557376e-01 -2.7284106565662655e-02 0
4.5599697044573517e-01 8.9981159480102921e-02 0
1.3844959813079358e+00 1.9059059819111424e-01 0
4.5584617278809059e-01 8.9533786309600918e-02 0
1.3843950712634376e+00 1.9077062644592938e-01 0
-6.9911594992033435e-02 -1.9261784695422463e-02 0
-2.1223013835280624e-01 -2.6048667389145064e-02 0
2.1212983005246531e+00 1.1250465607395663e+00 0
6.0122373217735321e+00 5.1490280466560689e-01 0
-9.9172585484289685e-02 -9.9814073816991034e-02 0
-3.2331762026094601e-01 8.8991905163604066e-05 0
7.6128528661003447e-01 6.5666314859570696e-01 0
2.2366999414298405e+00 8.1684096902493980e-02 0
3.9443024194214610e-01 3.3666439043236890e-01 0
1.7586544416727208e+00 4.8133945510632117e-02 0
3.5863706197007126e+00 3.0044644620252705e+00 0
4.3683923883841222e+00 4.6069437971397814e-01 0
2.3932291311118126e-01 3.3889581173460559e-01 0
2.5254309449588193e+00 2.4167483614774432e+00 0
1.4993428480658537e+00 2.1217074922783130e+00 0
1.3111776454049773e+00 2.2316943961743214e+00 0
2.5651793448527256e+00 1.2401464411637813e+00 0
4.7780837819686034e-01 -1.4873887894613100e-01 0

