# vtk DataFile Version 2.0

ASCII

DATASET UNSTRUCTURED_GRID

POINTS 106 float 

-5.0000000000000003e-02  0.0000000000000000e+00  0.0000000000000000e+00
5.0000000000000003e-02  0.0000000000000000e+00  0.0000000000000000e+00
-5.0000000000000003e-02  2.0000000000000000e-02  0.0000000000000000e+00
5.0000000000000003e-02  2.0000000000000000e-02  0.0000000000000000e+00
-5.0000000000000003e-02  4.0000000000000001e-02  0.0000000000000000e+00
5.0000000000000003e-02  4.0000000000000001e-02  0.0000000000000000e+00
-5.0000000000000003e-02  5.9999999999999998e-02  0.0000000000000000e+00
5.0000000000000003e-02  5.9999999999999998e-02  0.0000000000000000e+00
-5.0000000000000003e-02  8.0000000000000002e-02  0.0000000000000000e+00
5.0000000000000003e-02  8.0000000000000002e-02  0.0000000000000000e+00
-5.0000000000000003e-02  1.0000000000000001e-01  0.0000000000000000e+00
5.0000000000000003e-02  1.0000000000000001e-01  0.0000000000000000e+00
-5.0000000000000003e-02  1.2000000000000000e-01  0.0000000000000000e+00
5.0000000000000003e-02  1.2000000000000000e-01  0.0000000000000000e+00
-5.0000000000000003e-02  1.4000000000000001e-01  0.0000000000000000e+00
5.0000000000000003e-02  1.4000000000000001e-01  0.0000000000000000e+00
-5.0000000000000003e-02  1.6000000000000000e-01  0.0000000000000000e+00
5.0000000000000003e-02  1.6000000000000000e-01  0.0000000000000000e+00
-5.0000000000000003e-02  1.7999999999999999e-01  0.0000000000000000e+00
5.0000000000000003e-02  1.7999999999999999e-01  0.0000000000000000e+00
-5.0000000000000003e-02  2.0000000000000001e-01  0.0000000000000000e+00
5.0000000000000003e-02  2.0000000000000001e-01  0.0000000000000000e+00
-5.0000000000000003e-02  2.2000000000000000e-01  0.0000000000000000e+00
5.0000000000000003e-02  2.2000000000000000e-01  0.0000000000000000e+00
-5.0000000000000003e-02  2.3999999999999999e-01  0.0000000000000000e+00
5.0000000000000003e-02  2.3999999999999999e-01  0.0000000000000000e+00
-5.0000000000000003e-02  2.6000000000000001e-01  0.0000000000000000e+00
5.0000000000000003e-02  2.6000000000000001e-01  0.0000000000000000e+00
-5.0000000000000003e-02  2.8000000000000003e-01  0.0000000000000000e+00
5.0000000000000003e-02  2.8000000000000003e-01  0.0000000000000000e+00
-5.0000000000000003e-02  2.9999999999999999e-01  0.0000000000000000e+00
5.0000000000000003e-02  2.9999999999999999e-01  0.0000000000000000e+00
-5.0000000000000003e-02  3.2000000000000001e-01  0.0000000000000000e+00
5.0000000000000003e-02  3.2000000000000001e-01  0.0000000000000000e+00
-5.0000000000000003e-02  3.4000000000000002e-01  0.0000000000000000e+00
5.0000000000000003e-02  3.4000000000000002e-01  0.0000000000000000e+00
-5.0000000000000003e-02  3.5999999999999999e-01  0.0000000000000000e+00
5.0000000000000003e-02  3.5999999999999999e-01  0.0000000000000000e+00
-5.0000000000000003e-02  3.8000000000000000e-01  0.0000000000000000e+00
5.0000000000000003e-02  3.8000000000000000e-01  0.0000000000000000e+00
-5.0000000000000003e-02  4.0000000000000002e-01  0.0000000000000000e+00
5.0000000000000003e-02  4.0000000000000002e-01  0.0000000000000000e+00
-5.0000000000000003e-02  4.1999999999999998e-01  0.0000000000000000e+00
5.0000000000000003e-02  4.1999999999999998e-01  0.0000000000000000e+00
-5.0000000000000003e-02  4.4000000000000000e-01  0.0000000000000000e+00
5.0000000000000003e-02  4.4000000000000000e-01  0.0000000000000000e+00
-5.0000000000000003e-02  4.6000000000000002e-01  0.0000000000000000e+00
5.0000000000000003e-02  4.6000000000000002e-01  0.0000000000000000e+00
-5.0000000000000003e-02  4.7999999999999998e-01  0.0000000000000000e+00
5.0000000000000003e-02  4.7999999999999998e-01  0.0000000000000000e+00
-5.0000000000000003e-02  5.0000000000000000e-01  0.0000000000000000e+00
5.0000000000000003e-02  5.0000000000000000e-01  0.0000000000000000e+00
-5.0000000000000003e-02  5.2000000000000002e-01  0.0000000000000000e+00
5.0000000000000003e-02  5.2000000000000002e-01  0.0000000000000000e+00
-5.0000000000000003e-02  5.4000000000000004e-01  0.0000000000000000e+00
5.0000000000000003e-02  5.4000000000000004e-01  0.0000000000000000e+00
-5.0000000000000003e-02  5.6000000000000005e-01  0.0000000000000000e+00
5.0000000000000003e-02  5.6000000000000005e-01  0.0000000000000000e+00
-5.0000000000000003e-02  5.7999999999999996e-01  0.0000000000000000e+00
5.0000000000000003e-02  5.7999999999999996e-01  0.0000000000000000e+00
-5.0000000000000003e-02  5.9999999999999998e-01  0.0000000000000000e+00
5.0000000000000003e-02  5.9999999999999998e-01  0.0000000000000000e+00
-5.0000000000000003e-02  6.2000000000000000e-01  0.0000000000000000e+00
5.0000000000000003e-02  6.2000000000000000e-01  0.0000000000000000e+00
-5.0000000000000003e-02  6.4000000000000001e-01  0.0000000000000000e+00
5.0000000000000003e-02  6.4000000000000001e-01  0.0000000000000000e+00
-5.0000000000000003e-02  6.6000000000000003e-01  0.0000000000000000e+00
5.0000000000000003e-02  6.6000000000000003e-01  0.0000000000000000e+00
-5.0000000000000003e-02  6.8000000000000005e-01  0.0000000000000000e+00
5.0000000000000003e-02  6.8000000000000005e-01  0.0000000000000000e+00
-5.0000000000000003e-02  6.9999999999999996e-01  0.0000000000000000e+00
5.0000000000000003e-02  6.9999999999999996e-01  0.0000000000000000e+00
-5.0000000000000003e-02  7.1999999999999997e-01  0.0000000000000000e+00
5.0000000000000003e-02  7.1999999999999997e-01  0.0000000000000000e+00
-5.0000000000000003e-02  7.3999999999999999e-01  0.0000000000000000e+00
5.0000000000000003e-02  7.3999999999999999e-01  0.0000000000000000e+00
-5.0000000000000003e-02  7.6000000000000001e-01  0.0000000000000000e+00
5.0000000000000003e-02  7.6000000000000001e-01  0.0000000000000000e+00
-5.0000000000000003e-02  7.8000000000000003e-01  0.0000000000000000e+00
5.0000000000000003e-02  7.8000000000000003e-01  0.0000000000000000e+00
-5.0000000000000003e-02  8.0000000000000004e-01  0.0000000000000000e+00
5.0000000000000003e-02  8.0000000000000004e-01  0.0000000000000000e+00
-5.0000000000000003e-02  8.1999999999999995e-01  0.0000000000000000e+00
5.0000000000000003e-02  8.1999999999999995e-01  0.0000000000000000e+00
-5.0000000000000003e-02  8.3999999999999997e-01  0.0000000000000000e+00
5.0000000000000003e-02  8.3999999999999997e-01  0.0000000000000000e+00
-5.0000000000000003e-02  8.5999999999999999e-01  0.0000000000000000e+00
5.0000000000000003e-02  8.5999999999999999e-01  0.0000000000000000e+00
-5.0000000000000003e-02  8.8000000000000000e-01  0.0000000000000000e+00
5.0000000000000003e-02  8.8000000000000000e-01  0.0000000000000000e+00
-5.0000000000000003e-02  9.0000000000000002e-01  0.0000000000000000e+00
5.0000000000000003e-02  9.0000000000000002e-01  0.0000000000000000e+00
-5.0000000000000003e-02  9.2000000000000004e-01  0.0000000000000000e+00
5.0000000000000003e-02  9.2000000000000004e-01  0.0000000000000000e+00
-5.0000000000000003e-02  9.3999999999999995e-01  0.0000000000000000e+00
5.0000000000000003e-02  9.3999999999999995e-01  0.0000000000000000e+00
-5.0000000000000003e-02  9.5999999999999996e-01  0.0000000000000000e+00
5.0000000000000003e-02  9.5999999999999996e-01  0.0000000000000000e+00
-5.0000000000000003e-02  9.7999999999999998e-01  0.0000000000000000e+00
5.0000000000000003e-02  9.7999999999999998e-01  0.0000000000000000e+00
-5.0000000000000003e-02  1.0000000000000000e+00  0.0000000000000000e+00
-3.0000000000000002e-02  1.0000000000000000e+00  0.0000000000000000e+00
-1.0000000000000002e-02  1.0000000000000000e+00  0.0000000000000000e+00
1.0000000000000009e-02  1.0000000000000000e+00  0.0000000000000000e+00
2.9999999999999999e-02  1.0000000000000000e+00  0.0000000000000000e+00
5.0000000000000003e-02  1.0000000000000000e+00  0.0000000000000000e+00

CELLS 0 0


CELL_TYPES 0


POINT_DATA 106

VECTORS VertexNormals float

0.0000000000000000e+00 0.0000000000000000e+00 0
0.0000000000000000e+00 0.0000000000000000e+00 0
0.0000000000000000e+00 0.0000000000000000e+00 0
0.0000000000000000e+00 0.0000000000000000e+00 0
0.0000000000000000e+00 0.0000000000000000e+00 0
0.0000000000000000e+00 0.0000000000000000e+00 0
0.0000000000000000e+00 0.0000000000000000e+00 0
0.0000000000000000e+00 0.0000000000000000e+00 0
0.0000000000000000e+00 0.0000000000000000e+00 0
0.0000000000000000e+00 0.0000000000000000e+00 0
0.0000000000000000e+00 0.0000000000000000e+00 0
0.0000000000000000e+00 0.0000000000000000e+00 0
0.0000000000000000e+00 0.0000000000000000e+00 0
0.0000000000000000e+00 0.0000000000000000e+00 0
0.0000000000000000e+00 0.0000000000000000e+00 0
0.0000000000000000e+00 0.0000000000000000e+00 0
0.0000000000000000e+00 0.0000000000000000e+00 0
0.0000000000000000e+00 0.0000000000000000e+00 0
0.0000000000000000e+00 0.0000000000000000e+00 0
0.0000000000000000e+00 0.0000000000000000e+00 0
0.0000000000000000e+00 0.0000000000000000e+00 0
0.0000000000000000e+00 0.0000000000000000e+00 0
0.0000000000000000e+00 0.0000000000000000e+00 0
0.0000000000000000e+00 0.0000000000000000e+00 0
0.0000000000000000e+00 0.0000000000000000e+00 0
0.0000000000000000e+00 0.0000000000000000e+00 0
0.0000000000000000e+00 0.0000000000000000e+00 0
0.0000000000000000e+00 0.0000000000000000e+00 0
0.0000000000000000e+00 0.0000000000000000e+00 0
0.0000000000000000e+00 0.0000000000000000e+00 0
0.0000000000000000e+00 0.0000000000000000e+00 0
0.0000000000000000e+00 0.0000000000000000e+00 0
0.0000000000000000e+00 0.0000000000000000e+00 0
0.0000000000000000e+00 0.0000000000000000e+00 0
0.0000000000000000e+00 0.0000000000000000e+00 0
0.0000000000000000e+00 0.0000000000000000e+00 0
0.0000000000000000e+00 0.0000000000000000e+00 0
0.0000000000000000e+00 0.0000000000000000e+00 0
0.0000000000000000e+00 0.0000000000000000e+00 0
0.0000000000000000e+00 0.0000000000000000e+00 0
0.0000000000000000e+00 0.0000000000000000e+00 0
0.0000000000000000e+00 0.0000000000000000e+00 0
0.0000000000000000e+00 0.0000000000000000e+00 0
0.0000000000000000e+00 0.0000000000000000e+00 0
0.0000000000000000e+00 0.0000000000000000e+00 0
0.0000000000000000e+00 0.0000000000000000e+00 0
0.0000000000000000e+00 0.0000000000000000e+00 0
0.0000000000000000e+00 0.0000000000000000e+00 0
0.0000000000000000e+00 0.0000000000000000e+00 0
0.0000000000000000e+00 0.0000000000000000e+00 0
0.0000000000000000e+00 0.0000000000000000e+00 0
0.0000000000000000e+00 0.0000000000000000e+00 0
0.0000000000000000e+00 0.0000000000000000e+00 0
0.0000000000000000e+00 0.0000000000000000e+00 0
0.0000000000000000e+00 0.0000000000000000e+00 0
0.0000000000000000e+00 0.0000000000000000e+00 0
0.0000000000000000e+00 0.0000000000000000e+00 0
0.0000000000000000e+00 0.0000000000000000e+00 0
0.0000000000000000e+00 0.0000000000000000e+00 0
0.0000000000000000e+00 0.0000000000000000e+00 0
0.0000000000000000e+00 0.0000000000000000e+00 0
0.0000000000000000e+00 0.0000000000000000e+00 0
0.0000000000000000e+00 0.0000000000000000e+00 0
0.0000000000000000e+00 0.0000000000000000e+00 0
0.0000000000000000e+00 0.0000000000000000e+00 0
0.0000000000000000e+00 0.0000000000000000e+00 0
0.0000000000000000e+00 0.0000000000000000e+00 0
0.0000000000000000e+00 0.0000000000000000e+00 0
0.0000000000000000e+00 0.0000000000000000e+00 0
0.0000000000000000e+00 0.0000000000000000e+00 0
0.0000000000000000e+00 0.0000000000000000e+00 0
0.0000000000000000e+00 0.0000000000000000e+00 0
0.0000000000000000e+00 0.0000000000000000e+00 0
0.0000000000000000e+00 0.0000000000000000e+00 0
0.0000000000000000e+00 0.0000000000000000e+00 0
0.0000000000000000e+00 0.0000000000000000e+00 0
0.0000000000000000e+00 0.0000000000000000e+00 0
0.0000000000000000e+00 0.0000000000000000e+00 0
0.0000000000000000e+00 0.0000000000000000e+00 0
0.0000000000000000e+00 0.0000000000000000e+00 0
0.0000000000000000e+00 0.0000000000000000e+00 0
0.0000000000000000e+00 0.0000000000000000e+00 0
0.0000000000000000e+00 0.0000000000000000e+00 0
0.0000000000000000e+00 0.0000000000000000e+00 0
0.0000000000000000e+00 0.0000000000000000e+00 0
0.0000000000000000e+00 0.0000000000000000e+00 0
0.0000000000000000e+00 0.0000000000000000e+00 0
0.0000000000000000e+00 0.0000000000000000e+00 0
0.0000000000000000e+00 0.0000000000000000e+00 0
0.0000000000000000e+00 0.0000000000000000e+00 0
0.0000000000000000e+00 0.0000000000000000e+00 0
0.0000000000000000e+00 0.0000000000000000e+00 0
0.0000000000000000e+00 0.0000000000000000e+00 0
0.0000000000000000e+00 0.0000000000000000e+00 0
0.0000000000000000e+00 0.0000000000000000e+00 0
0.0000000000000000e+00 0.0000000000000000e+00 0
0.0000000000000000e+00 0.0000000000000000e+00 0
0.0000000000000000e+00 0.0000000000000000e+00 0
0.0000000000000000e+00 0.0000000000000000e+00 0
0.0000000000000000e+00 0.0000000000000000e+00 0
0.0000000000000000e+00 0.0000000000000000e+00 0
0.0000000000000000e+00 0.0000000000000000e+00 0
0.0000000000000000e+00 0.0000000000000000e+00 0
0.0000000000000000e+00 0.0000000000000000e+00 0
0.0000000000000000e+00 0.0000000000000000e+00 0
0.0000000000000000e+00 0.0000000000000000e+00 0

VECTORS Displacements1 float
-5.6734905699169840e-17 3.1696731176704165e-17 0
-1.2753487971016870e-22 4.3542695271704456e-23 0
1.6996518067157592e-06 6.7321405282682699e-07 0
1.6427269567445872e-06 -6.2946768736541474e-07 0
2.8580581476223029e-06 9.2250326191930342e-07 0
2.7572155513380244e-06 -8.6228084188731746e-07 0
3.5054697935856116e-06 9.1948263672443102e-07 0
3.4260964556003283e-06 -8.5349560311889484e-07 0
3.8556629598775001e-06 7.9007784917344659e-07 0
3.8101350775166086e-06 -7.3274142550003967e-07 0
5.3666119192037895e-06 5.5003358968255175e-07 0
5.1091660930602324e-06 -3.4085962478053489e-07 0
4.3140457027175365e-06 1.8475902983494064e-07 0
4.2577762701459597e-06 -1.2118968669317512e-07 0
4.5510094679665271e-06 1.5620018882781020e-07 0
4.4543808332750006e-06 -8.4038330813347109e-09 0
4.5228996565729237e-06 1.0737614850106513e-07 0
4.4269963172699674e-06 6.1577252099662833e-08 0
4.2824655007337583e-06 1.5337752467294820e-07 0
4.2313030921321806e-06 3.9381022929706156e-09 0
5.4827113546587455e-06 1.6445307598799030e-07 0
5.2361444815937689e-06 1.7568177112076706e-07 0
4.3385508080735205e-06 2.1788910843627202e-08 0
4.2818122323235104e-06 1.6174221221751679e-07 0
4.6044173015980471e-06 1.3276699573609815e-07 0
4.5147129514905001e-06 1.4462620638667408e-07 0
4.6262936862351180e-06 1.4490579458112321e-07 0
4.5344593917588282e-06 1.5807330915612583e-07 0
4.3983652217783327e-06 2.1045246459033249e-07 0
4.3526438199667724e-06 7.9045625193501932e-08 0
5.5975343052769040e-06 2.3722877186207250e-07 0
5.3942966988701246e-06 2.7082859094289978e-07 0
4.4505586440850291e-06 1.0336436365701859e-07 0
4.3942642597466380e-06 2.2568731325731238e-07 0
4.7278349117550867e-06 2.2224921065897145e-07 0
4.6524476771971162e-06 2.1145014537717620e-07 0
4.7589890905497842e-06 2.3753973056063472e-07 0
4.6818662791917888e-06 2.2590250369043715e-07 0
4.5407268171401490e-06 3.0630070935579107e-07 0
4.5034604098553432e-06 1.3879943095020036e-07 0
5.7586704703252499e-06 3.4560079703199757e-07 0
5.6347347578573051e-06 3.6501663135194312e-07 0
4.6225029940347189e-06 2.0821055987957156e-07 0
4.5690459983472750e-06 2.9996044876856591e-07 0
4.9160402409772824e-06 3.3498245951990011e-07 0
4.8644415781334901e-06 2.8850278878565543e-07 0
4.9614834740645115e-06 3.5669320466870311e-07 0
4.9083770520972280e-06 3.0383437962555733e-07 0
4.7545555319960353e-06 4.3261151931852829e-07 0
4.7293829323229477e-06 2.0463095196367238e-07 0
5.9952494532199426e-06 4.9833301383449428e-07 0
5.9899668993384724e-06 4.6775938044120435e-07 0
4.8732383170953117e-06 3.5299318472231751e-07 0
4.8243717072060390e-06 3.8322500066961569e-07 0
5.1841314619696525e-06 4.9464001143711006e-07 0
5.1667522565963441e-06 3.7291753576177663e-07 0
5.2471078548386507e-06 5.2720197926629010e-07 0
5.2277935366374376e-06 3.8876977345480939e-07 0
5.0551335515402744e-06 6.1262779671944575e-07 0
5.0448927328056165e-06 2.7402377919312813e-07 0
6.3212628852067699e-06 7.1886105909967195e-07 0
6.4861534565598782e-06 5.7975092094929586e-07 0
5.2299710313624204e-06 5.6891963173789119e-07 0
5.1858265043729452e-06 4.7171356191911051e-07 0
5.5771804629707813e-06 7.3658726004846576e-07 0
5.6024407739651893e-06 4.5928871769711429e-07 0
5.6753257982605222e-06 7.9552844280253904e-07 0
5.6973534148979503e-06 4.7233931364820017e-07 0
5.5179174586940534e-06 9.1954703666090984e-07 0
5.5175484767497446e-06 3.3278022918274368e-07 0
6.8646788856293117e-06 1.1409845919926907e-06 0
7.2276531144838271e-06 6.9256225977510909e-07 0
5.8206986055697338e-06 1.0216968636394735e-06 0
5.7246573622253105e-06 5.8343793582399923e-07 0
6.2333039741345845e-06 1.3449403024057829e-06 0
6.2219400165440399e-06 5.8955332337976576e-07 0
6.4127972902336599e-06 1.6096961171898877e-06 0
6.3177217120070478e-06 6.2664769557448492e-07 0
6.3452263720132376e-06 2.0145516302341134e-06 0
6.1015544945293512e-06 4.7919781958740531e-07 0
7.7970931719726498e-06 2.6702560875230294e-06 0
8.1278975406656507e-06 9.1301190317459251e-07 0
6.8021884478873941e-06 3.0403294828248084e-06 0
6.2182309836133894e-06 6.6281171812113553e-07 0
7.2390474592843100e-06 4.1180053671324284e-06 0
6.7120777458036747e-06 3.7563537983819560e-07 0
7.4200055535718644e-06 5.5277848217085758e-06 0
6.7624871637106981e-06 -2.7002089325390950e-07 0
7.7034693983287193e-06 7.6223579737786316e-06 0
6.8791239233876721e-06 -1.7005349156986785e-06 0
1.0829547881169129e-05 1.0627792530968893e-05 0
1.1032373114925955e-05 -2.8700676833388941e-06 0
1.1995548587378689e-05 1.2811675399928676e-05 0
1.1105747624105251e-05 -4.9440995657973136e-06 0
1.6510874942844720e-05 1.6059029319279243e-05 0
1.6142054587484173e-05 -6.9730547869007597e-06 0
2.1944196854782616e-05 1.8792955761760231e-05 0
2.1659902976057822e-05 -8.6828336339575009e-06 0
3.0159967570554016e-05 2.1641397601976481e-05 0
2.9449935341773312e-05 -9.6082346109106262e-06 0
3.6241238907374753e-05 2.1715384879718334e-05 0
3.6265630923652515e-05 1.5167901249339759e-05 0
3.5052258997859322e-05 8.8041058942725656e-06 0
3.4762825054565097e-05 3.1924234477583784e-06 0
3.5520861129372466e-05 -3.2213326483996211e-06 0
3.5208282863705182e-05 -1.0359657187062079e-05 0

VECTORS Displacements2 float
-5.6799429822564288e-17 3.1732738739745116e-17 0
-1.2838298336723728e-22 4.4181120448956491e-23 0
1.7108351622268255e-06 6.8239313220254664e-07 0
1.6534876853867220e-06 -6.3828201786832257e-07 0
2.8782808685545128e-06 9.3652606501768166e-07 0
2.7769980049883767e-06 -8.7601206752740602e-07 0
3.5372663812849304e-06 9.3673673140652183e-07 0
3.4575245162007510e-06 -8.7041860290501012e-07 0
3.8985044526258588e-06 8.0769618138017171e-07 0
3.8529924026119936e-06 -7.4958175402487966e-07 0
5.4210949191414227e-06 5.6511391860949366e-07 0
5.1625810776169587e-06 -3.5482704367674722e-07 0
4.3737651043385752e-06 1.9496816767543882e-07 0
4.3168602570180167e-06 -1.3012701176813021e-07 0
4.6111603687170035e-06 1.6230315536786691e-07 0
4.5139566233287388e-06 -1.3235257600142467e-08 0
4.5824822487379247e-06 1.1193844991970123e-07 0
4.4859810781804444e-06 5.8763741778348412e-08 0
4.3416961882002306e-06 1.5736722804188071e-07 0
4.2899998667860344e-06 2.1172095669896337e-09 0
5.5439955391796970e-06 1.6739567903673052e-07 0
5.2961742263398861e-06 1.7498469867234184e-07 0
4.3988297601334836e-06 2.3752362908911198e-08 0
4.3413548596473859e-06 1.6263466605373530e-07 0
4.6631912402778743e-06 1.3490479223605463e-07 0
4.5730830074920069e-06 1.4555420424727489e-07 0
4.6856994515406464e-06 1.4857503203476562e-07 0
4.5932584229927445e-06 1.5795756504862242e-07 0
4.4594289705334290e-06 2.1475189924523125e-07 0
4.4133893036952190e-06 7.8782977547296397e-08 0
5.6611141823255697e-06 2.4090431671053950e-07 0
5.4567408961381603e-06 2.7154387126607864e-07 0
4.5126443948232158e-06 1.0650639533862126e-07 0
4.4557315450764133e-06 2.2748740687036642e-07 0
4.7883809159092561e-06 2.2600324707498800e-07 0
4.7126710965054398e-06 2.1287352532811391e-07 0
4.8201164112863252e-06 2.4310102599202218e-07 0
4.7425317555866779e-06 2.2612796668249908e-07 0
4.6036667012592496e-06 3.1250587329147907e-07 0
4.5664057021625293e-06 1.3893530264079581e-07 0
5.8243329000725685e-06 3.5133469025920286e-07 0
5.6994943432187273e-06 3.6613390139582652e-07 0
4.6867938827105880e-06 2.1341108764594592e-07 0
4.6329034384933223e-06 3.0232264923834226e-07 0
4.9789511592208008e-06 3.4077897013730635e-07 0
4.9272019607776325e-06 2.9052968525950947e-07 0
5.0251856423877191e-06 3.6438287816739414e-07 0
4.9718609852957949e-06 3.0461509155726649e-07 0
4.8202058443758849e-06 4.4105210829210489e-07 0
4.7954684477554251e-06 2.0536899800905762e-07 0
6.0639522908534605e-06 5.0645852703063289e-07 0
6.0581760375941039e-06 4.6965927042617656e-07 0
4.9407850031939580e-06 3.6063155716314056e-07 0
4.8917528598320274e-06 3.8652560293549065e-07 0
5.2504008079686362e-06 5.0295931392535067e-07 0
5.2330531029564885e-06 3.7587807113697777e-07 0
5.3144093725903295e-06 5.3757789009804914e-07 0
5.2951813650965751e-06 3.9038092796955394e-07 0
5.1246290877786488e-06 6.2394692910088157e-07 0
5.1153881989995530e-06 2.7558792202505023e-07 0
6.3943034768443879e-06 7.3014312577283366e-07 0
6.5593030481688798e-06 5.8268940746993828e-07 0
5.3023537146736130e-06 5.7997708563669185e-07 0
5.2583427767450420e-06 4.7619543706561330e-07 0
5.6485151060307987e-06 7.4859970643791552e-07 0
5.6739821686392574e-06 4.6335682466857587e-07 0
5.7481599335730183e-06 8.1035599857223338e-07 0
5.7705701853863589e-06 4.7496181183517159e-07 0
5.5936541967549950e-06 9.3653052806248768e-07 0
5.5944340882482655e-06 3.3565507298607102e-07 0
6.9453852466244586e-06 1.1604990842025228e-06 0
7.3074223659962669e-06 6.9775790613051899e-07 0
5.9016826230306803e-06 1.0437030638839179e-06 0
5.8029785626721970e-06 5.9151756934480685e-07 0
6.3141081508991851e-06 1.3720055747116729e-06 0
6.2983411336394806e-06 5.9834673876968982e-07 0
6.4954592213033870e-06 1.6447891132183792e-06 0
6.3949938997062211e-06 6.3464052041265111e-07 0
6.4315912030838926e-06 2.0572139445977670e-06 0
6.1814615579256048e-06 4.8854365761055886e-07 0
7.8855334373838899e-06 2.7192566448030950e-06 0
8.2084722091983859e-06 9.2462774628326864e-07 0
6.8847651390275552e-06 3.0976128923200378e-06 0
6.2914844109438342e-06 6.7437500911038018e-07 0
7.3148911393837798e-06 4.1909024773944408e-06 0
6.7781948165041206e-06 3.7830978047347125e-07 0
7.4991825961384375e-06 5.6249001349327374e-06 0
6.8338812383166589e-06 -2.8561102233195780e-07 0
7.8040237276651457e-06 7.7454560381102487e-06 0
6.9772656478240653e-06 -1.7363527187460266e-06 0
1.0970191072784873e-05 1.0773894836057762e-05 0
1.1172387722623475e-05 -2.9212966068206035e-06 0
1.2182649792207657e-05 1.2970933555369571e-05 0
1.1295329649756656e-05 -5.0053625547794726e-06 0
1.6749379657222888e-05 1.6226809020336949e-05 0
1.6382933190743636e-05 -7.0413205305449865e-06 0
2.2234924108683917e-05 1.8965722628749528e-05 0
2.1955956054940174e-05 -8.7567330488345739e-06 0
3.0503988806941318e-05 2.1816669398746692e-05 0
2.9804394598588987e-05 -9.6840435805440358e-06 0
3.6635573795342658e-05 2.1889238116175381e-05 0
3.6661989806765108e-05 1.5292526614280403e-05 0
3.5450538716384864e-05 8.8799021146141253e-06 0
3.5166119434758241e-05 3.2227805267226904e-06 0
3.5929722869793579e-05 -3.2423022568551259e-06 0
3.5620133666720956e-05 -1.0436769438546118e-05 0

VECTORS Forces1 float
-9.4439172535478599e-01 5.5562642123713379e-01 0
-6.1321709112567091e-01 -3.6856679863652075e-01 0
1.2205236902609570e+01 -6.7492532829994625e+00 0
8.0954480956665513e+00 4.4736208043189949e+00 0
1.3375854381379927e+01 -2.0672734656449299e+00 0
8.9086739812789784e+00 1.3718507033925627e+00 0
8.5265186505763619e+00 3.4832639357990225e-01 0
5.6859285191954676e+00 -2.2893109113036994e-01 0
-1.2851482151934133e+00 -4.6231128505867206e-02 0
-8.5823272438052856e-01 3.0775478633884818e-02 0
3.2901981215091723e+01 2.4922745037171332e-02 0
2.2044525099697559e+01 5.6262914065055066e-03 0
-1.4012736018708083e+00 -1.6726012853711129e-03 0
-9.4335066629822506e-01 -1.0105787342429731e-03 0
9.4153469183501670e+00 3.3333897406639524e-03 0
6.3357887804043234e+00 1.4172222703883510e-02 0
9.4161002740547772e+00 3.1305007686135465e-03 0
6.3364279732124320e+00 1.4276959625782052e-02 0
-1.4031316395766900e+00 -7.4670701526194914e-04 0
-9.4458657586207451e-01 -1.9217284156137074e-03 0
3.3301756021574768e+01 2.0117007356628990e-03 0
2.2472721216192149e+01 1.0133178125781403e-01 0
-1.4090241623795019e+00 -9.1765855048768280e-04 0
-9.5384681462635057e-01 -5.3173659586168856e-03 0
9.4582860930996624e+00 4.4898576518697169e-03 0
6.4023409403156659e+00 3.7968215709499910e-02 0
9.4582856904472496e+00 4.4991690288488191e-03 0
6.4023865566111366e+00 3.7982410203533892e-02 0
-1.4089723899996205e+00 -9.5720415788392937e-04 0
-9.5402726374001512e-01 -5.4698808866865505e-03 0
3.3256841803946216e+01 3.8544224607873497e-02 0
2.2564745257543120e+01 1.6226253296689924e-01 0
-1.4014687698164110e+00 -2.7768635005639571e-03 0
-9.5417791366933358e-01 -7.9029201468779862e-03 0
9.4056282304912635e+00 1.7354913155813872e-02 0
6.4035749233471826e+00 5.5089346839089087e-02 0
9.4055551500222272e+00 1.7366574943793497e-02 0
6.4035820144545328e+00 5.5105282897483059e-02 0
-1.4008846555509731e+00 -2.8871799562411185e-03 0
-9.5401362299137082e-01 -8.0221668732917834e-03 0
3.2958131790207815e+01 8.9201314414580860e-02 0
2.2509380091726570e+01 2.2608372802078952e-01 0
-1.3844283023254311e+00 -5.3991520987631807e-03 0
-9.4956696288777520e-01 -1.0561120509725111e-02 0
9.2898368624785217e+00 3.5004096638247190e-02 0
6.3723462489818878e+00 7.3049145045823938e-02 0
9.2897006991495328e+00 3.5019341271537746e-02 0
6.3723304684235336e+00 7.3068094885747142e-02 0
-1.3833907166546102e+00 -5.5844850227446657e-03 0
-9.4915047153334520e-01 -1.0663524904635456e-02 0
3.2433989194548943e+01 1.7502447966594153e-01 0
2.2342743286404243e+01 2.8390259076215196e-01 0
-1.3567460827133131e+00 -9.9784483801770019e-03 0
-9.3974247531603816e-01 -1.2845184696312252e-02 0
9.1021953948223402e+00 6.5781338920118587e-02 0
6.3061273592298921e+00 8.8620101500970216e-02 0
9.1019946458553438e+00 6.5798331367895618e-02 0
6.3060920931113893e+00 8.8644820491276144e-02 0
-1.3552925567353675e+00 -1.0252786265888252e-02 0
-9.3908850463443838e-01 -1.2933694475363864e-02 0
3.1645942607006649e+01 2.8704034934627526e-01 0
2.2048055392299890e+01 3.4657586283027986e-01 0
-1.3206904786847422e+00 -1.5599415935948852e-02 0
-9.2581648050258425e-01 -1.5549041940090286e-02 0
8.8582316735424413e+00 1.0306109741708538e-01 0
6.2126670799071038e+00 1.0740510609865281e-01 0
8.8579008326426933e+00 1.0310018480742288e-01 0
6.2125742601607596e+00 1.0743257400077004e-01 0
-1.3185607167711919e+00 -1.6215976984208277e-02 0
-9.2469055921256760e-01 -1.5576531142696996e-02 0
3.0627023442285722e+01 5.5700271729099482e-01 0
2.1615718572160279e+01 3.7553077914806043e-01 0
-1.2601957908996964e+00 -3.2842342352028028e-02 0
-8.9606278875185419e-01 -1.6133479438395319e-02 0
8.4451979855368435e+00 2.1901922489828193e-01 0
6.0100529003100807e+00 1.1218563378669499e-01 0
8.4446161121326480e+00 2.1899606880350533e-01 0
6.0098817952479822e+00 1.1224624360027173e-01 0
-1.2591060041330180e+00 -3.3819195588017534e-02 0
-8.9623394877460572e-01 -1.6242156463324529e-02 0
2.9033587193623084e+01 7.9395286072422389e-01 0
2.0981914305768537e+01 5.5931580332822517e-01 0
-1.2329723991279633e+00 -4.4425047809419339e-02 0
-9.1434930758981137e-01 -2.4100518433780003e-02 0
8.2435240239879572e+00 2.8879484280772372e-01 0
6.1245526734354474e+00 1.6826412881753536e-01 0
8.2413528142397716e+00 2.8870508355210639e-01 0
6.1237271386693966e+00 1.6825916380090311e-01 0
-1.2325906462820908e+00 -4.9412564084919369e-02 0
-9.1528078332510077e-01 -2.2139828474914587e-02 0
2.8250985867021157e+01 2.5403108356688766e+00 0
2.1819410933032096e+01 -7.2258707757844612e-02 0
-1.0768960724600107e+00 -1.8243948971056470e-01 0
-8.7547199744879078e-01 4.1449188840131282e-02 0
7.3533120084074861e+00 1.2255263021802232e+00 0
6.1071046208458020e+00 -2.1673118926432011e-01 0
6.0623451028834516e+00 9.5226580414048534e-01 0
5.0440164258432363e+00 -2.4740230412088077e-01 0
1.1651477788208638e+01 2.4124482480622946e+00 0
9.7296410377473208e+00 4.7991506878823120e-01 0
1.2208118145304168e+00 3.8703480863333289e-01 0
7.7051292293990867e+00 7.8037077294396207e-01 0
3.7444918700216459e+00 8.5008934824169724e-01 0
3.6544614570799019e+00 1.5762010075624155e+00 0
6.2687427393431445e+00 1.5897366520425624e+00 0
8.5437932908762759e-01 -1.6514278161551435e-01 0

VECTORS Forces2 float
9.7357337458358506e-01 -5.6276008502189201e-01 0
6.0152733049747620e-01 3.6923678184510678e-01 0
-1.2338714604691615e+01 6.8148451990490049e+00 0
-7.7720123385879196e+00 -4.2961367681235192e+00 0
-1.3514438988829216e+01 2.0924289857465541e+00 0
-8.5580182883892046e+00 -1.3177102015608506e+00 0
-8.6176957332480200e+00 -3.4744361184148426e-01 0
-5.4676696486654359e+00 2.1617172312601893e-01 0
1.2985810349197706e+00 4.5306961345698317e-02 0
8.2492396847960003e-01 -2.8799430183035456e-02 0
-3.3276028035649816e+01 -2.4366695995672034e-03 0
-2.1257709119911134e+01 2.1853761008081510e-02 0
1.4182426323588719e+00 6.1361042874924086e-04 0
9.1103709163391788e-01 -2.5129847328048574e-03 0
-9.5298384258482969e+00 -5.5346390678470784e-05 0
-6.1206018648784601e+00 1.3486863538880636e-02 0
-9.5305862925782829e+00 1.5536283460920202e-04 0
-6.1212069289306550e+00 1.3430898120303150e-02 0
1.4202448366220251e+00 -2.8295768024886556e-04 0
9.1225811340964602e-01 -1.8701672157116610e-03 0
-3.3721477667342846e+01 8.9469556075540536e-04 0
-2.1691717857647980e+01 8.2962068589312876e-02 0
1.4263475405430421e+00 1.9396735677239084e-04 0
9.1708940430071417e-01 -5.3267106734459614e-03 0
-9.5740070447372094e+00 -3.2264767739739637e-03 0
-6.1558286157755848e+00 3.8009563321623564e-02 0
-9.5739947822953226e+00 -3.2388132331496095e-03 0
-6.1558088027408093e+00 3.8045567402141912e-02 0
1.4262311252339521e+00 1.7992900056442517e-04 0
9.1683480932195660e-01 -5.4611575103730940e-03 0
-3.3632249868590357e+01 -1.6011062743946210e-02 0
-2.1544626046113443e+01 1.8130705338189360e-01 0
1.4155753300404958e+00 3.6341590298764355e-04 0
9.0261445314970257e-01 -9.1872313398567041e-03 0
-9.4988465005505152e+00 -4.6409068123527417e-03 0
-6.0558821804580818e+00 6.4461462139636022e-02 0
-9.4987506486670004e+00 -4.6525427192512080e-03 0
-6.0557676724824931e+00 6.4498480284133117e-02 0
1.4147684994154692e+00 3.1077612394116356e-04 0
9.0153209071452167e-01 -9.3195102656918778e-03 0
-3.3227074811673653e+01 -9.0283779488358161e-03 0
-2.1018510746292936e+01 2.7033086869765915e-01 0
1.3928435914465356e+00 -4.3766927702879407e-04 0
8.7321753459690254e-01 -1.2795738844006204e-02 0
-9.3441280221217795e+00 4.0854657156347090e-04 0
-5.8567060746985815e+00 8.9231223865591749e-02 0
-9.3439621474595072e+00 3.9832918376300969e-04 0
-5.8565090731536236e+00 8.9271801236689693e-02 0
1.3914747560464384e+00 -5.6747981242631770e-04 0
8.7138467399322028e-01 -1.2904713936144611e-02 0
-3.2538444152850630e+01 2.6342173988155349e-02 0
-2.0130622649731748e+01 3.5593688768211812e-01 0
1.3578419985431616e+00 -2.8357459323830980e-03 0
8.2740481114311204e-01 -1.6231628141192948e-02 0
-9.1067007416066055e+00 1.5971201846568427e-02 0
-5.5473288590174574e+00 1.1312679567727173e-01 0
-9.1064557918324986e+00 1.5952857052995876e-02 0
-5.5470387685657903e+00 1.1318073611916539e-01 0
1.3558773167523546e+00 -3.0525227838673723e-03 0
8.2467572310196513e-01 -1.6319922893100105e-02 0
-3.1549817755667764e+01 8.3771724388469929e-02 0
-1.8816113989747883e+01 4.4874503431435991e-01 0
1.3091763064190935e+00 -5.7137723769607662e-03 0
7.6129027907387870e-01 -2.0329937754283479e-02 0
-8.7767970886407376e+00 3.3897023120135462e-02 0
-5.1016073205910146e+00 1.4216178663598211e-01 0
-8.7764229964611875e+00 3.3859633048752946e-02 0
-5.1011767483482346e+00 1.4224040402990704e-01 0
1.3063466669087105e+00 -6.1736222403749909e-03 0
7.5712296310894922e-01 -2.0341682874855830e-02 0
-3.0132873975954556e+01 2.1534284864490302e-01 0
-1.6880597673291710e+01 5.4374710386866620e-01 0
1.2354922595597699e+00 -1.4093254734574408e-02 0
6.5763439531012768e-01 -2.3496923173655565e-02 0
-8.2755228259104854e+00 8.7481576442985320e-02 0
-4.4023306915651785e+00 1.6601781258534926e-01 0
-8.2749365478414436e+00 8.7280011569508417e-02 0
-4.4018437772689838e+00 1.6615403545946000e-01 0
1.2320840072133061e+00 -1.4997328170424339e-02 0
6.5224746436136860e-01 -2.3381258068372504e-02 0
-2.8142025877456650e+01 2.8087292304117289e-01 0
-1.4100711209364304e+01 6.4396219480326233e-01 0
1.1493740278204099e+00 -1.6419179023726360e-02 0
5.4726241207263460e-01 -2.8448289381043761e-02 0
-7.6859250444518619e+00 8.7297233551758932e-02 0
-3.6667662437142607e+00 2.0423438651805084e-01 0
-7.6840664706102650e+00 8.6261266032424747e-02 0
-3.6661347625977303e+00 2.0477742687077644e-01 0
1.1427751799695880e+00 -2.1680773143216918e-02 0
5.3453044834738672e-01 -2.6481859405460956e-02 0
-2.4751263011423376e+01 8.7321435523537183e-01 0
-1.0427031879017644e+01 8.5761864973732460e-01 0
8.6508651549369331e-01 -8.9155272659862173e-02 0
2.0683142650661451e-01 -1.7305724932300218e-02 0
-5.6991520986502548e+00 5.4636541220772794e-01 0
-1.4408562899376727e+00 2.6735334829968954e-01 0
-5.3420697116586382e+00 1.5033264403851455e-02 0
-1.5254459287104687e+00 2.7281560515080638e-01 0
-2.4921137714614567e+00 5.1035407752500888e+00 0
9.0249806906973429e-01 1.1312398486756275e-01 0
-6.0715385463579619e-01 4.9081772090908410e-01 0
-1.0014602409495710e+00 5.2619347739176057e+00 0
6.8027181690453686e-01 3.9335162222455429e+00 0
3.7088671879904272e-01 3.3067955879987605e+00 0
4.0376072366178190e-01 6.8143652590753168e-01 0
2.2819219308102029e-01 -2.4699231425554419e-01 0

VECTORS Forces3 float
-1.3771810658224710e-02 1.3152954105645478e-02 0
-2.5782407762384985e-02 -1.2472046059172355e-02 0
2.6623309319584521e-01 -1.6141282351553324e-01 0
3.9173665237576899e-01 2.2612115313649808e-01 0
2.7875117358325918e-01 -5.4641550206693805e-02 0
4.1179737366481495e-01 7.6133895073365598e-02 0
1.7169921807372701e-01 3.0250727654689362e-03 0
2.5555314011427616e-01 -6.5140059317108333e-03 0
-2.5890180079492321e-02 -6.0000517132875438e-04 0
-3.8604246519736388e-02 8.4577580847522253e-04 0
5.7940156747025340e-01 -3.2536154579375781e-02 0
8.9024673884047922e-01 5.3297820207756294e-02 0
-2.2955428649919136e-02 7.8288075817011015e-04 0
-3.6245002858898617e-02 -2.7871976063710111e-03 0
1.5340912962751460e-01 -6.9502918695074365e-03 0
2.4197066217543658e-01 2.0471719114975528e-02 0
1.5341605354145083e-01 -6.9504575280776477e-03 0
2.4198917787526861e-01 2.0495165656641091e-02 0
-2.2821022771751857e-02 8.0972072981223158e-04 0
-3.6175688601937671e-02 -2.9200624165281459e-03 0
5.2867175287240553e-01 -1.0601795414112544e-02 0
8.6068848194883674e-01 9.4136195647707990e-02 0
-2.2381298831232046e-02 1.9832568395003770e-04 0
-3.8104245344056688e-02 -5.2991346499734705e-03 0
1.5044077339215275e-01 -2.5985023247525308e-03 0
2.5562178884740222e-01 3.7267074775003635e-02 0
1.5044266561962427e-01 -2.5980163168878166e-03 0
2.5565111935820173e-01 3.7288018121010499e-02 0
-2.2389972134229410e-02 1.6771830869788344e-04 0
-3.8299975476196006e-02 -5.4237096174003380e-03 0
5.3890990065700617e-01 -6.9919717440212140e-03 0
9.6965158224866599e-01 1.7181227617981876e-01 0
-2.3239023580938503e-02 -1.7621587045961866e-04 0
-4.4822633717817695e-02 -8.6187313788527523e-03 0
1.5655464888698464e-01 -1.8122988818909105e-04 0
3.0153160050988015e-01 5.9829293772514308e-02 0
1.5655927215366214e-01 -1.8244657561045674e-04 0
3.0158664604761004e-01 5.9854478951574488e-02 0
-2.3301416231072382e-02 -2.3169744709320705e-04 0
-4.5235008619105475e-02 -8.7509551982713901e-03 0
5.6662735840306822e-01 1.2424751170150152e-02 0
1.1814778444608816e+00 2.4787623681493182e-01 0
-2.4702130053984819e-02 -1.4445889503769591e-03 0
-5.5928529167656060e-02 -1.1727835057425917e-02 0
1.6660781519907272e-01 8.2733688243370549e-03 0
3.7675974218040531e-01 8.0928281871414889e-02 0
1.6661254457054378e-01 8.2758249643836972e-03 0
3.7684167376579264e-01 8.0955045381733787e-02 0
-2.4790046597394793e-02 -1.5705678681343358e-03 0
-5.6561204536807318e-02 -1.1840287206392573e-02 0
6.0843407258296189e-01 6.0586438695370379e-02 0
1.5042319069412982e+00 3.1936535088067980e-01 0
-2.6400252572629297e-02 -4.3608012805272595e-03 0
-7.2062477277016021e-02 -1.4570958489635643e-02 0
1.7821288670438440e-01 2.7713687032495507e-02 0
4.8576642547217569e-01 1.0041168750062236e-01 0
1.7821955856172539e-01 2.7713566569833856e-02 0
4.8588097039446326e-01 1.0044598769408383e-01 0
-2.6531588132639908e-02 -4.5531738809106116e-03 0
-7.2979554888114917e-02 -1.4673836552285473e-02 0
6.5077354753506089e-01 1.2949354550849848e-01 0
1.9595009858981882e+00 3.9585599245972591e-01 0
-2.9387087472715148e-02 -7.5421598588219932e-03 0
-9.5079690440356107e-02 -1.8013153827888990e-02 0
1.9867207898967307e-01 4.8326692663160149e-02 0
6.4108826089841886e-01 1.2435480338154127e-01 0
1.9867486354881869e-01 4.8326887440029671e-02 0
6.4124506456792296e-01 1.2439640403338922e-01 0
-2.9566571456525470e-02 -7.9515478411948757e-03 0
-9.6447588386105093e-02 -1.8047641411701523e-02 0
7.5530884149589983e-01 2.8575220545797159e-01 0
2.6284090077891333e+00 4.5691589403818161e-01 0
-3.2244044959915723e-02 -1.7301890105167809e-02 0
-1.2919665426836216e-01 -1.9337616046311113e-02 0
2.1777756795695893e-01 1.1289177090064630e-01 0
8.7070407411544171e-01 1.3434585804839605e-01 0
2.1777110072821323e-01 1.1277629446739175e-01 0
8.7086518391890788e-01 1.3443002075111496e-01 0
-3.3054057836997698e-02 -1.7864258299764405e-02 0
-1.3163401600710678e-01 -1.9458983509133110e-02 0
8.4865735578416279e-01 3.2265340382187924e-01 0
3.6218255315443231e+00 5.8763492970654618e-01 0
-5.3757686553230627e-02 -1.5165986912339684e-02 0
-1.8598138189381200e-01 -2.9029978460834951e-02 0
3.5997052834740922e-01 8.7891399680065582e-02 0
1.2469247743526435e+00 2.0235908749125095e-01 0
3.5982215584780813e-01 8.7430930770058604e-02 0
1.2468690055996561e+00 2.0254727767118616e-01 0
-5.5550272057189577e-02 -1.9149898827846967e-02 0
-1.9134265924863494e-01 -2.7873886272014661e-02 0
1.7514719951667466e+00 1.1431911506155015e+00 0
5.4614349487342775e+00 6.0386271870021069e-01 0
-8.2988235375740946e-02 -1.0294592328439321e-01 0
-2.9974360737328898e-01 -4.7164499912632487e-03 0
6.4407108488248288e-01 6.7872277209856458e-01 0
2.0760027118199162e+00 1.1735799071703991e-01 0
3.0040535256065670e-01 3.4554225610215311e-01 0
1.6369952315253937e+00 7.6518932085775093e-02 0
3.3669750693404414e+00 3.1317919084062380e+00 0
4.0083164298700495e+00 5.2977420810319786e-01 0
2.2661454031103712e-01 3.4944408418278133e-01 0
2.3635201239304755e+00 2.5327090132894954e+00 0
1.3544109374790703e+00 2.2081729697102812e+00 0
1.1579968070790030e+00 2.3036951342252223e+00 0
2.2973804466607373e+00 1.2841535050841160e+00 0
4.4077180794078574e-01 -1.4452613463035996e-01 0

