# vtk DataFile Version 2.0

ASCII

DATASET UNSTRUCTURED_GRID

POINTS 106 float 

-5.0000000000000003e-02  0.0000000000000000e+00  0.0000000000000000e+00
5.0000000000000003e-02  0.0000000000000000e+00  0.0000000000000000e+00
-5.0000000000000003e-02  2.0000000000000000e-02  0.0000000000000000e+00
5.0000000000000003e-02  2.0000000000000000e-02  0.0000000000000000e+00
-5.0000000000000003e-02  4.0000000000000001e-02  0.0000000000000000e+00
5.0000000000000003e-02  4.0000000000000001e-02  0.0000000000000000e+00
-5.0000000000000003e-02  5.9999999999999998e-02  0.0000000000000000e+00
5.0000000000000003e-02  5.9999999999999998e-02  0.0000000000000000e+00
-5.0000000000000003e-02  8.0000000000000002e-02  0.0000000000000000e+00
5.0000000000000003e-02  8.0000000000000002e-02  0.0000000000000000e+00
-5.0000000000000003e-02  1.0000000000000001e-01  0.0000000000000000e+00
5.0000000000000003e-02  1.0000000000000001e-01  0.0000000000000000e+00
-5.0000000000000003e-02  1.2000000000000000e-01  0.0000000000000000e+00
5.0000000000000003e-02  1.2000000000000000e-01  0.0000000000000000e+00
-5.0000000000000003e-02  1.4000000000000001e-01  0.0000000000000000e+00
5.0000000000000003e-02  1.4000000000000001e-01  0.0000000000000000e+00
-5.0000000000000003e-02  1.6000000000000000e-01  0.0000000000000000e+00
5.0000000000000003e-02  1.6000000000000000e-01  0.0000000000000000e+00
-5.0000000000000003e-02  1.7999999999999999e-01  0.0000000000000000e+00
5.0000000000000003e-02  1.7999999999999999e-01  0.0000000000000000e+00
-5.0000000000000003e-02  2.0000000000000001e-01  0.0000000000000000e+00
5.0000000000000003e-02  2.0000000000000001e-01  0.0000000000000000e+00
-5.0000000000000003e-02  2.2000000000000000e-01  0.0000000000000000e+00
5.0000000000000003e-02  2.2000000000000000e-01  0.0000000000000000e+00
-5.0000000000000003e-02  2.3999999999999999e-01  0.0000000000000000e+00
5.0000000000000003e-02  2.3999999999999999e-01  0.0000000000000000e+00
-5.0000000000000003e-02  2.6000000000000001e-01  0.0000000000000000e+00
5.0000000000000003e-02  2.6000000000000001e-01  0.0000000000000000e+00
-5.0000000000000003e-02  2.8000000000000003e-01  0.0000000000000000e+00
5.0000000000000003e-02  2.8000000000000003e-01  0.0000000000000000e+00
-5.0000000000000003e-02  2.9999999999999999e-01  0.0000000000000000e+00
5.0000000000000003e-02  2.9999999999999999e-01  0.0000000000000000e+00
-5.0000000000000003e-02  3.2000000000000001e-01  0.0000000000000000e+00
5.0000000000000003e-02  3.2000000000000001e-01  0.0000000000000000e+00
-5.0000000000000003e-02  3.4000000000000002e-01  0.0000000000000000e+00
5.0000000000000003e-02  3.4000000000000002e-01  0.0000000000000000e+00
-5.0000000000000003e-02  3.5999999999999999e-01  0.0000000000000000e+00
5.0000000000000003e-02  3.5999999999999999e-01  0.0000000000000000e+00
-5.0000000000000003e-02  3.8000000000000000e-01  0.0000000000000000e+00
5.0000000000000003e-02  3.8000000000000000e-01  0.0000000000000000e+00
-5.0000000000000003e-02  4.0000000000000002e-01  0.0000000000000000e+00
5.0000000000000003e-02  4.0000000000000002e-01  0.0000000000000000e+00
-5.0000000000000003e-02  4.1999999999999998e-01  0.0000000000000000e+00
5.0000000000000003e-02  4.1999999999999998e-01  0.0000000000000000e+00
-5.0000000000000003e-02  4.4000000000000000e-01  0.0000000000000000e+00
5.0000000000000003e-02  4.4000000000000000e-01  0.0000000000000000e+00
-5.0000000000000003e-02  4.6000000000000002e-01  0.0000000000000000e+00
5.0000000000000003e-02  4.6000000000000002e-01  0.0000000000000000e+00
-5.0000000000000003e-02  4.7999999999999998e-01  0.0000000000000000e+00
5.0000000000000003e-02  4.7999999999999998e-01  0.0000000000000000e+00
-5.0000000000000003e-02  5.0000000000000000e-01  0.0000000000000000e+00
5.0000000000000003e-02  5.0000000000000000e-01  0.0000000000000000e+00
-5.0000000000000003e-02  5.2000000000000002e-01  0.0000000000000000e+00
5.0000000000000003e-02  5.2000000000000002e-01  0.0000000000000000e+00
-5.0000000000000003e-02  5.4000000000000004e-01  0.0000000000000000e+00
5.0000000000000003e-02  5.4000000000000004e-01  0.0000000000000000e+00
-5.0000000000000003e-02  5.6000000000000005e-01  0.0000000000000000e+00
5.0000000000000003e-02  5.6000000000000005e-01  0.0000000000000000e+00
-5.0000000000000003e-02  5.7999999999999996e-01  0.0000000000000000e+00
5.0000000000000003e-02  5.7999999999999996e-01  0.0000000000000000e+00
-5.0000000000000003e-02  5.9999999999999998e-01  0.0000000000000000e+00
5.0000000000000003e-02  5.9999999999999998e-01  0.0000000000000000e+00
-5.0000000000000003e-02  6.2000000000000000e-01  0.0000000000000000e+00
5.0000000000000003e-02  6.2000000000000000e-01  0.0000000000000000e+00
-5.0000000000000003e-02  6.4000000000000001e-01  0.0000000000000000e+00
5.0000000000000003e-02  6.4000000000000001e-01  0.0000000000000000e+00
-5.0000000000000003e-02  6.6000000000000003e-01  0.0000000000000000e+00
5.0000000000000003e-02  6.6000000000000003e-01  0.0000000000000000e+00
-5.0000000000000003e-02  6.8000000000000005e-01  0.0000000000000000e+00
5.0000000000000003e-02  6.8000000000000005e-01  0.0000000000000000e+00
-5.0000000000000003e-02  6.9999999999999996e-01  0.0000000000000000e+00
5.0000000000000003e-02  6.9999999999999996e-01  0.0000000000000000e+00
-5.0000000000000003e-02  7.1999999999999997e-01  0.0000000000000000e+00
5.0000000000000003e-02  7.1999999999999997e-01  0.0000000000000000e+00
-5.0000000000000003e-02  7.3999999999999999e-01  0.0000000000000000e+00
5.0000000000000003e-02  7.3999999999999999e-01  0.0000000000000000e+00
-5.0000000000000003e-02  7.6000000000000001e-01  0.0000000000000000e+00
5.0000000000000003e-02  7.6000000000000001e-01  0.0000000000000000e+00
-5.0000000000000003e-02  7.8000000000000003e-01  0.0000000000000000e+00
5.0000000000000003e-02  7.8000000000000003e-01  0.0000000000000000e+00
-5.0000000000000003e-02  8.0000000000000004e-01  0.0000000000000000e+00
5.0000000000000003e-02  8.0000000000000004e-01  0.0000000000000000e+00
-5.0000000000000003e-02  8.1999999999999995e-01  0.0000000000000000e+00
5.0000000000000003e-02  8.1999999999999995e-01  0.0000000000000000e+00
-5.0000000000000003e-02  8.3999999999999997e-01  0.0000000000000000e+00
5.0000000000000003e-02  8.3999999999999997e-01  0.0000000000000000e+00
-5.0000000000000003e-02  8.5999999999999999e-01  0.0000000000000000e+00
5.0000000000000003e-02  8.5999999999999999e-01  0.0000000000000000e+00
-5.0000000000000003e-02  8.8000000000000000e-01  0.0000000000000000e+00
5.0000000000000003e-02  8.8000000000000000e-01  0.0000000000000000e+00
-5.0000000000000003e-02  9.0000000000000002e-01  0.0000000000000000e+00
5.0000000000000003e-02  9.0000000000000002e-01  0.0000000000000000e+00
-5.0000000000000003e-02  9.2000000000000004e-01  0.0000000000000000e+00
5.0000000000000003e-02  9.2000000000000004e-01  0.0000000000000000e+00
-5.0000000000000003e-02  9.3999999999999995e-01  0.0000000000000000e+00
5.0000000000000003e-02  9.3999999999999995e-01  0.0000000000000000e+00
-5.0000000000000003e-02  9.5999999999999996e-01  0.0000000000000000e+00
5.0000000000000003e-02  9.5999999999999996e-01  0.0000000000000000e+00
-5.0000000000000003e-02  9.7999999999999998e-01  0.0000000000000000e+00
5.0000000000000003e-02  9.7999999999999998e-01  0.0000000000000000e+00
-5.0000000000000003e-02  1.0000000000000000e+00  0.0000000000000000e+00
-3.0000000000000002e-02  1.0000000000000000e+00  0.0000000000000000e+00
-1.0000000000000002e-02  1.0000000000000000e+00  0.0000000000000000e+00
1.0000000000000009e-02  1.0000000000000000e+00  0.0000000000000000e+00
2.9999999999999999e-02  1.0000000000000000e+00  0.0000000000000000e+00
5.0000000000000003e-02  1.0000000000000000e+00  0.0000000000000000e+00

CELLS 0 0


CELL_TYPES 0


POINT_DATA 106

VECTORS VertexNormals float

0.0000000000000000e+00 0.0000000000000000e+00 0
0.0000000000000000e+00 0.0000000000000000e+00 0
0.0000000000000000e+00 0.0000000000000000e+00 0
0.0000000000000000e+00 0.0000000000000000e+00 0
0.0000000000000000e+00 0.0000000000000000e+00 0
0.0000000000000000e+00 0.0000000000000000e+00 0
0.0000000000000000e+00 0.0000000000000000e+00 0
0.0000000000000000e+00 0.0000000000000000e+00 0
0.0000000000000000e+00 0.0000000000000000e+00 0
0.0000000000000000e+00 0.0000000000000000e+00 0
0.0000000000000000e+00 0.0000000000000000e+00 0
0.0000000000000000e+00 0.0000000000000000e+00 0
0.0000000000000000e+00 0.0000000000000000e+00 0
0.0000000000000000e+00 0.0000000000000000e+00 0
0.0000000000000000e+00 0.0000000000000000e+00 0
0.0000000000000000e+00 0.0000000000000000e+00 0
0.0000000000000000e+00 0.0000000000000000e+00 0
0.0000000000000000e+00 0.0000000000000000e+00 0
0.0000000000000000e+00 0.0000000000000000e+00 0
0.0000000000000000e+00 0.0000000000000000e+00 0
0.0000000000000000e+00 0.0000000000000000e+00 0
0.0000000000000000e+00 0.0000000000000000e+00 0
0.0000000000000000e+00 0.0000000000000000e+00 0
0.0000000000000000e+00 0.0000000000000000e+00 0
0.0000000000000000e+00 0.0000000000000000e+00 0
0.0000000000000000e+00 0.0000000000000000e+00 0
0.0000000000000000e+00 0.0000000000000000e+00 0
0.0000000000000000e+00 0.0000000000000000e+00 0
0.0000000000000000e+00 0.0000000000000000e+00 0
0.0000000000000000e+00 0.0000000000000000e+00 0
0.0000000000000000e+00 0.0000000000000000e+00 0
0.0000000000000000e+00 0.0000000000000000e+00 0
0.0000000000000000e+00 0.0000000000000000e+00 0
0.0000000000000000e+00 0.0000000000000000e+00 0
0.0000000000000000e+00 0.0000000000000000e+00 0
0.0000000000000000e+00 0.0000000000000000e+00 0
0.0000000000000000e+00 0.0000000000000000e+00 0
0.0000000000000000e+00 0.0000000000000000e+00 0
0.0000000000000000e+00 0.0000000000000000e+00 0
0.0000000000000000e+00 0.0000000000000000e+00 0
0.0000000000000000e+00 0.0000000000000000e+00 0
0.0000000000000000e+00 0.0000000000000000e+00 0
0.0000000000000000e+00 0.0000000000000000e+00 0
0.0000000000000000e+00 0.0000000000000000e+00 0
0.0000000000000000e+00 0.0000000000000000e+00 0
0.0000000000000000e+00 0.0000000000000000e+00 0
0.0000000000000000e+00 0.0000000000000000e+00 0
0.0000000000000000e+00 0.0000000000000000e+00 0
0.0000000000000000e+00 0.0000000000000000e+00 0
0.0000000000000000e+00 0.0000000000000000e+00 0
0.0000000000000000e+00 0.0000000000000000e+00 0
0.0000000000000000e+00 0.0000000000000000e+00 0
0.0000000000000000e+00 0.0000000000000000e+00 0
0.0000000000000000e+00 0.0000000000000000e+00 0
0.0000000000000000e+00 0.0000000000000000e+00 0
0.0000000000000000e+00 0.0000000000000000e+00 0
0.0000000000000000e+00 0.0000000000000000e+00 0
0.0000000000000000e+00 0.0000000000000000e+00 0
0.0000000000000000e+00 0.0000000000000000e+00 0
0.0000000000000000e+00 0.0000000000000000e+00 0
0.0000000000000000e+00 0.0000000000000000e+00 0
0.0000000000000000e+00 0.0000000000000000e+00 0
0.0000000000000000e+00 0.0000000000000000e+00 0
0.0000000000000000e+00 0.0000000000000000e+00 0
0.0000000000000000e+00 0.0000000000000000e+00 0
0.0000000000000000e+00 0.0000000000000000e+00 0
0.0000000000000000e+00 0.0000000000000000e+00 0
0.0000000000000000e+00 0.0000000000000000e+00 0
0.0000000000000000e+00 0.0000000000000000e+00 0
0.0000000000000000e+00 0.0000000000000000e+00 0
0.0000000000000000e+00 0.0000000000000000e+00 0
0.0000000000000000e+00 0.0000000000000000e+00 0
0.0000000000000000e+00 0.0000000000000000e+00 0
0.0000000000000000e+00 0.0000000000000000e+00 0
0.0000000000000000e+00 0.0000000000000000e+00 0
0.0000000000000000e+00 0.0000000000000000e+00 0
0.0000000000000000e+00 0.0000000000000000e+00 0
0.0000000000000000e+00 0.0000000000000000e+00 0
0.0000000000000000e+00 0.0000000000000000e+00 0
0.0000000000000000e+00 0.0000000000000000e+00 0
0.0000000000000000e+00 0.0000000000000000e+00 0
0.0000000000000000e+00 0.0000000000000000e+00 0
0.0000000000000000e+00 0.0000000000000000e+00 0
0.0000000000000000e+00 0.0000000000000000e+00 0
0.0000000000000000e+00 0.0000000000000000e+00 0
0.0000000000000000e+00 0.0000000000000000e+00 0
0.0000000000000000e+00 0.0000000000000000e+00 0
0.0000000000000000e+00 0.0000000000000000e+00 0
0.0000000000000000e+00 0.0000000000000000e+00 0
0.0000000000000000e+00 0.0000000000000000e+00 0
0.0000000000000000e+00 0.0000000000000000e+00 0
0.0000000000000000e+00 0.0000000000000000e+00 0
0.0000000000000000e+00 0.0000000000000000e+00 0
0.0000000000000000e+00 0.0000000000000000e+00 0
0.0000000000000000e+00 0.0000000000000000e+00 0
0.0000000000000000e+00 0.0000000000000000e+00 0
0.0000000000000000e+00 0.0000000000000000e+00 0
0.0000000000000000e+00 0.0000000000000000e+00 0
0.0000000000000000e+00 0.0000000000000000e+00 0
0.0000000000000000e+00 0.0000000000000000e+00 0
0.0000000000000000e+00 0.0000000000000000e+00 0
0.0000000000000000e+00 0.0000000000000000e+00 0
0.0000000000000000e+00 0.0000000000000000e+00 0
0.0000000000000000e+00 0.0000000000000000e+00 0
0.0000000000000000e+00 0.0000000000000000e+00 0
0.0000000000000000e+00 0.0000000000000000e+00 0

VECTORS Displacements1 float
0.0000000000000000e+00 0.0000000000000000e+00 0
0.0000000000000000e+00 0.0000000000000000e+00 0
0.0000000000000000e+00 0.0000000000000000e+00 0
0.0000000000000000e+00 0.0000000000000000e+00 0
0.0000000000000000e+00 0.0000000000000000e+00 0
0.0000000000000000e+00 0.0000000000000000e+00 0
0.0000000000000000e+00 0.0000000000000000e+00 0
0.0000000000000000e+00 0.0000000000000000e+00 0
0.0000000000000000e+00 0.0000000000000000e+00 0
0.0000000000000000e+00 0.0000000000000000e+00 0
0.0000000000000000e+00 0.0000000000000000e+00 0
0.0000000000000000e+00 0.0000000000000000e+00 0
0.0000000000000000e+00 0.0000000000000000e+00 0
0.0000000000000000e+00 0.0000000000000000e+00 0
0.0000000000000000e+00 0.0000000000000000e+00 0
0.0000000000000000e+00 0.0000000000000000e+00 0
0.0000000000000000e+00 0.0000000000000000e+00 0
0.0000000000000000e+00 0.0000000000000000e+00 0
0.0000000000000000e+00 0.0000000000000000e+00 0
0.0000000000000000e+00 0.0000000000000000e+00 0
0.0000000000000000e+00 0.0000000000000000e+00 0
0.0000000000000000e+00 0.0000000000000000e+00 0
0.0000000000000000e+00 0.0000000000000000e+00 0
0.0000000000000000e+00 0.0000000000000000e+00 0
0.0000000000000000e+00 0.0000000000000000e+00 0
0.0000000000000000e+00 0.0000000000000000e+00 0
0.0000000000000000e+00 0.0000000000000000e+00 0
0.0000000000000000e+00 0.0000000000000000e+00 0
0.0000000000000000e+00 0.0000000000000000e+00 0
0.0000000000000000e+00 0.0000000000000000e+00 0
0.0000000000000000e+00 0.0000000000000000e+00 0
0.0000000000000000e+00 0.0000000000000000e+00 0
0.0000000000000000e+00 0.0000000000000000e+00 0
0.0000000000000000e+00 0.0000000000000000e+00 0
0.0000000000000000e+00 0.0000000000000000e+00 0
0.0000000000000000e+00 0.0000000000000000e+00 0
0.0000000000000000e+00 0.0000000000000000e+00 0
0.0000000000000000e+00 0.0000000000000000e+00 0
0.0000000000000000e+00 0.0000000000000000e+00 0
0.0000000000000000e+00 0.0000000000000000e+00 0
0.0000000000000000e+00 0.0000000000000000e+00 0
0.0000000000000000e+00 0.0000000000000000e+00 0
0.0000000000000000e+00 0.0000000000000000e+00 0
0.0000000000000000e+00 0.0000000000000000e+00 0
0.0000000000000000e+00 0.0000000000000000e+00 0
0.0000000000000000e+00 0.0000000000000000e+00 0
0.0000000000000000e+00 0.0000000000000000e+00 0
0.0000000000000000e+00 0.0000000000000000e+00 0
0.0000000000000000e+00 0.0000000000000000e+00 0
0.0000000000000000e+00 0.0000000000000000e+00 0
0.0000000000000000e+00 0.0000000000000000e+00 0
0.0000000000000000e+00 0.0000000000000000e+00 0
0.0000000000000000e+00 0.0000000000000000e+00 0
0.0000000000000000e+00 0.0000000000000000e+00 0
0.0000000000000000e+00 0.0000000000000000e+00 0
0.0000000000000000e+00 0.0000000000000000e+00 0
0.0000000000000000e+00 0.0000000000000000e+00 0
0.0000000000000000e+00 0.0000000000000000e+00 0
0.0000000000000000e+00 0.0000000000000000e+00 0
0.0000000000000000e+00 0.0000000000000000e+00 0
0.0000000000000000e+00 0.0000000000000000e+00 0
0.0000000000000000e+00 0.0000000000000000e+00 0
0.0000000000000000e+00 0.0000000000000000e+00 0
0.0000000000000000e+00 0.0000000000000000e+00 0
0.0000000000000000e+00 0.0000000000000000e+00 0
0.0000000000000000e+00 0.0000000000000000e+00 0
0.0000000000000000e+00 0.0000000000000000e+00 0
0.0000000000000000e+00 0.0000000000000000e+00 0
0.0000000000000000e+00 0.0000000000000000e+00 0
0.0000000000000000e+00 0.0000000000000000e+00 0
0.0000000000000000e+00 0.0000000000000000e+00 0
0.0000000000000000e+00 0.0000000000000000e+00 0
0.0000000000000000e+00 0.0000000000000000e+00 0
0.0000000000000000e+00 0.0000000000000000e+00 0
0.0000000000000000e+00 0.0000000000000000e+00 0
0.0000000000000000e+00 0.0000000000000000e+00 0
0.0000000000000000e+00 0.0000000000000000e+00 0
0.0000000000000000e+00 0.0000000000000000e+00 0
0.0000000000000000e+00 0.0000000000000000e+00 0
0.0000000000000000e+00 0.0000000000000000e+00 0
0.0000000000000000e+00 0.0000000000000000e+00 0
0.0000000000000000e+00 0.0000000000000000e+00 0
0.0000000000000000e+00 0.0000000000000000e+00 0
0.0000000000000000e+00 0.0000000000000000e+00 0
0.0000000000000000e+00 0.0000000000000000e+00 0
0.0000000000000000e+00 0.0000000000000000e+00 0
0.0000000000000000e+00 0.0000000000000000e+00 0
0.0000000000000000e+00 0.0000000000000000e+00 0
0.0000000000000000e+00 0.0000000000000000e+00 0
0.0000000000000000e+00 0.0000000000000000e+00 0
0.0000000000000000e+00 0.0000000000000000e+00 0
0.0000000000000000e+00 0.0000000000000000e+00 0
0.0000000000000000e+00 0.0000000000000000e+00 0
0.0000000000000000e+00 0.0000000000000000e+00 0
0.0000000000000000e+00 0.0000000000000000e+00 0
0.0000000000000000e+00 0.0000000000000000e+00 0
0.0000000000000000e+00 0.0000000000000000e+00 0
0.0000000000000000e+00 0.0000000000000000e+00 0
0.0000000000000000e+00 0.0000000000000000e+00 0
0.0000000000000000e+00 0.0000000000000000e+00 0
0.0000000000000000e+00 0.0000000000000000e+00 0
0.0000000000000000e+00 0.0000000000000000e+00 0
0.0000000000000000e+00 0.0000000000000000e+00 0
0.0000000000000000e+00 0.0000000000000000e+00 0
0.0000000000000000e+00 0.0000000000000000e+00 0
0.0000000000000000e+00 0.0000000000000000e+00 0

VECTORS Displacements2 float
0.0000000000000000e+00 0.0000000000000000e+00 0
0.0000000000000000e+00 0.0000000000000000e+00 0
0.0000000000000000e+00 0.0000000000000000e+00 0
0.0000000000000000e+00 0.0000000000000000e+00 0
0.0000000000000000e+00 0.0000000000000000e+00 0
0.0000000000000000e+00 0.0000000000000000e+00 0
0.0000000000000000e+00 0.0000000000000000e+00 0
0.0000000000000000e+00 0.0000000000000000e+00 0
0.0000000000000000e+00 0.0000000000000000e+00 0
0.0000000000000000e+00 0.0000000000000000e+00 0
0.0000000000000000e+00 0.0000000000000000e+00 0
0.0000000000000000e+00 0.0000000000000000e+00 0
0.0000000000000000e+00 0.0000000000000000e+00 0
0.0000000000000000e+00 0.0000000000000000e+00 0
0.0000000000000000e+00 0.0000000000000000e+00 0
0.0000000000000000e+00 0.0000000000000000e+00 0
0.0000000000000000e+00 0.0000000000000000e+00 0
0.0000000000000000e+00 0.0000000000000000e+00 0
0.0000000000000000e+00 0.0000000000000000e+00 0
0.0000000000000000e+00 0.0000000000000000e+00 0
0.0000000000000000e+00 0.0000000000000000e+00 0
0.0000000000000000e+00 0.0000000000000000e+00 0
0.0000000000000000e+00 0.0000000000000000e+00 0
0.0000000000000000e+00 0.0000000000000000e+00 0
0.0000000000000000e+00 0.0000000000000000e+00 0
0.0000000000000000e+00 0.0000000000000000e+00 0
0.0000000000000000e+00 0.0000000000000000e+00 0
0.0000000000000000e+00 0.0000000000000000e+00 0
0.0000000000000000e+00 0.0000000000000000e+00 0
0.0000000000000000e+00 0.0000000000000000e+00 0
0.0000000000000000e+00 0.0000000000000000e+00 0
0.0000000000000000e+00 0.0000000000000000e+00 0
0.0000000000000000e+00 0.0000000000000000e+00 0
0.0000000000000000e+00 0.0000000000000000e+00 0
0.0000000000000000e+00 0.0000000000000000e+00 0
0.0000000000000000e+00 0.0000000000000000e+00 0
0.0000000000000000e+00 0.0000000000000000e+00 0
0.0000000000000000e+00 0.0000000000000000e+00 0
0.0000000000000000e+00 0.0000000000000000e+00 0
0.0000000000000000e+00 0.0000000000000000e+00 0
0.0000000000000000e+00 0.0000000000000000e+00 0
0.0000000000000000e+00 0.0000000000000000e+00 0
0.0000000000000000e+00 0.0000000000000000e+00 0
0.0000000000000000e+00 0.0000000000000000e+00 0
0.0000000000000000e+00 0.0000000000000000e+00 0
0.0000000000000000e+00 0.0000000000000000e+00 0
0.0000000000000000e+00 0.0000000000000000e+00 0
0.0000000000000000e+00 0.0000000000000000e+00 0
0.0000000000000000e+00 0.0000000000000000e+00 0
0.0000000000000000e+00 0.0000000000000000e+00 0
0.0000000000000000e+00 0.0000000000000000e+00 0
0.0000000000000000e+00 0.0000000000000000e+00 0
0.0000000000000000e+00 0.0000000000000000e+00 0
0.0000000000000000e+00 0.0000000000000000e+00 0
0.0000000000000000e+00 0.0000000000000000e+00 0
0.0000000000000000e+00 0.0000000000000000e+00 0
0.0000000000000000e+00 0.0000000000000000e+00 0
0.0000000000000000e+00 0.0000000000000000e+00 0
0.0000000000000000e+00 0.0000000000000000e+00 0
0.0000000000000000e+00 0.0000000000000000e+00 0
0.0000000000000000e+00 0.0000000000000000e+00 0
0.0000000000000000e+00 0.0000000000000000e+00 0
0.0000000000000000e+00 0.0000000000000000e+00 0
0.0000000000000000e+00 0.0000000000000000e+00 0
0.0000000000000000e+00 0.0000000000000000e+00 0
0.0000000000000000e+00 0.0000000000000000e+00 0
0.0000000000000000e+00 0.0000000000000000e+00 0
0.0000000000000000e+00 0.0000000000000000e+00 0
0.0000000000000000e+00 0.0000000000000000e+00 0
0.0000000000000000e+00 0.0000000000000000e+00 0
0.0000000000000000e+00 0.0000000000000000e+00 0
0.0000000000000000e+00 0.0000000000000000e+00 0
0.0000000000000000e+00 0.0000000000000000e+00 0
0.0000000000000000e+00 0.0000000000000000e+00 0
0.0000000000000000e+00 0.0000000000000000e+00 0
0.0000000000000000e+00 0.0000000000000000e+00 0
0.0000000000000000e+00 0.0000000000000000e+00 0
0.0000000000000000e+00 0.0000000000000000e+00 0
0.0000000000000000e+00 0.0000000000000000e+00 0
0.0000000000000000e+00 0.0000000000000000e+00 0
0.0000000000000000e+00 0.0000000000000000e+00 0
0.0000000000000000e+00 0.0000000000000000e+00 0
0.0000000000000000e+00 0.0000000000000000e+00 0
0.0000000000000000e+00 0.0000000000000000e+00 0
0.0000000000000000e+00 0.0000000000000000e+00 0
0.0000000000000000e+00 0.0000000000000000e+00 0
0.0000000000000000e+00 0.0000000000000000e+00 0
0.0000000000000000e+00 0.0000000000000000e+00 0
0.0000000000000000e+00 0.0000000000000000e+00 0
0.0000000000000000e+00 0.0000000000000000e+00 0
0.0000000000000000e+00 0.0000000000000000e+00 0
0.0000000000000000e+00 0.0000000000000000e+00 0
0.0000000000000000e+00 0.0000000000000000e+00 0
0.0000000000000000e+00 0.0000000000000000e+00 0
0.0000000000000000e+00 0.0000000000000000e+00 0
0.0000000000000000e+00 0.0000000000000000e+00 0
0.0000000000000000e+00 0.0000000000000000e+00 0
0.0000000000000000e+00 0.0000000000000000e+00 0
0.0000000000000000e+00 0.0000000000000000e+00 0
0.0000000000000000e+00 0.0000000000000000e+00 0
0.0000000000000000e+00 0.0000000000000000e+00 0
0.0000000000000000e+00 0.0000000000000000e+00 0
0.0000000000000000e+00 0.0000000000000000e+00 0
0.0000000000000000e+00 0.0000000000000000e+00 0
0.0000000000000000e+00 0.0000000000000000e+00 0
0.0000000000000000e+00 0.0000000000000000e+00 0

VECTORS Forces1 float
-1.6060005578769681e-06 1.4180601024853907e-06 0
-7.2411874769459640e-06 -3.9506889973205536e-06 0
3.1390743445808892e-05 -1.7785577664172823e-05 0
9.5147013215449177e-05 5.2724009128652531e-05 0
3.4593796217155758e-05 -5.4626877734164961e-06 0
1.0381066074111035e-04 1.6257930172991603e-05 0
2.1896014208837261e-05 8.8641620361221901e-07 0
6.5967593395323872e-05 -2.7049401905165673e-06 0
-3.3033411586656978e-06 -1.3878935219790204e-07 0
-9.9627038845870714e-06 3.6360427651652408e-07 0
8.2073732418799016e-05 -7.7170114331269478e-07 0
2.5243763632273544e-04 1.0253709446223365e-06 0
-3.3930404405448490e-06 5.3788973929669218e-08 0
-1.0761418126560638e-05 -7.3847221135406297e-08 0
2.2806064569422662e-05 -5.0958006256353743e-07 0
7.2188678840491991e-05 6.4555839340732932e-07 0
2.2808050686173462e-05 -5.0999470552841457e-07 0
7.2195423208294061e-05 6.4819700743478671e-07 0
-3.3839573154333446e-06 6.2439760848228135e-08 0
-1.0779754594438077e-05 -8.4842471080664709e-08 0
7.8173173539634904e-05 -2.9399772016753656e-06 0
2.5784471886705022e-04 3.7053160761805948e-06 0
-3.2084435194114412e-06 1.5663081471037380e-07 0
-1.1121296563604126e-05 -2.0272732997301082e-07 0
2.1589424062237524e-05 -1.1682808993937595e-06 0
7.4601207124113460e-05 1.4779165218876570e-06 0
2.1588285603762585e-05 -1.1689279358487513e-06 0
7.4604487889933280e-05 1.4788809180487370e-06 0
-3.1986181764068660e-06 1.6007635131345242e-07 0
-1.1143514566881607e-05 -2.0732385628867067e-07 0
7.3413124763823252e-05 -4.9935952397175099e-06 0
2.6967572959184894e-04 6.5380090181264030e-06 0
-2.9769354470260278e-06 2.2639895858845279e-07 0
-1.1757974881213455e-05 -3.1210520589663136e-07 0
2.0047558815747504e-05 -1.6369345236824611e-06 0
7.8918639430365908e-05 2.2196562276727960e-06 0
2.0045996651203632e-05 -1.6376172190176152e-06 0
7.8923478611417374e-05 2.2206931831131591e-06 0
-2.9644761990599237e-06 2.2761462560405541e-07 0
-1.1794792641160437e-05 -3.1535621714712944e-07 0
6.7103733702608039e-05 -6.2353500613497209e-06 0
2.8845730131413580e-04 8.9277297879636938e-06 0
-2.6715546490608429e-06 2.5755906740931738e-07 0
-1.2712321301410802e-05 -3.9881549177941899e-07 0
1.8012559261802087e-05 -1.8550339958992265e-06 0
8.5360721080838983e-05 2.8163238656746966e-06 0
1.8010506367579959e-05 -1.8556735056759732e-06 0
8.5367327344541174e-05 2.8173894716479386e-06 0
-2.6545563247407150e-06 2.5541308127552223e-07 0
-1.2765782946928857e-05 -3.9961100666704756e-07 0
5.8840948243621935e-05 -6.1558368904543334e-06 0
3.1545642923102771e-04 1.0411483272258497e-05 0
-2.2520003133942286e-06 2.1644884849532389e-07 0
-1.4036098618216794e-05 -4.3259083086969418e-07 0
1.5218527470311460e-05 -1.5968555169253298e-06 0
9.4272950735407795e-05 3.0660255211735559e-06 0
1.5216248968286815e-05 -1.5978426087929494e-06 0
9.4281692672918847e-05 3.0674787773398375e-06 0
-2.2306071838403890e-06 2.1096937454795654e-07 0
-1.4112986809962334e-05 -4.3106659652967987e-07 0
4.7592028781631722e-05 -5.4065078342707575e-06 0
3.5230366506622062e-04 1.1631144120364908e-05 0
-1.7837254400567666e-06 1.7060725765775546e-07 0
-1.5922705660571098e-05 -4.7811983268538261e-07 0
1.2133693548396589e-05 -1.3450008491353921e-06 0
1.0695554302679100e-04 3.4285392786661032e-06 0
1.2131149440638627e-05 -1.3463316558245325e-06 0
1.0696597000161225e-04 3.4302035004590188e-06 0
-1.7546216200561106e-06 1.5343272643538881e-07 0
-1.6034438616890596e-05 -4.6762763199159066e-07 0
3.6490311772545448e-05 -3.5940840366755047e-07 0
4.0610649549859288e-04 9.4059831326278679e-06 0
-1.0933447553455266e-06 -2.0794767526341895e-07 0
-1.8500399888145413e-05 -2.4805012060155625e-07 0
7.5624898967363094e-06 1.1101343566536925e-06 0
1.2416194175744847e-04 1.9524489767802240e-06 0
7.5603862327251471e-06 1.1022424488726549e-06 0
1.2416926498069048e-04 1.9573548434304883e-06 0
-1.0928650479721966e-06 -2.3942118809323644e-07 0
-1.8716844661457973e-05 -2.3545829433258534e-07 0
2.0956105698716551e-05 -6.0550331385503065e-07 0
4.8081177197131233e-04 1.2735162903483411e-05 0
-1.5191846967534785e-06 -1.2744260529217484e-07 0
-2.3377660211941899e-05 -4.9836386626562463e-07 0
1.0464637025336728e-05 -5.4418978609651479e-08 0
1.5616756479705502e-04 3.9245856273437888e-06 0
1.0470885905490827e-05 -8.7423092228254459e-08 0
1.5613185624197863e-04 3.9360574438696879e-06 0
-1.5079897567722879e-06 -3.6623746032976366e-07 0
-2.3942686669557510e-05 -3.4095574274656654e-07 0
5.5561064336682661e-05 4.3011663375258451e-05 0
6.4771762101583307e-04 -2.0222478697492921e-05 0
-2.0400140483334659e-06 -4.7968148537188006e-06 0
-3.3622633564401630e-05 3.3989468447504016e-06 0
2.4731380096438564e-05 3.0155278508400609e-05 0
2.2787524623319561e-04 -1.7734578854251221e-05 0
2.9969594976405502e-06 1.0990812128626836e-05 0
1.7951870217986231e-04 -1.5461282724912448e-05 0
2.2318737800695743e-04 1.8044204391603715e-04 0
4.3675338110125110e-04 -9.1752599764776060e-06 0
5.0537531709138968e-06 2.0674496028620707e-05 0
1.6869409384607321e-04 1.6072297599382796e-04 0
1.3777682279308355e-04 1.5660985861104014e-04 0
1.2476457251311588e-04 1.6510946989832791e-04 0
2.6975097728567743e-04 7.3435630869069174e-05 0
5.3375162258301477e-05 -1.5947541536451405e-05 0

VECTORS Forces2 float
-1.5286944417715255e-05 1.0073984693266450e-05 0
-1.8490296159336059e-05 -1.0455952942161112e-05 0
2.3024539065761153e-04 -1.2875108259372361e-04 0
2.5535462184478612e-04 1.4188781989873410e-04 0
2.5202617627786132e-04 -3.9555964374747095e-05 0
2.7925083359913019e-04 4.3845260680689563e-05 0
1.5988723338050535e-04 6.5697524395183411e-06 0
1.7737771297688992e-04 -7.1989829300742506e-06 0
-2.4106134933842151e-05 -9.3502866320788237e-07 0
-2.6820752598610528e-05 9.9514938149595568e-07 0
6.0603997187903694e-04 -3.1142931969905702e-06 0
6.7814389402565285e-04 4.1046346181464830e-06 0
-2.5430582367783844e-05 2.2068244472172224e-07 0
-2.8928999710160667e-05 -2.9290702382730756e-07 0
1.7084439484911759e-04 -2.0802589028121585e-06 0
1.9397512827857384e-04 2.5479711462329567e-06 0
1.7085740794170760e-04 -2.0853340175329953e-06 0
1.9399613307258804e-04 2.5548136093248208e-06 0
-2.5425872186236853e-05 2.5807638550799102e-07 0
-2.8971577209276054e-05 -3.3235376533597994e-07 0
5.9775421778248414e-04 -1.1985712713380463e-05 0
6.9362181851081962e-04 1.4631223868848448e-05 0
-2.5123422860761767e-05 6.3918304732989951e-07 0
-3.0004013984065322e-05 -8.0025984632618203e-07 0
1.6878266669152935e-04 -4.7545064608794541e-06 0
2.0128226663659540e-04 5.8429622460440129e-06 0
1.6878130474306648e-04 -4.7572504241380426e-06 0
2.0129267045667428e-04 5.8466824724004605e-06 0
-2.5109154894062416e-05 6.5283745943915086e-07 0
-3.0072065833930104e-05 -8.1876935424529672e-07 0
5.9141768907513496e-04 -2.0330323695098683e-05 0
7.3031808255069575e-04 2.5850755146213388e-05 0
-2.4857006333688591e-05 9.2344950041691376e-07 0
-3.1997262517408282e-05 -1.2333391697785702e-06 0
1.6706031224073724e-04 -6.6685047358524113e-06 0
2.1482503391220570e-04 8.7761067141221093e-06 0
1.6705857913119253e-04 -6.6713494782581207e-06 0
2.1484056412553374e-04 8.7801541778608103e-06 0
-2.4845080779308291e-05 9.2837334840298309e-07 0
-3.2112687580103117e-05 -1.2462963545709154e-06 0
5.8505136316835602e-04 -2.5446749274800536e-05 0
7.8957190051713534e-04 3.5280636892581820e-05 0
-2.4577305874241749e-05 1.0545422908670129e-06 0
-3.5019299964687073e-05 -1.5745924639017002e-06 0
1.6524724115199652e-04 -7.5872079296171213e-06 0
2.3525571994410663e-04 1.1122568973192896e-05 0
1.6524495738056092e-04 -7.5898639805825691e-06 0
2.3527713846729204e-04 1.1126745969291585e-05 0
-2.4562859607969901e-05 1.0461517369028381e-06 0
-3.5187672630740684e-05 -1.5776049964742430e-06 0
5.7812190081451696e-04 -2.5308132570211040e-05 0
8.7544108521795294e-04 4.1059027477465772e-05 0
-2.4182544363344247e-05 8.9819645476133617e-07 0
-3.9221541673435499e-05 -1.7025882478773964e-06 0
1.6267075330411658e-04 -6.6109555197556339e-06 0
2.6359101798411721e-04 1.2071809980406887e-05 0
1.6266888061753788e-04 -6.6149708017428678e-06 0
2.6361992258645530e-04 1.2077570196451159e-05 0
-2.4171246107753225e-05 8.7671501629359894e-07 0
-3.9465124474625800e-05 -1.6960832731326284e-06 0
5.6823588701243773e-04 -2.2543082400788040e-05 0
9.9281992613065874e-04 4.5731301825253972e-05 0
-2.4028026978045412e-05 7.2621158288810135e-07 0
-4.5289547529927389e-05 -1.8744717902554096e-06 0
1.6180575912624987e-04 -5.6795777681411814e-06 0
3.0446668024462987e-04 1.3453842734003100e-05 0
1.6180332908451742e-04 -5.6847451737111005e-06 0
3.0450211830774143e-04 1.3460674747848451e-05 0
-2.4017892428994809e-05 6.5890130015045995e-07 0
-4.5643069653282541e-05 -1.8311409869890778e-06 0
5.7081332547857116e-04 -2.6735393847721591e-06 0
1.1674114615611499e-03 3.6544009694638905e-05 0
-2.3612318345736477e-05 -7.6993667411921764e-07 0
-5.3553046894261322e-05 -9.3748990471212499e-07 0
1.5907803373752934e-04 4.0384077634550766e-06 0
3.5974826647006662e-04 7.4566410502923351e-06 0
1.5907248891520355e-04 4.0095028438862401e-06 0
3.5977655377365559e-04 7.4789646200581868e-06 0
-2.3779095329365374e-05 -8.8561078909505489e-07 0
-5.4265990007122481e-05 -8.7690486088572687e-07 0
5.7302109407912703e-04 -4.1493867839951558e-06 0
1.4097879448894798e-03 4.9405750984512212e-05 0
-2.8577950791983297e-05 -3.9015166298916431e-07 0
-7.0169270932609598e-05 -1.8829824168027748e-06 0
1.9181764817079882e-04 -7.6349944361306293e-07 0
4.6913354912444274e-04 1.5216480017220177e-05 0
1.9179238378950431e-04 -8.7751953610677866e-07 0
4.6904350838003462e-04 1.5280505036303074e-05 0
-2.9012485467200683e-05 -1.2968411232781218e-06 0
-7.1970290269819578e-05 -1.2044948650207474e-06 0
8.0687647111698840e-04 1.6881545728831773e-04 0
1.9919409330167019e-03 -8.3849584961299102e-05 0
-3.7795308724825530e-05 -1.8977949683438878e-05 0
-1.0450726494063809e-04 1.3796453011514529e-05 0
2.8917345305158544e-04 1.1702488111780423e-04 0
7.1896524780128992e-04 -7.4461054095674382e-05 0
1.7716653278403727e-04 5.2858381162809297e-05 0
5.5079278451902541e-04 -5.2837406048688002e-05 0
1.0940804926671350e-03 5.9375240291058512e-04 0
1.5442132312588051e-03 -1.6509642111794010e-04 0
6.5488195548258623e-05 8.0193760563928727e-05 0
7.7417946847907568e-04 4.5662479561813489e-04 0
5.4034596977468050e-04 3.6498987174585961e-04 0
5.0984769570015982e-04 3.9892611354366532e-04 0
9.7879451797669025e-04 1.0709517663974834e-04 0
1.6803248546248275e-04 -6.6344882947622853e-05 0

VECTORS Forces3 float
-3.4526211876038227e-05 2.2746305950685531e-05 0
-4.1534791826700073e-05 -2.3481281032845220e-05 0
5.1954192614891493e-04 -2.9049819277749154e-04 0
5.7384911883446763e-04 3.1887334794011851e-04 0
5.6869440386066411e-04 -8.9216115474680729e-05 0
6.2754376144774930e-04 9.8564480238678441e-05 0
3.6079298262429185e-04 1.4850718006808613e-05 0
3.9860411288784306e-04 -1.6156264649027596e-05 0
-5.4397069070030973e-05 -2.1139720836193980e-06 0
-6.0271469676787960e-05 2.2327370873204988e-06 0
1.3676760177493983e-03 -6.7445371018041064e-06 0
1.5238561133379251e-03 9.4523786621608975e-06 0
-5.7395801316214678e-05 4.7858834113274141e-07 0
-6.5003579517323236e-05 -6.7377830883884287e-07 0
3.8558613583849713e-04 -4.5591737079364660e-06 0
4.3586454204376399e-04 5.8332384835703406e-06 0
3.8561552796381824e-04 -4.5705345385602177e-06 0
4.3591174343210947e-04 5.8486863897042682e-06 0
-5.7385762896821752e-05 5.6217018113348830e-07 0
-6.5098949940368601e-05 -7.6304755117247703e-07 0
1.3492252066485651e-03 -2.6368060529874433e-05 0
1.5585255565064638e-03 3.3415521268519700e-05 0
-5.6712984484971818e-05 1.4056683404450102e-06 0
-6.7415560920203613e-05 -1.8273949996392840e-06 0
3.8100157644665452e-04 -1.0477550535812576e-05 0
4.5226094895107208e-04 1.3328562638273083e-05 0
3.8099855821029560e-04 -1.0483631342448282e-05 0
4.5228431909087347e-04 1.3337008551539965e-05 0
-5.6681270037939053e-05 1.4356750776106400e-06 0
-6.7568353926887432e-05 -1.8696443023797160e-06 0
1.3351633903636762e-03 -4.4776806982959602e-05 0
1.6409295184015760e-03 5.8964790211348545e-05 0
-5.6121958033506646e-05 2.0289166801593728e-06 0
-7.1893280880876240e-05 -2.8155454225027511e-06 0
3.7718236753350672e-04 -1.4673801486902339e-05 0
4.8268494563024207e-04 2.0020717349624798e-05 0
3.7717850656283225e-04 -1.4680099536059221e-05 0
4.8271985677078198e-04 2.0029909154766947e-05 0
-5.6095567818394731e-05 2.0391684526983590e-06 0
-7.2152602204884208e-05 -2.8454054095754500e-06 0
1.3210426241884931e-03 -5.5871260339573854e-05 0
1.7740762370081519e-03 8.0535552774660396e-05 0
-5.5501772539009099e-05 2.3048836255651048e-06 0
-7.8684827641016614e-05 -3.5995765263411658e-06 0
3.7316354697122301e-04 -1.6612853687969358e-05 0
5.2860077221040635e-04 2.5409631063968995e-05 0
3.7315843174152719e-04 -1.6618707365525498e-05 0
5.2864894527595381e-04 2.5419133904259969e-05 0
-5.5469761312272739e-05 2.2849892860194890e-06 0
-7.9063213203771449e-05 -3.6072382862039072e-06 0
1.3056696098218072e-03 -5.5051337037059793e-05 0
1.9670846869020604e-03 9.3976650573826198e-05 0
-5.4622275655536212e-05 1.9290555420561483e-06 0
-8.8131754711029105e-05 -3.9086019524849861e-06 0
3.6742330287512594e-04 -1.4253983756505909e-05 0
5.9230228746183662e-04 2.7687529086565183e-05 0
3.6741909077721524e-04 -1.4262870888201835e-05 0
5.9236732189128110e-04 2.7700618620979250e-05 0
-5.4597483897177569e-05 1.8794490070060539e-06 0
-8.8679190311904117e-05 -3.8950873669344081e-06 0
1.2836323177511724e-03 -4.8203476635787939e-05 0
2.2309850732327324e-03 1.0503950642102202e-04 0
-5.4286162098403224e-05 1.5127459705041549e-06 0
-1.0177281427270739e-04 -4.3212459940803919e-06 0
3.6555200768985374e-04 -1.1960778060903829e-05 0
6.8419472709798116e-04 3.0971734532667064e-05 0
3.6554645312032480e-04 -1.1972203608065836e-05 0
6.8427454150897786e-04 3.0987290495695221e-05 0
-5.4264070889276655e-05 1.3593307720034606e-06 0
-1.0256745313829208e-04 -4.2255338083331604e-06 0
1.2896980760723181e-03 -2.5610759050111792e-06 0
2.6235170831969724e-03 8.5218374472308491e-05 0
-5.3354514671359964e-05 -1.9041085006897845e-06 0
-1.2035937278767802e-04 -2.2595757295259963e-06 0
3.5943159166794989e-04 1.0245617184895174e-05 0
8.0854342441202050e-04 1.7792531127983288e-05 0
3.5941894749749227e-04 1.0180628400563746e-05 0
8.0860721428032832e-04 1.7842797294081809e-05 0
-5.3732098288258412e-05 -2.1672526308855728e-06 0
-1.2196092169162957e-04 -2.1258735430043488e-06 0
1.2949190433025825e-03 -4.8362412800063572e-06 0
3.1685110214389263e-03 1.1508903864396668e-04 0
-6.4582165553798683e-05 -1.0937638885712340e-06 0
-1.5768390041202211e-04 -4.4259074240243828e-06 0
4.3345132415770345e-04 -2.8162658607714868e-07 0
1.0542572451562445e-03 3.5495389534163190e-05 0
4.3339280521956480e-04 -5.3843019600792670e-07 0
1.0540562008479802e-03 3.5639239179946392e-05 0
-6.5567661039570431e-05 -3.1444255447153149e-06 0
-1.6172714396297407e-04 -2.9091412066048196e-06 0
1.8225362000427079e-03 3.8839137891189375e-04 0
4.4764611089493202e-03 -1.8089026609712400e-04 0
-8.5357653083913422e-05 -4.3197888456037039e-05 0
-2.3486455132690494e-04 3.0585640263326826e-05 0
6.5254938889374716e-04 2.6684250867005588e-04 0
1.6160326968064046e-03 -1.6426540621433485e-04 0
3.9995292405092364e-04 1.2150491934987391e-04 0
1.2382308178627741e-03 -1.1654036386552876e-04 0
2.4667929987016598e-03 1.3450700477129892e-03 0
3.4692682414043064e-03 -3.6262159906156553e-04 0
1.4824068048985783e-04 1.8111588344349696e-04 0
1.7458745994396571e-03 1.0354892708578252e-03 0
1.2159821019204922e-03 8.2964260331057653e-04 0
1.1466384738338855e-03 9.0599726911706063e-04 0
2.1981329066914695e-03 2.4886154735014282e-04 0
3.7719027705278632e-04 -1.4865540601738457e-04 0

