# vtk DataFile Version 2.0

ASCII

DATASET UNSTRUCTURED_GRID

POINTS 106 float 

-5.0000000000000003e-02  0.0000000000000000e+00  0.0000000000000000e+00
5.0000000000000003e-02  0.0000000000000000e+00  0.0000000000000000e+00
-5.0000000000000003e-02  2.0000000000000000e-02  0.0000000000000000e+00
5.0000000000000003e-02  2.0000000000000000e-02  0.0000000000000000e+00
-5.0000000000000003e-02  4.0000000000000001e-02  0.0000000000000000e+00
5.0000000000000003e-02  4.0000000000000001e-02  0.0000000000000000e+00
-5.0000000000000003e-02  5.9999999999999998e-02  0.0000000000000000e+00
5.0000000000000003e-02  5.9999999999999998e-02  0.0000000000000000e+00
-5.0000000000000003e-02  8.0000000000000002e-02  0.0000000000000000e+00
5.0000000000000003e-02  8.0000000000000002e-02  0.0000000000000000e+00
-5.0000000000000003e-02  1.0000000000000001e-01  0.0000000000000000e+00
5.0000000000000003e-02  1.0000000000000001e-01  0.0000000000000000e+00
-5.0000000000000003e-02  1.2000000000000000e-01  0.0000000000000000e+00
5.0000000000000003e-02  1.2000000000000000e-01  0.0000000000000000e+00
-5.0000000000000003e-02  1.4000000000000001e-01  0.0000000000000000e+00
5.0000000000000003e-02  1.4000000000000001e-01  0.0000000000000000e+00
-5.0000000000000003e-02  1.6000000000000000e-01  0.0000000000000000e+00
5.0000000000000003e-02  1.6000000000000000e-01  0.0000000000000000e+00
-5.0000000000000003e-02  1.7999999999999999e-01  0.0000000000000000e+00
5.0000000000000003e-02  1.7999999999999999e-01  0.0000000000000000e+00
-5.0000000000000003e-02  2.0000000000000001e-01  0.0000000000000000e+00
5.0000000000000003e-02  2.0000000000000001e-01  0.0000000000000000e+00
-5.0000000000000003e-02  2.2000000000000000e-01  0.0000000000000000e+00
5.0000000000000003e-02  2.2000000000000000e-01  0.0000000000000000e+00
-5.0000000000000003e-02  2.3999999999999999e-01  0.0000000000000000e+00
5.0000000000000003e-02  2.3999999999999999e-01  0.0000000000000000e+00
-5.0000000000000003e-02  2.6000000000000001e-01  0.0000000000000000e+00
5.0000000000000003e-02  2.6000000000000001e-01  0.0000000000000000e+00
-5.0000000000000003e-02  2.8000000000000003e-01  0.0000000000000000e+00
5.0000000000000003e-02  2.8000000000000003e-01  0.0000000000000000e+00
-5.0000000000000003e-02  2.9999999999999999e-01  0.0000000000000000e+00
5.0000000000000003e-02  2.9999999999999999e-01  0.0000000000000000e+00
-5.0000000000000003e-02  3.2000000000000001e-01  0.0000000000000000e+00
5.0000000000000003e-02  3.2000000000000001e-01  0.0000000000000000e+00
-5.0000000000000003e-02  3.4000000000000002e-01  0.0000000000000000e+00
5.0000000000000003e-02  3.4000000000000002e-01  0.0000000000000000e+00
-5.0000000000000003e-02  3.5999999999999999e-01  0.0000000000000000e+00
5.0000000000000003e-02  3.5999999999999999e-01  0.0000000000000000e+00
-5.0000000000000003e-02  3.8000000000000000e-01  0.0000000000000000e+00
5.0000000000000003e-02  3.8000000000000000e-01  0.0000000000000000e+00
-5.0000000000000003e-02  4.0000000000000002e-01  0.0000000000000000e+00
5.0000000000000003e-02  4.0000000000000002e-01  0.0000000000000000e+00
-5.0000000000000003e-02  4.1999999999999998e-01  0.0000000000000000e+00
5.0000000000000003e-02  4.1999999999999998e-01  0.0000000000000000e+00
-5.0000000000000003e-02  4.4000000000000000e-01  0.0000000000000000e+00
5.0000000000000003e-02  4.4000000000000000e-01  0.0000000000000000e+00
-5.0000000000000003e-02  4.6000000000000002e-01  0.0000000000000000e+00
5.0000000000000003e-02  4.6000000000000002e-01  0.0000000000000000e+00
-5.0000000000000003e-02  4.7999999999999998e-01  0.0000000000000000e+00
5.0000000000000003e-02  4.7999999999999998e-01  0.0000000000000000e+00
-5.0000000000000003e-02  5.0000000000000000e-01  0.0000000000000000e+00
5.0000000000000003e-02  5.0000000000000000e-01  0.0000000000000000e+00
-5.0000000000000003e-02  5.2000000000000002e-01  0.0000000000000000e+00
5.0000000000000003e-02  5.2000000000000002e-01  0.0000000000000000e+00
-5.0000000000000003e-02  5.4000000000000004e-01  0.0000000000000000e+00
5.0000000000000003e-02  5.4000000000000004e-01  0.0000000000000000e+00
-5.0000000000000003e-02  5.6000000000000005e-01  0.0000000000000000e+00
5.0000000000000003e-02  5.6000000000000005e-01  0.0000000000000000e+00
-5.0000000000000003e-02  5.7999999999999996e-01  0.0000000000000000e+00
5.0000000000000003e-02  5.7999999999999996e-01  0.0000000000000000e+00
-5.0000000000000003e-02  5.9999999999999998e-01  0.0000000000000000e+00
5.0000000000000003e-02  5.9999999999999998e-01  0.0000000000000000e+00
-5.0000000000000003e-02  6.2000000000000000e-01  0.0000000000000000e+00
5.0000000000000003e-02  6.2000000000000000e-01  0.0000000000000000e+00
-5.0000000000000003e-02  6.4000000000000001e-01  0.0000000000000000e+00
5.0000000000000003e-02  6.4000000000000001e-01  0.0000000000000000e+00
-5.0000000000000003e-02  6.6000000000000003e-01  0.0000000000000000e+00
5.0000000000000003e-02  6.6000000000000003e-01  0.0000000000000000e+00
-5.0000000000000003e-02  6.8000000000000005e-01  0.0000000000000000e+00
5.0000000000000003e-02  6.8000000000000005e-01  0.0000000000000000e+00
-5.0000000000000003e-02  6.9999999999999996e-01  0.0000000000000000e+00
5.0000000000000003e-02  6.9999999999999996e-01  0.0000000000000000e+00
-5.0000000000000003e-02  7.1999999999999997e-01  0.0000000000000000e+00
5.0000000000000003e-02  7.1999999999999997e-01  0.0000000000000000e+00
-5.0000000000000003e-02  7.3999999999999999e-01  0.0000000000000000e+00
5.0000000000000003e-02  7.3999999999999999e-01  0.0000000000000000e+00
-5.0000000000000003e-02  7.6000000000000001e-01  0.0000000000000000e+00
5.0000000000000003e-02  7.6000000000000001e-01  0.0000000000000000e+00
-5.0000000000000003e-02  7.8000000000000003e-01  0.0000000000000000e+00
5.0000000000000003e-02  7.8000000000000003e-01  0.0000000000000000e+00
-5.0000000000000003e-02  8.0000000000000004e-01  0.0000000000000000e+00
5.0000000000000003e-02  8.0000000000000004e-01  0.0000000000000000e+00
-5.0000000000000003e-02  8.1999999999999995e-01  0.0000000000000000e+00
5.0000000000000003e-02  8.1999999999999995e-01  0.0000000000000000e+00
-5.0000000000000003e-02  8.3999999999999997e-01  0.0000000000000000e+00
5.0000000000000003e-02  8.3999999999999997e-01  0.0000000000000000e+00
-5.0000000000000003e-02  8.5999999999999999e-01  0.0000000000000000e+00
5.0000000000000003e-02  8.5999999999999999e-01  0.0000000000000000e+00
-5.0000000000000003e-02  8.8000000000000000e-01  0.0000000000000000e+00
5.0000000000000003e-02  8.8000000000000000e-01  0.0000000000000000e+00
-5.0000000000000003e-02  9.0000000000000002e-01  0.0000000000000000e+00
5.0000000000000003e-02  9.0000000000000002e-01  0.0000000000000000e+00
-5.0000000000000003e-02  9.2000000000000004e-01  0.0000000000000000e+00
5.0000000000000003e-02  9.2000000000000004e-01  0.0000000000000000e+00
-5.0000000000000003e-02  9.3999999999999995e-01  0.0000000000000000e+00
5.0000000000000003e-02  9.3999999999999995e-01  0.0000000000000000e+00
-5.0000000000000003e-02  9.5999999999999996e-01  0.0000000000000000e+00
5.0000000000000003e-02  9.5999999999999996e-01  0.0000000000000000e+00
-5.0000000000000003e-02  9.7999999999999998e-01  0.0000000000000000e+00
5.0000000000000003e-02  9.7999999999999998e-01  0.0000000000000000e+00
-5.0000000000000003e-02  1.0000000000000000e+00  0.0000000000000000e+00
-3.0000000000000002e-02  1.0000000000000000e+00  0.0000000000000000e+00
-1.0000000000000002e-02  1.0000000000000000e+00  0.0000000000000000e+00
1.0000000000000009e-02  1.0000000000000000e+00  0.0000000000000000e+00
2.9999999999999999e-02  1.0000000000000000e+00  0.0000000000000000e+00
5.0000000000000003e-02  1.0000000000000000e+00  0.0000000000000000e+00

CELLS 0 0


CELL_TYPES 0


POINT_DATA 106

VECTORS VertexNormals float

0.0000000000000000e+00 0.0000000000000000e+00 0
0.0000000000000000e+00 0.0000000000000000e+00 0
0.0000000000000000e+00 0.0000000000000000e+00 0
0.0000000000000000e+00 0.0000000000000000e+00 0
0.0000000000000000e+00 0.0000000000000000e+00 0
0.0000000000000000e+00 0.0000000000000000e+00 0
0.0000000000000000e+00 0.0000000000000000e+00 0
0.0000000000000000e+00 0.0000000000000000e+00 0
0.0000000000000000e+00 0.0000000000000000e+00 0
0.0000000000000000e+00 0.0000000000000000e+00 0
0.0000000000000000e+00 0.0000000000000000e+00 0
0.0000000000000000e+00 0.0000000000000000e+00 0
0.0000000000000000e+00 0.0000000000000000e+00 0
0.0000000000000000e+00 0.0000000000000000e+00 0
0.0000000000000000e+00 0.0000000000000000e+00 0
0.0000000000000000e+00 0.0000000000000000e+00 0
0.0000000000000000e+00 0.0000000000000000e+00 0
0.0000000000000000e+00 0.0000000000000000e+00 0
0.0000000000000000e+00 0.0000000000000000e+00 0
0.0000000000000000e+00 0.0000000000000000e+00 0
0.0000000000000000e+00 0.0000000000000000e+00 0
0.0000000000000000e+00 0.0000000000000000e+00 0
0.0000000000000000e+00 0.0000000000000000e+00 0
0.0000000000000000e+00 0.0000000000000000e+00 0
0.0000000000000000e+00 0.0000000000000000e+00 0
0.0000000000000000e+00 0.0000000000000000e+00 0
0.0000000000000000e+00 0.0000000000000000e+00 0
0.0000000000000000e+00 0.0000000000000000e+00 0
0.0000000000000000e+00 0.0000000000000000e+00 0
0.0000000000000000e+00 0.0000000000000000e+00 0
0.0000000000000000e+00 0.0000000000000000e+00 0
0.0000000000000000e+00 0.0000000000000000e+00 0
0.0000000000000000e+00 0.0000000000000000e+00 0
0.0000000000000000e+00 0.0000000000000000e+00 0
0.0000000000000000e+00 0.0000000000000000e+00 0
0.0000000000000000e+00 0.0000000000000000e+00 0
0.0000000000000000e+00 0.0000000000000000e+00 0
0.0000000000000000e+00 0.0000000000000000e+00 0
0.0000000000000000e+00 0.0000000000000000e+00 0
0.0000000000000000e+00 0.0000000000000000e+00 0
0.0000000000000000e+00 0.0000000000000000e+00 0
0.0000000000000000e+00 0.0000000000000000e+00 0
0.0000000000000000e+00 0.0000000000000000e+00 0
0.0000000000000000e+00 0.0000000000000000e+00 0
0.0000000000000000e+00 0.0000000000000000e+00 0
0.0000000000000000e+00 0.0000000000000000e+00 0
0.0000000000000000e+00 0.0000000000000000e+00 0
0.0000000000000000e+00 0.0000000000000000e+00 0
0.0000000000000000e+00 0.0000000000000000e+00 0
0.0000000000000000e+00 0.0000000000000000e+00 0
0.0000000000000000e+00 0.0000000000000000e+00 0
0.0000000000000000e+00 0.0000000000000000e+00 0
0.0000000000000000e+00 0.0000000000000000e+00 0
0.0000000000000000e+00 0.0000000000000000e+00 0
0.0000000000000000e+00 0.0000000000000000e+00 0
0.0000000000000000e+00 0.0000000000000000e+00 0
0.0000000000000000e+00 0.0000000000000000e+00 0
0.0000000000000000e+00 0.0000000000000000e+00 0
0.0000000000000000e+00 0.0000000000000000e+00 0
0.0000000000000000e+00 0.0000000000000000e+00 0
0.0000000000000000e+00 0.0000000000000000e+00 0
0.0000000000000000e+00 0.0000000000000000e+00 0
0.0000000000000000e+00 0.0000000000000000e+00 0
0.0000000000000000e+00 0.0000000000000000e+00 0
0.0000000000000000e+00 0.0000000000000000e+00 0
0.0000000000000000e+00 0.0000000000000000e+00 0
0.0000000000000000e+00 0.0000000000000000e+00 0
0.0000000000000000e+00 0.0000000000000000e+00 0
0.0000000000000000e+00 0.0000000000000000e+00 0
0.0000000000000000e+00 0.0000000000000000e+00 0
0.0000000000000000e+00 0.0000000000000000e+00 0
0.0000000000000000e+00 0.0000000000000000e+00 0
0.0000000000000000e+00 0.0000000000000000e+00 0
0.0000000000000000e+00 0.0000000000000000e+00 0
0.0000000000000000e+00 0.0000000000000000e+00 0
0.0000000000000000e+00 0.0000000000000000e+00 0
0.0000000000000000e+00 0.0000000000000000e+00 0
0.0000000000000000e+00 0.0000000000000000e+00 0
0.0000000000000000e+00 0.0000000000000000e+00 0
0.0000000000000000e+00 0.0000000000000000e+00 0
0.0000000000000000e+00 0.0000000000000000e+00 0
0.0000000000000000e+00 0.0000000000000000e+00 0
0.0000000000000000e+00 0.0000000000000000e+00 0
0.0000000000000000e+00 0.0000000000000000e+00 0
0.0000000000000000e+00 0.0000000000000000e+00 0
0.0000000000000000e+00 0.0000000000000000e+00 0
0.0000000000000000e+00 0.0000000000000000e+00 0
0.0000000000000000e+00 0.0000000000000000e+00 0
0.0000000000000000e+00 0.0000000000000000e+00 0
0.0000000000000000e+00 0.0000000000000000e+00 0
0.0000000000000000e+00 0.0000000000000000e+00 0
0.0000000000000000e+00 0.0000000000000000e+00 0
0.0000000000000000e+00 0.0000000000000000e+00 0
0.0000000000000000e+00 0.0000000000000000e+00 0
0.0000000000000000e+00 0.0000000000000000e+00 0
0.0000000000000000e+00 0.0000000000000000e+00 0
0.0000000000000000e+00 0.0000000000000000e+00 0
0.0000000000000000e+00 0.0000000000000000e+00 0
0.0000000000000000e+00 0.0000000000000000e+00 0
0.0000000000000000e+00 0.0000000000000000e+00 0
0.0000000000000000e+00 0.0000000000000000e+00 0
0.0000000000000000e+00 0.0000000000000000e+00 0
0.0000000000000000e+00 0.0000000000000000e+00 0
0.0000000000000000e+00 0.0000000000000000e+00 0
0.0000000000000000e+00 0.0000000000000000e+00 0
0.0000000000000000e+00 0.0000000000000000e+00 0

VECTORS Displacements1 float
-5.2033296113898206e-17 2.9069205288249779e-17 0
-6.6145439597702387e-23 -9.0566086101150207e-25 0
8.7965671077668316e-07 5.2921876763546054e-08 0
8.5910625088863822e-07 -8.2781504980485417e-09 0
1.2850218360351311e-06 6.6599458972514188e-08 0
1.2244095677351894e-06 -1.2649292726036375e-08 0
1.2627290439195760e-06 5.4971988736478148e-08 0
1.2089992901070044e-06 -8.4078528825199227e-09 0
1.1148597134970739e-06 6.6008784442901077e-08 0
1.0842279288933354e-06 -4.4136138507130170e-08 0
2.2116178346254354e-06 2.9371753222527735e-08 0
2.0533346042193401e-06 1.3115889317860695e-07 0
1.0856661903576766e-06 -1.2584942126418063e-07 0
1.0546056168702919e-06 1.3856810420757639e-07 0
1.2691041531239819e-06 -6.8316768906135523e-09 0
1.2168790286133657e-06 8.0325905705425450e-08 0
1.2722296543270242e-06 3.1702559328836604e-08 0
1.2220272428908813e-06 4.8445509621845812e-08 0
1.1003067752297147e-06 9.5835935371259227e-08 0
1.0757549439747506e-06 -4.5096387905339443e-08 0
2.2176726819556771e-06 6.8100274688701455e-08 0
2.0816294922330644e-06 1.3971671096789114e-07 0
1.1027420821021941e-06 -1.0030638933118196e-07 0
1.0714792819002103e-06 1.4358853512087092e-07 0
1.2800914544941272e-06 6.3987908236990193e-09 0
1.2398576025697045e-06 1.0201635395568190e-07 0
1.2835339281463126e-06 4.1002226218979561e-08 0
1.2487570496866610e-06 7.5075388649340110e-08 0
1.1160694839731673e-06 1.0140009925940605e-07 0
1.1045822967778951e-06 -2.0117016226429002e-08 0
2.2381102247368564e-06 7.0759747205758876e-08 0
2.1597813149978042e-06 1.9689925168230024e-07 0
1.1239315052904120e-06 -9.7984519622647900e-08 0
1.1014514129269127e-06 1.8043272621352260e-07 0
1.3034933328829798e-06 1.1862980888934814e-08 0
1.2889528134879931e-06 1.3842581719061404e-07 0
1.3101081240984322e-06 4.9020835044168874e-08 0
1.3034924330174149e-06 1.1007083452687118e-07 0
1.1461154656745698e-06 1.1125145481600261e-07 0
1.1565054208180331e-06 5.4738521080305605e-09 0
2.2733714426415064e-06 8.6160574610006900e-08 0
2.2933218672958923e-06 2.5455159604306954e-07 0
1.1595859870258396e-06 -8.6558015045053221e-08 0
1.1534464506602558e-06 2.1798830363232624e-07 0
1.3407610037883628e-06 2.8514712836094604e-08 0
1.3667073379777757e-06 1.7353107444726095e-07 0
1.3505480797493951e-06 6.9854939546271840e-08 0
1.3871602013984485e-06 1.4249300810469672e-07 0
1.1900023926098354e-06 1.3491047567080873e-07 0
1.2322453288790052e-06 2.4854441387375735e-08 0
2.3247879893228912e-06 1.2422275451036199e-07 0
2.4894349159206447e-06 3.0960851513191140e-07 0
1.2118068415097556e-06 -6.1017428950804331e-08 0
1.2307197715536188e-06 2.5549388275257794e-07 0
1.3927043870325508e-06 6.1803377322083900e-08 0
1.4775654767841710e-06 2.0644171297615974e-07 0
1.4062224212497293e-06 1.0803900110978871e-07 0
1.5052888144247050e-06 1.7223849907374901e-07 0
1.2506373114907705e-06 1.7367102300215313e-07 0
1.3378655720286075e-06 3.8970362063956825e-08 0
2.3905648130969173e-06 1.8427100339823083e-07 0
2.7620445286324339e-06 3.6707941064798423e-07 0
1.2852683894447590e-06 -1.6090228615850058e-08 0
1.3400150274384597e-06 2.9345942930051985e-07 0
1.4722786182571147e-06 1.1869128577780562e-07 0
1.6365180547924980e-06 2.3704852001193618e-07 0
1.4930655827754519e-06 1.7606587988793066e-07 0
1.6759162240739696e-06 1.9664032050564324e-07 0
1.3447492356162597e-06 2.5314949957080496e-07 0
1.4920198512996017e-06 3.7721079568789168e-08 0
2.5208582376471259e-06 3.1544434536825685e-07 0
3.1653015590195917e-06 4.1429849603602282e-07 0
1.4042707037168348e-06 6.5780883411106817e-08 0
1.5070084165338190e-06 3.3077058049115648e-07 0
1.5890974931242943e-06 2.2410113916910129e-07 0
1.8706149260019216e-06 2.6148400594066376e-07 0
1.6247540331151271e-06 2.9167395011018146e-07 0
1.9313377583423055e-06 2.1569462268672718e-07 0
1.4982113306449272e-06 3.5766401079571660e-07 0
1.7339437133775252e-06 3.4679141613179218e-08 0
2.7026715209597845e-06 4.6708876838678390e-07 0
3.7645771706784991e-06 4.9678408655971443e-07 0
1.6242534923604688e-06 2.6067371474157490e-07 0
1.7720613654385588e-06 3.5972003636930527e-07 0
1.9315930125472946e-06 5.6329126737249444e-07 0
2.2996917356288974e-06 2.4984695186291072e-07 0
2.0811785095936243e-06 8.7941669719138085e-07 0
2.4168480320800646e-06 1.4004206068513047e-07 0
2.0512218678636680e-06 1.3943176444691762e-06 0
2.1962861895229931e-06 -2.4555954673868285e-07 0
3.7982515386292335e-06 2.4028482554429689e-06 0
5.0533213427068889e-06 1.2513178095816774e-08 0
2.5960568060733364e-06 2.8357909734174638e-06 0
2.4564946272913829e-06 -5.9166951459646391e-07 0
3.7272224963434612e-06 4.7643887386389984e-06 0
3.9223443390258901e-06 -1.6711573072642379e-06 0
5.5024824920446215e-06 6.8344562873726410e-06 0
5.5445659790780682e-06 -2.9196086392774762e-06 0
1.0123119060125377e-05 9.3943981498224006e-06 0
9.4985364892478693e-06 -3.7542068427824145e-06 0
1.2826548875839499e-05 9.4625466703565404e-06 0
1.2828924004661552e-05 6.2946223704299907e-06 0
1.1524038749077916e-05 3.4091419645997542e-06 0
1.1085789353206764e-05 1.4621640555006387e-06 0
1.1784470906598877e-05 -1.1450303486876389e-06 0
1.1448268018973898e-05 -4.4272727728048650e-06 0

VECTORS Displacements2 float
-5.2108807431292381e-17 2.9111377857605555e-17 0
-6.6856877847864516e-23 -4.3335903371659591e-25 0
8.8918362518198555e-07 5.9699250583119654e-08 0
8.6803446370054587e-07 -1.4890296169351653e-08 0
1.3036650413758538e-06 7.4538396970068926e-08 0
1.2421218568738007e-06 -2.0492357519732346e-08 0
1.2884911867758547e-06 6.0511311905195187e-08 0
1.2341304327159826e-06 -1.3777118958788881e-08 0
1.1434546199339139e-06 6.8062941211233000e-08 0
1.1119722625050655e-06 -4.6133002186758199e-08 0
2.2396921625626671e-06 2.9468240499304515e-08 0
2.0794693242823778e-06 1.3136145474796759e-07 0
1.1136388706802583e-06 -1.2604061999572167e-07 0
1.0819597189891191e-06 1.3924106316256191e-07 0
1.2971709411226986e-06 -6.9880442858023451e-09 0
1.2440230818200512e-06 8.0951396179534061e-08 0
1.3007382331829703e-06 3.1529110244306893e-08 0
1.2497017912518342e-06 4.9321951284521475e-08 0
1.1289871919318143e-06 9.5521566453172964e-08 0
1.1035092324772903e-06 -4.3876329214289625e-08 0
2.2460028996683317e-06 6.8297250949357478e-08 0
2.1077963835566053e-06 1.4064186821775057e-07 0
1.1314792074185460e-06 -9.9733687785939254e-08 0
1.0995778681320147e-06 1.4403234778940240e-07 0
1.3091338167931178e-06 6.8524513720009106e-09 0
1.2677411468806397e-06 1.0280747037132001e-07 0
1.3126126323747596e-06 4.1409314184033993e-08 0
1.2768670124023817e-06 7.6205350093964275e-08 0
1.1453778568026882e-06 1.0165954749553345e-07 0
1.1328204154721218e-06 -1.8589256513370186e-08 0
2.2671713161537265e-06 7.1470973531078885e-08 0
2.1862688731540840e-06 1.9811798547512230e-07 0
1.1534706520403540e-06 -9.7090353003746084e-08 0
1.1301206335903942e-06 1.8137911884541512e-07 0
1.3334086918136902e-06 1.2695052809911018e-08 0
1.3175217803556930e-06 1.3972718713003068e-07 0
1.3401744246620470e-06 4.9838098327077032e-08 0
1.3324094882463397e-06 1.1173882455264010e-07 0
1.1765481290317350e-06 1.1195213637442918e-07 0
1.1855858161850914e-06 7.5721136740346432e-09 0
2.3037208069103749e-06 8.7367867876911597e-08 0
2.3205546000755023e-06 2.5629585097158868e-07 0
1.1904158743440259e-06 -8.5168648587579457e-08 0
1.1831381876328868e-06 2.1940748613675539e-07 0
1.3720635127727096e-06 2.9914213294730895e-08 0
1.3963868142251377e-06 1.7533785768048797e-07 0
1.3821109368449153e-06 7.1302007436996815e-08 0
1.4173132379888403e-06 1.4469133070293717e-07 0
1.2221002469388155e-06 1.3628511765137480e-07 0
1.2625976411992192e-06 2.7543376535852099e-08 0
2.3569987192699623e-06 1.2616546116535091e-07 0
2.5177888514154440e-06 3.1188329527866749e-07 0
1.2445051726950916e-06 -5.8878366459561786e-08 0
1.2619066818290900e-06 2.5736145564183769e-07 0
1.4259901851889587e-06 6.4056161869326010e-08 0
1.5088639129304340e-06 2.0874091829190764e-07 0
1.4399124073838154e-06 1.1044523982292598e-07 0
1.5372228154969120e-06 1.7495921027364476e-07 0
1.2850886789395095e-06 1.7609562619412694e-07 0
1.3700285971248043e-06 4.2248146540539755e-08 0
2.4253518062010691e-06 1.8738934825793964e-07 0
2.7919811251190295e-06 3.6984451453039355e-07 0
1.3205824842604697e-06 -1.2682072911446910e-08 0
1.3732902839596816e-06 2.9567031367168513e-07 0
1.5083813107050421e-06 1.2239502717682178e-07 0
1.6700997700090979e-06 2.3973763851128016e-07 0
1.5298368537382914e-06 1.8006304030186306e-07 0
1.7104151897328083e-06 1.9981722562863404e-07 0
1.3826610547837224e-06 2.5727377447447917e-07 0
1.5268792454241430e-06 4.1583444979819641e-08 0
2.5595145978245067e-06 3.2035593466583551e-07 0
3.1977261804832026e-06 4.1756244004587747e-07 0
1.4437071905684460e-06 7.1178919086099154e-08 0
1.5436466136103503e-06 3.3326917880087235e-07 0
1.6296179087125144e-06 2.3006596582572175e-07 0
1.9079599807186082e-06 2.6451169921136527e-07 0
1.6664880931462796e-06 2.9857928741566906e-07 0
1.9702336872446029e-06 2.1909439338970449e-07 0
1.5417395536351210e-06 3.6500296422074378e-07 0
1.7732155963227012e-06 3.8896609547117452e-08 0
2.7480735784953843e-06 4.7763858607538370e-07 0
3.8010113082733342e-06 4.9990657203438656e-07 0
1.6719918207975474e-06 2.7544010086111077e-07 0
1.8136509264169767e-06 3.6118225385951247e-07 0
1.9829403965405863e-06 5.8477343082350234e-07 0
2.3430525348963811e-06 2.5139166422649998e-07 0
2.1366429030730387e-06 9.0952513982040368e-07 0
2.4612361176905032e-06 1.3998007688358972e-07 0
2.1093430905250318e-06 1.4373077349243153e-06 0
2.2415315500240417e-06 -2.4916740737689220e-07 0
3.8594542611579844e-06 2.4672875329497219e-06 0
5.0954572602432350e-06 -3.3458937232512639e-09 0
2.6709083611048227e-06 2.9269203883020906e-06 0
2.5165702991734797e-06 -6.2797747648376221e-07 0
3.8312103133042639e-06 4.8845838055215286e-06 0
4.0124411945626171e-06 -1.7265335163010477e-06 0
5.6513447762678083e-06 6.9781673123843526e-06 0
5.6790268633972651e-06 -2.9889390238128273e-06 0
1.0322976584605300e-05 9.5510880418814369e-06 0
9.6788135300574366e-06 -3.8268278296165735e-06 0
1.3076829766106811e-05 9.6228869665283243e-06 0
1.3075881014988552e-05 6.4059000275295296e-06 0
1.1764436619610556e-05 3.4701964982409758e-06 0
1.1318881773999977e-05 1.4764625792017239e-06 0
1.2011213018321895e-05 -1.1747223061458199e-06 0
1.1673679883570939e-05 -4.4999362866912420e-06 0

VECTORS Forces1 float
-5.3238640325495867e-01 3.1355926697575259e-01 0
-3.0917041234630610e-01 -1.8594082606139936e-01 0
6.9156823653732218e+00 -3.8268888016945923e+00 0
4.1390911641435277e+00 2.2894563691647627e+00 0
7.5794349098625959e+00 -1.1762405734648458e+00 0
4.5594518979753627e+00 7.0721067971761153e-01 0
4.8309832139171922e+00 1.9382284031488725e-01 0
2.9101126272594620e+00 -1.1275216279698666e-01 0
-7.2803288050170600e-01 -2.5784393877603846e-02 0
-4.3937191425067595e-01 1.5240368662033047e-02 0
1.8610939143246735e+01 -2.5000022059953292e-03 0
1.1263064540030728e+01 2.8897498913484372e-02 0
-7.8928724851783516e-01 -7.2343537541852453e-04 0
-4.7942722615371208e-01 -1.5260976647638968e-03 0
5.3028372344590702e+00 -3.4514598336739770e-04 0
3.2187661543780286e+00 1.5106189612841176e-02 0
5.3032349976487216e+00 -4.6262339252178602e-04 0
3.2190873112185172e+00 1.5160565114041288e-02 0
-7.9012675227326046e-01 -2.0647899292471899e-04 0
-4.7984838403356522e-01 -2.0459696718977626e-03 0
1.8677040576477921e+01 -5.5847996331136220e-03 0
1.1352850258653632e+01 9.0167981570924011e-02 0
-7.8899550596712531e-01 -9.0587013715510991e-05 0
-4.8134797007630403e-01 -4.9075470877775135e-03 0
5.2956798524419364e+00 -1.1849941997046983e-03 0
3.2300553637762097e+00 3.5186882733068379e-02 0
5.2956672413692774e+00 -1.1831501973045841e-03 0
3.2300770395736644e+00 3.5203521293339167e-02 0
-7.8885477157273498e-01 -1.0702415320822284e-04 0
-4.8138746002539817e-01 -5.0369276000319730e-03 0
1.8617947456655447e+01 4.8822047437523646e-03 0
1.1396862904531305e+01 1.5394958495427458e-01 0
-7.8464115678635193e-01 -8.6910818754287430e-04 0
-4.8297304127505597e-01 -7.5209051533806628e-03 0
5.2661379521629241e+00 4.1882727873005354e-03 0
3.2413224534376242e+00 5.2708968218190537e-02 0
5.2660997385050798e+00 4.1903447389229189e-03 0
3.2413446605761318e+00 5.2728375303882205e-02 0
-7.8434674469158949e-01 -9.3669263113931760e-04 0
-4.8300928752076683e-01 -7.6286401168531026e-03 0
1.8463964766778496e+01 3.0199696220753802e-02 0
1.1430704362806688e+01 2.1665599750903103e-01 0
-7.7635390406672711e-01 -2.3846588108514654e-03 0
-4.8446818654632295e-01 -1.0074697231989919e-02 0
5.2099522405886747e+00 1.4296253804764776e-02 0
3.2516422708733903e+00 7.0058482333437450e-02 0
5.2098848914055669e+00 1.4300683887719700e-02 0
3.2516684347431473e+00 7.0080767103442007e-02 0
-7.7587456171352820e-01 -2.5226843577416621e-03 0
-4.8449931767352922e-01 -1.0159109904335800e-02 0
1.8219402802809746e+01 8.6146869616387872e-02 0
1.1472884380372300e+01 2.7191718874040871e-01 0
-7.6355036136471444e-01 -5.6151668667436452e-03 0
-4.8628873602997491e-01 -1.2184826174067513e-02 0
5.1232288085795465e+00 3.5842582637238218e-02 0
3.2642493623883717e+00 8.4590667887567333e-02 0
5.1231291152090543e+00 3.5845347360185728e-02 0
3.2642860169159973e+00 8.4620248872179754e-02 0
-7.6289932313991693e-01 -5.8340398550018385e-03 0
-4.8635921196976795e-01 -1.2246792148541557e-02 0
1.7853275701596665e+01 1.6459767258768632e-01 0
1.1526905509688744e+01 3.3021540016595791e-01 0
-7.4690915778626188e-01 -9.5741898973787133e-03 0
-4.8992796349708612e-01 -1.4645423439979571e-02 0
5.0105378346700302e+00 6.1697620405916018e-02 0
3.2893161410461809e+00 1.0196150768817266e-01 0
5.0103750776976490e+00 6.1704365124259385e-02 0
3.2893588289795264e+00 1.0199944368567823e-01 0
-7.4604021980934998e-01 -1.0045870339662907e-02 0
-4.9007447044819102e-01 -1.4623394526314852e-02 0
1.7406153158435359e+01 3.5258789478557001e-01 0
1.1649397222840351e+01 3.5759948355967291e-01 0
-7.2161905831087914e-01 -2.1098328390469125e-02 0
-4.9467153940097147e-01 -1.4829212950190594e-02 0
4.8373891073826050e+00 1.3818285754503182e-01 0
3.3208495682653920e+00 1.0448515875390102e-01 0
4.8370778023493486e+00 1.3810491460301577e-01 0
3.3208413572185274e+00 1.0456895974031981e-01 0
-7.2170664654923922e-01 -2.1902331293836248e-02 0
-4.9591462987688129e-01 -1.4793192269785810e-02 0
1.6784113297236782e+01 4.6779118278084775e-01 0
1.1882829140638622e+01 4.8370148007647618e-01 0
-7.2086550171269070e-01 -2.8098320208008221e-02 0
-5.2742913522718615e-01 -2.0701417848386579e-02 0
4.8190560524643820e+00 1.7606124980257346e-01 0
3.5328675832399625e+00 1.4785455806164291e-01 0
4.8177287909178359e+00 1.7577131122008197e-01 0
3.5324548092970844e+00 1.4802352973718996e-01 0
-7.2220350406752831e-01 -3.3020623019945627e-02 0
-5.3043922686850931e-01 -1.8465747472059455e-02 0
1.6804382886154592e+01 1.8697794525331743e+00 0
1.3050902266052494e+01 3.8149238222511865e-02 0
-6.6143959264030039e-01 -1.5027528785684621e-01 0
-5.6936341090670872e-01 3.5879348393710139e-02 0
4.5457770223182656e+00 9.8921256704797844e-01 0
3.9935073079574703e+00 -1.6306797557536426e-01 0
3.6269132371387385e+00 6.8673692767669547e-01 0
3.2045203032723948e+00 -1.4480176091577629e-01 0
8.4160722545696167e+00 2.7352429761499408e+00 0
7.2901768866426542e+00 -2.8473691974420390e-03 0
8.3445029401714133e-01 3.9812550779257067e-01 0
5.6806683637035205e+00 1.5028994011148258e+00 0
2.9700975809262840e+00 1.1713127497453431e+00 0
2.8573599086345354e+00 1.5697808936125142e+00 0
4.6871165945887743e+00 9.7089804615508501e-01 0
6.4025857286497889e-01 -2.0983610056505184e-01 0

VECTORS Forces2 float
4.8430881105979723e-01 -2.7556667891044562e-01 0
2.2851704597539851e-01 1.4474000186852168e-01 0
-6.0582032502902763e+00 3.3422589136903174e+00 0
-2.9400602838087386e+00 -1.6240086999080705e+00 0
-6.6357041569834490e+00 1.0291991995750827e+00 0
-3.2506315085491542e+00 -4.9973775172934665e-01 0
-4.2331887758437494e+00 -1.6790412373810309e-01 0
-2.0812614663828355e+00 7.8913939458824536e-02 0
6.3767339020529035e-01 2.1656588580587693e-02 0
3.1395958251303596e-01 -1.0524297362270469e-02 0
-1.6344028480986530e+01 4.5512585786107833e-03 0
-8.1204999901217949e+00 1.7633844443668036e-02 0
6.9394860214880394e-01 3.9467948502718383e-04 0
3.4599197234557244e-01 -2.3511666762202101e-03 0
-4.6627111844148859e+00 -1.6780006264928923e-03 0
-2.3244058750863630e+00 1.5312735229510850e-02 0
-4.6630449870369004e+00 -1.5698033870119549e-03 0
-2.3246268781285293e+00 1.5314344400022642e-02 0
6.9481153049976307e-01 -2.7202969157175326e-06 0
3.4622866490444559e-01 -2.1493032156744813e-03 0
-1.6427407431640802e+01 -8.3952547606298278e-03 0
-8.1476287719820721e+00 8.7670529771708319e-02 0
6.9361109085890016e-01 3.4610449680177644e-04 0
3.4135795746302672e-01 -5.0466380076985796e-03 0
-4.6546842492069267e+00 -3.9942593228105101e-03 0
-2.2906039813212198e+00 3.5843876455656488e-02 0
-4.6546642485888459e+00 -4.0013226833564772e-03 0
-2.2905533263884923e+00 3.5870783563145187e-02 0
6.9343786026255294e-01 3.3704046252090936e-04 0
3.4091755203641633e-01 -5.1647558896380013e-03 0
-1.6343630183891545e+01 -1.5800662487043624e-02 0
-7.9314081417972835e+00 1.6423378472677658e-01 0
6.8771281587822364e-01 3.3860838264803024e-04 0
3.2811784882736861e-01 -8.1670534568972913e-03 0
-4.6141646561987315e+00 -4.0706987392033428e-03 0
-2.2006080609076824e+00 5.7124340143056333e-02 0
-4.6141175136325030e+00 -4.0774162190406202e-03 0
-2.2005115159793553e+00 5.7152450022118953e-02 0
6.8731204978472615e-01 2.9202428580277949e-04 0
3.2727020544641311e-01 -8.2778827902252033e-03 0
-1.6141824721135659e+01 -6.2128087404776837e-03 0
-7.5110958884119494e+00 2.3604154102303540e-01 0
6.7692009656590668e-01 -5.2135400056385053e-04 0
3.0614473779006668e-01 -1.1057133760160646e-02 0
-4.5406371755711783e+00 1.5027582838865014e-03 0
-2.0520568304308044e+00 7.6906630545965388e-02 0
-4.5405613885814287e+00 1.4979381084082783e-03 0
-2.0519124994299909e+00 7.6937095626690405e-02 0
6.7629566825770027e-01 -6.3676882495245825e-04 0
3.0485578589106233e-01 -1.1144358950771241e-02 0
-1.5825747856818980e+01 3.0334114745568200e-02 0
-6.8789279575314142e+00 3.0224522693060424e-01 0
6.6137012979179421e-01 -2.8771455490076863e-03 0
2.7461144147626332e-01 -1.3634429388301799e-02 0
-4.4349824815078174e+00 1.6969667065013856e-02 0
-1.8394380054203603e+00 9.4798670578876171e-02 0
-4.4348675401215694e+00 1.6959085411344808e-02 0
-1.8392397708785260e+00 9.4839067753380094e-02 0
6.6047213167935692e-01 -3.0647402533446012e-03 0
2.7277149777775550e-01 -1.3702776895547062e-02 0
-1.5385522485453372e+01 8.4763671579485500e-02 0
-5.9951141024612316e+00 3.7308756666890347e-01 0
6.3846770123195218e-01 -5.5515806608404843e-03 0
2.3036823675980253e-01 -1.6772349335391921e-02 0
-4.2791411304571616e+00 3.3858459531626105e-02 0
-1.5415043330321554e+00 1.1702034044150973e-01 0
-4.2789717706235368e+00 3.3842685845240202e-02 0
-1.5412440088131916e+00 1.1707454025630734e-01 0
6.3725903726399735e-01 -5.9948661232330494e-03 0
2.2773417992654701e-01 -1.6757140367928060e-02 0
-1.4718000336057827e+01 2.3035645727313414e-01 0
-4.7430661471129723e+00 4.2722647068578989e-01 0
6.0828955656671613e-01 -1.5478476352552069e-02 0
1.6818939744968092e-01 -1.7914681175423854e-02 0
-4.0735719649857911e+00 9.8906995556343302e-02 0
-1.1238829249317233e+00 1.2645691160452091e-01 0
-4.0732971041688542e+00 9.8758689036288871e-02 0
-1.1236017885270349e+00 1.2656215166324825e-01 0
6.0651170964562473e-01 -1.6254794581679360e-02 0
1.6410390193999008e-01 -1.7886504489249225e-02 0
-1.3906067744274472e+01 3.1212752011439882e-01 0
-3.0085092293579767e+00 5.4813650642938794e-01 0
5.5834346461209505e-01 -1.6965334334047420e-02 0
7.6433531482822559e-02 -2.4905444240836537e-02 0
-3.7320440653778104e+00 9.5945576068522193e-02 0
-5.1407829827187079e-01 1.7752884798212892e-01 0
-3.7310762737387337e+00 9.5198004380814535e-02 0
-5.1402181064426167e-01 1.7786141633143404e-01 0
5.5456678800117254e-01 -2.1440166842114389e-02 0
6.6332526135108635e-02 -2.3112176368387295e-02 0
-1.1679316402076768e+01 1.0073418508257796e+00 0
1.5838547315286866e-01 4.9846909826930397e-01 0
3.9930455580081220e-01 -9.1232096930751433e-02 0
-1.5579150923106666e-01 2.7913445217819964e-03 0
-2.5483887690902067e+00 5.7886141891981624e-01 0
1.0416415436832920e+00 9.6034692222787446e-02 0
-2.5555441353259281e+00 1.5610928480610681e-01 0
6.5075116087896201e-01 8.4155193079787277e-02 0
6.2199275359167994e-01 4.0302524884894950e+00 0
3.5907233140125450e+00 2.8253216826971356e-01 0
-2.2914116696793460e-01 4.0876510589698001e-01 0
8.5345391431796469e-01 3.8681221636197067e+00 0
1.3186204472636613e+00 3.1472942295372368e+00 0
1.0669997140979770e+00 2.9215961232701129e+00 0
2.1242244798297700e+00 1.0867270195570560e+00 0
4.9125176077065036e-01 -2.1008480799283927e-01 0

VECTORS Forces3 float
-3.8830324640391940e-02 2.7825046210457283e-02 0
-4.9173500190019793e-02 -2.6624762634465657e-02 0
6.0223759392111975e-01 -3.4219723321342072e-01 0
6.9767869275090311e-01 3.9109202318134029e-01 0
6.5193702023832756e-01 -1.0468866966826024e-01 0
7.5290743898246637e-01 1.2192758499936356e-01 0
4.1091688063201831e-01 1.7503223153274926e-02 0
4.7469355179646716e-01 -1.9385836831705989e-02 0
-6.1982357037795449e-02 -2.5893927618244501e-03 0
-7.1740110023631024e-02 2.6359665322323710e-03 0
1.5252552359058260e+00 -4.9816371181155526e-03 0
1.7668991780984151e+00 2.7980873026326947e-02 0
-6.3971342542394435e-02 4.4280180437166764e-05 0
-7.4756863514126179e-02 -2.0386904923079510e-03 0
4.2936192336514178e-01 -2.1513896188160601e-03 0
5.0086915627724826e-01 1.5616713445103798e-02 0
4.2939675109512276e-01 -2.1594932084185018e-03 0
5.0092007116349335e-01 1.5644866885179461e-02 0
-6.3937897561030563e-02 1.1571477670926220e-04 0
-7.4816230794019750e-02 -2.2033135816811114e-03 0
1.5148737808491237e+00 -7.7816682809159739e-03 0
1.7964434501235567e+00 8.5667208353693430e-02 0
-6.4068061798133888e-02 2.5152703566587003e-04 0
-7.8099913972083448e-02 -4.8673781084256872e-03 0
4.3047099781378451e-01 -3.0549752051689158e-03 0
5.2410906559458958e-01 3.4400331025806211e-02 0
4.3047300964968366e-01 -3.0571871233880995e-03 0
5.2414373569730055e-01 3.4420704481694327e-02 0
-6.4075525808657038e-02 2.4218833892500794e-04 0
-7.8331968168482896e-02 -4.9888292785858325e-03 0
1.5181822796583080e+00 -9.7659631140041992e-03 0
1.9182666366383987e+00 1.5617110214022137e-01 0
-6.4325493605264045e-02 2.6683978426762636e-05 0
-8.5059151216619000e-02 -7.7568552330315671e-03 0
4.3238972039415152e-01 -1.5472897393346257e-03 0
5.7145335659506136e-01 5.3952801173353833e-02 0
4.3239049255343770e-01 -1.5492145260454675e-03 0
5.7150936520785445e-01 5.3975087564406533e-02 0
-6.4350614958907912e-02 -1.9484588734913981e-05 0
-8.5475319796694038e-02 -7.8696970596883811e-03 0
1.5288402487615431e+00 4.9760068362233205e-03 0
2.1332153242432494e+00 2.2226923452367001e-01 0
-6.4891010027798068e-02 -1.0199846222019809e-03 0
-9.6165229437762387e-02 -1.0437836417347753e-02 0
4.3641165478609206e-01 5.4109107766560655e-03 0
6.4663853822008377e-01 7.2167417062251521e-02 0
4.3641075198815121e-01 5.4121289036636938e-03 0
6.4671915765655597e-01 7.2191106306479111e-02 0
-6.4922179873676919e-02 -1.1316275527672526e-03 0
-9.6787749744445595e-02 -1.0529166438681320e-02 0
1.5437272185480422e+00 4.6902394740277326e-02 0
2.4513840170065535e+00 2.8241765222489834e-01 0
-6.5192247753112401e-02 -3.5960395734824335e-03 0
-1.1187653551029779e-01 -1.2765520907093056e-02 0
4.3861403266361720e-01 2.2558010827048378e-02 0
7.5270593613786463e-01 8.8161946206572653e-02 0
4.3861465831512608e-01 2.2556727546923991e-02 0
7.5281706758387990e-01 8.8192696055658354e-02 0
-6.5255320528467553e-02 -3.7718449138100683e-03 0
-1.1277718994161622e-01 -1.2844375823855893e-02 0
1.5505184891145503e+00 1.0734289253034918e-01 0
2.8931575811070362e+00 3.4642411904567416e-01 0
-6.6867796859666151e-02 -6.4880407124395098e-03 0
-1.3450252630899040e-01 -1.5646281782281595e-02 0
4.5037273160870034e-01 4.1257183200453205e-02 0
9.0532626248458847e-01 1.0831192433354751e-01 0
4.5036630006960937e-01 4.1259705531751019e-02 0
9.0546941215956034e-01 1.0834921349610804e-01 0
-6.6937676175457844e-02 -6.8975718330494479e-03 0
-1.3580488508769600e-01 -1.5653521166603911e-02 0
1.6174815825279829e+00 2.6156833879548819e-01 0
3.5418410016714033e+00 3.8975619667313766e-01 0
-6.6755230539812679e-02 -1.6730867182087845e-02 0
-1.6576943005370312e-01 -1.6285035223253114e-02 0
4.4936482832352648e-01 1.0925962748127967e-01 0
1.1151339142283172e+00 1.1368098510546147e-01 0
4.4934470176643149e-01 1.0915963519129589e-01 0
1.1152723973664613e+00 1.1375984434307099e-01 0
-6.7489892848184810e-02 -1.7324658502999656e-02 0
-1.6827010296825409e-01 -1.6344128592236929e-02 0
1.6336693519621575e+00 3.3247508441451501e-01 0
4.4627347878010921e+00 5.1353658446528205e-01 0
-8.7547199430769829e-02 -1.6465044839055337e-02 0
-2.2528744523094357e-01 -2.4250464655467482e-02 0
5.8660333286683242e-01 9.7589088461991103e-02 0
1.5088868877671642e+00 1.7027032958365113e-01 0
5.8644227654571079e-01 9.7156120243854782e-02 0
1.5087322127890221e+00 1.7044735383654155e-01 0
-8.9335349932605598e-02 -2.0233901951187561e-02 0
-2.3115840726459663e-01 -2.2849915960408525e-02 0
2.5731303615468382e+00 1.1427597839289281e+00 0
6.4813109178464297e+00 3.8003882350880142e-01 0
-1.1746037190743180e-01 -9.7766421463347034e-02 0
-3.4447469300260131e-01 7.4267636229523133e-03 0
8.9250636321444476e-01 6.4030396770732123e-01 0
2.3807765929893789e+00 2.9285835145421300e-02 0
5.0300026767738504e-01 3.3437905498984849e-01 0
1.8627219440128258e+00 9.1637003357621545e-03 0
3.7984179703735967e+00 2.8653285975477853e+00 0
4.7403320657006498e+00 3.3457112620807100e-01 0
2.5178251315941547e-01 3.3015260670702262e-01 0
2.6765001685722170e+00 2.2886636391590947e+00 0
1.6374715668832669e+00 2.0202663575204056e+00 0
1.4623649878320919e+00 2.1433036813818549e+00 0
2.8438327950546740e+00 1.1527076341680196e+00 0
5.1555132165340400e-01 -1.5958769365578390e-01 0

