# vtk DataFile Version 2.0

ASCII

DATASET UNSTRUCTURED_GRID

POINTS 106 float 

-5.0000000000000003e-02  0.0000000000000000e+00  0.0000000000000000e+00
5.0000000000000003e-02  0.0000000000000000e+00  0.0000000000000000e+00
-5.0000000000000003e-02  2.0000000000000000e-02  0.0000000000000000e+00
5.0000000000000003e-02  2.0000000000000000e-02  0.0000000000000000e+00
-5.0000000000000003e-02  4.0000000000000001e-02  0.0000000000000000e+00
5.0000000000000003e-02  4.0000000000000001e-02  0.0000000000000000e+00
-5.0000000000000003e-02  5.9999999999999998e-02  0.0000000000000000e+00
5.0000000000000003e-02  5.9999999999999998e-02  0.0000000000000000e+00
-5.0000000000000003e-02  8.0000000000000002e-02  0.0000000000000000e+00
5.0000000000000003e-02  8.0000000000000002e-02  0.0000000000000000e+00
-5.0000000000000003e-02  1.0000000000000001e-01  0.0000000000000000e+00
5.0000000000000003e-02  1.0000000000000001e-01  0.0000000000000000e+00
-5.0000000000000003e-02  1.2000000000000000e-01  0.0000000000000000e+00
5.0000000000000003e-02  1.2000000000000000e-01  0.0000000000000000e+00
-5.0000000000000003e-02  1.4000000000000001e-01  0.0000000000000000e+00
5.0000000000000003e-02  1.4000000000000001e-01  0.0000000000000000e+00
-5.0000000000000003e-02  1.6000000000000000e-01  0.0000000000000000e+00
5.0000000000000003e-02  1.6000000000000000e-01  0.0000000000000000e+00
-5.0000000000000003e-02  1.7999999999999999e-01  0.0000000000000000e+00
5.0000000000000003e-02  1.7999999999999999e-01  0.0000000000000000e+00
-5.0000000000000003e-02  2.0000000000000001e-01  0.0000000000000000e+00
5.0000000000000003e-02  2.0000000000000001e-01  0.0000000000000000e+00
-5.0000000000000003e-02  2.2000000000000000e-01  0.0000000000000000e+00
5.0000000000000003e-02  2.2000000000000000e-01  0.0000000000000000e+00
-5.0000000000000003e-02  2.3999999999999999e-01  0.0000000000000000e+00
5.0000000000000003e-02  2.3999999999999999e-01  0.0000000000000000e+00
-5.0000000000000003e-02  2.6000000000000001e-01  0.0000000000000000e+00
5.0000000000000003e-02  2.6000000000000001e-01  0.0000000000000000e+00
-5.0000000000000003e-02  2.8000000000000003e-01  0.0000000000000000e+00
5.0000000000000003e-02  2.8000000000000003e-01  0.0000000000000000e+00
-5.0000000000000003e-02  2.9999999999999999e-01  0.0000000000000000e+00
5.0000000000000003e-02  2.9999999999999999e-01  0.0000000000000000e+00
-5.0000000000000003e-02  3.2000000000000001e-01  0.0000000000000000e+00
5.0000000000000003e-02  3.2000000000000001e-01  0.0000000000000000e+00
-5.0000000000000003e-02  3.4000000000000002e-01  0.0000000000000000e+00
5.0000000000000003e-02  3.4000000000000002e-01  0.0000000000000000e+00
-5.0000000000000003e-02  3.5999999999999999e-01  0.0000000000000000e+00
5.0000000000000003e-02  3.5999999999999999e-01  0.0000000000000000e+00
-5.0000000000000003e-02  3.8000000000000000e-01  0.0000000000000000e+00
5.0000000000000003e-02  3.8000000000000000e-01  0.0000000000000000e+00
-5.0000000000000003e-02  4.0000000000000002e-01  0.0000000000000000e+00
5.0000000000000003e-02  4.0000000000000002e-01  0.0000000000000000e+00
-5.0000000000000003e-02  4.1999999999999998e-01  0.0000000000000000e+00
5.0000000000000003e-02  4.1999999999999998e-01  0.0000000000000000e+00
-5.0000000000000003e-02  4.4000000000000000e-01  0.0000000000000000e+00
5.0000000000000003e-02  4.4000000000000000e-01  0.0000000000000000e+00
-5.0000000000000003e-02  4.6000000000000002e-01  0.0000000000000000e+00
5.0000000000000003e-02  4.6000000000000002e-01  0.0000000000000000e+00
-5.0000000000000003e-02  4.7999999999999998e-01  0.0000000000000000e+00
5.0000000000000003e-02  4.7999999999999998e-01  0.0000000000000000e+00
-5.0000000000000003e-02  5.0000000000000000e-01  0.0000000000000000e+00
5.0000000000000003e-02  5.0000000000000000e-01  0.0000000000000000e+00
-5.0000000000000003e-02  5.2000000000000002e-01  0.0000000000000000e+00
5.0000000000000003e-02  5.2000000000000002e-01  0.0000000000000000e+00
-5.0000000000000003e-02  5.4000000000000004e-01  0.0000000000000000e+00
5.0000000000000003e-02  5.4000000000000004e-01  0.0000000000000000e+00
-5.0000000000000003e-02  5.6000000000000005e-01  0.0000000000000000e+00
5.0000000000000003e-02  5.6000000000000005e-01  0.0000000000000000e+00
-5.0000000000000003e-02  5.7999999999999996e-01  0.0000000000000000e+00
5.0000000000000003e-02  5.7999999999999996e-01  0.0000000000000000e+00
-5.0000000000000003e-02  5.9999999999999998e-01  0.0000000000000000e+00
5.0000000000000003e-02  5.9999999999999998e-01  0.0000000000000000e+00
-5.0000000000000003e-02  6.2000000000000000e-01  0.0000000000000000e+00
5.0000000000000003e-02  6.2000000000000000e-01  0.0000000000000000e+00
-5.0000000000000003e-02  6.4000000000000001e-01  0.0000000000000000e+00
5.0000000000000003e-02  6.4000000000000001e-01  0.0000000000000000e+00
-5.0000000000000003e-02  6.6000000000000003e-01  0.0000000000000000e+00
5.0000000000000003e-02  6.6000000000000003e-01  0.0000000000000000e+00
-5.0000000000000003e-02  6.8000000000000005e-01  0.0000000000000000e+00
5.0000000000000003e-02  6.8000000000000005e-01  0.0000000000000000e+00
-5.0000000000000003e-02  6.9999999999999996e-01  0.0000000000000000e+00
5.0000000000000003e-02  6.9999999999999996e-01  0.0000000000000000e+00
-5.0000000000000003e-02  7.1999999999999997e-01  0.0000000000000000e+00
5.0000000000000003e-02  7.1999999999999997e-01  0.0000000000000000e+00
-5.0000000000000003e-02  7.3999999999999999e-01  0.0000000000000000e+00
5.0000000000000003e-02  7.3999999999999999e-01  0.0000000000000000e+00
-5.0000000000000003e-02  7.6000000000000001e-01  0.0000000000000000e+00
5.0000000000000003e-02  7.6000000000000001e-01  0.0000000000000000e+00
-5.0000000000000003e-02  7.8000000000000003e-01  0.0000000000000000e+00
5.0000000000000003e-02  7.8000000000000003e-01  0.0000000000000000e+00
-5.0000000000000003e-02  8.0000000000000004e-01  0.0000000000000000e+00
5.0000000000000003e-02  8.0000000000000004e-01  0.0000000000000000e+00
-5.0000000000000003e-02  8.1999999999999995e-01  0.0000000000000000e+00
5.0000000000000003e-02  8.1999999999999995e-01  0.0000000000000000e+00
-5.0000000000000003e-02  8.3999999999999997e-01  0.0000000000000000e+00
5.0000000000000003e-02  8.3999999999999997e-01  0.0000000000000000e+00
-5.0000000000000003e-02  8.5999999999999999e-01  0.0000000000000000e+00
5.0000000000000003e-02  8.5999999999999999e-01  0.0000000000000000e+00
-5.0000000000000003e-02  8.8000000000000000e-01  0.0000000000000000e+00
5.0000000000000003e-02  8.8000000000000000e-01  0.0000000000000000e+00
-5.0000000000000003e-02  9.0000000000000002e-01  0.0000000000000000e+00
5.0000000000000003e-02  9.0000000000000002e-01  0.0000000000000000e+00
-5.0000000000000003e-02  9.2000000000000004e-01  0.0000000000000000e+00
5.0000000000000003e-02  9.2000000000000004e-01  0.0000000000000000e+00
-5.0000000000000003e-02  9.3999999999999995e-01  0.0000000000000000e+00
5.0000000000000003e-02  9.3999999999999995e-01  0.0000000000000000e+00
-5.0000000000000003e-02  9.5999999999999996e-01  0.0000000000000000e+00
5.0000000000000003e-02  9.5999999999999996e-01  0.0000000000000000e+00
-5.0000000000000003e-02  9.7999999999999998e-01  0.0000000000000000e+00
5.0000000000000003e-02  9.7999999999999998e-01  0.0000000000000000e+00
-5.0000000000000003e-02  1.0000000000000000e+00  0.0000000000000000e+00
-3.0000000000000002e-02  1.0000000000000000e+00  0.0000000000000000e+00
-1.0000000000000002e-02  1.0000000000000000e+00  0.0000000000000000e+00
1.0000000000000009e-02  1.0000000000000000e+00  0.0000000000000000e+00
2.9999999999999999e-02  1.0000000000000000e+00  0.0000000000000000e+00
5.0000000000000003e-02  1.0000000000000000e+00  0.0000000000000000e+00

CELLS 0 0


CELL_TYPES 0


POINT_DATA 106

VECTORS VertexNormals float

0.0000000000000000e+00 0.0000000000000000e+00 0
0.0000000000000000e+00 0.0000000000000000e+00 0
0.0000000000000000e+00 0.0000000000000000e+00 0
0.0000000000000000e+00 0.0000000000000000e+00 0
0.0000000000000000e+00 0.0000000000000000e+00 0
0.0000000000000000e+00 0.0000000000000000e+00 0
0.0000000000000000e+00 0.0000000000000000e+00 0
0.0000000000000000e+00 0.0000000000000000e+00 0
0.0000000000000000e+00 0.0000000000000000e+00 0
0.0000000000000000e+00 0.0000000000000000e+00 0
0.0000000000000000e+00 0.0000000000000000e+00 0
0.0000000000000000e+00 0.0000000000000000e+00 0
0.0000000000000000e+00 0.0000000000000000e+00 0
0.0000000000000000e+00 0.0000000000000000e+00 0
0.0000000000000000e+00 0.0000000000000000e+00 0
0.0000000000000000e+00 0.0000000000000000e+00 0
0.0000000000000000e+00 0.0000000000000000e+00 0
0.0000000000000000e+00 0.0000000000000000e+00 0
0.0000000000000000e+00 0.0000000000000000e+00 0
0.0000000000000000e+00 0.0000000000000000e+00 0
0.0000000000000000e+00 0.0000000000000000e+00 0
0.0000000000000000e+00 0.0000000000000000e+00 0
0.0000000000000000e+00 0.0000000000000000e+00 0
0.0000000000000000e+00 0.0000000000000000e+00 0
0.0000000000000000e+00 0.0000000000000000e+00 0
0.0000000000000000e+00 0.0000000000000000e+00 0
0.0000000000000000e+00 0.0000000000000000e+00 0
0.0000000000000000e+00 0.0000000000000000e+00 0
0.0000000000000000e+00 0.0000000000000000e+00 0
0.0000000000000000e+00 0.0000000000000000e+00 0
0.0000000000000000e+00 0.0000000000000000e+00 0
0.0000000000000000e+00 0.0000000000000000e+00 0
0.0000000000000000e+00 0.0000000000000000e+00 0
0.0000000000000000e+00 0.0000000000000000e+00 0
0.0000000000000000e+00 0.0000000000000000e+00 0
0.0000000000000000e+00 0.0000000000000000e+00 0
0.0000000000000000e+00 0.0000000000000000e+00 0
0.0000000000000000e+00 0.0000000000000000e+00 0
0.0000000000000000e+00 0.0000000000000000e+00 0
0.0000000000000000e+00 0.0000000000000000e+00 0
0.0000000000000000e+00 0.0000000000000000e+00 0
0.0000000000000000e+00 0.0000000000000000e+00 0
0.0000000000000000e+00 0.0000000000000000e+00 0
0.0000000000000000e+00 0.0000000000000000e+00 0
0.0000000000000000e+00 0.0000000000000000e+00 0
0.0000000000000000e+00 0.0000000000000000e+00 0
0.0000000000000000e+00 0.0000000000000000e+00 0
0.0000000000000000e+00 0.0000000000000000e+00 0
0.0000000000000000e+00 0.0000000000000000e+00 0
0.0000000000000000e+00 0.0000000000000000e+00 0
0.0000000000000000e+00 0.0000000000000000e+00 0
0.0000000000000000e+00 0.0000000000000000e+00 0
0.0000000000000000e+00 0.0000000000000000e+00 0
0.0000000000000000e+00 0.0000000000000000e+00 0
0.0000000000000000e+00 0.0000000000000000e+00 0
0.0000000000000000e+00 0.0000000000000000e+00 0
0.0000000000000000e+00 0.0000000000000000e+00 0
0.0000000000000000e+00 0.0000000000000000e+00 0
0.0000000000000000e+00 0.0000000000000000e+00 0
0.0000000000000000e+00 0.0000000000000000e+00 0
0.0000000000000000e+00 0.0000000000000000e+00 0
0.0000000000000000e+00 0.0000000000000000e+00 0
0.0000000000000000e+00 0.0000000000000000e+00 0
0.0000000000000000e+00 0.0000000000000000e+00 0
0.0000000000000000e+00 0.0000000000000000e+00 0
0.0000000000000000e+00 0.0000000000000000e+00 0
0.0000000000000000e+00 0.0000000000000000e+00 0
0.0000000000000000e+00 0.0000000000000000e+00 0
0.0000000000000000e+00 0.0000000000000000e+00 0
0.0000000000000000e+00 0.0000000000000000e+00 0
0.0000000000000000e+00 0.0000000000000000e+00 0
0.0000000000000000e+00 0.0000000000000000e+00 0
0.0000000000000000e+00 0.0000000000000000e+00 0
0.0000000000000000e+00 0.0000000000000000e+00 0
0.0000000000000000e+00 0.0000000000000000e+00 0
0.0000000000000000e+00 0.0000000000000000e+00 0
0.0000000000000000e+00 0.0000000000000000e+00 0
0.0000000000000000e+00 0.0000000000000000e+00 0
0.0000000000000000e+00 0.0000000000000000e+00 0
0.0000000000000000e+00 0.0000000000000000e+00 0
0.0000000000000000e+00 0.0000000000000000e+00 0
0.0000000000000000e+00 0.0000000000000000e+00 0
0.0000000000000000e+00 0.0000000000000000e+00 0
0.0000000000000000e+00 0.0000000000000000e+00 0
0.0000000000000000e+00 0.0000000000000000e+00 0
0.0000000000000000e+00 0.0000000000000000e+00 0
0.0000000000000000e+00 0.0000000000000000e+00 0
0.0000000000000000e+00 0.0000000000000000e+00 0
0.0000000000000000e+00 0.0000000000000000e+00 0
0.0000000000000000e+00 0.0000000000000000e+00 0
0.0000000000000000e+00 0.0000000000000000e+00 0
0.0000000000000000e+00 0.0000000000000000e+00 0
0.0000000000000000e+00 0.0000000000000000e+00 0
0.0000000000000000e+00 0.0000000000000000e+00 0
0.0000000000000000e+00 0.0000000000000000e+00 0
0.0000000000000000e+00 0.0000000000000000e+00 0
0.0000000000000000e+00 0.0000000000000000e+00 0
0.0000000000000000e+00 0.0000000000000000e+00 0
0.0000000000000000e+00 0.0000000000000000e+00 0
0.0000000000000000e+00 0.0000000000000000e+00 0
0.0000000000000000e+00 0.0000000000000000e+00 0
0.0000000000000000e+00 0.0000000000000000e+00 0
0.0000000000000000e+00 0.0000000000000000e+00 0
0.0000000000000000e+00 0.0000000000000000e+00 0
0.0000000000000000e+00 0.0000000000000000e+00 0
0.0000000000000000e+00 0.0000000000000000e+00 0

VECTORS Displacements1 float
-5.4284594015026808e-18 3.0324477674675659e-18 0
-2.2610223196434184e-24 -1.5149173270728305e-24 0
3.0043196849976760e-08 -1.5134619464130344e-08 0
3.3917625407138373e-08 2.1623317651726356e-08 0
3.3349799482518125e-08 -4.0871658112861304e-09 0
3.5437798096720864e-08 1.1024085251909358e-08 0
2.1715712908834415e-08 2.2709602941666080e-09 0
2.2377338539702359e-08 2.6376725216709442e-09 0
-6.4703894987390437e-09 1.1672086638145208e-09 0
-6.6480997881354066e-09 -5.9858840927267399e-10 0
8.6402465539221983e-08 7.2127271914624014e-09 0
8.9549915797821247e-08 8.4048924030951331e-09 0
-6.7421037910465103e-09 -6.8139768725567239e-10 0
-7.0462005756298564e-09 1.2688566480373633e-09 0
2.3831232099972259e-08 2.4653385559722089e-09 0
2.4998342386735848e-08 2.6437726323383211e-09 0
2.3793196970693732e-08 1.9081744057604922e-09 0
2.5025361768646619e-08 3.2429835231009242e-09 0
-6.6897940203923823e-09 1.0589866678261755e-09 0
-7.0817155757804640e-09 -5.3248505297082565e-10 0
8.5502008144041046e-08 6.3442298670468293e-09 0
9.1583758603126505e-08 1.0228773068315309e-08 0
-6.6934552224079864e-09 -7.5244792484460831e-10 0
-7.2772567182079662e-09 1.4159183774421557e-09 0
2.3618000074080317e-08 2.1687602078873594e-09 0
2.5955702974362300e-08 3.2825346264905009e-09 0
2.3569396513771736e-08 1.6175158220918120e-09 0
2.5971243122492650e-08 3.9132163502297365e-09 0
-6.6293693505324425e-09 9.7894103776013243e-10 0
-7.3546959237033776e-09 -4.4175233543564766e-10 0
8.4867091010241622e-08 5.5808152850912783e-09 0
9.6464305373557667e-08 1.2445711495176111e-08 0
-6.6611080855630767e-09 -8.2480641133242098e-10 0
-7.7314515007066867e-09 1.6080906450476823e-09 0
2.3458191852496745e-08 2.0000378322306792e-09 0
2.7728074789987650e-08 3.9543723921570380e-09 0
2.3403760679101107e-08 1.4521072498035084e-09 0
2.7733659695946909e-08 4.6354007381900018e-09 0
-6.5818928309018931e-09 9.3595068302389624e-10 0
-7.8651026553705231e-09 -3.9351351514254314e-10 0
8.4277596066460269e-08 5.2969429115699061e-09 0
1.0435733667719802e-07 1.4734206932854882e-08 0
-6.6223383247677107e-09 -8.6100246373537562e-10 0
-8.4319278346962273e-09 1.8235652479762980e-09 0
2.3304758798617826e-08 1.9935875587849191e-09 0
3.0393269323599040e-08 4.6370330431006174e-09 0
2.3246938082082032e-08 1.4484249556274127e-09 0
3.0389856039405002e-08 5.3917826209726671e-09 0
-6.5383924504554082e-09 9.5668832281051766e-10 0
-8.6455817610271894e-09 -4.1265136238268990e-10 0
8.3702453219407917e-08 5.8028798327747840e-09 0
1.1576914390046884e-07 1.6936062850549262e-08 0
-6.5552679862135172e-09 -8.4062759664992160e-10 0
-9.4164292193050696e-09 2.0526414872207007e-09 0
2.3075387603628730e-08 2.2901968964800467e-09 0
3.4077309898218047e-08 5.2464247619500782e-09 0
2.3019815825527821e-08 1.7504568179600279e-09 0
3.4071283481584038e-08 6.1003143516801429e-09 0
-6.4680382484835035e-09 9.9580510513833056e-10 0
-9.7321942964665770e-09 -4.6725528548887779e-10 0
8.2762301727360708e-08 6.7378174646700740e-09 0
1.3140576425615584e-07 1.9462888693777573e-08 0
-6.5126281372944164e-09 -7.7482045447435493e-10 0
-1.0809258650096598e-08 2.3188217816943109e-09 0
2.3094855293489881e-08 2.6414444336647923e-09 0
3.9388370103620744e-08 6.0828134669900514e-09 0
2.3039312090666445e-08 2.1015713320077292e-09 0
3.9370424550951830e-08 7.0874908039466443e-09 0
-6.5181938598715873e-09 1.3007365654367018e-09 0
-1.1360868795561319e-08 -7.4724984480525223e-10 0
8.3805415690821912e-08 1.0470783966650245e-08 0
1.5446848846007317e-07 2.1160702617676745e-08 0
-6.4438769652248160e-09 -5.6853320352095113e-10 0
-1.2761825493167033e-08 2.5745437209932550e-09 0
2.2913430013263841e-08 4.4146601477820064e-09 0
4.6543652978600793e-08 6.2104808572888311e-09 0
2.2888835300277542e-08 3.8914068978560311e-09 0
4.6559992991805740e-08 7.4017500263154107e-09 0
-6.4830222072569545e-09 1.2455287948079742e-09 0
-1.3558466482606843e-08 -7.8816680979229767e-10 0
8.4226057183481853e-08 1.1342152761939811e-08 0
1.8712837915604592e-07 2.6596815925489265e-08 0
-7.2798149028580598e-09 -4.9365331883924511e-10 0
-1.6265039949524797e-08 3.0651330285510540e-09 0
2.7404361522004278e-08 4.5262996960216921e-09 0
6.0766375455682140e-08 8.7501064426501849e-09 0
2.7340394323737185e-08 3.9379664712630800e-09 0
6.0670278181350379e-08 1.0440558617669632e-08 0
-8.5563611844763229e-09 4.1004643852586095e-09 0
-1.8732922251342037e-08 -2.9726009145169649e-09 0
1.1923038772866037e-07 4.1285610987521506e-08 0
2.6219603381658414e-07 1.9370150887131473e-08 0
-9.5180612303061201e-09 5.8577965008551322e-10 0
-2.3709064045992051e-08 3.2212465020796085e-09 0
4.2236629920826723e-08 2.4679602618650480e-08 0
9.2568307826825045e-08 1.2476159652842563e-09 0
2.1191992197340068e-08 2.5166243273550792e-08 0
6.3632455501554022e-08 -1.4815623358578934e-09 0
1.6100473474752110e-07 1.0880827970268114e-07 0
1.9962161501568469e-07 -1.2147136508572488e-09 0
6.3427372468363853e-08 6.5000923665468721e-08 0
1.2591996332216594e-07 7.9977272997341971e-08 0
9.6114219800120103e-08 6.0432142768614697e-08 0
9.3377456637653923e-08 6.7415072475095296e-08 0
1.4765527320569803e-07 2.6010457460477173e-08 0
6.8847680893840861e-08 -3.6542883261377352e-08 0

VECTORS Displacements2 float
-5.8032074423230592e-18 3.2417609114019221e-18 0
-2.4699976609049921e-24 -1.6428420150392798e-24 0
3.2734851946412303e-08 -1.6469773035846181e-08 0
3.6854410240955719e-08 2.3361339101650014e-08 0
3.6349385654034859e-08 -4.6449821825881224e-09 0
3.8559337968495248e-08 1.2046658141833360e-08 0
2.3697407617015500e-08 2.3011875594774852e-09 0
2.4385837583396125e-08 3.0235380217664508e-09 0
-6.7471637933618359e-09 1.3912038124404021e-09 0
-6.8900874596670015e-09 -8.0731518582122369e-10 0
9.3876487225556912e-08 7.7424875898470783e-09 0
9.7090866922707052e-08 9.0173671200152729e-09 0
-7.0402189226512475e-09 -8.8269698307819357e-10 0
-7.3259224119027806e-09 1.5003152904928557e-09 0
2.5949484908159535e-08 2.7744187235765459e-09 0
2.7183690441779497e-08 2.7348088774575139e-09 0
2.5924457225056460e-08 1.9497965632372259e-09 0
2.7193263377423646e-08 3.6288854619604734e-09 0
-6.9913542427095022e-09 1.2468950797839137e-09 0
-7.3501953717394892e-09 -7.0983413930492432e-10 0
9.2912001889960400e-08 6.8130043918445535e-09 0
9.9290772152419376e-08 1.0999821242072729e-08 0
-6.9931535259084055e-09 -9.6607773411377708e-10 0
-7.5719309509012929e-09 1.6789144006226078e-09 0
2.5721256677925620e-08 2.4524113817036254e-09 0
2.8224762173914528e-08 3.4303262240516012e-09 0
2.5682965484151080e-08 1.6366294478715458e-09 0
2.8218334889354213e-08 4.3681307055276263e-09 0
-6.9285185353698541e-09 1.1523306006841659e-09 0
-7.6276255231599920e-09 -6.0299669929739648e-10 0
9.2234284649555516e-08 5.9966841268953898e-09 0
1.0457647705918725e-07 1.3408951716251909e-08 0
-6.9627404406327900e-09 -1.0494316634484636e-09 0
-8.0485636749623609e-09 1.9099918238312634e-09 0
2.5550282048809686e-08 2.2705141240092121e-09 0
3.0152354507403650e-08 4.1572927727581063e-09 0
2.5505314970980350e-08 1.4604632375756442e-09 0
3.0131547747084998e-08 5.1671199653521531e-09 0
-6.8804790922255626e-09 1.1022101346958208e-09 0
-8.1523800304747279e-09 -5.4882706611352667e-10 0
9.1605530696299751e-08 5.7020301961071359e-09 0
1.1312988008683952e-07 1.5893497870060847e-08 0
-6.9246621718524390e-09 -1.0890447205496153e-09 0
-8.7812609173360924e-09 2.1684624552453592e-09 0
2.5385171914347950e-08 2.2664579563884728e-09 0
3.3050580480011044e-08 4.8911512361511164e-09 0
2.5338433437655909e-08 1.4617024715710293e-09 0
3.3017257488474388e-08 6.0069760337596523e-09 0
-6.8384971686796153e-09 1.1279437273641425e-09 0
-8.9584470705606454e-09 -5.7691476206268470e-10 0
9.0992406232346328e-08 6.2672973665634617e-09 0
1.2549972775223659e-07 1.8282512350006066e-08 0
-6.8552583192663695e-09 -1.0594890750267700e-09 0
-9.8087403973199054e-09 2.4423561485497909e-09 0
2.5135543473731410e-08 2.5946015536265201e-09 0
3.7056301022891394e-08 5.5398034814614561e-09 0
2.5095883073305058e-08 1.7983655531363404e-09 0
3.7018710264942723e-08 6.7997189766689749e-09 0
-6.7694199909204280e-09 1.1786274602685698e-09 0
-1.0082200600966261e-08 -6.5212296132499369e-10 0
8.9981995497518102e-08 7.3009630277410372e-09 0
1.4245153538364586e-07 2.1022466976827751e-08 0
-6.8118854185205879e-09 -9.7601486977267526e-10 0
-1.1262609303621867e-08 2.7622007761943914e-09 0
2.5155757031064740e-08 2.9830136688655053e-09 0
4.2830439052844306e-08 6.4278757602709526e-09 0
2.5125058909782597e-08 2.1888654669656108e-09 0
4.2779706716843886e-08 7.9031950509710851e-09 0
-6.8315027555744486e-09 1.5393140960973757e-09 0
-1.1770648086389355e-08 -9.9425342712695868e-10 0
9.1125810434017635e-08 1.1380521242417990e-08 0
1.6745546083455998e-07 2.2864100704773123e-08 0
-6.7333614098333453e-09 -7.1506380234417193e-10 0
-1.3294956644264083e-08 3.0638191254358369e-09 0
2.4949418974053530e-08 4.9313480197509237e-09 0
5.0608870336676424e-08 6.5351401631713783e-09 0
2.4966732797904638e-08 4.1532600464337591e-09 0
5.0598778721639524e-08 8.2889746412146950e-09 0
-6.7943498341281901e-09 1.4995645247335512e-09 0
-1.4041703815472934e-08 -1.0801599913576628e-09 0
9.1578041011628179e-08 1.2350076329215150e-08 0
2.0286915428470381e-07 2.8758672090761418e-08 0
-7.6225907498276777e-09 -6.2503817858541445e-10 0
-1.6968723065547170e-08 3.6636261588134396e-09 0
2.9828081725277106e-08 5.0621410029740240e-09 0
6.6071108328258623e-08 9.2410618801670409e-09 0
2.9843298887614911e-08 4.1933584297181600e-09 0
6.5945395208881610e-08 1.1674993361355313e-08 0
-8.9995530747051256e-09 4.8328942329663605e-09 0
-1.9424352406376446e-08 -3.6685316378007569e-09 0
1.2956088925846954e-07 4.4901262146644303e-08 0
2.8426263917724146e-07 2.0940340084557685e-08 0
-9.9614180746127169e-09 7.9611304535025006e-10 0
-2.4712731292898416e-08 3.7395108595844991e-09 0
4.5939950902032673e-08 2.7045909981566602e-08 0
1.0062151367988961e-07 1.1626962743365238e-09 0
2.3555557922950724e-08 2.8273833734990740e-08 0
6.9820798973178370e-08 -1.9877668078030229e-09 0
1.7561599457002780e-07 1.1979246814874941e-07 0
2.1700534643137044e-07 -2.7123371637180093e-09 0
7.2499188754256555e-08 7.3331770188313633e-08 0
1.3874283875225878e-07 8.8413142301564943e-08 0
1.0556612895516715e-07 6.5953448351013543e-08 0
1.0284493257208131e-07 7.3480041926652069e-08 0
1.6191444427200369e-07 2.6898712787706600e-08 0
7.8465518282486568e-08 -4.1247982160900295e-08 0

VECTORS Forces1 float
-1.1722599903222344e-02 7.5635742682527360e-03 0
-1.5328304869240096e-02 -8.6882153354802451e-03 0
1.6796830981001967e-01 -9.3542851853324505e-02 0
2.0591827959887443e-01 1.1417344966748526e-01 0
1.8440694958686940e-01 -2.8690970784089664e-02 0
2.2546647664214914e-01 3.5404288995585786e-02 0
1.1730806609506333e-01 4.7733879569360621e-03 0
1.4344974102862509e-01 -5.6313888462634892e-03 0
-1.7691907430913822e-02 -6.7180568480897139e-04 0
-2.1660509214659038e-02 7.5913766043656471e-04 0
4.4857276525260376e-01 -6.3628859261835482e-04 0
5.5049963214079223e-01 3.3249249920183255e-03 0
-1.8904416701212901e-02 2.3428481180487158e-05 0
-2.3422892914039050e-02 -2.1458094826606118e-04 0
1.2698311304599222e-01 -4.8951677485603356e-04 0
1.5718524501061473e-01 1.7796065812048947e-03 0
1.2699336540491349e-01 -4.9208921600423297e-04 0
1.5720026536391829e-01 1.7847091517591074e-03 0
-1.8907344191420046e-02 4.3939563971116566e-05 0
-2.3453796772500819e-02 -2.4256820466852022e-04 0
4.4466350379592973e-01 -3.1929945500509932e-03 0
5.5850023568659124e-01 9.7818920294723676e-03 0
-1.8700573893115982e-02 1.6563905877591768e-04 0
-2.3947828601967237e-02 -5.3469051527658875e-04 0
1.2556924148335530e-01 -1.3396138791364853e-03 0
1.6069026585257340e-01 3.8388813314247346e-03 0
1.2556808963943883e-01 -1.3404743321130657e-03 0
1.6069546422232819e-01 3.8411016007686301e-03 0
-1.8689268138983483e-02 1.6907995190558031e-04 0
-2.3980740109178781e-02 -5.4705811508917658e-04 0
4.3961680392570684e-01 -5.5734157080972241e-03 0
5.7662838270459627e-01 1.6971280330920113e-02 0
-1.8452083972519448e-02 2.2690687483627894e-04 0
-2.4931941632805522e-02 -8.2106663656592233e-04 0
1.2392721104327914e-01 -1.7495793865979520e-03 0
1.6738088948779331e-01 5.7760198362231414e-03 0
1.2392542103141255e-01 -1.7504645455571075e-03 0
1.6738865769529154e-01 5.7784589336816079e-03 0
-1.8438832540973268e-02 2.2532195211613201e-04 0
-2.4988177639725100e-02 -8.3107593491754369e-04 0
4.3266728454816350e-01 -6.0522410273828910e-03 0
6.0571230204190918e-01 2.3432091670248546e-02 0
-1.8116064299590583e-02 1.9743036326798501e-04 0
-2.6409184137863317e-02 -1.0707503131469882e-03 0
1.2169207023471749e-01 -1.5674077616018706e-03 0
1.7736748089945562e-01 7.4820257754686630e-03 0
1.2168948620514945e-01 -1.5680987258210636e-03 0
1.7737809238293267e-01 7.4846174092658953e-03 0
-1.8097702137361768e-02 1.8810993324246592e-04 0
-2.6490543572934806e-02 -1.0765222249424036e-03 0
4.2358111635014140e-01 -3.3994224267749154e-03 0
6.4752411831183776e-01 2.8437428318917702e-02 0
-1.7635324380404230e-02 -4.4807945001971032e-06 0
-2.8446891318391732e-02 -1.2354440026951876e-03 0
1.1848826173886333e-01 -2.4352267197732275e-04 0
1.9110645700648377e-01 8.6368851046885499e-03 0
1.1848537430652258e-01 -2.4477961150607861e-04 0
1.9112056797425930e-01 8.6403647003879536e-03 0
-1.7614680720590838e-02 -2.1676112383103275e-05 0
-2.8563438160086448e-02 -1.2374064231495355e-03 0
4.1076542343331668e-01 1.1265531405682608e-03 0
7.0411020436300742e-01 3.3320452943051602e-02 0
-1.7193842136221195e-02 -2.3776795296364284e-04 0
-3.1349558824470797e-02 -1.4389985639701979e-03 0
1.1559678252901630e-01 1.2131413134930712e-03 0
2.1065389360938541e-01 1.0120074167720221e-02 0
1.1559277990988466e-01 1.2116251455622023e-03 0
2.1067082825656333e-01 1.0124309237872565e-02 0
-1.7168080884097024e-02 -2.8210500693182019e-04 0
-3.1517329782385008e-02 -1.4256698567525661e-03 0
4.0216105304688354e-01 1.6180828564319742e-02 0
7.8700465448607826e-01 3.2682661677509620e-02 0
-1.6448588524941722e-02 -1.2696958458039457e-03 0
-3.5260573312674952e-02 -1.1879773339154415e-03 0
1.1058964921806338e-01 7.9881147649591127e-03 0
2.3679631768455522e-01 8.5903249026723135e-03 0
1.1058293754688377e-01 7.9736212749887542e-03 0
2.3680798853063792e-01 8.6013643063754756e-03 0
-1.6510852806016114e-02 -1.3437216143495356e-03 0
-3.5602241142171059e-02 -1.1711760290544649e-03 0
3.8843833878280132e-01 2.0460425887609122e-02 0
9.0136961154726480e-01 4.3195345887903414e-02 0
-1.8445060717769326e-02 -1.3009243589657362e-03 0
-4.3102669134528170e-02 -1.8547814082992269e-03 0
1.2362130212264150e-01 6.9388340089801956e-03 0
2.8826297922126470e-01 1.3659406990089211e-02 0
1.2359817604080221e-01 6.8791005982643330e-03 0
2.8820885169085703e-01 1.3687244178811874e-02 0
-1.8628284254593331e-02 -1.8167949657191527e-03 0
-4.3959694065131727e-02 -1.5574343533513685e-03 0
4.9209769497319156e-01 1.2883495806133166e-01 0
1.1697959056600609e+00 -9.6134691211810924e-03 0
-2.1617357330590902e-02 -1.2197362645743186e-02 0
-5.8656818641661064e-02 5.1240533149826441e-03 0
1.6317245408742201e-01 7.7912789943912417e-02 0
4.0303138062129412e-01 -2.4079063467509442e-02 0
1.0268259623597273e-01 3.9488582720166865e-02 0
3.1497542329319678e-01 -1.9218067825093235e-02 0
5.8892811261088129e-01 3.5747155261182589e-01 0
8.0477118350699195e-01 -2.4212197446164440e-02 0
3.6341690807046127e-02 4.4580838979446091e-02 0
4.1957218423194348e-01 2.8159592725820987e-01 0
2.8256200505426132e-01 2.4420614732063470e-01 0
2.6182067054394648e-01 2.6444440784642531e-01 0
5.0345761072575623e-01 1.1413004847997513e-01 0
8.8287608757408806e-02 -3.0048617200965012e-02 0

VECTORS Forces2 float
-4.7220206321207580e-03 3.2431422232547316e-03 0
-1.6558215215981816e-03 -8.2569294205289483e-04 0
7.6232461757813397e-02 -4.2902282848172518e-02 0
3.2759919276159725e-02 1.8550831181879876e-02 0
8.2935633352851423e-02 -1.3012703044558630e-02 0
3.5472027549736683e-02 5.8298864769385844e-03 0
5.2363485524419176e-02 2.3599178375657373e-03 0
2.2189716730359719e-02 -9.5569983518090237e-04 0
-7.8939644634667579e-03 -3.4832258883959848e-04 0
-3.3895377813158685e-03 1.5028025995545962e-04 0
1.9580989325424422e-01 -5.1074695469765640e-04 0
8.1541604114189745e-02 2.6941787208708897e-03 0
-8.1965676754378724e-03 5.1252219176902488e-05 0
-3.5125394491656819e-03 -2.1937521863608681e-04 0
5.5065029839686093e-02 -6.1885652651823091e-04 0
2.3408272294983261e-02 1.7418228048565897e-03 0
5.5068975057032753e-02 -6.2092948139257521e-04 0
2.3413202838383624e-02 1.7439637616189698e-03 0
-8.1957720508587292e-03 6.3174561285708289e-05 0
-3.5180248979740226e-03 -2.3582567761886561e-04 0
1.9395202873890241e-01 -3.8333174088987930e-03 0
8.7157654664775860e-02 9.8450216842318212e-03 0
-8.2152964823509148e-03 1.9741448643343084e-04 0
-4.0046220138241781e-03 -5.4109239048107745e-04 0
5.5227325660375921e-02 -1.5600898192671183e-03 0
2.6848080363750224e-02 3.8911240018033740e-03 0
5.5227900180251685e-02 -1.5611653832699789e-03 0
2.6853107416808627e-02 3.8935098939803891e-03 0
-8.2185269596324780e-03 2.0102512885719083e-04 0
-4.0381449746467917e-03 -5.5377171611774637e-04 0
1.9584918411590363e-01 -6.4918549933689462e-03 0
1.0496228978038681e-01 1.7279440398677477e-02 0
-8.3434635706908164e-03 2.7015541720405494e-04 0
-4.9991362263991004e-03 -8.3845889777846988e-04 0
5.6128940184827274e-02 -2.0516483834881034e-03 0
3.3613309641701006e-02 5.9047308440489344e-03 0
5.6129807788234218e-02 -2.0527199040270131e-03 0
3.3621199284991174e-02 5.9073325442115633e-03 0
-8.3525900804833977e-03 2.6871350718634854e-04 0
-5.0582258537731342e-03 -8.4874384962641545e-04 0
2.0017009292671742e-01 -7.2390794027355539e-03 0
1.3524351854720854e-01 2.4037542498930930e-02 0
-8.5734253069685764e-03 2.5004959256462309e-04 0
-6.5642916403487088e-03 -1.1002073593399150e-03 0
5.7713487433864084e-02 -1.9364890535899166e-03 0
4.4208338591998658e-02 7.6953365972422137e-03 0
5.7714557414117469e-02 -1.9373656221594287e-03 0
4.4219659654759547e-02 7.6981221540596122e-03 0
-8.5867234587133252e-03 2.4063697201791260e-04 0
-6.6527428598418883e-03 -1.1061818923267172e-03 0
2.0676751937154747e-01 -4.7643700126935445e-03 0
1.8030919452864672e-01 2.9334657966213179e-02 0
-8.8526789435708804e-03 5.2184442221524618e-05 0
-8.7971030744416912e-03 -1.2762862975120943e-03 0
5.9627015502886647e-02 -6.4460326217468571e-04 0
5.9285616793645413e-02 8.9315599186050153e-03 0
5.9628722486508801e-02 -6.4610413858863058e-04 0
5.9301443533397731e-02 8.9353334115256904e-03 0
-8.8741715051266715e-03 3.4619186512542724e-05 0
-8.9269540768726445e-03 -1.2783607698437561e-03 0
2.1449996472373092e-01 -3.7246400746813394e-04 0
2.4346920230884234e-01 3.4582973426422574e-02 0
-9.3940759685407754e-03 -1.7554288599232391e-04 0
-1.2072214991873192e-02 -1.4977107135419237e-03 0
6.3342583308096764e-02 7.6568109818128021e-04 0
8.1384982471580172e-02 1.0544783454023994e-02 0
6.3344051961291850e-02 7.6382579905354489e-04 0
8.1405718592458293e-02 1.0549550777400496e-02 0
-9.4242377176104418e-03 -2.2112357521875714e-04 0
-1.2263738701743432e-02 -1.4839495515818633e-03 0
2.3239252924947387e-01 1.4761752970842682e-02 0
3.3874905822664503e-01 3.4392153301831457e-02 0
-9.9240464305301174e-03 -1.2226442801175665e-03 0
-1.6690846330141229e-02 -1.2618669652633763e-03 0
6.6890991195812072e-02 7.6299031679303696e-03 0
1.1238966407698045e-01 9.1386343386041843e-03 0
6.6890153107840467e-02 7.6148511008772108e-03 0
1.1241027717233705e-01 9.1513127722420429e-03 0
-1.0060505693112893e-02 -1.2987045715828263e-03 0
-1.7068657444634022e-02 -1.2419405645725877e-03 0
2.5243837359591198e-01 1.8916246166175793e-02 0
4.7594587221246332e-01 4.5799332195044812e-02 0
-1.3520820774269818e-02 -1.2558004249004487e-03 0
-2.5753071919892668e-02 -1.9609091508575676e-03 0
9.0605188407150303e-02 6.5716121547551784e-03 0
1.7236721548044229e-01 1.4525212525418369e-02 0
9.0584428031426925e-02 6.5094266317620615e-03 0
1.7234805457469393e-01 1.4562006391558628e-02 0
-1.3873921057365025e-02 -1.7830820176186267e-03 0
-2.6679291480019851e-02 -1.6429257969381725e-03 0
4.0778241550755295e-01 1.2786187893737389e-01 0
7.9647042249161470e-01 -4.2875424576313591e-03 0
-2.0516535489459725e-02 -1.2241125539549936e-02 0
-4.5306087630621335e-02 4.9229823642675963e-03 0
1.5384773122203821e-01 7.7225837135273631e-02 0
3.1525061481100086e-01 -2.2396105701469056e-02 0
9.2613055294210531e-02 3.9130348984580336e-02 0
2.3618843677592521e-01 -1.3981224347059054e-02 0
5.9423345368038971e-01 3.5282288947592733e-01 0
7.3254715690394157e-01 -5.9785611027256304e-02 0
4.0822683060675304e-02 4.6235469498794299e-02 0
4.2017716113513198e-01 2.6864794092264910e-01 0
2.7760409302102812e-01 2.0335932330441769e-01 0
2.6052184959289593e-01 2.1712488764732593e-01 0
4.6404507072417012e-01 6.5941179656343857e-02 0
7.5233763180308319e-02 -3.2236909301290827e-02 0

VECTORS Forces3 float
-8.9232520151188190e-03 5.8604895926207268e-03 0
-9.3965502446232332e-03 -5.2740092846609759e-03 0
1.3203111913657886e-01 -7.3821068175262988e-02 0
1.3142467318591944e-01 7.3104972628395867e-02 0
1.4440290372497039e-01 -2.2559077949734222e-02 0
1.4352296598906347e-01 2.2645629624611138e-02 0
9.1610572674437563e-02 3.8610041015871743e-03 0
9.1069810362179385e-02 -3.6848286238292407e-03 0
-1.3814051136632921e-02 -5.5116287031190317e-04 0
-1.3769969209899733e-02 5.0802408999184637e-04 0
3.4740027979774518e-01 -6.4459200574051032e-04 0
3.4692879644848040e-01 2.9609086587523612e-03 0
-1.4610655332639758e-02 4.2930043407395846e-05 0
-1.4779154481541809e-02 -2.2229097985610214e-04 0
9.8139954772294535e-02 -6.1055938834127081e-04 0
9.9091963039702732e-02 1.8149297616761135e-03 0
9.8147587884907281e-02 -6.1305723744964130e-04 0
9.9102722394410203e-02 1.8188681202971446e-03 0
-1.4611327167480892e-02 6.0495589081787103e-05 0
-1.4798411344716369e-02 -2.4625375021339964e-04 0
3.4441342579003748e-01 -3.8188551208855111e-03 0
3.5424603964507456e-01 1.0273434528964918e-02 0
-1.4514791197096895e-02 1.9619384814546529e-04 0
-1.5323546119500037e-02 -5.6515223062810957e-04 0
9.7496042314150974e-02 -1.5601923391839222e-03 0
1.0281109104584239e-01 4.0615797633008731e-03 0
9.7495710143463102e-02 -1.5612076659343250e-03 0
1.0281650894278495e-01 4.0640210353400747e-03 0
-1.4510307992615970e-02 1.9991516304021967e-04 0
-1.5358745030287118e-02 -5.7848711191388065e-04 0
3.4254955028771827e-01 -6.4558281415641131e-03 0
3.7319417099011903e-01 1.8017185844838825e-02 0
-1.4439709497063967e-02 2.6573936471127846e-04 0
-1.6366347205963163e-02 -8.7412322068224383e-04 0
9.7025454563958072e-02 -2.0275651075402378e-03 0
1.0990128211876295e-01 6.1520427925252667e-03 0
9.7024891196478794e-02 -2.0285845840040031e-03 0
1.0990954478931780e-01 6.1547047817066642e-03 0
-1.4436903209491387e-02 2.6411032610676270e-04 0
-1.6427150012059816e-02 -8.8491299902449829e-04 0
3.4086821988375826e-01 -7.0795473279414954e-03 0
4.0452654097278673e-01 2.5031170881622287e-02 0
-1.4368834834058831e-02 2.3862704702880104e-04 0
-1.7971635033045497e-02 -1.1458695103175179e-03 0
9.6581824537591093e-02 -1.8640367388609621e-03 0
1.2076100923944907e-01 8.0096214022869101e-03 0
9.6580921342228399e-02 -1.8648448026857569e-03 0
1.2077257905307885e-01 8.0124595180226469e-03 0
-1.4365291719425364e-02 2.2869575577122946e-04 0
-1.8061161112307614e-02 -1.1521806776483197e-03 0
3.3911911676568179e-01 -4.3383400427612889e-03 0
4.5033463363065868e-01 3.0511012964380406e-02 0
-1.4240600222141601e-02 2.5498841257266782e-05 0
-2.0222454431472595e-02 -1.3274650971841458e-03 0
9.5753121435711214e-02 -4.6851155308081798e-04 0
1.3594826414852568e-01 9.2828490031507047e-03 0
9.5752364383593025e-02 -4.6994069145927641e-04 0
1.3596403812614466e-01 9.2866730788223779e-03 0
-1.4239867866355404e-02 7.1239042302277095e-06 0
-2.0352268131286291e-02 -1.3297599167052497e-03 0
3.3583618927855818e-01 4.1403775525465761e-04 0
5.1342329761814509e-01 3.5907846150898162e-02 0
-1.4265946009795102e-02 -2.1891074167858642e-04 0
-2.3476554451316939e-02 -1.5548965342095289e-03 0
9.6004027482916809e-02 1.0525902442514422e-03 0
1.5788449590963963e-01 1.0937513977680436e-02 0
9.6002513384723792e-02 1.0508650135733143e-03 0
1.5790430578743500e-01 1.0942245328037475e-02 0
-1.4266565339132481e-02 -2.6644933371925658e-04 0
-2.3665692709853511e-02 -1.5408738418083994e-03 0
3.3999822806437074e-01 1.6429049180927253e-02 0
6.0722811086122130e-01 3.5563467432559032e-02 0
-1.4110149866300402e-02 -1.3223580366171744e-03 0
-2.7963097955945360e-02 -1.3017703894872663e-03 0
9.4950165222775190e-02 8.2948838240023935e-03 0
1.8794058631718960e-01 9.4119098572242686e-03 0
9.4946045259901246e-02 8.2793796504279857e-03 0
1.8795746019139536e-01 9.4243274219263668e-03 0
-1.4213005645942753e-02 -1.4015855141626752e-03 0
-2.8342065490297826e-02 -1.2829767553563455e-03 0
3.4215568314450923e-01 2.0928561447129530e-02 0
7.3947792836991444e-01 4.7236802297508200e-02 0
-1.7027884022567184e-02 -1.3584130480738209e-03 0
-3.6861725606053310e-02 -2.0285440556811201e-03 0
1.1412032270983029e-01 7.1987265793785286e-03 0
2.4659855173857870e-01 1.4962005443681854e-02 0
1.1409702518763501e-01 7.1346257694862945e-03 0
2.4655927218553714e-01 1.4995631380927191e-02 0
-1.7304631951871086e-02 -1.9073857656597166e-03 0
-3.7801383721024956e-02 -1.7073230266158141e-03 0
4.7767198933481797e-01 1.3591744763704178e-01 0
1.0493599929873045e+00 -6.5829577703119067e-03 0
-2.2219866851804940e-02 -1.2881379898881898e-02 0
-5.5312556778090279e-02 5.2252546926521877e-03 0
1.6721466014494485e-01 8.1846814139470661e-02 0
3.8200540983093628e-01 -2.4038059792603091e-02 0
1.0311330883267325e-01 4.1478348450507116e-02 0
2.9369904430094534e-01 -1.7315885306849094e-02 0
6.2311860095393590e-01 3.7482696159009560e-01 0
8.1182390589741182e-01 -4.1615103248546427e-02 0
4.0537656329525787e-02 4.7782238087731001e-02 0
4.4199446260206982e-01 2.9064130526169574e-01 0
2.9425217396263076e-01 2.3808420189058627e-01 0
2.7397022918061448e-01 2.5652733848093134e-01 0
5.0978905976007538e-01 9.8258072937838850e-02 0
8.6621889609531572e-02 -3.2629859648925917e-02 0

