{
  "Finalized": "2019-11-13T13:58:44.811",
  "Initialized": "2019-11-13T13:58:41.746",
  "Name": "",
  "Ranks": [
    {
      "Finalized": "2019-11-13T13:58:44.811",
      "Initialized": "2019-11-13T13:58:41.746",
      "StateChanges": [
        {
          "Name": "_GLOBAL",
          "State": 1,
          "Timestamp": 0
        },
        {
          "Name": "_GLOBAL",
          "State": 0,
          "Timestamp": 3064
        },
        {
          "Name": "advance",
          "State": 1,
          "Timestamp": 121
        },
        {
          "Name": "advance",
          "State": 0,
          "Timestamp": 239
        },
        {
          "Name": "advance",
          "State": 1,
          "Timestamp": 273
        },
        {
          "Name": "advance",
          "State": 0,
          "Timestamp": 411
        },
        {
          "Name": "advance",
          "State": 1,
          "Timestamp": 450
        },
        {
          "Name": "advance",
          "State": 0,
          "Timestamp": 575
        },
        {
          "Name": "advance",
          "State": 1,
          "Timestamp": 625
        },
        {
          "Name": "advance",
          "State": 0,
          "Timestamp": 706
        },
        {
          "Name": "advance",
          "State": 1,
          "Timestamp": 740
        },
        {
          "Name": "advance",
          "State": 0,
          "Timestamp": 863
        },
        {
          "Name": "advance",
          "State": 1,
          "Timestamp": 920
        },
        {
          "Name": "advance",
          "State": 0,
          "Timestamp": 1003
        },
        {
          "Name": "advance",
          "State": 1,
          "Timestamp": 1037
        },
        {
          "Name": "advance",
          "State": 0,
          "Timestamp": 1163
        },
        {
          "Name": "advance",
          "State": 1,
          "Timestamp": 1202
        },
        {
          "Name": "advance",
          "State": 0,
          "Timestamp": 1327
        },
        {
          "Name": "advance",
          "State": 1,
          "Timestamp": 1371
        },
        {
          "Name": "advance",
          "State": 0,
          "Timestamp": 1452
        },
        {
          "Name": "advance",
          "State": 1,
          "Timestamp": 1485
        },
        {
          "Name": "advance",
          "State": 0,
          "Timestamp": 1607
        },
        {
          "Name": "advance",
          "State": 1,
          "Timestamp": 1643
        },
        {
          "Name": "advance",
          "State": 0,
          "Timestamp": 1767
        },
        {
          "Name": "advance",
          "State": 1,
          "Timestamp": 1826
        },
        {
          "Name": "advance",
          "State": 0,
          "Timestamp": 1907
        },
        {
          "Name": "advance",
          "State": 1,
          "Timestamp": 1940
        },
        {
          "Name": "advance",
          "State": 0,
          "Timestamp": 2063
        },
        {
          "Name": "advance",
          "State": 1,
          "Timestamp": 2102
        },
        {
          "Name": "advance",
          "State": 0,
          "Timestamp": 2227
        },
        {
          "Name": "advance",
          "State": 1,
          "Timestamp": 2266
        },
        {
          "Name": "advance",
          "State": 0,
          "Timestamp": 2391
        },
        {
          "Name": "advance",
          "State": 1,
          "Timestamp": 2430
        },
        {
          "Name": "advance",
          "State": 0,
          "Timestamp": 2555
        },
        {
          "Name": "advance",
          "State": 1,
          "Timestamp": 2593
        },
        {
          "Name": "advance",
          "State": 0,
          "Timestamp": 2715
        },
        {
          "Name": "advance",
          "State": 1,
          "Timestamp": 2771
        },
        {
          "Name": "advance",
          "State": 0,
          "Timestamp": 2853
        },
        {
          "Name": "advance",
          "State": 1,
          "Timestamp": 2887
        },
        {
          "Name": "advance",
          "State": 0,
          "Timestamp": 3011
        },
        {
          "Name": "advance/map.np.mapData.FromDirichletNodesToNeumannNodes",
          "State": 1,
          "Timestamp": 121
        },
        {
          "Name": "advance/map.np.mapData.FromDirichletNodesToNeumannNodes",
          "State": 0,
          "Timestamp": 121
        },
        {
          "Name": "advance/map.np.mapData.FromDirichletNodesToNeumannNodes",
          "State": 1,
          "Timestamp": 273
        },
        {
          "Name": "advance/map.np.mapData.FromDirichletNodesToNeumannNodes",
          "State": 0,
          "Timestamp": 273
        },
        {
          "Name": "advance/map.np.mapData.FromDirichletNodesToNeumannNodes",
          "State": 1,
          "Timestamp": 450
        },
        {
          "Name": "advance/map.np.mapData.FromDirichletNodesToNeumannNodes",
          "State": 0,
          "Timestamp": 450
        },
        {
          "Name": "advance/map.np.mapData.FromDirichletNodesToNeumannNodes",
          "State": 1,
          "Timestamp": 625
        },
        {
          "Name": "advance/map.np.mapData.FromDirichletNodesToNeumannNodes",
          "State": 0,
          "Timestamp": 625
        },
        {
          "Name": "advance/map.np.mapData.FromDirichletNodesToNeumannNodes",
          "State": 1,
          "Timestamp": 740
        },
        {
          "Name": "advance/map.np.mapData.FromDirichletNodesToNeumannNodes",
          "State": 0,
          "Timestamp": 740
        },
        {
          "Name": "advance/map.np.mapData.FromDirichletNodesToNeumannNodes",
          "State": 1,
          "Timestamp": 920
        },
        {
          "Name": "advance/map.np.mapData.FromDirichletNodesToNeumannNodes",
          "State": 0,
          "Timestamp": 920
        },
        {
          "Name": "advance/map.np.mapData.FromDirichletNodesToNeumannNodes",
          "State": 1,
          "Timestamp": 1037
        },
        {
          "Name": "advance/map.np.mapData.FromDirichletNodesToNeumannNodes",
          "State": 0,
          "Timestamp": 1037
        },
        {
          "Name": "advance/map.np.mapData.FromDirichletNodesToNeumannNodes",
          "State": 1,
          "Timestamp": 1202
        },
        {
          "Name": "advance/map.np.mapData.FromDirichletNodesToNeumannNodes",
          "State": 0,
          "Timestamp": 1202
        },
        {
          "Name": "advance/map.np.mapData.FromDirichletNodesToNeumannNodes",
          "State": 1,
          "Timestamp": 1371
        },
        {
          "Name": "advance/map.np.mapData.FromDirichletNodesToNeumannNodes",
          "State": 0,
          "Timestamp": 1371
        },
        {
          "Name": "advance/map.np.mapData.FromDirichletNodesToNeumannNodes",
          "State": 1,
          "Timestamp": 1485
        },
        {
          "Name": "advance/map.np.mapData.FromDirichletNodesToNeumannNodes",
          "State": 0,
          "Timestamp": 1485
        },
        {
          "Name": "advance/map.np.mapData.FromDirichletNodesToNeumannNodes",
          "State": 1,
          "Timestamp": 1643
        },
        {
          "Name": "advance/map.np.mapData.FromDirichletNodesToNeumannNodes",
          "State": 0,
          "Timestamp": 1643
        },
        {
          "Name": "advance/map.np.mapData.FromDirichletNodesToNeumannNodes",
          "State": 1,
          "Timestamp": 1826
        },
        {
          "Name": "advance/map.np.mapData.FromDirichletNodesToNeumannNodes",
          "State": 0,
          "Timestamp": 1826
        },
        {
          "Name": "advance/map.np.mapData.FromDirichletNodesToNeumannNodes",
          "State": 1,
          "Timestamp": 1940
        },
        {
          "Name": "advance/map.np.mapData.FromDirichletNodesToNeumannNodes",
          "State": 0,
          "Timestamp": 1940
        },
        {
          "Name": "advance/map.np.mapData.FromDirichletNodesToNeumannNodes",
          "State": 1,
          "Timestamp": 2102
        },
        {
          "Name": "advance/map.np.mapData.FromDirichletNodesToNeumannNodes",
          "State": 0,
          "Timestamp": 2102
        },
        {
          "Name": "advance/map.np.mapData.FromDirichletNodesToNeumannNodes",
          "State": 1,
          "Timestamp": 2266
        },
        {
          "Name": "advance/map.np.mapData.FromDirichletNodesToNeumannNodes",
          "State": 0,
          "Timestamp": 2266
        },
        {
          "Name": "advance/map.np.mapData.FromDirichletNodesToNeumannNodes",
          "State": 1,
          "Timestamp": 2430
        },
        {
          "Name": "advance/map.np.mapData.FromDirichletNodesToNeumannNodes",
          "State": 0,
          "Timestamp": 2430
        },
        {
          "Name": "advance/map.np.mapData.FromDirichletNodesToNeumannNodes",
          "State": 1,
          "Timestamp": 2593
        },
        {
          "Name": "advance/map.np.mapData.FromDirichletNodesToNeumannNodes",
          "State": 0,
          "Timestamp": 2593
        },
        {
          "Name": "advance/map.np.mapData.FromDirichletNodesToNeumannNodes",
          "State": 1,
          "Timestamp": 2771
        },
        {
          "Name": "advance/map.np.mapData.FromDirichletNodesToNeumannNodes",
          "State": 0,
          "Timestamp": 2771
        },
        {
          "Name": "advance/map.np.mapData.FromDirichletNodesToNeumannNodes",
          "State": 1,
          "Timestamp": 2887
        },
        {
          "Name": "advance/map.np.mapData.FromDirichletNodesToNeumannNodes",
          "State": 0,
          "Timestamp": 2887
        },
        {
          "Name": "advance/map.np.mapData.FromNeumannNodesToDirichletNodes",
          "State": 1,
          "Timestamp": 239
        },
        {
          "Name": "advance/map.np.mapData.FromNeumannNodesToDirichletNodes",
          "State": 0,
          "Timestamp": 239
        },
        {
          "Name": "advance/map.np.mapData.FromNeumannNodesToDirichletNodes",
          "State": 1,
          "Timestamp": 239
        },
        {
          "Name": "advance/map.np.mapData.FromNeumannNodesToDirichletNodes",
          "State": 0,
          "Timestamp": 239
        },
        {
          "Name": "advance/map.np.mapData.FromNeumannNodesToDirichletNodes",
          "State": 1,
          "Timestamp": 411
        },
        {
          "Name": "advance/map.np.mapData.FromNeumannNodesToDirichletNodes",
          "State": 0,
          "Timestamp": 411
        },
        {
          "Name": "advance/map.np.mapData.FromNeumannNodesToDirichletNodes",
          "State": 1,
          "Timestamp": 411
        },
        {
          "Name": "advance/map.np.mapData.FromNeumannNodesToDirichletNodes",
          "State": 0,
          "Timestamp": 411
        },
        {
          "Name": "advance/map.np.mapData.FromNeumannNodesToDirichletNodes",
          "State": 1,
          "Timestamp": 574
        },
        {
          "Name": "advance/map.np.mapData.FromNeumannNodesToDirichletNodes",
          "State": 0,
          "Timestamp": 574
        },
        {
          "Name": "advance/map.np.mapData.FromNeumannNodesToDirichletNodes",
          "State": 1,
          "Timestamp": 574
        },
        {
          "Name": "advance/map.np.mapData.FromNeumannNodesToDirichletNodes",
          "State": 0,
          "Timestamp": 574
        },
        {
          "Name": "advance/map.np.mapData.FromNeumannNodesToDirichletNodes",
          "State": 1,
          "Timestamp": 706
        },
        {
          "Name": "advance/map.np.mapData.FromNeumannNodesToDirichletNodes",
          "State": 0,
          "Timestamp": 706
        },
        {
          "Name": "advance/map.np.mapData.FromNeumannNodesToDirichletNodes",
          "State": 1,
          "Timestamp": 706
        },
        {
          "Name": "advance/map.np.mapData.FromNeumannNodesToDirichletNodes",
          "State": 0,
          "Timestamp": 706
        },
        {
          "Name": "advance/map.np.mapData.FromNeumannNodesToDirichletNodes",
          "State": 1,
          "Timestamp": 863
        },
        {
          "Name": "advance/map.np.mapData.FromNeumannNodesToDirichletNodes",
          "State": 0,
          "Timestamp": 863
        },
        {
          "Name": "advance/map.np.mapData.FromNeumannNodesToDirichletNodes",
          "State": 1,
          "Timestamp": 863
        },
        {
          "Name": "advance/map.np.mapData.FromNeumannNodesToDirichletNodes",
          "State": 0,
          "Timestamp": 863
        },
        {
          "Name": "advance/map.np.mapData.FromNeumannNodesToDirichletNodes",
          "State": 1,
          "Timestamp": 1003
        },
        {
          "Name": "advance/map.np.mapData.FromNeumannNodesToDirichletNodes",
          "State": 0,
          "Timestamp": 1003
        },
        {
          "Name": "advance/map.np.mapData.FromNeumannNodesToDirichletNodes",
          "State": 1,
          "Timestamp": 1003
        },
        {
          "Name": "advance/map.np.mapData.FromNeumannNodesToDirichletNodes",
          "State": 0,
          "Timestamp": 1003
        },
        {
          "Name": "advance/map.np.mapData.FromNeumannNodesToDirichletNodes",
          "State": 1,
          "Timestamp": 1163
        },
        {
          "Name": "advance/map.np.mapData.FromNeumannNodesToDirichletNodes",
          "State": 0,
          "Timestamp": 1163
        },
        {
          "Name": "advance/map.np.mapData.FromNeumannNodesToDirichletNodes",
          "State": 1,
          "Timestamp": 1163
        },
        {
          "Name": "advance/map.np.mapData.FromNeumannNodesToDirichletNodes",
          "State": 0,
          "Timestamp": 1163
        },
        {
          "Name": "advance/map.np.mapData.FromNeumannNodesToDirichletNodes",
          "State": 1,
          "Timestamp": 1327
        },
        {
          "Name": "advance/map.np.mapData.FromNeumannNodesToDirichletNodes",
          "State": 0,
          "Timestamp": 1327
        },
        {
          "Name": "advance/map.np.mapData.FromNeumannNodesToDirichletNodes",
          "State": 1,
          "Timestamp": 1327
        },
        {
          "Name": "advance/map.np.mapData.FromNeumannNodesToDirichletNodes",
          "State": 0,
          "Timestamp": 1327
        },
        {
          "Name": "advance/map.np.mapData.FromNeumannNodesToDirichletNodes",
          "State": 1,
          "Timestamp": 1452
        },
        {
          "Name": "advance/map.np.mapData.FromNeumannNodesToDirichletNodes",
          "State": 0,
          "Timestamp": 1452
        },
        {
          "Name": "advance/map.np.mapData.FromNeumannNodesToDirichletNodes",
          "State": 1,
          "Timestamp": 1452
        },
        {
          "Name": "advance/map.np.mapData.FromNeumannNodesToDirichletNodes",
          "State": 0,
          "Timestamp": 1452
        },
        {
          "Name": "advance/map.np.mapData.FromNeumannNodesToDirichletNodes",
          "State": 1,
          "Timestamp": 1607
        },
        {
          "Name": "advance/map.np.mapData.FromNeumannNodesToDirichletNodes",
          "State": 0,
          "Timestamp": 1607
        },
        {
          "Name": "advance/map.np.mapData.FromNeumannNodesToDirichletNodes",
          "State": 1,
          "Timestamp": 1607
        },
        {
          "Name": "advance/map.np.mapData.FromNeumannNodesToDirichletNodes",
          "State": 0,
          "Timestamp": 1607
        },
        {
          "Name": "advance/map.np.mapData.FromNeumannNodesToDirichletNodes",
          "State": 1,
          "Timestamp": 1767
        },
        {
          "Name": "advance/map.np.mapData.FromNeumannNodesToDirichletNodes",
          "State": 0,
          "Timestamp": 1767
        },
        {
          "Name": "advance/map.np.mapData.FromNeumannNodesToDirichletNodes",
          "State": 1,
          "Timestamp": 1767
        },
        {
          "Name": "advance/map.np.mapData.FromNeumannNodesToDirichletNodes",
          "State": 0,
          "Timestamp": 1767
        },
        {
          "Name": "advance/map.np.mapData.FromNeumannNodesToDirichletNodes",
          "State": 1,
          "Timestamp": 1907
        },
        {
          "Name": "advance/map.np.mapData.FromNeumannNodesToDirichletNodes",
          "State": 0,
          "Timestamp": 1907
        },
        {
          "Name": "advance/map.np.mapData.FromNeumannNodesToDirichletNodes",
          "State": 1,
          "Timestamp": 1907
        },
        {
          "Name": "advance/map.np.mapData.FromNeumannNodesToDirichletNodes",
          "State": 0,
          "Timestamp": 1907
        },
        {
          "Name": "advance/map.np.mapData.FromNeumannNodesToDirichletNodes",
          "State": 1,
          "Timestamp": 2063
        },
        {
          "Name": "advance/map.np.mapData.FromNeumannNodesToDirichletNodes",
          "State": 0,
          "Timestamp": 2063
        },
        {
          "Name": "advance/map.np.mapData.FromNeumannNodesToDirichletNodes",
          "State": 1,
          "Timestamp": 2063
        },
        {
          "Name": "advance/map.np.mapData.FromNeumannNodesToDirichletNodes",
          "State": 0,
          "Timestamp": 2063
        },
        {
          "Name": "advance/map.np.mapData.FromNeumannNodesToDirichletNodes",
          "State": 1,
          "Timestamp": 2227
        },
        {
          "Name": "advance/map.np.mapData.FromNeumannNodesToDirichletNodes",
          "State": 0,
          "Timestamp": 2227
        },
        {
          "Name": "advance/map.np.mapData.FromNeumannNodesToDirichletNodes",
          "State": 1,
          "Timestamp": 2227
        },
        {
          "Name": "advance/map.np.mapData.FromNeumannNodesToDirichletNodes",
          "State": 0,
          "Timestamp": 2227
        },
        {
          "Name": "advance/map.np.mapData.FromNeumannNodesToDirichletNodes",
          "State": 1,
          "Timestamp": 2391
        },
        {
          "Name": "advance/map.np.mapData.FromNeumannNodesToDirichletNodes",
          "State": 0,
          "Timestamp": 2391
        },
        {
          "Name": "advance/map.np.mapData.FromNeumannNodesToDirichletNodes",
          "State": 1,
          "Timestamp": 2391
        },
        {
          "Name": "advance/map.np.mapData.FromNeumannNodesToDirichletNodes",
          "State": 0,
          "Timestamp": 2391
        },
        {
          "Name": "advance/map.np.mapData.FromNeumannNodesToDirichletNodes",
          "State": 1,
          "Timestamp": 2555
        },
        {
          "Name": "advance/map.np.mapData.FromNeumannNodesToDirichletNodes",
          "State": 0,
          "Timestamp": 2555
        },
        {
          "Name": "advance/map.np.mapData.FromNeumannNodesToDirichletNodes",
          "State": 1,
          "Timestamp": 2555
        },
        {
          "Name": "advance/map.np.mapData.FromNeumannNodesToDirichletNodes",
          "State": 0,
          "Timestamp": 2555
        },
        {
          "Name": "advance/map.np.mapData.FromNeumannNodesToDirichletNodes",
          "State": 1,
          "Timestamp": 2715
        },
        {
          "Name": "advance/map.np.mapData.FromNeumannNodesToDirichletNodes",
          "State": 0,
          "Timestamp": 2715
        },
        {
          "Name": "advance/map.np.mapData.FromNeumannNodesToDirichletNodes",
          "State": 1,
          "Timestamp": 2715
        },
        {
          "Name": "advance/map.np.mapData.FromNeumannNodesToDirichletNodes",
          "State": 0,
          "Timestamp": 2715
        },
        {
          "Name": "advance/map.np.mapData.FromNeumannNodesToDirichletNodes",
          "State": 1,
          "Timestamp": 2853
        },
        {
          "Name": "advance/map.np.mapData.FromNeumannNodesToDirichletNodes",
          "State": 0,
          "Timestamp": 2853
        },
        {
          "Name": "advance/map.np.mapData.FromNeumannNodesToDirichletNodes",
          "State": 1,
          "Timestamp": 2853
        },
        {
          "Name": "advance/map.np.mapData.FromNeumannNodesToDirichletNodes",
          "State": 0,
          "Timestamp": 2853
        },
        {
          "Name": "advance/map.np.mapData.FromNeumannNodesToDirichletNodes",
          "State": 1,
          "Timestamp": 3011
        },
        {
          "Name": "advance/map.np.mapData.FromNeumannNodesToDirichletNodes",
          "State": 0,
          "Timestamp": 3011
        },
        {
          "Name": "advance/map.np.mapData.FromNeumannNodesToDirichletNodes",
          "State": 1,
          "Timestamp": 3011
        },
        {
          "Name": "advance/map.np.mapData.FromNeumannNodesToDirichletNodes",
          "State": 0,
          "Timestamp": 3011
        },
        {
          "Name": "configure",
          "State": 1,
          "Timestamp": 0
        },
        {
          "Name": "configure",
          "State": 0,
          "Timestamp": 0
        },
        {
          "Name": "finalize",
          "State": 1,
          "Timestamp": 3064
        },
        {
          "Name": "finalize",
          "State": 0,
          "Timestamp": 3064
        },
        {
          "Name": "initialize",
          "State": 1,
          "Timestamp": 4
        },
        {
          "Name": "initialize",
          "State": 0,
          "Timestamp": 47
        },
        {
          "Name": "initialize/m2n.requestMasterConnection",
          "State": 1,
          "Timestamp": 4
        },
        {
          "Name": "initialize/m2n.requestMasterConnection",
          "State": 0,
          "Timestamp": 5
        },
        {
          "Name": "initialize/m2n.requestSlavesConnection",
          "State": 1,
          "Timestamp": 47
        },
        {
          "Name": "initialize/m2n.requestSlavesConnection",
          "State": 0,
          "Timestamp": 47
        },
        {
          "Name": "initialize/partition.feedbackMesh.DirichletNodes",
          "State": 1,
          "Timestamp": 47
        },
        {
          "Name": "initialize/partition.feedbackMesh.DirichletNodes",
          "State": 0,
          "Timestamp": 47
        },
        {
          "Name": "initialize/partition.receiveGlobalMesh.NeumannNodes",
          "State": 1,
          "Timestamp": 5
        },
        {
          "Name": "initialize/partition.receiveGlobalMesh.NeumannNodes",
          "State": 0,
          "Timestamp": 47
        },
        {
          "Name": "initializeData",
          "State": 1,
          "Timestamp": 50
        },
        {
          "Name": "initializeData",
          "State": 0,
          "Timestamp": 50
        },
        {
          "Name": "initializeData/map.np.computeMapping.FromDirichletNodesToNeumannNodes",
          "State": 1,
          "Timestamp": 50
        },
        {
          "Name": "initializeData/map.np.computeMapping.FromDirichletNodesToNeumannNodes",
          "State": 0,
          "Timestamp": 50
        },
        {
          "Name": "initializeData/map.np.computeMapping.FromDirichletNodesToNeumannNodes.getIndexOnEdges",
          "State": 1,
          "Timestamp": 50
        },
        {
          "Name": "initializeData/map.np.computeMapping.FromDirichletNodesToNeumannNodes.getIndexOnEdges",
          "State": 0,
          "Timestamp": 50
        },
        {
          "Name": "initializeData/map.np.computeMapping.FromDirichletNodesToNeumannNodes.getIndexOnVertices",
          "State": 1,
          "Timestamp": 50
        },
        {
          "Name": "initializeData/map.np.computeMapping.FromDirichletNodesToNeumannNodes.getIndexOnVertices",
          "State": 0,
          "Timestamp": 50
        },
        {
          "Name": "initializeData/map.np.computeMapping.FromNeumannNodesToDirichletNodes",
          "State": 1,
          "Timestamp": 50
        },
        {
          "Name": "initializeData/map.np.computeMapping.FromNeumannNodesToDirichletNodes",
          "State": 0,
          "Timestamp": 50
        },
        {
          "Name": "initializeData/map.np.computeMapping.FromNeumannNodesToDirichletNodes.getIndexOnEdges",
          "State": 1,
          "Timestamp": 50
        },
        {
          "Name": "initializeData/map.np.computeMapping.FromNeumannNodesToDirichletNodes.getIndexOnEdges",
          "State": 0,
          "Timestamp": 50
        },
        {
          "Name": "initializeData/map.np.computeMapping.FromNeumannNodesToDirichletNodes.getIndexOnVertices",
          "State": 1,
          "Timestamp": 50
        },
        {
          "Name": "initializeData/map.np.computeMapping.FromNeumannNodesToDirichletNodes.getIndexOnVertices",
          "State": 0,
          "Timestamp": 50
        },
        {
          "Name": "initializeData/map.np.mapData.FromDirichletNodesToNeumannNodes",
          "State": 1,
          "Timestamp": 50
        },
        {
          "Name": "initializeData/map.np.mapData.FromDirichletNodesToNeumannNodes",
          "State": 0,
          "Timestamp": 50
        },
        {
          "Name": "initializeData/map.np.mapData.FromNeumannNodesToDirichletNodes",
          "State": 1,
          "Timestamp": 50
        },
        {
          "Name": "initializeData/map.np.mapData.FromNeumannNodesToDirichletNodes",
          "State": 0,
          "Timestamp": 50
        },
        {
          "Name": "initializeData/map.np.mapData.FromNeumannNodesToDirichletNodes",
          "State": 1,
          "Timestamp": 50
        },
        {
          "Name": "initializeData/map.np.mapData.FromNeumannNodesToDirichletNodes",
          "State": 0,
          "Timestamp": 50
        },
        {
          "Name": "solver.advance",
          "State": 1,
          "Timestamp": 239
        },
        {
          "Name": "solver.advance",
          "State": 0,
          "Timestamp": 273
        },
        {
          "Name": "solver.advance",
          "State": 1,
          "Timestamp": 411
        },
        {
          "Name": "solver.advance",
          "State": 0,
          "Timestamp": 450
        },
        {
          "Name": "solver.advance",
          "State": 1,
          "Timestamp": 575
        },
        {
          "Name": "solver.advance",
          "State": 0,
          "Timestamp": 625
        },
        {
          "Name": "solver.advance",
          "State": 1,
          "Timestamp": 706
        },
        {
          "Name": "solver.advance",
          "State": 0,
          "Timestamp": 740
        },
        {
          "Name": "solver.advance",
          "State": 1,
          "Timestamp": 863
        },
        {
          "Name": "solver.advance",
          "State": 0,
          "Timestamp": 920
        },
        {
          "Name": "solver.advance",
          "State": 1,
          "Timestamp": 1003
        },
        {
          "Name": "solver.advance",
          "State": 0,
          "Timestamp": 1037
        },
        {
          "Name": "solver.advance",
          "State": 1,
          "Timestamp": 1163
        },
        {
          "Name": "solver.advance",
          "State": 0,
          "Timestamp": 1202
        },
        {
          "Name": "solver.advance",
          "State": 1,
          "Timestamp": 1327
        },
        {
          "Name": "solver.advance",
          "State": 0,
          "Timestamp": 1371
        },
        {
          "Name": "solver.advance",
          "State": 1,
          "Timestamp": 1452
        },
        {
          "Name": "solver.advance",
          "State": 0,
          "Timestamp": 1485
        },
        {
          "Name": "solver.advance",
          "State": 1,
          "Timestamp": 1607
        },
        {
          "Name": "solver.advance",
          "State": 0,
          "Timestamp": 1643
        },
        {
          "Name": "solver.advance",
          "State": 1,
          "Timestamp": 1767
        },
        {
          "Name": "solver.advance",
          "State": 0,
          "Timestamp": 1825
        },
        {
          "Name": "solver.advance",
          "State": 1,
          "Timestamp": 1907
        },
        {
          "Name": "solver.advance",
          "State": 0,
          "Timestamp": 1940
        },
        {
          "Name": "solver.advance",
          "State": 1,
          "Timestamp": 2063
        },
        {
          "Name": "solver.advance",
          "State": 0,
          "Timestamp": 2102
        },
        {
          "Name": "solver.advance",
          "State": 1,
          "Timestamp": 2227
        },
        {
          "Name": "solver.advance",
          "State": 0,
          "Timestamp": 2266
        },
        {
          "Name": "solver.advance",
          "State": 1,
          "Timestamp": 2391
        },
        {
          "Name": "solver.advance",
          "State": 0,
          "Timestamp": 2430
        },
        {
          "Name": "solver.advance",
          "State": 1,
          "Timestamp": 2555
        },
        {
          "Name": "solver.advance",
          "State": 0,
          "Timestamp": 2593
        },
        {
          "Name": "solver.advance",
          "State": 1,
          "Timestamp": 2715
        },
        {
          "Name": "solver.advance",
          "State": 0,
          "Timestamp": 2771
        },
        {
          "Name": "solver.advance",
          "State": 1,
          "Timestamp": 2853
        },
        {
          "Name": "solver.advance",
          "State": 0,
          "Timestamp": 2887
        },
        {
          "Name": "solver.advance",
          "State": 1,
          "Timestamp": 3011
        },
        {
          "Name": "solver.advance",
          "State": 0,
          "Timestamp": 3064
        },
        {
          "Name": "solver.initialize",
          "State": 1,
          "Timestamp": 0
        },
        {
          "Name": "solver.initialize",
          "State": 2,
          "Timestamp": 4
        },
        {
          "Name": "solver.initialize",
          "State": 1,
          "Timestamp": 47
        },
        {
          "Name": "solver.initialize",
          "State": 2,
          "Timestamp": 50
        },
        {
          "Name": "solver.initialize",
          "State": 1,
          "Timestamp": 50
        },
        {
          "Name": "solver.initialize",
          "State": 0,
          "Timestamp": 121
        }
      ],
      "Timings": {
        "_GLOBAL": {
          "Count": 1,
          "Data": {},
          "Max": 3064,
          "Min": 3064,
          "TimeRatio": 1.0,
          "Total": 3064
        },
        "advance": {
          "Count": 19,
          "Data": {},
          "Max": 138,
          "Min": 81,
          "TimeRatio": 0.7010443864229765,
          "Total": 2148
        },
        "advance/map.np.mapData.FromDirichletNodesToNeumannNodes": {
          "Count": 19,
          "Data": {},
          "Max": 0,
          "Min": 0,
          "TimeRatio": 0.0,
          "Total": 0
        },
        "advance/map.np.mapData.FromNeumannNodesToDirichletNodes": {
          "Count": 38,
          "Data": {},
          "Max": 0,
          "Min": 0,
          "TimeRatio": 0.0,
          "Total": 0
        },
        "configure": {
          "Count": 1,
          "Data": {},
          "Max": 0,
          "Min": 0,
          "TimeRatio": 0.0,
          "Total": 0
        },
        "finalize": {
          "Count": 1,
          "Data": {},
          "Max": 0,
          "Min": 0,
          "TimeRatio": 0.0,
          "Total": 0
        },
        "initialize": {
          "Count": 1,
          "Data": {},
          "Max": 43,
          "Min": 43,
          "TimeRatio": 0.014033942558746737,
          "Total": 43
        },
        "initialize/m2n.requestMasterConnection": {
          "Count": 1,
          "Data": {},
          "Max": 1,
          "Min": 1,
          "TimeRatio": 0.00032637075718015666,
          "Total": 1
        },
        "initialize/m2n.requestSlavesConnection": {
          "Count": 1,
          "Data": {},
          "Max": 0,
          "Min": 0,
          "TimeRatio": 0.0,
          "Total": 0
        },
        "initialize/partition.feedbackMesh.DirichletNodes": {
          "Count": 1,
          "Data": {},
          "Max": 0,
          "Min": 0,
          "TimeRatio": 0.0,
          "Total": 0
        },
        "initialize/partition.receiveGlobalMesh.NeumannNodes": {
          "Count": 1,
          "Data": {},
          "Max": 41,
          "Min": 41,
          "TimeRatio": 0.013381201044386422,
          "Total": 41
        },
        "initializeData": {
          "Count": 1,
          "Data": {},
          "Max": 0,
          "Min": 0,
          "TimeRatio": 0.0,
          "Total": 0
        },
        "initializeData/map.np.computeMapping.FromDirichletNodesToNeumannNodes": {
          "Count": 1,
          "Data": {},
          "Max": 0,
          "Min": 0,
          "TimeRatio": 0.0,
          "Total": 0
        },
        "initializeData/map.np.computeMapping.FromDirichletNodesToNeumannNodes.getIndexOnEdges": {
          "Count": 1,
          "Data": {},
          "Max": 0,
          "Min": 0,
          "TimeRatio": 0.0,
          "Total": 0
        },
        "initializeData/map.np.computeMapping.FromDirichletNodesToNeumannNodes.getIndexOnVertices": {
          "Count": 1,
          "Data": {},
          "Max": 0,
          "Min": 0,
          "TimeRatio": 0.0,
          "Total": 0
        },
        "initializeData/map.np.computeMapping.FromNeumannNodesToDirichletNodes": {
          "Count": 1,
          "Data": {},
          "Max": 0,
          "Min": 0,
          "TimeRatio": 0.0,
          "Total": 0
        },
        "initializeData/map.np.computeMapping.FromNeumannNodesToDirichletNodes.getIndexOnEdges": {
          "Count": 1,
          "Data": {},
          "Max": 0,
          "Min": 0,
          "TimeRatio": 0.0,
          "Total": 0
        },
        "initializeData/map.np.computeMapping.FromNeumannNodesToDirichletNodes.getIndexOnVertices": {
          "Count": 1,
          "Data": {},
          "Max": 0,
          "Min": 0,
          "TimeRatio": 0.0,
          "Total": 0
        },
        "initializeData/map.np.mapData.FromDirichletNodesToNeumannNodes": {
          "Count": 1,
          "Data": {},
          "Max": 0,
          "Min": 0,
          "TimeRatio": 0.0,
          "Total": 0
        },
        "initializeData/map.np.mapData.FromNeumannNodesToDirichletNodes": {
          "Count": 2,
          "Data": {},
          "Max": 0,
          "Min": 0,
          "TimeRatio": 0.0,
          "Total": 0
        },
        "solver.advance": {
          "Count": 19,
          "Data": {},
          "Max": 58,
          "Min": 33,
          "TimeRatio": 0.2588120104438642,
          "Total": 793
        },
        "solver.initialize": {
          "Count": 1,
          "Data": {},
          "Max": 78,
          "Min": 78,
          "TimeRatio": 0.025456919060052218,
          "Total": 78
        }
      }
    }
  ]
}
