{
  "Finalized": "2019-11-13T17:25:10.238",
  "Initialized": "2019-11-13T17:25:05.868",
  "Name": "",
  "Ranks": [
    {
      "Finalized": "2019-11-13T17:25:10.238",
      "Initialized": "2019-11-13T17:25:05.868",
      "StateChanges": [
        {
          "Name": "_GLOBAL",
          "State": 1,
          "Timestamp": 0
        },
        {
          "Name": "_GLOBAL",
          "State": 0,
          "Timestamp": 4370
        },
        {
          "Name": "advance",
          "State": 1,
          "Timestamp": 210
        },
        {
          "Name": "advance",
          "State": 0,
          "Timestamp": 414
        },
        {
          "Name": "advance",
          "State": 1,
          "Timestamp": 509
        },
        {
          "Name": "advance",
          "State": 0,
          "Timestamp": 646
        },
        {
          "Name": "advance",
          "State": 1,
          "Timestamp": 741
        },
        {
          "Name": "advance",
          "State": 0,
          "Timestamp": 860
        },
        {
          "Name": "advance",
          "State": 1,
          "Timestamp": 957
        },
        {
          "Name": "advance",
          "State": 0,
          "Timestamp": 1076
        },
        {
          "Name": "advance",
          "State": 1,
          "Timestamp": 1176
        },
        {
          "Name": "advance",
          "State": 0,
          "Timestamp": 1298
        },
        {
          "Name": "advance",
          "State": 1,
          "Timestamp": 1394
        },
        {
          "Name": "advance",
          "State": 0,
          "Timestamp": 1516
        },
        {
          "Name": "advance",
          "State": 1,
          "Timestamp": 1612
        },
        {
          "Name": "advance",
          "State": 0,
          "Timestamp": 1732
        },
        {
          "Name": "advance",
          "State": 1,
          "Timestamp": 1828
        },
        {
          "Name": "advance",
          "State": 0,
          "Timestamp": 1949
        },
        {
          "Name": "advance",
          "State": 1,
          "Timestamp": 2045
        },
        {
          "Name": "advance",
          "State": 0,
          "Timestamp": 2168
        },
        {
          "Name": "advance",
          "State": 1,
          "Timestamp": 2263
        },
        {
          "Name": "advance",
          "State": 0,
          "Timestamp": 2386
        },
        {
          "Name": "advance",
          "State": 1,
          "Timestamp": 2483
        },
        {
          "Name": "advance",
          "State": 0,
          "Timestamp": 2603
        },
        {
          "Name": "advance",
          "State": 1,
          "Timestamp": 2700
        },
        {
          "Name": "advance",
          "State": 0,
          "Timestamp": 2821
        },
        {
          "Name": "advance",
          "State": 1,
          "Timestamp": 2917
        },
        {
          "Name": "advance",
          "State": 0,
          "Timestamp": 3038
        },
        {
          "Name": "advance",
          "State": 1,
          "Timestamp": 3135
        },
        {
          "Name": "advance",
          "State": 0,
          "Timestamp": 3255
        },
        {
          "Name": "advance",
          "State": 1,
          "Timestamp": 3352
        },
        {
          "Name": "advance",
          "State": 0,
          "Timestamp": 3471
        },
        {
          "Name": "advance",
          "State": 1,
          "Timestamp": 3568
        },
        {
          "Name": "advance",
          "State": 0,
          "Timestamp": 3688
        },
        {
          "Name": "advance",
          "State": 1,
          "Timestamp": 3785
        },
        {
          "Name": "advance",
          "State": 0,
          "Timestamp": 3905
        },
        {
          "Name": "advance",
          "State": 1,
          "Timestamp": 4001
        },
        {
          "Name": "advance",
          "State": 0,
          "Timestamp": 4123
        },
        {
          "Name": "advance",
          "State": 1,
          "Timestamp": 4220
        },
        {
          "Name": "advance",
          "State": 0,
          "Timestamp": 4340
        },
        {
          "Name": "advance/map.np.mapData.FromDirichletNodesToNeumannNodes",
          "State": 1,
          "Timestamp": 210
        },
        {
          "Name": "advance/map.np.mapData.FromDirichletNodesToNeumannNodes",
          "State": 0,
          "Timestamp": 210
        },
        {
          "Name": "advance/map.np.mapData.FromDirichletNodesToNeumannNodes",
          "State": 1,
          "Timestamp": 210
        },
        {
          "Name": "advance/map.np.mapData.FromDirichletNodesToNeumannNodes",
          "State": 0,
          "Timestamp": 210
        },
        {
          "Name": "advance/map.np.mapData.FromDirichletNodesToNeumannNodes",
          "State": 1,
          "Timestamp": 210
        },
        {
          "Name": "advance/map.np.mapData.FromDirichletNodesToNeumannNodes",
          "State": 0,
          "Timestamp": 210
        },
        {
          "Name": "advance/map.np.mapData.FromDirichletNodesToNeumannNodes",
          "State": 1,
          "Timestamp": 509
        },
        {
          "Name": "advance/map.np.mapData.FromDirichletNodesToNeumannNodes",
          "State": 0,
          "Timestamp": 509
        },
        {
          "Name": "advance/map.np.mapData.FromDirichletNodesToNeumannNodes",
          "State": 1,
          "Timestamp": 509
        },
        {
          "Name": "advance/map.np.mapData.FromDirichletNodesToNeumannNodes",
          "State": 0,
          "Timestamp": 509
        },
        {
          "Name": "advance/map.np.mapData.FromDirichletNodesToNeumannNodes",
          "State": 1,
          "Timestamp": 509
        },
        {
          "Name": "advance/map.np.mapData.FromDirichletNodesToNeumannNodes",
          "State": 0,
          "Timestamp": 509
        },
        {
          "Name": "advance/map.np.mapData.FromDirichletNodesToNeumannNodes",
          "State": 1,
          "Timestamp": 741
        },
        {
          "Name": "advance/map.np.mapData.FromDirichletNodesToNeumannNodes",
          "State": 0,
          "Timestamp": 741
        },
        {
          "Name": "advance/map.np.mapData.FromDirichletNodesToNeumannNodes",
          "State": 1,
          "Timestamp": 741
        },
        {
          "Name": "advance/map.np.mapData.FromDirichletNodesToNeumannNodes",
          "State": 0,
          "Timestamp": 741
        },
        {
          "Name": "advance/map.np.mapData.FromDirichletNodesToNeumannNodes",
          "State": 1,
          "Timestamp": 741
        },
        {
          "Name": "advance/map.np.mapData.FromDirichletNodesToNeumannNodes",
          "State": 0,
          "Timestamp": 741
        },
        {
          "Name": "advance/map.np.mapData.FromDirichletNodesToNeumannNodes",
          "State": 1,
          "Timestamp": 957
        },
        {
          "Name": "advance/map.np.mapData.FromDirichletNodesToNeumannNodes",
          "State": 0,
          "Timestamp": 957
        },
        {
          "Name": "advance/map.np.mapData.FromDirichletNodesToNeumannNodes",
          "State": 1,
          "Timestamp": 957
        },
        {
          "Name": "advance/map.np.mapData.FromDirichletNodesToNeumannNodes",
          "State": 0,
          "Timestamp": 957
        },
        {
          "Name": "advance/map.np.mapData.FromDirichletNodesToNeumannNodes",
          "State": 1,
          "Timestamp": 957
        },
        {
          "Name": "advance/map.np.mapData.FromDirichletNodesToNeumannNodes",
          "State": 0,
          "Timestamp": 957
        },
        {
          "Name": "advance/map.np.mapData.FromDirichletNodesToNeumannNodes",
          "State": 1,
          "Timestamp": 1176
        },
        {
          "Name": "advance/map.np.mapData.FromDirichletNodesToNeumannNodes",
          "State": 0,
          "Timestamp": 1176
        },
        {
          "Name": "advance/map.np.mapData.FromDirichletNodesToNeumannNodes",
          "State": 1,
          "Timestamp": 1176
        },
        {
          "Name": "advance/map.np.mapData.FromDirichletNodesToNeumannNodes",
          "State": 0,
          "Timestamp": 1176
        },
        {
          "Name": "advance/map.np.mapData.FromDirichletNodesToNeumannNodes",
          "State": 1,
          "Timestamp": 1176
        },
        {
          "Name": "advance/map.np.mapData.FromDirichletNodesToNeumannNodes",
          "State": 0,
          "Timestamp": 1176
        },
        {
          "Name": "advance/map.np.mapData.FromDirichletNodesToNeumannNodes",
          "State": 1,
          "Timestamp": 1394
        },
        {
          "Name": "advance/map.np.mapData.FromDirichletNodesToNeumannNodes",
          "State": 0,
          "Timestamp": 1394
        },
        {
          "Name": "advance/map.np.mapData.FromDirichletNodesToNeumannNodes",
          "State": 1,
          "Timestamp": 1394
        },
        {
          "Name": "advance/map.np.mapData.FromDirichletNodesToNeumannNodes",
          "State": 0,
          "Timestamp": 1394
        },
        {
          "Name": "advance/map.np.mapData.FromDirichletNodesToNeumannNodes",
          "State": 1,
          "Timestamp": 1394
        },
        {
          "Name": "advance/map.np.mapData.FromDirichletNodesToNeumannNodes",
          "State": 0,
          "Timestamp": 1394
        },
        {
          "Name": "advance/map.np.mapData.FromDirichletNodesToNeumannNodes",
          "State": 1,
          "Timestamp": 1612
        },
        {
          "Name": "advance/map.np.mapData.FromDirichletNodesToNeumannNodes",
          "State": 0,
          "Timestamp": 1612
        },
        {
          "Name": "advance/map.np.mapData.FromDirichletNodesToNeumannNodes",
          "State": 1,
          "Timestamp": 1612
        },
        {
          "Name": "advance/map.np.mapData.FromDirichletNodesToNeumannNodes",
          "State": 0,
          "Timestamp": 1612
        },
        {
          "Name": "advance/map.np.mapData.FromDirichletNodesToNeumannNodes",
          "State": 1,
          "Timestamp": 1612
        },
        {
          "Name": "advance/map.np.mapData.FromDirichletNodesToNeumannNodes",
          "State": 0,
          "Timestamp": 1612
        },
        {
          "Name": "advance/map.np.mapData.FromDirichletNodesToNeumannNodes",
          "State": 1,
          "Timestamp": 1828
        },
        {
          "Name": "advance/map.np.mapData.FromDirichletNodesToNeumannNodes",
          "State": 0,
          "Timestamp": 1828
        },
        {
          "Name": "advance/map.np.mapData.FromDirichletNodesToNeumannNodes",
          "State": 1,
          "Timestamp": 1828
        },
        {
          "Name": "advance/map.np.mapData.FromDirichletNodesToNeumannNodes",
          "State": 0,
          "Timestamp": 1828
        },
        {
          "Name": "advance/map.np.mapData.FromDirichletNodesToNeumannNodes",
          "State": 1,
          "Timestamp": 1828
        },
        {
          "Name": "advance/map.np.mapData.FromDirichletNodesToNeumannNodes",
          "State": 0,
          "Timestamp": 1828
        },
        {
          "Name": "advance/map.np.mapData.FromDirichletNodesToNeumannNodes",
          "State": 1,
          "Timestamp": 2045
        },
        {
          "Name": "advance/map.np.mapData.FromDirichletNodesToNeumannNodes",
          "State": 0,
          "Timestamp": 2045
        },
        {
          "Name": "advance/map.np.mapData.FromDirichletNodesToNeumannNodes",
          "State": 1,
          "Timestamp": 2045
        },
        {
          "Name": "advance/map.np.mapData.FromDirichletNodesToNeumannNodes",
          "State": 0,
          "Timestamp": 2045
        },
        {
          "Name": "advance/map.np.mapData.FromDirichletNodesToNeumannNodes",
          "State": 1,
          "Timestamp": 2045
        },
        {
          "Name": "advance/map.np.mapData.FromDirichletNodesToNeumannNodes",
          "State": 0,
          "Timestamp": 2045
        },
        {
          "Name": "advance/map.np.mapData.FromDirichletNodesToNeumannNodes",
          "State": 1,
          "Timestamp": 2263
        },
        {
          "Name": "advance/map.np.mapData.FromDirichletNodesToNeumannNodes",
          "State": 0,
          "Timestamp": 2263
        },
        {
          "Name": "advance/map.np.mapData.FromDirichletNodesToNeumannNodes",
          "State": 1,
          "Timestamp": 2263
        },
        {
          "Name": "advance/map.np.mapData.FromDirichletNodesToNeumannNodes",
          "State": 0,
          "Timestamp": 2263
        },
        {
          "Name": "advance/map.np.mapData.FromDirichletNodesToNeumannNodes",
          "State": 1,
          "Timestamp": 2263
        },
        {
          "Name": "advance/map.np.mapData.FromDirichletNodesToNeumannNodes",
          "State": 0,
          "Timestamp": 2263
        },
        {
          "Name": "advance/map.np.mapData.FromDirichletNodesToNeumannNodes",
          "State": 1,
          "Timestamp": 2483
        },
        {
          "Name": "advance/map.np.mapData.FromDirichletNodesToNeumannNodes",
          "State": 0,
          "Timestamp": 2483
        },
        {
          "Name": "advance/map.np.mapData.FromDirichletNodesToNeumannNodes",
          "State": 1,
          "Timestamp": 2483
        },
        {
          "Name": "advance/map.np.mapData.FromDirichletNodesToNeumannNodes",
          "State": 0,
          "Timestamp": 2483
        },
        {
          "Name": "advance/map.np.mapData.FromDirichletNodesToNeumannNodes",
          "State": 1,
          "Timestamp": 2483
        },
        {
          "Name": "advance/map.np.mapData.FromDirichletNodesToNeumannNodes",
          "State": 0,
          "Timestamp": 2483
        },
        {
          "Name": "advance/map.np.mapData.FromDirichletNodesToNeumannNodes",
          "State": 1,
          "Timestamp": 2700
        },
        {
          "Name": "advance/map.np.mapData.FromDirichletNodesToNeumannNodes",
          "State": 0,
          "Timestamp": 2700
        },
        {
          "Name": "advance/map.np.mapData.FromDirichletNodesToNeumannNodes",
          "State": 1,
          "Timestamp": 2700
        },
        {
          "Name": "advance/map.np.mapData.FromDirichletNodesToNeumannNodes",
          "State": 0,
          "Timestamp": 2700
        },
        {
          "Name": "advance/map.np.mapData.FromDirichletNodesToNeumannNodes",
          "State": 1,
          "Timestamp": 2700
        },
        {
          "Name": "advance/map.np.mapData.FromDirichletNodesToNeumannNodes",
          "State": 0,
          "Timestamp": 2700
        },
        {
          "Name": "advance/map.np.mapData.FromDirichletNodesToNeumannNodes",
          "State": 1,
          "Timestamp": 2917
        },
        {
          "Name": "advance/map.np.mapData.FromDirichletNodesToNeumannNodes",
          "State": 0,
          "Timestamp": 2917
        },
        {
          "Name": "advance/map.np.mapData.FromDirichletNodesToNeumannNodes",
          "State": 1,
          "Timestamp": 2917
        },
        {
          "Name": "advance/map.np.mapData.FromDirichletNodesToNeumannNodes",
          "State": 0,
          "Timestamp": 2917
        },
        {
          "Name": "advance/map.np.mapData.FromDirichletNodesToNeumannNodes",
          "State": 1,
          "Timestamp": 2917
        },
        {
          "Name": "advance/map.np.mapData.FromDirichletNodesToNeumannNodes",
          "State": 0,
          "Timestamp": 2917
        },
        {
          "Name": "advance/map.np.mapData.FromDirichletNodesToNeumannNodes",
          "State": 1,
          "Timestamp": 3135
        },
        {
          "Name": "advance/map.np.mapData.FromDirichletNodesToNeumannNodes",
          "State": 0,
          "Timestamp": 3135
        },
        {
          "Name": "advance/map.np.mapData.FromDirichletNodesToNeumannNodes",
          "State": 1,
          "Timestamp": 3135
        },
        {
          "Name": "advance/map.np.mapData.FromDirichletNodesToNeumannNodes",
          "State": 0,
          "Timestamp": 3135
        },
        {
          "Name": "advance/map.np.mapData.FromDirichletNodesToNeumannNodes",
          "State": 1,
          "Timestamp": 3135
        },
        {
          "Name": "advance/map.np.mapData.FromDirichletNodesToNeumannNodes",
          "State": 0,
          "Timestamp": 3135
        },
        {
          "Name": "advance/map.np.mapData.FromDirichletNodesToNeumannNodes",
          "State": 1,
          "Timestamp": 3352
        },
        {
          "Name": "advance/map.np.mapData.FromDirichletNodesToNeumannNodes",
          "State": 0,
          "Timestamp": 3352
        },
        {
          "Name": "advance/map.np.mapData.FromDirichletNodesToNeumannNodes",
          "State": 1,
          "Timestamp": 3352
        },
        {
          "Name": "advance/map.np.mapData.FromDirichletNodesToNeumannNodes",
          "State": 0,
          "Timestamp": 3352
        },
        {
          "Name": "advance/map.np.mapData.FromDirichletNodesToNeumannNodes",
          "State": 1,
          "Timestamp": 3352
        },
        {
          "Name": "advance/map.np.mapData.FromDirichletNodesToNeumannNodes",
          "State": 0,
          "Timestamp": 3352
        },
        {
          "Name": "advance/map.np.mapData.FromDirichletNodesToNeumannNodes",
          "State": 1,
          "Timestamp": 3568
        },
        {
          "Name": "advance/map.np.mapData.FromDirichletNodesToNeumannNodes",
          "State": 0,
          "Timestamp": 3568
        },
        {
          "Name": "advance/map.np.mapData.FromDirichletNodesToNeumannNodes",
          "State": 1,
          "Timestamp": 3568
        },
        {
          "Name": "advance/map.np.mapData.FromDirichletNodesToNeumannNodes",
          "State": 0,
          "Timestamp": 3568
        },
        {
          "Name": "advance/map.np.mapData.FromDirichletNodesToNeumannNodes",
          "State": 1,
          "Timestamp": 3568
        },
        {
          "Name": "advance/map.np.mapData.FromDirichletNodesToNeumannNodes",
          "State": 0,
          "Timestamp": 3568
        },
        {
          "Name": "advance/map.np.mapData.FromDirichletNodesToNeumannNodes",
          "State": 1,
          "Timestamp": 3785
        },
        {
          "Name": "advance/map.np.mapData.FromDirichletNodesToNeumannNodes",
          "State": 0,
          "Timestamp": 3785
        },
        {
          "Name": "advance/map.np.mapData.FromDirichletNodesToNeumannNodes",
          "State": 1,
          "Timestamp": 3785
        },
        {
          "Name": "advance/map.np.mapData.FromDirichletNodesToNeumannNodes",
          "State": 0,
          "Timestamp": 3785
        },
        {
          "Name": "advance/map.np.mapData.FromDirichletNodesToNeumannNodes",
          "State": 1,
          "Timestamp": 3785
        },
        {
          "Name": "advance/map.np.mapData.FromDirichletNodesToNeumannNodes",
          "State": 0,
          "Timestamp": 3785
        },
        {
          "Name": "advance/map.np.mapData.FromDirichletNodesToNeumannNodes",
          "State": 1,
          "Timestamp": 4001
        },
        {
          "Name": "advance/map.np.mapData.FromDirichletNodesToNeumannNodes",
          "State": 0,
          "Timestamp": 4001
        },
        {
          "Name": "advance/map.np.mapData.FromDirichletNodesToNeumannNodes",
          "State": 1,
          "Timestamp": 4001
        },
        {
          "Name": "advance/map.np.mapData.FromDirichletNodesToNeumannNodes",
          "State": 0,
          "Timestamp": 4001
        },
        {
          "Name": "advance/map.np.mapData.FromDirichletNodesToNeumannNodes",
          "State": 1,
          "Timestamp": 4001
        },
        {
          "Name": "advance/map.np.mapData.FromDirichletNodesToNeumannNodes",
          "State": 0,
          "Timestamp": 4001
        },
        {
          "Name": "advance/map.np.mapData.FromDirichletNodesToNeumannNodes",
          "State": 1,
          "Timestamp": 4221
        },
        {
          "Name": "advance/map.np.mapData.FromDirichletNodesToNeumannNodes",
          "State": 0,
          "Timestamp": 4221
        },
        {
          "Name": "advance/map.np.mapData.FromDirichletNodesToNeumannNodes",
          "State": 1,
          "Timestamp": 4221
        },
        {
          "Name": "advance/map.np.mapData.FromDirichletNodesToNeumannNodes",
          "State": 0,
          "Timestamp": 4221
        },
        {
          "Name": "advance/map.np.mapData.FromDirichletNodesToNeumannNodes",
          "State": 1,
          "Timestamp": 4221
        },
        {
          "Name": "advance/map.np.mapData.FromDirichletNodesToNeumannNodes",
          "State": 0,
          "Timestamp": 4221
        },
        {
          "Name": "advance/map.np.mapData.FromNeumannNodesToDirichletNodes",
          "State": 1,
          "Timestamp": 413
        },
        {
          "Name": "advance/map.np.mapData.FromNeumannNodesToDirichletNodes",
          "State": 0,
          "Timestamp": 413
        },
        {
          "Name": "advance/map.np.mapData.FromNeumannNodesToDirichletNodes",
          "State": 1,
          "Timestamp": 413
        },
        {
          "Name": "advance/map.np.mapData.FromNeumannNodesToDirichletNodes",
          "State": 0,
          "Timestamp": 413
        },
        {
          "Name": "advance/map.np.mapData.FromNeumannNodesToDirichletNodes",
          "State": 1,
          "Timestamp": 645
        },
        {
          "Name": "advance/map.np.mapData.FromNeumannNodesToDirichletNodes",
          "State": 0,
          "Timestamp": 645
        },
        {
          "Name": "advance/map.np.mapData.FromNeumannNodesToDirichletNodes",
          "State": 1,
          "Timestamp": 645
        },
        {
          "Name": "advance/map.np.mapData.FromNeumannNodesToDirichletNodes",
          "State": 0,
          "Timestamp": 645
        },
        {
          "Name": "advance/map.np.mapData.FromNeumannNodesToDirichletNodes",
          "State": 1,
          "Timestamp": 860
        },
        {
          "Name": "advance/map.np.mapData.FromNeumannNodesToDirichletNodes",
          "State": 0,
          "Timestamp": 860
        },
        {
          "Name": "advance/map.np.mapData.FromNeumannNodesToDirichletNodes",
          "State": 1,
          "Timestamp": 860
        },
        {
          "Name": "advance/map.np.mapData.FromNeumannNodesToDirichletNodes",
          "State": 0,
          "Timestamp": 860
        },
        {
          "Name": "advance/map.np.mapData.FromNeumannNodesToDirichletNodes",
          "State": 1,
          "Timestamp": 1076
        },
        {
          "Name": "advance/map.np.mapData.FromNeumannNodesToDirichletNodes",
          "State": 0,
          "Timestamp": 1076
        },
        {
          "Name": "advance/map.np.mapData.FromNeumannNodesToDirichletNodes",
          "State": 1,
          "Timestamp": 1076
        },
        {
          "Name": "advance/map.np.mapData.FromNeumannNodesToDirichletNodes",
          "State": 0,
          "Timestamp": 1076
        },
        {
          "Name": "advance/map.np.mapData.FromNeumannNodesToDirichletNodes",
          "State": 1,
          "Timestamp": 1298
        },
        {
          "Name": "advance/map.np.mapData.FromNeumannNodesToDirichletNodes",
          "State": 0,
          "Timestamp": 1298
        },
        {
          "Name": "advance/map.np.mapData.FromNeumannNodesToDirichletNodes",
          "State": 1,
          "Timestamp": 1298
        },
        {
          "Name": "advance/map.np.mapData.FromNeumannNodesToDirichletNodes",
          "State": 0,
          "Timestamp": 1298
        },
        {
          "Name": "advance/map.np.mapData.FromNeumannNodesToDirichletNodes",
          "State": 1,
          "Timestamp": 1516
        },
        {
          "Name": "advance/map.np.mapData.FromNeumannNodesToDirichletNodes",
          "State": 0,
          "Timestamp": 1516
        },
        {
          "Name": "advance/map.np.mapData.FromNeumannNodesToDirichletNodes",
          "State": 1,
          "Timestamp": 1516
        },
        {
          "Name": "advance/map.np.mapData.FromNeumannNodesToDirichletNodes",
          "State": 0,
          "Timestamp": 1516
        },
        {
          "Name": "advance/map.np.mapData.FromNeumannNodesToDirichletNodes",
          "State": 1,
          "Timestamp": 1732
        },
        {
          "Name": "advance/map.np.mapData.FromNeumannNodesToDirichletNodes",
          "State": 0,
          "Timestamp": 1732
        },
        {
          "Name": "advance/map.np.mapData.FromNeumannNodesToDirichletNodes",
          "State": 1,
          "Timestamp": 1732
        },
        {
          "Name": "advance/map.np.mapData.FromNeumannNodesToDirichletNodes",
          "State": 0,
          "Timestamp": 1732
        },
        {
          "Name": "advance/map.np.mapData.FromNeumannNodesToDirichletNodes",
          "State": 1,
          "Timestamp": 1949
        },
        {
          "Name": "advance/map.np.mapData.FromNeumannNodesToDirichletNodes",
          "State": 0,
          "Timestamp": 1949
        },
        {
          "Name": "advance/map.np.mapData.FromNeumannNodesToDirichletNodes",
          "State": 1,
          "Timestamp": 1949
        },
        {
          "Name": "advance/map.np.mapData.FromNeumannNodesToDirichletNodes",
          "State": 0,
          "Timestamp": 1949
        },
        {
          "Name": "advance/map.np.mapData.FromNeumannNodesToDirichletNodes",
          "State": 1,
          "Timestamp": 2167
        },
        {
          "Name": "advance/map.np.mapData.FromNeumannNodesToDirichletNodes",
          "State": 0,
          "Timestamp": 2168
        },
        {
          "Name": "advance/map.np.mapData.FromNeumannNodesToDirichletNodes",
          "State": 1,
          "Timestamp": 2168
        },
        {
          "Name": "advance/map.np.mapData.FromNeumannNodesToDirichletNodes",
          "State": 0,
          "Timestamp": 2168
        },
        {
          "Name": "advance/map.np.mapData.FromNeumannNodesToDirichletNodes",
          "State": 1,
          "Timestamp": 2386
        },
        {
          "Name": "advance/map.np.mapData.FromNeumannNodesToDirichletNodes",
          "State": 0,
          "Timestamp": 2386
        },
        {
          "Name": "advance/map.np.mapData.FromNeumannNodesToDirichletNodes",
          "State": 1,
          "Timestamp": 2386
        },
        {
          "Name": "advance/map.np.mapData.FromNeumannNodesToDirichletNodes",
          "State": 0,
          "Timestamp": 2386
        },
        {
          "Name": "advance/map.np.mapData.FromNeumannNodesToDirichletNodes",
          "State": 1,
          "Timestamp": 2603
        },
        {
          "Name": "advance/map.np.mapData.FromNeumannNodesToDirichletNodes",
          "State": 0,
          "Timestamp": 2603
        },
        {
          "Name": "advance/map.np.mapData.FromNeumannNodesToDirichletNodes",
          "State": 1,
          "Timestamp": 2603
        },
        {
          "Name": "advance/map.np.mapData.FromNeumannNodesToDirichletNodes",
          "State": 0,
          "Timestamp": 2603
        },
        {
          "Name": "advance/map.np.mapData.FromNeumannNodesToDirichletNodes",
          "State": 1,
          "Timestamp": 2821
        },
        {
          "Name": "advance/map.np.mapData.FromNeumannNodesToDirichletNodes",
          "State": 0,
          "Timestamp": 2821
        },
        {
          "Name": "advance/map.np.mapData.FromNeumannNodesToDirichletNodes",
          "State": 1,
          "Timestamp": 2821
        },
        {
          "Name": "advance/map.np.mapData.FromNeumannNodesToDirichletNodes",
          "State": 0,
          "Timestamp": 2821
        },
        {
          "Name": "advance/map.np.mapData.FromNeumannNodesToDirichletNodes",
          "State": 1,
          "Timestamp": 3038
        },
        {
          "Name": "advance/map.np.mapData.FromNeumannNodesToDirichletNodes",
          "State": 0,
          "Timestamp": 3038
        },
        {
          "Name": "advance/map.np.mapData.FromNeumannNodesToDirichletNodes",
          "State": 1,
          "Timestamp": 3038
        },
        {
          "Name": "advance/map.np.mapData.FromNeumannNodesToDirichletNodes",
          "State": 0,
          "Timestamp": 3038
        },
        {
          "Name": "advance/map.np.mapData.FromNeumannNodesToDirichletNodes",
          "State": 1,
          "Timestamp": 3255
        },
        {
          "Name": "advance/map.np.mapData.FromNeumannNodesToDirichletNodes",
          "State": 0,
          "Timestamp": 3255
        },
        {
          "Name": "advance/map.np.mapData.FromNeumannNodesToDirichletNodes",
          "State": 1,
          "Timestamp": 3255
        },
        {
          "Name": "advance/map.np.mapData.FromNeumannNodesToDirichletNodes",
          "State": 0,
          "Timestamp": 3255
        },
        {
          "Name": "advance/map.np.mapData.FromNeumannNodesToDirichletNodes",
          "State": 1,
          "Timestamp": 3471
        },
        {
          "Name": "advance/map.np.mapData.FromNeumannNodesToDirichletNodes",
          "State": 0,
          "Timestamp": 3471
        },
        {
          "Name": "advance/map.np.mapData.FromNeumannNodesToDirichletNodes",
          "State": 1,
          "Timestamp": 3471
        },
        {
          "Name": "advance/map.np.mapData.FromNeumannNodesToDirichletNodes",
          "State": 0,
          "Timestamp": 3471
        },
        {
          "Name": "advance/map.np.mapData.FromNeumannNodesToDirichletNodes",
          "State": 1,
          "Timestamp": 3688
        },
        {
          "Name": "advance/map.np.mapData.FromNeumannNodesToDirichletNodes",
          "State": 0,
          "Timestamp": 3688
        },
        {
          "Name": "advance/map.np.mapData.FromNeumannNodesToDirichletNodes",
          "State": 1,
          "Timestamp": 3688
        },
        {
          "Name": "advance/map.np.mapData.FromNeumannNodesToDirichletNodes",
          "State": 0,
          "Timestamp": 3688
        },
        {
          "Name": "advance/map.np.mapData.FromNeumannNodesToDirichletNodes",
          "State": 1,
          "Timestamp": 3905
        },
        {
          "Name": "advance/map.np.mapData.FromNeumannNodesToDirichletNodes",
          "State": 0,
          "Timestamp": 3905
        },
        {
          "Name": "advance/map.np.mapData.FromNeumannNodesToDirichletNodes",
          "State": 1,
          "Timestamp": 3905
        },
        {
          "Name": "advance/map.np.mapData.FromNeumannNodesToDirichletNodes",
          "State": 0,
          "Timestamp": 3905
        },
        {
          "Name": "advance/map.np.mapData.FromNeumannNodesToDirichletNodes",
          "State": 1,
          "Timestamp": 4123
        },
        {
          "Name": "advance/map.np.mapData.FromNeumannNodesToDirichletNodes",
          "State": 0,
          "Timestamp": 4123
        },
        {
          "Name": "advance/map.np.mapData.FromNeumannNodesToDirichletNodes",
          "State": 1,
          "Timestamp": 4123
        },
        {
          "Name": "advance/map.np.mapData.FromNeumannNodesToDirichletNodes",
          "State": 0,
          "Timestamp": 4123
        },
        {
          "Name": "advance/map.np.mapData.FromNeumannNodesToDirichletNodes",
          "State": 1,
          "Timestamp": 4340
        },
        {
          "Name": "advance/map.np.mapData.FromNeumannNodesToDirichletNodes",
          "State": 0,
          "Timestamp": 4340
        },
        {
          "Name": "advance/map.np.mapData.FromNeumannNodesToDirichletNodes",
          "State": 1,
          "Timestamp": 4340
        },
        {
          "Name": "advance/map.np.mapData.FromNeumannNodesToDirichletNodes",
          "State": 0,
          "Timestamp": 4340
        },
        {
          "Name": "configure",
          "State": 1,
          "Timestamp": 0
        },
        {
          "Name": "configure",
          "State": 0,
          "Timestamp": 0
        },
        {
          "Name": "finalize",
          "State": 1,
          "Timestamp": 4367
        },
        {
          "Name": "finalize",
          "State": 0,
          "Timestamp": 4370
        },
        {
          "Name": "initialize",
          "State": 1,
          "Timestamp": 4
        },
        {
          "Name": "initialize",
          "State": 0,
          "Timestamp": 53
        },
        {
          "Name": "initialize/m2n.requestMasterConnection",
          "State": 1,
          "Timestamp": 4
        },
        {
          "Name": "initialize/m2n.requestMasterConnection",
          "State": 0,
          "Timestamp": 10
        },
        {
          "Name": "initialize/m2n.requestSlavesConnection",
          "State": 1,
          "Timestamp": 53
        },
        {
          "Name": "initialize/m2n.requestSlavesConnection",
          "State": 0,
          "Timestamp": 53
        },
        {
          "Name": "initialize/partition.feedbackMesh.DirichletNodes",
          "State": 1,
          "Timestamp": 53
        },
        {
          "Name": "initialize/partition.feedbackMesh.DirichletNodes",
          "State": 0,
          "Timestamp": 53
        },
        {
          "Name": "initialize/partition.receiveGlobalMesh.NeumannNodes",
          "State": 1,
          "Timestamp": 10
        },
        {
          "Name": "initialize/partition.receiveGlobalMesh.NeumannNodes",
          "State": 0,
          "Timestamp": 53
        },
        {
          "Name": "initializeData",
          "State": 1,
          "Timestamp": 60
        },
        {
          "Name": "initializeData",
          "State": 0,
          "Timestamp": 60
        },
        {
          "Name": "initializeData/map.np.computeMapping.FromDirichletNodesToNeumannNodes",
          "State": 1,
          "Timestamp": 60
        },
        {
          "Name": "initializeData/map.np.computeMapping.FromDirichletNodesToNeumannNodes",
          "State": 0,
          "Timestamp": 60
        },
        {
          "Name": "initializeData/map.np.computeMapping.FromDirichletNodesToNeumannNodes.getIndexOnEdges",
          "State": 1,
          "Timestamp": 60
        },
        {
          "Name": "initializeData/map.np.computeMapping.FromDirichletNodesToNeumannNodes.getIndexOnEdges",
          "State": 0,
          "Timestamp": 60
        },
        {
          "Name": "initializeData/map.np.computeMapping.FromDirichletNodesToNeumannNodes.getIndexOnVertices",
          "State": 1,
          "Timestamp": 60
        },
        {
          "Name": "initializeData/map.np.computeMapping.FromDirichletNodesToNeumannNodes.getIndexOnVertices",
          "State": 0,
          "Timestamp": 60
        },
        {
          "Name": "initializeData/map.np.computeMapping.FromNeumannNodesToDirichletNodes",
          "State": 1,
          "Timestamp": 60
        },
        {
          "Name": "initializeData/map.np.computeMapping.FromNeumannNodesToDirichletNodes",
          "State": 0,
          "Timestamp": 60
        },
        {
          "Name": "initializeData/map.np.computeMapping.FromNeumannNodesToDirichletNodes.getIndexOnEdges",
          "State": 1,
          "Timestamp": 60
        },
        {
          "Name": "initializeData/map.np.computeMapping.FromNeumannNodesToDirichletNodes.getIndexOnEdges",
          "State": 0,
          "Timestamp": 60
        },
        {
          "Name": "initializeData/map.np.computeMapping.FromNeumannNodesToDirichletNodes.getIndexOnVertices",
          "State": 1,
          "Timestamp": 60
        },
        {
          "Name": "initializeData/map.np.computeMapping.FromNeumannNodesToDirichletNodes.getIndexOnVertices",
          "State": 0,
          "Timestamp": 60
        },
        {
          "Name": "initializeData/map.np.mapData.FromDirichletNodesToNeumannNodes",
          "State": 1,
          "Timestamp": 60
        },
        {
          "Name": "initializeData/map.np.mapData.FromDirichletNodesToNeumannNodes",
          "State": 0,
          "Timestamp": 60
        },
        {
          "Name": "initializeData/map.np.mapData.FromDirichletNodesToNeumannNodes",
          "State": 1,
          "Timestamp": 60
        },
        {
          "Name": "initializeData/map.np.mapData.FromDirichletNodesToNeumannNodes",
          "State": 0,
          "Timestamp": 60
        },
        {
          "Name": "initializeData/map.np.mapData.FromDirichletNodesToNeumannNodes",
          "State": 1,
          "Timestamp": 60
        },
        {
          "Name": "initializeData/map.np.mapData.FromDirichletNodesToNeumannNodes",
          "State": 0,
          "Timestamp": 60
        },
        {
          "Name": "initializeData/map.np.mapData.FromNeumannNodesToDirichletNodes",
          "State": 1,
          "Timestamp": 60
        },
        {
          "Name": "initializeData/map.np.mapData.FromNeumannNodesToDirichletNodes",
          "State": 0,
          "Timestamp": 60
        },
        {
          "Name": "initializeData/map.np.mapData.FromNeumannNodesToDirichletNodes",
          "State": 1,
          "Timestamp": 60
        },
        {
          "Name": "initializeData/map.np.mapData.FromNeumannNodesToDirichletNodes",
          "State": 0,
          "Timestamp": 60
        },
        {
          "Name": "solver.advance",
          "State": 1,
          "Timestamp": 414
        },
        {
          "Name": "solver.advance",
          "State": 0,
          "Timestamp": 509
        },
        {
          "Name": "solver.advance",
          "State": 1,
          "Timestamp": 646
        },
        {
          "Name": "solver.advance",
          "State": 0,
          "Timestamp": 741
        },
        {
          "Name": "solver.advance",
          "State": 1,
          "Timestamp": 860
        },
        {
          "Name": "solver.advance",
          "State": 0,
          "Timestamp": 957
        },
        {
          "Name": "solver.advance",
          "State": 1,
          "Timestamp": 1076
        },
        {
          "Name": "solver.advance",
          "State": 0,
          "Timestamp": 1176
        },
        {
          "Name": "solver.advance",
          "State": 1,
          "Timestamp": 1298
        },
        {
          "Name": "solver.advance",
          "State": 0,
          "Timestamp": 1394
        },
        {
          "Name": "solver.advance",
          "State": 1,
          "Timestamp": 1516
        },
        {
          "Name": "solver.advance",
          "State": 0,
          "Timestamp": 1612
        },
        {
          "Name": "solver.advance",
          "State": 1,
          "Timestamp": 1732
        },
        {
          "Name": "solver.advance",
          "State": 0,
          "Timestamp": 1828
        },
        {
          "Name": "solver.advance",
          "State": 1,
          "Timestamp": 1949
        },
        {
          "Name": "solver.advance",
          "State": 0,
          "Timestamp": 2045
        },
        {
          "Name": "solver.advance",
          "State": 1,
          "Timestamp": 2168
        },
        {
          "Name": "solver.advance",
          "State": 0,
          "Timestamp": 2263
        },
        {
          "Name": "solver.advance",
          "State": 1,
          "Timestamp": 2386
        },
        {
          "Name": "solver.advance",
          "State": 0,
          "Timestamp": 2483
        },
        {
          "Name": "solver.advance",
          "State": 1,
          "Timestamp": 2603
        },
        {
          "Name": "solver.advance",
          "State": 0,
          "Timestamp": 2700
        },
        {
          "Name": "solver.advance",
          "State": 1,
          "Timestamp": 2821
        },
        {
          "Name": "solver.advance",
          "State": 0,
          "Timestamp": 2917
        },
        {
          "Name": "solver.advance",
          "State": 1,
          "Timestamp": 3038
        },
        {
          "Name": "solver.advance",
          "State": 0,
          "Timestamp": 3135
        },
        {
          "Name": "solver.advance",
          "State": 1,
          "Timestamp": 3255
        },
        {
          "Name": "solver.advance",
          "State": 0,
          "Timestamp": 3352
        },
        {
          "Name": "solver.advance",
          "State": 1,
          "Timestamp": 3471
        },
        {
          "Name": "solver.advance",
          "State": 0,
          "Timestamp": 3568
        },
        {
          "Name": "solver.advance",
          "State": 1,
          "Timestamp": 3688
        },
        {
          "Name": "solver.advance",
          "State": 0,
          "Timestamp": 3785
        },
        {
          "Name": "solver.advance",
          "State": 1,
          "Timestamp": 3905
        },
        {
          "Name": "solver.advance",
          "State": 0,
          "Timestamp": 4001
        },
        {
          "Name": "solver.advance",
          "State": 1,
          "Timestamp": 4123
        },
        {
          "Name": "solver.advance",
          "State": 0,
          "Timestamp": 4220
        },
        {
          "Name": "solver.advance",
          "State": 1,
          "Timestamp": 4340
        },
        {
          "Name": "solver.advance",
          "State": 0,
          "Timestamp": 4367
        },
        {
          "Name": "solver.initialize",
          "State": 1,
          "Timestamp": 0
        },
        {
          "Name": "solver.initialize",
          "State": 2,
          "Timestamp": 4
        },
        {
          "Name": "solver.initialize",
          "State": 1,
          "Timestamp": 53
        },
        {
          "Name": "solver.initialize",
          "State": 2,
          "Timestamp": 60
        },
        {
          "Name": "solver.initialize",
          "State": 1,
          "Timestamp": 60
        },
        {
          "Name": "solver.initialize",
          "State": 0,
          "Timestamp": 210
        }
      ],
      "Timings": {
        "_GLOBAL": {
          "Count": 1,
          "Data": {},
          "Max": 4370,
          "Min": 4370,
          "TimeRatio": 1.0,
          "Total": 4370
        },
        "advance": {
          "Count": 19,
          "Data": {},
          "Max": 203,
          "Min": 119,
          "TimeRatio": 0.5473684210526316,
          "Total": 2392
        },
        "advance/map.np.mapData.FromDirichletNodesToNeumannNodes": {
          "Count": 57,
          "Data": {},
          "Max": 0,
          "Min": 0,
          "TimeRatio": 0.0,
          "Total": 0
        },
        "advance/map.np.mapData.FromNeumannNodesToDirichletNodes": {
          "Count": 38,
          "Data": {},
          "Max": 0,
          "Min": 0,
          "TimeRatio": 0.0,
          "Total": 0
        },
        "configure": {
          "Count": 1,
          "Data": {},
          "Max": 0,
          "Min": 0,
          "TimeRatio": 0.0,
          "Total": 0
        },
        "finalize": {
          "Count": 1,
          "Data": {},
          "Max": 2,
          "Min": 2,
          "TimeRatio": 0.0004576659038901602,
          "Total": 2
        },
        "initialize": {
          "Count": 1,
          "Data": {},
          "Max": 49,
          "Min": 49,
          "TimeRatio": 0.011212814645308924,
          "Total": 49
        },
        "initialize/m2n.requestMasterConnection": {
          "Count": 1,
          "Data": {},
          "Max": 6,
          "Min": 6,
          "TimeRatio": 0.0013729977116704805,
          "Total": 6
        },
        "initialize/m2n.requestSlavesConnection": {
          "Count": 1,
          "Data": {},
          "Max": 0,
          "Min": 0,
          "TimeRatio": 0.0,
          "Total": 0
        },
        "initialize/partition.feedbackMesh.DirichletNodes": {
          "Count": 1,
          "Data": {},
          "Max": 0,
          "Min": 0,
          "TimeRatio": 0.0,
          "Total": 0
        },
        "initialize/partition.receiveGlobalMesh.NeumannNodes": {
          "Count": 1,
          "Data": {},
          "Max": 42,
          "Min": 42,
          "TimeRatio": 0.009610983981693364,
          "Total": 42
        },
        "initializeData": {
          "Count": 1,
          "Data": {},
          "Max": 0,
          "Min": 0,
          "TimeRatio": 0.0,
          "Total": 0
        },
        "initializeData/map.np.computeMapping.FromDirichletNodesToNeumannNodes": {
          "Count": 1,
          "Data": {},
          "Max": 0,
          "Min": 0,
          "TimeRatio": 0.0,
          "Total": 0
        },
        "initializeData/map.np.computeMapping.FromDirichletNodesToNeumannNodes.getIndexOnEdges": {
          "Count": 1,
          "Data": {},
          "Max": 0,
          "Min": 0,
          "TimeRatio": 0.0,
          "Total": 0
        },
        "initializeData/map.np.computeMapping.FromDirichletNodesToNeumannNodes.getIndexOnVertices": {
          "Count": 1,
          "Data": {},
          "Max": 0,
          "Min": 0,
          "TimeRatio": 0.0,
          "Total": 0
        },
        "initializeData/map.np.computeMapping.FromNeumannNodesToDirichletNodes": {
          "Count": 1,
          "Data": {},
          "Max": 0,
          "Min": 0,
          "TimeRatio": 0.0,
          "Total": 0
        },
        "initializeData/map.np.computeMapping.FromNeumannNodesToDirichletNodes.getIndexOnEdges": {
          "Count": 1,
          "Data": {},
          "Max": 0,
          "Min": 0,
          "TimeRatio": 0.0,
          "Total": 0
        },
        "initializeData/map.np.computeMapping.FromNeumannNodesToDirichletNodes.getIndexOnVertices": {
          "Count": 1,
          "Data": {},
          "Max": 0,
          "Min": 0,
          "TimeRatio": 0.0,
          "Total": 0
        },
        "initializeData/map.np.mapData.FromDirichletNodesToNeumannNodes": {
          "Count": 3,
          "Data": {},
          "Max": 0,
          "Min": 0,
          "TimeRatio": 0.0,
          "Total": 0
        },
        "initializeData/map.np.mapData.FromNeumannNodesToDirichletNodes": {
          "Count": 2,
          "Data": {},
          "Max": 0,
          "Min": 0,
          "TimeRatio": 0.0,
          "Total": 0
        },
        "solver.advance": {
          "Count": 19,
          "Data": {},
          "Max": 100,
          "Min": 26,
          "TimeRatio": 0.4036613272311213,
          "Total": 1764
        },
        "solver.initialize": {
          "Count": 1,
          "Data": {},
          "Max": 160,
          "Min": 160,
          "TimeRatio": 0.036613272311212815,
          "Total": 160
        }
      }
    }
  ]
}
