{
  "Finalized": "2019-11-13T14:07:35.637",
  "Initialized": "2019-11-13T14:07:20.654",
  "Name": "",
  "Ranks": [
    {
      "Finalized": "2019-11-13T14:07:35.637",
      "Initialized": "2019-11-13T14:07:20.654",
      "StateChanges": [
        {
          "Name": "_GLOBAL",
          "State": 1,
          "Timestamp": 0
        },
        {
          "Name": "_GLOBAL",
          "State": 0,
          "Timestamp": 14982
        },
        {
          "Name": "advance",
          "State": 1,
          "Timestamp": 409
        },
        {
          "Name": "advance",
          "State": 0,
          "Timestamp": 515
        },
        {
          "Name": "advance",
          "State": 1,
          "Timestamp": 653
        },
        {
          "Name": "advance",
          "State": 0,
          "Timestamp": 744
        },
        {
          "Name": "advance",
          "State": 1,
          "Timestamp": 866
        },
        {
          "Name": "advance",
          "State": 0,
          "Timestamp": 958
        },
        {
          "Name": "advance",
          "State": 1,
          "Timestamp": 1080
        },
        {
          "Name": "advance",
          "State": 0,
          "Timestamp": 1171
        },
        {
          "Name": "advance",
          "State": 1,
          "Timestamp": 1294
        },
        {
          "Name": "advance",
          "State": 0,
          "Timestamp": 1384
        },
        {
          "Name": "advance",
          "State": 1,
          "Timestamp": 1508
        },
        {
          "Name": "advance",
          "State": 0,
          "Timestamp": 1599
        },
        {
          "Name": "advance",
          "State": 1,
          "Timestamp": 1723
        },
        {
          "Name": "advance",
          "State": 0,
          "Timestamp": 1814
        },
        {
          "Name": "advance",
          "State": 1,
          "Timestamp": 1935
        },
        {
          "Name": "advance",
          "State": 0,
          "Timestamp": 2025
        },
        {
          "Name": "advance",
          "State": 1,
          "Timestamp": 2146
        },
        {
          "Name": "advance",
          "State": 0,
          "Timestamp": 2237
        },
        {
          "Name": "advance",
          "State": 1,
          "Timestamp": 2359
        },
        {
          "Name": "advance",
          "State": 0,
          "Timestamp": 2449
        },
        {
          "Name": "advance",
          "State": 1,
          "Timestamp": 2573
        },
        {
          "Name": "advance",
          "State": 0,
          "Timestamp": 2665
        },
        {
          "Name": "advance",
          "State": 1,
          "Timestamp": 2786
        },
        {
          "Name": "advance",
          "State": 0,
          "Timestamp": 2877
        },
        {
          "Name": "advance",
          "State": 1,
          "Timestamp": 2999
        },
        {
          "Name": "advance",
          "State": 0,
          "Timestamp": 3089
        },
        {
          "Name": "advance",
          "State": 1,
          "Timestamp": 3210
        },
        {
          "Name": "advance",
          "State": 0,
          "Timestamp": 3301
        },
        {
          "Name": "advance",
          "State": 1,
          "Timestamp": 3422
        },
        {
          "Name": "advance",
          "State": 0,
          "Timestamp": 3514
        },
        {
          "Name": "advance",
          "State": 1,
          "Timestamp": 3637
        },
        {
          "Name": "advance",
          "State": 0,
          "Timestamp": 3727
        },
        {
          "Name": "advance",
          "State": 1,
          "Timestamp": 3849
        },
        {
          "Name": "advance",
          "State": 0,
          "Timestamp": 3941
        },
        {
          "Name": "advance",
          "State": 1,
          "Timestamp": 4062
        },
        {
          "Name": "advance",
          "State": 0,
          "Timestamp": 4164
        },
        {
          "Name": "advance",
          "State": 1,
          "Timestamp": 4297
        },
        {
          "Name": "advance",
          "State": 0,
          "Timestamp": 4388
        },
        {
          "Name": "advance",
          "State": 1,
          "Timestamp": 4510
        },
        {
          "Name": "advance",
          "State": 0,
          "Timestamp": 4603
        },
        {
          "Name": "advance",
          "State": 1,
          "Timestamp": 4724
        },
        {
          "Name": "advance",
          "State": 0,
          "Timestamp": 4815
        },
        {
          "Name": "advance",
          "State": 1,
          "Timestamp": 4937
        },
        {
          "Name": "advance",
          "State": 0,
          "Timestamp": 5027
        },
        {
          "Name": "advance",
          "State": 1,
          "Timestamp": 5149
        },
        {
          "Name": "advance",
          "State": 0,
          "Timestamp": 5240
        },
        {
          "Name": "advance",
          "State": 1,
          "Timestamp": 5362
        },
        {
          "Name": "advance",
          "State": 0,
          "Timestamp": 5453
        },
        {
          "Name": "advance",
          "State": 1,
          "Timestamp": 5577
        },
        {
          "Name": "advance",
          "State": 0,
          "Timestamp": 5669
        },
        {
          "Name": "advance",
          "State": 1,
          "Timestamp": 5793
        },
        {
          "Name": "advance",
          "State": 0,
          "Timestamp": 5883
        },
        {
          "Name": "advance",
          "State": 1,
          "Timestamp": 6007
        },
        {
          "Name": "advance",
          "State": 0,
          "Timestamp": 6097
        },
        {
          "Name": "advance",
          "State": 1,
          "Timestamp": 6221
        },
        {
          "Name": "advance",
          "State": 0,
          "Timestamp": 6312
        },
        {
          "Name": "advance",
          "State": 1,
          "Timestamp": 6436
        },
        {
          "Name": "advance",
          "State": 0,
          "Timestamp": 6527
        },
        {
          "Name": "advance",
          "State": 1,
          "Timestamp": 6650
        },
        {
          "Name": "advance",
          "State": 0,
          "Timestamp": 6741
        },
        {
          "Name": "advance",
          "State": 1,
          "Timestamp": 6864
        },
        {
          "Name": "advance",
          "State": 0,
          "Timestamp": 6955
        },
        {
          "Name": "advance",
          "State": 1,
          "Timestamp": 7078
        },
        {
          "Name": "advance",
          "State": 0,
          "Timestamp": 7169
        },
        {
          "Name": "advance",
          "State": 1,
          "Timestamp": 7293
        },
        {
          "Name": "advance",
          "State": 0,
          "Timestamp": 7384
        },
        {
          "Name": "advance",
          "State": 1,
          "Timestamp": 7508
        },
        {
          "Name": "advance",
          "State": 0,
          "Timestamp": 7599
        },
        {
          "Name": "advance",
          "State": 1,
          "Timestamp": 7722
        },
        {
          "Name": "advance",
          "State": 0,
          "Timestamp": 7814
        },
        {
          "Name": "advance",
          "State": 1,
          "Timestamp": 7938
        },
        {
          "Name": "advance",
          "State": 0,
          "Timestamp": 8029
        },
        {
          "Name": "advance",
          "State": 1,
          "Timestamp": 8154
        },
        {
          "Name": "advance",
          "State": 0,
          "Timestamp": 8256
        },
        {
          "Name": "advance",
          "State": 1,
          "Timestamp": 8389
        },
        {
          "Name": "advance",
          "State": 0,
          "Timestamp": 8481
        },
        {
          "Name": "advance",
          "State": 1,
          "Timestamp": 8604
        },
        {
          "Name": "advance",
          "State": 0,
          "Timestamp": 8695
        },
        {
          "Name": "advance",
          "State": 1,
          "Timestamp": 8817
        },
        {
          "Name": "advance",
          "State": 0,
          "Timestamp": 8908
        },
        {
          "Name": "advance",
          "State": 1,
          "Timestamp": 9030
        },
        {
          "Name": "advance",
          "State": 0,
          "Timestamp": 9121
        },
        {
          "Name": "advance",
          "State": 1,
          "Timestamp": 9243
        },
        {
          "Name": "advance",
          "State": 0,
          "Timestamp": 9334
        },
        {
          "Name": "advance",
          "State": 1,
          "Timestamp": 9457
        },
        {
          "Name": "advance",
          "State": 0,
          "Timestamp": 9549
        },
        {
          "Name": "advance",
          "State": 1,
          "Timestamp": 9673
        },
        {
          "Name": "advance",
          "State": 0,
          "Timestamp": 9764
        },
        {
          "Name": "advance",
          "State": 1,
          "Timestamp": 9885
        },
        {
          "Name": "advance",
          "State": 0,
          "Timestamp": 9976
        },
        {
          "Name": "advance",
          "State": 1,
          "Timestamp": 10099
        },
        {
          "Name": "advance",
          "State": 0,
          "Timestamp": 10191
        },
        {
          "Name": "advance",
          "State": 1,
          "Timestamp": 10313
        },
        {
          "Name": "advance",
          "State": 0,
          "Timestamp": 10416
        },
        {
          "Name": "advance",
          "State": 1,
          "Timestamp": 10550
        },
        {
          "Name": "advance",
          "State": 0,
          "Timestamp": 10641
        },
        {
          "Name": "advance",
          "State": 1,
          "Timestamp": 10763
        },
        {
          "Name": "advance",
          "State": 0,
          "Timestamp": 10854
        },
        {
          "Name": "advance",
          "State": 1,
          "Timestamp": 10977
        },
        {
          "Name": "advance",
          "State": 0,
          "Timestamp": 11078
        },
        {
          "Name": "advance",
          "State": 1,
          "Timestamp": 11211
        },
        {
          "Name": "advance",
          "State": 0,
          "Timestamp": 11301
        },
        {
          "Name": "advance",
          "State": 1,
          "Timestamp": 11423
        },
        {
          "Name": "advance",
          "State": 0,
          "Timestamp": 11515
        },
        {
          "Name": "advance",
          "State": 1,
          "Timestamp": 11637
        },
        {
          "Name": "advance",
          "State": 0,
          "Timestamp": 11741
        },
        {
          "Name": "advance",
          "State": 1,
          "Timestamp": 11874
        },
        {
          "Name": "advance",
          "State": 0,
          "Timestamp": 11965
        },
        {
          "Name": "advance",
          "State": 1,
          "Timestamp": 12087
        },
        {
          "Name": "advance",
          "State": 0,
          "Timestamp": 12179
        },
        {
          "Name": "advance",
          "State": 1,
          "Timestamp": 12300
        },
        {
          "Name": "advance",
          "State": 0,
          "Timestamp": 12403
        },
        {
          "Name": "advance",
          "State": 1,
          "Timestamp": 12537
        },
        {
          "Name": "advance",
          "State": 0,
          "Timestamp": 12629
        },
        {
          "Name": "advance",
          "State": 1,
          "Timestamp": 12752
        },
        {
          "Name": "advance",
          "State": 0,
          "Timestamp": 12843
        },
        {
          "Name": "advance",
          "State": 1,
          "Timestamp": 12965
        },
        {
          "Name": "advance",
          "State": 0,
          "Timestamp": 13067
        },
        {
          "Name": "advance",
          "State": 1,
          "Timestamp": 13200
        },
        {
          "Name": "advance",
          "State": 0,
          "Timestamp": 13291
        },
        {
          "Name": "advance",
          "State": 1,
          "Timestamp": 13413
        },
        {
          "Name": "advance",
          "State": 0,
          "Timestamp": 13504
        },
        {
          "Name": "advance",
          "State": 1,
          "Timestamp": 13627
        },
        {
          "Name": "advance",
          "State": 0,
          "Timestamp": 13729
        },
        {
          "Name": "advance",
          "State": 1,
          "Timestamp": 13862
        },
        {
          "Name": "advance",
          "State": 0,
          "Timestamp": 13953
        },
        {
          "Name": "advance",
          "State": 1,
          "Timestamp": 14074
        },
        {
          "Name": "advance",
          "State": 0,
          "Timestamp": 14165
        },
        {
          "Name": "advance",
          "State": 1,
          "Timestamp": 14286
        },
        {
          "Name": "advance",
          "State": 0,
          "Timestamp": 14389
        },
        {
          "Name": "advance",
          "State": 1,
          "Timestamp": 14524
        },
        {
          "Name": "advance",
          "State": 0,
          "Timestamp": 14616
        },
        {
          "Name": "advance",
          "State": 1,
          "Timestamp": 14740
        },
        {
          "Name": "advance",
          "State": 0,
          "Timestamp": 14831
        },
        {
          "Name": "advance",
          "State": 1,
          "Timestamp": 14954
        },
        {
          "Name": "advance",
          "State": 0,
          "Timestamp": 14954
        },
        {
          "Name": "advance/cpl.computeQuasiNewtonUpdate",
          "State": 1,
          "Timestamp": 409
        },
        {
          "Name": "advance/cpl.computeQuasiNewtonUpdate",
          "State": 0,
          "Timestamp": 409
        },
        {
          "Name": "advance/cpl.computeQuasiNewtonUpdate",
          "State": 1,
          "Timestamp": 654
        },
        {
          "Name": "advance/cpl.computeQuasiNewtonUpdate",
          "State": 0,
          "Timestamp": 654
        },
        {
          "Name": "advance/cpl.computeQuasiNewtonUpdate",
          "State": 1,
          "Timestamp": 867
        },
        {
          "Name": "advance/cpl.computeQuasiNewtonUpdate",
          "State": 0,
          "Timestamp": 867
        },
        {
          "Name": "advance/cpl.computeQuasiNewtonUpdate",
          "State": 1,
          "Timestamp": 1080
        },
        {
          "Name": "advance/cpl.computeQuasiNewtonUpdate",
          "State": 0,
          "Timestamp": 1080
        },
        {
          "Name": "advance/cpl.computeQuasiNewtonUpdate",
          "State": 1,
          "Timestamp": 1294
        },
        {
          "Name": "advance/cpl.computeQuasiNewtonUpdate",
          "State": 0,
          "Timestamp": 1294
        },
        {
          "Name": "advance/cpl.computeQuasiNewtonUpdate",
          "State": 1,
          "Timestamp": 1508
        },
        {
          "Name": "advance/cpl.computeQuasiNewtonUpdate",
          "State": 0,
          "Timestamp": 1508
        },
        {
          "Name": "advance/cpl.computeQuasiNewtonUpdate",
          "State": 1,
          "Timestamp": 1723
        },
        {
          "Name": "advance/cpl.computeQuasiNewtonUpdate",
          "State": 0,
          "Timestamp": 1723
        },
        {
          "Name": "advance/cpl.computeQuasiNewtonUpdate",
          "State": 1,
          "Timestamp": 1935
        },
        {
          "Name": "advance/cpl.computeQuasiNewtonUpdate",
          "State": 0,
          "Timestamp": 1935
        },
        {
          "Name": "advance/cpl.computeQuasiNewtonUpdate",
          "State": 1,
          "Timestamp": 2146
        },
        {
          "Name": "advance/cpl.computeQuasiNewtonUpdate",
          "State": 0,
          "Timestamp": 2146
        },
        {
          "Name": "advance/cpl.computeQuasiNewtonUpdate",
          "State": 1,
          "Timestamp": 2359
        },
        {
          "Name": "advance/cpl.computeQuasiNewtonUpdate",
          "State": 0,
          "Timestamp": 2359
        },
        {
          "Name": "advance/cpl.computeQuasiNewtonUpdate",
          "State": 1,
          "Timestamp": 2573
        },
        {
          "Name": "advance/cpl.computeQuasiNewtonUpdate",
          "State": 0,
          "Timestamp": 2573
        },
        {
          "Name": "advance/cpl.computeQuasiNewtonUpdate",
          "State": 1,
          "Timestamp": 2787
        },
        {
          "Name": "advance/cpl.computeQuasiNewtonUpdate",
          "State": 0,
          "Timestamp": 2787
        },
        {
          "Name": "advance/cpl.computeQuasiNewtonUpdate",
          "State": 1,
          "Timestamp": 2999
        },
        {
          "Name": "advance/cpl.computeQuasiNewtonUpdate",
          "State": 0,
          "Timestamp": 2999
        },
        {
          "Name": "advance/cpl.computeQuasiNewtonUpdate",
          "State": 1,
          "Timestamp": 3210
        },
        {
          "Name": "advance/cpl.computeQuasiNewtonUpdate",
          "State": 0,
          "Timestamp": 3210
        },
        {
          "Name": "advance/cpl.computeQuasiNewtonUpdate",
          "State": 1,
          "Timestamp": 3422
        },
        {
          "Name": "advance/cpl.computeQuasiNewtonUpdate",
          "State": 0,
          "Timestamp": 3422
        },
        {
          "Name": "advance/cpl.computeQuasiNewtonUpdate",
          "State": 1,
          "Timestamp": 3637
        },
        {
          "Name": "advance/cpl.computeQuasiNewtonUpdate",
          "State": 0,
          "Timestamp": 3637
        },
        {
          "Name": "advance/cpl.computeQuasiNewtonUpdate",
          "State": 1,
          "Timestamp": 3849
        },
        {
          "Name": "advance/cpl.computeQuasiNewtonUpdate",
          "State": 0,
          "Timestamp": 3849
        },
        {
          "Name": "advance/cpl.computeQuasiNewtonUpdate",
          "State": 1,
          "Timestamp": 4297
        },
        {
          "Name": "advance/cpl.computeQuasiNewtonUpdate",
          "State": 0,
          "Timestamp": 4297
        },
        {
          "Name": "advance/cpl.computeQuasiNewtonUpdate",
          "State": 1,
          "Timestamp": 4510
        },
        {
          "Name": "advance/cpl.computeQuasiNewtonUpdate",
          "State": 0,
          "Timestamp": 4510
        },
        {
          "Name": "advance/cpl.computeQuasiNewtonUpdate",
          "State": 1,
          "Timestamp": 4724
        },
        {
          "Name": "advance/cpl.computeQuasiNewtonUpdate",
          "State": 0,
          "Timestamp": 4724
        },
        {
          "Name": "advance/cpl.computeQuasiNewtonUpdate",
          "State": 1,
          "Timestamp": 4937
        },
        {
          "Name": "advance/cpl.computeQuasiNewtonUpdate",
          "State": 0,
          "Timestamp": 4937
        },
        {
          "Name": "advance/cpl.computeQuasiNewtonUpdate",
          "State": 1,
          "Timestamp": 5150
        },
        {
          "Name": "advance/cpl.computeQuasiNewtonUpdate",
          "State": 0,
          "Timestamp": 5150
        },
        {
          "Name": "advance/cpl.computeQuasiNewtonUpdate",
          "State": 1,
          "Timestamp": 5363
        },
        {
          "Name": "advance/cpl.computeQuasiNewtonUpdate",
          "State": 0,
          "Timestamp": 5363
        },
        {
          "Name": "advance/cpl.computeQuasiNewtonUpdate",
          "State": 1,
          "Timestamp": 5578
        },
        {
          "Name": "advance/cpl.computeQuasiNewtonUpdate",
          "State": 0,
          "Timestamp": 5578
        },
        {
          "Name": "advance/cpl.computeQuasiNewtonUpdate",
          "State": 1,
          "Timestamp": 5793
        },
        {
          "Name": "advance/cpl.computeQuasiNewtonUpdate",
          "State": 0,
          "Timestamp": 5793
        },
        {
          "Name": "advance/cpl.computeQuasiNewtonUpdate",
          "State": 1,
          "Timestamp": 6007
        },
        {
          "Name": "advance/cpl.computeQuasiNewtonUpdate",
          "State": 0,
          "Timestamp": 6007
        },
        {
          "Name": "advance/cpl.computeQuasiNewtonUpdate",
          "State": 1,
          "Timestamp": 6221
        },
        {
          "Name": "advance/cpl.computeQuasiNewtonUpdate",
          "State": 0,
          "Timestamp": 6221
        },
        {
          "Name": "advance/cpl.computeQuasiNewtonUpdate",
          "State": 1,
          "Timestamp": 6436
        },
        {
          "Name": "advance/cpl.computeQuasiNewtonUpdate",
          "State": 0,
          "Timestamp": 6436
        },
        {
          "Name": "advance/cpl.computeQuasiNewtonUpdate",
          "State": 1,
          "Timestamp": 6650
        },
        {
          "Name": "advance/cpl.computeQuasiNewtonUpdate",
          "State": 0,
          "Timestamp": 6650
        },
        {
          "Name": "advance/cpl.computeQuasiNewtonUpdate",
          "State": 1,
          "Timestamp": 6864
        },
        {
          "Name": "advance/cpl.computeQuasiNewtonUpdate",
          "State": 0,
          "Timestamp": 6864
        },
        {
          "Name": "advance/cpl.computeQuasiNewtonUpdate",
          "State": 1,
          "Timestamp": 7078
        },
        {
          "Name": "advance/cpl.computeQuasiNewtonUpdate",
          "State": 0,
          "Timestamp": 7078
        },
        {
          "Name": "advance/cpl.computeQuasiNewtonUpdate",
          "State": 1,
          "Timestamp": 7293
        },
        {
          "Name": "advance/cpl.computeQuasiNewtonUpdate",
          "State": 0,
          "Timestamp": 7293
        },
        {
          "Name": "advance/cpl.computeQuasiNewtonUpdate",
          "State": 1,
          "Timestamp": 7508
        },
        {
          "Name": "advance/cpl.computeQuasiNewtonUpdate",
          "State": 0,
          "Timestamp": 7508
        },
        {
          "Name": "advance/cpl.computeQuasiNewtonUpdate",
          "State": 1,
          "Timestamp": 7723
        },
        {
          "Name": "advance/cpl.computeQuasiNewtonUpdate",
          "State": 0,
          "Timestamp": 7723
        },
        {
          "Name": "advance/cpl.computeQuasiNewtonUpdate",
          "State": 1,
          "Timestamp": 7938
        },
        {
          "Name": "advance/cpl.computeQuasiNewtonUpdate",
          "State": 0,
          "Timestamp": 7938
        },
        {
          "Name": "advance/cpl.computeQuasiNewtonUpdate",
          "State": 1,
          "Timestamp": 8390
        },
        {
          "Name": "advance/cpl.computeQuasiNewtonUpdate",
          "State": 0,
          "Timestamp": 8390
        },
        {
          "Name": "advance/cpl.computeQuasiNewtonUpdate",
          "State": 1,
          "Timestamp": 8604
        },
        {
          "Name": "advance/cpl.computeQuasiNewtonUpdate",
          "State": 0,
          "Timestamp": 8604
        },
        {
          "Name": "advance/cpl.computeQuasiNewtonUpdate",
          "State": 1,
          "Timestamp": 8817
        },
        {
          "Name": "advance/cpl.computeQuasiNewtonUpdate",
          "State": 0,
          "Timestamp": 8817
        },
        {
          "Name": "advance/cpl.computeQuasiNewtonUpdate",
          "State": 1,
          "Timestamp": 9030
        },
        {
          "Name": "advance/cpl.computeQuasiNewtonUpdate",
          "State": 0,
          "Timestamp": 9030
        },
        {
          "Name": "advance/cpl.computeQuasiNewtonUpdate",
          "State": 1,
          "Timestamp": 9243
        },
        {
          "Name": "advance/cpl.computeQuasiNewtonUpdate",
          "State": 0,
          "Timestamp": 9243
        },
        {
          "Name": "advance/cpl.computeQuasiNewtonUpdate",
          "State": 1,
          "Timestamp": 9457
        },
        {
          "Name": "advance/cpl.computeQuasiNewtonUpdate",
          "State": 0,
          "Timestamp": 9457
        },
        {
          "Name": "advance/cpl.computeQuasiNewtonUpdate",
          "State": 1,
          "Timestamp": 9673
        },
        {
          "Name": "advance/cpl.computeQuasiNewtonUpdate",
          "State": 0,
          "Timestamp": 9673
        },
        {
          "Name": "advance/cpl.computeQuasiNewtonUpdate",
          "State": 1,
          "Timestamp": 9885
        },
        {
          "Name": "advance/cpl.computeQuasiNewtonUpdate",
          "State": 0,
          "Timestamp": 9886
        },
        {
          "Name": "advance/cpl.computeQuasiNewtonUpdate",
          "State": 1,
          "Timestamp": 10099
        },
        {
          "Name": "advance/cpl.computeQuasiNewtonUpdate",
          "State": 0,
          "Timestamp": 10099
        },
        {
          "Name": "advance/cpl.computeQuasiNewtonUpdate",
          "State": 1,
          "Timestamp": 10550
        },
        {
          "Name": "advance/cpl.computeQuasiNewtonUpdate",
          "State": 0,
          "Timestamp": 10550
        },
        {
          "Name": "advance/cpl.computeQuasiNewtonUpdate",
          "State": 1,
          "Timestamp": 10763
        },
        {
          "Name": "advance/cpl.computeQuasiNewtonUpdate",
          "State": 0,
          "Timestamp": 10764
        },
        {
          "Name": "advance/cpl.computeQuasiNewtonUpdate",
          "State": 1,
          "Timestamp": 11211
        },
        {
          "Name": "advance/cpl.computeQuasiNewtonUpdate",
          "State": 0,
          "Timestamp": 11211
        },
        {
          "Name": "advance/cpl.computeQuasiNewtonUpdate",
          "State": 1,
          "Timestamp": 11423
        },
        {
          "Name": "advance/cpl.computeQuasiNewtonUpdate",
          "State": 0,
          "Timestamp": 11423
        },
        {
          "Name": "advance/cpl.computeQuasiNewtonUpdate",
          "State": 1,
          "Timestamp": 11874
        },
        {
          "Name": "advance/cpl.computeQuasiNewtonUpdate",
          "State": 0,
          "Timestamp": 11874
        },
        {
          "Name": "advance/cpl.computeQuasiNewtonUpdate",
          "State": 1,
          "Timestamp": 12087
        },
        {
          "Name": "advance/cpl.computeQuasiNewtonUpdate",
          "State": 0,
          "Timestamp": 12087
        },
        {
          "Name": "advance/cpl.computeQuasiNewtonUpdate",
          "State": 1,
          "Timestamp": 12537
        },
        {
          "Name": "advance/cpl.computeQuasiNewtonUpdate",
          "State": 0,
          "Timestamp": 12537
        },
        {
          "Name": "advance/cpl.computeQuasiNewtonUpdate",
          "State": 1,
          "Timestamp": 12752
        },
        {
          "Name": "advance/cpl.computeQuasiNewtonUpdate",
          "State": 0,
          "Timestamp": 12752
        },
        {
          "Name": "advance/cpl.computeQuasiNewtonUpdate",
          "State": 1,
          "Timestamp": 13201
        },
        {
          "Name": "advance/cpl.computeQuasiNewtonUpdate",
          "State": 0,
          "Timestamp": 13201
        },
        {
          "Name": "advance/cpl.computeQuasiNewtonUpdate",
          "State": 1,
          "Timestamp": 13413
        },
        {
          "Name": "advance/cpl.computeQuasiNewtonUpdate",
          "State": 0,
          "Timestamp": 13413
        },
        {
          "Name": "advance/cpl.computeQuasiNewtonUpdate",
          "State": 1,
          "Timestamp": 13862
        },
        {
          "Name": "advance/cpl.computeQuasiNewtonUpdate",
          "State": 0,
          "Timestamp": 13862
        },
        {
          "Name": "advance/cpl.computeQuasiNewtonUpdate",
          "State": 1,
          "Timestamp": 14074
        },
        {
          "Name": "advance/cpl.computeQuasiNewtonUpdate",
          "State": 0,
          "Timestamp": 14074
        },
        {
          "Name": "advance/cpl.computeQuasiNewtonUpdate",
          "State": 1,
          "Timestamp": 14524
        },
        {
          "Name": "advance/cpl.computeQuasiNewtonUpdate",
          "State": 0,
          "Timestamp": 14524
        },
        {
          "Name": "advance/cpl.computeQuasiNewtonUpdate",
          "State": 1,
          "Timestamp": 14740
        },
        {
          "Name": "advance/cpl.computeQuasiNewtonUpdate",
          "State": 0,
          "Timestamp": 14740
        },
        {
          "Name": "configure",
          "State": 1,
          "Timestamp": 0
        },
        {
          "Name": "configure",
          "State": 0,
          "Timestamp": 0
        },
        {
          "Name": "finalize",
          "State": 1,
          "Timestamp": 14982
        },
        {
          "Name": "finalize",
          "State": 0,
          "Timestamp": 14982
        },
        {
          "Name": "initialize",
          "State": 1,
          "Timestamp": 4
        },
        {
          "Name": "initialize",
          "State": 0,
          "Timestamp": 6
        },
        {
          "Name": "initialize/m2n.acceptMasterConnection",
          "State": 1,
          "Timestamp": 4
        },
        {
          "Name": "initialize/m2n.acceptMasterConnection",
          "State": 0,
          "Timestamp": 6
        },
        {
          "Name": "initialize/m2n.acceptSlavesConnection",
          "State": 1,
          "Timestamp": 6
        },
        {
          "Name": "initialize/m2n.acceptSlavesConnection",
          "State": 0,
          "Timestamp": 6
        },
        {
          "Name": "initialize/partition.feedbackMesh.NeumannNodes",
          "State": 1,
          "Timestamp": 6
        },
        {
          "Name": "initialize/partition.feedbackMesh.NeumannNodes",
          "State": 0,
          "Timestamp": 6
        },
        {
          "Name": "initialize/partition.gatherMesh.NeumannNodes",
          "State": 1,
          "Timestamp": 6
        },
        {
          "Name": "initialize/partition.gatherMesh.NeumannNodes",
          "State": 0,
          "Timestamp": 6
        },
        {
          "Name": "initialize/partition.sendGlobalMesh.NeumannNodes",
          "State": 1,
          "Timestamp": 6
        },
        {
          "Name": "initialize/partition.sendGlobalMesh.NeumannNodes",
          "State": 0,
          "Timestamp": 6
        },
        {
          "Name": "initializeData",
          "State": 1,
          "Timestamp": 13
        },
        {
          "Name": "initializeData",
          "State": 0,
          "Timestamp": 226
        },
        {
          "Name": "solver.advance",
          "State": 1,
          "Timestamp": 515
        },
        {
          "Name": "solver.advance",
          "State": 0,
          "Timestamp": 653
        },
        {
          "Name": "solver.advance",
          "State": 1,
          "Timestamp": 744
        },
        {
          "Name": "solver.advance",
          "State": 0,
          "Timestamp": 866
        },
        {
          "Name": "solver.advance",
          "State": 1,
          "Timestamp": 958
        },
        {
          "Name": "solver.advance",
          "State": 0,
          "Timestamp": 1080
        },
        {
          "Name": "solver.advance",
          "State": 1,
          "Timestamp": 1171
        },
        {
          "Name": "solver.advance",
          "State": 0,
          "Timestamp": 1294
        },
        {
          "Name": "solver.advance",
          "State": 1,
          "Timestamp": 1384
        },
        {
          "Name": "solver.advance",
          "State": 0,
          "Timestamp": 1508
        },
        {
          "Name": "solver.advance",
          "State": 1,
          "Timestamp": 1599
        },
        {
          "Name": "solver.advance",
          "State": 0,
          "Timestamp": 1723
        },
        {
          "Name": "solver.advance",
          "State": 1,
          "Timestamp": 1814
        },
        {
          "Name": "solver.advance",
          "State": 0,
          "Timestamp": 1935
        },
        {
          "Name": "solver.advance",
          "State": 1,
          "Timestamp": 2025
        },
        {
          "Name": "solver.advance",
          "State": 0,
          "Timestamp": 2146
        },
        {
          "Name": "solver.advance",
          "State": 1,
          "Timestamp": 2237
        },
        {
          "Name": "solver.advance",
          "State": 0,
          "Timestamp": 2359
        },
        {
          "Name": "solver.advance",
          "State": 1,
          "Timestamp": 2449
        },
        {
          "Name": "solver.advance",
          "State": 0,
          "Timestamp": 2573
        },
        {
          "Name": "solver.advance",
          "State": 1,
          "Timestamp": 2665
        },
        {
          "Name": "solver.advance",
          "State": 0,
          "Timestamp": 2786
        },
        {
          "Name": "solver.advance",
          "State": 1,
          "Timestamp": 2877
        },
        {
          "Name": "solver.advance",
          "State": 0,
          "Timestamp": 2999
        },
        {
          "Name": "solver.advance",
          "State": 1,
          "Timestamp": 3089
        },
        {
          "Name": "solver.advance",
          "State": 0,
          "Timestamp": 3210
        },
        {
          "Name": "solver.advance",
          "State": 1,
          "Timestamp": 3301
        },
        {
          "Name": "solver.advance",
          "State": 0,
          "Timestamp": 3422
        },
        {
          "Name": "solver.advance",
          "State": 1,
          "Timestamp": 3514
        },
        {
          "Name": "solver.advance",
          "State": 0,
          "Timestamp": 3637
        },
        {
          "Name": "solver.advance",
          "State": 1,
          "Timestamp": 3727
        },
        {
          "Name": "solver.advance",
          "State": 0,
          "Timestamp": 3849
        },
        {
          "Name": "solver.advance",
          "State": 1,
          "Timestamp": 3941
        },
        {
          "Name": "solver.advance",
          "State": 0,
          "Timestamp": 4062
        },
        {
          "Name": "solver.advance",
          "State": 1,
          "Timestamp": 4164
        },
        {
          "Name": "solver.advance",
          "State": 0,
          "Timestamp": 4297
        },
        {
          "Name": "solver.advance",
          "State": 1,
          "Timestamp": 4388
        },
        {
          "Name": "solver.advance",
          "State": 0,
          "Timestamp": 4510
        },
        {
          "Name": "solver.advance",
          "State": 1,
          "Timestamp": 4603
        },
        {
          "Name": "solver.advance",
          "State": 0,
          "Timestamp": 4724
        },
        {
          "Name": "solver.advance",
          "State": 1,
          "Timestamp": 4815
        },
        {
          "Name": "solver.advance",
          "State": 0,
          "Timestamp": 4937
        },
        {
          "Name": "solver.advance",
          "State": 1,
          "Timestamp": 5027
        },
        {
          "Name": "solver.advance",
          "State": 0,
          "Timestamp": 5149
        },
        {
          "Name": "solver.advance",
          "State": 1,
          "Timestamp": 5240
        },
        {
          "Name": "solver.advance",
          "State": 0,
          "Timestamp": 5362
        },
        {
          "Name": "solver.advance",
          "State": 1,
          "Timestamp": 5453
        },
        {
          "Name": "solver.advance",
          "State": 0,
          "Timestamp": 5577
        },
        {
          "Name": "solver.advance",
          "State": 1,
          "Timestamp": 5669
        },
        {
          "Name": "solver.advance",
          "State": 0,
          "Timestamp": 5793
        },
        {
          "Name": "solver.advance",
          "State": 1,
          "Timestamp": 5883
        },
        {
          "Name": "solver.advance",
          "State": 0,
          "Timestamp": 6007
        },
        {
          "Name": "solver.advance",
          "State": 1,
          "Timestamp": 6097
        },
        {
          "Name": "solver.advance",
          "State": 0,
          "Timestamp": 6221
        },
        {
          "Name": "solver.advance",
          "State": 1,
          "Timestamp": 6312
        },
        {
          "Name": "solver.advance",
          "State": 0,
          "Timestamp": 6436
        },
        {
          "Name": "solver.advance",
          "State": 1,
          "Timestamp": 6527
        },
        {
          "Name": "solver.advance",
          "State": 0,
          "Timestamp": 6650
        },
        {
          "Name": "solver.advance",
          "State": 1,
          "Timestamp": 6741
        },
        {
          "Name": "solver.advance",
          "State": 0,
          "Timestamp": 6864
        },
        {
          "Name": "solver.advance",
          "State": 1,
          "Timestamp": 6955
        },
        {
          "Name": "solver.advance",
          "State": 0,
          "Timestamp": 7078
        },
        {
          "Name": "solver.advance",
          "State": 1,
          "Timestamp": 7169
        },
        {
          "Name": "solver.advance",
          "State": 0,
          "Timestamp": 7293
        },
        {
          "Name": "solver.advance",
          "State": 1,
          "Timestamp": 7384
        },
        {
          "Name": "solver.advance",
          "State": 0,
          "Timestamp": 7508
        },
        {
          "Name": "solver.advance",
          "State": 1,
          "Timestamp": 7599
        },
        {
          "Name": "solver.advance",
          "State": 0,
          "Timestamp": 7722
        },
        {
          "Name": "solver.advance",
          "State": 1,
          "Timestamp": 7814
        },
        {
          "Name": "solver.advance",
          "State": 0,
          "Timestamp": 7938
        },
        {
          "Name": "solver.advance",
          "State": 1,
          "Timestamp": 8029
        },
        {
          "Name": "solver.advance",
          "State": 0,
          "Timestamp": 8154
        },
        {
          "Name": "solver.advance",
          "State": 1,
          "Timestamp": 8256
        },
        {
          "Name": "solver.advance",
          "State": 0,
          "Timestamp": 8389
        },
        {
          "Name": "solver.advance",
          "State": 1,
          "Timestamp": 8481
        },
        {
          "Name": "solver.advance",
          "State": 0,
          "Timestamp": 8604
        },
        {
          "Name": "solver.advance",
          "State": 1,
          "Timestamp": 8695
        },
        {
          "Name": "solver.advance",
          "State": 0,
          "Timestamp": 8817
        },
        {
          "Name": "solver.advance",
          "State": 1,
          "Timestamp": 8908
        },
        {
          "Name": "solver.advance",
          "State": 0,
          "Timestamp": 9030
        },
        {
          "Name": "solver.advance",
          "State": 1,
          "Timestamp": 9121
        },
        {
          "Name": "solver.advance",
          "State": 0,
          "Timestamp": 9243
        },
        {
          "Name": "solver.advance",
          "State": 1,
          "Timestamp": 9334
        },
        {
          "Name": "solver.advance",
          "State": 0,
          "Timestamp": 9457
        },
        {
          "Name": "solver.advance",
          "State": 1,
          "Timestamp": 9549
        },
        {
          "Name": "solver.advance",
          "State": 0,
          "Timestamp": 9673
        },
        {
          "Name": "solver.advance",
          "State": 1,
          "Timestamp": 9764
        },
        {
          "Name": "solver.advance",
          "State": 0,
          "Timestamp": 9885
        },
        {
          "Name": "solver.advance",
          "State": 1,
          "Timestamp": 9976
        },
        {
          "Name": "solver.advance",
          "State": 0,
          "Timestamp": 10099
        },
        {
          "Name": "solver.advance",
          "State": 1,
          "Timestamp": 10191
        },
        {
          "Name": "solver.advance",
          "State": 0,
          "Timestamp": 10313
        },
        {
          "Name": "solver.advance",
          "State": 1,
          "Timestamp": 10416
        },
        {
          "Name": "solver.advance",
          "State": 0,
          "Timestamp": 10550
        },
        {
          "Name": "solver.advance",
          "State": 1,
          "Timestamp": 10641
        },
        {
          "Name": "solver.advance",
          "State": 0,
          "Timestamp": 10763
        },
        {
          "Name": "solver.advance",
          "State": 1,
          "Timestamp": 10854
        },
        {
          "Name": "solver.advance",
          "State": 0,
          "Timestamp": 10977
        },
        {
          "Name": "solver.advance",
          "State": 1,
          "Timestamp": 11078
        },
        {
          "Name": "solver.advance",
          "State": 0,
          "Timestamp": 11211
        },
        {
          "Name": "solver.advance",
          "State": 1,
          "Timestamp": 11301
        },
        {
          "Name": "solver.advance",
          "State": 0,
          "Timestamp": 11423
        },
        {
          "Name": "solver.advance",
          "State": 1,
          "Timestamp": 11515
        },
        {
          "Name": "solver.advance",
          "State": 0,
          "Timestamp": 11637
        },
        {
          "Name": "solver.advance",
          "State": 1,
          "Timestamp": 11741
        },
        {
          "Name": "solver.advance",
          "State": 0,
          "Timestamp": 11874
        },
        {
          "Name": "solver.advance",
          "State": 1,
          "Timestamp": 11965
        },
        {
          "Name": "solver.advance",
          "State": 0,
          "Timestamp": 12087
        },
        {
          "Name": "solver.advance",
          "State": 1,
          "Timestamp": 12179
        },
        {
          "Name": "solver.advance",
          "State": 0,
          "Timestamp": 12300
        },
        {
          "Name": "solver.advance",
          "State": 1,
          "Timestamp": 12403
        },
        {
          "Name": "solver.advance",
          "State": 0,
          "Timestamp": 12537
        },
        {
          "Name": "solver.advance",
          "State": 1,
          "Timestamp": 12629
        },
        {
          "Name": "solver.advance",
          "State": 0,
          "Timestamp": 12752
        },
        {
          "Name": "solver.advance",
          "State": 1,
          "Timestamp": 12843
        },
        {
          "Name": "solver.advance",
          "State": 0,
          "Timestamp": 12965
        },
        {
          "Name": "solver.advance",
          "State": 1,
          "Timestamp": 13067
        },
        {
          "Name": "solver.advance",
          "State": 0,
          "Timestamp": 13200
        },
        {
          "Name": "solver.advance",
          "State": 1,
          "Timestamp": 13291
        },
        {
          "Name": "solver.advance",
          "State": 0,
          "Timestamp": 13413
        },
        {
          "Name": "solver.advance",
          "State": 1,
          "Timestamp": 13504
        },
        {
          "Name": "solver.advance",
          "State": 0,
          "Timestamp": 13627
        },
        {
          "Name": "solver.advance",
          "State": 1,
          "Timestamp": 13729
        },
        {
          "Name": "solver.advance",
          "State": 0,
          "Timestamp": 13862
        },
        {
          "Name": "solver.advance",
          "State": 1,
          "Timestamp": 13953
        },
        {
          "Name": "solver.advance",
          "State": 0,
          "Timestamp": 14074
        },
        {
          "Name": "solver.advance",
          "State": 1,
          "Timestamp": 14165
        },
        {
          "Name": "solver.advance",
          "State": 0,
          "Timestamp": 14286
        },
        {
          "Name": "solver.advance",
          "State": 1,
          "Timestamp": 14389
        },
        {
          "Name": "solver.advance",
          "State": 0,
          "Timestamp": 14524
        },
        {
          "Name": "solver.advance",
          "State": 1,
          "Timestamp": 14616
        },
        {
          "Name": "solver.advance",
          "State": 0,
          "Timestamp": 14740
        },
        {
          "Name": "solver.advance",
          "State": 1,
          "Timestamp": 14831
        },
        {
          "Name": "solver.advance",
          "State": 0,
          "Timestamp": 14954
        },
        {
          "Name": "solver.advance",
          "State": 1,
          "Timestamp": 14954
        },
        {
          "Name": "solver.advance",
          "State": 0,
          "Timestamp": 14982
        },
        {
          "Name": "solver.initialize",
          "State": 1,
          "Timestamp": 0
        },
        {
          "Name": "solver.initialize",
          "State": 2,
          "Timestamp": 4
        },
        {
          "Name": "solver.initialize",
          "State": 1,
          "Timestamp": 6
        },
        {
          "Name": "solver.initialize",
          "State": 2,
          "Timestamp": 13
        },
        {
          "Name": "solver.initialize",
          "State": 1,
          "Timestamp": 226
        },
        {
          "Name": "solver.initialize",
          "State": 0,
          "Timestamp": 409
        }
      ],
      "Timings": {
        "_GLOBAL": {
          "Count": 1,
          "Data": {},
          "Max": 14982,
          "Min": 14982,
          "TimeRatio": 1.0,
          "Total": 14982
        },
        "advance": {
          "Count": 68,
          "Data": {},
          "Max": 106,
          "Min": 0,
          "TimeRatio": 0.41529835802963555,
          "Total": 6222
        },
        "advance/cpl.computeQuasiNewtonUpdate": {
          "Count": 58,
          "Data": {},
          "Max": 0,
          "Min": 0,
          "TimeRatio": 6.674676278200507e-05,
          "Total": 1
        },
        "configure": {
          "Count": 1,
          "Data": {},
          "Max": 0,
          "Min": 0,
          "TimeRatio": 0.0,
          "Total": 0
        },
        "finalize": {
          "Count": 1,
          "Data": {},
          "Max": 0,
          "Min": 0,
          "TimeRatio": 0.0,
          "Total": 0
        },
        "initialize": {
          "Count": 1,
          "Data": {},
          "Max": 2,
          "Min": 2,
          "TimeRatio": 0.00013349352556401014,
          "Total": 2
        },
        "initialize/m2n.acceptMasterConnection": {
          "Count": 1,
          "Data": {},
          "Max": 2,
          "Min": 2,
          "TimeRatio": 0.00013349352556401014,
          "Total": 2
        },
        "initialize/m2n.acceptSlavesConnection": {
          "Count": 1,
          "Data": {},
          "Max": 0,
          "Min": 0,
          "TimeRatio": 0.0,
          "Total": 0
        },
        "initialize/partition.feedbackMesh.NeumannNodes": {
          "Count": 1,
          "Data": {},
          "Max": 0,
          "Min": 0,
          "TimeRatio": 0.0,
          "Total": 0
        },
        "initialize/partition.gatherMesh.NeumannNodes": {
          "Count": 1,
          "Data": {},
          "Max": 0,
          "Min": 0,
          "TimeRatio": 0.0,
          "Total": 0
        },
        "initialize/partition.sendGlobalMesh.NeumannNodes": {
          "Count": 1,
          "Data": {},
          "Max": 0,
          "Min": 0,
          "TimeRatio": 0.0,
          "Total": 0
        },
        "initializeData": {
          "Count": 1,
          "Data": {},
          "Max": 213,
          "Min": 213,
          "TimeRatio": 0.014217060472567081,
          "Total": 213
        },
        "solver.advance": {
          "Count": 68,
          "Data": {},
          "Max": 138,
          "Min": 27,
          "TimeRatio": 0.5572687224669604,
          "Total": 8349
        },
        "solver.initialize": {
          "Count": 1,
          "Data": {},
          "Max": 193,
          "Min": 193,
          "TimeRatio": 0.01288212521692698,
          "Total": 193
        }
      }
    }
  ]
}
