{
  "Finalized": "2019-11-14T05:09:52.858",
  "Initialized": "2019-11-14T05:09:27.392",
  "Name": "",
  "Ranks": [
    {
      "Finalized": "2019-11-14T05:09:52.858",
      "Initialized": "2019-11-14T05:09:27.392",
      "StateChanges": [
        {
          "Name": "_GLOBAL",
          "State": 1,
          "Timestamp": 0
        },
        {
          "Name": "_GLOBAL",
          "State": 0,
          "Timestamp": 25465
        },
        {
          "Name": "advance",
          "State": 1,
          "Timestamp": 376
        },
        {
          "Name": "advance",
          "State": 0,
          "Timestamp": 458
        },
        {
          "Name": "advance",
          "State": 1,
          "Timestamp": 594
        },
        {
          "Name": "advance",
          "State": 0,
          "Timestamp": 660
        },
        {
          "Name": "advance",
          "State": 1,
          "Timestamp": 780
        },
        {
          "Name": "advance",
          "State": 0,
          "Timestamp": 846
        },
        {
          "Name": "advance",
          "State": 1,
          "Timestamp": 965
        },
        {
          "Name": "advance",
          "State": 0,
          "Timestamp": 1031
        },
        {
          "Name": "advance",
          "State": 1,
          "Timestamp": 1150
        },
        {
          "Name": "advance",
          "State": 0,
          "Timestamp": 1217
        },
        {
          "Name": "advance",
          "State": 1,
          "Timestamp": 1336
        },
        {
          "Name": "advance",
          "State": 0,
          "Timestamp": 1403
        },
        {
          "Name": "advance",
          "State": 1,
          "Timestamp": 1523
        },
        {
          "Name": "advance",
          "State": 0,
          "Timestamp": 1589
        },
        {
          "Name": "advance",
          "State": 1,
          "Timestamp": 1709
        },
        {
          "Name": "advance",
          "State": 0,
          "Timestamp": 1775
        },
        {
          "Name": "advance",
          "State": 1,
          "Timestamp": 1895
        },
        {
          "Name": "advance",
          "State": 0,
          "Timestamp": 1960
        },
        {
          "Name": "advance",
          "State": 1,
          "Timestamp": 2081
        },
        {
          "Name": "advance",
          "State": 0,
          "Timestamp": 2147
        },
        {
          "Name": "advance",
          "State": 1,
          "Timestamp": 2269
        },
        {
          "Name": "advance",
          "State": 0,
          "Timestamp": 2336
        },
        {
          "Name": "advance",
          "State": 1,
          "Timestamp": 2455
        },
        {
          "Name": "advance",
          "State": 0,
          "Timestamp": 2532
        },
        {
          "Name": "advance",
          "State": 1,
          "Timestamp": 2665
        },
        {
          "Name": "advance",
          "State": 0,
          "Timestamp": 2731
        },
        {
          "Name": "advance",
          "State": 1,
          "Timestamp": 2851
        },
        {
          "Name": "advance",
          "State": 0,
          "Timestamp": 2917
        },
        {
          "Name": "advance",
          "State": 1,
          "Timestamp": 3038
        },
        {
          "Name": "advance",
          "State": 0,
          "Timestamp": 3103
        },
        {
          "Name": "advance",
          "State": 1,
          "Timestamp": 3224
        },
        {
          "Name": "advance",
          "State": 0,
          "Timestamp": 3291
        },
        {
          "Name": "advance",
          "State": 1,
          "Timestamp": 3412
        },
        {
          "Name": "advance",
          "State": 0,
          "Timestamp": 3478
        },
        {
          "Name": "advance",
          "State": 1,
          "Timestamp": 3598
        },
        {
          "Name": "advance",
          "State": 0,
          "Timestamp": 3665
        },
        {
          "Name": "advance",
          "State": 1,
          "Timestamp": 3785
        },
        {
          "Name": "advance",
          "State": 0,
          "Timestamp": 3851
        },
        {
          "Name": "advance",
          "State": 1,
          "Timestamp": 3971
        },
        {
          "Name": "advance",
          "State": 0,
          "Timestamp": 4036
        },
        {
          "Name": "advance",
          "State": 1,
          "Timestamp": 4157
        },
        {
          "Name": "advance",
          "State": 0,
          "Timestamp": 4223
        },
        {
          "Name": "advance",
          "State": 1,
          "Timestamp": 4343
        },
        {
          "Name": "advance",
          "State": 0,
          "Timestamp": 4409
        },
        {
          "Name": "advance",
          "State": 1,
          "Timestamp": 4529
        },
        {
          "Name": "advance",
          "State": 0,
          "Timestamp": 4607
        },
        {
          "Name": "advance",
          "State": 1,
          "Timestamp": 4738
        },
        {
          "Name": "advance",
          "State": 0,
          "Timestamp": 4804
        },
        {
          "Name": "advance",
          "State": 1,
          "Timestamp": 4925
        },
        {
          "Name": "advance",
          "State": 0,
          "Timestamp": 4990
        },
        {
          "Name": "advance",
          "State": 1,
          "Timestamp": 5111
        },
        {
          "Name": "advance",
          "State": 0,
          "Timestamp": 5177
        },
        {
          "Name": "advance",
          "State": 1,
          "Timestamp": 5297
        },
        {
          "Name": "advance",
          "State": 0,
          "Timestamp": 5364
        },
        {
          "Name": "advance",
          "State": 1,
          "Timestamp": 5484
        },
        {
          "Name": "advance",
          "State": 0,
          "Timestamp": 5549
        },
        {
          "Name": "advance",
          "State": 1,
          "Timestamp": 5670
        },
        {
          "Name": "advance",
          "State": 0,
          "Timestamp": 5736
        },
        {
          "Name": "advance",
          "State": 1,
          "Timestamp": 5856
        },
        {
          "Name": "advance",
          "State": 0,
          "Timestamp": 5933
        },
        {
          "Name": "advance",
          "State": 1,
          "Timestamp": 6065
        },
        {
          "Name": "advance",
          "State": 0,
          "Timestamp": 6132
        },
        {
          "Name": "advance",
          "State": 1,
          "Timestamp": 6253
        },
        {
          "Name": "advance",
          "State": 0,
          "Timestamp": 6321
        },
        {
          "Name": "advance",
          "State": 1,
          "Timestamp": 6442
        },
        {
          "Name": "advance",
          "State": 0,
          "Timestamp": 6509
        },
        {
          "Name": "advance",
          "State": 1,
          "Timestamp": 6630
        },
        {
          "Name": "advance",
          "State": 0,
          "Timestamp": 6695
        },
        {
          "Name": "advance",
          "State": 1,
          "Timestamp": 6816
        },
        {
          "Name": "advance",
          "State": 0,
          "Timestamp": 6883
        },
        {
          "Name": "advance",
          "State": 1,
          "Timestamp": 7003
        },
        {
          "Name": "advance",
          "State": 0,
          "Timestamp": 7081
        },
        {
          "Name": "advance",
          "State": 1,
          "Timestamp": 7213
        },
        {
          "Name": "advance",
          "State": 0,
          "Timestamp": 7279
        },
        {
          "Name": "advance",
          "State": 1,
          "Timestamp": 7405
        },
        {
          "Name": "advance",
          "State": 0,
          "Timestamp": 7472
        },
        {
          "Name": "advance",
          "State": 1,
          "Timestamp": 7592
        },
        {
          "Name": "advance",
          "State": 0,
          "Timestamp": 7658
        },
        {
          "Name": "advance",
          "State": 1,
          "Timestamp": 7778
        },
        {
          "Name": "advance",
          "State": 0,
          "Timestamp": 7845
        },
        {
          "Name": "advance",
          "State": 1,
          "Timestamp": 7966
        },
        {
          "Name": "advance",
          "State": 0,
          "Timestamp": 8032
        },
        {
          "Name": "advance",
          "State": 1,
          "Timestamp": 8153
        },
        {
          "Name": "advance",
          "State": 0,
          "Timestamp": 8231
        },
        {
          "Name": "advance",
          "State": 1,
          "Timestamp": 8363
        },
        {
          "Name": "advance",
          "State": 0,
          "Timestamp": 8431
        },
        {
          "Name": "advance",
          "State": 1,
          "Timestamp": 8550
        },
        {
          "Name": "advance",
          "State": 0,
          "Timestamp": 8617
        },
        {
          "Name": "advance",
          "State": 1,
          "Timestamp": 8736
        },
        {
          "Name": "advance",
          "State": 0,
          "Timestamp": 8802
        },
        {
          "Name": "advance",
          "State": 1,
          "Timestamp": 8922
        },
        {
          "Name": "advance",
          "State": 0,
          "Timestamp": 8989
        },
        {
          "Name": "advance",
          "State": 1,
          "Timestamp": 9109
        },
        {
          "Name": "advance",
          "State": 0,
          "Timestamp": 9176
        },
        {
          "Name": "advance",
          "State": 1,
          "Timestamp": 9296
        },
        {
          "Name": "advance",
          "State": 0,
          "Timestamp": 9373
        },
        {
          "Name": "advance",
          "State": 1,
          "Timestamp": 9505
        },
        {
          "Name": "advance",
          "State": 0,
          "Timestamp": 9572
        },
        {
          "Name": "advance",
          "State": 1,
          "Timestamp": 9692
        },
        {
          "Name": "advance",
          "State": 0,
          "Timestamp": 9758
        },
        {
          "Name": "advance",
          "State": 1,
          "Timestamp": 9878
        },
        {
          "Name": "advance",
          "State": 0,
          "Timestamp": 9945
        },
        {
          "Name": "advance",
          "State": 1,
          "Timestamp": 10065
        },
        {
          "Name": "advance",
          "State": 0,
          "Timestamp": 10131
        },
        {
          "Name": "advance",
          "State": 1,
          "Timestamp": 10252
        },
        {
          "Name": "advance",
          "State": 0,
          "Timestamp": 10318
        },
        {
          "Name": "advance",
          "State": 1,
          "Timestamp": 10439
        },
        {
          "Name": "advance",
          "State": 0,
          "Timestamp": 10517
        },
        {
          "Name": "advance",
          "State": 1,
          "Timestamp": 10648
        },
        {
          "Name": "advance",
          "State": 0,
          "Timestamp": 10714
        },
        {
          "Name": "advance",
          "State": 1,
          "Timestamp": 10835
        },
        {
          "Name": "advance",
          "State": 0,
          "Timestamp": 10901
        },
        {
          "Name": "advance",
          "State": 1,
          "Timestamp": 11023
        },
        {
          "Name": "advance",
          "State": 0,
          "Timestamp": 11089
        },
        {
          "Name": "advance",
          "State": 1,
          "Timestamp": 11211
        },
        {
          "Name": "advance",
          "State": 0,
          "Timestamp": 11277
        },
        {
          "Name": "advance",
          "State": 1,
          "Timestamp": 11398
        },
        {
          "Name": "advance",
          "State": 0,
          "Timestamp": 11465
        },
        {
          "Name": "advance",
          "State": 1,
          "Timestamp": 11585
        },
        {
          "Name": "advance",
          "State": 0,
          "Timestamp": 11663
        },
        {
          "Name": "advance",
          "State": 1,
          "Timestamp": 11797
        },
        {
          "Name": "advance",
          "State": 0,
          "Timestamp": 11863
        },
        {
          "Name": "advance",
          "State": 1,
          "Timestamp": 11983
        },
        {
          "Name": "advance",
          "State": 0,
          "Timestamp": 12049
        },
        {
          "Name": "advance",
          "State": 1,
          "Timestamp": 12169
        },
        {
          "Name": "advance",
          "State": 0,
          "Timestamp": 12237
        },
        {
          "Name": "advance",
          "State": 1,
          "Timestamp": 12357
        },
        {
          "Name": "advance",
          "State": 0,
          "Timestamp": 12426
        },
        {
          "Name": "advance",
          "State": 1,
          "Timestamp": 12546
        },
        {
          "Name": "advance",
          "State": 0,
          "Timestamp": 12613
        },
        {
          "Name": "advance",
          "State": 1,
          "Timestamp": 12734
        },
        {
          "Name": "advance",
          "State": 0,
          "Timestamp": 12812
        },
        {
          "Name": "advance",
          "State": 1,
          "Timestamp": 12943
        },
        {
          "Name": "advance",
          "State": 0,
          "Timestamp": 13011
        },
        {
          "Name": "advance",
          "State": 1,
          "Timestamp": 13132
        },
        {
          "Name": "advance",
          "State": 0,
          "Timestamp": 13199
        },
        {
          "Name": "advance",
          "State": 1,
          "Timestamp": 13321
        },
        {
          "Name": "advance",
          "State": 0,
          "Timestamp": 13389
        },
        {
          "Name": "advance",
          "State": 1,
          "Timestamp": 13511
        },
        {
          "Name": "advance",
          "State": 0,
          "Timestamp": 13578
        },
        {
          "Name": "advance",
          "State": 1,
          "Timestamp": 13701
        },
        {
          "Name": "advance",
          "State": 0,
          "Timestamp": 13768
        },
        {
          "Name": "advance",
          "State": 1,
          "Timestamp": 13888
        },
        {
          "Name": "advance",
          "State": 0,
          "Timestamp": 13965
        },
        {
          "Name": "advance",
          "State": 1,
          "Timestamp": 14097
        },
        {
          "Name": "advance",
          "State": 0,
          "Timestamp": 14164
        },
        {
          "Name": "advance",
          "State": 1,
          "Timestamp": 14286
        },
        {
          "Name": "advance",
          "State": 0,
          "Timestamp": 14353
        },
        {
          "Name": "advance",
          "State": 1,
          "Timestamp": 14473
        },
        {
          "Name": "advance",
          "State": 0,
          "Timestamp": 14540
        },
        {
          "Name": "advance",
          "State": 1,
          "Timestamp": 14661
        },
        {
          "Name": "advance",
          "State": 0,
          "Timestamp": 14728
        },
        {
          "Name": "advance",
          "State": 1,
          "Timestamp": 14847
        },
        {
          "Name": "advance",
          "State": 0,
          "Timestamp": 14914
        },
        {
          "Name": "advance",
          "State": 1,
          "Timestamp": 15034
        },
        {
          "Name": "advance",
          "State": 0,
          "Timestamp": 15112
        },
        {
          "Name": "advance",
          "State": 1,
          "Timestamp": 15245
        },
        {
          "Name": "advance",
          "State": 0,
          "Timestamp": 15312
        },
        {
          "Name": "advance",
          "State": 1,
          "Timestamp": 15433
        },
        {
          "Name": "advance",
          "State": 0,
          "Timestamp": 15500
        },
        {
          "Name": "advance",
          "State": 1,
          "Timestamp": 15621
        },
        {
          "Name": "advance",
          "State": 0,
          "Timestamp": 15688
        },
        {
          "Name": "advance",
          "State": 1,
          "Timestamp": 15808
        },
        {
          "Name": "advance",
          "State": 0,
          "Timestamp": 15875
        },
        {
          "Name": "advance",
          "State": 1,
          "Timestamp": 15996
        },
        {
          "Name": "advance",
          "State": 0,
          "Timestamp": 16063
        },
        {
          "Name": "advance",
          "State": 1,
          "Timestamp": 16183
        },
        {
          "Name": "advance",
          "State": 0,
          "Timestamp": 16262
        },
        {
          "Name": "advance",
          "State": 1,
          "Timestamp": 16394
        },
        {
          "Name": "advance",
          "State": 0,
          "Timestamp": 16461
        },
        {
          "Name": "advance",
          "State": 1,
          "Timestamp": 16581
        },
        {
          "Name": "advance",
          "State": 0,
          "Timestamp": 16649
        },
        {
          "Name": "advance",
          "State": 1,
          "Timestamp": 16770
        },
        {
          "Name": "advance",
          "State": 0,
          "Timestamp": 16838
        },
        {
          "Name": "advance",
          "State": 1,
          "Timestamp": 16959
        },
        {
          "Name": "advance",
          "State": 0,
          "Timestamp": 17026
        },
        {
          "Name": "advance",
          "State": 1,
          "Timestamp": 17147
        },
        {
          "Name": "advance",
          "State": 0,
          "Timestamp": 17215
        },
        {
          "Name": "advance",
          "State": 1,
          "Timestamp": 17335
        },
        {
          "Name": "advance",
          "State": 0,
          "Timestamp": 17414
        },
        {
          "Name": "advance",
          "State": 1,
          "Timestamp": 17547
        },
        {
          "Name": "advance",
          "State": 0,
          "Timestamp": 17615
        },
        {
          "Name": "advance",
          "State": 1,
          "Timestamp": 17739
        },
        {
          "Name": "advance",
          "State": 0,
          "Timestamp": 17806
        },
        {
          "Name": "advance",
          "State": 1,
          "Timestamp": 17927
        },
        {
          "Name": "advance",
          "State": 0,
          "Timestamp": 17993
        },
        {
          "Name": "advance",
          "State": 1,
          "Timestamp": 18114
        },
        {
          "Name": "advance",
          "State": 0,
          "Timestamp": 18181
        },
        {
          "Name": "advance",
          "State": 1,
          "Timestamp": 18302
        },
        {
          "Name": "advance",
          "State": 0,
          "Timestamp": 18368
        },
        {
          "Name": "advance",
          "State": 1,
          "Timestamp": 18489
        },
        {
          "Name": "advance",
          "State": 0,
          "Timestamp": 18567
        },
        {
          "Name": "advance",
          "State": 1,
          "Timestamp": 18699
        },
        {
          "Name": "advance",
          "State": 0,
          "Timestamp": 18766
        },
        {
          "Name": "advance",
          "State": 1,
          "Timestamp": 18886
        },
        {
          "Name": "advance",
          "State": 0,
          "Timestamp": 18953
        },
        {
          "Name": "advance",
          "State": 1,
          "Timestamp": 19074
        },
        {
          "Name": "advance",
          "State": 0,
          "Timestamp": 19141
        },
        {
          "Name": "advance",
          "State": 1,
          "Timestamp": 19263
        },
        {
          "Name": "advance",
          "State": 0,
          "Timestamp": 19329
        },
        {
          "Name": "advance",
          "State": 1,
          "Timestamp": 19452
        },
        {
          "Name": "advance",
          "State": 0,
          "Timestamp": 19518
        },
        {
          "Name": "advance",
          "State": 1,
          "Timestamp": 19640
        },
        {
          "Name": "advance",
          "State": 0,
          "Timestamp": 19719
        },
        {
          "Name": "advance",
          "State": 1,
          "Timestamp": 19851
        },
        {
          "Name": "advance",
          "State": 0,
          "Timestamp": 19919
        },
        {
          "Name": "advance",
          "State": 1,
          "Timestamp": 20040
        },
        {
          "Name": "advance",
          "State": 0,
          "Timestamp": 20107
        },
        {
          "Name": "advance",
          "State": 1,
          "Timestamp": 20228
        },
        {
          "Name": "advance",
          "State": 0,
          "Timestamp": 20297
        },
        {
          "Name": "advance",
          "State": 1,
          "Timestamp": 20417
        },
        {
          "Name": "advance",
          "State": 0,
          "Timestamp": 20485
        },
        {
          "Name": "advance",
          "State": 1,
          "Timestamp": 20606
        },
        {
          "Name": "advance",
          "State": 0,
          "Timestamp": 20674
        },
        {
          "Name": "advance",
          "State": 1,
          "Timestamp": 20794
        },
        {
          "Name": "advance",
          "State": 0,
          "Timestamp": 20872
        },
        {
          "Name": "advance",
          "State": 1,
          "Timestamp": 21006
        },
        {
          "Name": "advance",
          "State": 0,
          "Timestamp": 21073
        },
        {
          "Name": "advance",
          "State": 1,
          "Timestamp": 21194
        },
        {
          "Name": "advance",
          "State": 0,
          "Timestamp": 21263
        },
        {
          "Name": "advance",
          "State": 1,
          "Timestamp": 21401
        },
        {
          "Name": "advance",
          "State": 0,
          "Timestamp": 21483
        },
        {
          "Name": "advance",
          "State": 1,
          "Timestamp": 21603
        },
        {
          "Name": "advance",
          "State": 0,
          "Timestamp": 21670
        },
        {
          "Name": "advance",
          "State": 1,
          "Timestamp": 21791
        },
        {
          "Name": "advance",
          "State": 0,
          "Timestamp": 21858
        },
        {
          "Name": "advance",
          "State": 1,
          "Timestamp": 21979
        },
        {
          "Name": "advance",
          "State": 0,
          "Timestamp": 22056
        },
        {
          "Name": "advance",
          "State": 1,
          "Timestamp": 22188
        },
        {
          "Name": "advance",
          "State": 0,
          "Timestamp": 22256
        },
        {
          "Name": "advance",
          "State": 1,
          "Timestamp": 22379
        },
        {
          "Name": "advance",
          "State": 0,
          "Timestamp": 22446
        },
        {
          "Name": "advance",
          "State": 1,
          "Timestamp": 22566
        },
        {
          "Name": "advance",
          "State": 0,
          "Timestamp": 22633
        },
        {
          "Name": "advance",
          "State": 1,
          "Timestamp": 22754
        },
        {
          "Name": "advance",
          "State": 0,
          "Timestamp": 22821
        },
        {
          "Name": "advance",
          "State": 1,
          "Timestamp": 22942
        },
        {
          "Name": "advance",
          "State": 0,
          "Timestamp": 23009
        },
        {
          "Name": "advance",
          "State": 1,
          "Timestamp": 23130
        },
        {
          "Name": "advance",
          "State": 0,
          "Timestamp": 23208
        },
        {
          "Name": "advance",
          "State": 1,
          "Timestamp": 23342
        },
        {
          "Name": "advance",
          "State": 0,
          "Timestamp": 23408
        },
        {
          "Name": "advance",
          "State": 1,
          "Timestamp": 23530
        },
        {
          "Name": "advance",
          "State": 0,
          "Timestamp": 23596
        },
        {
          "Name": "advance",
          "State": 1,
          "Timestamp": 23717
        },
        {
          "Name": "advance",
          "State": 0,
          "Timestamp": 23784
        },
        {
          "Name": "advance",
          "State": 1,
          "Timestamp": 23905
        },
        {
          "Name": "advance",
          "State": 0,
          "Timestamp": 23971
        },
        {
          "Name": "advance",
          "State": 1,
          "Timestamp": 24092
        },
        {
          "Name": "advance",
          "State": 0,
          "Timestamp": 24159
        },
        {
          "Name": "advance",
          "State": 1,
          "Timestamp": 24282
        },
        {
          "Name": "advance",
          "State": 0,
          "Timestamp": 24361
        },
        {
          "Name": "advance",
          "State": 1,
          "Timestamp": 24494
        },
        {
          "Name": "advance",
          "State": 0,
          "Timestamp": 24561
        },
        {
          "Name": "advance",
          "State": 1,
          "Timestamp": 24682
        },
        {
          "Name": "advance",
          "State": 0,
          "Timestamp": 24750
        },
        {
          "Name": "advance",
          "State": 1,
          "Timestamp": 24870
        },
        {
          "Name": "advance",
          "State": 0,
          "Timestamp": 24937
        },
        {
          "Name": "advance",
          "State": 1,
          "Timestamp": 25059
        },
        {
          "Name": "advance",
          "State": 0,
          "Timestamp": 25126
        },
        {
          "Name": "advance",
          "State": 1,
          "Timestamp": 25248
        },
        {
          "Name": "advance",
          "State": 0,
          "Timestamp": 25316
        },
        {
          "Name": "advance",
          "State": 1,
          "Timestamp": 25436
        },
        {
          "Name": "advance",
          "State": 0,
          "Timestamp": 25436
        },
        {
          "Name": "advance/cpl.computeQuasiNewtonUpdate",
          "State": 1,
          "Timestamp": 376
        },
        {
          "Name": "advance/cpl.computeQuasiNewtonUpdate",
          "State": 0,
          "Timestamp": 376
        },
        {
          "Name": "advance/cpl.computeQuasiNewtonUpdate",
          "State": 1,
          "Timestamp": 594
        },
        {
          "Name": "advance/cpl.computeQuasiNewtonUpdate",
          "State": 0,
          "Timestamp": 594
        },
        {
          "Name": "advance/cpl.computeQuasiNewtonUpdate",
          "State": 1,
          "Timestamp": 780
        },
        {
          "Name": "advance/cpl.computeQuasiNewtonUpdate",
          "State": 0,
          "Timestamp": 780
        },
        {
          "Name": "advance/cpl.computeQuasiNewtonUpdate",
          "State": 1,
          "Timestamp": 965
        },
        {
          "Name": "advance/cpl.computeQuasiNewtonUpdate",
          "State": 0,
          "Timestamp": 965
        },
        {
          "Name": "advance/cpl.computeQuasiNewtonUpdate",
          "State": 1,
          "Timestamp": 1150
        },
        {
          "Name": "advance/cpl.computeQuasiNewtonUpdate",
          "State": 0,
          "Timestamp": 1150
        },
        {
          "Name": "advance/cpl.computeQuasiNewtonUpdate",
          "State": 1,
          "Timestamp": 1337
        },
        {
          "Name": "advance/cpl.computeQuasiNewtonUpdate",
          "State": 0,
          "Timestamp": 1337
        },
        {
          "Name": "advance/cpl.computeQuasiNewtonUpdate",
          "State": 1,
          "Timestamp": 1523
        },
        {
          "Name": "advance/cpl.computeQuasiNewtonUpdate",
          "State": 0,
          "Timestamp": 1523
        },
        {
          "Name": "advance/cpl.computeQuasiNewtonUpdate",
          "State": 1,
          "Timestamp": 1709
        },
        {
          "Name": "advance/cpl.computeQuasiNewtonUpdate",
          "State": 0,
          "Timestamp": 1709
        },
        {
          "Name": "advance/cpl.computeQuasiNewtonUpdate",
          "State": 1,
          "Timestamp": 1895
        },
        {
          "Name": "advance/cpl.computeQuasiNewtonUpdate",
          "State": 0,
          "Timestamp": 1895
        },
        {
          "Name": "advance/cpl.computeQuasiNewtonUpdate",
          "State": 1,
          "Timestamp": 2081
        },
        {
          "Name": "advance/cpl.computeQuasiNewtonUpdate",
          "State": 0,
          "Timestamp": 2081
        },
        {
          "Name": "advance/cpl.computeQuasiNewtonUpdate",
          "State": 1,
          "Timestamp": 2270
        },
        {
          "Name": "advance/cpl.computeQuasiNewtonUpdate",
          "State": 0,
          "Timestamp": 2270
        },
        {
          "Name": "advance/cpl.computeQuasiNewtonUpdate",
          "State": 1,
          "Timestamp": 2665
        },
        {
          "Name": "advance/cpl.computeQuasiNewtonUpdate",
          "State": 0,
          "Timestamp": 2665
        },
        {
          "Name": "advance/cpl.computeQuasiNewtonUpdate",
          "State": 1,
          "Timestamp": 2851
        },
        {
          "Name": "advance/cpl.computeQuasiNewtonUpdate",
          "State": 0,
          "Timestamp": 2851
        },
        {
          "Name": "advance/cpl.computeQuasiNewtonUpdate",
          "State": 1,
          "Timestamp": 3038
        },
        {
          "Name": "advance/cpl.computeQuasiNewtonUpdate",
          "State": 0,
          "Timestamp": 3038
        },
        {
          "Name": "advance/cpl.computeQuasiNewtonUpdate",
          "State": 1,
          "Timestamp": 3224
        },
        {
          "Name": "advance/cpl.computeQuasiNewtonUpdate",
          "State": 0,
          "Timestamp": 3224
        },
        {
          "Name": "advance/cpl.computeQuasiNewtonUpdate",
          "State": 1,
          "Timestamp": 3412
        },
        {
          "Name": "advance/cpl.computeQuasiNewtonUpdate",
          "State": 0,
          "Timestamp": 3412
        },
        {
          "Name": "advance/cpl.computeQuasiNewtonUpdate",
          "State": 1,
          "Timestamp": 3598
        },
        {
          "Name": "advance/cpl.computeQuasiNewtonUpdate",
          "State": 0,
          "Timestamp": 3598
        },
        {
          "Name": "advance/cpl.computeQuasiNewtonUpdate",
          "State": 1,
          "Timestamp": 3785
        },
        {
          "Name": "advance/cpl.computeQuasiNewtonUpdate",
          "State": 0,
          "Timestamp": 3785
        },
        {
          "Name": "advance/cpl.computeQuasiNewtonUpdate",
          "State": 1,
          "Timestamp": 3971
        },
        {
          "Name": "advance/cpl.computeQuasiNewtonUpdate",
          "State": 0,
          "Timestamp": 3971
        },
        {
          "Name": "advance/cpl.computeQuasiNewtonUpdate",
          "State": 1,
          "Timestamp": 4157
        },
        {
          "Name": "advance/cpl.computeQuasiNewtonUpdate",
          "State": 0,
          "Timestamp": 4157
        },
        {
          "Name": "advance/cpl.computeQuasiNewtonUpdate",
          "State": 1,
          "Timestamp": 4343
        },
        {
          "Name": "advance/cpl.computeQuasiNewtonUpdate",
          "State": 0,
          "Timestamp": 4343
        },
        {
          "Name": "advance/cpl.computeQuasiNewtonUpdate",
          "State": 1,
          "Timestamp": 4738
        },
        {
          "Name": "advance/cpl.computeQuasiNewtonUpdate",
          "State": 0,
          "Timestamp": 4738
        },
        {
          "Name": "advance/cpl.computeQuasiNewtonUpdate",
          "State": 1,
          "Timestamp": 4925
        },
        {
          "Name": "advance/cpl.computeQuasiNewtonUpdate",
          "State": 0,
          "Timestamp": 4925
        },
        {
          "Name": "advance/cpl.computeQuasiNewtonUpdate",
          "State": 1,
          "Timestamp": 5111
        },
        {
          "Name": "advance/cpl.computeQuasiNewtonUpdate",
          "State": 0,
          "Timestamp": 5111
        },
        {
          "Name": "advance/cpl.computeQuasiNewtonUpdate",
          "State": 1,
          "Timestamp": 5298
        },
        {
          "Name": "advance/cpl.computeQuasiNewtonUpdate",
          "State": 0,
          "Timestamp": 5298
        },
        {
          "Name": "advance/cpl.computeQuasiNewtonUpdate",
          "State": 1,
          "Timestamp": 5484
        },
        {
          "Name": "advance/cpl.computeQuasiNewtonUpdate",
          "State": 0,
          "Timestamp": 5484
        },
        {
          "Name": "advance/cpl.computeQuasiNewtonUpdate",
          "State": 1,
          "Timestamp": 5670
        },
        {
          "Name": "advance/cpl.computeQuasiNewtonUpdate",
          "State": 0,
          "Timestamp": 5670
        },
        {
          "Name": "advance/cpl.computeQuasiNewtonUpdate",
          "State": 1,
          "Timestamp": 6065
        },
        {
          "Name": "advance/cpl.computeQuasiNewtonUpdate",
          "State": 0,
          "Timestamp": 6065
        },
        {
          "Name": "advance/cpl.computeQuasiNewtonUpdate",
          "State": 1,
          "Timestamp": 6253
        },
        {
          "Name": "advance/cpl.computeQuasiNewtonUpdate",
          "State": 0,
          "Timestamp": 6254
        },
        {
          "Name": "advance/cpl.computeQuasiNewtonUpdate",
          "State": 1,
          "Timestamp": 6442
        },
        {
          "Name": "advance/cpl.computeQuasiNewtonUpdate",
          "State": 0,
          "Timestamp": 6442
        },
        {
          "Name": "advance/cpl.computeQuasiNewtonUpdate",
          "State": 1,
          "Timestamp": 6630
        },
        {
          "Name": "advance/cpl.computeQuasiNewtonUpdate",
          "State": 0,
          "Timestamp": 6630
        },
        {
          "Name": "advance/cpl.computeQuasiNewtonUpdate",
          "State": 1,
          "Timestamp": 6816
        },
        {
          "Name": "advance/cpl.computeQuasiNewtonUpdate",
          "State": 0,
          "Timestamp": 6816
        },
        {
          "Name": "advance/cpl.computeQuasiNewtonUpdate",
          "State": 1,
          "Timestamp": 7213
        },
        {
          "Name": "advance/cpl.computeQuasiNewtonUpdate",
          "State": 0,
          "Timestamp": 7213
        },
        {
          "Name": "advance/cpl.computeQuasiNewtonUpdate",
          "State": 1,
          "Timestamp": 7405
        },
        {
          "Name": "advance/cpl.computeQuasiNewtonUpdate",
          "State": 0,
          "Timestamp": 7405
        },
        {
          "Name": "advance/cpl.computeQuasiNewtonUpdate",
          "State": 1,
          "Timestamp": 7592
        },
        {
          "Name": "advance/cpl.computeQuasiNewtonUpdate",
          "State": 0,
          "Timestamp": 7592
        },
        {
          "Name": "advance/cpl.computeQuasiNewtonUpdate",
          "State": 1,
          "Timestamp": 7778
        },
        {
          "Name": "advance/cpl.computeQuasiNewtonUpdate",
          "State": 0,
          "Timestamp": 7778
        },
        {
          "Name": "advance/cpl.computeQuasiNewtonUpdate",
          "State": 1,
          "Timestamp": 7966
        },
        {
          "Name": "advance/cpl.computeQuasiNewtonUpdate",
          "State": 0,
          "Timestamp": 7966
        },
        {
          "Name": "advance/cpl.computeQuasiNewtonUpdate",
          "State": 1,
          "Timestamp": 8363
        },
        {
          "Name": "advance/cpl.computeQuasiNewtonUpdate",
          "State": 0,
          "Timestamp": 8363
        },
        {
          "Name": "advance/cpl.computeQuasiNewtonUpdate",
          "State": 1,
          "Timestamp": 8550
        },
        {
          "Name": "advance/cpl.computeQuasiNewtonUpdate",
          "State": 0,
          "Timestamp": 8550
        },
        {
          "Name": "advance/cpl.computeQuasiNewtonUpdate",
          "State": 1,
          "Timestamp": 8736
        },
        {
          "Name": "advance/cpl.computeQuasiNewtonUpdate",
          "State": 0,
          "Timestamp": 8736
        },
        {
          "Name": "advance/cpl.computeQuasiNewtonUpdate",
          "State": 1,
          "Timestamp": 8922
        },
        {
          "Name": "advance/cpl.computeQuasiNewtonUpdate",
          "State": 0,
          "Timestamp": 8922
        },
        {
          "Name": "advance/cpl.computeQuasiNewtonUpdate",
          "State": 1,
          "Timestamp": 9109
        },
        {
          "Name": "advance/cpl.computeQuasiNewtonUpdate",
          "State": 0,
          "Timestamp": 9109
        },
        {
          "Name": "advance/cpl.computeQuasiNewtonUpdate",
          "State": 1,
          "Timestamp": 9505
        },
        {
          "Name": "advance/cpl.computeQuasiNewtonUpdate",
          "State": 0,
          "Timestamp": 9505
        },
        {
          "Name": "advance/cpl.computeQuasiNewtonUpdate",
          "State": 1,
          "Timestamp": 9692
        },
        {
          "Name": "advance/cpl.computeQuasiNewtonUpdate",
          "State": 0,
          "Timestamp": 9692
        },
        {
          "Name": "advance/cpl.computeQuasiNewtonUpdate",
          "State": 1,
          "Timestamp": 9878
        },
        {
          "Name": "advance/cpl.computeQuasiNewtonUpdate",
          "State": 0,
          "Timestamp": 9878
        },
        {
          "Name": "advance/cpl.computeQuasiNewtonUpdate",
          "State": 1,
          "Timestamp": 10065
        },
        {
          "Name": "advance/cpl.computeQuasiNewtonUpdate",
          "State": 0,
          "Timestamp": 10065
        },
        {
          "Name": "advance/cpl.computeQuasiNewtonUpdate",
          "State": 1,
          "Timestamp": 10252
        },
        {
          "Name": "advance/cpl.computeQuasiNewtonUpdate",
          "State": 0,
          "Timestamp": 10252
        },
        {
          "Name": "advance/cpl.computeQuasiNewtonUpdate",
          "State": 1,
          "Timestamp": 10648
        },
        {
          "Name": "advance/cpl.computeQuasiNewtonUpdate",
          "State": 0,
          "Timestamp": 10648
        },
        {
          "Name": "advance/cpl.computeQuasiNewtonUpdate",
          "State": 1,
          "Timestamp": 10835
        },
        {
          "Name": "advance/cpl.computeQuasiNewtonUpdate",
          "State": 0,
          "Timestamp": 10835
        },
        {
          "Name": "advance/cpl.computeQuasiNewtonUpdate",
          "State": 1,
          "Timestamp": 11023
        },
        {
          "Name": "advance/cpl.computeQuasiNewtonUpdate",
          "State": 0,
          "Timestamp": 11023
        },
        {
          "Name": "advance/cpl.computeQuasiNewtonUpdate",
          "State": 1,
          "Timestamp": 11211
        },
        {
          "Name": "advance/cpl.computeQuasiNewtonUpdate",
          "State": 0,
          "Timestamp": 11211
        },
        {
          "Name": "advance/cpl.computeQuasiNewtonUpdate",
          "State": 1,
          "Timestamp": 11398
        },
        {
          "Name": "advance/cpl.computeQuasiNewtonUpdate",
          "State": 0,
          "Timestamp": 11398
        },
        {
          "Name": "advance/cpl.computeQuasiNewtonUpdate",
          "State": 1,
          "Timestamp": 11797
        },
        {
          "Name": "advance/cpl.computeQuasiNewtonUpdate",
          "State": 0,
          "Timestamp": 11797
        },
        {
          "Name": "advance/cpl.computeQuasiNewtonUpdate",
          "State": 1,
          "Timestamp": 11983
        },
        {
          "Name": "advance/cpl.computeQuasiNewtonUpdate",
          "State": 0,
          "Timestamp": 11983
        },
        {
          "Name": "advance/cpl.computeQuasiNewtonUpdate",
          "State": 1,
          "Timestamp": 12170
        },
        {
          "Name": "advance/cpl.computeQuasiNewtonUpdate",
          "State": 0,
          "Timestamp": 12170
        },
        {
          "Name": "advance/cpl.computeQuasiNewtonUpdate",
          "State": 1,
          "Timestamp": 12358
        },
        {
          "Name": "advance/cpl.computeQuasiNewtonUpdate",
          "State": 0,
          "Timestamp": 12358
        },
        {
          "Name": "advance/cpl.computeQuasiNewtonUpdate",
          "State": 1,
          "Timestamp": 12546
        },
        {
          "Name": "advance/cpl.computeQuasiNewtonUpdate",
          "State": 0,
          "Timestamp": 12546
        },
        {
          "Name": "advance/cpl.computeQuasiNewtonUpdate",
          "State": 1,
          "Timestamp": 12943
        },
        {
          "Name": "advance/cpl.computeQuasiNewtonUpdate",
          "State": 0,
          "Timestamp": 12943
        },
        {
          "Name": "advance/cpl.computeQuasiNewtonUpdate",
          "State": 1,
          "Timestamp": 13132
        },
        {
          "Name": "advance/cpl.computeQuasiNewtonUpdate",
          "State": 0,
          "Timestamp": 13132
        },
        {
          "Name": "advance/cpl.computeQuasiNewtonUpdate",
          "State": 1,
          "Timestamp": 13321
        },
        {
          "Name": "advance/cpl.computeQuasiNewtonUpdate",
          "State": 0,
          "Timestamp": 13321
        },
        {
          "Name": "advance/cpl.computeQuasiNewtonUpdate",
          "State": 1,
          "Timestamp": 13511
        },
        {
          "Name": "advance/cpl.computeQuasiNewtonUpdate",
          "State": 0,
          "Timestamp": 13511
        },
        {
          "Name": "advance/cpl.computeQuasiNewtonUpdate",
          "State": 1,
          "Timestamp": 13701
        },
        {
          "Name": "advance/cpl.computeQuasiNewtonUpdate",
          "State": 0,
          "Timestamp": 13701
        },
        {
          "Name": "advance/cpl.computeQuasiNewtonUpdate",
          "State": 1,
          "Timestamp": 14097
        },
        {
          "Name": "advance/cpl.computeQuasiNewtonUpdate",
          "State": 0,
          "Timestamp": 14097
        },
        {
          "Name": "advance/cpl.computeQuasiNewtonUpdate",
          "State": 1,
          "Timestamp": 14286
        },
        {
          "Name": "advance/cpl.computeQuasiNewtonUpdate",
          "State": 0,
          "Timestamp": 14286
        },
        {
          "Name": "advance/cpl.computeQuasiNewtonUpdate",
          "State": 1,
          "Timestamp": 14473
        },
        {
          "Name": "advance/cpl.computeQuasiNewtonUpdate",
          "State": 0,
          "Timestamp": 14473
        },
        {
          "Name": "advance/cpl.computeQuasiNewtonUpdate",
          "State": 1,
          "Timestamp": 14661
        },
        {
          "Name": "advance/cpl.computeQuasiNewtonUpdate",
          "State": 0,
          "Timestamp": 14661
        },
        {
          "Name": "advance/cpl.computeQuasiNewtonUpdate",
          "State": 1,
          "Timestamp": 14847
        },
        {
          "Name": "advance/cpl.computeQuasiNewtonUpdate",
          "State": 0,
          "Timestamp": 14847
        },
        {
          "Name": "advance/cpl.computeQuasiNewtonUpdate",
          "State": 1,
          "Timestamp": 15245
        },
        {
          "Name": "advance/cpl.computeQuasiNewtonUpdate",
          "State": 0,
          "Timestamp": 15245
        },
        {
          "Name": "advance/cpl.computeQuasiNewtonUpdate",
          "State": 1,
          "Timestamp": 15433
        },
        {
          "Name": "advance/cpl.computeQuasiNewtonUpdate",
          "State": 0,
          "Timestamp": 15433
        },
        {
          "Name": "advance/cpl.computeQuasiNewtonUpdate",
          "State": 1,
          "Timestamp": 15621
        },
        {
          "Name": "advance/cpl.computeQuasiNewtonUpdate",
          "State": 0,
          "Timestamp": 15621
        },
        {
          "Name": "advance/cpl.computeQuasiNewtonUpdate",
          "State": 1,
          "Timestamp": 15808
        },
        {
          "Name": "advance/cpl.computeQuasiNewtonUpdate",
          "State": 0,
          "Timestamp": 15808
        },
        {
          "Name": "advance/cpl.computeQuasiNewtonUpdate",
          "State": 1,
          "Timestamp": 15996
        },
        {
          "Name": "advance/cpl.computeQuasiNewtonUpdate",
          "State": 0,
          "Timestamp": 15996
        },
        {
          "Name": "advance/cpl.computeQuasiNewtonUpdate",
          "State": 1,
          "Timestamp": 16394
        },
        {
          "Name": "advance/cpl.computeQuasiNewtonUpdate",
          "State": 0,
          "Timestamp": 16394
        },
        {
          "Name": "advance/cpl.computeQuasiNewtonUpdate",
          "State": 1,
          "Timestamp": 16581
        },
        {
          "Name": "advance/cpl.computeQuasiNewtonUpdate",
          "State": 0,
          "Timestamp": 16581
        },
        {
          "Name": "advance/cpl.computeQuasiNewtonUpdate",
          "State": 1,
          "Timestamp": 16771
        },
        {
          "Name": "advance/cpl.computeQuasiNewtonUpdate",
          "State": 0,
          "Timestamp": 16771
        },
        {
          "Name": "advance/cpl.computeQuasiNewtonUpdate",
          "State": 1,
          "Timestamp": 16959
        },
        {
          "Name": "advance/cpl.computeQuasiNewtonUpdate",
          "State": 0,
          "Timestamp": 16959
        },
        {
          "Name": "advance/cpl.computeQuasiNewtonUpdate",
          "State": 1,
          "Timestamp": 17147
        },
        {
          "Name": "advance/cpl.computeQuasiNewtonUpdate",
          "State": 0,
          "Timestamp": 17147
        },
        {
          "Name": "advance/cpl.computeQuasiNewtonUpdate",
          "State": 1,
          "Timestamp": 17548
        },
        {
          "Name": "advance/cpl.computeQuasiNewtonUpdate",
          "State": 0,
          "Timestamp": 17548
        },
        {
          "Name": "advance/cpl.computeQuasiNewtonUpdate",
          "State": 1,
          "Timestamp": 17739
        },
        {
          "Name": "advance/cpl.computeQuasiNewtonUpdate",
          "State": 0,
          "Timestamp": 17739
        },
        {
          "Name": "advance/cpl.computeQuasiNewtonUpdate",
          "State": 1,
          "Timestamp": 17927
        },
        {
          "Name": "advance/cpl.computeQuasiNewtonUpdate",
          "State": 0,
          "Timestamp": 17927
        },
        {
          "Name": "advance/cpl.computeQuasiNewtonUpdate",
          "State": 1,
          "Timestamp": 18114
        },
        {
          "Name": "advance/cpl.computeQuasiNewtonUpdate",
          "State": 0,
          "Timestamp": 18114
        },
        {
          "Name": "advance/cpl.computeQuasiNewtonUpdate",
          "State": 1,
          "Timestamp": 18302
        },
        {
          "Name": "advance/cpl.computeQuasiNewtonUpdate",
          "State": 0,
          "Timestamp": 18302
        },
        {
          "Name": "advance/cpl.computeQuasiNewtonUpdate",
          "State": 1,
          "Timestamp": 18699
        },
        {
          "Name": "advance/cpl.computeQuasiNewtonUpdate",
          "State": 0,
          "Timestamp": 18699
        },
        {
          "Name": "advance/cpl.computeQuasiNewtonUpdate",
          "State": 1,
          "Timestamp": 18886
        },
        {
          "Name": "advance/cpl.computeQuasiNewtonUpdate",
          "State": 0,
          "Timestamp": 18886
        },
        {
          "Name": "advance/cpl.computeQuasiNewtonUpdate",
          "State": 1,
          "Timestamp": 19074
        },
        {
          "Name": "advance/cpl.computeQuasiNewtonUpdate",
          "State": 0,
          "Timestamp": 19074
        },
        {
          "Name": "advance/cpl.computeQuasiNewtonUpdate",
          "State": 1,
          "Timestamp": 19263
        },
        {
          "Name": "advance/cpl.computeQuasiNewtonUpdate",
          "State": 0,
          "Timestamp": 19263
        },
        {
          "Name": "advance/cpl.computeQuasiNewtonUpdate",
          "State": 1,
          "Timestamp": 19452
        },
        {
          "Name": "advance/cpl.computeQuasiNewtonUpdate",
          "State": 0,
          "Timestamp": 19452
        },
        {
          "Name": "advance/cpl.computeQuasiNewtonUpdate",
          "State": 1,
          "Timestamp": 19851
        },
        {
          "Name": "advance/cpl.computeQuasiNewtonUpdate",
          "State": 0,
          "Timestamp": 19851
        },
        {
          "Name": "advance/cpl.computeQuasiNewtonUpdate",
          "State": 1,
          "Timestamp": 20040
        },
        {
          "Name": "advance/cpl.computeQuasiNewtonUpdate",
          "State": 0,
          "Timestamp": 20040
        },
        {
          "Name": "advance/cpl.computeQuasiNewtonUpdate",
          "State": 1,
          "Timestamp": 20228
        },
        {
          "Name": "advance/cpl.computeQuasiNewtonUpdate",
          "State": 0,
          "Timestamp": 20228
        },
        {
          "Name": "advance/cpl.computeQuasiNewtonUpdate",
          "State": 1,
          "Timestamp": 20418
        },
        {
          "Name": "advance/cpl.computeQuasiNewtonUpdate",
          "State": 0,
          "Timestamp": 20418
        },
        {
          "Name": "advance/cpl.computeQuasiNewtonUpdate",
          "State": 1,
          "Timestamp": 20606
        },
        {
          "Name": "advance/cpl.computeQuasiNewtonUpdate",
          "State": 0,
          "Timestamp": 20606
        },
        {
          "Name": "advance/cpl.computeQuasiNewtonUpdate",
          "State": 1,
          "Timestamp": 21006
        },
        {
          "Name": "advance/cpl.computeQuasiNewtonUpdate",
          "State": 0,
          "Timestamp": 21006
        },
        {
          "Name": "advance/cpl.computeQuasiNewtonUpdate",
          "State": 1,
          "Timestamp": 21194
        },
        {
          "Name": "advance/cpl.computeQuasiNewtonUpdate",
          "State": 0,
          "Timestamp": 21194
        },
        {
          "Name": "advance/cpl.computeQuasiNewtonUpdate",
          "State": 1,
          "Timestamp": 21402
        },
        {
          "Name": "advance/cpl.computeQuasiNewtonUpdate",
          "State": 0,
          "Timestamp": 21402
        },
        {
          "Name": "advance/cpl.computeQuasiNewtonUpdate",
          "State": 1,
          "Timestamp": 21603
        },
        {
          "Name": "advance/cpl.computeQuasiNewtonUpdate",
          "State": 0,
          "Timestamp": 21603
        },
        {
          "Name": "advance/cpl.computeQuasiNewtonUpdate",
          "State": 1,
          "Timestamp": 21791
        },
        {
          "Name": "advance/cpl.computeQuasiNewtonUpdate",
          "State": 0,
          "Timestamp": 21791
        },
        {
          "Name": "advance/cpl.computeQuasiNewtonUpdate",
          "State": 1,
          "Timestamp": 22188
        },
        {
          "Name": "advance/cpl.computeQuasiNewtonUpdate",
          "State": 0,
          "Timestamp": 22188
        },
        {
          "Name": "advance/cpl.computeQuasiNewtonUpdate",
          "State": 1,
          "Timestamp": 22379
        },
        {
          "Name": "advance/cpl.computeQuasiNewtonUpdate",
          "State": 0,
          "Timestamp": 22379
        },
        {
          "Name": "advance/cpl.computeQuasiNewtonUpdate",
          "State": 1,
          "Timestamp": 22566
        },
        {
          "Name": "advance/cpl.computeQuasiNewtonUpdate",
          "State": 0,
          "Timestamp": 22566
        },
        {
          "Name": "advance/cpl.computeQuasiNewtonUpdate",
          "State": 1,
          "Timestamp": 22754
        },
        {
          "Name": "advance/cpl.computeQuasiNewtonUpdate",
          "State": 0,
          "Timestamp": 22754
        },
        {
          "Name": "advance/cpl.computeQuasiNewtonUpdate",
          "State": 1,
          "Timestamp": 22942
        },
        {
          "Name": "advance/cpl.computeQuasiNewtonUpdate",
          "State": 0,
          "Timestamp": 22942
        },
        {
          "Name": "advance/cpl.computeQuasiNewtonUpdate",
          "State": 1,
          "Timestamp": 23342
        },
        {
          "Name": "advance/cpl.computeQuasiNewtonUpdate",
          "State": 0,
          "Timestamp": 23342
        },
        {
          "Name": "advance/cpl.computeQuasiNewtonUpdate",
          "State": 1,
          "Timestamp": 23530
        },
        {
          "Name": "advance/cpl.computeQuasiNewtonUpdate",
          "State": 0,
          "Timestamp": 23530
        },
        {
          "Name": "advance/cpl.computeQuasiNewtonUpdate",
          "State": 1,
          "Timestamp": 23717
        },
        {
          "Name": "advance/cpl.computeQuasiNewtonUpdate",
          "State": 0,
          "Timestamp": 23717
        },
        {
          "Name": "advance/cpl.computeQuasiNewtonUpdate",
          "State": 1,
          "Timestamp": 23905
        },
        {
          "Name": "advance/cpl.computeQuasiNewtonUpdate",
          "State": 0,
          "Timestamp": 23905
        },
        {
          "Name": "advance/cpl.computeQuasiNewtonUpdate",
          "State": 1,
          "Timestamp": 24092
        },
        {
          "Name": "advance/cpl.computeQuasiNewtonUpdate",
          "State": 0,
          "Timestamp": 24092
        },
        {
          "Name": "advance/cpl.computeQuasiNewtonUpdate",
          "State": 1,
          "Timestamp": 24494
        },
        {
          "Name": "advance/cpl.computeQuasiNewtonUpdate",
          "State": 0,
          "Timestamp": 24494
        },
        {
          "Name": "advance/cpl.computeQuasiNewtonUpdate",
          "State": 1,
          "Timestamp": 24682
        },
        {
          "Name": "advance/cpl.computeQuasiNewtonUpdate",
          "State": 0,
          "Timestamp": 24682
        },
        {
          "Name": "advance/cpl.computeQuasiNewtonUpdate",
          "State": 1,
          "Timestamp": 24870
        },
        {
          "Name": "advance/cpl.computeQuasiNewtonUpdate",
          "State": 0,
          "Timestamp": 24870
        },
        {
          "Name": "advance/cpl.computeQuasiNewtonUpdate",
          "State": 1,
          "Timestamp": 25059
        },
        {
          "Name": "advance/cpl.computeQuasiNewtonUpdate",
          "State": 0,
          "Timestamp": 25059
        },
        {
          "Name": "advance/cpl.computeQuasiNewtonUpdate",
          "State": 1,
          "Timestamp": 25248
        },
        {
          "Name": "advance/cpl.computeQuasiNewtonUpdate",
          "State": 0,
          "Timestamp": 25248
        },
        {
          "Name": "configure",
          "State": 1,
          "Timestamp": 0
        },
        {
          "Name": "configure",
          "State": 0,
          "Timestamp": 0
        },
        {
          "Name": "finalize",
          "State": 1,
          "Timestamp": 25465
        },
        {
          "Name": "finalize",
          "State": 0,
          "Timestamp": 25465
        },
        {
          "Name": "initialize",
          "State": 1,
          "Timestamp": 4
        },
        {
          "Name": "initialize",
          "State": 0,
          "Timestamp": 6
        },
        {
          "Name": "initialize/m2n.acceptMasterConnection",
          "State": 1,
          "Timestamp": 4
        },
        {
          "Name": "initialize/m2n.acceptMasterConnection",
          "State": 0,
          "Timestamp": 6
        },
        {
          "Name": "initialize/m2n.acceptSlavesConnection",
          "State": 1,
          "Timestamp": 6
        },
        {
          "Name": "initialize/m2n.acceptSlavesConnection",
          "State": 0,
          "Timestamp": 6
        },
        {
          "Name": "initialize/partition.feedbackMesh.NeumannNodes",
          "State": 1,
          "Timestamp": 6
        },
        {
          "Name": "initialize/partition.feedbackMesh.NeumannNodes",
          "State": 0,
          "Timestamp": 6
        },
        {
          "Name": "initialize/partition.gatherMesh.NeumannNodes",
          "State": 1,
          "Timestamp": 6
        },
        {
          "Name": "initialize/partition.gatherMesh.NeumannNodes",
          "State": 0,
          "Timestamp": 6
        },
        {
          "Name": "initialize/partition.sendGlobalMesh.NeumannNodes",
          "State": 1,
          "Timestamp": 6
        },
        {
          "Name": "initialize/partition.sendGlobalMesh.NeumannNodes",
          "State": 0,
          "Timestamp": 6
        },
        {
          "Name": "initializeData",
          "State": 1,
          "Timestamp": 11
        },
        {
          "Name": "initializeData",
          "State": 0,
          "Timestamp": 196
        },
        {
          "Name": "solver.advance",
          "State": 1,
          "Timestamp": 458
        },
        {
          "Name": "solver.advance",
          "State": 0,
          "Timestamp": 594
        },
        {
          "Name": "solver.advance",
          "State": 1,
          "Timestamp": 660
        },
        {
          "Name": "solver.advance",
          "State": 0,
          "Timestamp": 780
        },
        {
          "Name": "solver.advance",
          "State": 1,
          "Timestamp": 846
        },
        {
          "Name": "solver.advance",
          "State": 0,
          "Timestamp": 965
        },
        {
          "Name": "solver.advance",
          "State": 1,
          "Timestamp": 1031
        },
        {
          "Name": "solver.advance",
          "State": 0,
          "Timestamp": 1150
        },
        {
          "Name": "solver.advance",
          "State": 1,
          "Timestamp": 1217
        },
        {
          "Name": "solver.advance",
          "State": 0,
          "Timestamp": 1336
        },
        {
          "Name": "solver.advance",
          "State": 1,
          "Timestamp": 1403
        },
        {
          "Name": "solver.advance",
          "State": 0,
          "Timestamp": 1523
        },
        {
          "Name": "solver.advance",
          "State": 1,
          "Timestamp": 1589
        },
        {
          "Name": "solver.advance",
          "State": 0,
          "Timestamp": 1709
        },
        {
          "Name": "solver.advance",
          "State": 1,
          "Timestamp": 1775
        },
        {
          "Name": "solver.advance",
          "State": 0,
          "Timestamp": 1895
        },
        {
          "Name": "solver.advance",
          "State": 1,
          "Timestamp": 1960
        },
        {
          "Name": "solver.advance",
          "State": 0,
          "Timestamp": 2081
        },
        {
          "Name": "solver.advance",
          "State": 1,
          "Timestamp": 2147
        },
        {
          "Name": "solver.advance",
          "State": 0,
          "Timestamp": 2269
        },
        {
          "Name": "solver.advance",
          "State": 1,
          "Timestamp": 2336
        },
        {
          "Name": "solver.advance",
          "State": 0,
          "Timestamp": 2455
        },
        {
          "Name": "solver.advance",
          "State": 1,
          "Timestamp": 2532
        },
        {
          "Name": "solver.advance",
          "State": 0,
          "Timestamp": 2665
        },
        {
          "Name": "solver.advance",
          "State": 1,
          "Timestamp": 2731
        },
        {
          "Name": "solver.advance",
          "State": 0,
          "Timestamp": 2851
        },
        {
          "Name": "solver.advance",
          "State": 1,
          "Timestamp": 2917
        },
        {
          "Name": "solver.advance",
          "State": 0,
          "Timestamp": 3038
        },
        {
          "Name": "solver.advance",
          "State": 1,
          "Timestamp": 3103
        },
        {
          "Name": "solver.advance",
          "State": 0,
          "Timestamp": 3224
        },
        {
          "Name": "solver.advance",
          "State": 1,
          "Timestamp": 3291
        },
        {
          "Name": "solver.advance",
          "State": 0,
          "Timestamp": 3412
        },
        {
          "Name": "solver.advance",
          "State": 1,
          "Timestamp": 3478
        },
        {
          "Name": "solver.advance",
          "State": 0,
          "Timestamp": 3598
        },
        {
          "Name": "solver.advance",
          "State": 1,
          "Timestamp": 3665
        },
        {
          "Name": "solver.advance",
          "State": 0,
          "Timestamp": 3785
        },
        {
          "Name": "solver.advance",
          "State": 1,
          "Timestamp": 3851
        },
        {
          "Name": "solver.advance",
          "State": 0,
          "Timestamp": 3971
        },
        {
          "Name": "solver.advance",
          "State": 1,
          "Timestamp": 4036
        },
        {
          "Name": "solver.advance",
          "State": 0,
          "Timestamp": 4157
        },
        {
          "Name": "solver.advance",
          "State": 1,
          "Timestamp": 4223
        },
        {
          "Name": "solver.advance",
          "State": 0,
          "Timestamp": 4343
        },
        {
          "Name": "solver.advance",
          "State": 1,
          "Timestamp": 4409
        },
        {
          "Name": "solver.advance",
          "State": 0,
          "Timestamp": 4529
        },
        {
          "Name": "solver.advance",
          "State": 1,
          "Timestamp": 4607
        },
        {
          "Name": "solver.advance",
          "State": 0,
          "Timestamp": 4738
        },
        {
          "Name": "solver.advance",
          "State": 1,
          "Timestamp": 4804
        },
        {
          "Name": "solver.advance",
          "State": 0,
          "Timestamp": 4925
        },
        {
          "Name": "solver.advance",
          "State": 1,
          "Timestamp": 4990
        },
        {
          "Name": "solver.advance",
          "State": 0,
          "Timestamp": 5111
        },
        {
          "Name": "solver.advance",
          "State": 1,
          "Timestamp": 5177
        },
        {
          "Name": "solver.advance",
          "State": 0,
          "Timestamp": 5297
        },
        {
          "Name": "solver.advance",
          "State": 1,
          "Timestamp": 5364
        },
        {
          "Name": "solver.advance",
          "State": 0,
          "Timestamp": 5484
        },
        {
          "Name": "solver.advance",
          "State": 1,
          "Timestamp": 5549
        },
        {
          "Name": "solver.advance",
          "State": 0,
          "Timestamp": 5670
        },
        {
          "Name": "solver.advance",
          "State": 1,
          "Timestamp": 5736
        },
        {
          "Name": "solver.advance",
          "State": 0,
          "Timestamp": 5856
        },
        {
          "Name": "solver.advance",
          "State": 1,
          "Timestamp": 5933
        },
        {
          "Name": "solver.advance",
          "State": 0,
          "Timestamp": 6065
        },
        {
          "Name": "solver.advance",
          "State": 1,
          "Timestamp": 6132
        },
        {
          "Name": "solver.advance",
          "State": 0,
          "Timestamp": 6253
        },
        {
          "Name": "solver.advance",
          "State": 1,
          "Timestamp": 6321
        },
        {
          "Name": "solver.advance",
          "State": 0,
          "Timestamp": 6442
        },
        {
          "Name": "solver.advance",
          "State": 1,
          "Timestamp": 6509
        },
        {
          "Name": "solver.advance",
          "State": 0,
          "Timestamp": 6630
        },
        {
          "Name": "solver.advance",
          "State": 1,
          "Timestamp": 6695
        },
        {
          "Name": "solver.advance",
          "State": 0,
          "Timestamp": 6816
        },
        {
          "Name": "solver.advance",
          "State": 1,
          "Timestamp": 6883
        },
        {
          "Name": "solver.advance",
          "State": 0,
          "Timestamp": 7003
        },
        {
          "Name": "solver.advance",
          "State": 1,
          "Timestamp": 7081
        },
        {
          "Name": "solver.advance",
          "State": 0,
          "Timestamp": 7213
        },
        {
          "Name": "solver.advance",
          "State": 1,
          "Timestamp": 7279
        },
        {
          "Name": "solver.advance",
          "State": 0,
          "Timestamp": 7405
        },
        {
          "Name": "solver.advance",
          "State": 1,
          "Timestamp": 7472
        },
        {
          "Name": "solver.advance",
          "State": 0,
          "Timestamp": 7592
        },
        {
          "Name": "solver.advance",
          "State": 1,
          "Timestamp": 7658
        },
        {
          "Name": "solver.advance",
          "State": 0,
          "Timestamp": 7778
        },
        {
          "Name": "solver.advance",
          "State": 1,
          "Timestamp": 7845
        },
        {
          "Name": "solver.advance",
          "State": 0,
          "Timestamp": 7966
        },
        {
          "Name": "solver.advance",
          "State": 1,
          "Timestamp": 8032
        },
        {
          "Name": "solver.advance",
          "State": 0,
          "Timestamp": 8153
        },
        {
          "Name": "solver.advance",
          "State": 1,
          "Timestamp": 8231
        },
        {
          "Name": "solver.advance",
          "State": 0,
          "Timestamp": 8363
        },
        {
          "Name": "solver.advance",
          "State": 1,
          "Timestamp": 8431
        },
        {
          "Name": "solver.advance",
          "State": 0,
          "Timestamp": 8550
        },
        {
          "Name": "solver.advance",
          "State": 1,
          "Timestamp": 8617
        },
        {
          "Name": "solver.advance",
          "State": 0,
          "Timestamp": 8736
        },
        {
          "Name": "solver.advance",
          "State": 1,
          "Timestamp": 8802
        },
        {
          "Name": "solver.advance",
          "State": 0,
          "Timestamp": 8922
        },
        {
          "Name": "solver.advance",
          "State": 1,
          "Timestamp": 8989
        },
        {
          "Name": "solver.advance",
          "State": 0,
          "Timestamp": 9109
        },
        {
          "Name": "solver.advance",
          "State": 1,
          "Timestamp": 9176
        },
        {
          "Name": "solver.advance",
          "State": 0,
          "Timestamp": 9296
        },
        {
          "Name": "solver.advance",
          "State": 1,
          "Timestamp": 9373
        },
        {
          "Name": "solver.advance",
          "State": 0,
          "Timestamp": 9505
        },
        {
          "Name": "solver.advance",
          "State": 1,
          "Timestamp": 9572
        },
        {
          "Name": "solver.advance",
          "State": 0,
          "Timestamp": 9692
        },
        {
          "Name": "solver.advance",
          "State": 1,
          "Timestamp": 9758
        },
        {
          "Name": "solver.advance",
          "State": 0,
          "Timestamp": 9878
        },
        {
          "Name": "solver.advance",
          "State": 1,
          "Timestamp": 9945
        },
        {
          "Name": "solver.advance",
          "State": 0,
          "Timestamp": 10065
        },
        {
          "Name": "solver.advance",
          "State": 1,
          "Timestamp": 10131
        },
        {
          "Name": "solver.advance",
          "State": 0,
          "Timestamp": 10252
        },
        {
          "Name": "solver.advance",
          "State": 1,
          "Timestamp": 10318
        },
        {
          "Name": "solver.advance",
          "State": 0,
          "Timestamp": 10439
        },
        {
          "Name": "solver.advance",
          "State": 1,
          "Timestamp": 10517
        },
        {
          "Name": "solver.advance",
          "State": 0,
          "Timestamp": 10648
        },
        {
          "Name": "solver.advance",
          "State": 1,
          "Timestamp": 10714
        },
        {
          "Name": "solver.advance",
          "State": 0,
          "Timestamp": 10835
        },
        {
          "Name": "solver.advance",
          "State": 1,
          "Timestamp": 10901
        },
        {
          "Name": "solver.advance",
          "State": 0,
          "Timestamp": 11023
        },
        {
          "Name": "solver.advance",
          "State": 1,
          "Timestamp": 11089
        },
        {
          "Name": "solver.advance",
          "State": 0,
          "Timestamp": 11211
        },
        {
          "Name": "solver.advance",
          "State": 1,
          "Timestamp": 11277
        },
        {
          "Name": "solver.advance",
          "State": 0,
          "Timestamp": 11398
        },
        {
          "Name": "solver.advance",
          "State": 1,
          "Timestamp": 11465
        },
        {
          "Name": "solver.advance",
          "State": 0,
          "Timestamp": 11585
        },
        {
          "Name": "solver.advance",
          "State": 1,
          "Timestamp": 11663
        },
        {
          "Name": "solver.advance",
          "State": 0,
          "Timestamp": 11797
        },
        {
          "Name": "solver.advance",
          "State": 1,
          "Timestamp": 11863
        },
        {
          "Name": "solver.advance",
          "State": 0,
          "Timestamp": 11983
        },
        {
          "Name": "solver.advance",
          "State": 1,
          "Timestamp": 12049
        },
        {
          "Name": "solver.advance",
          "State": 0,
          "Timestamp": 12169
        },
        {
          "Name": "solver.advance",
          "State": 1,
          "Timestamp": 12237
        },
        {
          "Name": "solver.advance",
          "State": 0,
          "Timestamp": 12357
        },
        {
          "Name": "solver.advance",
          "State": 1,
          "Timestamp": 12426
        },
        {
          "Name": "solver.advance",
          "State": 0,
          "Timestamp": 12546
        },
        {
          "Name": "solver.advance",
          "State": 1,
          "Timestamp": 12613
        },
        {
          "Name": "solver.advance",
          "State": 0,
          "Timestamp": 12734
        },
        {
          "Name": "solver.advance",
          "State": 1,
          "Timestamp": 12812
        },
        {
          "Name": "solver.advance",
          "State": 0,
          "Timestamp": 12943
        },
        {
          "Name": "solver.advance",
          "State": 1,
          "Timestamp": 13011
        },
        {
          "Name": "solver.advance",
          "State": 0,
          "Timestamp": 13132
        },
        {
          "Name": "solver.advance",
          "State": 1,
          "Timestamp": 13199
        },
        {
          "Name": "solver.advance",
          "State": 0,
          "Timestamp": 13321
        },
        {
          "Name": "solver.advance",
          "State": 1,
          "Timestamp": 13389
        },
        {
          "Name": "solver.advance",
          "State": 0,
          "Timestamp": 13511
        },
        {
          "Name": "solver.advance",
          "State": 1,
          "Timestamp": 13578
        },
        {
          "Name": "solver.advance",
          "State": 0,
          "Timestamp": 13701
        },
        {
          "Name": "solver.advance",
          "State": 1,
          "Timestamp": 13768
        },
        {
          "Name": "solver.advance",
          "State": 0,
          "Timestamp": 13888
        },
        {
          "Name": "solver.advance",
          "State": 1,
          "Timestamp": 13965
        },
        {
          "Name": "solver.advance",
          "State": 0,
          "Timestamp": 14097
        },
        {
          "Name": "solver.advance",
          "State": 1,
          "Timestamp": 14164
        },
        {
          "Name": "solver.advance",
          "State": 0,
          "Timestamp": 14286
        },
        {
          "Name": "solver.advance",
          "State": 1,
          "Timestamp": 14353
        },
        {
          "Name": "solver.advance",
          "State": 0,
          "Timestamp": 14473
        },
        {
          "Name": "solver.advance",
          "State": 1,
          "Timestamp": 14540
        },
        {
          "Name": "solver.advance",
          "State": 0,
          "Timestamp": 14661
        },
        {
          "Name": "solver.advance",
          "State": 1,
          "Timestamp": 14728
        },
        {
          "Name": "solver.advance",
          "State": 0,
          "Timestamp": 14847
        },
        {
          "Name": "solver.advance",
          "State": 1,
          "Timestamp": 14914
        },
        {
          "Name": "solver.advance",
          "State": 0,
          "Timestamp": 15034
        },
        {
          "Name": "solver.advance",
          "State": 1,
          "Timestamp": 15112
        },
        {
          "Name": "solver.advance",
          "State": 0,
          "Timestamp": 15245
        },
        {
          "Name": "solver.advance",
          "State": 1,
          "Timestamp": 15312
        },
        {
          "Name": "solver.advance",
          "State": 0,
          "Timestamp": 15433
        },
        {
          "Name": "solver.advance",
          "State": 1,
          "Timestamp": 15500
        },
        {
          "Name": "solver.advance",
          "State": 0,
          "Timestamp": 15621
        },
        {
          "Name": "solver.advance",
          "State": 1,
          "Timestamp": 15688
        },
        {
          "Name": "solver.advance",
          "State": 0,
          "Timestamp": 15808
        },
        {
          "Name": "solver.advance",
          "State": 1,
          "Timestamp": 15875
        },
        {
          "Name": "solver.advance",
          "State": 0,
          "Timestamp": 15996
        },
        {
          "Name": "solver.advance",
          "State": 1,
          "Timestamp": 16063
        },
        {
          "Name": "solver.advance",
          "State": 0,
          "Timestamp": 16183
        },
        {
          "Name": "solver.advance",
          "State": 1,
          "Timestamp": 16262
        },
        {
          "Name": "solver.advance",
          "State": 0,
          "Timestamp": 16394
        },
        {
          "Name": "solver.advance",
          "State": 1,
          "Timestamp": 16461
        },
        {
          "Name": "solver.advance",
          "State": 0,
          "Timestamp": 16581
        },
        {
          "Name": "solver.advance",
          "State": 1,
          "Timestamp": 16649
        },
        {
          "Name": "solver.advance",
          "State": 0,
          "Timestamp": 16770
        },
        {
          "Name": "solver.advance",
          "State": 1,
          "Timestamp": 16838
        },
        {
          "Name": "solver.advance",
          "State": 0,
          "Timestamp": 16959
        },
        {
          "Name": "solver.advance",
          "State": 1,
          "Timestamp": 17026
        },
        {
          "Name": "solver.advance",
          "State": 0,
          "Timestamp": 17147
        },
        {
          "Name": "solver.advance",
          "State": 1,
          "Timestamp": 17215
        },
        {
          "Name": "solver.advance",
          "State": 0,
          "Timestamp": 17335
        },
        {
          "Name": "solver.advance",
          "State": 1,
          "Timestamp": 17414
        },
        {
          "Name": "solver.advance",
          "State": 0,
          "Timestamp": 17547
        },
        {
          "Name": "solver.advance",
          "State": 1,
          "Timestamp": 17615
        },
        {
          "Name": "solver.advance",
          "State": 0,
          "Timestamp": 17739
        },
        {
          "Name": "solver.advance",
          "State": 1,
          "Timestamp": 17806
        },
        {
          "Name": "solver.advance",
          "State": 0,
          "Timestamp": 17927
        },
        {
          "Name": "solver.advance",
          "State": 1,
          "Timestamp": 17993
        },
        {
          "Name": "solver.advance",
          "State": 0,
          "Timestamp": 18114
        },
        {
          "Name": "solver.advance",
          "State": 1,
          "Timestamp": 18181
        },
        {
          "Name": "solver.advance",
          "State": 0,
          "Timestamp": 18302
        },
        {
          "Name": "solver.advance",
          "State": 1,
          "Timestamp": 18368
        },
        {
          "Name": "solver.advance",
          "State": 0,
          "Timestamp": 18489
        },
        {
          "Name": "solver.advance",
          "State": 1,
          "Timestamp": 18567
        },
        {
          "Name": "solver.advance",
          "State": 0,
          "Timestamp": 18699
        },
        {
          "Name": "solver.advance",
          "State": 1,
          "Timestamp": 18766
        },
        {
          "Name": "solver.advance",
          "State": 0,
          "Timestamp": 18886
        },
        {
          "Name": "solver.advance",
          "State": 1,
          "Timestamp": 18953
        },
        {
          "Name": "solver.advance",
          "State": 0,
          "Timestamp": 19074
        },
        {
          "Name": "solver.advance",
          "State": 1,
          "Timestamp": 19141
        },
        {
          "Name": "solver.advance",
          "State": 0,
          "Timestamp": 19263
        },
        {
          "Name": "solver.advance",
          "State": 1,
          "Timestamp": 19329
        },
        {
          "Name": "solver.advance",
          "State": 0,
          "Timestamp": 19452
        },
        {
          "Name": "solver.advance",
          "State": 1,
          "Timestamp": 19518
        },
        {
          "Name": "solver.advance",
          "State": 0,
          "Timestamp": 19640
        },
        {
          "Name": "solver.advance",
          "State": 1,
          "Timestamp": 19719
        },
        {
          "Name": "solver.advance",
          "State": 0,
          "Timestamp": 19851
        },
        {
          "Name": "solver.advance",
          "State": 1,
          "Timestamp": 19919
        },
        {
          "Name": "solver.advance",
          "State": 0,
          "Timestamp": 20040
        },
        {
          "Name": "solver.advance",
          "State": 1,
          "Timestamp": 20107
        },
        {
          "Name": "solver.advance",
          "State": 0,
          "Timestamp": 20228
        },
        {
          "Name": "solver.advance",
          "State": 1,
          "Timestamp": 20297
        },
        {
          "Name": "solver.advance",
          "State": 0,
          "Timestamp": 20417
        },
        {
          "Name": "solver.advance",
          "State": 1,
          "Timestamp": 20485
        },
        {
          "Name": "solver.advance",
          "State": 0,
          "Timestamp": 20606
        },
        {
          "Name": "solver.advance",
          "State": 1,
          "Timestamp": 20674
        },
        {
          "Name": "solver.advance",
          "State": 0,
          "Timestamp": 20794
        },
        {
          "Name": "solver.advance",
          "State": 1,
          "Timestamp": 20872
        },
        {
          "Name": "solver.advance",
          "State": 0,
          "Timestamp": 21006
        },
        {
          "Name": "solver.advance",
          "State": 1,
          "Timestamp": 21073
        },
        {
          "Name": "solver.advance",
          "State": 0,
          "Timestamp": 21194
        },
        {
          "Name": "solver.advance",
          "State": 1,
          "Timestamp": 21263
        },
        {
          "Name": "solver.advance",
          "State": 0,
          "Timestamp": 21401
        },
        {
          "Name": "solver.advance",
          "State": 1,
          "Timestamp": 21483
        },
        {
          "Name": "solver.advance",
          "State": 0,
          "Timestamp": 21603
        },
        {
          "Name": "solver.advance",
          "State": 1,
          "Timestamp": 21670
        },
        {
          "Name": "solver.advance",
          "State": 0,
          "Timestamp": 21791
        },
        {
          "Name": "solver.advance",
          "State": 1,
          "Timestamp": 21858
        },
        {
          "Name": "solver.advance",
          "State": 0,
          "Timestamp": 21979
        },
        {
          "Name": "solver.advance",
          "State": 1,
          "Timestamp": 22056
        },
        {
          "Name": "solver.advance",
          "State": 0,
          "Timestamp": 22188
        },
        {
          "Name": "solver.advance",
          "State": 1,
          "Timestamp": 22256
        },
        {
          "Name": "solver.advance",
          "State": 0,
          "Timestamp": 22379
        },
        {
          "Name": "solver.advance",
          "State": 1,
          "Timestamp": 22446
        },
        {
          "Name": "solver.advance",
          "State": 0,
          "Timestamp": 22566
        },
        {
          "Name": "solver.advance",
          "State": 1,
          "Timestamp": 22633
        },
        {
          "Name": "solver.advance",
          "State": 0,
          "Timestamp": 22754
        },
        {
          "Name": "solver.advance",
          "State": 1,
          "Timestamp": 22821
        },
        {
          "Name": "solver.advance",
          "State": 0,
          "Timestamp": 22942
        },
        {
          "Name": "solver.advance",
          "State": 1,
          "Timestamp": 23009
        },
        {
          "Name": "solver.advance",
          "State": 0,
          "Timestamp": 23130
        },
        {
          "Name": "solver.advance",
          "State": 1,
          "Timestamp": 23208
        },
        {
          "Name": "solver.advance",
          "State": 0,
          "Timestamp": 23342
        },
        {
          "Name": "solver.advance",
          "State": 1,
          "Timestamp": 23408
        },
        {
          "Name": "solver.advance",
          "State": 0,
          "Timestamp": 23530
        },
        {
          "Name": "solver.advance",
          "State": 1,
          "Timestamp": 23596
        },
        {
          "Name": "solver.advance",
          "State": 0,
          "Timestamp": 23717
        },
        {
          "Name": "solver.advance",
          "State": 1,
          "Timestamp": 23784
        },
        {
          "Name": "solver.advance",
          "State": 0,
          "Timestamp": 23905
        },
        {
          "Name": "solver.advance",
          "State": 1,
          "Timestamp": 23971
        },
        {
          "Name": "solver.advance",
          "State": 0,
          "Timestamp": 24092
        },
        {
          "Name": "solver.advance",
          "State": 1,
          "Timestamp": 24159
        },
        {
          "Name": "solver.advance",
          "State": 0,
          "Timestamp": 24282
        },
        {
          "Name": "solver.advance",
          "State": 1,
          "Timestamp": 24361
        },
        {
          "Name": "solver.advance",
          "State": 0,
          "Timestamp": 24494
        },
        {
          "Name": "solver.advance",
          "State": 1,
          "Timestamp": 24561
        },
        {
          "Name": "solver.advance",
          "State": 0,
          "Timestamp": 24682
        },
        {
          "Name": "solver.advance",
          "State": 1,
          "Timestamp": 24750
        },
        {
          "Name": "solver.advance",
          "State": 0,
          "Timestamp": 24870
        },
        {
          "Name": "solver.advance",
          "State": 1,
          "Timestamp": 24937
        },
        {
          "Name": "solver.advance",
          "State": 0,
          "Timestamp": 25059
        },
        {
          "Name": "solver.advance",
          "State": 1,
          "Timestamp": 25126
        },
        {
          "Name": "solver.advance",
          "State": 0,
          "Timestamp": 25248
        },
        {
          "Name": "solver.advance",
          "State": 1,
          "Timestamp": 25316
        },
        {
          "Name": "solver.advance",
          "State": 0,
          "Timestamp": 25436
        },
        {
          "Name": "solver.advance",
          "State": 1,
          "Timestamp": 25436
        },
        {
          "Name": "solver.advance",
          "State": 0,
          "Timestamp": 25465
        },
        {
          "Name": "solver.initialize",
          "State": 1,
          "Timestamp": 0
        },
        {
          "Name": "solver.initialize",
          "State": 2,
          "Timestamp": 4
        },
        {
          "Name": "solver.initialize",
          "State": 1,
          "Timestamp": 6
        },
        {
          "Name": "solver.initialize",
          "State": 2,
          "Timestamp": 11
        },
        {
          "Name": "solver.initialize",
          "State": 1,
          "Timestamp": 196
        },
        {
          "Name": "solver.initialize",
          "State": 0,
          "Timestamp": 376
        }
      ],
      "Timings": {
        "_GLOBAL": {
          "Count": 1,
          "Data": {},
          "Max": 25465,
          "Min": 25465,
          "TimeRatio": 1.0,
          "Total": 25465
        },
        "advance": {
          "Count": 132,
          "Data": {},
          "Max": 82,
          "Min": 0,
          "TimeRatio": 0.35299430591007264,
          "Total": 8989
        },
        "advance/cpl.computeQuasiNewtonUpdate": {
          "Count": 112,
          "Data": {},
          "Max": 0,
          "Min": 0,
          "TimeRatio": 3.92695857058708e-05,
          "Total": 1
        },
        "configure": {
          "Count": 1,
          "Data": {},
          "Max": 0,
          "Min": 0,
          "TimeRatio": 0.0,
          "Total": 0
        },
        "finalize": {
          "Count": 1,
          "Data": {},
          "Max": 0,
          "Min": 0,
          "TimeRatio": 0.0,
          "Total": 0
        },
        "initialize": {
          "Count": 1,
          "Data": {},
          "Max": 2,
          "Min": 2,
          "TimeRatio": 7.85391714117416e-05,
          "Total": 2
        },
        "initialize/m2n.acceptMasterConnection": {
          "Count": 1,
          "Data": {},
          "Max": 2,
          "Min": 2,
          "TimeRatio": 7.85391714117416e-05,
          "Total": 2
        },
        "initialize/m2n.acceptSlavesConnection": {
          "Count": 1,
          "Data": {},
          "Max": 0,
          "Min": 0,
          "TimeRatio": 0.0,
          "Total": 0
        },
        "initialize/partition.feedbackMesh.NeumannNodes": {
          "Count": 1,
          "Data": {},
          "Max": 0,
          "Min": 0,
          "TimeRatio": 0.0,
          "Total": 0
        },
        "initialize/partition.gatherMesh.NeumannNodes": {
          "Count": 1,
          "Data": {},
          "Max": 0,
          "Min": 0,
          "TimeRatio": 0.0,
          "Total": 0
        },
        "initialize/partition.sendGlobalMesh.NeumannNodes": {
          "Count": 1,
          "Data": {},
          "Max": 0,
          "Min": 0,
          "TimeRatio": 0.0,
          "Total": 0
        },
        "initializeData": {
          "Count": 1,
          "Data": {},
          "Max": 185,
          "Min": 185,
          "TimeRatio": 0.007264873355586099,
          "Total": 185
        },
        "solver.advance": {
          "Count": 132,
          "Data": {},
          "Max": 138,
          "Min": 28,
          "TimeRatio": 0.6321617906931082,
          "Total": 16098
        },
        "solver.initialize": {
          "Count": 1,
          "Data": {},
          "Max": 188,
          "Min": 188,
          "TimeRatio": 0.007382682112703711,
          "Total": 188
        }
      }
    }
  ]
}
