{
  "Finalized": "2019-11-13T13:23:44.376",
  "Initialized": "2019-11-13T13:23:40.867",
  "Name": "",
  "Ranks": [
    {
      "Finalized": "2019-11-13T13:23:44.376",
      "Initialized": "2019-11-13T13:23:40.867",
      "StateChanges": [
        {
          "Name": "_GLOBAL",
          "State": 1,
          "Timestamp": 0
        },
        {
          "Name": "_GLOBAL",
          "State": 0,
          "Timestamp": 3509
        },
        {
          "Name": "advance",
          "State": 1,
          "Timestamp": 191
        },
        {
          "Name": "advance",
          "State": 0,
          "Timestamp": 191
        },
        {
          "Name": "advance",
          "State": 1,
          "Timestamp": 222
        },
        {
          "Name": "advance",
          "State": 0,
          "Timestamp": 222
        },
        {
          "Name": "advance",
          "State": 1,
          "Timestamp": 254
        },
        {
          "Name": "advance",
          "State": 0,
          "Timestamp": 276
        },
        {
          "Name": "advance",
          "State": 1,
          "Timestamp": 308
        },
        {
          "Name": "advance",
          "State": 0,
          "Timestamp": 308
        },
        {
          "Name": "advance",
          "State": 1,
          "Timestamp": 339
        },
        {
          "Name": "advance",
          "State": 0,
          "Timestamp": 339
        },
        {
          "Name": "advance",
          "State": 1,
          "Timestamp": 371
        },
        {
          "Name": "advance",
          "State": 0,
          "Timestamp": 439
        },
        {
          "Name": "advance",
          "State": 1,
          "Timestamp": 471
        },
        {
          "Name": "advance",
          "State": 0,
          "Timestamp": 471
        },
        {
          "Name": "advance",
          "State": 1,
          "Timestamp": 503
        },
        {
          "Name": "advance",
          "State": 0,
          "Timestamp": 503
        },
        {
          "Name": "advance",
          "State": 1,
          "Timestamp": 551
        },
        {
          "Name": "advance",
          "State": 0,
          "Timestamp": 639
        },
        {
          "Name": "advance",
          "State": 1,
          "Timestamp": 671
        },
        {
          "Name": "advance",
          "State": 0,
          "Timestamp": 671
        },
        {
          "Name": "advance",
          "State": 1,
          "Timestamp": 703
        },
        {
          "Name": "advance",
          "State": 0,
          "Timestamp": 703
        },
        {
          "Name": "advance",
          "State": 1,
          "Timestamp": 735
        },
        {
          "Name": "advance",
          "State": 0,
          "Timestamp": 756
        },
        {
          "Name": "advance",
          "State": 1,
          "Timestamp": 788
        },
        {
          "Name": "advance",
          "State": 0,
          "Timestamp": 788
        },
        {
          "Name": "advance",
          "State": 1,
          "Timestamp": 820
        },
        {
          "Name": "advance",
          "State": 0,
          "Timestamp": 820
        },
        {
          "Name": "advance",
          "State": 1,
          "Timestamp": 852
        },
        {
          "Name": "advance",
          "State": 0,
          "Timestamp": 919
        },
        {
          "Name": "advance",
          "State": 1,
          "Timestamp": 951
        },
        {
          "Name": "advance",
          "State": 0,
          "Timestamp": 951
        },
        {
          "Name": "advance",
          "State": 1,
          "Timestamp": 983
        },
        {
          "Name": "advance",
          "State": 0,
          "Timestamp": 983
        },
        {
          "Name": "advance",
          "State": 1,
          "Timestamp": 1014
        },
        {
          "Name": "advance",
          "State": 0,
          "Timestamp": 1085
        },
        {
          "Name": "advance",
          "State": 1,
          "Timestamp": 1117
        },
        {
          "Name": "advance",
          "State": 0,
          "Timestamp": 1118
        },
        {
          "Name": "advance",
          "State": 1,
          "Timestamp": 1149
        },
        {
          "Name": "advance",
          "State": 0,
          "Timestamp": 1149
        },
        {
          "Name": "advance",
          "State": 1,
          "Timestamp": 1181
        },
        {
          "Name": "advance",
          "State": 0,
          "Timestamp": 1247
        },
        {
          "Name": "advance",
          "State": 1,
          "Timestamp": 1279
        },
        {
          "Name": "advance",
          "State": 0,
          "Timestamp": 1279
        },
        {
          "Name": "advance",
          "State": 1,
          "Timestamp": 1311
        },
        {
          "Name": "advance",
          "State": 0,
          "Timestamp": 1311
        },
        {
          "Name": "advance",
          "State": 1,
          "Timestamp": 1343
        },
        {
          "Name": "advance",
          "State": 0,
          "Timestamp": 1426
        },
        {
          "Name": "advance",
          "State": 1,
          "Timestamp": 1457
        },
        {
          "Name": "advance",
          "State": 0,
          "Timestamp": 1457
        },
        {
          "Name": "advance",
          "State": 1,
          "Timestamp": 1489
        },
        {
          "Name": "advance",
          "State": 0,
          "Timestamp": 1489
        },
        {
          "Name": "advance",
          "State": 1,
          "Timestamp": 1521
        },
        {
          "Name": "advance",
          "State": 0,
          "Timestamp": 1587
        },
        {
          "Name": "advance",
          "State": 1,
          "Timestamp": 1619
        },
        {
          "Name": "advance",
          "State": 0,
          "Timestamp": 1619
        },
        {
          "Name": "advance",
          "State": 1,
          "Timestamp": 1651
        },
        {
          "Name": "advance",
          "State": 0,
          "Timestamp": 1651
        },
        {
          "Name": "advance",
          "State": 1,
          "Timestamp": 1683
        },
        {
          "Name": "advance",
          "State": 0,
          "Timestamp": 1751
        },
        {
          "Name": "advance",
          "State": 1,
          "Timestamp": 1783
        },
        {
          "Name": "advance",
          "State": 0,
          "Timestamp": 1783
        },
        {
          "Name": "advance",
          "State": 1,
          "Timestamp": 1814
        },
        {
          "Name": "advance",
          "State": 0,
          "Timestamp": 1814
        },
        {
          "Name": "advance",
          "State": 1,
          "Timestamp": 1846
        },
        {
          "Name": "advance",
          "State": 0,
          "Timestamp": 1927
        },
        {
          "Name": "advance",
          "State": 1,
          "Timestamp": 1969
        },
        {
          "Name": "advance",
          "State": 0,
          "Timestamp": 1969
        },
        {
          "Name": "advance",
          "State": 1,
          "Timestamp": 2001
        },
        {
          "Name": "advance",
          "State": 0,
          "Timestamp": 2001
        },
        {
          "Name": "advance",
          "State": 1,
          "Timestamp": 2033
        },
        {
          "Name": "advance",
          "State": 0,
          "Timestamp": 2121
        },
        {
          "Name": "advance",
          "State": 1,
          "Timestamp": 2158
        },
        {
          "Name": "advance",
          "State": 0,
          "Timestamp": 2158
        },
        {
          "Name": "advance",
          "State": 1,
          "Timestamp": 2190
        },
        {
          "Name": "advance",
          "State": 0,
          "Timestamp": 2190
        },
        {
          "Name": "advance",
          "State": 1,
          "Timestamp": 2222
        },
        {
          "Name": "advance",
          "State": 0,
          "Timestamp": 2244
        },
        {
          "Name": "advance",
          "State": 1,
          "Timestamp": 2276
        },
        {
          "Name": "advance",
          "State": 0,
          "Timestamp": 2276
        },
        {
          "Name": "advance",
          "State": 1,
          "Timestamp": 2307
        },
        {
          "Name": "advance",
          "State": 0,
          "Timestamp": 2307
        },
        {
          "Name": "advance",
          "State": 1,
          "Timestamp": 2339
        },
        {
          "Name": "advance",
          "State": 0,
          "Timestamp": 2409
        },
        {
          "Name": "advance",
          "State": 1,
          "Timestamp": 2444
        },
        {
          "Name": "advance",
          "State": 0,
          "Timestamp": 2444
        },
        {
          "Name": "advance",
          "State": 1,
          "Timestamp": 2476
        },
        {
          "Name": "advance",
          "State": 0,
          "Timestamp": 2476
        },
        {
          "Name": "advance",
          "State": 1,
          "Timestamp": 2507
        },
        {
          "Name": "advance",
          "State": 0,
          "Timestamp": 2595
        },
        {
          "Name": "advance",
          "State": 1,
          "Timestamp": 2628
        },
        {
          "Name": "advance",
          "State": 0,
          "Timestamp": 2628
        },
        {
          "Name": "advance",
          "State": 1,
          "Timestamp": 2660
        },
        {
          "Name": "advance",
          "State": 0,
          "Timestamp": 2660
        },
        {
          "Name": "advance",
          "State": 1,
          "Timestamp": 2692
        },
        {
          "Name": "advance",
          "State": 0,
          "Timestamp": 2714
        },
        {
          "Name": "advance",
          "State": 1,
          "Timestamp": 2747
        },
        {
          "Name": "advance",
          "State": 0,
          "Timestamp": 2747
        },
        {
          "Name": "advance",
          "State": 1,
          "Timestamp": 2779
        },
        {
          "Name": "advance",
          "State": 0,
          "Timestamp": 2779
        },
        {
          "Name": "advance",
          "State": 1,
          "Timestamp": 2811
        },
        {
          "Name": "advance",
          "State": 0,
          "Timestamp": 2881
        },
        {
          "Name": "advance",
          "State": 1,
          "Timestamp": 2913
        },
        {
          "Name": "advance",
          "State": 0,
          "Timestamp": 2914
        },
        {
          "Name": "advance",
          "State": 1,
          "Timestamp": 2945
        },
        {
          "Name": "advance",
          "State": 0,
          "Timestamp": 2945
        },
        {
          "Name": "advance",
          "State": 1,
          "Timestamp": 2977
        },
        {
          "Name": "advance",
          "State": 0,
          "Timestamp": 3063
        },
        {
          "Name": "advance",
          "State": 1,
          "Timestamp": 3096
        },
        {
          "Name": "advance",
          "State": 0,
          "Timestamp": 3096
        },
        {
          "Name": "advance",
          "State": 1,
          "Timestamp": 3128
        },
        {
          "Name": "advance",
          "State": 0,
          "Timestamp": 3128
        },
        {
          "Name": "advance",
          "State": 1,
          "Timestamp": 3159
        },
        {
          "Name": "advance",
          "State": 0,
          "Timestamp": 3181
        },
        {
          "Name": "advance",
          "State": 1,
          "Timestamp": 3213
        },
        {
          "Name": "advance",
          "State": 0,
          "Timestamp": 3213
        },
        {
          "Name": "advance",
          "State": 1,
          "Timestamp": 3244
        },
        {
          "Name": "advance",
          "State": 0,
          "Timestamp": 3244
        },
        {
          "Name": "advance",
          "State": 1,
          "Timestamp": 3276
        },
        {
          "Name": "advance",
          "State": 0,
          "Timestamp": 3345
        },
        {
          "Name": "advance",
          "State": 1,
          "Timestamp": 3378
        },
        {
          "Name": "advance",
          "State": 0,
          "Timestamp": 3378
        },
        {
          "Name": "advance",
          "State": 1,
          "Timestamp": 3409
        },
        {
          "Name": "advance",
          "State": 0,
          "Timestamp": 3409
        },
        {
          "Name": "advance",
          "State": 1,
          "Timestamp": 3441
        },
        {
          "Name": "advance",
          "State": 0,
          "Timestamp": 3441
        },
        {
          "Name": "advance/cpl.computeQuasiNewtonUpdate",
          "State": 1,
          "Timestamp": 254
        },
        {
          "Name": "advance/cpl.computeQuasiNewtonUpdate",
          "State": 0,
          "Timestamp": 254
        },
        {
          "Name": "advance/cpl.computeQuasiNewtonUpdate",
          "State": 1,
          "Timestamp": 371
        },
        {
          "Name": "advance/cpl.computeQuasiNewtonUpdate",
          "State": 0,
          "Timestamp": 371
        },
        {
          "Name": "advance/cpl.computeQuasiNewtonUpdate",
          "State": 1,
          "Timestamp": 551
        },
        {
          "Name": "advance/cpl.computeQuasiNewtonUpdate",
          "State": 0,
          "Timestamp": 551
        },
        {
          "Name": "advance/cpl.computeQuasiNewtonUpdate",
          "State": 1,
          "Timestamp": 735
        },
        {
          "Name": "advance/cpl.computeQuasiNewtonUpdate",
          "State": 0,
          "Timestamp": 735
        },
        {
          "Name": "advance/cpl.computeQuasiNewtonUpdate",
          "State": 1,
          "Timestamp": 852
        },
        {
          "Name": "advance/cpl.computeQuasiNewtonUpdate",
          "State": 0,
          "Timestamp": 852
        },
        {
          "Name": "advance/cpl.computeQuasiNewtonUpdate",
          "State": 1,
          "Timestamp": 1014
        },
        {
          "Name": "advance/cpl.computeQuasiNewtonUpdate",
          "State": 0,
          "Timestamp": 1014
        },
        {
          "Name": "advance/cpl.computeQuasiNewtonUpdate",
          "State": 1,
          "Timestamp": 1181
        },
        {
          "Name": "advance/cpl.computeQuasiNewtonUpdate",
          "State": 0,
          "Timestamp": 1181
        },
        {
          "Name": "advance/cpl.computeQuasiNewtonUpdate",
          "State": 1,
          "Timestamp": 1343
        },
        {
          "Name": "advance/cpl.computeQuasiNewtonUpdate",
          "State": 0,
          "Timestamp": 1343
        },
        {
          "Name": "advance/cpl.computeQuasiNewtonUpdate",
          "State": 1,
          "Timestamp": 1521
        },
        {
          "Name": "advance/cpl.computeQuasiNewtonUpdate",
          "State": 0,
          "Timestamp": 1521
        },
        {
          "Name": "advance/cpl.computeQuasiNewtonUpdate",
          "State": 1,
          "Timestamp": 1683
        },
        {
          "Name": "advance/cpl.computeQuasiNewtonUpdate",
          "State": 0,
          "Timestamp": 1683
        },
        {
          "Name": "advance/cpl.computeQuasiNewtonUpdate",
          "State": 1,
          "Timestamp": 2033
        },
        {
          "Name": "advance/cpl.computeQuasiNewtonUpdate",
          "State": 0,
          "Timestamp": 2033
        },
        {
          "Name": "advance/cpl.computeQuasiNewtonUpdate",
          "State": 1,
          "Timestamp": 2222
        },
        {
          "Name": "advance/cpl.computeQuasiNewtonUpdate",
          "State": 0,
          "Timestamp": 2222
        },
        {
          "Name": "advance/cpl.computeQuasiNewtonUpdate",
          "State": 1,
          "Timestamp": 2339
        },
        {
          "Name": "advance/cpl.computeQuasiNewtonUpdate",
          "State": 0,
          "Timestamp": 2339
        },
        {
          "Name": "advance/cpl.computeQuasiNewtonUpdate",
          "State": 1,
          "Timestamp": 2507
        },
        {
          "Name": "advance/cpl.computeQuasiNewtonUpdate",
          "State": 0,
          "Timestamp": 2508
        },
        {
          "Name": "advance/cpl.computeQuasiNewtonUpdate",
          "State": 1,
          "Timestamp": 2692
        },
        {
          "Name": "advance/cpl.computeQuasiNewtonUpdate",
          "State": 0,
          "Timestamp": 2692
        },
        {
          "Name": "advance/cpl.computeQuasiNewtonUpdate",
          "State": 1,
          "Timestamp": 2811
        },
        {
          "Name": "advance/cpl.computeQuasiNewtonUpdate",
          "State": 0,
          "Timestamp": 2811
        },
        {
          "Name": "advance/cpl.computeQuasiNewtonUpdate",
          "State": 1,
          "Timestamp": 2977
        },
        {
          "Name": "advance/cpl.computeQuasiNewtonUpdate",
          "State": 0,
          "Timestamp": 2977
        },
        {
          "Name": "advance/cpl.computeQuasiNewtonUpdate",
          "State": 1,
          "Timestamp": 3159
        },
        {
          "Name": "advance/cpl.computeQuasiNewtonUpdate",
          "State": 0,
          "Timestamp": 3159
        },
        {
          "Name": "advance/cpl.computeQuasiNewtonUpdate",
          "State": 1,
          "Timestamp": 3276
        },
        {
          "Name": "advance/cpl.computeQuasiNewtonUpdate",
          "State": 0,
          "Timestamp": 3276
        },
        {
          "Name": "configure",
          "State": 1,
          "Timestamp": 0
        },
        {
          "Name": "configure",
          "State": 0,
          "Timestamp": 0
        },
        {
          "Name": "finalize",
          "State": 1,
          "Timestamp": 3452
        },
        {
          "Name": "finalize",
          "State": 0,
          "Timestamp": 3509
        },
        {
          "Name": "initialize",
          "State": 1,
          "Timestamp": 4
        },
        {
          "Name": "initialize",
          "State": 0,
          "Timestamp": 7
        },
        {
          "Name": "initialize/m2n.acceptMasterConnection",
          "State": 1,
          "Timestamp": 4
        },
        {
          "Name": "initialize/m2n.acceptMasterConnection",
          "State": 0,
          "Timestamp": 6
        },
        {
          "Name": "initialize/m2n.acceptSlavesConnection",
          "State": 1,
          "Timestamp": 7
        },
        {
          "Name": "initialize/m2n.acceptSlavesConnection",
          "State": 0,
          "Timestamp": 7
        },
        {
          "Name": "initialize/partition.feedbackMesh.NeumannNodes",
          "State": 1,
          "Timestamp": 7
        },
        {
          "Name": "initialize/partition.feedbackMesh.NeumannNodes",
          "State": 0,
          "Timestamp": 7
        },
        {
          "Name": "initialize/partition.gatherMesh.NeumannNodes",
          "State": 1,
          "Timestamp": 6
        },
        {
          "Name": "initialize/partition.gatherMesh.NeumannNodes",
          "State": 0,
          "Timestamp": 6
        },
        {
          "Name": "initialize/partition.sendGlobalMesh.NeumannNodes",
          "State": 1,
          "Timestamp": 6
        },
        {
          "Name": "initialize/partition.sendGlobalMesh.NeumannNodes",
          "State": 0,
          "Timestamp": 6
        },
        {
          "Name": "initializeData",
          "State": 1,
          "Timestamp": 7
        },
        {
          "Name": "initializeData",
          "State": 0,
          "Timestamp": 118
        },
        {
          "Name": "solver.advance",
          "State": 1,
          "Timestamp": 191
        },
        {
          "Name": "solver.advance",
          "State": 0,
          "Timestamp": 222
        },
        {
          "Name": "solver.advance",
          "State": 1,
          "Timestamp": 222
        },
        {
          "Name": "solver.advance",
          "State": 0,
          "Timestamp": 254
        },
        {
          "Name": "solver.advance",
          "State": 1,
          "Timestamp": 276
        },
        {
          "Name": "solver.advance",
          "State": 0,
          "Timestamp": 307
        },
        {
          "Name": "solver.advance",
          "State": 1,
          "Timestamp": 308
        },
        {
          "Name": "solver.advance",
          "State": 0,
          "Timestamp": 339
        },
        {
          "Name": "solver.advance",
          "State": 1,
          "Timestamp": 339
        },
        {
          "Name": "solver.advance",
          "State": 0,
          "Timestamp": 371
        },
        {
          "Name": "solver.advance",
          "State": 1,
          "Timestamp": 439
        },
        {
          "Name": "solver.advance",
          "State": 0,
          "Timestamp": 471
        },
        {
          "Name": "solver.advance",
          "State": 1,
          "Timestamp": 471
        },
        {
          "Name": "solver.advance",
          "State": 0,
          "Timestamp": 503
        },
        {
          "Name": "solver.advance",
          "State": 1,
          "Timestamp": 503
        },
        {
          "Name": "solver.advance",
          "State": 0,
          "Timestamp": 551
        },
        {
          "Name": "solver.advance",
          "State": 1,
          "Timestamp": 639
        },
        {
          "Name": "solver.advance",
          "State": 0,
          "Timestamp": 671
        },
        {
          "Name": "solver.advance",
          "State": 1,
          "Timestamp": 671
        },
        {
          "Name": "solver.advance",
          "State": 0,
          "Timestamp": 703
        },
        {
          "Name": "solver.advance",
          "State": 1,
          "Timestamp": 703
        },
        {
          "Name": "solver.advance",
          "State": 0,
          "Timestamp": 735
        },
        {
          "Name": "solver.advance",
          "State": 1,
          "Timestamp": 756
        },
        {
          "Name": "solver.advance",
          "State": 0,
          "Timestamp": 788
        },
        {
          "Name": "solver.advance",
          "State": 1,
          "Timestamp": 788
        },
        {
          "Name": "solver.advance",
          "State": 0,
          "Timestamp": 820
        },
        {
          "Name": "solver.advance",
          "State": 1,
          "Timestamp": 820
        },
        {
          "Name": "solver.advance",
          "State": 0,
          "Timestamp": 852
        },
        {
          "Name": "solver.advance",
          "State": 1,
          "Timestamp": 919
        },
        {
          "Name": "solver.advance",
          "State": 0,
          "Timestamp": 951
        },
        {
          "Name": "solver.advance",
          "State": 1,
          "Timestamp": 951
        },
        {
          "Name": "solver.advance",
          "State": 0,
          "Timestamp": 983
        },
        {
          "Name": "solver.advance",
          "State": 1,
          "Timestamp": 983
        },
        {
          "Name": "solver.advance",
          "State": 0,
          "Timestamp": 1014
        },
        {
          "Name": "solver.advance",
          "State": 1,
          "Timestamp": 1085
        },
        {
          "Name": "solver.advance",
          "State": 0,
          "Timestamp": 1117
        },
        {
          "Name": "solver.advance",
          "State": 1,
          "Timestamp": 1118
        },
        {
          "Name": "solver.advance",
          "State": 0,
          "Timestamp": 1149
        },
        {
          "Name": "solver.advance",
          "State": 1,
          "Timestamp": 1149
        },
        {
          "Name": "solver.advance",
          "State": 0,
          "Timestamp": 1181
        },
        {
          "Name": "solver.advance",
          "State": 1,
          "Timestamp": 1247
        },
        {
          "Name": "solver.advance",
          "State": 0,
          "Timestamp": 1279
        },
        {
          "Name": "solver.advance",
          "State": 1,
          "Timestamp": 1279
        },
        {
          "Name": "solver.advance",
          "State": 0,
          "Timestamp": 1311
        },
        {
          "Name": "solver.advance",
          "State": 1,
          "Timestamp": 1311
        },
        {
          "Name": "solver.advance",
          "State": 0,
          "Timestamp": 1343
        },
        {
          "Name": "solver.advance",
          "State": 1,
          "Timestamp": 1426
        },
        {
          "Name": "solver.advance",
          "State": 0,
          "Timestamp": 1457
        },
        {
          "Name": "solver.advance",
          "State": 1,
          "Timestamp": 1457
        },
        {
          "Name": "solver.advance",
          "State": 0,
          "Timestamp": 1489
        },
        {
          "Name": "solver.advance",
          "State": 1,
          "Timestamp": 1489
        },
        {
          "Name": "solver.advance",
          "State": 0,
          "Timestamp": 1521
        },
        {
          "Name": "solver.advance",
          "State": 1,
          "Timestamp": 1587
        },
        {
          "Name": "solver.advance",
          "State": 0,
          "Timestamp": 1619
        },
        {
          "Name": "solver.advance",
          "State": 1,
          "Timestamp": 1619
        },
        {
          "Name": "solver.advance",
          "State": 0,
          "Timestamp": 1651
        },
        {
          "Name": "solver.advance",
          "State": 1,
          "Timestamp": 1651
        },
        {
          "Name": "solver.advance",
          "State": 0,
          "Timestamp": 1683
        },
        {
          "Name": "solver.advance",
          "State": 1,
          "Timestamp": 1751
        },
        {
          "Name": "solver.advance",
          "State": 0,
          "Timestamp": 1783
        },
        {
          "Name": "solver.advance",
          "State": 1,
          "Timestamp": 1783
        },
        {
          "Name": "solver.advance",
          "State": 0,
          "Timestamp": 1814
        },
        {
          "Name": "solver.advance",
          "State": 1,
          "Timestamp": 1814
        },
        {
          "Name": "solver.advance",
          "State": 0,
          "Timestamp": 1846
        },
        {
          "Name": "solver.advance",
          "State": 1,
          "Timestamp": 1927
        },
        {
          "Name": "solver.advance",
          "State": 0,
          "Timestamp": 1969
        },
        {
          "Name": "solver.advance",
          "State": 1,
          "Timestamp": 1969
        },
        {
          "Name": "solver.advance",
          "State": 0,
          "Timestamp": 2001
        },
        {
          "Name": "solver.advance",
          "State": 1,
          "Timestamp": 2001
        },
        {
          "Name": "solver.advance",
          "State": 0,
          "Timestamp": 2033
        },
        {
          "Name": "solver.advance",
          "State": 1,
          "Timestamp": 2121
        },
        {
          "Name": "solver.advance",
          "State": 0,
          "Timestamp": 2158
        },
        {
          "Name": "solver.advance",
          "State": 1,
          "Timestamp": 2158
        },
        {
          "Name": "solver.advance",
          "State": 0,
          "Timestamp": 2190
        },
        {
          "Name": "solver.advance",
          "State": 1,
          "Timestamp": 2190
        },
        {
          "Name": "solver.advance",
          "State": 0,
          "Timestamp": 2222
        },
        {
          "Name": "solver.advance",
          "State": 1,
          "Timestamp": 2244
        },
        {
          "Name": "solver.advance",
          "State": 0,
          "Timestamp": 2276
        },
        {
          "Name": "solver.advance",
          "State": 1,
          "Timestamp": 2276
        },
        {
          "Name": "solver.advance",
          "State": 0,
          "Timestamp": 2307
        },
        {
          "Name": "solver.advance",
          "State": 1,
          "Timestamp": 2307
        },
        {
          "Name": "solver.advance",
          "State": 0,
          "Timestamp": 2339
        },
        {
          "Name": "solver.advance",
          "State": 1,
          "Timestamp": 2409
        },
        {
          "Name": "solver.advance",
          "State": 0,
          "Timestamp": 2444
        },
        {
          "Name": "solver.advance",
          "State": 1,
          "Timestamp": 2444
        },
        {
          "Name": "solver.advance",
          "State": 0,
          "Timestamp": 2476
        },
        {
          "Name": "solver.advance",
          "State": 1,
          "Timestamp": 2476
        },
        {
          "Name": "solver.advance",
          "State": 0,
          "Timestamp": 2507
        },
        {
          "Name": "solver.advance",
          "State": 1,
          "Timestamp": 2595
        },
        {
          "Name": "solver.advance",
          "State": 0,
          "Timestamp": 2628
        },
        {
          "Name": "solver.advance",
          "State": 1,
          "Timestamp": 2628
        },
        {
          "Name": "solver.advance",
          "State": 0,
          "Timestamp": 2660
        },
        {
          "Name": "solver.advance",
          "State": 1,
          "Timestamp": 2660
        },
        {
          "Name": "solver.advance",
          "State": 0,
          "Timestamp": 2692
        },
        {
          "Name": "solver.advance",
          "State": 1,
          "Timestamp": 2714
        },
        {
          "Name": "solver.advance",
          "State": 0,
          "Timestamp": 2747
        },
        {
          "Name": "solver.advance",
          "State": 1,
          "Timestamp": 2747
        },
        {
          "Name": "solver.advance",
          "State": 0,
          "Timestamp": 2779
        },
        {
          "Name": "solver.advance",
          "State": 1,
          "Timestamp": 2779
        },
        {
          "Name": "solver.advance",
          "State": 0,
          "Timestamp": 2811
        },
        {
          "Name": "solver.advance",
          "State": 1,
          "Timestamp": 2881
        },
        {
          "Name": "solver.advance",
          "State": 0,
          "Timestamp": 2913
        },
        {
          "Name": "solver.advance",
          "State": 1,
          "Timestamp": 2914
        },
        {
          "Name": "solver.advance",
          "State": 0,
          "Timestamp": 2945
        },
        {
          "Name": "solver.advance",
          "State": 1,
          "Timestamp": 2945
        },
        {
          "Name": "solver.advance",
          "State": 0,
          "Timestamp": 2977
        },
        {
          "Name": "solver.advance",
          "State": 1,
          "Timestamp": 3063
        },
        {
          "Name": "solver.advance",
          "State": 0,
          "Timestamp": 3096
        },
        {
          "Name": "solver.advance",
          "State": 1,
          "Timestamp": 3096
        },
        {
          "Name": "solver.advance",
          "State": 0,
          "Timestamp": 3128
        },
        {
          "Name": "solver.advance",
          "State": 1,
          "Timestamp": 3128
        },
        {
          "Name": "solver.advance",
          "State": 0,
          "Timestamp": 3159
        },
        {
          "Name": "solver.advance",
          "State": 1,
          "Timestamp": 3181
        },
        {
          "Name": "solver.advance",
          "State": 0,
          "Timestamp": 3213
        },
        {
          "Name": "solver.advance",
          "State": 1,
          "Timestamp": 3213
        },
        {
          "Name": "solver.advance",
          "State": 0,
          "Timestamp": 3244
        },
        {
          "Name": "solver.advance",
          "State": 1,
          "Timestamp": 3244
        },
        {
          "Name": "solver.advance",
          "State": 0,
          "Timestamp": 3276
        },
        {
          "Name": "solver.advance",
          "State": 1,
          "Timestamp": 3345
        },
        {
          "Name": "solver.advance",
          "State": 0,
          "Timestamp": 3378
        },
        {
          "Name": "solver.advance",
          "State": 1,
          "Timestamp": 3378
        },
        {
          "Name": "solver.advance",
          "State": 0,
          "Timestamp": 3409
        },
        {
          "Name": "solver.advance",
          "State": 1,
          "Timestamp": 3409
        },
        {
          "Name": "solver.advance",
          "State": 0,
          "Timestamp": 3441
        },
        {
          "Name": "solver.advance",
          "State": 1,
          "Timestamp": 3441
        },
        {
          "Name": "solver.advance",
          "State": 0,
          "Timestamp": 3452
        },
        {
          "Name": "solver.initialize",
          "State": 1,
          "Timestamp": 0
        },
        {
          "Name": "solver.initialize",
          "State": 2,
          "Timestamp": 4
        },
        {
          "Name": "solver.initialize",
          "State": 1,
          "Timestamp": 7
        },
        {
          "Name": "solver.initialize",
          "State": 2,
          "Timestamp": 7
        },
        {
          "Name": "solver.initialize",
          "State": 1,
          "Timestamp": 118
        },
        {
          "Name": "solver.initialize",
          "State": 0,
          "Timestamp": 191
        }
      ],
      "Timings": {
        "_GLOBAL": {
          "Count": 1,
          "Data": {},
          "Max": 3509,
          "Min": 3509,
          "TimeRatio": 1.0,
          "Total": 3509
        },
        "advance": {
          "Count": 63,
          "Data": {},
          "Max": 88,
          "Min": 0,
          "TimeRatio": 0.35337703049301794,
          "Total": 1240
        },
        "advance/cpl.computeQuasiNewtonUpdate": {
          "Count": 19,
          "Data": {},
          "Max": 0,
          "Min": 0,
          "TimeRatio": 0.0,
          "Total": 0
        },
        "configure": {
          "Count": 1,
          "Data": {},
          "Max": 0,
          "Min": 0,
          "TimeRatio": 0.0,
          "Total": 0
        },
        "finalize": {
          "Count": 1,
          "Data": {},
          "Max": 57,
          "Min": 57,
          "TimeRatio": 0.016243944143630663,
          "Total": 57
        },
        "initialize": {
          "Count": 1,
          "Data": {},
          "Max": 2,
          "Min": 2,
          "TimeRatio": 0.0005699629524080935,
          "Total": 2
        },
        "initialize/m2n.acceptMasterConnection": {
          "Count": 1,
          "Data": {},
          "Max": 2,
          "Min": 2,
          "TimeRatio": 0.0005699629524080935,
          "Total": 2
        },
        "initialize/m2n.acceptSlavesConnection": {
          "Count": 1,
          "Data": {},
          "Max": 0,
          "Min": 0,
          "TimeRatio": 0.0,
          "Total": 0
        },
        "initialize/partition.feedbackMesh.NeumannNodes": {
          "Count": 1,
          "Data": {},
          "Max": 0,
          "Min": 0,
          "TimeRatio": 0.0,
          "Total": 0
        },
        "initialize/partition.gatherMesh.NeumannNodes": {
          "Count": 1,
          "Data": {},
          "Max": 0,
          "Min": 0,
          "TimeRatio": 0.0,
          "Total": 0
        },
        "initialize/partition.sendGlobalMesh.NeumannNodes": {
          "Count": 1,
          "Data": {},
          "Max": 0,
          "Min": 0,
          "TimeRatio": 0.0,
          "Total": 0
        },
        "initializeData": {
          "Count": 1,
          "Data": {},
          "Max": 111,
          "Min": 111,
          "TimeRatio": 0.03163294385864919,
          "Total": 111
        },
        "solver.advance": {
          "Count": 63,
          "Data": {},
          "Max": 47,
          "Min": 10,
          "TimeRatio": 0.5753776004559704,
          "Total": 2019
        },
        "solver.initialize": {
          "Count": 1,
          "Data": {},
          "Max": 76,
          "Min": 76,
          "TimeRatio": 0.021658592191507554,
          "Total": 76
        }
      }
    }
  ]
}
