{
  "Finalized": "2019-11-11T17:22:35.381",
  "Initialized": "2019-11-11T17:08:57.342",
  "Name": "",
  "Ranks": [
    {
      "Finalized": "2019-11-11T17:22:35.381",
      "Initialized": "2019-11-11T17:08:57.342",
      "StateChanges": [
        {
          "Name": "_GLOBAL",
          "State": 1,
          "Timestamp": 0
        },
        {
          "Name": "_GLOBAL",
          "State": 0,
          "Timestamp": 818039
        },
        {
          "Name": "advance",
          "State": 1,
          "Timestamp": 61812
        },
        {
          "Name": "advance",
          "State": 0,
          "Timestamp": 110929
        },
        {
          "Name": "advance",
          "State": 1,
          "Timestamp": 111550
        },
        {
          "Name": "advance",
          "State": 0,
          "Timestamp": 155353
        },
        {
          "Name": "advance",
          "State": 1,
          "Timestamp": 155936
        },
        {
          "Name": "advance",
          "State": 0,
          "Timestamp": 199832
        },
        {
          "Name": "advance",
          "State": 1,
          "Timestamp": 200372
        },
        {
          "Name": "advance",
          "State": 0,
          "Timestamp": 243904
        },
        {
          "Name": "advance",
          "State": 1,
          "Timestamp": 244458
        },
        {
          "Name": "advance",
          "State": 0,
          "Timestamp": 287843
        },
        {
          "Name": "advance",
          "State": 1,
          "Timestamp": 288392
        },
        {
          "Name": "advance",
          "State": 0,
          "Timestamp": 331768
        },
        {
          "Name": "advance",
          "State": 1,
          "Timestamp": 332314
        },
        {
          "Name": "advance",
          "State": 0,
          "Timestamp": 375712
        },
        {
          "Name": "advance",
          "State": 1,
          "Timestamp": 376270
        },
        {
          "Name": "advance",
          "State": 0,
          "Timestamp": 419859
        },
        {
          "Name": "advance",
          "State": 1,
          "Timestamp": 420435
        },
        {
          "Name": "advance",
          "State": 0,
          "Timestamp": 464185
        },
        {
          "Name": "advance",
          "State": 1,
          "Timestamp": 464746
        },
        {
          "Name": "advance",
          "State": 0,
          "Timestamp": 508573
        },
        {
          "Name": "advance",
          "State": 1,
          "Timestamp": 509136
        },
        {
          "Name": "advance",
          "State": 0,
          "Timestamp": 552523
        },
        {
          "Name": "advance",
          "State": 1,
          "Timestamp": 553087
        },
        {
          "Name": "advance",
          "State": 0,
          "Timestamp": 596458
        },
        {
          "Name": "advance",
          "State": 1,
          "Timestamp": 597017
        },
        {
          "Name": "advance",
          "State": 0,
          "Timestamp": 640447
        },
        {
          "Name": "advance",
          "State": 1,
          "Timestamp": 641030
        },
        {
          "Name": "advance",
          "State": 0,
          "Timestamp": 684616
        },
        {
          "Name": "advance",
          "State": 1,
          "Timestamp": 685177
        },
        {
          "Name": "advance",
          "State": 0,
          "Timestamp": 728563
        },
        {
          "Name": "advance",
          "State": 1,
          "Timestamp": 729134
        },
        {
          "Name": "advance",
          "State": 0,
          "Timestamp": 772627
        },
        {
          "Name": "advance",
          "State": 1,
          "Timestamp": 773182
        },
        {
          "Name": "advance",
          "State": 0,
          "Timestamp": 817370
        },
        {
          "Name": "advance",
          "State": 1,
          "Timestamp": 817918
        },
        {
          "Name": "advance",
          "State": 0,
          "Timestamp": 817925
        },
        {
          "Name": "advance/cpl.computeQuasiNewtonUpdate",
          "State": 1,
          "Timestamp": 61813
        },
        {
          "Name": "advance/cpl.computeQuasiNewtonUpdate",
          "State": 0,
          "Timestamp": 61814
        },
        {
          "Name": "advance/cpl.computeQuasiNewtonUpdate",
          "State": 1,
          "Timestamp": 111552
        },
        {
          "Name": "advance/cpl.computeQuasiNewtonUpdate",
          "State": 0,
          "Timestamp": 111553
        },
        {
          "Name": "advance/cpl.computeQuasiNewtonUpdate",
          "State": 1,
          "Timestamp": 155938
        },
        {
          "Name": "advance/cpl.computeQuasiNewtonUpdate",
          "State": 0,
          "Timestamp": 155939
        },
        {
          "Name": "advance/cpl.computeQuasiNewtonUpdate",
          "State": 1,
          "Timestamp": 244459
        },
        {
          "Name": "advance/cpl.computeQuasiNewtonUpdate",
          "State": 0,
          "Timestamp": 244461
        },
        {
          "Name": "advance/cpl.computeQuasiNewtonUpdate",
          "State": 1,
          "Timestamp": 288393
        },
        {
          "Name": "advance/cpl.computeQuasiNewtonUpdate",
          "State": 0,
          "Timestamp": 288395
        },
        {
          "Name": "advance/cpl.computeQuasiNewtonUpdate",
          "State": 1,
          "Timestamp": 332316
        },
        {
          "Name": "advance/cpl.computeQuasiNewtonUpdate",
          "State": 0,
          "Timestamp": 332317
        },
        {
          "Name": "advance/cpl.computeQuasiNewtonUpdate",
          "State": 1,
          "Timestamp": 420436
        },
        {
          "Name": "advance/cpl.computeQuasiNewtonUpdate",
          "State": 0,
          "Timestamp": 420437
        },
        {
          "Name": "advance/cpl.computeQuasiNewtonUpdate",
          "State": 1,
          "Timestamp": 464748
        },
        {
          "Name": "advance/cpl.computeQuasiNewtonUpdate",
          "State": 0,
          "Timestamp": 464749
        },
        {
          "Name": "advance/cpl.computeQuasiNewtonUpdate",
          "State": 1,
          "Timestamp": 509138
        },
        {
          "Name": "advance/cpl.computeQuasiNewtonUpdate",
          "State": 0,
          "Timestamp": 509139
        },
        {
          "Name": "advance/cpl.computeQuasiNewtonUpdate",
          "State": 1,
          "Timestamp": 553089
        },
        {
          "Name": "advance/cpl.computeQuasiNewtonUpdate",
          "State": 0,
          "Timestamp": 553090
        },
        {
          "Name": "advance/cpl.computeQuasiNewtonUpdate",
          "State": 1,
          "Timestamp": 641031
        },
        {
          "Name": "advance/cpl.computeQuasiNewtonUpdate",
          "State": 0,
          "Timestamp": 641033
        },
        {
          "Name": "advance/cpl.computeQuasiNewtonUpdate",
          "State": 1,
          "Timestamp": 685178
        },
        {
          "Name": "advance/cpl.computeQuasiNewtonUpdate",
          "State": 0,
          "Timestamp": 685179
        },
        {
          "Name": "advance/cpl.computeQuasiNewtonUpdate",
          "State": 1,
          "Timestamp": 729136
        },
        {
          "Name": "advance/cpl.computeQuasiNewtonUpdate",
          "State": 0,
          "Timestamp": 729137
        },
        {
          "Name": "advance/cpl.computeQuasiNewtonUpdate",
          "State": 1,
          "Timestamp": 773183
        },
        {
          "Name": "advance/cpl.computeQuasiNewtonUpdate",
          "State": 0,
          "Timestamp": 773185
        },
        {
          "Name": "configure",
          "State": 1,
          "Timestamp": 0
        },
        {
          "Name": "configure",
          "State": 0,
          "Timestamp": 0
        },
        {
          "Name": "finalize",
          "State": 1,
          "Timestamp": 818036
        },
        {
          "Name": "finalize",
          "State": 0,
          "Timestamp": 818039
        },
        {
          "Name": "initialize",
          "State": 1,
          "Timestamp": 20
        },
        {
          "Name": "initialize",
          "State": 0,
          "Timestamp": 2147
        },
        {
          "Name": "initialize/m2n.requestMasterConnection",
          "State": 1,
          "Timestamp": 21
        },
        {
          "Name": "initialize/m2n.requestMasterConnection",
          "State": 0,
          "Timestamp": 2143
        },
        {
          "Name": "initialize/m2n.requestSlavesConnection",
          "State": 1,
          "Timestamp": 2145
        },
        {
          "Name": "initialize/m2n.requestSlavesConnection",
          "State": 0,
          "Timestamp": 2145
        },
        {
          "Name": "initialize/partition.feedbackMesh.SOLIDZ_Mesh",
          "State": 1,
          "Timestamp": 2145
        },
        {
          "Name": "initialize/partition.feedbackMesh.SOLIDZ_Mesh",
          "State": 0,
          "Timestamp": 2145
        },
        {
          "Name": "initialize/partition.gatherMesh.SOLIDZ_Mesh",
          "State": 1,
          "Timestamp": 2144
        },
        {
          "Name": "initialize/partition.gatherMesh.SOLIDZ_Mesh",
          "State": 0,
          "Timestamp": 2144
        },
        {
          "Name": "initialize/partition.sendGlobalMesh.SOLIDZ_Mesh",
          "State": 1,
          "Timestamp": 2144
        },
        {
          "Name": "initialize/partition.sendGlobalMesh.SOLIDZ_Mesh",
          "State": 0,
          "Timestamp": 2145
        },
        {
          "Name": "initializeData",
          "State": 1,
          "Timestamp": 2348
        },
        {
          "Name": "initializeData",
          "State": 0,
          "Timestamp": 61119
        },
        {
          "Name": "solver.advance",
          "State": 1,
          "Timestamp": 110929
        },
        {
          "Name": "solver.advance",
          "State": 0,
          "Timestamp": 111550
        },
        {
          "Name": "solver.advance",
          "State": 1,
          "Timestamp": 155353
        },
        {
          "Name": "solver.advance",
          "State": 0,
          "Timestamp": 155936
        },
        {
          "Name": "solver.advance",
          "State": 1,
          "Timestamp": 199832
        },
        {
          "Name": "solver.advance",
          "State": 0,
          "Timestamp": 200372
        },
        {
          "Name": "solver.advance",
          "State": 1,
          "Timestamp": 243904
        },
        {
          "Name": "solver.advance",
          "State": 0,
          "Timestamp": 244458
        },
        {
          "Name": "solver.advance",
          "State": 1,
          "Timestamp": 287843
        },
        {
          "Name": "solver.advance",
          "State": 0,
          "Timestamp": 288392
        },
        {
          "Name": "solver.advance",
          "State": 1,
          "Timestamp": 331767
        },
        {
          "Name": "solver.advance",
          "State": 0,
          "Timestamp": 332314
        },
        {
          "Name": "solver.advance",
          "State": 1,
          "Timestamp": 375712
        },
        {
          "Name": "solver.advance",
          "State": 0,
          "Timestamp": 376270
        },
        {
          "Name": "solver.advance",
          "State": 1,
          "Timestamp": 419859
        },
        {
          "Name": "solver.advance",
          "State": 0,
          "Timestamp": 420435
        },
        {
          "Name": "solver.advance",
          "State": 1,
          "Timestamp": 464185
        },
        {
          "Name": "solver.advance",
          "State": 0,
          "Timestamp": 464746
        },
        {
          "Name": "solver.advance",
          "State": 1,
          "Timestamp": 508573
        },
        {
          "Name": "solver.advance",
          "State": 0,
          "Timestamp": 509136
        },
        {
          "Name": "solver.advance",
          "State": 1,
          "Timestamp": 552523
        },
        {
          "Name": "solver.advance",
          "State": 0,
          "Timestamp": 553087
        },
        {
          "Name": "solver.advance",
          "State": 1,
          "Timestamp": 596458
        },
        {
          "Name": "solver.advance",
          "State": 0,
          "Timestamp": 597017
        },
        {
          "Name": "solver.advance",
          "State": 1,
          "Timestamp": 640447
        },
        {
          "Name": "solver.advance",
          "State": 0,
          "Timestamp": 641030
        },
        {
          "Name": "solver.advance",
          "State": 1,
          "Timestamp": 684616
        },
        {
          "Name": "solver.advance",
          "State": 0,
          "Timestamp": 685177
        },
        {
          "Name": "solver.advance",
          "State": 1,
          "Timestamp": 728563
        },
        {
          "Name": "solver.advance",
          "State": 0,
          "Timestamp": 729134
        },
        {
          "Name": "solver.advance",
          "State": 1,
          "Timestamp": 772627
        },
        {
          "Name": "solver.advance",
          "State": 0,
          "Timestamp": 773181
        },
        {
          "Name": "solver.advance",
          "State": 1,
          "Timestamp": 817370
        },
        {
          "Name": "solver.advance",
          "State": 0,
          "Timestamp": 817918
        },
        {
          "Name": "solver.advance",
          "State": 1,
          "Timestamp": 817925
        },
        {
          "Name": "solver.advance",
          "State": 0,
          "Timestamp": 818036
        },
        {
          "Name": "solver.initialize",
          "State": 1,
          "Timestamp": 0
        },
        {
          "Name": "solver.initialize",
          "State": 2,
          "Timestamp": 20
        },
        {
          "Name": "solver.initialize",
          "State": 1,
          "Timestamp": 2147
        },
        {
          "Name": "solver.initialize",
          "State": 2,
          "Timestamp": 2348
        },
        {
          "Name": "solver.initialize",
          "State": 1,
          "Timestamp": 61119
        },
        {
          "Name": "solver.initialize",
          "State": 0,
          "Timestamp": 61812
        }
      ],
      "Timings": {
        "_GLOBAL": {
          "Count": 1,
          "Data": {},
          "Max": 818039,
          "Min": 818039,
          "TimeRatio": 1.0,
          "Total": 818039
        },
        "advance": {
          "Count": 18,
          "Data": {},
          "Max": 49117,
          "Min": 7,
          "TimeRatio": 0.9125726279553908,
          "Total": 746520
        },
        "advance/cpl.computeQuasiNewtonUpdate": {
          "Count": 14,
          "Data": {},
          "Max": 1,
          "Min": 0,
          "TimeRatio": 2.2003840892671378e-05,
          "Total": 18
        },
        "configure": {
          "Count": 1,
          "Data": {},
          "Max": 0,
          "Min": 0,
          "TimeRatio": 0.0,
          "Total": 0
        },
        "finalize": {
          "Count": 1,
          "Data": {},
          "Max": 2,
          "Min": 2,
          "TimeRatio": 2.4448712102968195e-06,
          "Total": 2
        },
        "initialize": {
          "Count": 1,
          "Data": {},
          "Max": 2126,
          "Min": 2126,
          "TimeRatio": 0.002598898096545519,
          "Total": 2126
        },
        "initialize/m2n.requestMasterConnection": {
          "Count": 1,
          "Data": {},
          "Max": 2122,
          "Min": 2122,
          "TimeRatio": 0.0025940083541249256,
          "Total": 2122
        },
        "initialize/m2n.requestSlavesConnection": {
          "Count": 1,
          "Data": {},
          "Max": 0,
          "Min": 0,
          "TimeRatio": 0.0,
          "Total": 0
        },
        "initialize/partition.feedbackMesh.SOLIDZ_Mesh": {
          "Count": 1,
          "Data": {},
          "Max": 0,
          "Min": 0,
          "TimeRatio": 0.0,
          "Total": 0
        },
        "initialize/partition.gatherMesh.SOLIDZ_Mesh": {
          "Count": 1,
          "Data": {},
          "Max": 0,
          "Min": 0,
          "TimeRatio": 0.0,
          "Total": 0
        },
        "initialize/partition.sendGlobalMesh.SOLIDZ_Mesh": {
          "Count": 1,
          "Data": {},
          "Max": 0,
          "Min": 0,
          "TimeRatio": 0.0,
          "Total": 0
        },
        "initializeData": {
          "Count": 1,
          "Data": {},
          "Max": 58771,
          "Min": 58771,
          "TimeRatio": 0.07184376295017719,
          "Total": 58771
        },
        "solver.advance": {
          "Count": 18,
          "Data": {},
          "Max": 620,
          "Min": 111,
          "TimeRatio": 0.01186129267675502,
          "Total": 9703
        },
        "solver.initialize": {
          "Count": 1,
          "Data": {},
          "Max": 913,
          "Min": 913,
          "TimeRatio": 0.0011160837075004982,
          "Total": 913
        }
      }
    }
  ]
}
