# vtk DataFile Version 2.0

ASCII

DATASET UNSTRUCTURED_GRID

POINTS 106 float 

-5.0000000000000003e-02  0.0000000000000000e+00  0.0000000000000000e+00
5.0000000000000003e-02  0.0000000000000000e+00  0.0000000000000000e+00
-5.0000000000000003e-02  2.0000000000000000e-02  0.0000000000000000e+00
5.0000000000000003e-02  2.0000000000000000e-02  0.0000000000000000e+00
-5.0000000000000003e-02  4.0000000000000001e-02  0.0000000000000000e+00
5.0000000000000003e-02  4.0000000000000001e-02  0.0000000000000000e+00
-5.0000000000000003e-02  5.9999999999999998e-02  0.0000000000000000e+00
5.0000000000000003e-02  5.9999999999999998e-02  0.0000000000000000e+00
-5.0000000000000003e-02  8.0000000000000002e-02  0.0000000000000000e+00
5.0000000000000003e-02  8.0000000000000002e-02  0.0000000000000000e+00
-5.0000000000000003e-02  1.0000000000000001e-01  0.0000000000000000e+00
5.0000000000000003e-02  1.0000000000000001e-01  0.0000000000000000e+00
-5.0000000000000003e-02  1.2000000000000000e-01  0.0000000000000000e+00
5.0000000000000003e-02  1.2000000000000000e-01  0.0000000000000000e+00
-5.0000000000000003e-02  1.4000000000000001e-01  0.0000000000000000e+00
5.0000000000000003e-02  1.4000000000000001e-01  0.0000000000000000e+00
-5.0000000000000003e-02  1.6000000000000000e-01  0.0000000000000000e+00
5.0000000000000003e-02  1.6000000000000000e-01  0.0000000000000000e+00
-5.0000000000000003e-02  1.7999999999999999e-01  0.0000000000000000e+00
5.0000000000000003e-02  1.7999999999999999e-01  0.0000000000000000e+00
-5.0000000000000003e-02  2.0000000000000001e-01  0.0000000000000000e+00
5.0000000000000003e-02  2.0000000000000001e-01  0.0000000000000000e+00
-5.0000000000000003e-02  2.2000000000000000e-01  0.0000000000000000e+00
5.0000000000000003e-02  2.2000000000000000e-01  0.0000000000000000e+00
-5.0000000000000003e-02  2.3999999999999999e-01  0.0000000000000000e+00
5.0000000000000003e-02  2.3999999999999999e-01  0.0000000000000000e+00
-5.0000000000000003e-02  2.6000000000000001e-01  0.0000000000000000e+00
5.0000000000000003e-02  2.6000000000000001e-01  0.0000000000000000e+00
-5.0000000000000003e-02  2.8000000000000003e-01  0.0000000000000000e+00
5.0000000000000003e-02  2.8000000000000003e-01  0.0000000000000000e+00
-5.0000000000000003e-02  2.9999999999999999e-01  0.0000000000000000e+00
5.0000000000000003e-02  2.9999999999999999e-01  0.0000000000000000e+00
-5.0000000000000003e-02  3.2000000000000001e-01  0.0000000000000000e+00
5.0000000000000003e-02  3.2000000000000001e-01  0.0000000000000000e+00
-5.0000000000000003e-02  3.4000000000000002e-01  0.0000000000000000e+00
5.0000000000000003e-02  3.4000000000000002e-01  0.0000000000000000e+00
-5.0000000000000003e-02  3.5999999999999999e-01  0.0000000000000000e+00
5.0000000000000003e-02  3.5999999999999999e-01  0.0000000000000000e+00
-5.0000000000000003e-02  3.8000000000000000e-01  0.0000000000000000e+00
5.0000000000000003e-02  3.8000000000000000e-01  0.0000000000000000e+00
-5.0000000000000003e-02  4.0000000000000002e-01  0.0000000000000000e+00
5.0000000000000003e-02  4.0000000000000002e-01  0.0000000000000000e+00
-5.0000000000000003e-02  4.1999999999999998e-01  0.0000000000000000e+00
5.0000000000000003e-02  4.1999999999999998e-01  0.0000000000000000e+00
-5.0000000000000003e-02  4.4000000000000000e-01  0.0000000000000000e+00
5.0000000000000003e-02  4.4000000000000000e-01  0.0000000000000000e+00
-5.0000000000000003e-02  4.6000000000000002e-01  0.0000000000000000e+00
5.0000000000000003e-02  4.6000000000000002e-01  0.0000000000000000e+00
-5.0000000000000003e-02  4.7999999999999998e-01  0.0000000000000000e+00
5.0000000000000003e-02  4.7999999999999998e-01  0.0000000000000000e+00
-5.0000000000000003e-02  5.0000000000000000e-01  0.0000000000000000e+00
5.0000000000000003e-02  5.0000000000000000e-01  0.0000000000000000e+00
-5.0000000000000003e-02  5.2000000000000002e-01  0.0000000000000000e+00
5.0000000000000003e-02  5.2000000000000002e-01  0.0000000000000000e+00
-5.0000000000000003e-02  5.4000000000000004e-01  0.0000000000000000e+00
5.0000000000000003e-02  5.4000000000000004e-01  0.0000000000000000e+00
-5.0000000000000003e-02  5.6000000000000005e-01  0.0000000000000000e+00
5.0000000000000003e-02  5.6000000000000005e-01  0.0000000000000000e+00
-5.0000000000000003e-02  5.7999999999999996e-01  0.0000000000000000e+00
5.0000000000000003e-02  5.7999999999999996e-01  0.0000000000000000e+00
-5.0000000000000003e-02  5.9999999999999998e-01  0.0000000000000000e+00
5.0000000000000003e-02  5.9999999999999998e-01  0.0000000000000000e+00
-5.0000000000000003e-02  6.2000000000000000e-01  0.0000000000000000e+00
5.0000000000000003e-02  6.2000000000000000e-01  0.0000000000000000e+00
-5.0000000000000003e-02  6.4000000000000001e-01  0.0000000000000000e+00
5.0000000000000003e-02  6.4000000000000001e-01  0.0000000000000000e+00
-5.0000000000000003e-02  6.6000000000000003e-01  0.0000000000000000e+00
5.0000000000000003e-02  6.6000000000000003e-01  0.0000000000000000e+00
-5.0000000000000003e-02  6.8000000000000005e-01  0.0000000000000000e+00
5.0000000000000003e-02  6.8000000000000005e-01  0.0000000000000000e+00
-5.0000000000000003e-02  6.9999999999999996e-01  0.0000000000000000e+00
5.0000000000000003e-02  6.9999999999999996e-01  0.0000000000000000e+00
-5.0000000000000003e-02  7.1999999999999997e-01  0.0000000000000000e+00
5.0000000000000003e-02  7.1999999999999997e-01  0.0000000000000000e+00
-5.0000000000000003e-02  7.3999999999999999e-01  0.0000000000000000e+00
5.0000000000000003e-02  7.3999999999999999e-01  0.0000000000000000e+00
-5.0000000000000003e-02  7.6000000000000001e-01  0.0000000000000000e+00
5.0000000000000003e-02  7.6000000000000001e-01  0.0000000000000000e+00
-5.0000000000000003e-02  7.8000000000000003e-01  0.0000000000000000e+00
5.0000000000000003e-02  7.8000000000000003e-01  0.0000000000000000e+00
-5.0000000000000003e-02  8.0000000000000004e-01  0.0000000000000000e+00
5.0000000000000003e-02  8.0000000000000004e-01  0.0000000000000000e+00
-5.0000000000000003e-02  8.1999999999999995e-01  0.0000000000000000e+00
5.0000000000000003e-02  8.1999999999999995e-01  0.0000000000000000e+00
-5.0000000000000003e-02  8.3999999999999997e-01  0.0000000000000000e+00
5.0000000000000003e-02  8.3999999999999997e-01  0.0000000000000000e+00
-5.0000000000000003e-02  8.5999999999999999e-01  0.0000000000000000e+00
5.0000000000000003e-02  8.5999999999999999e-01  0.0000000000000000e+00
-5.0000000000000003e-02  8.8000000000000000e-01  0.0000000000000000e+00
5.0000000000000003e-02  8.8000000000000000e-01  0.0000000000000000e+00
-5.0000000000000003e-02  9.0000000000000002e-01  0.0000000000000000e+00
5.0000000000000003e-02  9.0000000000000002e-01  0.0000000000000000e+00
-5.0000000000000003e-02  9.2000000000000004e-01  0.0000000000000000e+00
5.0000000000000003e-02  9.2000000000000004e-01  0.0000000000000000e+00
-5.0000000000000003e-02  9.3999999999999995e-01  0.0000000000000000e+00
5.0000000000000003e-02  9.3999999999999995e-01  0.0000000000000000e+00
-5.0000000000000003e-02  9.5999999999999996e-01  0.0000000000000000e+00
5.0000000000000003e-02  9.5999999999999996e-01  0.0000000000000000e+00
-5.0000000000000003e-02  9.7999999999999998e-01  0.0000000000000000e+00
5.0000000000000003e-02  9.7999999999999998e-01  0.0000000000000000e+00
-5.0000000000000003e-02  1.0000000000000000e+00  0.0000000000000000e+00
-3.0000000000000002e-02  1.0000000000000000e+00  0.0000000000000000e+00
-1.0000000000000002e-02  1.0000000000000000e+00  0.0000000000000000e+00
1.0000000000000009e-02  1.0000000000000000e+00  0.0000000000000000e+00
2.9999999999999999e-02  1.0000000000000000e+00  0.0000000000000000e+00
5.0000000000000003e-02  1.0000000000000000e+00  0.0000000000000000e+00

CELLS 0 0


CELL_TYPES 0


POINT_DATA 106

VECTORS VertexNormals float

0.0000000000000000e+00 0.0000000000000000e+00 0
0.0000000000000000e+00 0.0000000000000000e+00 0
0.0000000000000000e+00 0.0000000000000000e+00 0
0.0000000000000000e+00 0.0000000000000000e+00 0
0.0000000000000000e+00 0.0000000000000000e+00 0
0.0000000000000000e+00 0.0000000000000000e+00 0
0.0000000000000000e+00 0.0000000000000000e+00 0
0.0000000000000000e+00 0.0000000000000000e+00 0
0.0000000000000000e+00 0.0000000000000000e+00 0
0.0000000000000000e+00 0.0000000000000000e+00 0
0.0000000000000000e+00 0.0000000000000000e+00 0
0.0000000000000000e+00 0.0000000000000000e+00 0
0.0000000000000000e+00 0.0000000000000000e+00 0
0.0000000000000000e+00 0.0000000000000000e+00 0
0.0000000000000000e+00 0.0000000000000000e+00 0
0.0000000000000000e+00 0.0000000000000000e+00 0
0.0000000000000000e+00 0.0000000000000000e+00 0
0.0000000000000000e+00 0.0000000000000000e+00 0
0.0000000000000000e+00 0.0000000000000000e+00 0
0.0000000000000000e+00 0.0000000000000000e+00 0
0.0000000000000000e+00 0.0000000000000000e+00 0
0.0000000000000000e+00 0.0000000000000000e+00 0
0.0000000000000000e+00 0.0000000000000000e+00 0
0.0000000000000000e+00 0.0000000000000000e+00 0
0.0000000000000000e+00 0.0000000000000000e+00 0
0.0000000000000000e+00 0.0000000000000000e+00 0
0.0000000000000000e+00 0.0000000000000000e+00 0
0.0000000000000000e+00 0.0000000000000000e+00 0
0.0000000000000000e+00 0.0000000000000000e+00 0
0.0000000000000000e+00 0.0000000000000000e+00 0
0.0000000000000000e+00 0.0000000000000000e+00 0
0.0000000000000000e+00 0.0000000000000000e+00 0
0.0000000000000000e+00 0.0000000000000000e+00 0
0.0000000000000000e+00 0.0000000000000000e+00 0
0.0000000000000000e+00 0.0000000000000000e+00 0
0.0000000000000000e+00 0.0000000000000000e+00 0
0.0000000000000000e+00 0.0000000000000000e+00 0
0.0000000000000000e+00 0.0000000000000000e+00 0
0.0000000000000000e+00 0.0000000000000000e+00 0
0.0000000000000000e+00 0.0000000000000000e+00 0
0.0000000000000000e+00 0.0000000000000000e+00 0
0.0000000000000000e+00 0.0000000000000000e+00 0
0.0000000000000000e+00 0.0000000000000000e+00 0
0.0000000000000000e+00 0.0000000000000000e+00 0
0.0000000000000000e+00 0.0000000000000000e+00 0
0.0000000000000000e+00 0.0000000000000000e+00 0
0.0000000000000000e+00 0.0000000000000000e+00 0
0.0000000000000000e+00 0.0000000000000000e+00 0
0.0000000000000000e+00 0.0000000000000000e+00 0
0.0000000000000000e+00 0.0000000000000000e+00 0
0.0000000000000000e+00 0.0000000000000000e+00 0
0.0000000000000000e+00 0.0000000000000000e+00 0
0.0000000000000000e+00 0.0000000000000000e+00 0
0.0000000000000000e+00 0.0000000000000000e+00 0
0.0000000000000000e+00 0.0000000000000000e+00 0
0.0000000000000000e+00 0.0000000000000000e+00 0
0.0000000000000000e+00 0.0000000000000000e+00 0
0.0000000000000000e+00 0.0000000000000000e+00 0
0.0000000000000000e+00 0.0000000000000000e+00 0
0.0000000000000000e+00 0.0000000000000000e+00 0
0.0000000000000000e+00 0.0000000000000000e+00 0
0.0000000000000000e+00 0.0000000000000000e+00 0
0.0000000000000000e+00 0.0000000000000000e+00 0
0.0000000000000000e+00 0.0000000000000000e+00 0
0.0000000000000000e+00 0.0000000000000000e+00 0
0.0000000000000000e+00 0.0000000000000000e+00 0
0.0000000000000000e+00 0.0000000000000000e+00 0
0.0000000000000000e+00 0.0000000000000000e+00 0
0.0000000000000000e+00 0.0000000000000000e+00 0
0.0000000000000000e+00 0.0000000000000000e+00 0
0.0000000000000000e+00 0.0000000000000000e+00 0
0.0000000000000000e+00 0.0000000000000000e+00 0
0.0000000000000000e+00 0.0000000000000000e+00 0
0.0000000000000000e+00 0.0000000000000000e+00 0
0.0000000000000000e+00 0.0000000000000000e+00 0
0.0000000000000000e+00 0.0000000000000000e+00 0
0.0000000000000000e+00 0.0000000000000000e+00 0
0.0000000000000000e+00 0.0000000000000000e+00 0
0.0000000000000000e+00 0.0000000000000000e+00 0
0.0000000000000000e+00 0.0000000000000000e+00 0
0.0000000000000000e+00 0.0000000000000000e+00 0
0.0000000000000000e+00 0.0000000000000000e+00 0
0.0000000000000000e+00 0.0000000000000000e+00 0
0.0000000000000000e+00 0.0000000000000000e+00 0
0.0000000000000000e+00 0.0000000000000000e+00 0
0.0000000000000000e+00 0.0000000000000000e+00 0
0.0000000000000000e+00 0.0000000000000000e+00 0
0.0000000000000000e+00 0.0000000000000000e+00 0
0.0000000000000000e+00 0.0000000000000000e+00 0
0.0000000000000000e+00 0.0000000000000000e+00 0
0.0000000000000000e+00 0.0000000000000000e+00 0
0.0000000000000000e+00 0.0000000000000000e+00 0
0.0000000000000000e+00 0.0000000000000000e+00 0
0.0000000000000000e+00 0.0000000000000000e+00 0
0.0000000000000000e+00 0.0000000000000000e+00 0
0.0000000000000000e+00 0.0000000000000000e+00 0
0.0000000000000000e+00 0.0000000000000000e+00 0
0.0000000000000000e+00 0.0000000000000000e+00 0
0.0000000000000000e+00 0.0000000000000000e+00 0
0.0000000000000000e+00 0.0000000000000000e+00 0
0.0000000000000000e+00 0.0000000000000000e+00 0
0.0000000000000000e+00 0.0000000000000000e+00 0
0.0000000000000000e+00 0.0000000000000000e+00 0
0.0000000000000000e+00 0.0000000000000000e+00 0
0.0000000000000000e+00 0.0000000000000000e+00 0
0.0000000000000000e+00 0.0000000000000000e+00 0

VECTORS Displacements1 float
0.0000000000000000e+00 0.0000000000000000e+00 0
0.0000000000000000e+00 0.0000000000000000e+00 0
0.0000000000000000e+00 0.0000000000000000e+00 0
0.0000000000000000e+00 0.0000000000000000e+00 0
0.0000000000000000e+00 0.0000000000000000e+00 0
0.0000000000000000e+00 0.0000000000000000e+00 0
0.0000000000000000e+00 0.0000000000000000e+00 0
0.0000000000000000e+00 0.0000000000000000e+00 0
0.0000000000000000e+00 0.0000000000000000e+00 0
0.0000000000000000e+00 0.0000000000000000e+00 0
0.0000000000000000e+00 0.0000000000000000e+00 0
0.0000000000000000e+00 0.0000000000000000e+00 0
0.0000000000000000e+00 0.0000000000000000e+00 0
0.0000000000000000e+00 0.0000000000000000e+00 0
0.0000000000000000e+00 0.0000000000000000e+00 0
0.0000000000000000e+00 0.0000000000000000e+00 0
0.0000000000000000e+00 0.0000000000000000e+00 0
0.0000000000000000e+00 0.0000000000000000e+00 0
0.0000000000000000e+00 0.0000000000000000e+00 0
0.0000000000000000e+00 0.0000000000000000e+00 0
0.0000000000000000e+00 0.0000000000000000e+00 0
0.0000000000000000e+00 0.0000000000000000e+00 0
0.0000000000000000e+00 0.0000000000000000e+00 0
0.0000000000000000e+00 0.0000000000000000e+00 0
0.0000000000000000e+00 0.0000000000000000e+00 0
0.0000000000000000e+00 0.0000000000000000e+00 0
0.0000000000000000e+00 0.0000000000000000e+00 0
0.0000000000000000e+00 0.0000000000000000e+00 0
0.0000000000000000e+00 0.0000000000000000e+00 0
0.0000000000000000e+00 0.0000000000000000e+00 0
0.0000000000000000e+00 0.0000000000000000e+00 0
0.0000000000000000e+00 0.0000000000000000e+00 0
0.0000000000000000e+00 0.0000000000000000e+00 0
0.0000000000000000e+00 0.0000000000000000e+00 0
0.0000000000000000e+00 0.0000000000000000e+00 0
0.0000000000000000e+00 0.0000000000000000e+00 0
0.0000000000000000e+00 0.0000000000000000e+00 0
0.0000000000000000e+00 0.0000000000000000e+00 0
0.0000000000000000e+00 0.0000000000000000e+00 0
0.0000000000000000e+00 0.0000000000000000e+00 0
0.0000000000000000e+00 0.0000000000000000e+00 0
0.0000000000000000e+00 0.0000000000000000e+00 0
0.0000000000000000e+00 0.0000000000000000e+00 0
0.0000000000000000e+00 0.0000000000000000e+00 0
0.0000000000000000e+00 0.0000000000000000e+00 0
0.0000000000000000e+00 0.0000000000000000e+00 0
0.0000000000000000e+00 0.0000000000000000e+00 0
0.0000000000000000e+00 0.0000000000000000e+00 0
0.0000000000000000e+00 0.0000000000000000e+00 0
0.0000000000000000e+00 0.0000000000000000e+00 0
0.0000000000000000e+00 0.0000000000000000e+00 0
0.0000000000000000e+00 0.0000000000000000e+00 0
0.0000000000000000e+00 0.0000000000000000e+00 0
0.0000000000000000e+00 0.0000000000000000e+00 0
0.0000000000000000e+00 0.0000000000000000e+00 0
0.0000000000000000e+00 0.0000000000000000e+00 0
0.0000000000000000e+00 0.0000000000000000e+00 0
0.0000000000000000e+00 0.0000000000000000e+00 0
0.0000000000000000e+00 0.0000000000000000e+00 0
0.0000000000000000e+00 0.0000000000000000e+00 0
0.0000000000000000e+00 0.0000000000000000e+00 0
0.0000000000000000e+00 0.0000000000000000e+00 0
0.0000000000000000e+00 0.0000000000000000e+00 0
0.0000000000000000e+00 0.0000000000000000e+00 0
0.0000000000000000e+00 0.0000000000000000e+00 0
0.0000000000000000e+00 0.0000000000000000e+00 0
0.0000000000000000e+00 0.0000000000000000e+00 0
0.0000000000000000e+00 0.0000000000000000e+00 0
0.0000000000000000e+00 0.0000000000000000e+00 0
0.0000000000000000e+00 0.0000000000000000e+00 0
0.0000000000000000e+00 0.0000000000000000e+00 0
0.0000000000000000e+00 0.0000000000000000e+00 0
0.0000000000000000e+00 0.0000000000000000e+00 0
0.0000000000000000e+00 0.0000000000000000e+00 0
0.0000000000000000e+00 0.0000000000000000e+00 0
0.0000000000000000e+00 0.0000000000000000e+00 0
0.0000000000000000e+00 0.0000000000000000e+00 0
0.0000000000000000e+00 0.0000000000000000e+00 0
0.0000000000000000e+00 0.0000000000000000e+00 0
0.0000000000000000e+00 0.0000000000000000e+00 0
0.0000000000000000e+00 0.0000000000000000e+00 0
0.0000000000000000e+00 0.0000000000000000e+00 0
0.0000000000000000e+00 0.0000000000000000e+00 0
0.0000000000000000e+00 0.0000000000000000e+00 0
0.0000000000000000e+00 0.0000000000000000e+00 0
0.0000000000000000e+00 0.0000000000000000e+00 0
0.0000000000000000e+00 0.0000000000000000e+00 0
0.0000000000000000e+00 0.0000000000000000e+00 0
0.0000000000000000e+00 0.0000000000000000e+00 0
0.0000000000000000e+00 0.0000000000000000e+00 0
0.0000000000000000e+00 0.0000000000000000e+00 0
0.0000000000000000e+00 0.0000000000000000e+00 0
0.0000000000000000e+00 0.0000000000000000e+00 0
0.0000000000000000e+00 0.0000000000000000e+00 0
0.0000000000000000e+00 0.0000000000000000e+00 0
0.0000000000000000e+00 0.0000000000000000e+00 0
0.0000000000000000e+00 0.0000000000000000e+00 0
0.0000000000000000e+00 0.0000000000000000e+00 0
0.0000000000000000e+00 0.0000000000000000e+00 0
0.0000000000000000e+00 0.0000000000000000e+00 0
0.0000000000000000e+00 0.0000000000000000e+00 0
0.0000000000000000e+00 0.0000000000000000e+00 0
0.0000000000000000e+00 0.0000000000000000e+00 0
0.0000000000000000e+00 0.0000000000000000e+00 0
0.0000000000000000e+00 0.0000000000000000e+00 0
0.0000000000000000e+00 0.0000000000000000e+00 0

VECTORS Displacements2 float
0.0000000000000000e+00 0.0000000000000000e+00 0
0.0000000000000000e+00 0.0000000000000000e+00 0
0.0000000000000000e+00 0.0000000000000000e+00 0
0.0000000000000000e+00 0.0000000000000000e+00 0
0.0000000000000000e+00 0.0000000000000000e+00 0
0.0000000000000000e+00 0.0000000000000000e+00 0
0.0000000000000000e+00 0.0000000000000000e+00 0
0.0000000000000000e+00 0.0000000000000000e+00 0
0.0000000000000000e+00 0.0000000000000000e+00 0
0.0000000000000000e+00 0.0000000000000000e+00 0
0.0000000000000000e+00 0.0000000000000000e+00 0
0.0000000000000000e+00 0.0000000000000000e+00 0
0.0000000000000000e+00 0.0000000000000000e+00 0
0.0000000000000000e+00 0.0000000000000000e+00 0
0.0000000000000000e+00 0.0000000000000000e+00 0
0.0000000000000000e+00 0.0000000000000000e+00 0
0.0000000000000000e+00 0.0000000000000000e+00 0
0.0000000000000000e+00 0.0000000000000000e+00 0
0.0000000000000000e+00 0.0000000000000000e+00 0
0.0000000000000000e+00 0.0000000000000000e+00 0
0.0000000000000000e+00 0.0000000000000000e+00 0
0.0000000000000000e+00 0.0000000000000000e+00 0
0.0000000000000000e+00 0.0000000000000000e+00 0
0.0000000000000000e+00 0.0000000000000000e+00 0
0.0000000000000000e+00 0.0000000000000000e+00 0
0.0000000000000000e+00 0.0000000000000000e+00 0
0.0000000000000000e+00 0.0000000000000000e+00 0
0.0000000000000000e+00 0.0000000000000000e+00 0
0.0000000000000000e+00 0.0000000000000000e+00 0
0.0000000000000000e+00 0.0000000000000000e+00 0
0.0000000000000000e+00 0.0000000000000000e+00 0
0.0000000000000000e+00 0.0000000000000000e+00 0
0.0000000000000000e+00 0.0000000000000000e+00 0
0.0000000000000000e+00 0.0000000000000000e+00 0
0.0000000000000000e+00 0.0000000000000000e+00 0
0.0000000000000000e+00 0.0000000000000000e+00 0
0.0000000000000000e+00 0.0000000000000000e+00 0
0.0000000000000000e+00 0.0000000000000000e+00 0
0.0000000000000000e+00 0.0000000000000000e+00 0
0.0000000000000000e+00 0.0000000000000000e+00 0
0.0000000000000000e+00 0.0000000000000000e+00 0
0.0000000000000000e+00 0.0000000000000000e+00 0
0.0000000000000000e+00 0.0000000000000000e+00 0
0.0000000000000000e+00 0.0000000000000000e+00 0
0.0000000000000000e+00 0.0000000000000000e+00 0
0.0000000000000000e+00 0.0000000000000000e+00 0
0.0000000000000000e+00 0.0000000000000000e+00 0
0.0000000000000000e+00 0.0000000000000000e+00 0
0.0000000000000000e+00 0.0000000000000000e+00 0
0.0000000000000000e+00 0.0000000000000000e+00 0
0.0000000000000000e+00 0.0000000000000000e+00 0
0.0000000000000000e+00 0.0000000000000000e+00 0
0.0000000000000000e+00 0.0000000000000000e+00 0
0.0000000000000000e+00 0.0000000000000000e+00 0
0.0000000000000000e+00 0.0000000000000000e+00 0
0.0000000000000000e+00 0.0000000000000000e+00 0
0.0000000000000000e+00 0.0000000000000000e+00 0
0.0000000000000000e+00 0.0000000000000000e+00 0
0.0000000000000000e+00 0.0000000000000000e+00 0
0.0000000000000000e+00 0.0000000000000000e+00 0
0.0000000000000000e+00 0.0000000000000000e+00 0
0.0000000000000000e+00 0.0000000000000000e+00 0
0.0000000000000000e+00 0.0000000000000000e+00 0
0.0000000000000000e+00 0.0000000000000000e+00 0
0.0000000000000000e+00 0.0000000000000000e+00 0
0.0000000000000000e+00 0.0000000000000000e+00 0
0.0000000000000000e+00 0.0000000000000000e+00 0
0.0000000000000000e+00 0.0000000000000000e+00 0
0.0000000000000000e+00 0.0000000000000000e+00 0
0.0000000000000000e+00 0.0000000000000000e+00 0
0.0000000000000000e+00 0.0000000000000000e+00 0
0.0000000000000000e+00 0.0000000000000000e+00 0
0.0000000000000000e+00 0.0000000000000000e+00 0
0.0000000000000000e+00 0.0000000000000000e+00 0
0.0000000000000000e+00 0.0000000000000000e+00 0
0.0000000000000000e+00 0.0000000000000000e+00 0
0.0000000000000000e+00 0.0000000000000000e+00 0
0.0000000000000000e+00 0.0000000000000000e+00 0
0.0000000000000000e+00 0.0000000000000000e+00 0
0.0000000000000000e+00 0.0000000000000000e+00 0
0.0000000000000000e+00 0.0000000000000000e+00 0
0.0000000000000000e+00 0.0000000000000000e+00 0
0.0000000000000000e+00 0.0000000000000000e+00 0
0.0000000000000000e+00 0.0000000000000000e+00 0
0.0000000000000000e+00 0.0000000000000000e+00 0
0.0000000000000000e+00 0.0000000000000000e+00 0
0.0000000000000000e+00 0.0000000000000000e+00 0
0.0000000000000000e+00 0.0000000000000000e+00 0
0.0000000000000000e+00 0.0000000000000000e+00 0
0.0000000000000000e+00 0.0000000000000000e+00 0
0.0000000000000000e+00 0.0000000000000000e+00 0
0.0000000000000000e+00 0.0000000000000000e+00 0
0.0000000000000000e+00 0.0000000000000000e+00 0
0.0000000000000000e+00 0.0000000000000000e+00 0
0.0000000000000000e+00 0.0000000000000000e+00 0
0.0000000000000000e+00 0.0000000000000000e+00 0
0.0000000000000000e+00 0.0000000000000000e+00 0
0.0000000000000000e+00 0.0000000000000000e+00 0
0.0000000000000000e+00 0.0000000000000000e+00 0
0.0000000000000000e+00 0.0000000000000000e+00 0
0.0000000000000000e+00 0.0000000000000000e+00 0
0.0000000000000000e+00 0.0000000000000000e+00 0
0.0000000000000000e+00 0.0000000000000000e+00 0
0.0000000000000000e+00 0.0000000000000000e+00 0
0.0000000000000000e+00 0.0000000000000000e+00 0
0.0000000000000000e+00 0.0000000000000000e+00 0

VECTORS Forces1 float
-1.8562349003859004e-03 1.5737301877011749e-03 0
-7.1615148437787768e-03 -3.8924679546599047e-03 0
3.4270067654619749e-02 -1.9355152547837606e-02 0
9.4481484185584011e-02 5.2375010895006700e-02 0
3.7756038217936438e-02 -5.8871823941825307e-03 0
1.0306781327650556e-01 1.6199173756718494e-02 0
2.3919494461557261e-02 1.0133486692289807e-03 0
6.5483956466526383e-02 -2.6492129036165498e-03 0
-3.6094668354493880e-03 -1.5769553200342974e-04 0
-9.8887371836859483e-03 3.5461216251889697e-04 0
8.9984066189304573e-02 -2.8727736649244426e-04 0
2.5043578268263006e-01 1.4320016110770219e-03 0
-3.7359813901880817e-03 1.9290265078559207e-05 0
-1.0669981904124909e-02 -1.0257970224733593e-04 0
2.5104101097345923e-02 -2.7677757382209235e-04 0
7.1579863831805243e-02 8.4193141711635749e-04 0
2.5106318520268376e-02 -2.7706780424950232e-04 0
7.1586526227077701e-02 8.4469566710348781e-04 0
-3.7279627727800804e-03 2.6839609434830778e-05 0
-1.0687578270515537e-02 -1.1467798596266718e-04 0
8.6463482941787420e-02 -1.7710155515365201e-03 0
2.5554854348658057e-01 4.6926800360829512e-03 0
-3.5675674883883048e-03 9.2526395119022395e-05 0
-1.1017640990878949e-02 -2.5677598252478212e-04 0
2.3993750015758535e-02 -7.3442005231647055e-04 0
7.3912025443891485e-02 1.8452226425006613e-03 0
2.3992701242026335e-02 -7.3487808325332351e-04 0
7.3915241342321650e-02 1.8463452999236277e-03 0
-3.5584943797004357e-03 9.4509069251185420e-05 0
-1.1039298014999201e-02 -2.6262938183187478e-04 0
8.2080718560612970e-02 -3.0777280259349244e-03 0
2.6710128155034263e-01 8.1625386572305968e-03 0
-3.3522245565186398e-03 1.2889333995078604e-04 0
-1.1642616621464248e-02 -3.9473798683618572e-04 0
2.2559686059917611e-02 -9.7789144968008770e-04 0
7.8151786943086013e-02 2.7798161939565527e-03 0
2.2558195649647002e-02 -9.7836599683784049e-04 0
7.8156581382278129e-02 2.7810315531753647e-03 0
-3.3406091413674482e-03 1.2841047247765715e-04 0
-1.1678810008944511e-02 -3.9945112144317674e-04 0
7.6158447852173142e-02 -3.4667246516168794e-03 0
2.8560756589504432e-01 1.1285296827893346e-02 0
-3.0640130774925579e-03 1.2109354483246549e-04 0
-1.2584690817503913e-02 -5.1504802106330631e-04 0
2.0638427819632897e-02 -9.3340444273051499e-04 0
8.4513113336587412e-02 3.6032220900220151e-03 0
2.0636418589413938e-02 -9.3379543013431604e-04 0
8.4519703333814339e-02 3.6045063749302053e-03 0
-3.0479710259741053e-03 1.1685085145190718e-04 0
-1.2637423280736651e-02 -5.1765639340750332e-04 0
6.8310280773802134e-02 -2.3451545115409597e-03 0
3.1230950543410863e-01 1.3674079357234720e-02 0
-2.6617815720634389e-03 3.0460110623249544e-05 0
-1.3895906436457349e-02 -5.9200914462243588e-04 0
1.7957652378515463e-02 -3.4113458676307204e-04 0
9.3344055590067504e-02 4.1447592280860202e-03 0
1.7955370394361295e-02 -3.4182149809665758e-04 0
9.3352825191318795e-02 4.1464849658568110e-03 0
-2.6415825883344341e-03 2.2322903998074400e-05 0
-1.3971806537675182e-02 -5.9278942322418295e-04 0
5.7459240360256035e-02 -3.0334451620645843e-04 0
3.4886203103911240e-01 1.6026411553550255e-02 0
-2.2141054729754544e-03 -7.6661398140482310e-05 0
-1.5765885432126918e-02 -6.9143246541525686e-04 0
1.5005776589821706e-02 3.2326500374298009e-04 0
1.0592021618598399e-01 4.8709327469735868e-03 0
1.5003074309389283e-02 3.2234289045659614e-04 0
1.0593080923303577e-01 4.8729824618027094e-03 0
-2.1864745358062447e-03 -9.7951274686520069e-05 0
-1.5876252343198154e-02 -6.8453834641932557e-04 0
4.6870555080519266e-02 6.6958029028196071e-03 0
4.0222087465163875e-01 1.5541732267837978e-02 0
-1.5364642959620300e-03 -5.5997559719321707e-04 0
-1.8331073506157702e-02 -5.5499465855461541e-04 0
1.0505926409569327e-02 3.4847391887422394e-03 0
1.2305594259460842e-01 4.0278393517259765e-03 0
1.0503301696838861e-02 3.4769860113562029e-03 0
1.2306373264080860e-01 4.0329126443517660e-03 0
-1.5394549922639440e-03 -5.9797126994909822e-04 0
-1.8544075778494370e-02 -5.4810971986948278e-04 0
3.1552577919109003e-02 8.6864215468004241e-03 0
4.7663918661578975e-01 2.0854883139422603e-02 0
-2.0133367586931215e-03 -5.9195626129501095e-04 0
-2.3153159961785765e-02 -9.0554115589054206e-04 0
1.3713922783736447e-02 3.0378607782807474e-03 0
1.5472370887477471e-01 6.6413574694797438e-03 0
1.3716950760463505e-02 3.0041002747768740e-03 0
1.5469083559933608e-01 6.6523966621644288e-03 0
-2.0180469797169013e-03 -8.5139462466787385e-04 0
-2.3701169099079756e-02 -7.6543528861146542e-04 0
6.8449766824781155e-02 6.0037578852434957e-02 0
6.4078491584405239e-01 -5.1419429074451486e-03 0
-2.6884769910936039e-03 -5.7624455638445342e-03 0
-3.3183619672514618e-02 2.5529008508655263e-03 0
2.8681785950346615e-02 3.7003833321987804e-02 0
2.2535575553016043e-01 -1.1631329468232504e-02 0
5.7202290346010393e-03 1.5834700378156409e-02 0
1.7801297202478050e-01 -1.1192879812884323e-02 0
2.3402633444904491e-01 1.9943258306250899e-01 0
4.2780866855138105e-01 8.3608324080802453e-03 0
6.9328417333824359e-03 2.2207140506172268e-02 0
1.7593929860699273e-01 1.7623220838591536e-01 0
1.3814848368608704e-01 1.7100278200427338e-01 0
1.2448265368267779e-01 1.7951170226892110e-01 0
2.6348486032722279e-01 8.8088610976074094e-02 0
5.1706234618348987e-02 -1.4699372285311822e-02 0

VECTORS Forces2 float
-1.6228345161161190e-02 1.0617778081042381e-02 0
-1.6844368174715085e-02 -9.4354586539800323e-03 0
2.3808261266774561e-01 -1.3297129908076494e-01 0
2.3513830185666001e-01 1.3068940464306386e-01 0
2.6068162357539010e-01 -4.0625470079893637e-02 0
2.5701017962700534e-01 4.0576478881082317e-02 0
1.6550590182815025e-01 6.9508903106645587e-03 0
1.6316700236811363e-01 -6.5006555374298508e-03 0
-2.4958736347918418e-02 -9.9130752232670411e-04 0
-2.4667361291081449e-02 8.9249823685186302e-04 0
6.2934412613703261e-01 -6.5630189115750801e-04 0
6.2252277189547833e-01 5.7347617848299524e-03 0
-2.6497804308022174e-02 3.3206283215498898e-05 0
-2.6506094152429997e-02 -4.1742976425727094e-04 0
1.7798890658316868e-01 -7.8064553399735421e-04 0
1.7774436106596225e-01 3.3658537897698257e-03 0
1.7800296478263247e-01 -7.8484030631402501e-04 0
1.7776338944719139e-01 3.3729073323002742e-03 0
-2.6502168312669709e-02 6.2600432672641642e-05 0
-2.6539980425604778e-02 -4.6047462112205098e-04 0
6.2481045785877698e-01 -5.1386493420078130e-03 0
6.3452450922338011e-01 1.8800609345225244e-02 0
-2.6345545761574232e-02 2.5852983266520661e-04 0
-2.7409808210430864e-02 -1.0333603435534744e-03 0
1.7694841531130454e-01 -2.1496381657872990e-03 0
1.8390767393437593e-01 7.4025082875020147e-03 0
1.7694792116708294e-01 -2.1511328443384872e-03 0
1.8391682106352802e-01 7.4068753209232518e-03 0
-2.6338303149154113e-02 2.6311128140065257e-04 0
-2.7468923752259438e-02 -1.0576675409713933e-03 0
6.2199363708757816e-01 -8.7421866005406058e-03 0
6.6653928773758853e-01 3.2851026909277922e-02 0
-2.6228410462018698e-02 3.3717375191980904e-04 0
-2.9177414917862909e-02 -1.5975880111650698e-03 0
1.7621949611387100e-01 -2.6773342645157001e-03 0
1.9593056569193587e-01 1.1219910654338782e-02 0
1.7621854846808596e-01 -2.6788269111729561e-03 0
1.9594462239479410e-01 1.1224689087148496e-02 0
-2.6223869933529653e-02 3.3232485952067284e-04 0
-2.9280455653303106e-02 -1.6177981632890010e-03 0
6.1918802454767830e-01 -8.7679519645649899e-03 0
7.1967416431192521e-01 4.5735633868233636e-02 0
-2.6105869172474049e-02 2.4337681179170353e-04 0
-3.1901598905596448e-02 -2.1022309188862809e-03 0
1.7544867502111572e-01 -2.0780777243707984e-03 0
2.1436148228220947e-01 1.4666099999562176e-02 0
1.7544704300265909e-01 -2.0791625472799482e-03 0
2.1438120414160822e-01 1.4671231176688834e-02 0
-2.6099576854083449e-02 2.2378149357607470e-04 0
-3.2053480827701174e-02 -2.1151615911882303e-03 0
6.1605459492608727e-01 -2.7840166963804180e-03 0
7.9748270360546114e-01 5.6202914064398347e-02 0
-2.5873392655113694e-02 -1.8274815271509244e-04 0
-3.5727376793677823e-02 -2.4651471566096350e-03 0
1.7393874773452739e-01 7.2402483932191414e-04 0
2.4017897583897085e-01 1.7198170804871713e-02 0
1.7393726351799671e-01 7.2192184073306155e-04 0
2.4020588128332523e-01 1.7205044577923448e-02 0
-2.5871641535262384e-02 -2.1745638394626986e-04 0
-3.5947557662806842e-02 -2.4716258793768876e-03 0
6.0994250246444537e-01 6.9079679654137638e-03 0
9.0474512817585295e-01 6.6742172798436625e-02 0
-2.5897784843023908e-02 -6.7344173886648264e-04 0
-4.1251830536739031e-02 -2.9122093030336002e-03 0
1.7423456587396832e-01 3.8131066913820203e-03 0
2.7742349830839380e-01 2.0420258931447395e-02 0
1.7423147554028823e-01 3.8106415807621181e-03 0
2.7745741204490421e-01 2.0428856232221793e-02 0
-2.5897464469886170e-02 -7.6034540581284280e-04 0
-4.1573041357346588e-02 -2.8925169643400240e-03 0
6.1641109311429776e-01 3.6939512284426525e-02 0
1.0640179009060651e+00 6.8307266640719969e-02 0
-2.5563304394796132e-02 -2.7074212803651133e-03 0
-4.8896566860596478e-02 -2.6008308841726922e-03 0
1.7195517916096573e-01 1.7188425471187929e-02 0
3.2864787637031351e-01 1.8636523763060870e-02 0
1.7194723747587290e-01 1.7161678851744706e-02 0
3.2867648356976648e-01 1.8657784377021275e-02 0
-2.5740786322019375e-02 -2.8507453376221572e-03 0
-4.9538735610193861e-02 -2.5742357438930008e-03 0
6.1807324863226643e-01 4.7020357787713463e-02 0
1.2893458011306198e+00 9.0125096996982207e-02 0
-3.0590040745390127e-02 -2.8483713277596494e-03 0
-6.3933554290432182e-02 -3.8983885536263397e-03 0
2.0494666333463901e-01 1.5766052602641155e-02 0
4.2773936415163993e-01 2.8439233931088884e-02 0
2.0490135413688601e-01 1.5654858682375469e-02 0
4.2767347284947849e-01 2.8496101000865200e-02 0
-3.1068970087627820e-02 -3.8246920764009209e-03 0
-6.5525433467425787e-02 -3.3712043296217566e-03 0
8.5124847272050896e-01 2.5529970549213110e-01 0
1.8119633767250685e+00 6.4958068112581351e-03 0
-3.9140270013937564e-02 -2.3558000982888419e-02 0
-9.5339242584713435e-02 7.8688861029025062e-03 0
2.9336174237394702e-01 1.5076738173703347e-01 0
6.5886592709506830e-01 -3.3203299683236820e-02 0
1.8158607545578606e-01 7.8379664892479911e-02 0
5.0765087384304053e-01 -2.4388570002145577e-02 0
1.0855254458765897e+00 6.7279209130988438e-01 0
1.3898936168312550e+00 -4.5116690918413853e-02 0
7.1434446218058972e-02 8.4300719849241673e-02 0
7.7508667168424794e-01 5.2464928422457746e-01 0
5.0985691502855102e-01 4.3510672053632699e-01 0
4.7049424245513871e-01 4.6685863629858038e-01 0
8.6751686844373399e-01 1.9276038718724792e-01 0
1.4802533787802871e-01 -5.4371918428048907e-02 0

VECTORS Forces3 float
-3.3663393002452649e-02 2.1964870616771562e-02 0
-3.3868072535163524e-02 -1.8942355120274135e-02 0
4.9059683831040785e-01 -2.7400746492140032e-01 0
4.7372700287228958e-01 2.6323696757504189e-01 0
5.3714514920944989e-01 -8.3747952040481660e-02 0
5.1773502561186369e-01 8.1705442974676329e-02 0
3.4107965029837117e-01 1.4273058455495763e-02 0
3.2866271761190591e-01 -1.3134921769889084e-02 0
-5.1439188265955012e-02 -2.0342277845249684e-03 0
-4.9681665224100058e-02 1.8017536695036581e-03 0
1.2979895699171773e+00 -1.0694880793523324e-03 0
1.2532053773929166e+00 1.1720392506490426e-02 0
-5.4700004692790870e-02 2.6756053252907275e-05 0
-5.3324804947411895e-02 -8.6967634422120633e-04 0
3.6741102912622997e-01 -1.3026451385274741e-03 0
3.5760180626614890e-01 6.9774503500168970e-03 0
3.6744035558303928e-01 -1.3109125750099542e-03 0
3.5763980832980208e-01 6.9918936206855792e-03 0
-5.4713600391558169e-02 8.3943744266718547e-05 0
-5.3389988563572861e-02 -9.5865884460522445e-04 0
1.2908160872993728e+00 -8.5091113025326116e-03 0
1.2758413359998828e+00 3.9222944409629257e-02 0
-5.4469430650130740e-02 4.0403329516541190e-04 0
-5.5083148351011156e-02 -2.1679352308986493e-03 0
3.6581630875413890e-01 -3.5344259674060558e-03 0
3.6960342547691311e-01 1.5499005561564817e-02 0
3.6581573154730312e-01 -3.5369463164329549e-03 0
3.6962146721675415e-01 1.5508148271764654e-02 0
-5.4458195260457656e-02 4.0957500678815730e-04 0
-5.5199352930577344e-02 -2.2197568002473326e-03 0
1.2868032356203245e+00 -1.3873140037733373e-02 0
1.3388799526859778e+00 6.8948982708411349e-02 0
-5.4303255658059296e-02 4.7975571582323370e-04 0
-5.8579494103602706e-02 -3.3680344832711438e-03 0
3.6481271138555665e-01 -4.0402671065136210e-03 0
3.9339250971382128e-01 2.3616868120023771e-02 0
3.6481114912750839e-01 -4.0427534785879371e-03 0
3.9342046967837646e-01 2.3626874318231145e-02 0
-5.4297618988455948e-02 4.6592014693718143e-04 0
-5.8783597093491131e-02 -3.4120231100917020e-03 0
1.2828151163452994e+00 -1.1882807379741164e-02 0
1.4442767575939031e+00 9.6499640552443020e-02 0
-5.4129764738102215e-02 1.9810087871168508e-04 0
-6.3989433566610104e-02 -4.4587860165121876e-03 0
3.6374698489530505e-01 -2.2082268733069413e-03 0
4.3000193922910035e-01 3.1059074162628889e-02 0
3.6374395606510629e-01 -2.2097913614785216e-03 0
4.3004132821125268e-01 3.1069890731227057e-02 0
-5.4120943207114414e-02 1.5365211284467777e-04 0
-6.4290935847551564e-02 -4.4890549132098959e-03 0
1.2782833307875097e+00 2.6530069992215756e-03 0
1.5989480985948910e+00 1.1963980998480542e-01 0
-5.3734538054098537e-02 -7.8030203153378662e-04 0
-7.1601916163829854e-02 -5.2917992555884868e-03 0
3.6118520031995488e-01 4.2472072742258610e-03 0
4.8138440776438696e-01 3.6848643314812912e-02 0
3.6118231294212266e-01 4.2437131301721019e-03 0
4.8143827758360253e-01 3.6863060457668941e-02 0
-5.3735516978824054e-02 -8.5633086283852945e-04 0
-7.2038984222779739e-02 -5.3100996138083440e-03 0
1.2675664865964273e+00 2.5101713111638363e-02 0
1.8125665570069047e+00 1.4328531353690829e-01 0
-5.3864235425719713e-02 -1.9082338404824461e-03 0
-8.2589828077619776e-02 -6.3072761440237449e-03 0
3.6230306287865788e-01 1.1409122962873962e-02 0
5.5547926247816481e-01 4.4111421135521897e-02 0
3.6229649836574901e-01 1.1405249283919283e-02 0
5.5554742861960893e-01 4.4129603055224266e-02 0
-5.3869065358466903e-02 -2.0932657065995293e-03 0
-8.3226587203179381e-02 -6.2765766934443322e-03 0
1.2829096100077932e+00 9.0348025668526233e-02 0
2.1288457871172399e+00 1.5062437136448673e-01 0
-5.3256030199372667e-02 -6.2768932797994254e-03 0
-9.7789876641126719e-02 -5.9238895594907626e-03 0
3.5810704246637926e-01 4.0189765374763063e-02 0
6.5736357263917089e-01 4.2167787869564669e-02 0
3.5808886280140889e-01 4.0136688934153654e-02 0
6.5742242624177327e-01 4.2210875176406530e-02 0
-5.3618091024108708e-02 -6.5828710585096135e-03 0
-9.9064166384678118e-02 -5.8853026785163614e-03 0
1.2848271700786427e+00 1.1683055360111681e-01 0
2.5789705720116900e+00 1.9917648170460925e-01 0
-6.3273745264758846e-02 -6.9020518266158012e-03 0
-1.2777832842187919e-01 -8.7870175277333373e-03 0
4.2369558380086375e-01 3.9545309963582860e-02 0
8.5509290953992978e-01 6.3501217805983182e-02 0
4.2359239024043344e-01 3.9319548379718260e-02 0
8.5497038883435106e-01 6.3613098288780048e-02 0
-6.4267400984605094e-02 -8.9041173916031679e-03 0
-1.3090990339147776e-01 -7.7609695828130196e-03 0
1.7510202465672500e+00 5.5078623789944825e-01 0
3.6179631749818619e+00 4.3588750843479893e-02 0
-8.0400643627287327e-02 -4.9322402594466512e-02 0
-1.8990507747142590e-01 1.4188520573695884e-02 0
5.9965327077979214e-01 3.1716384671427333e-01 0
1.3139300770455586e+00 -5.4873987780712861e-02 0
3.7191256282185009e-01 1.6673951634057257e-01 0
1.0144949350532897e+00 -4.1926784660055970e-02 0
2.2078956268853944e+00 1.3992004045951634e+00 0
2.7533645462546681e+00 -4.4925520591972828e-02 0
1.4969461432274964e-01 1.7350511894872370e-01 0
1.5662375253403746e+00 1.0863292777975622e+00 0
1.0180404474793645e+00 8.9671800138779423e-01 0
9.4300259362166550e-01 9.6023744192360105e-01 0
1.7242888982739788e+00 4.1756857676141290e-01 0
2.9042582136124323e-01 -1.0544942032101036e-01 0

