{
  "solver_name": "HeatNeumann",
  "config_file_name": "precice-config.xml",
  "interface": {
      "coupling_mesh_name": "NeumannNodes",
      "write_data_name": "Temperature",
      "read_data_name": "Flux"
    },
  "waveform": {
      "n_substeps": 1
    }
}