{
  "Finalized": "2019-11-13T15:40:52.877",
  "Initialized": "2019-11-13T15:40:20.708",
  "Name": "",
  "Ranks": [
    {
      "Finalized": "2019-11-13T15:40:52.877",
      "Initialized": "2019-11-13T15:40:20.708",
      "StateChanges": [
        {
          "Name": "_GLOBAL",
          "State": 1,
          "Timestamp": 0
        },
        {
          "Name": "_GLOBAL",
          "State": 0,
          "Timestamp": 32169
        },
        {
          "Name": "advance",
          "State": 1,
          "Timestamp": 709
        },
        {
          "Name": "advance",
          "State": 0,
          "Timestamp": 868
        },
        {
          "Name": "advance",
          "State": 1,
          "Timestamp": 1162
        },
        {
          "Name": "advance",
          "State": 0,
          "Timestamp": 1321
        },
        {
          "Name": "advance",
          "State": 1,
          "Timestamp": 1615
        },
        {
          "Name": "advance",
          "State": 0,
          "Timestamp": 1777
        },
        {
          "Name": "advance",
          "State": 1,
          "Timestamp": 2072
        },
        {
          "Name": "advance",
          "State": 0,
          "Timestamp": 2231
        },
        {
          "Name": "advance",
          "State": 1,
          "Timestamp": 2527
        },
        {
          "Name": "advance",
          "State": 0,
          "Timestamp": 2688
        },
        {
          "Name": "advance",
          "State": 1,
          "Timestamp": 2983
        },
        {
          "Name": "advance",
          "State": 0,
          "Timestamp": 3143
        },
        {
          "Name": "advance",
          "State": 1,
          "Timestamp": 3437
        },
        {
          "Name": "advance",
          "State": 0,
          "Timestamp": 3596
        },
        {
          "Name": "advance",
          "State": 1,
          "Timestamp": 3893
        },
        {
          "Name": "advance",
          "State": 0,
          "Timestamp": 4054
        },
        {
          "Name": "advance",
          "State": 1,
          "Timestamp": 4350
        },
        {
          "Name": "advance",
          "State": 0,
          "Timestamp": 4509
        },
        {
          "Name": "advance",
          "State": 1,
          "Timestamp": 4806
        },
        {
          "Name": "advance",
          "State": 0,
          "Timestamp": 4965
        },
        {
          "Name": "advance",
          "State": 1,
          "Timestamp": 5261
        },
        {
          "Name": "advance",
          "State": 0,
          "Timestamp": 5421
        },
        {
          "Name": "advance",
          "State": 1,
          "Timestamp": 5719
        },
        {
          "Name": "advance",
          "State": 0,
          "Timestamp": 5879
        },
        {
          "Name": "advance",
          "State": 1,
          "Timestamp": 6175
        },
        {
          "Name": "advance",
          "State": 0,
          "Timestamp": 6335
        },
        {
          "Name": "advance",
          "State": 1,
          "Timestamp": 6631
        },
        {
          "Name": "advance",
          "State": 0,
          "Timestamp": 6793
        },
        {
          "Name": "advance",
          "State": 1,
          "Timestamp": 7090
        },
        {
          "Name": "advance",
          "State": 0,
          "Timestamp": 7250
        },
        {
          "Name": "advance",
          "State": 1,
          "Timestamp": 7546
        },
        {
          "Name": "advance",
          "State": 0,
          "Timestamp": 7707
        },
        {
          "Name": "advance",
          "State": 1,
          "Timestamp": 8005
        },
        {
          "Name": "advance",
          "State": 0,
          "Timestamp": 8165
        },
        {
          "Name": "advance",
          "State": 1,
          "Timestamp": 8461
        },
        {
          "Name": "advance",
          "State": 0,
          "Timestamp": 8632
        },
        {
          "Name": "advance",
          "State": 1,
          "Timestamp": 8939
        },
        {
          "Name": "advance",
          "State": 0,
          "Timestamp": 9100
        },
        {
          "Name": "advance",
          "State": 1,
          "Timestamp": 9396
        },
        {
          "Name": "advance",
          "State": 0,
          "Timestamp": 9556
        },
        {
          "Name": "advance",
          "State": 1,
          "Timestamp": 9853
        },
        {
          "Name": "advance",
          "State": 0,
          "Timestamp": 10013
        },
        {
          "Name": "advance",
          "State": 1,
          "Timestamp": 10311
        },
        {
          "Name": "advance",
          "State": 0,
          "Timestamp": 10471
        },
        {
          "Name": "advance",
          "State": 1,
          "Timestamp": 10769
        },
        {
          "Name": "advance",
          "State": 0,
          "Timestamp": 10929
        },
        {
          "Name": "advance",
          "State": 1,
          "Timestamp": 11226
        },
        {
          "Name": "advance",
          "State": 0,
          "Timestamp": 11386
        },
        {
          "Name": "advance",
          "State": 1,
          "Timestamp": 11684
        },
        {
          "Name": "advance",
          "State": 0,
          "Timestamp": 11844
        },
        {
          "Name": "advance",
          "State": 1,
          "Timestamp": 12141
        },
        {
          "Name": "advance",
          "State": 0,
          "Timestamp": 12301
        },
        {
          "Name": "advance",
          "State": 1,
          "Timestamp": 12598
        },
        {
          "Name": "advance",
          "State": 0,
          "Timestamp": 12760
        },
        {
          "Name": "advance",
          "State": 1,
          "Timestamp": 13058
        },
        {
          "Name": "advance",
          "State": 0,
          "Timestamp": 13217
        },
        {
          "Name": "advance",
          "State": 1,
          "Timestamp": 13514
        },
        {
          "Name": "advance",
          "State": 0,
          "Timestamp": 13676
        },
        {
          "Name": "advance",
          "State": 1,
          "Timestamp": 13975
        },
        {
          "Name": "advance",
          "State": 0,
          "Timestamp": 14136
        },
        {
          "Name": "advance",
          "State": 1,
          "Timestamp": 14433
        },
        {
          "Name": "advance",
          "State": 0,
          "Timestamp": 14594
        },
        {
          "Name": "advance",
          "State": 1,
          "Timestamp": 14892
        },
        {
          "Name": "advance",
          "State": 0,
          "Timestamp": 15057
        },
        {
          "Name": "advance",
          "State": 1,
          "Timestamp": 15358
        },
        {
          "Name": "advance",
          "State": 0,
          "Timestamp": 15518
        },
        {
          "Name": "advance",
          "State": 1,
          "Timestamp": 15818
        },
        {
          "Name": "advance",
          "State": 0,
          "Timestamp": 15980
        },
        {
          "Name": "advance",
          "State": 1,
          "Timestamp": 16279
        },
        {
          "Name": "advance",
          "State": 0,
          "Timestamp": 16440
        },
        {
          "Name": "advance",
          "State": 1,
          "Timestamp": 16740
        },
        {
          "Name": "advance",
          "State": 0,
          "Timestamp": 16903
        },
        {
          "Name": "advance",
          "State": 1,
          "Timestamp": 17201
        },
        {
          "Name": "advance",
          "State": 0,
          "Timestamp": 17374
        },
        {
          "Name": "advance",
          "State": 1,
          "Timestamp": 17684
        },
        {
          "Name": "advance",
          "State": 0,
          "Timestamp": 17845
        },
        {
          "Name": "advance",
          "State": 1,
          "Timestamp": 18144
        },
        {
          "Name": "advance",
          "State": 0,
          "Timestamp": 18306
        },
        {
          "Name": "advance",
          "State": 1,
          "Timestamp": 18604
        },
        {
          "Name": "advance",
          "State": 0,
          "Timestamp": 18767
        },
        {
          "Name": "advance",
          "State": 1,
          "Timestamp": 19064
        },
        {
          "Name": "advance",
          "State": 0,
          "Timestamp": 19226
        },
        {
          "Name": "advance",
          "State": 1,
          "Timestamp": 19523
        },
        {
          "Name": "advance",
          "State": 0,
          "Timestamp": 19684
        },
        {
          "Name": "advance",
          "State": 1,
          "Timestamp": 19984
        },
        {
          "Name": "advance",
          "State": 0,
          "Timestamp": 20145
        },
        {
          "Name": "advance",
          "State": 1,
          "Timestamp": 20444
        },
        {
          "Name": "advance",
          "State": 0,
          "Timestamp": 20604
        },
        {
          "Name": "advance",
          "State": 1,
          "Timestamp": 20917
        },
        {
          "Name": "advance",
          "State": 0,
          "Timestamp": 21091
        },
        {
          "Name": "advance",
          "State": 1,
          "Timestamp": 21389
        },
        {
          "Name": "advance",
          "State": 0,
          "Timestamp": 21548
        },
        {
          "Name": "advance",
          "State": 1,
          "Timestamp": 21845
        },
        {
          "Name": "advance",
          "State": 0,
          "Timestamp": 22004
        },
        {
          "Name": "advance",
          "State": 1,
          "Timestamp": 22301
        },
        {
          "Name": "advance",
          "State": 0,
          "Timestamp": 22472
        },
        {
          "Name": "advance",
          "State": 1,
          "Timestamp": 22782
        },
        {
          "Name": "advance",
          "State": 0,
          "Timestamp": 22942
        },
        {
          "Name": "advance",
          "State": 1,
          "Timestamp": 23240
        },
        {
          "Name": "advance",
          "State": 0,
          "Timestamp": 23400
        },
        {
          "Name": "advance",
          "State": 1,
          "Timestamp": 23698
        },
        {
          "Name": "advance",
          "State": 0,
          "Timestamp": 23870
        },
        {
          "Name": "advance",
          "State": 1,
          "Timestamp": 24179
        },
        {
          "Name": "advance",
          "State": 0,
          "Timestamp": 24339
        },
        {
          "Name": "advance",
          "State": 1,
          "Timestamp": 24636
        },
        {
          "Name": "advance",
          "State": 0,
          "Timestamp": 24797
        },
        {
          "Name": "advance",
          "State": 1,
          "Timestamp": 25095
        },
        {
          "Name": "advance",
          "State": 0,
          "Timestamp": 25266
        },
        {
          "Name": "advance",
          "State": 1,
          "Timestamp": 25575
        },
        {
          "Name": "advance",
          "State": 0,
          "Timestamp": 25738
        },
        {
          "Name": "advance",
          "State": 1,
          "Timestamp": 26041
        },
        {
          "Name": "advance",
          "State": 0,
          "Timestamp": 26209
        },
        {
          "Name": "advance",
          "State": 1,
          "Timestamp": 26520
        },
        {
          "Name": "advance",
          "State": 0,
          "Timestamp": 26695
        },
        {
          "Name": "advance",
          "State": 1,
          "Timestamp": 27005
        },
        {
          "Name": "advance",
          "State": 0,
          "Timestamp": 27166
        },
        {
          "Name": "advance",
          "State": 1,
          "Timestamp": 27465
        },
        {
          "Name": "advance",
          "State": 0,
          "Timestamp": 27625
        },
        {
          "Name": "advance",
          "State": 1,
          "Timestamp": 27926
        },
        {
          "Name": "advance",
          "State": 0,
          "Timestamp": 28097
        },
        {
          "Name": "advance",
          "State": 1,
          "Timestamp": 28406
        },
        {
          "Name": "advance",
          "State": 0,
          "Timestamp": 28566
        },
        {
          "Name": "advance",
          "State": 1,
          "Timestamp": 28865
        },
        {
          "Name": "advance",
          "State": 0,
          "Timestamp": 29025
        },
        {
          "Name": "advance",
          "State": 1,
          "Timestamp": 29323
        },
        {
          "Name": "advance",
          "State": 0,
          "Timestamp": 29495
        },
        {
          "Name": "advance",
          "State": 1,
          "Timestamp": 29806
        },
        {
          "Name": "advance",
          "State": 0,
          "Timestamp": 29968
        },
        {
          "Name": "advance",
          "State": 1,
          "Timestamp": 30266
        },
        {
          "Name": "advance",
          "State": 0,
          "Timestamp": 30434
        },
        {
          "Name": "advance",
          "State": 1,
          "Timestamp": 30744
        },
        {
          "Name": "advance",
          "State": 0,
          "Timestamp": 30915
        },
        {
          "Name": "advance",
          "State": 1,
          "Timestamp": 31223
        },
        {
          "Name": "advance",
          "State": 0,
          "Timestamp": 31383
        },
        {
          "Name": "advance",
          "State": 1,
          "Timestamp": 31680
        },
        {
          "Name": "advance",
          "State": 0,
          "Timestamp": 31840
        },
        {
          "Name": "advance",
          "State": 1,
          "Timestamp": 32137
        },
        {
          "Name": "advance",
          "State": 0,
          "Timestamp": 32138
        },
        {
          "Name": "advance/cpl.computeQuasiNewtonUpdate",
          "State": 1,
          "Timestamp": 709
        },
        {
          "Name": "advance/cpl.computeQuasiNewtonUpdate",
          "State": 0,
          "Timestamp": 709
        },
        {
          "Name": "advance/cpl.computeQuasiNewtonUpdate",
          "State": 1,
          "Timestamp": 1162
        },
        {
          "Name": "advance/cpl.computeQuasiNewtonUpdate",
          "State": 0,
          "Timestamp": 1162
        },
        {
          "Name": "advance/cpl.computeQuasiNewtonUpdate",
          "State": 1,
          "Timestamp": 1616
        },
        {
          "Name": "advance/cpl.computeQuasiNewtonUpdate",
          "State": 0,
          "Timestamp": 1616
        },
        {
          "Name": "advance/cpl.computeQuasiNewtonUpdate",
          "State": 1,
          "Timestamp": 2072
        },
        {
          "Name": "advance/cpl.computeQuasiNewtonUpdate",
          "State": 0,
          "Timestamp": 2072
        },
        {
          "Name": "advance/cpl.computeQuasiNewtonUpdate",
          "State": 1,
          "Timestamp": 2528
        },
        {
          "Name": "advance/cpl.computeQuasiNewtonUpdate",
          "State": 0,
          "Timestamp": 2528
        },
        {
          "Name": "advance/cpl.computeQuasiNewtonUpdate",
          "State": 1,
          "Timestamp": 2984
        },
        {
          "Name": "advance/cpl.computeQuasiNewtonUpdate",
          "State": 0,
          "Timestamp": 2984
        },
        {
          "Name": "advance/cpl.computeQuasiNewtonUpdate",
          "State": 1,
          "Timestamp": 3437
        },
        {
          "Name": "advance/cpl.computeQuasiNewtonUpdate",
          "State": 0,
          "Timestamp": 3437
        },
        {
          "Name": "advance/cpl.computeQuasiNewtonUpdate",
          "State": 1,
          "Timestamp": 3894
        },
        {
          "Name": "advance/cpl.computeQuasiNewtonUpdate",
          "State": 0,
          "Timestamp": 3894
        },
        {
          "Name": "advance/cpl.computeQuasiNewtonUpdate",
          "State": 1,
          "Timestamp": 4350
        },
        {
          "Name": "advance/cpl.computeQuasiNewtonUpdate",
          "State": 0,
          "Timestamp": 4350
        },
        {
          "Name": "advance/cpl.computeQuasiNewtonUpdate",
          "State": 1,
          "Timestamp": 4806
        },
        {
          "Name": "advance/cpl.computeQuasiNewtonUpdate",
          "State": 0,
          "Timestamp": 4806
        },
        {
          "Name": "advance/cpl.computeQuasiNewtonUpdate",
          "State": 1,
          "Timestamp": 5261
        },
        {
          "Name": "advance/cpl.computeQuasiNewtonUpdate",
          "State": 0,
          "Timestamp": 5261
        },
        {
          "Name": "advance/cpl.computeQuasiNewtonUpdate",
          "State": 1,
          "Timestamp": 5719
        },
        {
          "Name": "advance/cpl.computeQuasiNewtonUpdate",
          "State": 0,
          "Timestamp": 5719
        },
        {
          "Name": "advance/cpl.computeQuasiNewtonUpdate",
          "State": 1,
          "Timestamp": 6176
        },
        {
          "Name": "advance/cpl.computeQuasiNewtonUpdate",
          "State": 0,
          "Timestamp": 6176
        },
        {
          "Name": "advance/cpl.computeQuasiNewtonUpdate",
          "State": 1,
          "Timestamp": 6631
        },
        {
          "Name": "advance/cpl.computeQuasiNewtonUpdate",
          "State": 0,
          "Timestamp": 6631
        },
        {
          "Name": "advance/cpl.computeQuasiNewtonUpdate",
          "State": 1,
          "Timestamp": 7090
        },
        {
          "Name": "advance/cpl.computeQuasiNewtonUpdate",
          "State": 0,
          "Timestamp": 7090
        },
        {
          "Name": "advance/cpl.computeQuasiNewtonUpdate",
          "State": 1,
          "Timestamp": 7547
        },
        {
          "Name": "advance/cpl.computeQuasiNewtonUpdate",
          "State": 0,
          "Timestamp": 7547
        },
        {
          "Name": "advance/cpl.computeQuasiNewtonUpdate",
          "State": 1,
          "Timestamp": 8005
        },
        {
          "Name": "advance/cpl.computeQuasiNewtonUpdate",
          "State": 0,
          "Timestamp": 8005
        },
        {
          "Name": "advance/cpl.computeQuasiNewtonUpdate",
          "State": 1,
          "Timestamp": 8940
        },
        {
          "Name": "advance/cpl.computeQuasiNewtonUpdate",
          "State": 0,
          "Timestamp": 8940
        },
        {
          "Name": "advance/cpl.computeQuasiNewtonUpdate",
          "State": 1,
          "Timestamp": 9396
        },
        {
          "Name": "advance/cpl.computeQuasiNewtonUpdate",
          "State": 0,
          "Timestamp": 9396
        },
        {
          "Name": "advance/cpl.computeQuasiNewtonUpdate",
          "State": 1,
          "Timestamp": 9853
        },
        {
          "Name": "advance/cpl.computeQuasiNewtonUpdate",
          "State": 0,
          "Timestamp": 9853
        },
        {
          "Name": "advance/cpl.computeQuasiNewtonUpdate",
          "State": 1,
          "Timestamp": 10311
        },
        {
          "Name": "advance/cpl.computeQuasiNewtonUpdate",
          "State": 0,
          "Timestamp": 10311
        },
        {
          "Name": "advance/cpl.computeQuasiNewtonUpdate",
          "State": 1,
          "Timestamp": 10769
        },
        {
          "Name": "advance/cpl.computeQuasiNewtonUpdate",
          "State": 0,
          "Timestamp": 10769
        },
        {
          "Name": "advance/cpl.computeQuasiNewtonUpdate",
          "State": 1,
          "Timestamp": 11226
        },
        {
          "Name": "advance/cpl.computeQuasiNewtonUpdate",
          "State": 0,
          "Timestamp": 11226
        },
        {
          "Name": "advance/cpl.computeQuasiNewtonUpdate",
          "State": 1,
          "Timestamp": 11684
        },
        {
          "Name": "advance/cpl.computeQuasiNewtonUpdate",
          "State": 0,
          "Timestamp": 11684
        },
        {
          "Name": "advance/cpl.computeQuasiNewtonUpdate",
          "State": 1,
          "Timestamp": 12141
        },
        {
          "Name": "advance/cpl.computeQuasiNewtonUpdate",
          "State": 0,
          "Timestamp": 12141
        },
        {
          "Name": "advance/cpl.computeQuasiNewtonUpdate",
          "State": 1,
          "Timestamp": 12598
        },
        {
          "Name": "advance/cpl.computeQuasiNewtonUpdate",
          "State": 0,
          "Timestamp": 12598
        },
        {
          "Name": "advance/cpl.computeQuasiNewtonUpdate",
          "State": 1,
          "Timestamp": 13058
        },
        {
          "Name": "advance/cpl.computeQuasiNewtonUpdate",
          "State": 0,
          "Timestamp": 13058
        },
        {
          "Name": "advance/cpl.computeQuasiNewtonUpdate",
          "State": 1,
          "Timestamp": 13514
        },
        {
          "Name": "advance/cpl.computeQuasiNewtonUpdate",
          "State": 0,
          "Timestamp": 13514
        },
        {
          "Name": "advance/cpl.computeQuasiNewtonUpdate",
          "State": 1,
          "Timestamp": 13976
        },
        {
          "Name": "advance/cpl.computeQuasiNewtonUpdate",
          "State": 0,
          "Timestamp": 13976
        },
        {
          "Name": "advance/cpl.computeQuasiNewtonUpdate",
          "State": 1,
          "Timestamp": 14433
        },
        {
          "Name": "advance/cpl.computeQuasiNewtonUpdate",
          "State": 0,
          "Timestamp": 14434
        },
        {
          "Name": "advance/cpl.computeQuasiNewtonUpdate",
          "State": 1,
          "Timestamp": 14892
        },
        {
          "Name": "advance/cpl.computeQuasiNewtonUpdate",
          "State": 0,
          "Timestamp": 14892
        },
        {
          "Name": "advance/cpl.computeQuasiNewtonUpdate",
          "State": 1,
          "Timestamp": 15358
        },
        {
          "Name": "advance/cpl.computeQuasiNewtonUpdate",
          "State": 0,
          "Timestamp": 15359
        },
        {
          "Name": "advance/cpl.computeQuasiNewtonUpdate",
          "State": 1,
          "Timestamp": 15819
        },
        {
          "Name": "advance/cpl.computeQuasiNewtonUpdate",
          "State": 0,
          "Timestamp": 15819
        },
        {
          "Name": "advance/cpl.computeQuasiNewtonUpdate",
          "State": 1,
          "Timestamp": 16279
        },
        {
          "Name": "advance/cpl.computeQuasiNewtonUpdate",
          "State": 0,
          "Timestamp": 16279
        },
        {
          "Name": "advance/cpl.computeQuasiNewtonUpdate",
          "State": 1,
          "Timestamp": 16740
        },
        {
          "Name": "advance/cpl.computeQuasiNewtonUpdate",
          "State": 0,
          "Timestamp": 16740
        },
        {
          "Name": "advance/cpl.computeQuasiNewtonUpdate",
          "State": 1,
          "Timestamp": 17685
        },
        {
          "Name": "advance/cpl.computeQuasiNewtonUpdate",
          "State": 0,
          "Timestamp": 17685
        },
        {
          "Name": "advance/cpl.computeQuasiNewtonUpdate",
          "State": 1,
          "Timestamp": 18144
        },
        {
          "Name": "advance/cpl.computeQuasiNewtonUpdate",
          "State": 0,
          "Timestamp": 18144
        },
        {
          "Name": "advance/cpl.computeQuasiNewtonUpdate",
          "State": 1,
          "Timestamp": 18604
        },
        {
          "Name": "advance/cpl.computeQuasiNewtonUpdate",
          "State": 0,
          "Timestamp": 18604
        },
        {
          "Name": "advance/cpl.computeQuasiNewtonUpdate",
          "State": 1,
          "Timestamp": 19065
        },
        {
          "Name": "advance/cpl.computeQuasiNewtonUpdate",
          "State": 0,
          "Timestamp": 19065
        },
        {
          "Name": "advance/cpl.computeQuasiNewtonUpdate",
          "State": 1,
          "Timestamp": 19523
        },
        {
          "Name": "advance/cpl.computeQuasiNewtonUpdate",
          "State": 0,
          "Timestamp": 19523
        },
        {
          "Name": "advance/cpl.computeQuasiNewtonUpdate",
          "State": 1,
          "Timestamp": 19984
        },
        {
          "Name": "advance/cpl.computeQuasiNewtonUpdate",
          "State": 0,
          "Timestamp": 19985
        },
        {
          "Name": "advance/cpl.computeQuasiNewtonUpdate",
          "State": 1,
          "Timestamp": 20444
        },
        {
          "Name": "advance/cpl.computeQuasiNewtonUpdate",
          "State": 0,
          "Timestamp": 20444
        },
        {
          "Name": "advance/cpl.computeQuasiNewtonUpdate",
          "State": 1,
          "Timestamp": 20917
        },
        {
          "Name": "advance/cpl.computeQuasiNewtonUpdate",
          "State": 0,
          "Timestamp": 20917
        },
        {
          "Name": "advance/cpl.computeQuasiNewtonUpdate",
          "State": 1,
          "Timestamp": 21389
        },
        {
          "Name": "advance/cpl.computeQuasiNewtonUpdate",
          "State": 0,
          "Timestamp": 21389
        },
        {
          "Name": "advance/cpl.computeQuasiNewtonUpdate",
          "State": 1,
          "Timestamp": 21845
        },
        {
          "Name": "advance/cpl.computeQuasiNewtonUpdate",
          "State": 0,
          "Timestamp": 21845
        },
        {
          "Name": "advance/cpl.computeQuasiNewtonUpdate",
          "State": 1,
          "Timestamp": 22782
        },
        {
          "Name": "advance/cpl.computeQuasiNewtonUpdate",
          "State": 0,
          "Timestamp": 22782
        },
        {
          "Name": "advance/cpl.computeQuasiNewtonUpdate",
          "State": 1,
          "Timestamp": 23240
        },
        {
          "Name": "advance/cpl.computeQuasiNewtonUpdate",
          "State": 0,
          "Timestamp": 23240
        },
        {
          "Name": "advance/cpl.computeQuasiNewtonUpdate",
          "State": 1,
          "Timestamp": 24180
        },
        {
          "Name": "advance/cpl.computeQuasiNewtonUpdate",
          "State": 0,
          "Timestamp": 24180
        },
        {
          "Name": "advance/cpl.computeQuasiNewtonUpdate",
          "State": 1,
          "Timestamp": 24637
        },
        {
          "Name": "advance/cpl.computeQuasiNewtonUpdate",
          "State": 0,
          "Timestamp": 24637
        },
        {
          "Name": "advance/cpl.computeQuasiNewtonUpdate",
          "State": 1,
          "Timestamp": 25575
        },
        {
          "Name": "advance/cpl.computeQuasiNewtonUpdate",
          "State": 0,
          "Timestamp": 25575
        },
        {
          "Name": "advance/cpl.computeQuasiNewtonUpdate",
          "State": 1,
          "Timestamp": 26041
        },
        {
          "Name": "advance/cpl.computeQuasiNewtonUpdate",
          "State": 0,
          "Timestamp": 26041
        },
        {
          "Name": "advance/cpl.computeQuasiNewtonUpdate",
          "State": 1,
          "Timestamp": 27006
        },
        {
          "Name": "advance/cpl.computeQuasiNewtonUpdate",
          "State": 0,
          "Timestamp": 27006
        },
        {
          "Name": "advance/cpl.computeQuasiNewtonUpdate",
          "State": 1,
          "Timestamp": 27465
        },
        {
          "Name": "advance/cpl.computeQuasiNewtonUpdate",
          "State": 0,
          "Timestamp": 27465
        },
        {
          "Name": "advance/cpl.computeQuasiNewtonUpdate",
          "State": 1,
          "Timestamp": 28406
        },
        {
          "Name": "advance/cpl.computeQuasiNewtonUpdate",
          "State": 0,
          "Timestamp": 28406
        },
        {
          "Name": "advance/cpl.computeQuasiNewtonUpdate",
          "State": 1,
          "Timestamp": 28865
        },
        {
          "Name": "advance/cpl.computeQuasiNewtonUpdate",
          "State": 0,
          "Timestamp": 28865
        },
        {
          "Name": "advance/cpl.computeQuasiNewtonUpdate",
          "State": 1,
          "Timestamp": 29806
        },
        {
          "Name": "advance/cpl.computeQuasiNewtonUpdate",
          "State": 0,
          "Timestamp": 29806
        },
        {
          "Name": "advance/cpl.computeQuasiNewtonUpdate",
          "State": 1,
          "Timestamp": 30266
        },
        {
          "Name": "advance/cpl.computeQuasiNewtonUpdate",
          "State": 0,
          "Timestamp": 30266
        },
        {
          "Name": "advance/cpl.computeQuasiNewtonUpdate",
          "State": 1,
          "Timestamp": 31223
        },
        {
          "Name": "advance/cpl.computeQuasiNewtonUpdate",
          "State": 0,
          "Timestamp": 31223
        },
        {
          "Name": "advance/cpl.computeQuasiNewtonUpdate",
          "State": 1,
          "Timestamp": 31680
        },
        {
          "Name": "advance/cpl.computeQuasiNewtonUpdate",
          "State": 0,
          "Timestamp": 31680
        },
        {
          "Name": "configure",
          "State": 1,
          "Timestamp": 0
        },
        {
          "Name": "configure",
          "State": 0,
          "Timestamp": 0
        },
        {
          "Name": "finalize",
          "State": 1,
          "Timestamp": 32168
        },
        {
          "Name": "finalize",
          "State": 0,
          "Timestamp": 32169
        },
        {
          "Name": "initialize",
          "State": 1,
          "Timestamp": 4
        },
        {
          "Name": "initialize",
          "State": 0,
          "Timestamp": 21
        },
        {
          "Name": "initialize/m2n.acceptMasterConnection",
          "State": 1,
          "Timestamp": 4
        },
        {
          "Name": "initialize/m2n.acceptMasterConnection",
          "State": 0,
          "Timestamp": 21
        },
        {
          "Name": "initialize/m2n.acceptSlavesConnection",
          "State": 1,
          "Timestamp": 21
        },
        {
          "Name": "initialize/m2n.acceptSlavesConnection",
          "State": 0,
          "Timestamp": 21
        },
        {
          "Name": "initialize/partition.feedbackMesh.NeumannNodes",
          "State": 1,
          "Timestamp": 21
        },
        {
          "Name": "initialize/partition.feedbackMesh.NeumannNodes",
          "State": 0,
          "Timestamp": 21
        },
        {
          "Name": "initialize/partition.gatherMesh.NeumannNodes",
          "State": 1,
          "Timestamp": 21
        },
        {
          "Name": "initialize/partition.gatherMesh.NeumannNodes",
          "State": 0,
          "Timestamp": 21
        },
        {
          "Name": "initialize/partition.sendGlobalMesh.NeumannNodes",
          "State": 1,
          "Timestamp": 21
        },
        {
          "Name": "initialize/partition.sendGlobalMesh.NeumannNodes",
          "State": 0,
          "Timestamp": 21
        },
        {
          "Name": "initializeData",
          "State": 1,
          "Timestamp": 33
        },
        {
          "Name": "initializeData",
          "State": 0,
          "Timestamp": 353
        },
        {
          "Name": "solver.advance",
          "State": 1,
          "Timestamp": 868
        },
        {
          "Name": "solver.advance",
          "State": 0,
          "Timestamp": 1162
        },
        {
          "Name": "solver.advance",
          "State": 1,
          "Timestamp": 1321
        },
        {
          "Name": "solver.advance",
          "State": 0,
          "Timestamp": 1615
        },
        {
          "Name": "solver.advance",
          "State": 1,
          "Timestamp": 1777
        },
        {
          "Name": "solver.advance",
          "State": 0,
          "Timestamp": 2072
        },
        {
          "Name": "solver.advance",
          "State": 1,
          "Timestamp": 2231
        },
        {
          "Name": "solver.advance",
          "State": 0,
          "Timestamp": 2527
        },
        {
          "Name": "solver.advance",
          "State": 1,
          "Timestamp": 2688
        },
        {
          "Name": "solver.advance",
          "State": 0,
          "Timestamp": 2983
        },
        {
          "Name": "solver.advance",
          "State": 1,
          "Timestamp": 3143
        },
        {
          "Name": "solver.advance",
          "State": 0,
          "Timestamp": 3437
        },
        {
          "Name": "solver.advance",
          "State": 1,
          "Timestamp": 3596
        },
        {
          "Name": "solver.advance",
          "State": 0,
          "Timestamp": 3893
        },
        {
          "Name": "solver.advance",
          "State": 1,
          "Timestamp": 4054
        },
        {
          "Name": "solver.advance",
          "State": 0,
          "Timestamp": 4350
        },
        {
          "Name": "solver.advance",
          "State": 1,
          "Timestamp": 4509
        },
        {
          "Name": "solver.advance",
          "State": 0,
          "Timestamp": 4806
        },
        {
          "Name": "solver.advance",
          "State": 1,
          "Timestamp": 4965
        },
        {
          "Name": "solver.advance",
          "State": 0,
          "Timestamp": 5261
        },
        {
          "Name": "solver.advance",
          "State": 1,
          "Timestamp": 5421
        },
        {
          "Name": "solver.advance",
          "State": 0,
          "Timestamp": 5719
        },
        {
          "Name": "solver.advance",
          "State": 1,
          "Timestamp": 5879
        },
        {
          "Name": "solver.advance",
          "State": 0,
          "Timestamp": 6175
        },
        {
          "Name": "solver.advance",
          "State": 1,
          "Timestamp": 6335
        },
        {
          "Name": "solver.advance",
          "State": 0,
          "Timestamp": 6631
        },
        {
          "Name": "solver.advance",
          "State": 1,
          "Timestamp": 6793
        },
        {
          "Name": "solver.advance",
          "State": 0,
          "Timestamp": 7090
        },
        {
          "Name": "solver.advance",
          "State": 1,
          "Timestamp": 7250
        },
        {
          "Name": "solver.advance",
          "State": 0,
          "Timestamp": 7546
        },
        {
          "Name": "solver.advance",
          "State": 1,
          "Timestamp": 7707
        },
        {
          "Name": "solver.advance",
          "State": 0,
          "Timestamp": 8005
        },
        {
          "Name": "solver.advance",
          "State": 1,
          "Timestamp": 8165
        },
        {
          "Name": "solver.advance",
          "State": 0,
          "Timestamp": 8461
        },
        {
          "Name": "solver.advance",
          "State": 1,
          "Timestamp": 8632
        },
        {
          "Name": "solver.advance",
          "State": 0,
          "Timestamp": 8939
        },
        {
          "Name": "solver.advance",
          "State": 1,
          "Timestamp": 9100
        },
        {
          "Name": "solver.advance",
          "State": 0,
          "Timestamp": 9396
        },
        {
          "Name": "solver.advance",
          "State": 1,
          "Timestamp": 9556
        },
        {
          "Name": "solver.advance",
          "State": 0,
          "Timestamp": 9853
        },
        {
          "Name": "solver.advance",
          "State": 1,
          "Timestamp": 10013
        },
        {
          "Name": "solver.advance",
          "State": 0,
          "Timestamp": 10311
        },
        {
          "Name": "solver.advance",
          "State": 1,
          "Timestamp": 10471
        },
        {
          "Name": "solver.advance",
          "State": 0,
          "Timestamp": 10769
        },
        {
          "Name": "solver.advance",
          "State": 1,
          "Timestamp": 10929
        },
        {
          "Name": "solver.advance",
          "State": 0,
          "Timestamp": 11226
        },
        {
          "Name": "solver.advance",
          "State": 1,
          "Timestamp": 11386
        },
        {
          "Name": "solver.advance",
          "State": 0,
          "Timestamp": 11684
        },
        {
          "Name": "solver.advance",
          "State": 1,
          "Timestamp": 11844
        },
        {
          "Name": "solver.advance",
          "State": 0,
          "Timestamp": 12141
        },
        {
          "Name": "solver.advance",
          "State": 1,
          "Timestamp": 12301
        },
        {
          "Name": "solver.advance",
          "State": 0,
          "Timestamp": 12598
        },
        {
          "Name": "solver.advance",
          "State": 1,
          "Timestamp": 12760
        },
        {
          "Name": "solver.advance",
          "State": 0,
          "Timestamp": 13058
        },
        {
          "Name": "solver.advance",
          "State": 1,
          "Timestamp": 13217
        },
        {
          "Name": "solver.advance",
          "State": 0,
          "Timestamp": 13514
        },
        {
          "Name": "solver.advance",
          "State": 1,
          "Timestamp": 13676
        },
        {
          "Name": "solver.advance",
          "State": 0,
          "Timestamp": 13975
        },
        {
          "Name": "solver.advance",
          "State": 1,
          "Timestamp": 14136
        },
        {
          "Name": "solver.advance",
          "State": 0,
          "Timestamp": 14433
        },
        {
          "Name": "solver.advance",
          "State": 1,
          "Timestamp": 14594
        },
        {
          "Name": "solver.advance",
          "State": 0,
          "Timestamp": 14892
        },
        {
          "Name": "solver.advance",
          "State": 1,
          "Timestamp": 15057
        },
        {
          "Name": "solver.advance",
          "State": 0,
          "Timestamp": 15358
        },
        {
          "Name": "solver.advance",
          "State": 1,
          "Timestamp": 15518
        },
        {
          "Name": "solver.advance",
          "State": 0,
          "Timestamp": 15818
        },
        {
          "Name": "solver.advance",
          "State": 1,
          "Timestamp": 15980
        },
        {
          "Name": "solver.advance",
          "State": 0,
          "Timestamp": 16279
        },
        {
          "Name": "solver.advance",
          "State": 1,
          "Timestamp": 16440
        },
        {
          "Name": "solver.advance",
          "State": 0,
          "Timestamp": 16740
        },
        {
          "Name": "solver.advance",
          "State": 1,
          "Timestamp": 16903
        },
        {
          "Name": "solver.advance",
          "State": 0,
          "Timestamp": 17201
        },
        {
          "Name": "solver.advance",
          "State": 1,
          "Timestamp": 17374
        },
        {
          "Name": "solver.advance",
          "State": 0,
          "Timestamp": 17684
        },
        {
          "Name": "solver.advance",
          "State": 1,
          "Timestamp": 17845
        },
        {
          "Name": "solver.advance",
          "State": 0,
          "Timestamp": 18144
        },
        {
          "Name": "solver.advance",
          "State": 1,
          "Timestamp": 18306
        },
        {
          "Name": "solver.advance",
          "State": 0,
          "Timestamp": 18604
        },
        {
          "Name": "solver.advance",
          "State": 1,
          "Timestamp": 18767
        },
        {
          "Name": "solver.advance",
          "State": 0,
          "Timestamp": 19064
        },
        {
          "Name": "solver.advance",
          "State": 1,
          "Timestamp": 19226
        },
        {
          "Name": "solver.advance",
          "State": 0,
          "Timestamp": 19523
        },
        {
          "Name": "solver.advance",
          "State": 1,
          "Timestamp": 19684
        },
        {
          "Name": "solver.advance",
          "State": 0,
          "Timestamp": 19984
        },
        {
          "Name": "solver.advance",
          "State": 1,
          "Timestamp": 20145
        },
        {
          "Name": "solver.advance",
          "State": 0,
          "Timestamp": 20444
        },
        {
          "Name": "solver.advance",
          "State": 1,
          "Timestamp": 20604
        },
        {
          "Name": "solver.advance",
          "State": 0,
          "Timestamp": 20917
        },
        {
          "Name": "solver.advance",
          "State": 1,
          "Timestamp": 21091
        },
        {
          "Name": "solver.advance",
          "State": 0,
          "Timestamp": 21389
        },
        {
          "Name": "solver.advance",
          "State": 1,
          "Timestamp": 21548
        },
        {
          "Name": "solver.advance",
          "State": 0,
          "Timestamp": 21845
        },
        {
          "Name": "solver.advance",
          "State": 1,
          "Timestamp": 22004
        },
        {
          "Name": "solver.advance",
          "State": 0,
          "Timestamp": 22301
        },
        {
          "Name": "solver.advance",
          "State": 1,
          "Timestamp": 22472
        },
        {
          "Name": "solver.advance",
          "State": 0,
          "Timestamp": 22782
        },
        {
          "Name": "solver.advance",
          "State": 1,
          "Timestamp": 22942
        },
        {
          "Name": "solver.advance",
          "State": 0,
          "Timestamp": 23240
        },
        {
          "Name": "solver.advance",
          "State": 1,
          "Timestamp": 23400
        },
        {
          "Name": "solver.advance",
          "State": 0,
          "Timestamp": 23698
        },
        {
          "Name": "solver.advance",
          "State": 1,
          "Timestamp": 23870
        },
        {
          "Name": "solver.advance",
          "State": 0,
          "Timestamp": 24179
        },
        {
          "Name": "solver.advance",
          "State": 1,
          "Timestamp": 24339
        },
        {
          "Name": "solver.advance",
          "State": 0,
          "Timestamp": 24636
        },
        {
          "Name": "solver.advance",
          "State": 1,
          "Timestamp": 24797
        },
        {
          "Name": "solver.advance",
          "State": 0,
          "Timestamp": 25095
        },
        {
          "Name": "solver.advance",
          "State": 1,
          "Timestamp": 25266
        },
        {
          "Name": "solver.advance",
          "State": 0,
          "Timestamp": 25575
        },
        {
          "Name": "solver.advance",
          "State": 1,
          "Timestamp": 25738
        },
        {
          "Name": "solver.advance",
          "State": 0,
          "Timestamp": 26041
        },
        {
          "Name": "solver.advance",
          "State": 1,
          "Timestamp": 26209
        },
        {
          "Name": "solver.advance",
          "State": 0,
          "Timestamp": 26520
        },
        {
          "Name": "solver.advance",
          "State": 1,
          "Timestamp": 26695
        },
        {
          "Name": "solver.advance",
          "State": 0,
          "Timestamp": 27005
        },
        {
          "Name": "solver.advance",
          "State": 1,
          "Timestamp": 27166
        },
        {
          "Name": "solver.advance",
          "State": 0,
          "Timestamp": 27465
        },
        {
          "Name": "solver.advance",
          "State": 1,
          "Timestamp": 27625
        },
        {
          "Name": "solver.advance",
          "State": 0,
          "Timestamp": 27926
        },
        {
          "Name": "solver.advance",
          "State": 1,
          "Timestamp": 28097
        },
        {
          "Name": "solver.advance",
          "State": 0,
          "Timestamp": 28406
        },
        {
          "Name": "solver.advance",
          "State": 1,
          "Timestamp": 28566
        },
        {
          "Name": "solver.advance",
          "State": 0,
          "Timestamp": 28865
        },
        {
          "Name": "solver.advance",
          "State": 1,
          "Timestamp": 29025
        },
        {
          "Name": "solver.advance",
          "State": 0,
          "Timestamp": 29323
        },
        {
          "Name": "solver.advance",
          "State": 1,
          "Timestamp": 29495
        },
        {
          "Name": "solver.advance",
          "State": 0,
          "Timestamp": 29806
        },
        {
          "Name": "solver.advance",
          "State": 1,
          "Timestamp": 29968
        },
        {
          "Name": "solver.advance",
          "State": 0,
          "Timestamp": 30266
        },
        {
          "Name": "solver.advance",
          "State": 1,
          "Timestamp": 30434
        },
        {
          "Name": "solver.advance",
          "State": 0,
          "Timestamp": 30744
        },
        {
          "Name": "solver.advance",
          "State": 1,
          "Timestamp": 30915
        },
        {
          "Name": "solver.advance",
          "State": 0,
          "Timestamp": 31223
        },
        {
          "Name": "solver.advance",
          "State": 1,
          "Timestamp": 31383
        },
        {
          "Name": "solver.advance",
          "State": 0,
          "Timestamp": 31680
        },
        {
          "Name": "solver.advance",
          "State": 1,
          "Timestamp": 31840
        },
        {
          "Name": "solver.advance",
          "State": 0,
          "Timestamp": 32137
        },
        {
          "Name": "solver.advance",
          "State": 1,
          "Timestamp": 32138
        },
        {
          "Name": "solver.advance",
          "State": 0,
          "Timestamp": 32168
        },
        {
          "Name": "solver.initialize",
          "State": 1,
          "Timestamp": 0
        },
        {
          "Name": "solver.initialize",
          "State": 2,
          "Timestamp": 4
        },
        {
          "Name": "solver.initialize",
          "State": 1,
          "Timestamp": 21
        },
        {
          "Name": "solver.initialize",
          "State": 2,
          "Timestamp": 33
        },
        {
          "Name": "solver.initialize",
          "State": 1,
          "Timestamp": 353
        },
        {
          "Name": "solver.initialize",
          "State": 0,
          "Timestamp": 709
        }
      ],
      "Timings": {
        "_GLOBAL": {
          "Count": 1,
          "Data": {},
          "Max": 32169,
          "Min": 32169,
          "TimeRatio": 1.0,
          "Total": 32169
        },
        "advance": {
          "Count": 69,
          "Data": {},
          "Max": 174,
          "Min": 0,
          "TimeRatio": 0.34352948490783053,
          "Total": 11051
        },
        "advance/cpl.computeQuasiNewtonUpdate": {
          "Count": 59,
          "Data": {},
          "Max": 0,
          "Min": 0,
          "TimeRatio": 3.108582797102801e-05,
          "Total": 1
        },
        "configure": {
          "Count": 1,
          "Data": {},
          "Max": 0,
          "Min": 0,
          "TimeRatio": 0.0,
          "Total": 0
        },
        "finalize": {
          "Count": 1,
          "Data": {},
          "Max": 0,
          "Min": 0,
          "TimeRatio": 0.0,
          "Total": 0
        },
        "initialize": {
          "Count": 1,
          "Data": {},
          "Max": 17,
          "Min": 17,
          "TimeRatio": 0.0005284590755074761,
          "Total": 17
        },
        "initialize/m2n.acceptMasterConnection": {
          "Count": 1,
          "Data": {},
          "Max": 17,
          "Min": 17,
          "TimeRatio": 0.0005284590755074761,
          "Total": 17
        },
        "initialize/m2n.acceptSlavesConnection": {
          "Count": 1,
          "Data": {},
          "Max": 0,
          "Min": 0,
          "TimeRatio": 0.0,
          "Total": 0
        },
        "initialize/partition.feedbackMesh.NeumannNodes": {
          "Count": 1,
          "Data": {},
          "Max": 0,
          "Min": 0,
          "TimeRatio": 0.0,
          "Total": 0
        },
        "initialize/partition.gatherMesh.NeumannNodes": {
          "Count": 1,
          "Data": {},
          "Max": 0,
          "Min": 0,
          "TimeRatio": 0.0,
          "Total": 0
        },
        "initialize/partition.sendGlobalMesh.NeumannNodes": {
          "Count": 1,
          "Data": {},
          "Max": 0,
          "Min": 0,
          "TimeRatio": 0.0,
          "Total": 0
        },
        "initializeData": {
          "Count": 1,
          "Data": {},
          "Max": 319,
          "Min": 319,
          "TimeRatio": 0.009916379122757935,
          "Total": 319
        },
        "solver.advance": {
          "Count": 69,
          "Data": {},
          "Max": 312,
          "Min": 30,
          "TimeRatio": 0.6343995772327395,
          "Total": 20408
        },
        "solver.initialize": {
          "Count": 1,
          "Data": {},
          "Max": 371,
          "Min": 371,
          "TimeRatio": 0.01153284217725139,
          "Total": 371
        }
      }
    }
  ]
}
