Timesteps  Total_Iterations  Iterations  Convergence  avgConvRate(0)  avgConvRate(1)  avgConvRate(2)  avgConvRate(3)  deleted_Columns  
1  19  19  1  0.1710167035507904  0.1710216326138751  0.2023865062130719  0.1984051184015006  1  
2  38  19  1  0.1725542164450170  0.1745375826634155  0.2120485880323742  0.2166455164245835  1  
3  55  17  1  0.1443137185908235  0.1482982758934141  0.1729729690590872  0.1784925877236885  1  
4  72  17  1  0.1476795463218765  0.1529281028156762  0.1772203868937795  0.1825330721768024  1  